2023-07-04T18:39:58.037Z,redis-exporter-dev-team,network_out,12899
2023-07-04T18:39:58.055Z,blackbox-exporter,network_out,55861
2023-07-04T18:39:58.055Z,redis-exporter-dbops-team,network_out,7136
2023-07-04T18:40:08.383Z,redis-exporter-dev-team,network_out,12899
2023-07-04T18:40:08.398Z,redis-exporter-dbops-team,network_out,13441
2023-07-04T18:40:08.398Z,blackbox-exporter,network_out,55861
2023-07-04T18:40:18.398Z,blackbox-exporter,network_out,72959
2023-07-04T18:40:18.398Z,redis-exporter-dbops-team,network_out,13573
2023-07-04T18:40:18.383Z,redis-exporter-dev-team,network_out,13143
2023-07-04T18:40:28.398Z,redis-exporter-dbops-team,network_out,13573
2023-07-04T18:40:28.383Z,redis-exporter-dev-team,network_out,13143
2023-07-04T18:40:28.398Z,blackbox-exporter,network_out,72959
2023-07-04T18:40:38.398Z,redis-exporter-dbops-team,network_out,13573
2023-07-04T18:40:38.383Z,redis-exporter-dev-team,network_out,13143
2023-07-04T18:40:38.398Z,blackbox-exporter,network_out,85049
2023-07-04T18:40:48.383Z,redis-exporter-dev-team,network_out,19537
2023-07-04T18:40:48.398Z,blackbox-exporter,network_out,110132
2023-07-04T18:40:48.398Z,redis-exporter-dbops-team,network_out,19864
2023-07-04T18:40:58.398Z,blackbox-exporter,network_out,129728
2023-07-04T18:40:58.398Z,redis-exporter-dbops-team,network_out,20038
2023-07-04T18:40:58.383Z,redis-exporter-dev-team,network_out,19669
2023-07-04T18:41:08.384Z,redis-exporter-dev-team,network_out,26170
2023-07-04T18:41:08.398Z,redis-exporter-dbops-team,network_out,20038
2023-07-04T18:41:08.398Z,blackbox-exporter,network_out,129728
2023-07-04T18:41:18.398Z,redis-exporter-dbops-team,network_out,26479
2023-07-04T18:41:18.383Z,redis-exporter-dev-team,network_out,26170
2023-07-04T18:41:18.398Z,blackbox-exporter,network_out,129728
2023-07-04T18:41:28.398Z,redis-exporter-dbops-team,network_out,26611
2023-07-04T18:41:28.383Z,redis-exporter-dev-team,network_out,26302
2023-07-04T18:41:28.398Z,blackbox-exporter,network_out,191049
2023-07-04T18:41:38.398Z,redis-exporter-dbops-team,network_out,26611
2023-07-04T18:41:38.383Z,redis-exporter-dev-team,network_out,32827
2023-07-04T18:41:38.398Z,blackbox-exporter,network_out,191049
2023-07-04T18:41:48.383Z,redis-exporter-dev-team,network_out,32827
2023-07-04T18:41:48.398Z,redis-exporter-dbops-team,network_out,33047
2023-07-04T18:41:48.398Z,blackbox-exporter,network_out,191049
2023-07-04T18:41:58.398Z,blackbox-exporter,network_out,215938
2023-07-04T18:41:58.398Z,redis-exporter-dbops-team,network_out,33179
2023-07-04T18:41:58.383Z,redis-exporter-dev-team,network_out,32959
2023-07-04T18:42:08.398Z,blackbox-exporter,network_out,215938
2023-07-04T18:42:08.398Z,redis-exporter-dbops-team,network_out,33179
2023-07-04T18:42:08.383Z,redis-exporter-dev-team,network_out,39498
2023-07-04T18:42:18.398Z,redis-exporter-dbops-team,network_out,39595
2023-07-04T18:42:18.398Z,blackbox-exporter,network_out,253747
2023-07-04T18:42:18.383Z,redis-exporter-dev-team,network_out,39498
2023-07-04T18:42:28.383Z,redis-exporter-dev-team,network_out,46130
2023-07-04T18:42:28.398Z,redis-exporter-dbops-team,network_out,39727
2023-07-04T18:42:28.398Z,blackbox-exporter,network_out,253747
2023-07-04T18:42:38.383Z,redis-exporter-dev-team,network_out,46130
2023-07-04T18:42:38.398Z,redis-exporter-dbops-team,network_out,46206
2023-07-04T18:42:38.398Z,blackbox-exporter,network_out,315781
2023-07-04T18:42:48.383Z,redis-exporter-dev-team,network_out,46172
2023-07-04T18:42:48.398Z,redis-exporter-dbops-team,network_out,46338
2023-07-04T18:42:48.398Z,blackbox-exporter,network_out,341032
2023-07-04T18:42:58.383Z,redis-exporter-dev-team,network_out,52805
2023-07-04T18:42:58.398Z,blackbox-exporter,network_out,341032
2023-07-04T18:42:58.398Z,redis-exporter-dbops-team,network_out,52764
2023-07-04T18:43:08.398Z,redis-exporter-dbops-team,network_out,52764
2023-07-04T18:43:08.383Z,redis-exporter-dev-team,network_out,52805
2023-07-04T18:43:08.398Z,blackbox-exporter,network_out,341032
2023-07-04T18:43:18.398Z,blackbox-exporter,network_out,385669
2023-07-04T18:43:18.383Z,redis-exporter-dev-team,network_out,52847
2023-07-04T18:43:18.398Z,redis-exporter-dbops-team,network_out,52764
2023-07-04T18:43:28.383Z,redis-exporter-dev-team,network_out,52847
2023-07-04T18:43:28.398Z,redis-exporter-dbops-team,network_out,53008
2023-07-04T18:43:28.398Z,blackbox-exporter,network_out,413151
2023-07-04T18:43:38.398Z,redis-exporter-dbops-team,network_out,59458
2023-07-04T18:43:38.398Z,blackbox-exporter,network_out,463680
2023-07-04T18:43:38.383Z,redis-exporter-dev-team,network_out,59747
2023-07-04T18:43:48.383Z,redis-exporter-dev-team,network_out,59747
2023-07-04T18:43:48.398Z,redis-exporter-dbops-team,network_out,59590
2023-07-04T18:43:48.398Z,blackbox-exporter,network_out,491530
2023-07-04T18:43:58.398Z,redis-exporter-dbops-team,network_out,59590
2023-07-04T18:43:58.398Z,blackbox-exporter,network_out,491530
2023-07-04T18:43:58.383Z,redis-exporter-dev-team,network_out,59747
2023-07-04T18:44:08.398Z,blackbox-exporter,network_out,491530
2023-07-04T18:44:08.383Z,redis-exporter-dev-team,network_out,66272
2023-07-04T18:44:08.398Z,redis-exporter-dbops-team,network_out,66070
2023-07-04T18:44:18.398Z,blackbox-exporter,network_out,544592
2023-07-04T18:44:18.383Z,redis-exporter-dev-team,network_out,66272
2023-07-04T18:44:18.398Z,redis-exporter-dbops-team,network_out,66070
2023-07-04T18:44:28.398Z,blackbox-exporter,network_out,576028
2023-07-04T18:44:28.398Z,redis-exporter-dbops-team,network_out,66202
2023-07-04T18:44:28.383Z,redis-exporter-dev-team,network_out,73040
2023-07-04T18:44:38.383Z,redis-exporter-dev-team,network_out,73040
2023-07-04T18:44:38.398Z,blackbox-exporter,network_out,627745
2023-07-04T18:44:38.398Z,redis-exporter-dbops-team,network_out,72674
2023-07-04T18:44:48.398Z,blackbox-exporter,network_out,662930
2023-07-04T18:44:48.398Z,redis-exporter-dbops-team,network_out,72806
2023-07-04T18:44:48.383Z,redis-exporter-dev-team,network_out,73172
2023-07-04T18:44:58.383Z,redis-exporter-dev-team,network_out,73172
2023-07-04T18:44:58.398Z,redis-exporter-dbops-team,network_out,72806
2023-07-04T18:44:58.398Z,blackbox-exporter,network_out,662930
2023-07-04T18:45:08.398Z,redis-exporter-dbops-team,network_out,72848
2023-07-04T18:45:08.383Z,redis-exporter-dev-team,network_out,79760
2023-07-04T18:45:08.398Z,blackbox-exporter,network_out,662930
2023-07-04T18:45:18.398Z,redis-exporter-dbops-team,network_out,72848
2023-07-04T18:45:18.398Z,blackbox-exporter,network_out,718433
2023-07-04T18:45:18.383Z,redis-exporter-dev-team,network_out,79760
2023-07-04T18:45:28.383Z,redis-exporter-dev-team,network_out,86475
2023-07-04T18:45:28.398Z,blackbox-exporter,network_out,750300
2023-07-04T18:45:28.398Z,redis-exporter-dbops-team,network_out,79332
2023-07-04T18:45:38.398Z,blackbox-exporter,network_out,807597
2023-07-04T18:45:38.383Z,redis-exporter-dev-team,network_out,86475
2023-07-04T18:45:38.398Z,redis-exporter-dbops-team,network_out,85935
2023-07-04T18:45:48.398Z,redis-exporter-dbops-team,network_out,86067
2023-07-04T18:45:48.383Z,redis-exporter-dev-team,network_out,86475
2023-07-04T18:45:48.398Z,blackbox-exporter,network_out,807597
2023-07-04T18:45:58.398Z,blackbox-exporter,network_out,807597
2023-07-04T18:45:58.398Z,redis-exporter-dbops-team,network_out,86067
2023-07-04T18:45:58.383Z,redis-exporter-dev-team,network_out,86607
2023-07-04T18:46:08.398Z,blackbox-exporter,network_out,862726
2023-07-04T18:46:08.398Z,redis-exporter-dbops-team,network_out,86109
2023-07-04T18:46:08.383Z,redis-exporter-dev-team,network_out,93163
2023-07-04T18:46:18.398Z,redis-exporter-dbops-team,network_out,92603
2023-07-04T18:46:18.383Z,redis-exporter-dev-team,network_out,93337
2023-07-04T18:46:18.398Z,blackbox-exporter,network_out,923451
2023-07-04T18:46:28.398Z,blackbox-exporter,network_out,950029
2023-07-04T18:46:28.383Z,redis-exporter-dev-team,network_out,93337
2023-07-04T18:46:28.398Z,redis-exporter-dbops-team,network_out,99223
2023-07-04T18:46:38.383Z,redis-exporter-dev-team,network_out,99891
2023-07-04T18:46:38.398Z,blackbox-exporter,network_out,1007566
2023-07-04T18:46:38.398Z,redis-exporter-dbops-team,network_out,99223
2023-07-04T18:46:48.382Z,redis-exporter-dev-team,network_out,99891
2023-07-04T18:46:48.398Z,blackbox-exporter,network_out,1007566
2023-07-04T18:46:48.398Z,redis-exporter-dbops-team,network_out,99223
2023-07-04T18:46:58.383Z,redis-exporter-dev-team,network_out,106599
2023-07-04T18:46:58.398Z,redis-exporter-dbops-team,network_out,99355
2023-07-04T18:46:58.398Z,blackbox-exporter,network_out,1007566
2023-07-04T18:47:08.383Z,redis-exporter-dev-team,network_out,106599
2023-07-04T18:47:08.398Z,redis-exporter-dbops-team,network_out,99397
2023-07-04T18:47:08.398Z,blackbox-exporter,network_out,1098355
2023-07-04T18:47:18.383Z,redis-exporter-dev-team,network_out,106641
2023-07-04T18:47:18.398Z,redis-exporter-dbops-team,network_out,99397
2023-07-04T18:47:18.398Z,blackbox-exporter,network_out,1098355
2023-07-04T18:47:28.398Z,redis-exporter-dbops-team,network_out,105965
2023-07-04T18:47:28.398Z,blackbox-exporter,network_out,1098355
2023-07-04T18:47:28.383Z,redis-exporter-dev-team,network_out,106641
2023-07-04T18:47:38.383Z,redis-exporter-dev-team,network_out,106773
2023-07-04T18:47:38.398Z,blackbox-exporter,network_out,1182205
2023-07-04T18:47:38.398Z,redis-exporter-dbops-team,network_out,112600
2023-07-04T18:47:48.398Z,blackbox-exporter,network_out,1182205
2023-07-04T18:47:48.398Z,redis-exporter-dbops-team,network_out,112600
2023-07-04T18:47:48.383Z,redis-exporter-dev-team,network_out,113598
2023-07-04T18:47:58.398Z,redis-exporter-dbops-team,network_out,112732
2023-07-04T18:47:58.398Z,blackbox-exporter,network_out,1182205
2023-07-04T18:47:58.383Z,redis-exporter-dev-team,network_out,120177
2023-07-04T18:48:08.398Z,redis-exporter-dbops-team,network_out,119289
2023-07-04T18:48:08.398Z,blackbox-exporter,network_out,1246259
2023-07-04T18:48:08.383Z,redis-exporter-dev-team,network_out,120219
2023-07-04T18:48:18.398Z,blackbox-exporter,network_out,1246259
2023-07-04T18:48:18.383Z,redis-exporter-dev-team,network_out,120219
2023-07-04T18:48:18.398Z,redis-exporter-dbops-team,network_out,119289
2023-07-04T18:48:28.398Z,redis-exporter-dbops-team,network_out,119289
2023-07-04T18:48:28.383Z,redis-exporter-dev-team,network_out,120351
2023-07-04T18:48:28.398Z,blackbox-exporter,network_out,1246259
2023-07-04T18:48:38.398Z,redis-exporter-dbops-team,network_out,119421
2023-07-04T18:48:38.398Z,blackbox-exporter,network_out,1299684
2023-07-04T18:48:38.384Z,redis-exporter-dev-team,network_out,120351
2023-07-04T18:48:48.398Z,blackbox-exporter,network_out,1360508
2023-07-04T18:48:48.398Z,redis-exporter-dbops-team,network_out,125955
2023-07-04T18:48:48.383Z,redis-exporter-dev-team,network_out,127124
2023-07-04T18:48:58.398Z,blackbox-exporter,network_out,1360508
2023-07-04T18:48:58.383Z,redis-exporter-dev-team,network_out,127124
2023-07-04T18:48:58.398Z,redis-exporter-dbops-team,network_out,125955
2023-07-04T18:49:08.398Z,blackbox-exporter,network_out,1387302
2023-07-04T18:49:08.398Z,redis-exporter-dbops-team,network_out,126129
2023-07-04T18:49:08.383Z,redis-exporter-dev-team,network_out,133774
2023-07-04T18:49:18.398Z,blackbox-exporter,network_out,1449427
2023-07-04T18:49:18.383Z,redis-exporter-dev-team,network_out,133906
2023-07-04T18:49:18.398Z,redis-exporter-dbops-team,network_out,132805
2023-07-04T18:49:28.398Z,blackbox-exporter,network_out,1478081
2023-07-04T18:49:28.383Z,redis-exporter-dev-team,network_out,133906
2023-07-04T18:49:28.398Z,redis-exporter-dbops-team,network_out,132805
2023-07-04T18:49:38.383Z,redis-exporter-dev-team,network_out,133906
2023-07-04T18:49:38.398Z,blackbox-exporter,network_out,1478081
2023-07-04T18:49:38.398Z,redis-exporter-dbops-team,network_out,139364
2023-07-04T18:49:48.383Z,redis-exporter-dev-team,network_out,140669
2023-07-04T18:49:48.398Z,blackbox-exporter,network_out,1478081
2023-07-04T18:49:48.398Z,redis-exporter-dbops-team,network_out,139364
2023-07-04T18:49:58.398Z,redis-exporter-dbops-team,network_out,139496
2023-07-04T18:49:58.383Z,redis-exporter-dev-team,network_out,140669
2023-07-04T18:49:58.398Z,blackbox-exporter,network_out,1537019
2023-07-04T18:50:08.383Z,redis-exporter-dev-team,network_out,140669
2023-07-04T18:50:08.398Z,blackbox-exporter,network_out,1565698
2023-07-04T18:50:08.398Z,redis-exporter-dbops-team,network_out,146101
2023-07-04T18:50:18.383Z,redis-exporter-dev-team,network_out,147308
2023-07-04T18:50:18.398Z,blackbox-exporter,network_out,1623073
2023-07-04T18:50:18.398Z,redis-exporter-dbops-team,network_out,146233
