2023-07-04T18:39:58.007Z,redis-cart,network_out,61516
2023-07-04T18:39:58.007Z,checkoutservice,network_out,22764
2023-07-04T18:39:58.037Z,emailservice,network_out,3078
2023-07-04T18:39:58.037Z,adservice,network_out,11974
2023-07-04T18:39:58.055Z,recommendationservice,network_out,33332
2023-07-04T18:39:58.055Z,paymentservice,network_out,2743
2023-07-04T18:39:58.007Z,productcatalogservice,network_out,479539
2023-07-04T18:39:58.055Z,currencyservice,network_out,73181
2023-07-04T18:40:08.398Z,currencyservice,network_out,121843
2023-07-04T18:40:08.373Z,frontend,network_out,1606852
2023-07-04T18:40:08.383Z,adservice,network_out,19323
2023-07-04T18:40:08.383Z,emailservice,network_out,4603
2023-07-04T18:40:08.373Z,shippingservice,network_out,18577
2023-07-04T18:40:08.398Z,recommendationservice,network_out,58981
2023-07-04T18:40:08.398Z,paymentservice,network_out,4393
2023-07-04T18:40:08.373Z,redis-cart,network_out,81999
2023-07-04T18:40:08.373Z,productcatalogservice,network_out,588115
2023-07-04T18:40:08.398Z,cartservice,network_out,57227
2023-07-04T18:40:08.373Z,checkoutservice,network_out,35436
2023-07-04T18:40:18.373Z,redis-cart,network_out,81999
2023-07-04T18:40:18.398Z,recommendationservice,network_out,76641
2023-07-04T18:40:18.398Z,currencyservice,network_out,121843
2023-07-04T18:40:18.398Z,paymentservice,network_out,4571
2023-07-04T18:40:18.373Z,checkoutservice,network_out,35436
2023-07-04T18:40:18.373Z,productcatalogservice,network_out,588115
2023-07-04T18:40:18.383Z,adservice,network_out,19323
2023-07-04T18:40:18.373Z,shippingservice,network_out,18577
2023-07-04T18:40:18.373Z,frontend,network_out,1606852
2023-07-04T18:40:18.383Z,emailservice,network_out,4739
2023-07-04T18:40:18.398Z,cartservice,network_out,74823
2023-07-04T18:40:28.373Z,redis-cart,network_out,81999
2023-07-04T18:40:28.373Z,shippingservice,network_out,26879
2023-07-04T18:40:28.383Z,emailservice,network_out,4739
2023-07-04T18:40:28.383Z,adservice,network_out,19323
2023-07-04T18:40:28.373Z,productcatalogservice,network_out,588115
2023-07-04T18:40:28.373Z,frontend,network_out,2041950
2023-07-04T18:40:28.398Z,recommendationservice,network_out,76641
2023-07-04T18:40:28.398Z,currencyservice,network_out,121843
2023-07-04T18:40:28.398Z,cartservice,network_out,74823
2023-07-04T18:40:28.373Z,checkoutservice,network_out,36973
2023-07-04T18:40:28.398Z,paymentservice,network_out,4571
2023-07-04T18:40:38.374Z,shippingservice,network_out,26879
2023-07-04T18:40:38.374Z,frontend,network_out,2041950
2023-07-04T18:40:38.374Z,productcatalogservice,network_out,742484
2023-07-04T18:40:38.398Z,recommendationservice,network_out,90165
2023-07-04T18:40:38.383Z,emailservice,network_out,4739
2023-07-04T18:40:38.398Z,currencyservice,network_out,166362
2023-07-04T18:40:38.374Z,checkoutservice,network_out,36973
2023-07-04T18:40:38.374Z,redis-cart,network_out,88926
2023-07-04T18:40:38.383Z,adservice,network_out,26603
2023-07-04T18:40:38.398Z,cartservice,network_out,90597
2023-07-04T18:40:38.398Z,paymentservice,network_out,4571
2023-07-04T18:40:48.398Z,paymentservice,network_out,5993
2023-07-04T18:40:48.398Z,cartservice,network_out,90597
2023-07-04T18:40:48.374Z,productcatalogservice,network_out,1022127
2023-07-04T18:40:48.398Z,currencyservice,network_out,192016
2023-07-04T18:40:48.374Z,frontend,network_out,2632322
2023-07-04T18:40:48.383Z,adservice,network_out,32925
2023-07-04T18:40:48.398Z,recommendationservice,network_out,90165
2023-07-04T18:40:48.374Z,redis-cart,network_out,128505
2023-07-04T18:40:48.374Z,checkoutservice,network_out,47190
2023-07-04T18:40:48.383Z,emailservice,network_out,6025
2023-07-04T18:40:48.374Z,shippingservice,network_out,40894
2023-07-04T18:40:58.373Z,frontend,network_out,2632322
2023-07-04T18:40:58.373Z,checkoutservice,network_out,47190
2023-07-04T18:40:58.373Z,redis-cart,network_out,128505
2023-07-04T18:40:58.383Z,adservice,network_out,40074
2023-07-04T18:40:58.398Z,recommendationservice,network_out,120666
2023-07-04T18:40:58.373Z,shippingservice,network_out,40894
2023-07-04T18:40:58.398Z,currencyservice,network_out,224075
2023-07-04T18:40:58.398Z,paymentservice,network_out,6143
2023-07-04T18:40:58.373Z,productcatalogservice,network_out,1022127
2023-07-04T18:40:58.383Z,emailservice,network_out,6306
2023-07-04T18:40:58.398Z,cartservice,network_out,102228
2023-07-04T18:41:08.373Z,productcatalogservice,network_out,1022127
2023-07-04T18:41:08.384Z,adservice,network_out,44992
2023-07-04T18:41:08.373Z,shippingservice,network_out,45718
2023-07-04T18:41:08.398Z,paymentservice,network_out,6143
2023-07-04T18:41:08.398Z,recommendationservice,network_out,120666
2023-07-04T18:41:08.373Z,frontend,network_out,3038993
2023-07-04T18:41:08.373Z,redis-cart,network_out,132933
2023-07-04T18:41:08.373Z,checkoutservice,network_out,47190
2023-07-04T18:41:08.398Z,cartservice,network_out,102228
2023-07-04T18:41:08.398Z,currencyservice,network_out,224075
2023-07-04T18:41:08.384Z,emailservice,network_out,7335
2023-07-04T18:41:18.398Z,recommendationservice,network_out,120666
2023-07-04T18:41:18.373Z,shippingservice,network_out,52904
2023-07-04T18:41:18.398Z,cartservice,network_out,123873
2023-07-04T18:41:18.398Z,currencyservice,network_out,273869
2023-07-04T18:41:18.383Z,emailservice,network_out,7335
2023-07-04T18:41:18.398Z,paymentservice,network_out,6143
2023-07-04T18:41:18.373Z,productcatalogservice,network_out,1287762
2023-07-04T18:41:18.373Z,frontend,network_out,3530716
2023-07-04T18:41:18.383Z,adservice,network_out,44992
2023-07-04T18:41:18.373Z,checkoutservice,network_out,78969
2023-07-04T18:41:18.373Z,redis-cart,network_out,179375
2023-07-04T18:41:28.373Z,productcatalogservice,network_out,1287762
2023-07-04T18:41:28.398Z,paymentservice,network_out,9633
2023-07-04T18:41:28.373Z,frontend,network_out,3530716
2023-07-04T18:41:28.398Z,cartservice,network_out,168115
2023-07-04T18:41:28.398Z,recommendationservice,network_out,164397
2023-07-04T18:41:28.373Z,shippingservice,network_out,52904
2023-07-04T18:41:28.373Z,checkoutservice,network_out,78969
2023-07-04T18:41:28.383Z,adservice,network_out,44992
2023-07-04T18:41:28.398Z,currencyservice,network_out,340366
2023-07-04T18:41:28.373Z,redis-cart,network_out,179375
2023-07-04T18:41:28.383Z,emailservice,network_out,7335
2023-07-04T18:41:38.398Z,currencyservice,network_out,340366
2023-07-04T18:41:38.383Z,adservice,network_out,61098
2023-07-04T18:41:38.373Z,productcatalogservice,network_out,1582547
2023-07-04T18:41:38.398Z,recommendationservice,network_out,164397
2023-07-04T18:41:38.373Z,shippingservice,network_out,65232
2023-07-04T18:41:38.398Z,paymentservice,network_out,9633
2023-07-04T18:41:38.383Z,emailservice,network_out,11335
2023-07-04T18:41:38.373Z,checkoutservice,network_out,78969
2023-07-04T18:41:38.373Z,frontend,network_out,4416273
2023-07-04T18:41:38.373Z,redis-cart,network_out,218493
2023-07-04T18:41:38.398Z,cartservice,network_out,168115
2023-07-04T18:41:48.398Z,cartservice,network_out,168115
2023-07-04T18:41:48.398Z,paymentservice,network_out,9633
2023-07-04T18:41:48.373Z,frontend,network_out,4416273
2023-07-04T18:41:48.383Z,adservice,network_out,61098
2023-07-04T18:41:48.373Z,checkoutservice,network_out,93036
2023-07-04T18:41:48.373Z,redis-cart,network_out,218493
2023-07-04T18:41:48.373Z,productcatalogservice,network_out,1582547
2023-07-04T18:41:48.398Z,recommendationservice,network_out,164397
2023-07-04T18:41:48.373Z,shippingservice,network_out,65232
2023-07-04T18:41:48.383Z,emailservice,network_out,11335
2023-07-04T18:41:48.398Z,currencyservice,network_out,383922
2023-07-04T18:41:58.374Z,frontend,network_out,5053877
2023-07-04T18:41:58.398Z,cartservice,network_out,197257
2023-07-04T18:41:58.374Z,checkoutservice,network_out,93764
2023-07-04T18:41:58.383Z,adservice,network_out,67558
2023-07-04T18:41:58.398Z,currencyservice,network_out,411767
2023-07-04T18:41:58.398Z,paymentservice,network_out,11205
2023-07-04T18:41:58.374Z,productcatalogservice,network_out,1739601
2023-07-04T18:41:58.374Z,shippingservice,network_out,72010
2023-07-04T18:41:58.374Z,redis-cart,network_out,224129
2023-07-04T18:41:58.383Z,emailservice,network_out,11335
2023-07-04T18:41:58.398Z,recommendationservice,network_out,200210
2023-07-04T18:42:08.373Z,redis-cart,network_out,247388
2023-07-04T18:42:08.398Z,cartservice,network_out,197257
2023-07-04T18:42:08.373Z,frontend,network_out,5543376
2023-07-04T18:42:08.373Z,shippingservice,network_out,79489
2023-07-04T18:42:08.398Z,currencyservice,network_out,411767
2023-07-04T18:42:08.398Z,recommendationservice,network_out,200210
2023-07-04T18:42:08.383Z,emailservice,network_out,11748
2023-07-04T18:42:08.373Z,productcatalogservice,network_out,1854764
2023-07-04T18:42:08.398Z,paymentservice,network_out,11205
2023-07-04T18:42:08.383Z,adservice,network_out,73863
2023-07-04T18:42:08.373Z,checkoutservice,network_out,102962
2023-07-04T18:42:18.398Z,recommendationservice,network_out,200210
2023-07-04T18:42:18.374Z,checkoutservice,network_out,104433
2023-07-04T18:42:18.383Z,adservice,network_out,80662
2023-07-04T18:42:18.383Z,emailservice,network_out,12753
2023-07-04T18:42:18.398Z,currencyservice,network_out,456025
2023-07-04T18:42:18.374Z,productcatalogservice,network_out,2047088
2023-07-04T18:42:18.374Z,shippingservice,network_out,82516
2023-07-04T18:42:18.398Z,paymentservice,network_out,11205
2023-07-04T18:42:18.398Z,cartservice,network_out,214866
2023-07-04T18:42:18.374Z,frontend,network_out,5952703
2023-07-04T18:42:18.374Z,redis-cart,network_out,268675
2023-07-04T18:42:28.398Z,cartservice,network_out,223890
2023-07-04T18:42:28.398Z,currencyservice,network_out,456025
2023-07-04T18:42:28.383Z,adservice,network_out,80662
2023-07-04T18:42:28.373Z,productcatalogservice,network_out,2047088
2023-07-04T18:42:28.373Z,shippingservice,network_out,82516
2023-07-04T18:42:28.373Z,checkoutservice,network_out,104433
2023-07-04T18:42:28.398Z,paymentservice,network_out,12063
2023-07-04T18:42:28.398Z,recommendationservice,network_out,220128
2023-07-04T18:42:28.383Z,emailservice,network_out,13579
2023-07-04T18:42:28.373Z,frontend,network_out,5952703
2023-07-04T18:42:28.373Z,redis-cart,network_out,268675
2023-07-04T18:42:38.383Z,adservice,network_out,80662
2023-07-04T18:42:38.398Z,paymentservice,network_out,14176
2023-07-04T18:42:38.373Z,shippingservice,network_out,88422
2023-07-04T18:42:38.373Z,productcatalogservice,network_out,2167633
2023-07-04T18:42:38.373Z,redis-cart,network_out,268675
2023-07-04T18:42:38.398Z,cartservice,network_out,244717
2023-07-04T18:42:38.398Z,currencyservice,network_out,523618
2023-07-04T18:42:38.373Z,frontend,network_out,5952703
2023-07-04T18:42:38.373Z,checkoutservice,network_out,104433
2023-07-04T18:42:38.383Z,emailservice,network_out,13579
2023-07-04T18:42:38.398Z,recommendationservice,network_out,243517
2023-07-04T18:42:48.374Z,checkoutservice,network_out,125438
2023-07-04T18:42:48.374Z,productcatalogservice,network_out,2389343
2023-07-04T18:42:48.383Z,emailservice,network_out,14972
2023-07-04T18:42:48.398Z,currencyservice,network_out,554278
2023-07-04T18:42:48.398Z,paymentservice,network_out,14176
2023-07-04T18:42:48.374Z,redis-cart,network_out,310272
2023-07-04T18:42:48.398Z,recommendationservice,network_out,254585
2023-07-04T18:42:48.398Z,cartservice,network_out,264054
2023-07-04T18:42:48.374Z,frontend,network_out,6418630
2023-07-04T18:42:48.374Z,shippingservice,network_out,88422
2023-07-04T18:42:48.383Z,adservice,network_out,87110
2023-07-04T18:42:58.374Z,frontend,network_out,6934825
2023-07-04T18:42:58.374Z,checkoutservice,network_out,132574
2023-07-04T18:42:58.383Z,emailservice,network_out,15319
2023-07-04T18:42:58.398Z,currencyservice,network_out,554278
2023-07-04T18:42:58.383Z,adservice,network_out,94690
2023-07-04T18:42:58.398Z,recommendationservice,network_out,265248
2023-07-04T18:42:58.398Z,cartservice,network_out,281122
2023-07-04T18:42:58.398Z,paymentservice,network_out,14872
2023-07-04T18:42:58.374Z,shippingservice,network_out,104357
2023-07-04T18:42:58.374Z,redis-cart,network_out,335922
2023-07-04T18:42:58.374Z,productcatalogservice,network_out,2522231
2023-07-04T18:43:08.374Z,shippingservice,network_out,104357
2023-07-04T18:43:08.398Z,currencyservice,network_out,554278
2023-07-04T18:43:08.374Z,redis-cart,network_out,335922
2023-07-04T18:43:08.374Z,productcatalogservice,network_out,2616243
2023-07-04T18:43:08.374Z,frontend,network_out,7215826
2023-07-04T18:43:08.383Z,emailservice,network_out,15319
2023-07-04T18:43:08.398Z,cartservice,network_out,281122
2023-07-04T18:43:08.398Z,paymentservice,network_out,14872
2023-07-04T18:43:08.383Z,adservice,network_out,94690
2023-07-04T18:43:08.398Z,recommendationservice,network_out,265248
2023-07-04T18:43:08.374Z,checkoutservice,network_out,137527
2023-07-04T18:43:18.373Z,frontend,network_out,7215826
2023-07-04T18:43:18.383Z,adservice,network_out,103218
2023-07-04T18:43:18.398Z,currencyservice,network_out,577295
2023-07-04T18:43:18.373Z,redis-cart,network_out,335922
2023-07-04T18:43:18.383Z,emailservice,network_out,17167
2023-07-04T18:43:18.373Z,checkoutservice,network_out,137527
2023-07-04T18:43:18.373Z,productcatalogservice,network_out,2616243
2023-07-04T18:43:18.398Z,recommendationservice,network_out,265248
2023-07-04T18:43:18.398Z,cartservice,network_out,281122
2023-07-04T18:43:18.373Z,shippingservice,network_out,104357
2023-07-04T18:43:18.398Z,paymentservice,network_out,16294
2023-07-04T18:43:28.383Z,emailservice,network_out,17167
2023-07-04T18:43:28.373Z,shippingservice,network_out,113638
2023-07-04T18:43:28.373Z,frontend,network_out,7749494
2023-07-04T18:43:28.373Z,productcatalogservice,network_out,2787983
2023-07-04T18:43:28.383Z,adservice,network_out,103218
2023-07-04T18:43:28.398Z,currencyservice,network_out,619133
2023-07-04T18:43:28.373Z,checkoutservice,network_out,151522
2023-07-04T18:43:28.373Z,redis-cart,network_out,360127
2023-07-04T18:43:28.398Z,recommendationservice,network_out,287955
2023-07-04T18:43:28.398Z,cartservice,network_out,310934
2023-07-04T18:43:28.398Z,paymentservice,network_out,16966
2023-07-04T18:43:38.374Z,productcatalogservice,network_out,2935589
2023-07-04T18:43:38.383Z,emailservice,network_out,17861
2023-07-04T18:43:38.374Z,redis-cart,network_out,360127
2023-07-04T18:43:38.398Z,paymentservice,network_out,16966
2023-07-04T18:43:38.374Z,checkoutservice,network_out,151522
2023-07-04T18:43:38.398Z,cartservice,network_out,310934
2023-07-04T18:43:38.398Z,currencyservice,network_out,652714
2023-07-04T18:43:38.374Z,frontend,network_out,8034988
2023-07-04T18:43:38.374Z,shippingservice,network_out,119080
2023-07-04T18:43:38.383Z,adservice,network_out,116166
2023-07-04T18:43:38.398Z,recommendationservice,network_out,306002
2023-07-04T18:43:48.383Z,emailservice,network_out,19105
2023-07-04T18:43:48.374Z,checkoutservice,network_out,162028
2023-07-04T18:43:48.374Z,shippingservice,network_out,122380
2023-07-04T18:43:48.398Z,currencyservice,network_out,695920
2023-07-04T18:43:48.398Z,paymentservice,network_out,18185
2023-07-04T18:43:48.398Z,cartservice,network_out,329147
2023-07-04T18:43:48.383Z,adservice,network_out,116166
2023-07-04T18:43:48.374Z,productcatalogservice,network_out,3094616
2023-07-04T18:43:48.398Z,recommendationservice,network_out,306002
2023-07-04T18:43:48.374Z,frontend,network_out,8377453
2023-07-04T18:43:48.374Z,redis-cart,network_out,405221
2023-07-04T18:43:58.383Z,emailservice,network_out,19105
2023-07-04T18:43:58.398Z,currencyservice,network_out,695920
2023-07-04T18:43:58.374Z,redis-cart,network_out,405221
2023-07-04T18:43:58.383Z,adservice,network_out,116166
2023-07-04T18:43:58.374Z,shippingservice,network_out,122380
2023-07-04T18:43:58.398Z,recommendationservice,network_out,306002
2023-07-04T18:43:58.374Z,frontend,network_out,8377453
2023-07-04T18:43:58.374Z,checkoutservice,network_out,162028
2023-07-04T18:43:58.374Z,productcatalogservice,network_out,3094616
2023-07-04T18:43:58.398Z,paymentservice,network_out,18185
2023-07-04T18:43:58.398Z,cartservice,network_out,329147
2023-07-04T18:44:08.374Z,frontend,network_out,9287113
2023-07-04T18:44:08.383Z,adservice,network_out,123721
2023-07-04T18:44:08.398Z,paymentservice,network_out,18293
2023-07-04T18:44:08.398Z,currencyservice,network_out,721336
2023-07-04T18:44:08.398Z,recommendationservice,network_out,322513
2023-07-04T18:44:08.398Z,cartservice,network_out,346355
2023-07-04T18:44:08.374Z,checkoutservice,network_out,182573
2023-07-04T18:44:08.374Z,shippingservice,network_out,129913
2023-07-04T18:44:08.383Z,emailservice,network_out,19452
2023-07-04T18:44:08.374Z,productcatalogservice,network_out,3277264
2023-07-04T18:44:08.374Z,redis-cart,network_out,445565
2023-07-04T18:44:18.383Z,emailservice,network_out,19452
2023-07-04T18:44:18.398Z,cartservice,network_out,346355
2023-07-04T18:44:18.398Z,recommendationservice,network_out,322513
2023-07-04T18:44:18.374Z,checkoutservice,network_out,182573
2023-07-04T18:44:18.383Z,adservice,network_out,123721
2023-07-04T18:44:18.398Z,currencyservice,network_out,721336
2023-07-04T18:44:18.398Z,paymentservice,network_out,18293
2023-07-04T18:44:18.374Z,shippingservice,network_out,139129
2023-07-04T18:44:18.374Z,productcatalogservice,network_out,3480349
2023-07-04T18:44:18.374Z,frontend,network_out,9287113
2023-07-04T18:44:18.374Z,redis-cart,network_out,450336
2023-07-04T18:44:28.374Z,shippingservice,network_out,145558
2023-07-04T18:44:28.374Z,checkoutservice,network_out,196909
2023-07-04T18:44:28.398Z,paymentservice,network_out,20662
2023-07-04T18:44:28.398Z,cartservice,network_out,369322
2023-07-04T18:44:28.383Z,adservice,network_out,139674
2023-07-04T18:44:28.383Z,emailservice,network_out,21771
2023-07-04T18:44:28.374Z,frontend,network_out,9927271
2023-07-04T18:44:28.374Z,productcatalogservice,network_out,3480349
2023-07-04T18:44:28.398Z,recommendationservice,network_out,347282
2023-07-04T18:44:28.398Z,currencyservice,network_out,779487
2023-07-04T18:44:28.374Z,redis-cart,network_out,450336
2023-07-04T18:44:38.374Z,frontend,network_out,9927271
2023-07-04T18:44:38.383Z,emailservice,network_out,22812
2023-07-04T18:44:38.374Z,productcatalogservice,network_out,3480349
2023-07-04T18:44:38.374Z,shippingservice,network_out,145558
2023-07-04T18:44:38.374Z,redis-cart,network_out,450336
2023-07-04T18:44:38.374Z,checkoutservice,network_out,196909
2023-07-04T18:44:38.383Z,adservice,network_out,148335
2023-07-04T18:44:38.398Z,cartservice,network_out,404462
2023-07-04T18:44:38.398Z,recommendationservice,network_out,378763
2023-07-04T18:44:38.398Z,currencyservice,network_out,809088
2023-07-04T18:44:38.398Z,paymentservice,network_out,21607
2023-07-04T18:44:48.374Z,productcatalogservice,network_out,3895465
2023-07-04T18:44:48.374Z,frontend,network_out,10365374
2023-07-04T18:44:48.398Z,currencyservice,network_out,852939
2023-07-04T18:44:48.383Z,adservice,network_out,148335
2023-07-04T18:44:48.383Z,emailservice,network_out,24403
2023-07-04T18:44:48.398Z,cartservice,network_out,404462
2023-07-04T18:44:48.374Z,shippingservice,network_out,149591
2023-07-04T18:44:48.398Z,paymentservice,network_out,23181
2023-07-04T18:44:48.398Z,recommendationservice,network_out,378763
2023-07-04T18:44:48.374Z,checkoutservice,network_out,201799
2023-07-04T18:44:48.374Z,redis-cart,network_out,496392
2023-07-04T18:44:58.383Z,adservice,network_out,148335
2023-07-04T18:44:58.398Z,cartservice,network_out,404462
2023-07-04T18:44:58.398Z,currencyservice,network_out,852939
2023-07-04T18:44:58.398Z,paymentservice,network_out,23181
2023-07-04T18:44:58.374Z,shippingservice,network_out,155492
2023-07-04T18:44:58.374Z,redis-cart,network_out,517165
2023-07-04T18:44:58.374Z,productcatalogservice,network_out,3895465
2023-07-04T18:44:58.374Z,frontend,network_out,10804401
2023-07-04T18:44:58.383Z,emailservice,network_out,24403
2023-07-04T18:44:58.398Z,recommendationservice,network_out,378763
2023-07-04T18:44:58.374Z,checkoutservice,network_out,212289
2023-07-04T18:45:08.398Z,currencyservice,network_out,852939
2023-07-04T18:45:08.398Z,paymentservice,network_out,23223
2023-07-04T18:45:08.373Z,productcatalogservice,network_out,3895465
2023-07-04T18:45:08.373Z,checkoutservice,network_out,212289
2023-07-04T18:45:08.383Z,adservice,network_out,157036
2023-07-04T18:45:08.373Z,frontend,network_out,10804401
2023-07-04T18:45:08.383Z,emailservice,network_out,24403
2023-07-04T18:45:08.398Z,cartservice,network_out,427033
2023-07-04T18:45:08.373Z,shippingservice,network_out,155492
2023-07-04T18:45:08.373Z,redis-cart,network_out,517165
2023-07-04T18:45:08.398Z,recommendationservice,network_out,396859
2023-07-04T18:45:18.373Z,shippingservice,network_out,155492
2023-07-04T18:45:18.383Z,adservice,network_out,157036
2023-07-04T18:45:18.373Z,redis-cart,network_out,537701
2023-07-04T18:45:18.383Z,emailservice,network_out,24403
2023-07-04T18:45:18.398Z,recommendationservice,network_out,414987
2023-07-04T18:45:18.373Z,frontend,network_out,11050476
2023-07-04T18:45:18.373Z,checkoutservice,network_out,212289
2023-07-04T18:45:18.373Z,productcatalogservice,network_out,3998688
2023-07-04T18:45:18.398Z,paymentservice,network_out,24081
2023-07-04T18:45:18.398Z,currencyservice,network_out,880068
2023-07-04T18:45:18.398Z,cartservice,network_out,434980
2023-07-04T18:45:28.398Z,cartservice,network_out,434980
2023-07-04T18:45:28.373Z,productcatalogservice,network_out,4142620
2023-07-04T18:45:28.373Z,shippingservice,network_out,159669
2023-07-04T18:45:28.373Z,redis-cart,network_out,537701
2023-07-04T18:45:28.398Z,currencyservice,network_out,919759
2023-07-04T18:45:28.373Z,checkoutservice,network_out,213760
2023-07-04T18:45:28.373Z,frontend,network_out,11050476
2023-07-04T18:45:28.398Z,recommendationservice,network_out,414987
2023-07-04T18:45:28.398Z,paymentservice,network_out,24081
2023-07-04T18:45:28.383Z,adservice,network_out,164181
2023-07-04T18:45:28.383Z,emailservice,network_out,25540
2023-07-04T18:45:38.374Z,productcatalogservice,network_out,4288254
2023-07-04T18:45:38.383Z,emailservice,network_out,25540
2023-07-04T18:45:38.374Z,checkoutservice,network_out,213826
2023-07-04T18:45:38.398Z,recommendationservice,network_out,450614
2023-07-04T18:45:38.398Z,cartservice,network_out,473617
2023-07-04T18:45:38.374Z,shippingservice,network_out,164571
2023-07-04T18:45:38.374Z,redis-cart,network_out,578051
2023-07-04T18:45:38.374Z,frontend,network_out,11618341
2023-07-04T18:45:38.383Z,adservice,network_out,164181
2023-07-04T18:45:38.398Z,currencyservice,network_out,944830
2023-07-04T18:45:38.398Z,paymentservice,network_out,25803
2023-07-04T18:45:48.374Z,checkoutservice,network_out,213826
2023-07-04T18:45:48.383Z,emailservice,network_out,27305
2023-07-04T18:45:48.398Z,paymentservice,network_out,25803
2023-07-04T18:45:48.374Z,shippingservice,network_out,164571
2023-07-04T18:45:48.398Z,cartservice,network_out,473617
2023-07-04T18:45:48.374Z,productcatalogservice,network_out,4288254
2023-07-04T18:45:48.374Z,frontend,network_out,11618341
2023-07-04T18:45:48.374Z,redis-cart,network_out,583038
2023-07-04T18:45:48.383Z,adservice,network_out,177191
2023-07-04T18:45:48.398Z,recommendationservice,network_out,450614
2023-07-04T18:45:48.398Z,currencyservice,network_out,970020
2023-07-04T18:45:58.383Z,emailservice,network_out,27305
2023-07-04T18:45:58.374Z,shippingservice,network_out,175817
2023-07-04T18:45:58.398Z,paymentservice,network_out,25803
2023-07-04T18:45:58.398Z,currencyservice,network_out,970020
2023-07-04T18:45:58.374Z,frontend,network_out,12709686
2023-07-04T18:45:58.383Z,adservice,network_out,180396
2023-07-04T18:45:58.374Z,productcatalogservice,network_out,4709323
2023-07-04T18:45:58.374Z,redis-cart,network_out,589745
2023-07-04T18:45:58.398Z,cartservice,network_out,473617
2023-07-04T18:45:58.398Z,recommendationservice,network_out,450614
2023-07-04T18:45:58.374Z,checkoutservice,network_out,242541
2023-07-04T18:46:08.374Z,frontend,network_out,12709686
2023-07-04T18:46:08.374Z,productcatalogservice,network_out,4709323
2023-07-04T18:46:08.398Z,currencyservice,network_out,1021783
2023-07-04T18:46:08.374Z,shippingservice,network_out,175817
2023-07-04T18:46:08.398Z,paymentservice,network_out,27066
2023-07-04T18:46:08.383Z,emailservice,network_out,29304
2023-07-04T18:46:08.374Z,checkoutservice,network_out,242541
2023-07-04T18:46:08.374Z,redis-cart,network_out,589745
2023-07-04T18:46:08.398Z,cartservice,network_out,502012
2023-07-04T18:46:08.398Z,recommendationservice,network_out,469087
2023-07-04T18:46:08.383Z,adservice,network_out,188470
2023-07-04T18:46:18.383Z,emailservice,network_out,30392
2023-07-04T18:46:18.398Z,recommendationservice,network_out,488623
2023-07-04T18:46:18.373Z,productcatalogservice,network_out,4844749
2023-07-04T18:46:18.373Z,redis-cart,network_out,628598
2023-07-04T18:46:18.373Z,frontend,network_out,13077381
2023-07-04T18:46:18.373Z,checkoutservice,network_out,251068
2023-07-04T18:46:18.398Z,cartservice,network_out,525498
2023-07-04T18:46:18.383Z,adservice,network_out,194684
2023-07-04T18:46:18.373Z,shippingservice,network_out,186479
2023-07-04T18:46:18.398Z,paymentservice,network_out,28640
2023-07-04T18:46:18.398Z,currencyservice,network_out,1060231
2023-07-04T18:46:28.383Z,emailservice,network_out,30392
2023-07-04T18:46:28.398Z,cartservice,network_out,538198
2023-07-04T18:46:28.398Z,paymentservice,network_out,28640
2023-07-04T18:46:28.374Z,shippingservice,network_out,192417
2023-07-04T18:46:28.398Z,currencyservice,network_out,1060231
2023-07-04T18:46:28.374Z,checkoutservice,network_out,252539
2023-07-04T18:46:28.374Z,frontend,network_out,13652700
2023-07-04T18:46:28.374Z,productcatalogservice,network_out,4994552
2023-07-04T18:46:28.383Z,adservice,network_out,194684
2023-07-04T18:46:28.398Z,recommendationservice,network_out,503178
2023-07-04T18:46:28.374Z,redis-cart,network_out,634363
2023-07-04T18:46:38.374Z,checkoutservice,network_out,252539
2023-07-04T18:46:38.374Z,redis-cart,network_out,634363
2023-07-04T18:46:38.383Z,adservice,network_out,202533
2023-07-04T18:46:38.398Z,paymentservice,network_out,28640
2023-07-04T18:46:38.398Z,cartservice,network_out,551093
2023-07-04T18:46:38.374Z,shippingservice,network_out,192417
2023-07-04T18:46:38.383Z,emailservice,network_out,30392
2023-07-04T18:46:38.374Z,frontend,network_out,13652700
2023-07-04T18:46:38.374Z,productcatalogservice,network_out,4994552
2023-07-04T18:46:38.398Z,recommendationservice,network_out,516701
2023-07-04T18:46:38.398Z,currencyservice,network_out,1101256
2023-07-04T18:46:48.398Z,cartservice,network_out,551093
2023-07-04T18:46:48.373Z,redis-cart,network_out,673491
2023-07-04T18:46:48.398Z,paymentservice,network_out,28640
2023-07-04T18:46:48.382Z,adservice,network_out,209501
2023-07-04T18:46:48.398Z,recommendationservice,network_out,516701
2023-07-04T18:46:48.373Z,frontend,network_out,14069939
2023-07-04T18:46:48.373Z,productcatalogservice,network_out,5251210
2023-07-04T18:46:48.382Z,emailservice,network_out,31529
2023-07-04T18:46:48.398Z,currencyservice,network_out,1101256
2023-07-04T18:46:48.373Z,shippingservice,network_out,194669
2023-07-04T18:46:48.373Z,checkoutservice,network_out,253199
2023-07-04T18:46:58.398Z,recommendationservice,network_out,516701
2023-07-04T18:46:58.383Z,adservice,network_out,220674
2023-07-04T18:46:58.383Z,emailservice,network_out,31529
2023-07-04T18:46:58.398Z,cartservice,network_out,551093
2023-07-04T18:46:58.373Z,checkoutservice,network_out,253199
2023-07-04T18:46:58.373Z,redis-cart,network_out,673491
2023-07-04T18:46:58.398Z,paymentservice,network_out,28640
2023-07-04T18:46:58.373Z,frontend,network_out,14069939
2023-07-04T18:46:58.373Z,productcatalogservice,network_out,5251210
2023-07-04T18:46:58.373Z,shippingservice,network_out,194669
2023-07-04T18:46:58.398Z,currencyservice,network_out,1135141
2023-07-04T18:47:08.383Z,adservice,network_out,220674
2023-07-04T18:47:08.374Z,redis-cart,network_out,682086
2023-07-04T18:47:08.374Z,shippingservice,network_out,204198
2023-07-04T18:47:08.398Z,currencyservice,network_out,1169546
2023-07-04T18:47:08.398Z,paymentservice,network_out,31430
2023-07-04T18:47:08.374Z,checkoutservice,network_out,264956
2023-07-04T18:47:08.374Z,frontend,network_out,14564452
2023-07-04T18:47:08.374Z,productcatalogservice,network_out,5416262
2023-07-04T18:47:08.383Z,emailservice,network_out,31529
2023-07-04T18:47:08.398Z,cartservice,network_out,591691
2023-07-04T18:47:08.398Z,recommendationservice,network_out,533041
2023-07-04T18:47:18.398Z,cartservice,network_out,591691
2023-07-04T18:47:18.398Z,recommendationservice,network_out,533041
2023-07-04T18:47:18.374Z,productcatalogservice,network_out,5549696
2023-07-04T18:47:18.383Z,emailservice,network_out,33509
2023-07-04T18:47:18.374Z,frontend,network_out,15046133
2023-07-04T18:47:18.383Z,adservice,network_out,220674
2023-07-04T18:47:18.374Z,redis-cart,network_out,725270
2023-07-04T18:47:18.398Z,currencyservice,network_out,1169546
2023-07-04T18:47:18.398Z,paymentservice,network_out,31430
2023-07-04T18:47:18.374Z,checkoutservice,network_out,270652
2023-07-04T18:47:18.374Z,shippingservice,network_out,215424
2023-07-04T18:47:28.398Z,recommendationservice,network_out,553844
2023-07-04T18:47:28.383Z,adservice,network_out,227610
2023-07-04T18:47:28.398Z,paymentservice,network_out,31430
2023-07-04T18:47:28.398Z,cartservice,network_out,591691
2023-07-04T18:47:28.373Z,redis-cart,network_out,725270
2023-07-04T18:47:28.373Z,shippingservice,network_out,215424
2023-07-04T18:47:28.383Z,emailservice,network_out,33509
2023-07-04T18:47:28.398Z,currencyservice,network_out,1216073
2023-07-04T18:47:28.373Z,checkoutservice,network_out,270652
2023-07-04T18:47:28.373Z,productcatalogservice,network_out,5549696
2023-07-04T18:47:28.373Z,frontend,network_out,15046133
2023-07-04T18:47:38.398Z,cartservice,network_out,615370
2023-07-04T18:47:38.398Z,paymentservice,network_out,32144
2023-07-04T18:47:38.374Z,frontend,network_out,15772472
2023-07-04T18:47:38.398Z,recommendationservice,network_out,585180
2023-07-04T18:47:38.374Z,checkoutservice,network_out,285570
2023-07-04T18:47:38.383Z,adservice,network_out,232228
2023-07-04T18:47:38.398Z,currencyservice,network_out,1251315
2023-07-04T18:47:38.374Z,shippingservice,network_out,215424
2023-07-04T18:47:38.374Z,redis-cart,network_out,745845
2023-07-04T18:47:38.374Z,productcatalogservice,network_out,5549696
2023-07-04T18:47:38.383Z,emailservice,network_out,34071
2023-07-04T18:47:48.398Z,currencyservice,network_out,1251315
2023-07-04T18:47:48.398Z,paymentservice,network_out,32144
2023-07-04T18:47:48.373Z,frontend,network_out,16097461
2023-07-04T18:47:48.398Z,recommendationservice,network_out,585180
2023-07-04T18:47:48.398Z,cartservice,network_out,615370
2023-07-04T18:47:48.373Z,redis-cart,network_out,770575
2023-07-04T18:47:48.373Z,checkoutservice,network_out,292872
2023-07-04T18:47:48.373Z,shippingservice,network_out,226080
2023-07-04T18:47:48.373Z,productcatalogservice,network_out,6014548
2023-07-04T18:47:48.383Z,emailservice,network_out,35704
2023-07-04T18:47:48.383Z,adservice,network_out,241080
2023-07-04T18:47:58.398Z,recommendationservice,network_out,585180
2023-07-04T18:47:58.374Z,redis-cart,network_out,794338
2023-07-04T18:47:58.374Z,productcatalogservice,network_out,6014548
2023-07-04T18:47:58.374Z,shippingservice,network_out,230982
2023-07-04T18:47:58.398Z,currencyservice,network_out,1292800
2023-07-04T18:47:58.398Z,paymentservice,network_out,33692
2023-07-04T18:47:58.398Z,cartservice,network_out,638150
2023-07-04T18:47:58.374Z,checkoutservice,network_out,299091
2023-07-04T18:47:58.383Z,emailservice,network_out,36051
2023-07-04T18:47:58.383Z,adservice,network_out,250124
2023-07-04T18:47:58.374Z,frontend,network_out,16563358
2023-07-04T18:48:08.383Z,adservice,network_out,255297
2023-07-04T18:48:08.373Z,checkoutservice,network_out,299091
2023-07-04T18:48:08.398Z,recommendationservice,network_out,597957
2023-07-04T18:48:08.373Z,frontend,network_out,16563358
2023-07-04T18:48:08.383Z,emailservice,network_out,36051
2023-07-04T18:48:08.373Z,redis-cart,network_out,794338
2023-07-04T18:48:08.373Z,productcatalogservice,network_out,6014548
2023-07-04T18:48:08.373Z,shippingservice,network_out,230982
2023-07-04T18:48:08.398Z,paymentservice,network_out,34074
2023-07-04T18:48:08.398Z,cartservice,network_out,651514
2023-07-04T18:48:08.398Z,currencyservice,network_out,1325878
2023-07-04T18:48:18.374Z,productcatalogservice,network_out,6147609
2023-07-04T18:48:18.374Z,frontend,network_out,16563358
2023-07-04T18:48:18.398Z,recommendationservice,network_out,597957
2023-07-04T18:48:18.398Z,cartservice,network_out,651514
2023-07-04T18:48:18.374Z,checkoutservice,network_out,299091
2023-07-04T18:48:18.383Z,adservice,network_out,255297
2023-07-04T18:48:18.398Z,paymentservice,network_out,34074
2023-07-04T18:48:18.398Z,currencyservice,network_out,1325878
2023-07-04T18:48:18.374Z,shippingservice,network_out,237169
2023-07-04T18:48:18.374Z,redis-cart,network_out,816255
2023-07-04T18:48:18.383Z,emailservice,network_out,36051
2023-07-04T18:48:28.398Z,recommendationservice,network_out,619212
2023-07-04T18:48:28.373Z,redis-cart,network_out,858324
2023-07-04T18:48:28.398Z,currencyservice,network_out,1368692
2023-07-04T18:48:28.398Z,paymentservice,network_out,35539
2023-07-04T18:48:28.373Z,checkoutservice,network_out,321829
2023-07-04T18:48:28.383Z,adservice,network_out,255297
2023-07-04T18:48:28.373Z,frontend,network_out,17426846
2023-07-04T18:48:28.373Z,shippingservice,network_out,244189
2023-07-04T18:48:28.383Z,emailservice,network_out,37403
2023-07-04T18:48:28.398Z,cartservice,network_out,676968
2023-07-04T18:48:28.373Z,productcatalogservice,network_out,6345374
2023-07-04T18:48:38.374Z,frontend,network_out,17426846
2023-07-04T18:48:38.384Z,adservice,network_out,264141
2023-07-04T18:48:38.398Z,recommendationservice,network_out,634096
2023-07-04T18:48:38.398Z,cartservice,network_out,696262
2023-07-04T18:48:38.384Z,emailservice,network_out,38229
2023-07-04T18:48:38.398Z,paymentservice,network_out,35581
2023-07-04T18:48:38.374Z,productcatalogservice,network_out,6540793
2023-07-04T18:48:38.374Z,shippingservice,network_out,247760
2023-07-04T18:48:38.398Z,currencyservice,network_out,1399305
2023-07-04T18:48:38.374Z,redis-cart,network_out,858324
2023-07-04T18:48:38.374Z,checkoutservice,network_out,321829
2023-07-04T18:48:48.373Z,productcatalogservice,network_out,6540793
2023-07-04T18:48:48.373Z,frontend,network_out,17426846
2023-07-04T18:48:48.398Z,currencyservice,network_out,1435221
2023-07-04T18:48:48.373Z,shippingservice,network_out,247760
2023-07-04T18:48:48.398Z,paymentservice,network_out,37003
2023-07-04T18:48:48.398Z,recommendationservice,network_out,648626
2023-07-04T18:48:48.373Z,redis-cart,network_out,858324
2023-07-04T18:48:48.373Z,checkoutservice,network_out,321829
2023-07-04T18:48:48.383Z,adservice,network_out,273528
2023-07-04T18:48:48.383Z,emailservice,network_out,39317
2023-07-04T18:48:48.398Z,cartservice,network_out,717891
2023-07-04T18:48:58.373Z,redis-cart,network_out,865891
2023-07-04T18:48:58.398Z,paymentservice,network_out,37003
2023-07-04T18:48:58.383Z,adservice,network_out,278771
2023-07-04T18:48:58.373Z,frontend,network_out,17972302
2023-07-04T18:48:58.373Z,productcatalogservice,network_out,6662217
2023-07-04T18:48:58.373Z,checkoutservice,network_out,323300
2023-07-04T18:48:58.398Z,cartservice,network_out,717891
2023-07-04T18:48:58.398Z,recommendationservice,network_out,648626
2023-07-04T18:48:58.383Z,emailservice,network_out,39317
2023-07-04T18:48:58.373Z,shippingservice,network_out,247760
2023-07-04T18:48:58.398Z,currencyservice,network_out,1435221
2023-07-04T18:49:08.398Z,paymentservice,network_out,37538
2023-07-04T18:49:08.374Z,frontend,network_out,18474419
2023-07-04T18:49:08.374Z,productcatalogservice,network_out,6662217
2023-07-04T18:49:08.383Z,adservice,network_out,284715
2023-07-04T18:49:08.374Z,shippingservice,network_out,254443
2023-07-04T18:49:08.374Z,checkoutservice,network_out,323300
2023-07-04T18:49:08.398Z,recommendationservice,network_out,669091
2023-07-04T18:49:08.398Z,currencyservice,network_out,1462846
2023-07-04T18:49:08.398Z,cartservice,network_out,717891
2023-07-04T18:49:08.374Z,redis-cart,network_out,865891
2023-07-04T18:49:08.383Z,emailservice,network_out,40537
2023-07-04T18:49:18.373Z,productcatalogservice,network_out,6864265
2023-07-04T18:49:18.373Z,shippingservice,network_out,261888
2023-07-04T18:49:18.373Z,frontend,network_out,19029138
2023-07-04T18:49:18.383Z,emailservice,network_out,40537
2023-07-04T18:49:18.398Z,recommendationservice,network_out,681600
2023-07-04T18:49:18.373Z,checkoutservice,network_out,344243
2023-07-04T18:49:18.373Z,redis-cart,network_out,911113
2023-07-04T18:49:18.383Z,adservice,network_out,284715
2023-07-04T18:49:18.398Z,paymentservice,network_out,39002
2023-07-04T18:49:18.398Z,cartservice,network_out,759632
2023-07-04T18:49:18.398Z,currencyservice,network_out,1494669
2023-07-04T18:49:28.383Z,adservice,network_out,284715
2023-07-04T18:49:28.374Z,productcatalogservice,network_out,7078635
2023-07-04T18:49:28.398Z,currencyservice,network_out,1555168
2023-07-04T18:49:28.383Z,emailservice,network_out,40537
2023-07-04T18:49:28.374Z,shippingservice,network_out,272760
2023-07-04T18:49:28.398Z,paymentservice,network_out,40395
2023-07-04T18:49:28.398Z,recommendationservice,network_out,698467
2023-07-04T18:49:28.398Z,cartservice,network_out,759632
2023-07-04T18:49:28.374Z,checkoutservice,network_out,344243
2023-07-04T18:49:28.374Z,frontend,network_out,19029138
2023-07-04T18:49:28.374Z,redis-cart,network_out,951172
2023-07-04T18:49:38.383Z,emailservice,network_out,41954
2023-07-04T18:49:38.398Z,recommendationservice,network_out,698467
2023-07-04T18:49:38.398Z,cartservice,network_out,777393
2023-07-04T18:49:38.374Z,checkoutservice,network_out,357706
2023-07-04T18:49:38.374Z,redis-cart,network_out,951172
2023-07-04T18:49:38.383Z,adservice,network_out,291151
2023-07-04T18:49:38.374Z,productcatalogservice,network_out,7233520
2023-07-04T18:49:38.374Z,shippingservice,network_out,272760
2023-07-04T18:49:38.398Z,currencyservice,network_out,1555168
2023-07-04T18:49:38.374Z,frontend,network_out,19691374
2023-07-04T18:49:38.398Z,paymentservice,network_out,40395
2023-07-04T18:49:48.373Z,redis-cart,network_out,951172
2023-07-04T18:49:48.373Z,checkoutservice,network_out,357706
2023-07-04T18:49:48.398Z,paymentservice,network_out,40395
2023-07-04T18:49:48.373Z,frontend,network_out,19691374
2023-07-04T18:49:48.398Z,recommendationservice,network_out,698467
2023-07-04T18:49:48.398Z,currencyservice,network_out,1555168
2023-07-04T18:49:48.383Z,adservice,network_out,301008
2023-07-04T18:49:48.373Z,productcatalogservice,network_out,7233520
2023-07-04T18:49:48.373Z,shippingservice,network_out,272760
2023-07-04T18:49:48.398Z,cartservice,network_out,777393
2023-07-04T18:49:48.383Z,emailservice,network_out,44916
2023-07-04T18:49:58.373Z,redis-cart,network_out,958995
2023-07-04T18:49:58.373Z,shippingservice,network_out,284775
2023-07-04T18:49:58.383Z,adservice,network_out,301008
2023-07-04T18:49:58.398Z,cartservice,network_out,777393
2023-07-04T18:49:58.373Z,checkoutservice,network_out,357706
2023-07-04T18:49:58.373Z,productcatalogservice,network_out,7404596
2023-07-04T18:49:58.398Z,currencyservice,network_out,1599016
2023-07-04T18:49:58.398Z,paymentservice,network_out,42427
2023-07-04T18:49:58.373Z,frontend,network_out,20343146
2023-07-04T18:49:58.383Z,emailservice,network_out,44916
2023-07-04T18:49:58.398Z,recommendationservice,network_out,723698
2023-07-04T18:50:08.373Z,shippingservice,network_out,291140
2023-07-04T18:50:08.398Z,currencyservice,network_out,1661193
2023-07-04T18:50:08.373Z,frontend,network_out,20734904
2023-07-04T18:50:08.398Z,paymentservice,network_out,42743
2023-07-04T18:50:08.383Z,adservice,network_out,313324
2023-07-04T18:50:08.383Z,emailservice,network_out,44916
2023-07-04T18:50:08.398Z,recommendationservice,network_out,738929
2023-07-04T18:50:08.373Z,redis-cart,network_out,981649
2023-07-04T18:50:08.373Z,checkoutservice,network_out,376831
2023-07-04T18:50:08.373Z,productcatalogservice,network_out,7646590
2023-07-04T18:50:08.398Z,cartservice,network_out,823525
2023-07-04T18:50:18.373Z,shippingservice,network_out,293590
2023-07-04T18:50:18.373Z,frontend,network_out,20734904
2023-07-04T18:50:18.398Z,cartservice,network_out,836318
2023-07-04T18:50:18.398Z,currencyservice,network_out,1661193
2023-07-04T18:50:18.383Z,adservice,network_out,317766
2023-07-04T18:50:18.373Z,productcatalogservice,network_out,7764951
2023-07-04T18:50:18.373Z,checkoutservice,network_out,382523
2023-07-04T18:50:18.373Z,redis-cart,network_out,1002818
2023-07-04T18:50:18.398Z,recommendationservice,network_out,757628
2023-07-04T18:50:18.383Z,emailservice,network_out,46136
2023-07-04T18:50:18.398Z,paymentservice,network_out,43751
