2023-07-04T16:53:40.061Z,emailservice,memory,40869888
2023-07-04T16:53:40.061Z,adservice,memory,72736768
2023-07-04T16:53:40.072Z,checkoutservice,memory,9904128
2023-07-04T16:53:39.996Z,currencyservice,memory,22261760
2023-07-04T16:53:40.072Z,frontend,memory,13119488
2023-07-04T16:53:39.996Z,cartservice,memory,28938240
2023-07-04T16:53:40.061Z,shippingservice,memory,7356416
2023-07-04T16:53:40.072Z,productcatalogservice,memory,11403264
2023-07-04T16:53:40.072Z,recommendationservice,memory,41566208
2023-07-04T16:53:40.061Z,redis-cart,memory,8081408
2023-07-04T16:53:40.061Z,paymentservice,memory,19542016
2023-07-04T16:53:39.996Z,redis-cart,memory,7962624
2023-07-04T16:53:50.423Z,redis-cart,memory,7950336
2023-07-04T16:53:50.423Z,shippingservice,memory,9912320
2023-07-04T16:53:50.350Z,cartservice,memory,28983296
2023-07-04T16:53:50.350Z,currencyservice,memory,22663168
2023-07-04T16:53:50.350Z,redis-cart,memory,7966720
2023-07-04T16:53:50.427Z,productcatalogservice,memory,11403264
2023-07-04T16:53:50.427Z,recommendationservice,memory,41562112
2023-07-04T16:53:50.427Z,checkoutservice,memory,10153984
2023-07-04T16:53:50.423Z,paymentservice,memory,19025920
2023-07-04T16:53:50.423Z,emailservice,memory,40869888
2023-07-04T16:53:50.423Z,adservice,memory,72736768
2023-07-04T16:53:50.423Z,redis-cart,memory,8081408
2023-07-04T16:53:50.427Z,redis-cart,memory,7946240
2023-07-04T16:53:50.427Z,frontend,memory,13598720
2023-07-04T16:54:00.423Z,redis-cart,memory,8081408
2023-07-04T16:54:00.423Z,paymentservice,memory,19025920
2023-07-04T16:54:00.423Z,adservice,memory,74797056
2023-07-04T16:54:00.427Z,productcatalogservice,memory,11468800
2023-07-04T16:54:00.350Z,redis-cart,memory,7966720
2023-07-04T16:54:00.423Z,emailservice,memory,40869888
2023-07-04T16:54:00.427Z,frontend,memory,13598720
2023-07-04T16:54:00.350Z,currencyservice,memory,22663168
2023-07-04T16:54:00.423Z,shippingservice,memory,9912320
2023-07-04T16:54:00.427Z,redis-cart,memory,7946240
2023-07-04T16:54:00.350Z,cartservice,memory,28983296
2023-07-04T16:54:00.423Z,redis-cart,memory,7950336
2023-07-04T16:54:00.427Z,recommendationservice,memory,41562112
2023-07-04T16:54:00.427Z,checkoutservice,memory,10153984
2023-07-04T16:54:10.350Z,currencyservice,memory,22663168
2023-07-04T16:54:10.423Z,emailservice,memory,40869888
2023-07-04T16:54:10.427Z,checkoutservice,memory,10682368
2023-07-04T16:54:10.350Z,redis-cart,memory,7966720
2023-07-04T16:54:10.423Z,redis-cart,memory,7950336
2023-07-04T16:54:10.427Z,redis-cart,memory,7946240
2023-07-04T16:54:10.427Z,frontend,memory,13729792
2023-07-04T16:54:10.423Z,shippingservice,memory,9912320
2023-07-04T16:54:10.427Z,productcatalogservice,memory,11468800
2023-07-04T16:54:10.427Z,recommendationservice,memory,41574400
2023-07-04T16:54:10.350Z,cartservice,memory,28983296
2023-07-04T16:54:10.423Z,redis-cart,memory,8081408
2023-07-04T16:54:10.423Z,paymentservice,memory,19025920
2023-07-04T16:54:10.423Z,adservice,memory,74797056
2023-07-04T16:54:20.351Z,redis-cart,memory,7970816
2023-07-04T16:54:20.422Z,redis-cart,memory,8081408
2023-07-04T16:54:20.422Z,redis-cart,memory,8081408
2023-07-04T16:54:20.427Z,recommendationservice,memory,41566208
2023-07-04T16:54:20.422Z,emailservice,memory,40873984
2023-07-04T16:54:20.351Z,currencyservice,memory,23117824
2023-07-04T16:54:20.427Z,redis-cart,memory,7946240
2023-07-04T16:54:20.427Z,productcatalogservice,memory,11489280
2023-07-04T16:54:20.422Z,shippingservice,memory,9949184
2023-07-04T16:54:20.351Z,cartservice,memory,28307456
2023-07-04T16:54:20.427Z,frontend,memory,14172160
2023-07-04T16:54:20.427Z,checkoutservice,memory,10887168
2023-07-04T16:54:20.422Z,adservice,memory,75771904
2023-07-04T16:54:20.422Z,paymentservice,memory,19521536
2023-07-04T16:54:30.350Z,redis-cart,memory,7970816
2023-07-04T16:54:30.350Z,cartservice,memory,28307456
2023-07-04T16:54:30.423Z,paymentservice,memory,19521536
2023-07-04T16:54:30.423Z,redis-cart,memory,8081408
2023-07-04T16:54:30.423Z,emailservice,memory,41304064
2023-07-04T16:54:30.427Z,frontend,memory,14172160
2023-07-04T16:54:30.427Z,checkoutservice,memory,10887168
2023-07-04T16:54:30.427Z,recommendationservice,memory,41566208
2023-07-04T16:54:30.350Z,currencyservice,memory,23117824
2023-07-04T16:54:30.423Z,adservice,memory,75259904
2023-07-04T16:54:30.423Z,shippingservice,memory,10162176
2023-07-04T16:54:30.423Z,redis-cart,memory,8081408
2023-07-04T16:54:30.427Z,redis-cart,memory,7946240
2023-07-04T16:54:30.427Z,productcatalogservice,memory,11489280
2023-07-04T16:54:40.350Z,cartservice,memory,29200384
2023-07-04T16:54:40.350Z,currencyservice,memory,22827008
2023-07-04T16:54:40.423Z,redis-cart,memory,8081408
2023-07-04T16:54:40.423Z,emailservice,memory,41304064
2023-07-04T16:54:40.427Z,redis-cart,memory,7950336
2023-07-04T16:54:40.423Z,shippingservice,memory,10158080
2023-07-04T16:54:40.427Z,productcatalogservice,memory,11530240
2023-07-04T16:54:40.427Z,frontend,memory,13901824
2023-07-04T16:54:40.350Z,redis-cart,memory,7979008
2023-07-04T16:54:40.423Z,adservice,memory,76632064
2023-07-04T16:54:40.423Z,paymentservice,memory,19910656
2023-07-04T16:54:40.423Z,redis-cart,memory,8081408
2023-07-04T16:54:40.427Z,checkoutservice,memory,10936320
2023-07-04T16:54:40.427Z,recommendationservice,memory,41578496
2023-07-04T16:54:50.423Z,emailservice,memory,41304064
2023-07-04T16:54:50.427Z,checkoutservice,memory,10936320
2023-07-04T16:54:50.427Z,frontend,memory,14102528
2023-07-04T16:54:50.350Z,redis-cart,memory,7983104
2023-07-04T16:54:50.350Z,cartservice,memory,30146560
2023-07-04T16:54:50.427Z,redis-cart,memory,7950336
2023-07-04T16:54:50.350Z,currencyservice,memory,23166976
2023-07-04T16:54:50.427Z,recommendationservice,memory,41578496
2023-07-04T16:54:50.423Z,adservice,memory,76632064
2023-07-04T16:54:50.423Z,redis-cart,memory,8081408
2023-07-04T16:54:50.423Z,paymentservice,memory,19910656
2023-07-04T16:54:50.423Z,shippingservice,memory,10158080
2023-07-04T16:54:50.423Z,redis-cart,memory,8081408
2023-07-04T16:54:50.427Z,productcatalogservice,memory,11530240
2023-07-04T16:55:00.423Z,adservice,memory,77426688
2023-07-04T16:55:00.427Z,frontend,memory,14393344
2023-07-04T16:55:00.427Z,checkoutservice,memory,11034624
2023-07-04T16:55:00.423Z,emailservice,memory,40873984
2023-07-04T16:55:00.350Z,redis-cart,memory,7983104
2023-07-04T16:55:00.350Z,cartservice,memory,30146560
2023-07-04T16:55:00.427Z,productcatalogservice,memory,11689984
2023-07-04T16:55:00.427Z,recommendationservice,memory,41570304
2023-07-04T16:55:00.423Z,paymentservice,memory,19247104
2023-07-04T16:55:00.423Z,shippingservice,memory,10190848
2023-07-04T16:55:00.350Z,currencyservice,memory,23166976
2023-07-04T16:55:00.427Z,redis-cart,memory,7946240
2023-07-04T16:55:00.423Z,redis-cart,memory,8081408
2023-07-04T16:55:00.423Z,redis-cart,memory,8085504
2023-07-04T16:55:10.423Z,redis-cart,memory,7950336
2023-07-04T16:55:10.350Z,cartservice,memory,30179328
2023-07-04T16:55:10.423Z,emailservice,memory,40873984
2023-07-04T16:55:10.423Z,paymentservice,memory,19513344
2023-07-04T16:55:10.350Z,currencyservice,memory,23445504
2023-07-04T16:55:10.427Z,productcatalogservice,memory,11689984
2023-07-04T16:55:10.423Z,shippingservice,memory,10297344
2023-07-04T16:55:10.423Z,adservice,memory,77676544
2023-07-04T16:55:10.350Z,redis-cart,memory,7979008
2023-07-04T16:55:10.427Z,frontend,memory,14393344
2023-07-04T16:55:10.427Z,checkoutservice,memory,11034624
2023-07-04T16:55:10.427Z,redis-cart,memory,7946240
2023-07-04T16:55:10.427Z,recommendationservice,memory,41570304
2023-07-04T16:55:10.423Z,redis-cart,memory,7950336
2023-07-04T16:55:20.423Z,shippingservice,memory,10297344
2023-07-04T16:55:20.427Z,recommendationservice,memory,41586688
2023-07-04T16:55:20.423Z,redis-cart,memory,7950336
2023-07-04T16:55:20.427Z,productcatalogservice,memory,11710464
2023-07-04T16:55:20.351Z,redis-cart,memory,7983104
2023-07-04T16:55:20.423Z,redis-cart,memory,7950336
2023-07-04T16:55:20.423Z,adservice,memory,78098432
2023-07-04T16:55:20.427Z,frontend,memory,14143488
2023-07-04T16:55:20.427Z,redis-cart,memory,7946240
2023-07-04T16:55:20.351Z,cartservice,memory,30179328
2023-07-04T16:55:20.351Z,currencyservice,memory,23445504
2023-07-04T16:55:20.423Z,paymentservice,memory,19513344
2023-07-04T16:55:20.423Z,emailservice,memory,40873984
2023-07-04T16:55:20.427Z,checkoutservice,memory,11186176
2023-07-04T16:55:30.350Z,currencyservice,memory,23445504
2023-07-04T16:55:30.427Z,frontend,memory,16588800
2023-07-04T16:55:30.423Z,redis-cart,memory,7950336
2023-07-04T16:55:30.427Z,recommendationservice,memory,41586688
2023-07-04T16:55:30.427Z,checkoutservice,memory,11190272
2023-07-04T16:55:30.350Z,redis-cart,memory,7983104
2023-07-04T16:55:30.423Z,emailservice,memory,40902656
2023-07-04T16:55:30.423Z,redis-cart,memory,7950336
2023-07-04T16:55:30.423Z,paymentservice,memory,19795968
2023-07-04T16:55:30.423Z,adservice,memory,78098432
2023-07-04T16:55:30.427Z,redis-cart,memory,7946240
2023-07-04T16:55:30.427Z,productcatalogservice,memory,11603968
2023-07-04T16:55:30.350Z,cartservice,memory,30179328
2023-07-04T16:55:30.423Z,shippingservice,memory,10268672
2023-07-04T16:55:40.350Z,redis-cart,memory,7979008
2023-07-04T16:55:40.350Z,cartservice,memory,30605312
2023-07-04T16:55:40.427Z,recommendationservice,memory,41586688
2023-07-04T16:55:40.427Z,checkoutservice,memory,11190272
2023-07-04T16:55:40.424Z,shippingservice,memory,10268672
2023-07-04T16:55:40.427Z,redis-cart,memory,7946240
2023-07-04T16:55:40.427Z,productcatalogservice,memory,11603968
2023-07-04T16:55:40.424Z,emailservice,memory,40902656
2023-07-04T16:55:40.427Z,frontend,memory,16588800
2023-07-04T16:55:40.350Z,currencyservice,memory,24195072
2023-07-04T16:55:40.424Z,redis-cart,memory,7950336
2023-07-04T16:55:40.424Z,redis-cart,memory,8081408
2023-07-04T16:55:40.424Z,adservice,memory,78188544
2023-07-04T16:55:40.424Z,paymentservice,memory,19988480
2023-07-04T16:55:50.350Z,currencyservice,memory,24195072
2023-07-04T16:55:50.423Z,shippingservice,memory,10268672
2023-07-04T16:55:50.350Z,redis-cart,memory,7979008
2023-07-04T16:55:50.350Z,cartservice,memory,30605312
2023-07-04T16:55:50.423Z,adservice,memory,78188544
2023-07-04T16:55:50.427Z,checkoutservice,memory,11190272
2023-07-04T16:55:50.423Z,emailservice,memory,40902656
2023-07-04T16:55:50.427Z,productcatalogservice,memory,11612160
2023-07-04T16:55:50.427Z,recommendationservice,memory,41590784
2023-07-04T16:55:50.427Z,frontend,memory,16572416
2023-07-04T16:55:50.423Z,redis-cart,memory,7950336
2023-07-04T16:55:50.423Z,redis-cart,memory,8081408
2023-07-04T16:55:50.423Z,paymentservice,memory,19988480
2023-07-04T16:55:50.427Z,redis-cart,memory,7946240
2023-07-04T16:56:00.350Z,redis-cart,memory,7983104
2023-07-04T16:56:00.427Z,frontend,memory,16125952
2023-07-04T16:56:00.423Z,shippingservice,memory,10395648
2023-07-04T16:56:00.427Z,redis-cart,memory,7946240
2023-07-04T16:56:00.423Z,redis-cart,memory,7950336
2023-07-04T16:56:00.423Z,paymentservice,memory,19312640
2023-07-04T16:56:00.350Z,cartservice,memory,31297536
2023-07-04T16:56:00.427Z,checkoutservice,memory,11247616
2023-07-04T16:56:00.427Z,productcatalogservice,memory,11612160
2023-07-04T16:56:00.423Z,redis-cart,memory,7950336
2023-07-04T16:56:00.423Z,adservice,memory,78753792
2023-07-04T16:56:00.350Z,currencyservice,memory,24186880
2023-07-04T16:56:00.427Z,recommendationservice,memory,41590784
2023-07-04T16:56:00.423Z,emailservice,memory,40902656
2023-07-04T16:56:10.351Z,currencyservice,memory,24518656
2023-07-04T16:56:10.427Z,frontend,memory,16125952
2023-07-04T16:56:10.427Z,redis-cart,memory,7946240
2023-07-04T16:56:10.427Z,checkoutservice,memory,11247616
2023-07-04T16:56:10.427Z,productcatalogservice,memory,11612160
2023-07-04T16:56:10.351Z,redis-cart,memory,7979008
2023-07-04T16:56:10.351Z,cartservice,memory,31834112
2023-07-04T16:56:10.423Z,emailservice,memory,40906752
2023-07-04T16:56:10.423Z,paymentservice,memory,19312640
2023-07-04T16:56:10.423Z,redis-cart,memory,7950336
2023-07-04T16:56:10.423Z,adservice,memory,79040512
2023-07-04T16:56:10.423Z,shippingservice,memory,10403840
2023-07-04T16:56:10.423Z,redis-cart,memory,7950336
2023-07-04T16:56:10.427Z,recommendationservice,memory,41590784
2023-07-04T16:56:20.427Z,frontend,memory,16224256
2023-07-04T16:56:20.427Z,checkoutservice,memory,15425536
2023-07-04T16:56:20.350Z,cartservice,memory,31834112
2023-07-04T16:56:20.423Z,shippingservice,memory,10428416
2023-07-04T16:56:20.423Z,adservice,memory,79040512
2023-07-04T16:56:20.350Z,currencyservice,memory,24518656
2023-07-04T16:56:20.423Z,emailservice,memory,40906752
2023-07-04T16:56:20.427Z,recommendationservice,memory,41594880
2023-07-04T16:56:20.350Z,redis-cart,memory,7979008
2023-07-04T16:56:20.423Z,redis-cart,memory,8081408
2023-07-04T16:56:20.423Z,redis-cart,memory,7950336
2023-07-04T16:56:20.423Z,paymentservice,memory,19595264
2023-07-04T16:56:20.427Z,productcatalogservice,memory,11706368
2023-07-04T16:56:20.427Z,redis-cart,memory,8077312
2023-07-04T16:56:30.350Z,currencyservice,memory,25604096
2023-07-04T16:56:30.427Z,productcatalogservice,memory,11603968
2023-07-04T16:56:30.350Z,redis-cart,memory,8118272
2023-07-04T16:56:30.427Z,recommendationservice,memory,41594880
2023-07-04T16:56:30.350Z,cartservice,memory,32436224
2023-07-04T16:56:30.423Z,redis-cart,memory,8081408
2023-07-04T16:56:30.423Z,shippingservice,memory,10428416
2023-07-04T16:56:30.423Z,redis-cart,memory,7950336
2023-07-04T16:56:30.423Z,adservice,memory,79040512
2023-07-04T16:56:30.423Z,emailservice,memory,40906752
2023-07-04T16:56:30.423Z,paymentservice,memory,19595264
2023-07-04T16:56:30.427Z,checkoutservice,memory,15425536
2023-07-04T16:56:30.427Z,redis-cart,memory,7946240
2023-07-04T16:56:30.427Z,frontend,memory,16224256
2023-07-04T16:56:40.427Z,frontend,memory,16699392
2023-07-04T16:56:40.423Z,redis-cart,memory,7962624
2023-07-04T16:56:40.423Z,shippingservice,memory,13029376
2023-07-04T16:56:40.427Z,checkoutservice,memory,15425536
2023-07-04T16:56:40.427Z,productcatalogservice,memory,11603968
2023-07-04T16:56:40.427Z,recommendationservice,memory,41603072
2023-07-04T16:56:40.423Z,redis-cart,memory,7950336
2023-07-04T16:56:40.423Z,adservice,memory,79310848
2023-07-04T16:56:40.351Z,currencyservice,memory,25329664
2023-07-04T16:56:40.423Z,emailservice,memory,43089920
2023-07-04T16:56:40.351Z,redis-cart,memory,8114176
2023-07-04T16:56:40.351Z,cartservice,memory,32436224
2023-07-04T16:56:40.427Z,redis-cart,memory,7946240
2023-07-04T16:56:40.423Z,paymentservice,memory,19759104
2023-07-04T16:56:50.350Z,currencyservice,memory,25329664
2023-07-04T16:56:50.427Z,frontend,memory,16699392
2023-07-04T16:56:50.350Z,redis-cart,memory,8114176
2023-07-04T16:56:50.422Z,adservice,memory,79310848
2023-07-04T16:56:50.422Z,emailservice,memory,43089920
2023-07-04T16:56:50.422Z,redis-cart,memory,7958528
2023-07-04T16:56:50.422Z,shippingservice,memory,10522624
2023-07-04T16:56:50.427Z,checkoutservice,memory,15425536
2023-07-04T16:56:50.427Z,productcatalogservice,memory,11603968
2023-07-04T16:56:50.427Z,recommendationservice,memory,41603072
2023-07-04T16:56:50.350Z,cartservice,memory,32436224
2023-07-04T16:56:50.422Z,paymentservice,memory,20082688
2023-07-04T16:56:50.422Z,redis-cart,memory,7950336
2023-07-04T16:56:50.427Z,redis-cart,memory,7946240
2023-07-04T16:57:00.423Z,paymentservice,memory,20254720
2023-07-04T16:57:00.427Z,productcatalogservice,memory,11784192
2023-07-04T16:57:00.423Z,redis-cart,memory,7958528
2023-07-04T16:57:00.350Z,cartservice,memory,33488896
2023-07-04T16:57:00.423Z,emailservice,memory,43089920
2023-07-04T16:57:00.423Z,shippingservice,memory,10530816
2023-07-04T16:57:00.423Z,adservice,memory,79499264
2023-07-04T16:57:00.427Z,recommendationservice,memory,41615360
2023-07-04T16:57:00.427Z,redis-cart,memory,8077312
2023-07-04T16:57:00.350Z,redis-cart,memory,7983104
2023-07-04T16:57:00.350Z,currencyservice,memory,25751552
2023-07-04T16:57:00.423Z,redis-cart,memory,7950336
2023-07-04T16:57:00.427Z,checkoutservice,memory,15433728
2023-07-04T16:57:00.427Z,frontend,memory,20426752
2023-07-04T16:57:10.423Z,redis-cart,memory,7958528
2023-07-04T16:57:10.350Z,cartservice,memory,33488896
2023-07-04T16:57:10.423Z,redis-cart,memory,7950336
2023-07-04T16:57:10.427Z,recommendationservice,memory,41611264
2023-07-04T16:57:10.423Z,paymentservice,memory,20254720
2023-07-04T16:57:10.427Z,frontend,memory,22671360
2023-07-04T16:57:10.427Z,checkoutservice,memory,15458304
2023-07-04T16:57:10.427Z,redis-cart,memory,7946240
2023-07-04T16:57:10.350Z,redis-cart,memory,7983104
2023-07-04T16:57:10.350Z,currencyservice,memory,25751552
2023-07-04T16:57:10.423Z,emailservice,memory,43089920
2023-07-04T16:57:10.423Z,shippingservice,memory,10530816
2023-07-04T16:57:10.423Z,adservice,memory,79499264
2023-07-04T16:57:10.427Z,productcatalogservice,memory,11784192
2023-07-04T16:57:20.351Z,currencyservice,memory,26128384
2023-07-04T16:57:20.427Z,productcatalogservice,memory,11628544
2023-07-04T16:57:20.427Z,recommendationservice,memory,41611264
2023-07-04T16:57:20.422Z,shippingservice,memory,10539008
2023-07-04T16:57:20.422Z,paymentservice,memory,19681280
2023-07-04T16:57:20.422Z,emailservice,memory,43089920
2023-07-04T16:57:20.351Z,redis-cart,memory,7987200
2023-07-04T16:57:20.351Z,cartservice,memory,33329152
2023-07-04T16:57:20.427Z,redis-cart,memory,8077312
2023-07-04T16:57:20.422Z,redis-cart,memory,8081408
2023-07-04T16:57:20.427Z,checkoutservice,memory,15486976
2023-07-04T16:57:20.427Z,frontend,memory,22671360
2023-07-04T16:57:20.422Z,redis-cart,memory,7958528
2023-07-04T16:57:20.422Z,adservice,memory,79523840
2023-07-04T16:57:30.350Z,cartservice,memory,33329152
2023-07-04T16:57:30.423Z,shippingservice,memory,10539008
2023-07-04T16:57:30.350Z,currencyservice,memory,26128384
2023-07-04T16:57:30.423Z,emailservice,memory,43089920
2023-07-04T16:57:30.427Z,redis-cart,memory,8077312
2023-07-04T16:57:30.423Z,adservice,memory,79749120
2023-07-04T16:57:30.423Z,paymentservice,memory,19914752
2023-07-04T16:57:30.427Z,productcatalogservice,memory,11628544
2023-07-04T16:57:30.427Z,recommendationservice,memory,41611264
2023-07-04T16:57:30.350Z,redis-cart,memory,7987200
2023-07-04T16:57:30.423Z,redis-cart,memory,8081408
2023-07-04T16:57:30.423Z,redis-cart,memory,7958528
2023-07-04T16:57:30.427Z,checkoutservice,memory,15486976
2023-07-04T16:57:30.427Z,frontend,memory,22671360
2023-07-04T16:57:40.427Z,redis-cart,memory,8077312
2023-07-04T16:57:40.427Z,recommendationservice,memory,41615360
2023-07-04T16:57:40.350Z,cartservice,memory,33886208
2023-07-04T16:57:40.350Z,currencyservice,memory,27340800
2023-07-04T16:57:40.422Z,shippingservice,memory,10539008
2023-07-04T16:57:40.427Z,checkoutservice,memory,15486976
2023-07-04T16:57:40.350Z,redis-cart,memory,7987200
2023-07-04T16:57:40.422Z,emailservice,memory,43089920
2023-07-04T16:57:40.422Z,paymentservice,memory,19914752
2023-07-04T16:57:40.427Z,frontend,memory,22970368
2023-07-04T16:57:40.422Z,adservice,memory,79749120
2023-07-04T16:57:40.422Z,redis-cart,memory,8081408
2023-07-04T16:57:40.422Z,redis-cart,memory,7958528
2023-07-04T16:57:40.427Z,productcatalogservice,memory,11780096
2023-07-04T16:57:50.350Z,currencyservice,memory,27230208
2023-07-04T16:57:50.427Z,recommendationservice,memory,41615360
2023-07-04T16:57:50.427Z,checkoutservice,memory,15622144
2023-07-04T16:57:50.350Z,redis-cart,memory,8290304
2023-07-04T16:57:50.423Z,shippingservice,memory,10555392
2023-07-04T16:57:50.423Z,emailservice,memory,43089920
2023-07-04T16:57:50.350Z,cartservice,memory,34328576
2023-07-04T16:57:50.423Z,adservice,memory,79880192
2023-07-04T16:57:50.423Z,redis-cart,memory,8089600
2023-07-04T16:57:50.427Z,frontend,memory,22970368
2023-07-04T16:57:50.423Z,paymentservice,memory,20144128
2023-07-04T16:57:50.423Z,redis-cart,memory,7954432
2023-07-04T16:57:50.427Z,productcatalogservice,memory,11669504
2023-07-04T16:57:50.427Z,redis-cart,memory,7946240
2023-07-04T16:58:00.350Z,redis-cart,memory,8290304
2023-07-04T16:58:00.427Z,redis-cart,memory,7946240
2023-07-04T16:58:00.427Z,checkoutservice,memory,15622144
2023-07-04T16:58:00.423Z,redis-cart,memory,8089600
2023-07-04T16:58:00.423Z,emailservice,memory,43089920
2023-07-04T16:58:00.350Z,cartservice,memory,34328576
2023-07-04T16:58:00.427Z,frontend,memory,23060480
2023-07-04T16:58:00.427Z,recommendationservice,memory,41742336
2023-07-04T16:58:00.423Z,adservice,memory,80048128
2023-07-04T16:58:00.350Z,currencyservice,memory,27230208
2023-07-04T16:58:00.427Z,productcatalogservice,memory,13762560
2023-07-04T16:58:00.423Z,paymentservice,memory,20144128
2023-07-04T16:58:00.423Z,shippingservice,memory,10563584
2023-07-04T16:58:00.423Z,redis-cart,memory,7954432
2023-07-04T16:58:10.423Z,paymentservice,memory,21258240
2023-07-04T16:58:10.427Z,productcatalogservice,memory,13762560
2023-07-04T16:58:10.350Z,redis-cart,memory,8323072
2023-07-04T16:58:10.423Z,redis-cart,memory,7954432
2023-07-04T16:58:10.427Z,frontend,memory,22634496
2023-07-04T16:58:10.427Z,recommendationservice,memory,41742336
2023-07-04T16:58:10.350Z,currencyservice,memory,27815936
2023-07-04T16:58:10.423Z,emailservice,memory,43102208
2023-07-04T16:58:10.423Z,adservice,memory,83521536
2023-07-04T16:58:10.350Z,cartservice,memory,34697216
2023-07-04T16:58:10.423Z,redis-cart,memory,8089600
2023-07-04T16:58:10.423Z,shippingservice,memory,10563584
2023-07-04T16:58:10.427Z,redis-cart,memory,8077312
2023-07-04T16:58:10.427Z,checkoutservice,memory,15585280
2023-07-04T16:58:20.423Z,redis-cart,memory,8089600
2023-07-04T16:58:20.423Z,shippingservice,memory,10563584
2023-07-04T16:58:20.427Z,redis-cart,memory,8077312
2023-07-04T16:58:20.427Z,checkoutservice,memory,15585280
2023-07-04T16:58:20.423Z,paymentservice,memory,21258240
2023-07-04T16:58:20.423Z,adservice,memory,83521536
2023-07-04T16:58:20.427Z,productcatalogservice,memory,13762560
2023-07-04T16:58:20.351Z,currencyservice,memory,28155904
2023-07-04T16:58:20.351Z,cartservice,memory,36184064
2023-07-04T16:58:20.423Z,redis-cart,memory,7954432
2023-07-04T16:58:20.427Z,frontend,memory,22634496
2023-07-04T16:58:20.427Z,recommendationservice,memory,41742336
2023-07-04T16:58:20.351Z,redis-cart,memory,8577024
2023-07-04T16:58:20.423Z,emailservice,memory,43102208
2023-07-04T16:58:30.350Z,redis-cart,memory,8577024
2023-07-04T16:58:30.427Z,frontend,memory,22626304
2023-07-04T16:58:30.427Z,checkoutservice,memory,15601664
2023-07-04T16:58:30.427Z,redis-cart,memory,7946240
2023-07-04T16:58:30.350Z,cartservice,memory,36184064
2023-07-04T16:58:30.427Z,recommendationservice,memory,41623552
2023-07-04T16:58:30.427Z,productcatalogservice,memory,15925248
2023-07-04T16:58:30.423Z,redis-cart,memory,7950336
2023-07-04T16:58:30.423Z,paymentservice,memory,21696512
2023-07-04T16:58:30.423Z,shippingservice,memory,10584064
2023-07-04T16:58:30.350Z,currencyservice,memory,28155904
2023-07-04T16:58:30.423Z,emailservice,memory,43098112
2023-07-04T16:58:30.423Z,redis-cart,memory,8089600
2023-07-04T16:58:30.423Z,adservice,memory,80658432
2023-07-04T16:58:40.423Z,paymentservice,memory,22020096
2023-07-04T16:58:40.427Z,recommendationservice,memory,41631744
2023-07-04T16:58:40.423Z,emailservice,memory,43098112
2023-07-04T16:58:40.427Z,productcatalogservice,memory,15925248
2023-07-04T16:58:40.350Z,cartservice,memory,36151296
2023-07-04T16:58:40.423Z,shippingservice,memory,10584064
2023-07-04T16:58:40.427Z,frontend,memory,22626304
2023-07-04T16:58:40.427Z,redis-cart,memory,8077312
2023-07-04T16:58:40.350Z,currencyservice,memory,28131328
2023-07-04T16:58:40.350Z,redis-cart,memory,8441856
2023-07-04T16:58:40.423Z,redis-cart,memory,8089600
2023-07-04T16:58:40.423Z,redis-cart,memory,7950336
2023-07-04T16:58:40.423Z,adservice,memory,80855040
2023-07-04T16:58:40.427Z,checkoutservice,memory,15601664
2023-07-04T16:58:50.423Z,emailservice,memory,43098112
2023-07-04T16:58:50.350Z,redis-cart,memory,8441856
2023-07-04T16:58:50.350Z,currencyservice,memory,28704768
2023-07-04T16:58:50.428Z,recommendationservice,memory,41701376
2023-07-04T16:58:50.350Z,cartservice,memory,36085760
2023-07-04T16:58:50.423Z,adservice,memory,80855040
2023-07-04T16:58:50.423Z,redis-cart,memory,7958528
2023-07-04T16:58:50.428Z,productcatalogservice,memory,15937536
2023-07-04T16:58:50.428Z,checkoutservice,memory,15605760
2023-07-04T16:58:50.423Z,redis-cart,memory,7950336
2023-07-04T16:58:50.423Z,shippingservice,memory,10592256
2023-07-04T16:58:50.423Z,paymentservice,memory,22257664
2023-07-04T16:58:50.428Z,frontend,memory,23113728
2023-07-04T16:58:50.428Z,redis-cart,memory,8077312
2023-07-04T16:59:00.350Z,currencyservice,memory,28704768
2023-07-04T16:59:00.426Z,redis-cart,memory,7946240
2023-07-04T16:59:00.426Z,productcatalogservice,memory,15937536
2023-07-04T16:59:00.426Z,checkoutservice,memory,15601664
2023-07-04T16:59:00.350Z,redis-cart,memory,8441856
2023-07-04T16:59:00.423Z,emailservice,memory,43098112
2023-07-04T16:59:00.426Z,frontend,memory,23113728
2023-07-04T16:59:00.350Z,cartservice,memory,36085760
2023-07-04T16:59:00.423Z,redis-cart,memory,7950336
2023-07-04T16:59:00.423Z,shippingservice,memory,10592256
2023-07-04T16:59:00.423Z,adservice,memory,80855040
2023-07-04T16:59:00.423Z,paymentservice,memory,22257664
2023-07-04T16:59:00.423Z,redis-cart,memory,7958528
2023-07-04T16:59:00.426Z,recommendationservice,memory,41701376
2023-07-04T16:59:10.350Z,cartservice,memory,36130816
2023-07-04T16:59:10.427Z,checkoutservice,memory,15601664
2023-07-04T16:59:10.350Z,redis-cart,memory,8581120
2023-07-04T16:59:10.427Z,redis-cart,memory,7946240
2023-07-04T16:59:10.423Z,shippingservice,memory,10694656
2023-07-04T16:59:10.427Z,frontend,memory,23093248
2023-07-04T16:59:10.427Z,productcatalogservice,memory,15949824
2023-07-04T16:59:10.423Z,adservice,memory,81563648
2023-07-04T16:59:10.423Z,redis-cart,memory,7958528
2023-07-04T16:59:10.350Z,currencyservice,memory,29024256
2023-07-04T16:59:10.427Z,recommendationservice,memory,41701376
2023-07-04T16:59:10.423Z,paymentservice,memory,22609920
2023-07-04T16:59:10.423Z,emailservice,memory,43098112
2023-07-04T16:59:10.423Z,redis-cart,memory,7950336
2023-07-04T16:59:20.350Z,currencyservice,memory,29024256
2023-07-04T16:59:20.423Z,redis-cart,memory,8081408
2023-07-04T16:59:20.427Z,recommendationservice,memory,41701376
2023-07-04T16:59:20.350Z,cartservice,memory,36130816
2023-07-04T16:59:20.423Z,paymentservice,memory,21671936
2023-07-04T16:59:20.427Z,checkoutservice,memory,15601664
2023-07-04T16:59:20.350Z,redis-cart,memory,8581120
2023-07-04T16:59:20.423Z,adservice,memory,81235968
2023-07-04T16:59:20.427Z,redis-cart,memory,7946240
2023-07-04T16:59:20.423Z,shippingservice,memory,12673024
2023-07-04T16:59:20.423Z,emailservice,memory,43098112
2023-07-04T16:59:20.423Z,redis-cart,memory,7958528
2023-07-04T16:59:20.427Z,frontend,memory,23093248
2023-07-04T16:59:20.427Z,productcatalogservice,memory,15949824
2023-07-04T16:59:30.423Z,paymentservice,memory,21671936
2023-07-04T16:59:30.423Z,redis-cart,memory,8081408
2023-07-04T16:59:30.427Z,recommendationservice,memory,41701376
2023-07-04T16:59:30.351Z,currencyservice,memory,28626944
2023-07-04T16:59:30.351Z,cartservice,memory,36061184
2023-07-04T16:59:30.423Z,adservice,memory,81235968
2023-07-04T16:59:30.351Z,redis-cart,memory,8458240
2023-07-04T16:59:30.427Z,frontend,memory,23011328
2023-07-04T16:59:30.427Z,checkoutservice,memory,15253504
2023-07-04T16:59:30.423Z,shippingservice,memory,12673024
2023-07-04T16:59:30.423Z,emailservice,memory,43098112
2023-07-04T16:59:30.423Z,redis-cart,memory,7958528
2023-07-04T16:59:30.427Z,productcatalogservice,memory,15822848
2023-07-04T16:59:30.427Z,redis-cart,memory,7946240
2023-07-04T16:59:40.351Z,currencyservice,memory,28626944
2023-07-04T16:59:40.427Z,frontend,memory,22921216
2023-07-04T16:59:40.423Z,redis-cart,memory,7958528
2023-07-04T16:59:40.351Z,cartservice,memory,36061184
2023-07-04T16:59:40.427Z,recommendationservice,memory,42983424
2023-07-04T16:59:40.427Z,productcatalogservice,memory,15822848
2023-07-04T16:59:40.423Z,adservice,memory,81416192
2023-07-04T16:59:40.427Z,redis-cart,memory,7946240
2023-07-04T16:59:40.351Z,redis-cart,memory,8458240
2023-07-04T16:59:40.423Z,paymentservice,memory,22065152
2023-07-04T16:59:40.423Z,emailservice,memory,43098112
2023-07-04T16:59:40.423Z,redis-cart,memory,8081408
2023-07-04T16:59:40.427Z,checkoutservice,memory,15253504
2023-07-04T16:59:40.423Z,shippingservice,memory,14766080
2023-07-04T16:59:50.350Z,redis-cart,memory,8462336
2023-07-04T16:59:50.423Z,adservice,memory,81416192
2023-07-04T16:59:50.427Z,recommendationservice,memory,42983424
2023-07-04T16:59:50.350Z,currencyservice,memory,29118464
2023-07-04T16:59:50.423Z,paymentservice,memory,22065152
2023-07-04T16:59:50.427Z,checkoutservice,memory,15253504
2023-07-04T16:59:50.350Z,cartservice,memory,36212736
2023-07-04T16:59:50.423Z,redis-cart,memory,7950336
2023-07-04T16:59:50.427Z,redis-cart,memory,7946240
2023-07-04T16:59:50.427Z,frontend,memory,23252992
2023-07-04T16:59:50.423Z,shippingservice,memory,14766080
2023-07-04T16:59:50.423Z,emailservice,memory,43098112
2023-07-04T16:59:50.423Z,redis-cart,memory,7958528
2023-07-04T16:59:50.427Z,productcatalogservice,memory,15953920
2023-07-04T17:00:00.350Z,cartservice,memory,36184064
2023-07-04T17:00:00.350Z,currencyservice,memory,29229056
2023-07-04T17:00:00.423Z,redis-cart,memory,7950336
2023-07-04T17:00:00.423Z,paymentservice,memory,22319104
2023-07-04T17:00:00.423Z,redis-cart,memory,7958528
2023-07-04T17:00:00.423Z,emailservice,memory,43098112
2023-07-04T17:00:00.423Z,adservice,memory,81743872
2023-07-04T17:00:00.427Z,recommendationservice,memory,42987520
2023-07-04T17:00:00.427Z,checkoutservice,memory,15253504
2023-07-04T17:00:00.350Z,redis-cart,memory,8462336
2023-07-04T17:00:00.423Z,shippingservice,memory,14766080
2023-07-04T17:00:00.427Z,productcatalogservice,memory,15958016
2023-07-04T17:00:00.427Z,redis-cart,memory,8077312
2023-07-04T17:00:00.427Z,frontend,memory,23056384
2023-07-04T17:00:10.423Z,paymentservice,memory,22319104
2023-07-04T17:00:10.427Z,frontend,memory,23056384
2023-07-04T17:00:10.350Z,cartservice,memory,36184064
2023-07-04T17:00:10.350Z,redis-cart,memory,8589312
2023-07-04T17:00:10.423Z,shippingservice,memory,14766080
2023-07-04T17:00:10.423Z,redis-cart,memory,7958528
2023-07-04T17:00:10.423Z,adservice,memory,81743872
2023-07-04T17:00:10.427Z,checkoutservice,memory,15261696
2023-07-04T17:00:10.350Z,currencyservice,memory,29511680
2023-07-04T17:00:10.423Z,redis-cart,memory,7950336
2023-07-04T17:00:10.423Z,emailservice,memory,43098112
2023-07-04T17:00:10.427Z,redis-cart,memory,7946240
2023-07-04T17:00:10.427Z,productcatalogservice,memory,15958016
2023-07-04T17:00:10.427Z,recommendationservice,memory,42987520
2023-07-04T17:00:20.350Z,redis-cart,memory,8593408
2023-07-04T17:00:20.427Z,checkoutservice,memory,15261696
2023-07-04T17:00:20.423Z,adservice,memory,81620992
2023-07-04T17:00:20.423Z,emailservice,memory,43098112
2023-07-04T17:00:20.350Z,currencyservice,memory,29560832
2023-07-04T17:00:20.350Z,cartservice,memory,36028416
2023-07-04T17:00:20.427Z,redis-cart,memory,7946240
2023-07-04T17:00:20.427Z,productcatalogservice,memory,15958016
2023-07-04T17:00:20.427Z,recommendationservice,memory,42987520
2023-07-04T17:00:20.423Z,paymentservice,memory,21700608
2023-07-04T17:00:20.427Z,frontend,memory,23056384
2023-07-04T17:00:20.423Z,redis-cart,memory,8081408
2023-07-04T17:00:20.423Z,redis-cart,memory,8089600
2023-07-04T17:00:20.423Z,shippingservice,memory,14770176
2023-07-04T17:00:30.428Z,productcatalogservice,memory,15863808
2023-07-04T17:00:30.350Z,currencyservice,memory,29560832
2023-07-04T17:00:30.350Z,cartservice,memory,36028416
2023-07-04T17:00:30.423Z,paymentservice,memory,21962752
2023-07-04T17:00:30.423Z,shippingservice,memory,14782464
2023-07-04T17:00:30.428Z,redis-cart,memory,8077312
2023-07-04T17:00:30.423Z,redis-cart,memory,7958528
2023-07-04T17:00:30.423Z,adservice,memory,81620992
2023-07-04T17:00:30.428Z,frontend,memory,22843392
2023-07-04T17:00:30.428Z,checkoutservice,memory,15491072
2023-07-04T17:00:30.350Z,redis-cart,memory,8593408
2023-07-04T17:00:30.423Z,redis-cart,memory,8081408
2023-07-04T17:00:30.423Z,emailservice,memory,43102208
2023-07-04T17:00:30.428Z,recommendationservice,memory,43003904
2023-07-04T17:00:40.423Z,adservice,memory,81821696
2023-07-04T17:00:40.423Z,shippingservice,memory,14807040
2023-07-04T17:00:40.350Z,redis-cart,memory,8462336
2023-07-04T17:00:40.423Z,paymentservice,memory,21962752
2023-07-04T17:00:40.427Z,frontend,memory,22843392
2023-07-04T17:00:40.427Z,recommendationservice,memory,42995712
2023-07-04T17:00:40.423Z,redis-cart,memory,8089600
2023-07-04T17:00:40.423Z,redis-cart,memory,8081408
2023-07-04T17:00:40.427Z,redis-cart,memory,7946240
2023-07-04T17:00:40.427Z,checkoutservice,memory,15511552
2023-07-04T17:00:40.350Z,cartservice,memory,36065280
2023-07-04T17:00:40.350Z,currencyservice,memory,29835264
2023-07-04T17:00:40.423Z,emailservice,memory,43102208
2023-07-04T17:00:40.427Z,productcatalogservice,memory,15998976
2023-07-04T17:00:50.423Z,shippingservice,memory,14807040
2023-07-04T17:00:50.423Z,redis-cart,memory,8089600
2023-07-04T17:00:50.423Z,emailservice,memory,43102208
2023-07-04T17:00:50.350Z,redis-cart,memory,8462336
2023-07-04T17:00:50.423Z,paymentservice,memory,22114304
2023-07-04T17:00:50.350Z,currencyservice,memory,29835264
2023-07-04T17:00:50.423Z,adservice,memory,81821696
2023-07-04T17:00:50.427Z,productcatalogservice,memory,15998976
2023-07-04T17:00:50.427Z,checkoutservice,memory,15519744
2023-07-04T17:00:50.350Z,cartservice,memory,36065280
2023-07-04T17:00:50.423Z,redis-cart,memory,7950336
2023-07-04T17:00:50.427Z,redis-cart,memory,7946240
2023-07-04T17:00:50.427Z,frontend,memory,23031808
2023-07-04T17:00:50.427Z,recommendationservice,memory,42995712
2023-07-04T17:01:00.351Z,currencyservice,memory,30638080
2023-07-04T17:01:00.423Z,shippingservice,memory,14807040
2023-07-04T17:01:00.423Z,emailservice,memory,43102208
2023-07-04T17:01:00.351Z,redis-cart,memory,8462336
2023-07-04T17:01:00.423Z,adservice,memory,81821696
2023-07-04T17:01:00.423Z,paymentservice,memory,22114304
2023-07-04T17:01:00.427Z,productcatalogservice,memory,15998976
2023-07-04T17:01:00.427Z,checkoutservice,memory,15519744
2023-07-04T17:01:00.351Z,cartservice,memory,36126720
2023-07-04T17:01:00.423Z,redis-cart,memory,7950336
2023-07-04T17:01:00.423Z,redis-cart,memory,8089600
2023-07-04T17:01:00.427Z,redis-cart,memory,7946240
2023-07-04T17:01:00.427Z,frontend,memory,23031808
2023-07-04T17:01:00.427Z,recommendationservice,memory,42995712
2023-07-04T17:01:10.423Z,redis-cart,memory,7958528
2023-07-04T17:01:10.423Z,shippingservice,memory,14790656
2023-07-04T17:01:10.350Z,redis-cart,memory,8462336
2023-07-04T17:01:10.427Z,recommendationservice,memory,42999808
2023-07-04T17:01:10.350Z,currencyservice,memory,30638080
2023-07-04T17:01:10.350Z,cartservice,memory,36126720
2023-07-04T17:01:10.423Z,emailservice,memory,43106304
2023-07-04T17:01:10.427Z,productcatalogservice,memory,15818752
2023-07-04T17:01:10.427Z,checkoutservice,memory,15560704
2023-07-04T17:01:10.427Z,redis-cart,memory,7946240
2023-07-04T17:01:10.423Z,paymentservice,memory,22257664
2023-07-04T17:01:10.423Z,redis-cart,memory,7950336
2023-07-04T17:01:10.423Z,adservice,memory,82833408
2023-07-04T17:01:10.427Z,frontend,memory,22888448
2023-07-04T17:01:20.350Z,cartservice,memory,36220928
2023-07-04T17:01:20.423Z,emailservice,memory,43102208
2023-07-04T17:01:20.350Z,redis-cart,memory,8462336
2023-07-04T17:01:20.423Z,adservice,memory,82833408
2023-07-04T17:01:20.423Z,paymentservice,memory,22708224
2023-07-04T17:01:20.427Z,redis-cart,memory,7946240
2023-07-04T17:01:20.427Z,frontend,memory,23465984
2023-07-04T17:01:20.427Z,recommendationservice,memory,43016192
2023-07-04T17:01:20.350Z,currencyservice,memory,30838784
2023-07-04T17:01:20.427Z,checkoutservice,memory,15593472
2023-07-04T17:01:20.423Z,redis-cart,memory,7950336
2023-07-04T17:01:20.423Z,redis-cart,memory,7958528
2023-07-04T17:01:20.423Z,shippingservice,memory,14794752
2023-07-04T17:01:20.427Z,productcatalogservice,memory,15867904
2023-07-04T17:01:30.351Z,cartservice,memory,36085760
2023-07-04T17:01:30.422Z,adservice,memory,82833408
2023-07-04T17:01:30.422Z,paymentservice,memory,22708224
2023-07-04T17:01:30.351Z,currencyservice,memory,31408128
2023-07-04T17:01:30.422Z,emailservice,memory,43102208
2023-07-04T17:01:30.427Z,recommendationservice,memory,43016192
2023-07-04T17:01:30.422Z,redis-cart,memory,7950336
2023-07-04T17:01:30.422Z,redis-cart,memory,7958528
2023-07-04T17:01:30.422Z,shippingservice,memory,14794752
2023-07-04T17:01:30.427Z,productcatalogservice,memory,15945728
2023-07-04T17:01:30.427Z,checkoutservice,memory,15593472
2023-07-04T17:01:30.351Z,redis-cart,memory,8462336
2023-07-04T17:01:30.427Z,redis-cart,memory,7950336
2023-07-04T17:01:30.427Z,frontend,memory,23044096
2023-07-04T17:01:40.427Z,redis-cart,memory,7950336
2023-07-04T17:01:40.423Z,redis-cart,memory,7958528
2023-07-04T17:01:40.350Z,currencyservice,memory,31408128
2023-07-04T17:01:40.350Z,redis-cart,memory,8462336
2023-07-04T17:01:40.423Z,adservice,memory,84041728
2023-07-04T17:01:40.423Z,paymentservice,memory,22011904
2023-07-04T17:01:40.350Z,cartservice,memory,36085760
2023-07-04T17:01:40.427Z,recommendationservice,memory,43016192
2023-07-04T17:01:40.427Z,frontend,memory,23044096
2023-07-04T17:01:40.423Z,redis-cart,memory,7950336
2023-07-04T17:01:40.427Z,productcatalogservice,memory,15945728
2023-07-04T17:01:40.427Z,checkoutservice,memory,15593472
2023-07-04T17:01:40.423Z,emailservice,memory,43102208
2023-07-04T17:01:40.423Z,shippingservice,memory,14798848
2023-07-04T17:01:50.350Z,currencyservice,memory,31715328
2023-07-04T17:01:50.424Z,emailservice,memory,43102208
2023-07-04T17:01:50.350Z,cartservice,memory,36356096
2023-07-04T17:01:50.350Z,redis-cart,memory,8593408
2023-07-04T17:01:50.424Z,paymentservice,memory,22102016
2023-07-04T17:01:50.424Z,redis-cart,memory,8089600
2023-07-04T17:01:50.424Z,adservice,memory,82350080
2023-07-04T17:01:50.427Z,checkoutservice,memory,15597568
2023-07-04T17:01:50.427Z,recommendationservice,memory,43147264
2023-07-04T17:01:50.427Z,productcatalogservice,memory,15949824
2023-07-04T17:01:50.427Z,redis-cart,memory,8077312
2023-07-04T17:01:50.424Z,shippingservice,memory,14798848
2023-07-04T17:01:50.424Z,redis-cart,memory,7950336
2023-07-04T17:01:50.427Z,frontend,memory,23310336
2023-07-04T17:02:00.423Z,redis-cart,memory,8089600
2023-07-04T17:02:00.423Z,shippingservice,memory,14798848
2023-07-04T17:02:00.427Z,checkoutservice,memory,15605760
2023-07-04T17:02:00.351Z,redis-cart,memory,8593408
2023-07-04T17:02:00.351Z,cartservice,memory,36036608
2023-07-04T17:02:00.423Z,paymentservice,memory,22286336
2023-07-04T17:02:00.427Z,productcatalogservice,memory,16027648
2023-07-04T17:02:00.427Z,redis-cart,memory,7950336
2023-07-04T17:02:00.423Z,emailservice,memory,43102208
2023-07-04T17:02:00.423Z,redis-cart,memory,7950336
2023-07-04T17:02:00.427Z,frontend,memory,23310336
2023-07-04T17:02:00.427Z,recommendationservice,memory,43147264
2023-07-04T17:02:00.351Z,currencyservice,memory,31969280
2023-07-04T17:02:00.423Z,adservice,memory,82350080
2023-07-04T17:02:10.350Z,redis-cart,memory,8593408
2023-07-04T17:02:10.350Z,cartservice,memory,36036608
2023-07-04T17:02:10.423Z,paymentservice,memory,22286336
2023-07-04T17:02:10.423Z,shippingservice,memory,14798848
2023-07-04T17:02:10.423Z,redis-cart,memory,8089600
2023-07-04T17:02:10.427Z,frontend,memory,23482368
2023-07-04T17:02:10.427Z,productcatalogservice,memory,16027648
2023-07-04T17:02:10.427Z,redis-cart,memory,7946240
2023-07-04T17:02:10.427Z,checkoutservice,memory,15626240
2023-07-04T17:02:10.350Z,currencyservice,memory,31969280
2023-07-04T17:02:10.423Z,emailservice,memory,43102208
2023-07-04T17:02:10.423Z,adservice,memory,82350080
2023-07-04T17:02:10.423Z,redis-cart,memory,7950336
2023-07-04T17:02:10.427Z,recommendationservice,memory,43020288
2023-07-04T17:02:20.351Z,currencyservice,memory,32288768
2023-07-04T17:02:20.427Z,recommendationservice,memory,43020288
2023-07-04T17:02:20.427Z,checkoutservice,memory,15626240
2023-07-04T17:02:20.422Z,redis-cart,memory,7958528
2023-07-04T17:02:20.422Z,adservice,memory,82759680
2023-07-04T17:02:20.422Z,redis-cart,memory,8081408
2023-07-04T17:02:20.351Z,redis-cart,memory,8458240
2023-07-04T17:02:20.427Z,productcatalogservice,memory,16027648
2023-07-04T17:02:20.422Z,paymentservice,memory,22589440
2023-07-04T17:02:20.422Z,emailservice,memory,43102208
2023-07-04T17:02:20.351Z,cartservice,memory,36110336
2023-07-04T17:02:20.427Z,frontend,memory,23482368
2023-07-04T17:02:20.427Z,redis-cart,memory,7946240
2023-07-04T17:02:20.422Z,shippingservice,memory,14798848
2023-07-04T17:02:30.423Z,shippingservice,memory,14798848
2023-07-04T17:02:30.423Z,emailservice,memory,43102208
2023-07-04T17:02:30.427Z,checkoutservice,memory,15626240
2023-07-04T17:02:30.423Z,paymentservice,memory,22589440
2023-07-04T17:02:30.427Z,redis-cart,memory,7946240
2023-07-04T17:02:30.427Z,frontend,memory,22937600
2023-07-04T17:02:30.350Z,redis-cart,memory,8458240
2023-07-04T17:02:30.350Z,currencyservice,memory,32288768
2023-07-04T17:02:30.423Z,adservice,memory,82759680
2023-07-04T17:02:30.423Z,redis-cart,memory,7950336
2023-07-04T17:02:30.427Z,productcatalogservice,memory,16068608
2023-07-04T17:02:30.427Z,recommendationservice,memory,43024384
2023-07-04T17:02:30.350Z,cartservice,memory,36110336
2023-07-04T17:02:30.423Z,redis-cart,memory,8089600
2023-07-04T17:02:40.350Z,currencyservice,memory,32288768
2023-07-04T17:02:40.423Z,paymentservice,memory,22589440
2023-07-04T17:02:40.350Z,redis-cart,memory,8589312
2023-07-04T17:02:40.423Z,redis-cart,memory,8089600
2023-07-04T17:02:40.423Z,redis-cart,memory,7950336
2023-07-04T17:02:40.427Z,redis-cart,memory,7946240
2023-07-04T17:02:40.427Z,frontend,memory,22994944
2023-07-04T17:02:40.350Z,cartservice,memory,36110336
2023-07-04T17:02:40.423Z,adservice,memory,82759680
2023-07-04T17:02:40.423Z,shippingservice,memory,14798848
2023-07-04T17:02:40.423Z,emailservice,memory,43102208
2023-07-04T17:02:40.427Z,productcatalogservice,memory,15953920
2023-07-04T17:02:40.427Z,recommendationservice,memory,43024384
2023-07-04T17:02:40.427Z,checkoutservice,memory,15626240
2023-07-04T17:02:50.350Z,redis-cart,memory,8597504
2023-07-04T17:02:50.427Z,recommendationservice,memory,43024384
2023-07-04T17:02:50.427Z,frontend,memory,22994944
2023-07-04T17:02:50.423Z,redis-cart,memory,7950336
2023-07-04T17:02:50.350Z,cartservice,memory,36065280
2023-07-04T17:02:50.427Z,productcatalogservice,memory,15953920
2023-07-04T17:02:50.423Z,adservice,memory,82206720
2023-07-04T17:02:50.423Z,redis-cart,memory,8089600
2023-07-04T17:02:50.427Z,redis-cart,memory,7946240
2023-07-04T17:02:50.350Z,currencyservice,memory,32555008
2023-07-04T17:02:50.427Z,checkoutservice,memory,15626240
2023-07-04T17:02:50.423Z,shippingservice,memory,14807040
2023-07-04T17:02:50.423Z,emailservice,memory,43102208
2023-07-04T17:02:50.423Z,paymentservice,memory,22130688
2023-07-04T17:03:00.427Z,redis-cart,memory,7946240
2023-07-04T17:03:00.423Z,shippingservice,memory,14807040
2023-07-04T17:03:00.350Z,cartservice,memory,36065280
2023-07-04T17:03:00.350Z,currencyservice,memory,32555008
2023-07-04T17:03:00.427Z,productcatalogservice,memory,15953920
2023-07-04T17:03:00.423Z,redis-cart,memory,7950336
2023-07-04T17:03:00.423Z,emailservice,memory,43233280
2023-07-04T17:03:00.350Z,redis-cart,memory,8462336
2023-07-04T17:03:00.427Z,checkoutservice,memory,15626240
2023-07-04T17:03:00.427Z,recommendationservice,memory,43024384
2023-07-04T17:03:00.427Z,frontend,memory,22994944
2023-07-04T17:03:00.423Z,adservice,memory,82362368
2023-07-04T17:03:00.423Z,redis-cart,memory,7958528
2023-07-04T17:03:00.423Z,paymentservice,memory,22130688
2023-07-04T17:03:10.350Z,currencyservice,memory,32391168
2023-07-04T17:03:10.423Z,redis-cart,memory,8089600
2023-07-04T17:03:10.427Z,redis-cart,memory,8081408
2023-07-04T17:03:10.350Z,cartservice,memory,36102144
2023-07-04T17:03:10.427Z,productcatalogservice,memory,16064512
2023-07-04T17:03:10.423Z,adservice,memory,82362368
2023-07-04T17:03:10.423Z,emailservice,memory,43102208
2023-07-04T17:03:10.427Z,frontend,memory,23609344
2023-07-04T17:03:10.427Z,recommendationservice,memory,43028480
2023-07-04T17:03:10.350Z,redis-cart,memory,8597504
2023-07-04T17:03:10.423Z,redis-cart,memory,7950336
2023-07-04T17:03:10.423Z,shippingservice,memory,14823424
2023-07-04T17:03:10.423Z,paymentservice,memory,22437888
2023-07-04T17:03:10.427Z,checkoutservice,memory,15630336
2023-07-04T17:03:20.351Z,redis-cart,memory,8597504
2023-07-04T17:03:20.351Z,currencyservice,memory,33230848
2023-07-04T17:03:20.423Z,paymentservice,memory,22437888
2023-07-04T17:03:20.427Z,productcatalogservice,memory,16064512
2023-07-04T17:03:20.427Z,redis-cart,memory,7946240
2023-07-04T17:03:20.423Z,redis-cart,memory,8089600
2023-07-04T17:03:20.423Z,adservice,memory,82501632
2023-07-04T17:03:20.423Z,redis-cart,memory,7950336
2023-07-04T17:03:20.427Z,checkoutservice,memory,15634432
2023-07-04T17:03:20.351Z,cartservice,memory,36065280
2023-07-04T17:03:20.423Z,shippingservice,memory,14811136
2023-07-04T17:03:20.423Z,emailservice,memory,43102208
2023-07-04T17:03:20.427Z,frontend,memory,23068672
2023-07-04T17:03:20.427Z,recommendationservice,memory,43032576
2023-07-04T17:03:30.423Z,emailservice,memory,43102208
2023-07-04T17:03:30.423Z,paymentservice,memory,22757376
2023-07-04T17:03:30.427Z,productcatalogservice,memory,16064512
2023-07-04T17:03:30.423Z,redis-cart,memory,7958528
2023-07-04T17:03:30.423Z,shippingservice,memory,14811136
2023-07-04T17:03:30.427Z,recommendationservice,memory,43032576
2023-07-04T17:03:30.423Z,adservice,memory,82407424
2023-07-04T17:03:30.423Z,redis-cart,memory,7950336
2023-07-04T17:03:30.427Z,checkoutservice,memory,15667200
2023-07-04T17:03:30.427Z,frontend,memory,23068672
2023-07-04T17:03:30.350Z,redis-cart,memory,8597504
2023-07-04T17:03:30.350Z,currencyservice,memory,33230848
2023-07-04T17:03:30.350Z,cartservice,memory,36065280
2023-07-04T17:03:30.427Z,redis-cart,memory,7946240
2023-07-04T17:03:40.427Z,redis-cart,memory,7946240
2023-07-04T17:03:40.350Z,currencyservice,memory,32768000
2023-07-04T17:03:40.423Z,redis-cart,memory,7958528
2023-07-04T17:03:40.423Z,shippingservice,memory,14811136
2023-07-04T17:03:40.427Z,recommendationservice,memory,43032576
2023-07-04T17:03:40.350Z,redis-cart,memory,8462336
2023-07-04T17:03:40.423Z,emailservice,memory,43102208
2023-07-04T17:03:40.423Z,paymentservice,memory,22757376
2023-07-04T17:03:40.427Z,productcatalogservice,memory,16064512
2023-07-04T17:03:40.350Z,cartservice,memory,36151296
2023-07-04T17:03:40.423Z,adservice,memory,82407424
2023-07-04T17:03:40.423Z,redis-cart,memory,7950336
2023-07-04T17:03:40.427Z,checkoutservice,memory,15667200
2023-07-04T17:03:40.427Z,frontend,memory,23068672
2023-07-04T17:03:50.350Z,currencyservice,memory,32768000
2023-07-04T17:03:50.423Z,shippingservice,memory,14815232
2023-07-04T17:03:50.427Z,checkoutservice,memory,15675392
2023-07-04T17:03:50.427Z,frontend,memory,23322624
2023-07-04T17:03:50.423Z,emailservice,memory,43102208
2023-07-04T17:03:50.350Z,redis-cart,memory,8462336
2023-07-04T17:03:50.350Z,cartservice,memory,36151296
2023-07-04T17:03:50.423Z,redis-cart,memory,8081408
2023-07-04T17:03:50.423Z,paymentservice,memory,21999616
2023-07-04T17:03:50.427Z,recommendationservice,memory,43036672
2023-07-04T17:03:50.423Z,redis-cart,memory,7958528
2023-07-04T17:03:50.423Z,adservice,memory,82952192
2023-07-04T17:03:50.427Z,redis-cart,memory,7946240
2023-07-04T17:03:50.427Z,productcatalogservice,memory,16101376
2023-07-04T17:04:00.350Z,cartservice,memory,36151296
2023-07-04T17:04:00.423Z,adservice,memory,82952192
2023-07-04T17:04:00.350Z,redis-cart,memory,8462336
2023-07-04T17:04:00.350Z,currencyservice,memory,32768000
2023-07-04T17:04:00.423Z,emailservice,memory,43102208
2023-07-04T17:04:00.423Z,paymentservice,memory,22290432
2023-07-04T17:04:00.423Z,shippingservice,memory,14815232
2023-07-04T17:04:00.427Z,recommendationservice,memory,43040768
2023-07-04T17:04:00.423Z,redis-cart,memory,8081408
2023-07-04T17:04:00.423Z,redis-cart,memory,7958528
2023-07-04T17:04:00.427Z,redis-cart,memory,7946240
2023-07-04T17:04:00.427Z,productcatalogservice,memory,16105472
2023-07-04T17:04:00.427Z,checkoutservice,memory,15671296
2023-07-04T17:04:00.427Z,frontend,memory,23351296
