timestamp,key,run_id,resource,metric,value
2021-06-09T11:08:43.077Z,RESERVED_GLOBAL_UNIT_MULTI_PROBE-2-1-1,1,target-1,memory,0.4261360168457031
2021-06-09T11:08:33.078Z,RESERVED_GLOBAL_UNIT_MULTI_PROBE-2-1-1,1,target-1,memory,0.4261054992675781
2021-06-09T11:08:03.078Z,RESERVED_GLOBAL_UNIT_MULTI_PROBE-2-1-1,1,target-1,memory,0.42424774169921875
2021-06-09T11:08:23.077Z,RESERVED_GLOBAL_UNIT_MULTI_PROBE-2-1-1,1,target-1,memory,0.4261054992675781
2021-06-09T11:08:13.077Z,RESERVED_GLOBAL_UNIT_MULTI_PROBE-2-1-1,1,target-1,memory,0.42586517333984375
2021-06-09T11:13:03.078Z,RESERVED_GLOBAL_UNIT_MULTI_PROBE-2-1-1,1,target-1,memory,0.42465972900390625
2021-06-09T11:13:13.077Z,RESERVED_GLOBAL_UNIT_MULTI_PROBE-2-1-1,1,target-1,memory,0.42465972900390625
2021-06-09T11:12:53.077Z,RESERVED_GLOBAL_UNIT_MULTI_PROBE-2-1-1,1,target-1,memory,0.42465972900390625
2021-06-09T11:12:43.077Z,RESERVED_GLOBAL_UNIT_MULTI_PROBE-2-1-1,1,target-1,memory,0.42465972900390625
2021-06-09T11:14:53.077Z,RESERVED_GLOBAL_UNIT_MULTI_PROBE-2-1-1,1,target-1,memory,0.42485809326171875
2021-06-09T11:15:13.077Z,RESERVED_GLOBAL_UNIT_MULTI_PROBE-2-1-1,1,target-1,memory,0.42485809326171875
2021-06-09T11:15:23.077Z,RESERVED_GLOBAL_UNIT_MULTI_PROBE-2-1-1,1,target-1,memory,0.42533111572265625
2021-06-09T11:15:03.077Z,RESERVED_GLOBAL_UNIT_MULTI_PROBE-2-1-1,1,target-1,memory,0.42485809326171875
2021-06-09T11:15:33.077Z,RESERVED_GLOBAL_UNIT_MULTI_PROBE-2-1-1,1,target-1,memory,0.42533111572265625
2021-06-09T11:09:43.078Z,RESERVED_GLOBAL_UNIT_MULTI_PROBE-2-1-1,1,target-1,memory,0.4252166748046875
2021-06-09T11:09:53.077Z,RESERVED_GLOBAL_UNIT_MULTI_PROBE-2-1-1,1,target-1,memory,0.4254302978515625
2021-06-09T11:10:03.077Z,RESERVED_GLOBAL_UNIT_MULTI_PROBE-2-1-1,1,target-1,memory,0.4254302978515625
2021-06-09T11:10:13.077Z,RESERVED_GLOBAL_UNIT_MULTI_PROBE-2-1-1,1,target-1,memory,0.42528533935546875
2021-06-09T11:10:23.077Z,RESERVED_GLOBAL_UNIT_MULTI_PROBE-2-1-1,1,target-1,memory,0.4248046875
2021-06-09T11:10:33.078Z,RESERVED_GLOBAL_UNIT_MULTI_PROBE-2-1-1,1,target-1,memory,0.4248046875
2021-06-09T11:10:43.077Z,RESERVED_GLOBAL_UNIT_MULTI_PROBE-2-1-1,1,target-1,memory,0.4247932434082031
2021-06-09T11:09:33.077Z,RESERVED_GLOBAL_UNIT_MULTI_PROBE-2-1-1,1,target-1,memory,0.425201416015625
2021-06-09T11:07:23.077Z,RESERVED_GLOBAL_UNIT_MULTI_PROBE-2-1-1,1,target-1,memory,0.4241905212402344
2021-06-09T11:07:43.077Z,RESERVED_GLOBAL_UNIT_MULTI_PROBE-2-1-1,1,target-1,memory,0.4247016906738281
2021-06-09T11:07:53.077Z,RESERVED_GLOBAL_UNIT_MULTI_PROBE-2-1-1,1,target-1,memory,0.42424774169921875
2021-06-09T11:07:33.077Z,RESERVED_GLOBAL_UNIT_MULTI_PROBE-2-1-1,1,target-1,memory,0.4247016906738281
2021-06-09T11:12:33.078Z,RESERVED_GLOBAL_UNIT_MULTI_PROBE-2-1-1,1,target-1,memory,0.4246711730957031
2021-06-09T11:11:53.077Z,RESERVED_GLOBAL_UNIT_MULTI_PROBE-2-1-1,1,target-1,memory,0.4246788024902344
2021-06-09T11:12:13.077Z,RESERVED_GLOBAL_UNIT_MULTI_PROBE-2-1-1,1,target-1,memory,0.4246711730957031
2021-06-09T11:12:23.077Z,RESERVED_GLOBAL_UNIT_MULTI_PROBE-2-1-1,1,target-1,memory,0.4246711730957031
2021-06-09T11:12:03.077Z,RESERVED_GLOBAL_UNIT_MULTI_PROBE-2-1-1,1,target-1,memory,0.4246788024902344
2021-06-09T11:14:23.077Z,RESERVED_GLOBAL_UNIT_MULTI_PROBE-2-1-1,1,target-1,memory,0.4253501892089844
2021-06-09T11:14:13.077Z,RESERVED_GLOBAL_UNIT_MULTI_PROBE-2-1-1,1,target-1,memory,0.42510986328125
2021-06-09T11:14:33.077Z,RESERVED_GLOBAL_UNIT_MULTI_PROBE-2-1-1,1,target-1,memory,0.4253501892089844
2021-06-09T11:14:43.077Z,RESERVED_GLOBAL_UNIT_MULTI_PROBE-2-1-1,1,target-1,memory,0.4253387451171875
2021-06-09T11:06:53.077Z,RESERVED_GLOBAL_UNIT_MULTI_PROBE-2-1-1,1,target-1,memory,0.42415618896484375
2021-06-09T11:07:13.077Z,RESERVED_GLOBAL_UNIT_MULTI_PROBE-2-1-1,1,target-1,memory,0.4242134094238281
2021-06-09T11:07:03.080Z,RESERVED_GLOBAL_UNIT_MULTI_PROBE-2-1-1,1,target-1,memory,0.42415618896484375
2021-06-09T11:10:53.077Z,RESERVED_GLOBAL_UNIT_MULTI_PROBE-2-1-1,1,target-1,memory,0.4252738952636719
2021-06-09T11:11:13.077Z,RESERVED_GLOBAL_UNIT_MULTI_PROBE-2-1-1,1,target-1,memory,0.4251747131347656
2021-06-09T11:11:03.077Z,RESERVED_GLOBAL_UNIT_MULTI_PROBE-2-1-1,1,target-1,memory,0.4252738952636719
2021-06-09T11:11:33.077Z,RESERVED_GLOBAL_UNIT_MULTI_PROBE-2-1-1,1,target-1,memory,0.42493438720703125
2021-06-09T11:11:23.077Z,RESERVED_GLOBAL_UNIT_MULTI_PROBE-2-1-1,1,target-1,memory,0.42493438720703125
2021-06-09T11:11:43.077Z,RESERVED_GLOBAL_UNIT_MULTI_PROBE-2-1-1,1,target-1,memory,0.4249267578125
2021-06-09T11:16:33.077Z,RESERVED_GLOBAL_UNIT_MULTI_PROBE-2-1-1,1,target-1,memory,0.4248085021972656
2021-06-09T11:16:23.077Z,RESERVED_GLOBAL_UNIT_MULTI_PROBE-2-1-1,1,target-1,memory,0.4248085021972656
2021-06-09T11:16:43.077Z,RESERVED_GLOBAL_UNIT_MULTI_PROBE-2-1-1,1,target-1,memory,0.4248008728027344
2021-06-09T11:09:03.077Z,RESERVED_GLOBAL_UNIT_MULTI_PROBE-2-1-1,1,target-1,memory,0.42588043212890625
2021-06-09T11:08:53.077Z,RESERVED_GLOBAL_UNIT_MULTI_PROBE-2-1-1,1,target-1,memory,0.4258842468261719
2021-06-09T11:09:13.077Z,RESERVED_GLOBAL_UNIT_MULTI_PROBE-2-1-1,1,target-1,memory,0.4254417419433594
2021-06-09T11:09:23.077Z,RESERVED_GLOBAL_UNIT_MULTI_PROBE-2-1-1,1,target-1,memory,0.425201416015625
2021-06-09T11:13:23.077Z,RESERVED_GLOBAL_UNIT_MULTI_PROBE-2-1-1,1,target-1,memory,0.4253730773925781
2021-06-09T11:13:43.077Z,RESERVED_GLOBAL_UNIT_MULTI_PROBE-2-1-1,1,target-1,memory,0.4253730773925781
2021-06-09T11:13:33.077Z,RESERVED_GLOBAL_UNIT_MULTI_PROBE-2-1-1,1,target-1,memory,0.4253730773925781
2021-06-09T11:13:53.077Z,RESERVED_GLOBAL_UNIT_MULTI_PROBE-2-1-1,1,target-1,memory,0.4251251220703125
2021-06-09T11:14:03.077Z,RESERVED_GLOBAL_UNIT_MULTI_PROBE-2-1-1,1,target-1,memory,0.4251251220703125
2021-06-09T11:16:03.077Z,RESERVED_GLOBAL_UNIT_MULTI_PROBE-2-1-1,1,target-1,memory,0.425323486328125
2021-06-09T11:15:43.077Z,RESERVED_GLOBAL_UNIT_MULTI_PROBE-2-1-1,1,target-1,memory,0.42533111572265625
2021-06-09T11:15:53.077Z,RESERVED_GLOBAL_UNIT_MULTI_PROBE-2-1-1,1,target-1,memory,0.425323486328125
2021-06-09T11:16:13.077Z,RESERVED_GLOBAL_UNIT_MULTI_PROBE-2-1-1,1,target-1,memory,0.42529296875
2021-06-09T11:19:26.640Z,RESERVED_GLOBAL_UNIT_MULTI_PROBE-2-1-1,2,target-1,memory,0.425933837890625
2021-06-09T11:19:36.640Z,RESERVED_GLOBAL_UNIT_MULTI_PROBE-2-1-1,2,target-1,memory,0.425933837890625
2021-06-09T11:19:06.640Z,RESERVED_GLOBAL_UNIT_MULTI_PROBE-2-1-1,2,target-1,memory,0.42594146728515625
2021-06-09T11:18:56.641Z,RESERVED_GLOBAL_UNIT_MULTI_PROBE-2-1-1,2,target-1,memory,0.4260520935058594
2021-06-09T11:19:16.640Z,RESERVED_GLOBAL_UNIT_MULTI_PROBE-2-1-1,2,target-1,memory,0.42594146728515625
2021-06-09T11:22:26.640Z,RESERVED_GLOBAL_UNIT_MULTI_PROBE-2-1-1,2,target-1,memory,0.4256172180175781
2021-06-09T11:22:16.640Z,RESERVED_GLOBAL_UNIT_MULTI_PROBE-2-1-1,2,target-1,memory,0.4251441955566406
2021-06-09T11:22:36.640Z,RESERVED_GLOBAL_UNIT_MULTI_PROBE-2-1-1,2,target-1,memory,0.42559814453125
2021-06-09T11:21:56.640Z,RESERVED_GLOBAL_UNIT_MULTI_PROBE-2-1-1,2,target-1,memory,0.4252052307128906
2021-06-09T11:22:06.640Z,RESERVED_GLOBAL_UNIT_MULTI_PROBE-2-1-1,2,target-1,memory,0.4251441955566406
2021-06-09T11:25:46.640Z,RESERVED_GLOBAL_UNIT_MULTI_PROBE-2-1-1,2,target-1,memory,0.4247474670410156
2021-06-09T11:26:16.640Z,RESERVED_GLOBAL_UNIT_MULTI_PROBE-2-1-1,2,target-1,memory,0.425201416015625
2021-06-09T11:26:06.640Z,RESERVED_GLOBAL_UNIT_MULTI_PROBE-2-1-1,2,target-1,memory,0.425201416015625
2021-06-09T11:25:56.640Z,RESERVED_GLOBAL_UNIT_MULTI_PROBE-2-1-1,2,target-1,memory,0.4252128601074219
2021-06-09T11:21:26.640Z,RESERVED_GLOBAL_UNIT_MULTI_PROBE-2-1-1,2,target-1,memory,0.4252166748046875
2021-06-09T11:21:36.640Z,RESERVED_GLOBAL_UNIT_MULTI_PROBE-2-1-1,2,target-1,memory,0.4252128601074219
2021-06-09T11:21:46.640Z,RESERVED_GLOBAL_UNIT_MULTI_PROBE-2-1-1,2,target-1,memory,0.4252128601074219
2021-06-09T11:21:16.640Z,RESERVED_GLOBAL_UNIT_MULTI_PROBE-2-1-1,2,target-1,memory,0.42569732666015625
2021-06-09T11:25:16.640Z,RESERVED_GLOBAL_UNIT_MULTI_PROBE-2-1-1,2,target-1,memory,0.4252357482910156
2021-06-09T11:25:26.640Z,RESERVED_GLOBAL_UNIT_MULTI_PROBE-2-1-1,2,target-1,memory,0.4247474670410156
2021-06-09T11:25:06.640Z,RESERVED_GLOBAL_UNIT_MULTI_PROBE-2-1-1,2,target-1,memory,0.4252357482910156
2021-06-09T11:25:36.640Z,RESERVED_GLOBAL_UNIT_MULTI_PROBE-2-1-1,2,target-1,memory,0.4247474670410156
2021-06-09T11:24:56.640Z,RESERVED_GLOBAL_UNIT_MULTI_PROBE-2-1-1,2,target-1,memory,0.42523956298828125
2021-06-09T11:18:46.640Z,RESERVED_GLOBAL_UNIT_MULTI_PROBE-2-1-1,2,target-1,memory,0.42581939697265625
2021-06-09T11:24:36.640Z,RESERVED_GLOBAL_UNIT_MULTI_PROBE-2-1-1,2,target-1,memory,0.424285888671875
2021-06-09T11:24:46.640Z,RESERVED_GLOBAL_UNIT_MULTI_PROBE-2-1-1,2,target-1,memory,0.4245262145996094
2021-06-09T11:24:26.641Z,RESERVED_GLOBAL_UNIT_MULTI_PROBE-2-1-1,2,target-1,memory,0.424285888671875
2021-06-09T11:24:16.640Z,RESERVED_GLOBAL_UNIT_MULTI_PROBE-2-1-1,2,target-1,memory,0.42501068115234375
2021-06-09T11:28:16.640Z,RESERVED_GLOBAL_UNIT_MULTI_PROBE-2-1-1,2,target-1,memory,0.4242057800292969
2021-06-09T11:28:36.640Z,RESERVED_GLOBAL_UNIT_MULTI_PROBE-2-1-1,2,target-1,memory,0.4244422912597656
2021-06-09T11:28:26.640Z,RESERVED_GLOBAL_UNIT_MULTI_PROBE-2-1-1,2,target-1,memory,0.4244422912597656
2021-06-09T11:28:06.640Z,RESERVED_GLOBAL_UNIT_MULTI_PROBE-2-1-1,2,target-1,memory,0.4242057800292969
2021-06-09T11:27:56.640Z,RESERVED_GLOBAL_UNIT_MULTI_PROBE-2-1-1,2,target-1,memory,0.4242095947265625
2021-06-09T11:20:46.640Z,RESERVED_GLOBAL_UNIT_MULTI_PROBE-2-1-1,2,target-1,memory,0.42584228515625
2021-06-09T11:20:26.640Z,RESERVED_GLOBAL_UNIT_MULTI_PROBE-2-1-1,2,target-1,memory,0.4258537292480469
2021-06-09T11:21:06.640Z,RESERVED_GLOBAL_UNIT_MULTI_PROBE-2-1-1,2,target-1,memory,0.42569732666015625
2021-06-09T11:20:56.640Z,RESERVED_GLOBAL_UNIT_MULTI_PROBE-2-1-1,2,target-1,memory,0.425872802734375
2021-06-09T11:20:36.641Z,RESERVED_GLOBAL_UNIT_MULTI_PROBE-2-1-1,2,target-1,memory,0.42584228515625
2021-06-09T11:23:06.640Z,RESERVED_GLOBAL_UNIT_MULTI_PROBE-2-1-1,2,target-1,memory,0.4254188537597656
2021-06-09T11:22:46.640Z,RESERVED_GLOBAL_UNIT_MULTI_PROBE-2-1-1,2,target-1,memory,0.42559814453125
2021-06-09T11:22:56.640Z,RESERVED_GLOBAL_UNIT_MULTI_PROBE-2-1-1,2,target-1,memory,0.4258384704589844
2021-06-09T11:23:16.640Z,RESERVED_GLOBAL_UNIT_MULTI_PROBE-2-1-1,2,target-1,memory,0.4254188537597656
2021-06-09T11:27:46.640Z,RESERVED_GLOBAL_UNIT_MULTI_PROBE-2-1-1,2,target-1,memory,0.42444610595703125
2021-06-09T11:27:36.640Z,RESERVED_GLOBAL_UNIT_MULTI_PROBE-2-1-1,2,target-1,memory,0.42444610595703125
2021-06-09T11:27:26.640Z,RESERVED_GLOBAL_UNIT_MULTI_PROBE-2-1-1,2,target-1,memory,0.4244575500488281
2021-06-09T11:27:16.640Z,RESERVED_GLOBAL_UNIT_MULTI_PROBE-2-1-1,2,target-1,memory,0.42470550537109375
2021-06-09T11:20:16.640Z,RESERVED_GLOBAL_UNIT_MULTI_PROBE-2-1-1,2,target-1,memory,0.4253730773925781
2021-06-09T11:19:46.640Z,RESERVED_GLOBAL_UNIT_MULTI_PROBE-2-1-1,2,target-1,memory,0.425933837890625
2021-06-09T11:19:56.640Z,RESERVED_GLOBAL_UNIT_MULTI_PROBE-2-1-1,2,target-1,memory,0.4263572692871094
2021-06-09T11:20:06.640Z,RESERVED_GLOBAL_UNIT_MULTI_PROBE-2-1-1,2,target-1,memory,0.42537689208984375
2021-06-09T11:23:56.640Z,RESERVED_GLOBAL_UNIT_MULTI_PROBE-2-1-1,2,target-1,memory,0.42516326904296875
2021-06-09T11:24:06.640Z,RESERVED_GLOBAL_UNIT_MULTI_PROBE-2-1-1,2,target-1,memory,0.42501068115234375
2021-06-09T11:23:26.640Z,RESERVED_GLOBAL_UNIT_MULTI_PROBE-2-1-1,2,target-1,memory,0.42469024658203125
2021-06-09T11:23:46.640Z,RESERVED_GLOBAL_UNIT_MULTI_PROBE-2-1-1,2,target-1,memory,0.4246826171875
2021-06-09T11:23:36.640Z,RESERVED_GLOBAL_UNIT_MULTI_PROBE-2-1-1,2,target-1,memory,0.4246826171875
2021-06-09T11:26:26.640Z,RESERVED_GLOBAL_UNIT_MULTI_PROBE-2-1-1,2,target-1,memory,0.4242401123046875
2021-06-09T11:26:36.640Z,RESERVED_GLOBAL_UNIT_MULTI_PROBE-2-1-1,2,target-1,memory,0.4242401123046875
2021-06-09T11:27:06.640Z,RESERVED_GLOBAL_UNIT_MULTI_PROBE-2-1-1,2,target-1,memory,0.42470550537109375
2021-06-09T11:26:56.640Z,RESERVED_GLOBAL_UNIT_MULTI_PROBE-2-1-1,2,target-1,memory,0.424713134765625
2021-06-09T11:26:46.640Z,RESERVED_GLOBAL_UNIT_MULTI_PROBE-2-1-1,2,target-1,memory,0.42423248291015625
2021-06-09T11:30:51.294Z,RESERVED_GLOBAL_UNIT_MULTI_PROBE-2-1-1,3,target-1,memory,0.4267234802246094
2021-06-09T11:31:01.294Z,RESERVED_GLOBAL_UNIT_MULTI_PROBE-2-1-1,3,target-1,memory,0.4267463684082031
2021-06-09T11:30:41.294Z,RESERVED_GLOBAL_UNIT_MULTI_PROBE-2-1-1,3,target-1,memory,0.4257392883300781
2021-06-09T11:31:11.294Z,RESERVED_GLOBAL_UNIT_MULTI_PROBE-2-1-1,3,target-1,memory,0.4267463684082031
2021-06-09T11:31:41.294Z,RESERVED_GLOBAL_UNIT_MULTI_PROBE-2-1-1,3,target-1,memory,0.4261360168457031
2021-06-09T11:37:11.294Z,RESERVED_GLOBAL_UNIT_MULTI_PROBE-2-1-1,3,target-1,memory,0.42589569091796875
2021-06-09T11:36:51.294Z,RESERVED_GLOBAL_UNIT_MULTI_PROBE-2-1-1,3,target-1,memory,0.4258995056152344
2021-06-09T11:35:51.294Z,RESERVED_GLOBAL_UNIT_MULTI_PROBE-2-1-1,3,target-1,memory,0.42519378662109375
2021-06-09T11:36:21.294Z,RESERVED_GLOBAL_UNIT_MULTI_PROBE-2-1-1,3,target-1,memory,0.4259071350097656
2021-06-09T11:36:01.294Z,RESERVED_GLOBAL_UNIT_MULTI_PROBE-2-1-1,3,target-1,memory,0.42519378662109375
2021-06-09T11:36:11.294Z,RESERVED_GLOBAL_UNIT_MULTI_PROBE-2-1-1,3,target-1,memory,0.42519378662109375
2021-06-09T11:36:41.294Z,RESERVED_GLOBAL_UNIT_MULTI_PROBE-2-1-1,3,target-1,memory,0.4258995056152344
2021-06-09T11:36:31.294Z,RESERVED_GLOBAL_UNIT_MULTI_PROBE-2-1-1,3,target-1,memory,0.4259071350097656
2021-06-09T11:37:01.294Z,RESERVED_GLOBAL_UNIT_MULTI_PROBE-2-1-1,3,target-1,memory,0.4258995056152344
2021-06-09T11:40:21.294Z,RESERVED_GLOBAL_UNIT_MULTI_PROBE-2-1-1,3,target-1,memory,0.4250907897949219
2021-06-09T11:40:01.294Z,RESERVED_GLOBAL_UNIT_MULTI_PROBE-2-1-1,3,target-1,memory,0.4250755310058594
2021-06-09T11:40:11.294Z,RESERVED_GLOBAL_UNIT_MULTI_PROBE-2-1-1,3,target-1,memory,0.4250755310058594
2021-06-09T11:40:31.294Z,RESERVED_GLOBAL_UNIT_MULTI_PROBE-2-1-1,3,target-1,memory,0.4250602722167969
2021-06-09T11:31:21.294Z,RESERVED_GLOBAL_UNIT_MULTI_PROBE-2-1-1,3,target-1,memory,0.4267387390136719
2021-06-09T11:32:41.294Z,RESERVED_GLOBAL_UNIT_MULTI_PROBE-2-1-1,3,target-1,memory,0.4259681701660156
2021-06-09T11:31:51.294Z,RESERVED_GLOBAL_UNIT_MULTI_PROBE-2-1-1,3,target-1,memory,0.42565155029296875
2021-06-09T11:32:11.294Z,RESERVED_GLOBAL_UNIT_MULTI_PROBE-2-1-1,3,target-1,memory,0.42565155029296875
2021-06-09T11:32:31.294Z,RESERVED_GLOBAL_UNIT_MULTI_PROBE-2-1-1,3,target-1,memory,0.4259681701660156
2021-06-09T11:32:01.294Z,RESERVED_GLOBAL_UNIT_MULTI_PROBE-2-1-1,3,target-1,memory,0.42565155029296875
2021-06-09T11:37:51.294Z,RESERVED_GLOBAL_UNIT_MULTI_PROBE-2-1-1,3,target-1,memory,0.42494964599609375
2021-06-09T11:37:41.294Z,RESERVED_GLOBAL_UNIT_MULTI_PROBE-2-1-1,3,target-1,memory,0.4251213073730469
2021-06-09T11:37:21.294Z,RESERVED_GLOBAL_UNIT_MULTI_PROBE-2-1-1,3,target-1,memory,0.4251708984375
2021-06-09T11:37:31.294Z,RESERVED_GLOBAL_UNIT_MULTI_PROBE-2-1-1,3,target-1,memory,0.4251213073730469
2021-06-09T11:38:21.294Z,RESERVED_GLOBAL_UNIT_MULTI_PROBE-2-1-1,3,target-1,memory,0.4255867004394531
2021-06-09T11:38:11.294Z,RESERVED_GLOBAL_UNIT_MULTI_PROBE-2-1-1,3,target-1,memory,0.42487335205078125
2021-06-09T11:38:01.294Z,RESERVED_GLOBAL_UNIT_MULTI_PROBE-2-1-1,3,target-1,memory,0.42487335205078125
2021-06-09T11:32:21.294Z,RESERVED_GLOBAL_UNIT_MULTI_PROBE-2-1-1,3,target-1,memory,0.4261207580566406
2021-06-09T11:33:31.294Z,RESERVED_GLOBAL_UNIT_MULTI_PROBE-2-1-1,3,target-1,memory,0.4253959655761719
2021-06-09T11:31:31.294Z,RESERVED_GLOBAL_UNIT_MULTI_PROBE-2-1-1,3,target-1,memory,0.4261436462402344
2021-06-09T11:32:51.297Z,RESERVED_GLOBAL_UNIT_MULTI_PROBE-2-1-1,3,target-1,memory,0.4259605407714844
2021-06-09T11:33:51.294Z,RESERVED_GLOBAL_UNIT_MULTI_PROBE-2-1-1,3,target-1,memory,0.4251556396484375
2021-06-09T11:33:21.294Z,RESERVED_GLOBAL_UNIT_MULTI_PROBE-2-1-1,3,target-1,memory,0.4255027770996094
2021-06-09T11:33:11.294Z,RESERVED_GLOBAL_UNIT_MULTI_PROBE-2-1-1,3,target-1,memory,0.4259834289550781
2021-06-09T11:34:11.294Z,RESERVED_GLOBAL_UNIT_MULTI_PROBE-2-1-1,3,target-1,memory,0.42514801025390625
2021-06-09T11:34:01.294Z,RESERVED_GLOBAL_UNIT_MULTI_PROBE-2-1-1,3,target-1,memory,0.42514801025390625
2021-06-09T11:33:01.294Z,RESERVED_GLOBAL_UNIT_MULTI_PROBE-2-1-1,3,target-1,memory,0.4259834289550781
2021-06-09T11:39:41.294Z,RESERVED_GLOBAL_UNIT_MULTI_PROBE-2-1-1,3,target-1,memory,0.42508697509765625
2021-06-09T11:39:21.295Z,RESERVED_GLOBAL_UNIT_MULTI_PROBE-2-1-1,3,target-1,memory,0.4250907897949219
2021-06-09T11:39:51.294Z,RESERVED_GLOBAL_UNIT_MULTI_PROBE-2-1-1,3,target-1,memory,0.4250755310058594
2021-06-09T11:39:11.294Z,RESERVED_GLOBAL_UNIT_MULTI_PROBE-2-1-1,3,target-1,memory,0.4253387451171875
2021-06-09T11:39:31.294Z,RESERVED_GLOBAL_UNIT_MULTI_PROBE-2-1-1,3,target-1,memory,0.42508697509765625
2021-06-09T11:33:41.294Z,RESERVED_GLOBAL_UNIT_MULTI_PROBE-2-1-1,3,target-1,memory,0.4253959655761719
2021-06-09T11:35:31.294Z,RESERVED_GLOBAL_UNIT_MULTI_PROBE-2-1-1,3,target-1,memory,0.425201416015625
2021-06-09T11:34:31.294Z,RESERVED_GLOBAL_UNIT_MULTI_PROBE-2-1-1,3,target-1,memory,0.4254722595214844
2021-06-09T11:35:01.294Z,RESERVED_GLOBAL_UNIT_MULTI_PROBE-2-1-1,3,target-1,memory,0.42525482177734375
2021-06-09T11:35:21.294Z,RESERVED_GLOBAL_UNIT_MULTI_PROBE-2-1-1,3,target-1,memory,0.4252433776855469
2021-06-09T11:35:41.294Z,RESERVED_GLOBAL_UNIT_MULTI_PROBE-2-1-1,3,target-1,memory,0.425201416015625
2021-06-09T11:34:41.294Z,RESERVED_GLOBAL_UNIT_MULTI_PROBE-2-1-1,3,target-1,memory,0.4254722595214844
2021-06-09T11:34:51.294Z,RESERVED_GLOBAL_UNIT_MULTI_PROBE-2-1-1,3,target-1,memory,0.42525482177734375
2021-06-09T11:35:11.294Z,RESERVED_GLOBAL_UNIT_MULTI_PROBE-2-1-1,3,target-1,memory,0.4254913330078125
2021-06-09T11:34:21.294Z,RESERVED_GLOBAL_UNIT_MULTI_PROBE-2-1-1,3,target-1,memory,0.4256439208984375
2021-06-09T11:38:51.294Z,RESERVED_GLOBAL_UNIT_MULTI_PROBE-2-1-1,3,target-1,memory,0.4255790710449219
2021-06-09T11:38:41.294Z,RESERVED_GLOBAL_UNIT_MULTI_PROBE-2-1-1,3,target-1,memory,0.4255790710449219
2021-06-09T11:39:01.294Z,RESERVED_GLOBAL_UNIT_MULTI_PROBE-2-1-1,3,target-1,memory,0.4253387451171875
2021-06-09T11:38:31.294Z,RESERVED_GLOBAL_UNIT_MULTI_PROBE-2-1-1,3,target-1,memory,0.4255867004394531
2021-06-09T11:43:12.830Z,RESERVED_GLOBAL_UNIT_MULTI_PROBE-2-1-2,1,target-1,memory,0.42331695556640625
2021-06-09T11:43:52.830Z,RESERVED_GLOBAL_UNIT_MULTI_PROBE-2-1-2,1,target-1,memory,0.4235687255859375
2021-06-09T11:43:42.830Z,RESERVED_GLOBAL_UNIT_MULTI_PROBE-2-1-2,1,target-1,memory,0.4240608215332031
2021-06-09T11:42:52.830Z,RESERVED_GLOBAL_UNIT_MULTI_PROBE-2-1-2,1,target-1,memory,0.4233245849609375
2021-06-09T11:43:22.830Z,RESERVED_GLOBAL_UNIT_MULTI_PROBE-2-1-2,1,target-1,memory,0.4240684509277344
2021-06-09T11:43:02.830Z,RESERVED_GLOBAL_UNIT_MULTI_PROBE-2-1-2,1,target-1,memory,0.42331695556640625
2021-06-09T11:43:32.830Z,RESERVED_GLOBAL_UNIT_MULTI_PROBE-2-1-2,1,target-1,memory,0.4240608215332031
2021-06-09T11:50:42.830Z,RESERVED_GLOBAL_UNIT_MULTI_PROBE-2-1-2,1,target-1,memory,0.4246368408203125
2021-06-09T11:51:12.830Z,RESERVED_GLOBAL_UNIT_MULTI_PROBE-2-1-2,1,target-1,memory,0.4246253967285156
2021-06-09T11:51:02.830Z,RESERVED_GLOBAL_UNIT_MULTI_PROBE-2-1-2,1,target-1,memory,0.4246253967285156
2021-06-09T11:50:52.830Z,RESERVED_GLOBAL_UNIT_MULTI_PROBE-2-1-2,1,target-1,memory,0.4246330261230469
2021-06-09T11:50:32.830Z,RESERVED_GLOBAL_UNIT_MULTI_PROBE-2-1-2,1,target-1,memory,0.4246368408203125
2021-06-09T11:50:12.830Z,RESERVED_GLOBAL_UNIT_MULTI_PROBE-2-1-2,1,target-1,memory,0.4246711730957031
2021-06-09T11:50:22.830Z,RESERVED_GLOBAL_UNIT_MULTI_PROBE-2-1-2,1,target-1,memory,0.42465972900390625
2021-06-09T11:51:22.830Z,RESERVED_GLOBAL_UNIT_MULTI_PROBE-2-1-2,1,target-1,memory,0.4253387451171875
2021-06-09T11:50:02.830Z,RESERVED_GLOBAL_UNIT_MULTI_PROBE-2-1-2,1,target-1,memory,0.4246711730957031
2021-06-09T11:44:42.830Z,RESERVED_GLOBAL_UNIT_MULTI_PROBE-2-1-2,1,target-1,memory,0.4251670837402344
2021-06-09T11:45:22.830Z,RESERVED_GLOBAL_UNIT_MULTI_PROBE-2-1-2,1,target-1,memory,0.425384521484375
2021-06-09T11:44:22.830Z,RESERVED_GLOBAL_UNIT_MULTI_PROBE-2-1-2,1,target-1,memory,0.4257469177246094
2021-06-09T11:45:02.830Z,RESERVED_GLOBAL_UNIT_MULTI_PROBE-2-1-2,1,target-1,memory,0.4246711730957031
2021-06-09T11:44:52.830Z,RESERVED_GLOBAL_UNIT_MULTI_PROBE-2-1-2,1,target-1,memory,0.4246711730957031
2021-06-09T11:44:02.830Z,RESERVED_GLOBAL_UNIT_MULTI_PROBE-2-1-2,1,target-1,memory,0.42356109619140625
2021-06-09T11:44:32.830Z,RESERVED_GLOBAL_UNIT_MULTI_PROBE-2-1-2,1,target-1,memory,0.4251670837402344
2021-06-09T11:44:12.830Z,RESERVED_GLOBAL_UNIT_MULTI_PROBE-2-1-2,1,target-1,memory,0.423553466796875
2021-06-09T11:45:12.830Z,RESERVED_GLOBAL_UNIT_MULTI_PROBE-2-1-2,1,target-1,memory,0.4246711730957031
2021-06-09T11:48:32.830Z,RESERVED_GLOBAL_UNIT_MULTI_PROBE-2-1-2,1,target-1,memory,0.4246978759765625
2021-06-09T11:49:42.830Z,RESERVED_GLOBAL_UNIT_MULTI_PROBE-2-1-2,1,target-1,memory,0.42491912841796875
2021-06-09T11:48:42.830Z,RESERVED_GLOBAL_UNIT_MULTI_PROBE-2-1-2,1,target-1,memory,0.4246978759765625
2021-06-09T11:49:52.830Z,RESERVED_GLOBAL_UNIT_MULTI_PROBE-2-1-2,1,target-1,memory,0.4246711730957031
2021-06-09T11:49:02.830Z,RESERVED_GLOBAL_UNIT_MULTI_PROBE-2-1-2,1,target-1,memory,0.4251708984375
2021-06-09T11:48:52.830Z,RESERVED_GLOBAL_UNIT_MULTI_PROBE-2-1-2,1,target-1,memory,0.42517852783203125
2021-06-09T11:49:12.830Z,RESERVED_GLOBAL_UNIT_MULTI_PROBE-2-1-2,1,target-1,memory,0.4251708984375
2021-06-09T11:49:22.830Z,RESERVED_GLOBAL_UNIT_MULTI_PROBE-2-1-2,1,target-1,memory,0.42491912841796875
2021-06-09T11:49:32.830Z,RESERVED_GLOBAL_UNIT_MULTI_PROBE-2-1-2,1,target-1,memory,0.42491912841796875
2021-06-09T11:45:52.830Z,RESERVED_GLOBAL_UNIT_MULTI_PROBE-2-1-2,1,target-1,memory,0.42513275146484375
2021-06-09T11:45:42.830Z,RESERVED_GLOBAL_UNIT_MULTI_PROBE-2-1-2,1,target-1,memory,0.425384521484375
2021-06-09T11:46:32.830Z,RESERVED_GLOBAL_UNIT_MULTI_PROBE-2-1-2,1,target-1,memory,0.4252128601074219
2021-06-09T11:46:02.830Z,RESERVED_GLOBAL_UNIT_MULTI_PROBE-2-1-2,1,target-1,memory,0.4251251220703125
2021-06-09T11:46:52.830Z,RESERVED_GLOBAL_UNIT_MULTI_PROBE-2-1-2,1,target-1,memory,0.42496490478515625
2021-06-09T11:45:32.830Z,RESERVED_GLOBAL_UNIT_MULTI_PROBE-2-1-2,1,target-1,memory,0.425384521484375
2021-06-09T11:46:22.830Z,RESERVED_GLOBAL_UNIT_MULTI_PROBE-2-1-2,1,target-1,memory,0.42535400390625
2021-06-09T11:46:42.830Z,RESERVED_GLOBAL_UNIT_MULTI_PROBE-2-1-2,1,target-1,memory,0.4252128601074219
2021-06-09T11:46:12.830Z,RESERVED_GLOBAL_UNIT_MULTI_PROBE-2-1-2,1,target-1,memory,0.4251251220703125
2021-06-09T11:51:52.830Z,RESERVED_GLOBAL_UNIT_MULTI_PROBE-2-1-2,1,target-1,memory,0.4246101379394531
2021-06-09T11:52:12.830Z,RESERVED_GLOBAL_UNIT_MULTI_PROBE-2-1-2,1,target-1,memory,0.4246025085449219
2021-06-09T11:51:32.830Z,RESERVED_GLOBAL_UNIT_MULTI_PROBE-2-1-2,1,target-1,memory,0.4253387451171875
2021-06-09T11:52:32.830Z,RESERVED_GLOBAL_UNIT_MULTI_PROBE-2-1-2,1,target-1,memory,0.424835205078125
2021-06-09T11:52:42.830Z,RESERVED_GLOBAL_UNIT_MULTI_PROBE-2-1-2,1,target-1,memory,0.424835205078125
2021-06-09T11:52:02.830Z,RESERVED_GLOBAL_UNIT_MULTI_PROBE-2-1-2,1,target-1,memory,0.4246025085449219
2021-06-09T11:51:42.830Z,RESERVED_GLOBAL_UNIT_MULTI_PROBE-2-1-2,1,target-1,memory,0.4253387451171875
2021-06-09T11:52:22.830Z,RESERVED_GLOBAL_UNIT_MULTI_PROBE-2-1-2,1,target-1,memory,0.42484283447265625
2021-06-09T11:48:22.830Z,RESERVED_GLOBAL_UNIT_MULTI_PROBE-2-1-2,1,target-1,memory,0.4246978759765625
2021-06-09T11:47:22.830Z,RESERVED_GLOBAL_UNIT_MULTI_PROBE-2-1-2,1,target-1,memory,0.42519378662109375
2021-06-09T11:48:02.830Z,RESERVED_GLOBAL_UNIT_MULTI_PROBE-2-1-2,1,target-1,memory,0.4249458312988281
2021-06-09T11:47:32.830Z,RESERVED_GLOBAL_UNIT_MULTI_PROBE-2-1-2,1,target-1,memory,0.42519378662109375
2021-06-09T11:47:02.830Z,RESERVED_GLOBAL_UNIT_MULTI_PROBE-2-1-2,1,target-1,memory,0.4247245788574219
2021-06-09T11:47:52.830Z,RESERVED_GLOBAL_UNIT_MULTI_PROBE-2-1-2,1,target-1,memory,0.4249458312988281
2021-06-09T11:47:42.830Z,RESERVED_GLOBAL_UNIT_MULTI_PROBE-2-1-2,1,target-1,memory,0.4254341125488281
2021-06-09T11:47:12.830Z,RESERVED_GLOBAL_UNIT_MULTI_PROBE-2-1-2,1,target-1,memory,0.4247245788574219
2021-06-09T11:48:12.830Z,RESERVED_GLOBAL_UNIT_MULTI_PROBE-2-1-2,1,target-1,memory,0.4249458312988281
2021-06-09T11:57:39.209Z,RESERVED_GLOBAL_UNIT_MULTI_PROBE-2-1-2,2,target-1,memory,0.4270133972167969
2021-06-09T11:57:29.209Z,RESERVED_GLOBAL_UNIT_MULTI_PROBE-2-1-2,2,target-1,memory,0.4270210266113281
2021-06-09T11:57:49.209Z,RESERVED_GLOBAL_UNIT_MULTI_PROBE-2-1-2,2,target-1,memory,0.4270133972167969
2021-06-09T11:57:19.209Z,RESERVED_GLOBAL_UNIT_MULTI_PROBE-2-1-2,2,target-1,memory,0.42678070068359375
2021-06-09T12:00:49.209Z,RESERVED_GLOBAL_UNIT_MULTI_PROBE-2-1-2,2,target-1,memory,0.4271965026855469
2021-06-09T12:00:19.209Z,RESERVED_GLOBAL_UNIT_MULTI_PROBE-2-1-2,2,target-1,memory,0.427764892578125
2021-06-09T12:00:39.209Z,RESERVED_GLOBAL_UNIT_MULTI_PROBE-2-1-2,2,target-1,memory,0.4271965026855469
2021-06-09T12:00:29.212Z,RESERVED_GLOBAL_UNIT_MULTI_PROBE-2-1-2,2,target-1,memory,0.42720794677734375
2021-06-09T12:03:19.209Z,RESERVED_GLOBAL_UNIT_MULTI_PROBE-2-1-2,2,target-1,memory,0.4275016784667969
2021-06-09T12:03:49.209Z,RESERVED_GLOBAL_UNIT_MULTI_PROBE-2-1-2,2,target-1,memory,0.4270133972167969
2021-06-09T12:03:29.209Z,RESERVED_GLOBAL_UNIT_MULTI_PROBE-2-1-2,2,target-1,memory,0.4275016784667969
2021-06-09T12:03:39.209Z,RESERVED_GLOBAL_UNIT_MULTI_PROBE-2-1-2,2,target-1,memory,0.4275016784667969
2021-06-09T11:54:59.209Z,RESERVED_GLOBAL_UNIT_MULTI_PROBE-2-1-2,2,target-1,memory,0.42589569091796875
2021-06-09T11:55:09.209Z,RESERVED_GLOBAL_UNIT_MULTI_PROBE-2-1-2,2,target-1,memory,0.4253501892089844
2021-06-09T11:55:29.209Z,RESERVED_GLOBAL_UNIT_MULTI_PROBE-2-1-2,2,target-1,memory,0.4250984191894531
2021-06-09T11:55:39.209Z,RESERVED_GLOBAL_UNIT_MULTI_PROBE-2-1-2,2,target-1,memory,0.4251289367675781
2021-06-09T11:55:19.209Z,RESERVED_GLOBAL_UNIT_MULTI_PROBE-2-1-2,2,target-1,memory,0.4253501892089844
2021-06-09T11:56:49.209Z,RESERVED_GLOBAL_UNIT_MULTI_PROBE-2-1-2,2,target-1,memory,0.42510223388671875
2021-06-09T11:56:39.209Z,RESERVED_GLOBAL_UNIT_MULTI_PROBE-2-1-2,2,target-1,memory,0.42510223388671875
2021-06-09T11:56:29.209Z,RESERVED_GLOBAL_UNIT_MULTI_PROBE-2-1-2,2,target-1,memory,0.42510223388671875
2021-06-09T11:57:09.209Z,RESERVED_GLOBAL_UNIT_MULTI_PROBE-2-1-2,2,target-1,memory,0.4265251159667969
2021-06-09T11:56:59.209Z,RESERVED_GLOBAL_UNIT_MULTI_PROBE-2-1-2,2,target-1,memory,0.4270782470703125
2021-06-09T11:59:29.209Z,RESERVED_GLOBAL_UNIT_MULTI_PROBE-2-1-2,2,target-1,memory,0.4269828796386719
2021-06-09T11:59:59.209Z,RESERVED_GLOBAL_UNIT_MULTI_PROBE-2-1-2,2,target-1,memory,0.427215576171875
2021-06-09T12:00:09.209Z,RESERVED_GLOBAL_UNIT_MULTI_PROBE-2-1-2,2,target-1,memory,0.427215576171875
2021-06-09T11:59:39.209Z,RESERVED_GLOBAL_UNIT_MULTI_PROBE-2-1-2,2,target-1,memory,0.4269828796386719
2021-06-09T11:59:49.209Z,RESERVED_GLOBAL_UNIT_MULTI_PROBE-2-1-2,2,target-1,memory,0.4269828796386719
2021-06-09T12:03:09.209Z,RESERVED_GLOBAL_UNIT_MULTI_PROBE-2-1-2,2,target-1,memory,0.4275093078613281
2021-06-09T12:02:49.209Z,RESERVED_GLOBAL_UNIT_MULTI_PROBE-2-1-2,2,target-1,memory,0.4270286560058594
2021-06-09T12:02:29.209Z,RESERVED_GLOBAL_UNIT_MULTI_PROBE-2-1-2,2,target-1,memory,0.4267997741699219
2021-06-09T12:02:39.209Z,RESERVED_GLOBAL_UNIT_MULTI_PROBE-2-1-2,2,target-1,memory,0.42679595947265625
2021-06-09T12:02:59.209Z,RESERVED_GLOBAL_UNIT_MULTI_PROBE-2-1-2,2,target-1,memory,0.4275093078613281
2021-06-09T11:56:09.209Z,RESERVED_GLOBAL_UNIT_MULTI_PROBE-2-1-2,2,target-1,memory,0.42487335205078125
2021-06-09T11:55:49.209Z,RESERVED_GLOBAL_UNIT_MULTI_PROBE-2-1-2,2,target-1,memory,0.4251289367675781
2021-06-09T11:56:19.209Z,RESERVED_GLOBAL_UNIT_MULTI_PROBE-2-1-2,2,target-1,memory,0.42487335205078125
2021-06-09T11:55:59.209Z,RESERVED_GLOBAL_UNIT_MULTI_PROBE-2-1-2,2,target-1,memory,0.4248809814453125
2021-06-09T11:58:59.209Z,RESERVED_GLOBAL_UNIT_MULTI_PROBE-2-1-2,2,target-1,memory,0.4269981384277344
2021-06-09T11:59:09.209Z,RESERVED_GLOBAL_UNIT_MULTI_PROBE-2-1-2,2,target-1,memory,0.4269905090332031
2021-06-09T11:58:49.209Z,RESERVED_GLOBAL_UNIT_MULTI_PROBE-2-1-2,2,target-1,memory,0.4265251159667969
2021-06-09T11:59:19.209Z,RESERVED_GLOBAL_UNIT_MULTI_PROBE-2-1-2,2,target-1,memory,0.4269828796386719
2021-06-09T12:01:39.209Z,RESERVED_GLOBAL_UNIT_MULTI_PROBE-2-1-2,2,target-1,memory,0.4266929626464844
2021-06-09T12:01:09.209Z,RESERVED_GLOBAL_UNIT_MULTI_PROBE-2-1-2,2,target-1,memory,0.42742919921875
2021-06-09T12:00:59.209Z,RESERVED_GLOBAL_UNIT_MULTI_PROBE-2-1-2,2,target-1,memory,0.4275245666503906
2021-06-09T12:01:19.209Z,RESERVED_GLOBAL_UNIT_MULTI_PROBE-2-1-2,2,target-1,memory,0.42742156982421875
2021-06-09T12:01:29.209Z,RESERVED_GLOBAL_UNIT_MULTI_PROBE-2-1-2,2,target-1,memory,0.4267005920410156
2021-06-09T11:57:59.209Z,RESERVED_GLOBAL_UNIT_MULTI_PROBE-2-1-2,2,target-1,memory,0.4265403747558594
2021-06-09T11:58:19.209Z,RESERVED_GLOBAL_UNIT_MULTI_PROBE-2-1-2,2,target-1,memory,0.4265327453613281
2021-06-09T11:58:29.209Z,RESERVED_GLOBAL_UNIT_MULTI_PROBE-2-1-2,2,target-1,memory,0.4265289306640625
2021-06-09T11:58:39.209Z,RESERVED_GLOBAL_UNIT_MULTI_PROBE-2-1-2,2,target-1,memory,0.4265251159667969
2021-06-09T11:58:09.209Z,RESERVED_GLOBAL_UNIT_MULTI_PROBE-2-1-2,2,target-1,memory,0.4265327453613281
2021-06-09T12:01:59.209Z,RESERVED_GLOBAL_UNIT_MULTI_PROBE-2-1-2,2,target-1,memory,0.42693328857421875
2021-06-09T12:01:49.209Z,RESERVED_GLOBAL_UNIT_MULTI_PROBE-2-1-2,2,target-1,memory,0.42645263671875
2021-06-09T12:02:19.209Z,RESERVED_GLOBAL_UNIT_MULTI_PROBE-2-1-2,2,target-1,memory,0.4270439147949219
2021-06-09T12:02:09.209Z,RESERVED_GLOBAL_UNIT_MULTI_PROBE-2-1-2,2,target-1,memory,0.4270439147949219
2021-06-09T12:04:49.209Z,RESERVED_GLOBAL_UNIT_MULTI_PROBE-2-1-2,2,target-1,memory,0.4269905090332031
2021-06-09T12:04:39.209Z,RESERVED_GLOBAL_UNIT_MULTI_PROBE-2-1-2,2,target-1,memory,0.4269981384277344
2021-06-09T12:04:19.209Z,RESERVED_GLOBAL_UNIT_MULTI_PROBE-2-1-2,2,target-1,memory,0.4270057678222656
2021-06-09T12:04:29.209Z,RESERVED_GLOBAL_UNIT_MULTI_PROBE-2-1-2,2,target-1,memory,0.4269981384277344
2021-06-09T12:04:09.209Z,RESERVED_GLOBAL_UNIT_MULTI_PROBE-2-1-2,2,target-1,memory,0.4270057678222656
2021-06-09T12:03:59.209Z,RESERVED_GLOBAL_UNIT_MULTI_PROBE-2-1-2,2,target-1,memory,0.4270133972167969
2021-06-09T12:07:53.842Z,RESERVED_GLOBAL_UNIT_MULTI_PROBE-2-1-2,3,target-1,memory,0.42824554443359375
2021-06-09T12:08:43.842Z,RESERVED_GLOBAL_UNIT_MULTI_PROBE-2-1-2,3,target-1,memory,0.42748260498046875
2021-06-09T12:07:43.842Z,RESERVED_GLOBAL_UNIT_MULTI_PROBE-2-1-2,3,target-1,memory,0.42777252197265625
2021-06-09T12:08:23.842Z,RESERVED_GLOBAL_UNIT_MULTI_PROBE-2-1-2,3,target-1,memory,0.4267692565917969
2021-06-09T12:08:03.842Z,RESERVED_GLOBAL_UNIT_MULTI_PROBE-2-1-2,3,target-1,memory,0.42824554443359375
2021-06-09T12:07:23.842Z,RESERVED_GLOBAL_UNIT_MULTI_PROBE-2-1-2,3,target-1,memory,0.4275169372558594
2021-06-09T12:08:13.842Z,RESERVED_GLOBAL_UNIT_MULTI_PROBE-2-1-2,3,target-1,memory,0.42824554443359375
2021-06-09T12:08:33.842Z,RESERVED_GLOBAL_UNIT_MULTI_PROBE-2-1-2,3,target-1,memory,0.42748260498046875
2021-06-09T12:07:33.843Z,RESERVED_GLOBAL_UNIT_MULTI_PROBE-2-1-2,3,target-1,memory,0.4277801513671875
2021-06-09T12:13:53.842Z,RESERVED_GLOBAL_UNIT_MULTI_PROBE-2-1-2,3,target-1,memory,0.4268150329589844
2021-06-09T12:14:23.842Z,RESERVED_GLOBAL_UNIT_MULTI_PROBE-2-1-2,3,target-1,memory,0.4263572692871094
2021-06-09T12:13:33.842Z,RESERVED_GLOBAL_UNIT_MULTI_PROBE-2-1-2,3,target-1,memory,0.4275474548339844
2021-06-09T12:13:23.842Z,RESERVED_GLOBAL_UNIT_MULTI_PROBE-2-1-2,3,target-1,memory,0.4270668029785156
2021-06-09T12:14:03.842Z,RESERVED_GLOBAL_UNIT_MULTI_PROBE-2-1-2,3,target-1,memory,0.4268150329589844
2021-06-09T12:14:43.842Z,RESERVED_GLOBAL_UNIT_MULTI_PROBE-2-1-2,3,target-1,memory,0.4270782470703125
2021-06-09T12:14:33.842Z,RESERVED_GLOBAL_UNIT_MULTI_PROBE-2-1-2,3,target-1,memory,0.4270782470703125
2021-06-09T12:13:43.842Z,RESERVED_GLOBAL_UNIT_MULTI_PROBE-2-1-2,3,target-1,memory,0.4275474548339844
2021-06-09T12:14:13.842Z,RESERVED_GLOBAL_UNIT_MULTI_PROBE-2-1-2,3,target-1,memory,0.4268455505371094
2021-06-09T12:07:13.842Z,RESERVED_GLOBAL_UNIT_MULTI_PROBE-2-1-2,3,target-1,memory,0.4285240173339844
2021-06-09T12:09:23.842Z,RESERVED_GLOBAL_UNIT_MULTI_PROBE-2-1-2,3,target-1,memory,0.4281005859375
2021-06-09T12:08:53.842Z,RESERVED_GLOBAL_UNIT_MULTI_PROBE-2-1-2,3,target-1,memory,0.4277458190917969
2021-06-09T12:09:53.842Z,RESERVED_GLOBAL_UNIT_MULTI_PROBE-2-1-2,3,target-1,memory,0.4276008605957031
2021-06-09T12:09:43.842Z,RESERVED_GLOBAL_UNIT_MULTI_PROBE-2-1-2,3,target-1,memory,0.4271278381347656
2021-06-09T12:09:13.842Z,RESERVED_GLOBAL_UNIT_MULTI_PROBE-2-1-2,3,target-1,memory,0.42761993408203125
2021-06-09T12:10:13.842Z,RESERVED_GLOBAL_UNIT_MULTI_PROBE-2-1-2,3,target-1,memory,0.42736053466796875
2021-06-09T12:09:03.842Z,RESERVED_GLOBAL_UNIT_MULTI_PROBE-2-1-2,3,target-1,memory,0.4271392822265625
2021-06-09T12:10:03.842Z,RESERVED_GLOBAL_UNIT_MULTI_PROBE-2-1-2,3,target-1,memory,0.4276008605957031
2021-06-09T12:09:33.842Z,RESERVED_GLOBAL_UNIT_MULTI_PROBE-2-1-2,3,target-1,memory,0.4273719787597656
2021-06-09T12:15:53.842Z,RESERVED_GLOBAL_UNIT_MULTI_PROBE-2-1-2,3,target-1,memory,0.4265708923339844
2021-06-09T12:16:13.842Z,RESERVED_GLOBAL_UNIT_MULTI_PROBE-2-1-2,3,target-1,memory,0.4272918701171875
2021-06-09T12:16:03.842Z,RESERVED_GLOBAL_UNIT_MULTI_PROBE-2-1-2,3,target-1,memory,0.4272918701171875
2021-06-09T12:15:23.842Z,RESERVED_GLOBAL_UNIT_MULTI_PROBE-2-1-2,3,target-1,memory,0.42681884765625
2021-06-09T12:15:03.842Z,RESERVED_GLOBAL_UNIT_MULTI_PROBE-2-1-2,3,target-1,memory,0.4268302917480469
2021-06-09T12:15:43.842Z,RESERVED_GLOBAL_UNIT_MULTI_PROBE-2-1-2,3,target-1,memory,0.4275398254394531
2021-06-09T12:15:33.842Z,RESERVED_GLOBAL_UNIT_MULTI_PROBE-2-1-2,3,target-1,memory,0.42681884765625
2021-06-09T12:15:13.842Z,RESERVED_GLOBAL_UNIT_MULTI_PROBE-2-1-2,3,target-1,memory,0.4268302917480469
2021-06-09T12:14:53.842Z,RESERVED_GLOBAL_UNIT_MULTI_PROBE-2-1-2,3,target-1,memory,0.4265899658203125
2021-06-09T12:11:53.842Z,RESERVED_GLOBAL_UNIT_MULTI_PROBE-2-1-2,3,target-1,memory,0.4275932312011719
2021-06-09T12:12:33.842Z,RESERVED_GLOBAL_UNIT_MULTI_PROBE-2-1-2,3,target-1,memory,0.42708587646484375
2021-06-09T12:12:13.842Z,RESERVED_GLOBAL_UNIT_MULTI_PROBE-2-1-2,3,target-1,memory,0.42755126953125
2021-06-09T12:12:03.842Z,RESERVED_GLOBAL_UNIT_MULTI_PROBE-2-1-2,3,target-1,memory,0.4275550842285156
2021-06-09T12:12:43.842Z,RESERVED_GLOBAL_UNIT_MULTI_PROBE-2-1-2,3,target-1,memory,0.42708587646484375
2021-06-09T12:12:23.842Z,RESERVED_GLOBAL_UNIT_MULTI_PROBE-2-1-2,3,target-1,memory,0.4274024963378906
2021-06-09T12:12:53.842Z,RESERVED_GLOBAL_UNIT_MULTI_PROBE-2-1-2,3,target-1,memory,0.4270782470703125
2021-06-09T12:13:03.842Z,RESERVED_GLOBAL_UNIT_MULTI_PROBE-2-1-2,3,target-1,memory,0.4268341064453125
2021-06-09T12:13:13.842Z,RESERVED_GLOBAL_UNIT_MULTI_PROBE-2-1-2,3,target-1,memory,0.4268341064453125
2021-06-09T12:10:33.842Z,RESERVED_GLOBAL_UNIT_MULTI_PROBE-2-1-2,3,target-1,memory,0.4271049499511719
2021-06-09T12:11:13.842Z,RESERVED_GLOBAL_UNIT_MULTI_PROBE-2-1-2,3,target-1,memory,0.427337646484375
2021-06-09T12:11:03.848Z,RESERVED_GLOBAL_UNIT_MULTI_PROBE-2-1-2,3,target-1,memory,0.427337646484375
2021-06-09T12:11:33.842Z,RESERVED_GLOBAL_UNIT_MULTI_PROBE-2-1-2,3,target-1,memory,0.4275703430175781
2021-06-09T12:11:43.842Z,RESERVED_GLOBAL_UNIT_MULTI_PROBE-2-1-2,3,target-1,memory,0.42708587646484375
2021-06-09T12:10:53.842Z,RESERVED_GLOBAL_UNIT_MULTI_PROBE-2-1-2,3,target-1,memory,0.4266166687011719
2021-06-09T12:10:43.842Z,RESERVED_GLOBAL_UNIT_MULTI_PROBE-2-1-2,3,target-1,memory,0.4271087646484375
2021-06-09T12:11:23.842Z,RESERVED_GLOBAL_UNIT_MULTI_PROBE-2-1-2,3,target-1,memory,0.4270896911621094
2021-06-09T12:10:23.842Z,RESERVED_GLOBAL_UNIT_MULTI_PROBE-2-1-2,3,target-1,memory,0.42766571044921875
2021-06-09T12:16:23.842Z,RESERVED_GLOBAL_UNIT_MULTI_PROBE-2-1-2,3,target-1,memory,0.427520751953125
2021-06-09T12:16:43.842Z,RESERVED_GLOBAL_UNIT_MULTI_PROBE-2-1-2,3,target-1,memory,0.4272804260253906
2021-06-09T12:16:33.842Z,RESERVED_GLOBAL_UNIT_MULTI_PROBE-2-1-2,3,target-1,memory,0.427520751953125
2021-06-09T12:17:03.842Z,RESERVED_GLOBAL_UNIT_MULTI_PROBE-2-1-2,3,target-1,memory,0.4279022216796875
2021-06-09T12:16:53.842Z,RESERVED_GLOBAL_UNIT_MULTI_PROBE-2-1-2,3,target-1,memory,0.4265556335449219
2021-06-09T12:21:56.901Z,RESERVED_GLOBAL_UNIT_MULTI_PROBE-2-1-4,1,target-1,memory,0.4260826110839844
2021-06-09T12:22:26.901Z,RESERVED_GLOBAL_UNIT_MULTI_PROBE-2-1-4,1,target-1,memory,0.4266319274902344
2021-06-09T12:22:16.901Z,RESERVED_GLOBAL_UNIT_MULTI_PROBE-2-1-4,1,target-1,memory,0.4260826110839844
2021-06-09T12:22:06.901Z,RESERVED_GLOBAL_UNIT_MULTI_PROBE-2-1-4,1,target-1,memory,0.4260826110839844
2021-06-09T12:25:06.901Z,RESERVED_GLOBAL_UNIT_MULTI_PROBE-2-1-4,1,target-1,memory,0.42589569091796875
2021-06-09T12:24:56.901Z,RESERVED_GLOBAL_UNIT_MULTI_PROBE-2-1-4,1,target-1,memory,0.4263801574707031
2021-06-09T12:25:16.901Z,RESERVED_GLOBAL_UNIT_MULTI_PROBE-2-1-4,1,target-1,memory,0.42589569091796875
2021-06-09T12:25:26.901Z,RESERVED_GLOBAL_UNIT_MULTI_PROBE-2-1-4,1,target-1,memory,0.42540740966796875
2021-06-09T12:28:06.901Z,RESERVED_GLOBAL_UNIT_MULTI_PROBE-2-1-4,1,target-1,memory,0.4261512756347656
2021-06-09T12:27:56.901Z,RESERVED_GLOBAL_UNIT_MULTI_PROBE-2-1-4,1,target-1,memory,0.42591094970703125
2021-06-09T12:28:26.901Z,RESERVED_GLOBAL_UNIT_MULTI_PROBE-2-1-4,1,target-1,memory,0.42542266845703125
2021-06-09T12:28:16.901Z,RESERVED_GLOBAL_UNIT_MULTI_PROBE-2-1-4,1,target-1,memory,0.4261512756347656
2021-06-09T12:20:26.901Z,RESERVED_GLOBAL_UNIT_MULTI_PROBE-2-1-4,1,target-1,memory,0.4258460998535156
2021-06-09T12:20:56.901Z,RESERVED_GLOBAL_UNIT_MULTI_PROBE-2-1-4,1,target-1,memory,0.42610931396484375
2021-06-09T12:20:46.901Z,RESERVED_GLOBAL_UNIT_MULTI_PROBE-2-1-4,1,target-1,memory,0.426116943359375
2021-06-09T12:20:36.901Z,RESERVED_GLOBAL_UNIT_MULTI_PROBE-2-1-4,1,target-1,memory,0.4258766174316406
2021-06-09T12:23:46.901Z,RESERVED_GLOBAL_UNIT_MULTI_PROBE-2-1-4,1,target-1,memory,0.42696380615234375
2021-06-09T12:23:56.901Z,RESERVED_GLOBAL_UNIT_MULTI_PROBE-2-1-4,1,target-1,memory,0.4256782531738281
2021-06-09T12:23:36.901Z,RESERVED_GLOBAL_UNIT_MULTI_PROBE-2-1-4,1,target-1,memory,0.42592620849609375
2021-06-09T12:23:26.901Z,RESERVED_GLOBAL_UNIT_MULTI_PROBE-2-1-4,1,target-1,memory,0.42592620849609375
2021-06-09T12:27:26.901Z,RESERVED_GLOBAL_UNIT_MULTI_PROBE-2-1-4,1,target-1,memory,0.4256935119628906
2021-06-09T12:27:16.901Z,RESERVED_GLOBAL_UNIT_MULTI_PROBE-2-1-4,1,target-1,memory,0.4261817932128906
2021-06-09T12:27:46.901Z,RESERVED_GLOBAL_UNIT_MULTI_PROBE-2-1-4,1,target-1,memory,0.4261741638183594
2021-06-09T12:27:06.901Z,RESERVED_GLOBAL_UNIT_MULTI_PROBE-2-1-4,1,target-1,memory,0.42498016357421875
2021-06-09T12:27:36.901Z,RESERVED_GLOBAL_UNIT_MULTI_PROBE-2-1-4,1,target-1,memory,0.4267311096191406
2021-06-09T12:29:26.901Z,RESERVED_GLOBAL_UNIT_MULTI_PROBE-2-1-4,1,target-1,memory,0.4256477355957031
2021-06-09T12:29:36.901Z,RESERVED_GLOBAL_UNIT_MULTI_PROBE-2-1-4,1,target-1,memory,0.42563629150390625
2021-06-09T12:29:46.901Z,RESERVED_GLOBAL_UNIT_MULTI_PROBE-2-1-4,1,target-1,memory,0.42563629150390625
2021-06-09T12:19:56.901Z,RESERVED_GLOBAL_UNIT_MULTI_PROBE-2-1-4,1,target-1,memory,0.4261016845703125
2021-06-09T12:20:06.901Z,RESERVED_GLOBAL_UNIT_MULTI_PROBE-2-1-4,1,target-1,memory,0.42633819580078125
2021-06-09T12:20:16.901Z,RESERVED_GLOBAL_UNIT_MULTI_PROBE-2-1-4,1,target-1,memory,0.42633819580078125
2021-06-09T12:23:16.901Z,RESERVED_GLOBAL_UNIT_MULTI_PROBE-2-1-4,1,target-1,memory,0.4267005920410156
2021-06-09T12:23:06.901Z,RESERVED_GLOBAL_UNIT_MULTI_PROBE-2-1-4,1,target-1,memory,0.42652130126953125
2021-06-09T12:22:36.901Z,RESERVED_GLOBAL_UNIT_MULTI_PROBE-2-1-4,1,target-1,memory,0.42583465576171875
2021-06-09T12:22:56.901Z,RESERVED_GLOBAL_UNIT_MULTI_PROBE-2-1-4,1,target-1,memory,0.4265251159667969
2021-06-09T12:22:46.901Z,RESERVED_GLOBAL_UNIT_MULTI_PROBE-2-1-4,1,target-1,memory,0.42636871337890625
2021-06-09T12:26:16.901Z,RESERVED_GLOBAL_UNIT_MULTI_PROBE-2-1-4,1,target-1,memory,0.4262046813964844
2021-06-09T12:25:56.901Z,RESERVED_GLOBAL_UNIT_MULTI_PROBE-2-1-4,1,target-1,memory,0.426361083984375
2021-06-09T12:26:06.901Z,RESERVED_GLOBAL_UNIT_MULTI_PROBE-2-1-4,1,target-1,memory,0.42600250244140625
2021-06-09T12:25:36.901Z,RESERVED_GLOBAL_UNIT_MULTI_PROBE-2-1-4,1,target-1,memory,0.4258880615234375
2021-06-09T12:25:46.901Z,RESERVED_GLOBAL_UNIT_MULTI_PROBE-2-1-4,1,target-1,memory,0.42588043212890625
2021-06-09T12:29:16.901Z,RESERVED_GLOBAL_UNIT_MULTI_PROBE-2-1-4,1,target-1,memory,0.4261283874511719
2021-06-09T12:28:46.901Z,RESERVED_GLOBAL_UNIT_MULTI_PROBE-2-1-4,1,target-1,memory,0.4258995056152344
2021-06-09T12:28:36.901Z,RESERVED_GLOBAL_UNIT_MULTI_PROBE-2-1-4,1,target-1,memory,0.4258995056152344
2021-06-09T12:28:56.901Z,RESERVED_GLOBAL_UNIT_MULTI_PROBE-2-1-4,1,target-1,memory,0.4258995056152344
2021-06-09T12:29:06.901Z,RESERVED_GLOBAL_UNIT_MULTI_PROBE-2-1-4,1,target-1,memory,0.42636871337890625
2021-06-09T12:21:16.901Z,RESERVED_GLOBAL_UNIT_MULTI_PROBE-2-1-4,1,target-1,memory,0.42610931396484375
2021-06-09T12:21:36.901Z,RESERVED_GLOBAL_UNIT_MULTI_PROBE-2-1-4,1,target-1,memory,0.42584991455078125
2021-06-09T12:21:46.901Z,RESERVED_GLOBAL_UNIT_MULTI_PROBE-2-1-4,1,target-1,memory,0.42584991455078125
2021-06-09T12:21:26.901Z,RESERVED_GLOBAL_UNIT_MULTI_PROBE-2-1-4,1,target-1,memory,0.4258613586425781
2021-06-09T12:21:06.901Z,RESERVED_GLOBAL_UNIT_MULTI_PROBE-2-1-4,1,target-1,memory,0.42610931396484375
2021-06-09T12:24:26.901Z,RESERVED_GLOBAL_UNIT_MULTI_PROBE-2-1-4,1,target-1,memory,0.42591094970703125
2021-06-09T12:24:46.901Z,RESERVED_GLOBAL_UNIT_MULTI_PROBE-2-1-4,1,target-1,memory,0.4259071350097656
2021-06-09T12:24:36.901Z,RESERVED_GLOBAL_UNIT_MULTI_PROBE-2-1-4,1,target-1,memory,0.4259071350097656
2021-06-09T12:24:06.901Z,RESERVED_GLOBAL_UNIT_MULTI_PROBE-2-1-4,1,target-1,memory,0.4256782531738281
2021-06-09T12:24:16.901Z,RESERVED_GLOBAL_UNIT_MULTI_PROBE-2-1-4,1,target-1,memory,0.4256782531738281
2021-06-09T12:26:36.901Z,RESERVED_GLOBAL_UNIT_MULTI_PROBE-2-1-4,1,target-1,memory,0.4257545471191406
2021-06-09T12:26:26.901Z,RESERVED_GLOBAL_UNIT_MULTI_PROBE-2-1-4,1,target-1,memory,0.42548370361328125
2021-06-09T12:26:56.901Z,RESERVED_GLOBAL_UNIT_MULTI_PROBE-2-1-4,1,target-1,memory,0.4264373779296875
2021-06-09T12:26:46.901Z,RESERVED_GLOBAL_UNIT_MULTI_PROBE-2-1-4,1,target-1,memory,0.4257164001464844
2021-06-09T12:37:39.473Z,RESERVED_GLOBAL_UNIT_MULTI_PROBE-2-1-4,2,target-1,memory,0.4263458251953125
2021-06-09T12:37:49.473Z,RESERVED_GLOBAL_UNIT_MULTI_PROBE-2-1-4,2,target-1,memory,0.4265556335449219
2021-06-09T12:37:29.473Z,RESERVED_GLOBAL_UNIT_MULTI_PROBE-2-1-4,2,target-1,memory,0.42635345458984375
2021-06-09T12:37:19.473Z,RESERVED_GLOBAL_UNIT_MULTI_PROBE-2-1-4,2,target-1,memory,0.4258766174316406
2021-06-09T12:37:09.473Z,RESERVED_GLOBAL_UNIT_MULTI_PROBE-2-1-4,2,target-1,memory,0.42555999755859375
2021-06-09T12:39:59.473Z,RESERVED_GLOBAL_UNIT_MULTI_PROBE-2-1-4,2,target-1,memory,0.4261054992675781
2021-06-09T12:39:29.473Z,RESERVED_GLOBAL_UNIT_MULTI_PROBE-2-1-4,2,target-1,memory,0.4258766174316406
2021-06-09T12:39:39.474Z,RESERVED_GLOBAL_UNIT_MULTI_PROBE-2-1-4,2,target-1,memory,0.425628662109375
2021-06-09T12:39:49.473Z,RESERVED_GLOBAL_UNIT_MULTI_PROBE-2-1-4,2,target-1,memory,0.4258689880371094
2021-06-09T12:35:29.473Z,RESERVED_GLOBAL_UNIT_MULTI_PROBE-2-1-4,2,target-1,memory,0.425811767578125
2021-06-09T12:35:09.473Z,RESERVED_GLOBAL_UNIT_MULTI_PROBE-2-1-4,2,target-1,memory,0.4254951477050781
2021-06-09T12:35:19.473Z,RESERVED_GLOBAL_UNIT_MULTI_PROBE-2-1-4,2,target-1,memory,0.4257354736328125
2021-06-09T12:34:59.473Z,RESERVED_GLOBAL_UNIT_MULTI_PROBE-2-1-4,2,target-1,memory,0.4255714416503906
2021-06-09T12:38:19.473Z,RESERVED_GLOBAL_UNIT_MULTI_PROBE-2-1-4,2,target-1,memory,0.4260292053222656
2021-06-09T12:38:29.473Z,RESERVED_GLOBAL_UNIT_MULTI_PROBE-2-1-4,2,target-1,memory,0.42609405517578125
2021-06-09T12:37:59.473Z,RESERVED_GLOBAL_UNIT_MULTI_PROBE-2-1-4,2,target-1,memory,0.426300048828125
2021-06-09T12:38:09.474Z,RESERVED_GLOBAL_UNIT_MULTI_PROBE-2-1-4,2,target-1,memory,0.426300048828125
2021-06-09T12:41:09.473Z,RESERVED_GLOBAL_UNIT_MULTI_PROBE-2-1-4,2,target-1,memory,0.4263153076171875
2021-06-09T12:41:19.473Z,RESERVED_GLOBAL_UNIT_MULTI_PROBE-2-1-4,2,target-1,memory,0.42626953125
2021-06-09T12:40:59.473Z,RESERVED_GLOBAL_UNIT_MULTI_PROBE-2-1-4,2,target-1,memory,0.42632293701171875
2021-06-09T12:41:29.473Z,RESERVED_GLOBAL_UNIT_MULTI_PROBE-2-1-4,2,target-1,memory,0.42571258544921875
2021-06-09T12:32:49.475Z,RESERVED_GLOBAL_UNIT_MULTI_PROBE-2-1-4,2,target-1,memory,0.4263191223144531
2021-06-09T12:33:09.473Z,RESERVED_GLOBAL_UNIT_MULTI_PROBE-2-1-4,2,target-1,memory,0.4267692565917969
2021-06-09T12:32:59.473Z,RESERVED_GLOBAL_UNIT_MULTI_PROBE-2-1-4,2,target-1,memory,0.4265289306640625
2021-06-09T12:33:19.473Z,RESERVED_GLOBAL_UNIT_MULTI_PROBE-2-1-4,2,target-1,memory,0.4262886047363281
2021-06-09T12:34:39.473Z,RESERVED_GLOBAL_UNIT_MULTI_PROBE-2-1-4,2,target-1,memory,0.42638397216796875
2021-06-09T12:34:29.473Z,RESERVED_GLOBAL_UNIT_MULTI_PROBE-2-1-4,2,target-1,memory,0.4261512756347656
2021-06-09T12:34:09.473Z,RESERVED_GLOBAL_UNIT_MULTI_PROBE-2-1-4,2,target-1,memory,0.4261512756347656
2021-06-09T12:34:19.473Z,RESERVED_GLOBAL_UNIT_MULTI_PROBE-2-1-4,2,target-1,memory,0.4266319274902344
2021-06-09T12:34:49.473Z,RESERVED_GLOBAL_UNIT_MULTI_PROBE-2-1-4,2,target-1,memory,0.4259033203125
2021-06-09T12:36:59.473Z,RESERVED_GLOBAL_UNIT_MULTI_PROBE-2-1-4,2,target-1,memory,0.4262886047363281
2021-06-09T12:36:29.473Z,RESERVED_GLOBAL_UNIT_MULTI_PROBE-2-1-4,2,target-1,memory,0.426055908203125
2021-06-09T12:36:39.473Z,RESERVED_GLOBAL_UNIT_MULTI_PROBE-2-1-4,2,target-1,memory,0.42604827880859375
2021-06-09T12:36:49.473Z,RESERVED_GLOBAL_UNIT_MULTI_PROBE-2-1-4,2,target-1,memory,0.425567626953125
2021-06-09T12:40:19.473Z,RESERVED_GLOBAL_UNIT_MULTI_PROBE-2-1-4,2,target-1,memory,0.42609405517578125
2021-06-09T12:40:29.473Z,RESERVED_GLOBAL_UNIT_MULTI_PROBE-2-1-4,2,target-1,memory,0.4263343811035156
2021-06-09T12:40:39.473Z,RESERVED_GLOBAL_UNIT_MULTI_PROBE-2-1-4,2,target-1,memory,0.42632293701171875
2021-06-09T12:40:49.473Z,RESERVED_GLOBAL_UNIT_MULTI_PROBE-2-1-4,2,target-1,memory,0.4266395568847656
2021-06-09T12:40:09.473Z,RESERVED_GLOBAL_UNIT_MULTI_PROBE-2-1-4,2,target-1,memory,0.4260978698730469
2021-06-09T12:42:29.473Z,RESERVED_GLOBAL_UNIT_MULTI_PROBE-2-1-4,2,target-1,memory,0.42617034912109375
2021-06-09T12:42:39.473Z,RESERVED_GLOBAL_UNIT_MULTI_PROBE-2-1-4,2,target-1,memory,0.42568206787109375
2021-06-09T12:33:49.473Z,RESERVED_GLOBAL_UNIT_MULTI_PROBE-2-1-4,2,target-1,memory,0.4260368347167969
2021-06-09T12:33:29.473Z,RESERVED_GLOBAL_UNIT_MULTI_PROBE-2-1-4,2,target-1,memory,0.4258079528808594
2021-06-09T12:33:39.473Z,RESERVED_GLOBAL_UNIT_MULTI_PROBE-2-1-4,2,target-1,memory,0.4257965087890625
2021-06-09T12:33:59.473Z,RESERVED_GLOBAL_UNIT_MULTI_PROBE-2-1-4,2,target-1,memory,0.42543792724609375
2021-06-09T12:35:39.473Z,RESERVED_GLOBAL_UNIT_MULTI_PROBE-2-1-4,2,target-1,memory,0.42572784423828125
2021-06-09T12:35:59.473Z,RESERVED_GLOBAL_UNIT_MULTI_PROBE-2-1-4,2,target-1,memory,0.42546844482421875
2021-06-09T12:35:49.473Z,RESERVED_GLOBAL_UNIT_MULTI_PROBE-2-1-4,2,target-1,memory,0.4257240295410156
2021-06-09T12:36:19.473Z,RESERVED_GLOBAL_UNIT_MULTI_PROBE-2-1-4,2,target-1,memory,0.4258232116699219
2021-06-09T12:36:09.474Z,RESERVED_GLOBAL_UNIT_MULTI_PROBE-2-1-4,2,target-1,memory,0.4258232116699219
2021-06-09T12:38:59.473Z,RESERVED_GLOBAL_UNIT_MULTI_PROBE-2-1-4,2,target-1,memory,0.4263343811035156
2021-06-09T12:38:39.473Z,RESERVED_GLOBAL_UNIT_MULTI_PROBE-2-1-4,2,target-1,memory,0.4262580871582031
2021-06-09T12:39:19.473Z,RESERVED_GLOBAL_UNIT_MULTI_PROBE-2-1-4,2,target-1,memory,0.42588043212890625
2021-06-09T12:38:49.473Z,RESERVED_GLOBAL_UNIT_MULTI_PROBE-2-1-4,2,target-1,memory,0.4262580871582031
2021-06-09T12:39:09.473Z,RESERVED_GLOBAL_UNIT_MULTI_PROBE-2-1-4,2,target-1,memory,0.4257698059082031
2021-06-09T12:42:09.473Z,RESERVED_GLOBAL_UNIT_MULTI_PROBE-2-1-4,2,target-1,memory,0.42617034912109375
2021-06-09T12:41:59.473Z,RESERVED_GLOBAL_UNIT_MULTI_PROBE-2-1-4,2,target-1,memory,0.426177978515625
2021-06-09T12:42:19.473Z,RESERVED_GLOBAL_UNIT_MULTI_PROBE-2-1-4,2,target-1,memory,0.4260063171386719
2021-06-09T12:41:49.473Z,RESERVED_GLOBAL_UNIT_MULTI_PROBE-2-1-4,2,target-1,memory,0.42578125
2021-06-09T12:41:39.473Z,RESERVED_GLOBAL_UNIT_MULTI_PROBE-2-1-4,2,target-1,memory,0.4257049560546875
2021-06-09T12:48:34.432Z,RESERVED_GLOBAL_UNIT_MULTI_PROBE-2-1-4,3,target-1,memory,0.4291267395019531
2021-06-09T12:48:24.432Z,RESERVED_GLOBAL_UNIT_MULTI_PROBE-2-1-4,3,target-1,memory,0.4291343688964844
2021-06-09T12:49:14.432Z,RESERVED_GLOBAL_UNIT_MULTI_PROBE-2-1-4,3,target-1,memory,0.42911529541015625
2021-06-09T12:48:54.432Z,RESERVED_GLOBAL_UNIT_MULTI_PROBE-2-1-4,3,target-1,memory,0.4288825988769531
2021-06-09T12:48:44.432Z,RESERVED_GLOBAL_UNIT_MULTI_PROBE-2-1-4,3,target-1,memory,0.429443359375
2021-06-09T12:48:14.432Z,RESERVED_GLOBAL_UNIT_MULTI_PROBE-2-1-4,3,target-1,memory,0.4296607971191406
2021-06-09T12:49:04.432Z,RESERVED_GLOBAL_UNIT_MULTI_PROBE-2-1-4,3,target-1,memory,0.4288825988769531
2021-06-09T12:48:04.432Z,RESERVED_GLOBAL_UNIT_MULTI_PROBE-2-1-4,3,target-1,memory,0.4286537170410156
2021-06-09T12:49:24.434Z,RESERVED_GLOBAL_UNIT_MULTI_PROBE-2-1-4,3,target-1,memory,0.4286956787109375
2021-06-09T12:52:44.432Z,RESERVED_GLOBAL_UNIT_MULTI_PROBE-2-1-4,3,target-1,memory,0.4290580749511719
2021-06-09T12:52:24.432Z,RESERVED_GLOBAL_UNIT_MULTI_PROBE-2-1-4,3,target-1,memory,0.4290618896484375
2021-06-09T12:52:34.432Z,RESERVED_GLOBAL_UNIT_MULTI_PROBE-2-1-4,3,target-1,memory,0.4290618896484375
2021-06-09T12:52:14.432Z,RESERVED_GLOBAL_UNIT_MULTI_PROBE-2-1-4,3,target-1,memory,0.42906951904296875
2021-06-09T12:54:34.432Z,RESERVED_GLOBAL_UNIT_MULTI_PROBE-2-1-4,3,target-1,memory,0.42925262451171875
2021-06-09T12:54:54.432Z,RESERVED_GLOBAL_UNIT_MULTI_PROBE-2-1-4,3,target-1,memory,0.4292449951171875
2021-06-09T12:55:04.432Z,RESERVED_GLOBAL_UNIT_MULTI_PROBE-2-1-4,3,target-1,memory,0.4285240173339844
2021-06-09T12:54:24.432Z,RESERVED_GLOBAL_UNIT_MULTI_PROBE-2-1-4,3,target-1,memory,0.4285392761230469
2021-06-09T12:54:44.432Z,RESERVED_GLOBAL_UNIT_MULTI_PROBE-2-1-4,3,target-1,memory,0.42925262451171875
2021-06-09T12:50:34.432Z,RESERVED_GLOBAL_UNIT_MULTI_PROBE-2-1-4,3,target-1,memory,0.4293365478515625
2021-06-09T12:49:34.432Z,RESERVED_GLOBAL_UNIT_MULTI_PROBE-2-1-4,3,target-1,memory,0.4288749694824219
2021-06-09T12:49:54.432Z,RESERVED_GLOBAL_UNIT_MULTI_PROBE-2-1-4,3,target-1,memory,0.429168701171875
2021-06-09T12:50:14.432Z,RESERVED_GLOBAL_UNIT_MULTI_PROBE-2-1-4,3,target-1,memory,0.4291038513183594
2021-06-09T12:50:54.432Z,RESERVED_GLOBAL_UNIT_MULTI_PROBE-2-1-4,3,target-1,memory,0.429107666015625
2021-06-09T12:50:44.432Z,RESERVED_GLOBAL_UNIT_MULTI_PROBE-2-1-4,3,target-1,memory,0.4293365478515625
2021-06-09T12:50:24.432Z,RESERVED_GLOBAL_UNIT_MULTI_PROBE-2-1-4,3,target-1,memory,0.4293365478515625
2021-06-09T12:50:04.432Z,RESERVED_GLOBAL_UNIT_MULTI_PROBE-2-1-4,3,target-1,memory,0.4291038513183594
2021-06-09T12:49:44.432Z,RESERVED_GLOBAL_UNIT_MULTI_PROBE-2-1-4,3,target-1,memory,0.4288749694824219
2021-06-09T12:46:24.432Z,RESERVED_GLOBAL_UNIT_MULTI_PROBE-2-1-4,3,target-1,memory,0.429351806640625
2021-06-09T12:46:04.432Z,RESERVED_GLOBAL_UNIT_MULTI_PROBE-2-1-4,3,target-1,memory,0.4295654296875
2021-06-09T12:46:14.432Z,RESERVED_GLOBAL_UNIT_MULTI_PROBE-2-1-4,3,target-1,memory,0.4295654296875
2021-06-09T12:45:54.432Z,RESERVED_GLOBAL_UNIT_MULTI_PROBE-2-1-4,3,target-1,memory,0.4303703308105469
2021-06-09T12:53:04.432Z,RESERVED_GLOBAL_UNIT_MULTI_PROBE-2-1-4,3,target-1,memory,0.4292945861816406
2021-06-09T12:52:54.432Z,RESERVED_GLOBAL_UNIT_MULTI_PROBE-2-1-4,3,target-1,memory,0.4290580749511719
2021-06-09T12:53:24.432Z,RESERVED_GLOBAL_UNIT_MULTI_PROBE-2-1-4,3,target-1,memory,0.42926788330078125
2021-06-09T12:53:14.432Z,RESERVED_GLOBAL_UNIT_MULTI_PROBE-2-1-4,3,target-1,memory,0.4292945861816406
2021-06-09T12:53:34.432Z,RESERVED_GLOBAL_UNIT_MULTI_PROBE-2-1-4,3,target-1,memory,0.4287872314453125
2021-06-09T12:55:24.432Z,RESERVED_GLOBAL_UNIT_MULTI_PROBE-2-1-4,3,target-1,memory,0.42852020263671875
2021-06-09T12:55:14.432Z,RESERVED_GLOBAL_UNIT_MULTI_PROBE-2-1-4,3,target-1,memory,0.4285240173339844
2021-06-09T12:55:34.432Z,RESERVED_GLOBAL_UNIT_MULTI_PROBE-2-1-4,3,target-1,memory,0.4285125732421875
2021-06-09T12:55:44.432Z,RESERVED_GLOBAL_UNIT_MULTI_PROBE-2-1-4,3,target-1,memory,0.4285125732421875
2021-06-09T12:47:54.432Z,RESERVED_GLOBAL_UNIT_MULTI_PROBE-2-1-4,3,target-1,memory,0.428497314453125
2021-06-09T12:47:14.432Z,RESERVED_GLOBAL_UNIT_MULTI_PROBE-2-1-4,3,target-1,memory,0.4298248291015625
2021-06-09T12:47:04.432Z,RESERVED_GLOBAL_UNIT_MULTI_PROBE-2-1-4,3,target-1,memory,0.429595947265625
2021-06-09T12:46:34.432Z,RESERVED_GLOBAL_UNIT_MULTI_PROBE-2-1-4,3,target-1,memory,0.4298439025878906
2021-06-09T12:47:44.432Z,RESERVED_GLOBAL_UNIT_MULTI_PROBE-2-1-4,3,target-1,memory,0.4294013977050781
2021-06-09T12:47:34.432Z,RESERVED_GLOBAL_UNIT_MULTI_PROBE-2-1-4,3,target-1,memory,0.4294090270996094
2021-06-09T12:46:54.432Z,RESERVED_GLOBAL_UNIT_MULTI_PROBE-2-1-4,3,target-1,memory,0.4298362731933594
2021-06-09T12:47:24.433Z,RESERVED_GLOBAL_UNIT_MULTI_PROBE-2-1-4,3,target-1,memory,0.4291038513183594
2021-06-09T12:46:44.432Z,RESERVED_GLOBAL_UNIT_MULTI_PROBE-2-1-4,3,target-1,memory,0.4298362731933594
2021-06-09T12:51:24.432Z,RESERVED_GLOBAL_UNIT_MULTI_PROBE-2-1-4,3,target-1,memory,0.42913818359375
2021-06-09T12:51:04.432Z,RESERVED_GLOBAL_UNIT_MULTI_PROBE-2-1-4,3,target-1,memory,0.4290885925292969
2021-06-09T12:51:34.432Z,RESERVED_GLOBAL_UNIT_MULTI_PROBE-2-1-4,3,target-1,memory,0.4286003112792969
2021-06-09T12:51:14.432Z,RESERVED_GLOBAL_UNIT_MULTI_PROBE-2-1-4,3,target-1,memory,0.4290809631347656
2021-06-09T12:52:04.432Z,RESERVED_GLOBAL_UNIT_MULTI_PROBE-2-1-4,3,target-1,memory,0.42906951904296875
2021-06-09T12:51:44.432Z,RESERVED_GLOBAL_UNIT_MULTI_PROBE-2-1-4,3,target-1,memory,0.4285926818847656
2021-06-09T12:51:54.432Z,RESERVED_GLOBAL_UNIT_MULTI_PROBE-2-1-4,3,target-1,memory,0.4285926818847656
2021-06-09T12:54:04.432Z,RESERVED_GLOBAL_UNIT_MULTI_PROBE-2-1-4,3,target-1,memory,0.4285392761230469
2021-06-09T12:54:14.432Z,RESERVED_GLOBAL_UNIT_MULTI_PROBE-2-1-4,3,target-1,memory,0.4285392761230469
2021-06-09T12:53:54.432Z,RESERVED_GLOBAL_UNIT_MULTI_PROBE-2-1-4,3,target-1,memory,0.42877960205078125
2021-06-09T12:53:44.432Z,RESERVED_GLOBAL_UNIT_MULTI_PROBE-2-1-4,3,target-1,memory,0.4287872314453125
2021-06-09T12:59:44.846Z,RESERVED_GLOBAL_UNIT_MULTI_PROBE-2-1-8,1,target-1,memory,0.4285774230957031
2021-06-09T12:59:54.846Z,RESERVED_GLOBAL_UNIT_MULTI_PROBE-2-1-8,1,target-1,memory,0.4285087585449219
2021-06-09T13:00:04.846Z,RESERVED_GLOBAL_UNIT_MULTI_PROBE-2-1-8,1,target-1,memory,0.4282684326171875
2021-06-09T13:00:14.846Z,RESERVED_GLOBAL_UNIT_MULTI_PROBE-2-1-8,1,target-1,memory,0.42812347412109375
2021-06-09T13:03:44.846Z,RESERVED_GLOBAL_UNIT_MULTI_PROBE-2-1-8,1,target-1,memory,0.42800140380859375
2021-06-09T13:04:04.846Z,RESERVED_GLOBAL_UNIT_MULTI_PROBE-2-1-8,1,target-1,memory,0.4279937744140625
2021-06-09T13:03:34.846Z,RESERVED_GLOBAL_UNIT_MULTI_PROBE-2-1-8,1,target-1,memory,0.42800140380859375
2021-06-09T13:03:24.846Z,RESERVED_GLOBAL_UNIT_MULTI_PROBE-2-1-8,1,target-1,memory,0.4272804260253906
2021-06-09T13:03:54.846Z,RESERVED_GLOBAL_UNIT_MULTI_PROBE-2-1-8,1,target-1,memory,0.4279937744140625
2021-06-09T13:05:44.846Z,RESERVED_GLOBAL_UNIT_MULTI_PROBE-2-1-8,1,target-1,memory,0.4274749755859375
2021-06-09T13:05:54.846Z,RESERVED_GLOBAL_UNIT_MULTI_PROBE-2-1-8,1,target-1,memory,0.4274749755859375
2021-06-09T13:06:14.846Z,RESERVED_GLOBAL_UNIT_MULTI_PROBE-2-1-8,1,target-1,memory,0.4275054931640625
2021-06-09T13:06:04.846Z,RESERVED_GLOBAL_UNIT_MULTI_PROBE-2-1-8,1,target-1,memory,0.4274749755859375
2021-06-09T13:09:24.846Z,RESERVED_GLOBAL_UNIT_MULTI_PROBE-2-1-8,1,target-1,memory,0.42791748046875
2021-06-09T13:09:14.846Z,RESERVED_GLOBAL_UNIT_MULTI_PROBE-2-1-8,1,target-1,memory,0.42791748046875
2021-06-09T13:09:04.846Z,RESERVED_GLOBAL_UNIT_MULTI_PROBE-2-1-8,1,target-1,memory,0.42791748046875
2021-06-09T13:09:34.846Z,RESERVED_GLOBAL_UNIT_MULTI_PROBE-2-1-8,1,target-1,memory,0.42742919921875
2021-06-09T13:08:44.846Z,RESERVED_GLOBAL_UNIT_MULTI_PROBE-2-1-8,1,target-1,memory,0.42841339111328125
2021-06-09T13:08:54.846Z,RESERVED_GLOBAL_UNIT_MULTI_PROBE-2-1-8,1,target-1,memory,0.42840576171875
2021-06-09T13:02:34.846Z,RESERVED_GLOBAL_UNIT_MULTI_PROBE-2-1-8,1,target-1,memory,0.4279289245605469
2021-06-09T13:02:14.846Z,RESERVED_GLOBAL_UNIT_MULTI_PROBE-2-1-8,1,target-1,memory,0.4279365539550781
2021-06-09T13:02:04.846Z,RESERVED_GLOBAL_UNIT_MULTI_PROBE-2-1-8,1,target-1,memory,0.4279365539550781
2021-06-09T13:02:24.846Z,RESERVED_GLOBAL_UNIT_MULTI_PROBE-2-1-8,1,target-1,memory,0.4279289245605469
2021-06-09T13:01:54.846Z,RESERVED_GLOBAL_UNIT_MULTI_PROBE-2-1-8,1,target-1,memory,0.4281768798828125
2021-06-09T13:04:54.846Z,RESERVED_GLOBAL_UNIT_MULTI_PROBE-2-1-8,1,target-1,memory,0.42797088623046875
2021-06-09T13:05:24.846Z,RESERVED_GLOBAL_UNIT_MULTI_PROBE-2-1-8,1,target-1,memory,0.4274787902832031
2021-06-09T13:05:14.846Z,RESERVED_GLOBAL_UNIT_MULTI_PROBE-2-1-8,1,target-1,memory,0.42748260498046875
2021-06-09T13:05:04.846Z,RESERVED_GLOBAL_UNIT_MULTI_PROBE-2-1-8,1,target-1,memory,0.42748260498046875
2021-06-09T13:05:34.846Z,RESERVED_GLOBAL_UNIT_MULTI_PROBE-2-1-8,1,target-1,memory,0.4274749755859375
2021-06-09T13:07:44.846Z,RESERVED_GLOBAL_UNIT_MULTI_PROBE-2-1-8,1,target-1,memory,0.4274787902832031
2021-06-09T13:07:24.846Z,RESERVED_GLOBAL_UNIT_MULTI_PROBE-2-1-8,1,target-1,memory,0.4277191162109375
2021-06-09T13:07:14.849Z,RESERVED_GLOBAL_UNIT_MULTI_PROBE-2-1-8,1,target-1,memory,0.42772674560546875
2021-06-09T13:07:34.846Z,RESERVED_GLOBAL_UNIT_MULTI_PROBE-2-1-8,1,target-1,memory,0.4274787902832031
2021-06-09T13:01:14.846Z,RESERVED_GLOBAL_UNIT_MULTI_PROBE-2-1-8,1,target-1,memory,0.4274787902832031
2021-06-09T13:01:24.846Z,RESERVED_GLOBAL_UNIT_MULTI_PROBE-2-1-8,1,target-1,memory,0.4274711608886719
2021-06-09T13:01:44.846Z,RESERVED_GLOBAL_UNIT_MULTI_PROBE-2-1-8,1,target-1,memory,0.42818450927734375
2021-06-09T13:01:34.846Z,RESERVED_GLOBAL_UNIT_MULTI_PROBE-2-1-8,1,target-1,memory,0.4284248352050781
2021-06-09T13:04:24.846Z,RESERVED_GLOBAL_UNIT_MULTI_PROBE-2-1-8,1,target-1,memory,0.42798614501953125
2021-06-09T13:04:44.846Z,RESERVED_GLOBAL_UNIT_MULTI_PROBE-2-1-8,1,target-1,memory,0.4282264709472656
2021-06-09T13:04:14.846Z,RESERVED_GLOBAL_UNIT_MULTI_PROBE-2-1-8,1,target-1,memory,0.4279937744140625
2021-06-09T13:04:34.846Z,RESERVED_GLOBAL_UNIT_MULTI_PROBE-2-1-8,1,target-1,memory,0.42798614501953125
2021-06-09T13:08:34.846Z,RESERVED_GLOBAL_UNIT_MULTI_PROBE-2-1-8,1,target-1,memory,0.42841339111328125
2021-06-09T13:07:54.846Z,RESERVED_GLOBAL_UNIT_MULTI_PROBE-2-1-8,1,target-1,memory,0.4274711608886719
2021-06-09T13:08:24.846Z,RESERVED_GLOBAL_UNIT_MULTI_PROBE-2-1-8,1,target-1,memory,0.427459716796875
2021-06-09T13:08:14.846Z,RESERVED_GLOBAL_UNIT_MULTI_PROBE-2-1-8,1,target-1,memory,0.4274635314941406
2021-06-09T13:08:04.846Z,RESERVED_GLOBAL_UNIT_MULTI_PROBE-2-1-8,1,target-1,memory,0.4274635314941406
2021-06-09T13:00:44.846Z,RESERVED_GLOBAL_UNIT_MULTI_PROBE-2-1-8,1,target-1,memory,0.4283561706542969
2021-06-09T13:00:34.846Z,RESERVED_GLOBAL_UNIT_MULTI_PROBE-2-1-8,1,target-1,memory,0.4283561706542969
2021-06-09T13:00:54.846Z,RESERVED_GLOBAL_UNIT_MULTI_PROBE-2-1-8,1,target-1,memory,0.42835235595703125
2021-06-09T13:00:24.846Z,RESERVED_GLOBAL_UNIT_MULTI_PROBE-2-1-8,1,target-1,memory,0.4281158447265625
2021-06-09T13:01:04.846Z,RESERVED_GLOBAL_UNIT_MULTI_PROBE-2-1-8,1,target-1,memory,0.4276237487792969
2021-06-09T13:02:54.846Z,RESERVED_GLOBAL_UNIT_MULTI_PROBE-2-1-8,1,target-1,memory,0.4279289245605469
2021-06-09T13:02:44.846Z,RESERVED_GLOBAL_UNIT_MULTI_PROBE-2-1-8,1,target-1,memory,0.4279289245605469
2021-06-09T13:03:04.846Z,RESERVED_GLOBAL_UNIT_MULTI_PROBE-2-1-8,1,target-1,memory,0.4272956848144531
2021-06-09T13:03:14.846Z,RESERVED_GLOBAL_UNIT_MULTI_PROBE-2-1-8,1,target-1,memory,0.4272956848144531
2021-06-09T13:06:34.846Z,RESERVED_GLOBAL_UNIT_MULTI_PROBE-2-1-8,1,target-1,memory,0.42821502685546875
2021-06-09T13:06:24.846Z,RESERVED_GLOBAL_UNIT_MULTI_PROBE-2-1-8,1,target-1,memory,0.4274940490722656
2021-06-09T13:07:04.846Z,RESERVED_GLOBAL_UNIT_MULTI_PROBE-2-1-8,1,target-1,memory,0.42772674560546875
2021-06-09T13:06:54.846Z,RESERVED_GLOBAL_UNIT_MULTI_PROBE-2-1-8,1,target-1,memory,0.42821502685546875
2021-06-09T13:06:44.846Z,RESERVED_GLOBAL_UNIT_MULTI_PROBE-2-1-8,1,target-1,memory,0.42821502685546875
2021-06-09T13:17:08.546Z,RESERVED_GLOBAL_UNIT_MULTI_PROBE-2-1-8,2,target-1,memory,0.4269561767578125
2021-06-09T13:16:58.547Z,RESERVED_GLOBAL_UNIT_MULTI_PROBE-2-1-8,2,target-1,memory,0.42596435546875
2021-06-09T13:16:38.546Z,RESERVED_GLOBAL_UNIT_MULTI_PROBE-2-1-8,2,target-1,memory,0.4264373779296875
2021-06-09T13:16:48.546Z,RESERVED_GLOBAL_UNIT_MULTI_PROBE-2-1-8,2,target-1,memory,0.4264373779296875
2021-06-09T13:19:18.546Z,RESERVED_GLOBAL_UNIT_MULTI_PROBE-2-1-8,2,target-1,memory,0.42667388916015625
2021-06-09T13:18:48.546Z,RESERVED_GLOBAL_UNIT_MULTI_PROBE-2-1-8,2,target-1,memory,0.4264488220214844
2021-06-09T13:19:08.546Z,RESERVED_GLOBAL_UNIT_MULTI_PROBE-2-1-8,2,target-1,memory,0.42667388916015625
2021-06-09T13:19:28.546Z,RESERVED_GLOBAL_UNIT_MULTI_PROBE-2-1-8,2,target-1,memory,0.4264335632324219
2021-06-09T13:18:58.546Z,RESERVED_GLOBAL_UNIT_MULTI_PROBE-2-1-8,2,target-1,memory,0.42668914794921875
2021-06-09T13:22:28.546Z,RESERVED_GLOBAL_UNIT_MULTI_PROBE-2-1-8,2,target-1,memory,0.42607879638671875
2021-06-09T13:21:58.546Z,RESERVED_GLOBAL_UNIT_MULTI_PROBE-2-1-8,2,target-1,memory,0.4263877868652344
2021-06-09T13:22:58.546Z,RESERVED_GLOBAL_UNIT_MULTI_PROBE-2-1-8,2,target-1,memory,0.4263114929199219
2021-06-09T13:22:38.546Z,RESERVED_GLOBAL_UNIT_MULTI_PROBE-2-1-8,2,target-1,memory,0.42607879638671875
2021-06-09T13:22:18.546Z,RESERVED_GLOBAL_UNIT_MULTI_PROBE-2-1-8,2,target-1,memory,0.4263191223144531
2021-06-09T13:23:08.546Z,RESERVED_GLOBAL_UNIT_MULTI_PROBE-2-1-8,2,target-1,memory,0.426300048828125
2021-06-09T13:22:08.547Z,RESERVED_GLOBAL_UNIT_MULTI_PROBE-2-1-8,2,target-1,memory,0.4263801574707031
2021-06-09T13:22:48.546Z,RESERVED_GLOBAL_UNIT_MULTI_PROBE-2-1-8,2,target-1,memory,0.42607879638671875
2021-06-09T13:21:48.546Z,RESERVED_GLOBAL_UNIT_MULTI_PROBE-2-1-8,2,target-1,memory,0.4268684387207031
2021-06-09T13:14:38.550Z,RESERVED_GLOBAL_UNIT_MULTI_PROBE-2-1-8,2,target-1,memory,0.4274406433105469
2021-06-09T13:14:58.546Z,RESERVED_GLOBAL_UNIT_MULTI_PROBE-2-1-8,2,target-1,memory,0.4269599914550781
2021-06-09T13:14:28.546Z,RESERVED_GLOBAL_UNIT_MULTI_PROBE-2-1-8,2,target-1,memory,0.4274559020996094
2021-06-09T13:14:48.546Z,RESERVED_GLOBAL_UNIT_MULTI_PROBE-2-1-8,2,target-1,memory,0.4274406433105469
2021-06-09T13:14:18.546Z,RESERVED_GLOBAL_UNIT_MULTI_PROBE-2-1-8,2,target-1,memory,0.4269752502441406
2021-06-09T13:16:08.546Z,RESERVED_GLOBAL_UNIT_MULTI_PROBE-2-1-8,2,target-1,memory,0.4269371032714844
2021-06-09T13:16:28.546Z,RESERVED_GLOBAL_UNIT_MULTI_PROBE-2-1-8,2,target-1,memory,0.42645263671875
2021-06-09T13:15:58.546Z,RESERVED_GLOBAL_UNIT_MULTI_PROBE-2-1-8,2,target-1,memory,0.42694091796875
2021-06-09T13:15:48.546Z,RESERVED_GLOBAL_UNIT_MULTI_PROBE-2-1-8,2,target-1,memory,0.42694854736328125
2021-06-09T13:16:18.546Z,RESERVED_GLOBAL_UNIT_MULTI_PROBE-2-1-8,2,target-1,memory,0.4269371032714844
2021-06-09T13:19:48.546Z,RESERVED_GLOBAL_UNIT_MULTI_PROBE-2-1-8,2,target-1,memory,0.426422119140625
2021-06-09T13:19:38.546Z,RESERVED_GLOBAL_UNIT_MULTI_PROBE-2-1-8,2,target-1,memory,0.426422119140625
2021-06-09T13:19:58.546Z,RESERVED_GLOBAL_UNIT_MULTI_PROBE-2-1-8,2,target-1,memory,0.426422119140625
2021-06-09T13:20:08.546Z,RESERVED_GLOBAL_UNIT_MULTI_PROBE-2-1-8,2,target-1,memory,0.42641448974609375
2021-06-09T13:23:38.546Z,RESERVED_GLOBAL_UNIT_MULTI_PROBE-2-1-8,2,target-1,memory,0.4263038635253906
2021-06-09T13:23:28.546Z,RESERVED_GLOBAL_UNIT_MULTI_PROBE-2-1-8,2,target-1,memory,0.4263038635253906
2021-06-09T13:23:18.546Z,RESERVED_GLOBAL_UNIT_MULTI_PROBE-2-1-8,2,target-1,memory,0.426300048828125
2021-06-09T13:13:48.546Z,RESERVED_GLOBAL_UNIT_MULTI_PROBE-2-1-8,2,target-1,memory,0.4275550842285156
2021-06-09T13:13:58.546Z,RESERVED_GLOBAL_UNIT_MULTI_PROBE-2-1-8,2,target-1,memory,0.4270744323730469
2021-06-09T13:14:08.546Z,RESERVED_GLOBAL_UNIT_MULTI_PROBE-2-1-8,2,target-1,memory,0.42706298828125
2021-06-09T13:17:38.546Z,RESERVED_GLOBAL_UNIT_MULTI_PROBE-2-1-8,2,target-1,memory,0.4264640808105469
2021-06-09T13:17:18.546Z,RESERVED_GLOBAL_UNIT_MULTI_PROBE-2-1-8,2,target-1,memory,0.4269561767578125
2021-06-09T13:17:48.546Z,RESERVED_GLOBAL_UNIT_MULTI_PROBE-2-1-8,2,target-1,memory,0.4264640808105469
2021-06-09T13:17:28.546Z,RESERVED_GLOBAL_UNIT_MULTI_PROBE-2-1-8,2,target-1,memory,0.42647552490234375
2021-06-09T13:17:58.546Z,RESERVED_GLOBAL_UNIT_MULTI_PROBE-2-1-8,2,target-1,memory,0.42719268798828125
2021-06-09T13:20:38.546Z,RESERVED_GLOBAL_UNIT_MULTI_PROBE-2-1-8,2,target-1,memory,0.4268951416015625
2021-06-09T13:20:18.546Z,RESERVED_GLOBAL_UNIT_MULTI_PROBE-2-1-8,2,target-1,memory,0.42641448974609375
2021-06-09T13:20:58.546Z,RESERVED_GLOBAL_UNIT_MULTI_PROBE-2-1-8,2,target-1,memory,0.42688751220703125
2021-06-09T13:20:48.546Z,RESERVED_GLOBAL_UNIT_MULTI_PROBE-2-1-8,2,target-1,memory,0.4268951416015625
2021-06-09T13:20:28.546Z,RESERVED_GLOBAL_UNIT_MULTI_PROBE-2-1-8,2,target-1,memory,0.4268951416015625
2021-06-09T13:15:18.546Z,RESERVED_GLOBAL_UNIT_MULTI_PROBE-2-1-8,2,target-1,memory,0.4267158508300781
2021-06-09T13:15:08.546Z,RESERVED_GLOBAL_UNIT_MULTI_PROBE-2-1-8,2,target-1,memory,0.4269523620605469
2021-06-09T13:15:38.546Z,RESERVED_GLOBAL_UNIT_MULTI_PROBE-2-1-8,2,target-1,memory,0.42694854736328125
2021-06-09T13:15:28.546Z,RESERVED_GLOBAL_UNIT_MULTI_PROBE-2-1-8,2,target-1,memory,0.42694854736328125
2021-06-09T13:18:28.546Z,RESERVED_GLOBAL_UNIT_MULTI_PROBE-2-1-8,2,target-1,memory,0.4264564514160156
2021-06-09T13:18:08.546Z,RESERVED_GLOBAL_UNIT_MULTI_PROBE-2-1-8,2,target-1,memory,0.42718505859375
2021-06-09T13:18:38.546Z,RESERVED_GLOBAL_UNIT_MULTI_PROBE-2-1-8,2,target-1,memory,0.4264488220214844
2021-06-09T13:18:18.546Z,RESERVED_GLOBAL_UNIT_MULTI_PROBE-2-1-8,2,target-1,memory,0.42717742919921875
2021-06-09T13:21:28.546Z,RESERVED_GLOBAL_UNIT_MULTI_PROBE-2-1-8,2,target-1,memory,0.4268760681152344
2021-06-09T13:21:08.546Z,RESERVED_GLOBAL_UNIT_MULTI_PROBE-2-1-8,2,target-1,memory,0.4268760681152344
2021-06-09T13:21:38.546Z,RESERVED_GLOBAL_UNIT_MULTI_PROBE-2-1-8,2,target-1,memory,0.4268760681152344
2021-06-09T13:21:18.546Z,RESERVED_GLOBAL_UNIT_MULTI_PROBE-2-1-8,2,target-1,memory,0.4268760681152344
2021-06-09T13:28:09.994Z,RESERVED_GLOBAL_UNIT_MULTI_PROBE-2-1-8,3,target-1,memory,0.4273643493652344
2021-06-09T13:33:29.993Z,RESERVED_GLOBAL_UNIT_MULTI_PROBE-2-1-8,3,target-1,memory,0.4266510009765625
2021-06-09T13:33:39.993Z,RESERVED_GLOBAL_UNIT_MULTI_PROBE-2-1-8,3,target-1,memory,0.42664337158203125
2021-06-09T13:33:49.993Z,RESERVED_GLOBAL_UNIT_MULTI_PROBE-2-1-8,3,target-1,memory,0.42664337158203125
2021-06-09T13:33:19.993Z,RESERVED_GLOBAL_UNIT_MULTI_PROBE-2-1-8,3,target-1,memory,0.42618560791015625
2021-06-09T13:32:49.993Z,RESERVED_GLOBAL_UNIT_MULTI_PROBE-2-1-8,3,target-1,memory,0.4269065856933594
2021-06-09T13:33:09.993Z,RESERVED_GLOBAL_UNIT_MULTI_PROBE-2-1-8,3,target-1,memory,0.42618560791015625
2021-06-09T13:32:59.993Z,RESERVED_GLOBAL_UNIT_MULTI_PROBE-2-1-8,3,target-1,memory,0.42618560791015625
2021-06-09T13:33:59.993Z,RESERVED_GLOBAL_UNIT_MULTI_PROBE-2-1-8,3,target-1,memory,0.4266357421875
2021-06-09T13:34:09.993Z,RESERVED_GLOBAL_UNIT_MULTI_PROBE-2-1-8,3,target-1,memory,0.4266357421875
2021-06-09T13:30:49.993Z,RESERVED_GLOBAL_UNIT_MULTI_PROBE-2-1-8,3,target-1,memory,0.4267234802246094
2021-06-09T13:30:29.993Z,RESERVED_GLOBAL_UNIT_MULTI_PROBE-2-1-8,3,target-1,memory,0.4273223876953125
2021-06-09T13:29:49.993Z,RESERVED_GLOBAL_UNIT_MULTI_PROBE-2-1-8,3,target-1,memory,0.4270820617675781
2021-06-09T13:29:59.993Z,RESERVED_GLOBAL_UNIT_MULTI_PROBE-2-1-8,3,target-1,memory,0.42681884765625
2021-06-09T13:30:19.993Z,RESERVED_GLOBAL_UNIT_MULTI_PROBE-2-1-8,3,target-1,memory,0.42684173583984375
2021-06-09T13:30:39.993Z,RESERVED_GLOBAL_UNIT_MULTI_PROBE-2-1-8,3,target-1,memory,0.426727294921875
2021-06-09T13:30:09.993Z,RESERVED_GLOBAL_UNIT_MULTI_PROBE-2-1-8,3,target-1,memory,0.42681884765625
2021-06-09T13:30:59.993Z,RESERVED_GLOBAL_UNIT_MULTI_PROBE-2-1-8,3,target-1,memory,0.4262351989746094
2021-06-09T13:31:09.993Z,RESERVED_GLOBAL_UNIT_MULTI_PROBE-2-1-8,3,target-1,memory,0.4262657165527344
2021-06-09T13:36:39.993Z,RESERVED_GLOBAL_UNIT_MULTI_PROBE-2-1-8,3,target-1,memory,0.4265785217285156
2021-06-09T13:35:59.993Z,RESERVED_GLOBAL_UNIT_MULTI_PROBE-2-1-8,3,target-1,memory,0.42610931396484375
2021-06-09T13:36:19.993Z,RESERVED_GLOBAL_UNIT_MULTI_PROBE-2-1-8,3,target-1,memory,0.4260978698730469
2021-06-09T13:36:49.993Z,RESERVED_GLOBAL_UNIT_MULTI_PROBE-2-1-8,3,target-1,memory,0.4265708923339844
2021-06-09T13:36:29.993Z,RESERVED_GLOBAL_UNIT_MULTI_PROBE-2-1-8,3,target-1,memory,0.4265785217285156
2021-06-09T13:36:09.993Z,RESERVED_GLOBAL_UNIT_MULTI_PROBE-2-1-8,3,target-1,memory,0.42610931396484375
2021-06-09T13:35:49.993Z,RESERVED_GLOBAL_UNIT_MULTI_PROBE-2-1-8,3,target-1,memory,0.4265861511230469
2021-06-09T13:36:59.993Z,RESERVED_GLOBAL_UNIT_MULTI_PROBE-2-1-8,3,target-1,memory,0.4260902404785156
2021-06-09T13:37:09.993Z,RESERVED_GLOBAL_UNIT_MULTI_PROBE-2-1-8,3,target-1,memory,0.4260902404785156
2021-06-09T13:31:49.993Z,RESERVED_GLOBAL_UNIT_MULTI_PROBE-2-1-8,3,target-1,memory,0.4257774353027344
2021-06-09T13:31:29.993Z,RESERVED_GLOBAL_UNIT_MULTI_PROBE-2-1-8,3,target-1,memory,0.42601776123046875
2021-06-09T13:31:39.993Z,RESERVED_GLOBAL_UNIT_MULTI_PROBE-2-1-8,3,target-1,memory,0.4257774353027344
2021-06-09T13:32:19.995Z,RESERVED_GLOBAL_UNIT_MULTI_PROBE-2-1-8,3,target-1,memory,0.4267234802246094
2021-06-09T13:32:29.993Z,RESERVED_GLOBAL_UNIT_MULTI_PROBE-2-1-8,3,target-1,memory,0.42691802978515625
2021-06-09T13:31:59.993Z,RESERVED_GLOBAL_UNIT_MULTI_PROBE-2-1-8,3,target-1,memory,0.4267234802246094
2021-06-09T13:32:39.993Z,RESERVED_GLOBAL_UNIT_MULTI_PROBE-2-1-8,3,target-1,memory,0.42691802978515625
2021-06-09T13:31:19.993Z,RESERVED_GLOBAL_UNIT_MULTI_PROBE-2-1-8,3,target-1,memory,0.4262657165527344
2021-06-09T13:32:09.993Z,RESERVED_GLOBAL_UNIT_MULTI_PROBE-2-1-8,3,target-1,memory,0.4267234802246094
2021-06-09T13:37:19.993Z,RESERVED_GLOBAL_UNIT_MULTI_PROBE-2-1-8,3,target-1,memory,0.42633056640625
2021-06-09T13:37:59.993Z,RESERVED_GLOBAL_UNIT_MULTI_PROBE-2-1-8,3,target-1,memory,0.4269447326660156
2021-06-09T13:37:49.993Z,RESERVED_GLOBAL_UNIT_MULTI_PROBE-2-1-8,3,target-1,memory,0.4264717102050781
2021-06-09T13:37:39.993Z,RESERVED_GLOBAL_UNIT_MULTI_PROBE-2-1-8,3,target-1,memory,0.4264717102050781
2021-06-09T13:37:29.993Z,RESERVED_GLOBAL_UNIT_MULTI_PROBE-2-1-8,3,target-1,memory,0.4264717102050781
2021-06-09T13:28:29.993Z,RESERVED_GLOBAL_UNIT_MULTI_PROBE-2-1-8,3,target-1,memory,0.4268913269042969
2021-06-09T13:29:19.993Z,RESERVED_GLOBAL_UNIT_MULTI_PROBE-2-1-8,3,target-1,memory,0.42636871337890625
2021-06-09T13:28:19.993Z,RESERVED_GLOBAL_UNIT_MULTI_PROBE-2-1-8,3,target-1,memory,0.4273719787597656
2021-06-09T13:28:49.993Z,RESERVED_GLOBAL_UNIT_MULTI_PROBE-2-1-8,3,target-1,memory,0.4268608093261719
2021-06-09T13:29:39.993Z,RESERVED_GLOBAL_UNIT_MULTI_PROBE-2-1-8,3,target-1,memory,0.4270896911621094
2021-06-09T13:28:39.993Z,RESERVED_GLOBAL_UNIT_MULTI_PROBE-2-1-8,3,target-1,memory,0.4268608093261719
2021-06-09T13:28:59.993Z,RESERVED_GLOBAL_UNIT_MULTI_PROBE-2-1-8,3,target-1,memory,0.4263801574707031
2021-06-09T13:29:09.993Z,RESERVED_GLOBAL_UNIT_MULTI_PROBE-2-1-8,3,target-1,memory,0.4263725280761719
2021-06-09T13:29:29.993Z,RESERVED_GLOBAL_UNIT_MULTI_PROBE-2-1-8,3,target-1,memory,0.4270973205566406
2021-06-09T13:35:19.993Z,RESERVED_GLOBAL_UNIT_MULTI_PROBE-2-1-8,3,target-1,memory,0.42636871337890625
2021-06-09T13:35:39.993Z,RESERVED_GLOBAL_UNIT_MULTI_PROBE-2-1-8,3,target-1,memory,0.4265937805175781
2021-06-09T13:34:49.993Z,RESERVED_GLOBAL_UNIT_MULTI_PROBE-2-1-8,3,target-1,memory,0.4259033203125
2021-06-09T13:34:59.993Z,RESERVED_GLOBAL_UNIT_MULTI_PROBE-2-1-8,3,target-1,memory,0.4263725280761719
2021-06-09T13:35:09.993Z,RESERVED_GLOBAL_UNIT_MULTI_PROBE-2-1-8,3,target-1,memory,0.42636871337890625
2021-06-09T13:34:39.993Z,RESERVED_GLOBAL_UNIT_MULTI_PROBE-2-1-8,3,target-1,memory,0.4259071350097656
2021-06-09T13:34:19.993Z,RESERVED_GLOBAL_UNIT_MULTI_PROBE-2-1-8,3,target-1,memory,0.4266357421875
2021-06-09T13:34:29.993Z,RESERVED_GLOBAL_UNIT_MULTI_PROBE-2-1-8,3,target-1,memory,0.4259071350097656
2021-06-09T13:35:29.993Z,RESERVED_GLOBAL_UNIT_MULTI_PROBE-2-1-8,3,target-1,memory,0.4265937805175781
2021-06-09T13:46:50.877Z,RESERVED_GLOBAL_UNIT_MULTI_PROBE-2-1-16,1,target-1,memory,0.42977142333984375
2021-06-09T13:46:20.877Z,RESERVED_GLOBAL_UNIT_MULTI_PROBE-2-1-16,1,target-1,memory,0.429779052734375
2021-06-09T13:46:10.877Z,RESERVED_GLOBAL_UNIT_MULTI_PROBE-2-1-16,1,target-1,memory,0.429779052734375
2021-06-09T13:46:40.877Z,RESERVED_GLOBAL_UNIT_MULTI_PROBE-2-1-16,1,target-1,memory,0.42977142333984375
2021-06-09T13:46:30.877Z,RESERVED_GLOBAL_UNIT_MULTI_PROBE-2-1-16,1,target-1,memory,0.42977142333984375
2021-06-09T13:51:40.877Z,RESERVED_GLOBAL_UNIT_MULTI_PROBE-2-1-16,1,target-1,memory,0.42957305908203125
2021-06-09T13:52:00.877Z,RESERVED_GLOBAL_UNIT_MULTI_PROBE-2-1-16,1,target-1,memory,0.42908477783203125
2021-06-09T13:52:10.877Z,RESERVED_GLOBAL_UNIT_MULTI_PROBE-2-1-16,1,target-1,memory,0.42900848388671875
2021-06-09T13:52:50.877Z,RESERVED_GLOBAL_UNIT_MULTI_PROBE-2-1-16,1,target-1,memory,0.4290008544921875
2021-06-09T13:51:30.877Z,RESERVED_GLOBAL_UNIT_MULTI_PROBE-2-1-16,1,target-1,memory,0.42957305908203125
2021-06-09T13:51:50.877Z,RESERVED_GLOBAL_UNIT_MULTI_PROBE-2-1-16,1,target-1,memory,0.42957305908203125
2021-06-09T13:52:30.877Z,RESERVED_GLOBAL_UNIT_MULTI_PROBE-2-1-16,1,target-1,memory,0.4290008544921875
2021-06-09T13:52:20.877Z,RESERVED_GLOBAL_UNIT_MULTI_PROBE-2-1-16,1,target-1,memory,0.42900848388671875
2021-06-09T13:52:40.877Z,RESERVED_GLOBAL_UNIT_MULTI_PROBE-2-1-16,1,target-1,memory,0.4290008544921875
2021-06-09T13:47:50.877Z,RESERVED_GLOBAL_UNIT_MULTI_PROBE-2-1-16,1,target-1,memory,0.4292640686035156
2021-06-09T13:48:00.877Z,RESERVED_GLOBAL_UNIT_MULTI_PROBE-2-1-16,1,target-1,memory,0.42949676513671875
2021-06-09T13:48:20.877Z,RESERVED_GLOBAL_UNIT_MULTI_PROBE-2-1-16,1,target-1,memory,0.42948150634765625
2021-06-09T13:47:20.877Z,RESERVED_GLOBAL_UNIT_MULTI_PROBE-2-1-16,1,target-1,memory,0.4295158386230469
2021-06-09T13:47:00.877Z,RESERVED_GLOBAL_UNIT_MULTI_PROBE-2-1-16,1,target-1,memory,0.4295234680175781
2021-06-09T13:47:30.877Z,RESERVED_GLOBAL_UNIT_MULTI_PROBE-2-1-16,1,target-1,memory,0.4292640686035156
2021-06-09T13:47:40.877Z,RESERVED_GLOBAL_UNIT_MULTI_PROBE-2-1-16,1,target-1,memory,0.4292640686035156
2021-06-09T13:47:10.877Z,RESERVED_GLOBAL_UNIT_MULTI_PROBE-2-1-16,1,target-1,memory,0.4295158386230469
2021-06-09T13:48:10.877Z,RESERVED_GLOBAL_UNIT_MULTI_PROBE-2-1-16,1,target-1,memory,0.42948150634765625
2021-06-09T13:53:00.877Z,RESERVED_GLOBAL_UNIT_MULTI_PROBE-2-1-16,1,target-1,memory,0.4289894104003906
2021-06-09T13:53:50.877Z,RESERVED_GLOBAL_UNIT_MULTI_PROBE-2-1-16,1,target-1,memory,0.4297027587890625
2021-06-09T13:54:10.877Z,RESERVED_GLOBAL_UNIT_MULTI_PROBE-2-1-16,1,target-1,memory,0.4294548034667969
2021-06-09T13:54:00.877Z,RESERVED_GLOBAL_UNIT_MULTI_PROBE-2-1-16,1,target-1,memory,0.4294548034667969
2021-06-09T13:53:20.877Z,RESERVED_GLOBAL_UNIT_MULTI_PROBE-2-1-16,1,target-1,memory,0.4289894104003906
2021-06-09T13:53:10.877Z,RESERVED_GLOBAL_UNIT_MULTI_PROBE-2-1-16,1,target-1,memory,0.4289894104003906
2021-06-09T13:53:30.877Z,RESERVED_GLOBAL_UNIT_MULTI_PROBE-2-1-16,1,target-1,memory,0.4297027587890625
2021-06-09T13:53:40.877Z,RESERVED_GLOBAL_UNIT_MULTI_PROBE-2-1-16,1,target-1,memory,0.4297027587890625
2021-06-09T13:44:20.877Z,RESERVED_GLOBAL_UNIT_MULTI_PROBE-2-1-16,1,target-1,memory,0.4302864074707031
2021-06-09T13:44:30.877Z,RESERVED_GLOBAL_UNIT_MULTI_PROBE-2-1-16,1,target-1,memory,0.4303092956542969
2021-06-09T13:45:40.877Z,RESERVED_GLOBAL_UNIT_MULTI_PROBE-2-1-16,1,target-1,memory,0.43004608154296875
2021-06-09T13:45:50.877Z,RESERVED_GLOBAL_UNIT_MULTI_PROBE-2-1-16,1,target-1,memory,0.43004608154296875
2021-06-09T13:46:00.877Z,RESERVED_GLOBAL_UNIT_MULTI_PROBE-2-1-16,1,target-1,memory,0.42980194091796875
2021-06-09T13:45:30.877Z,RESERVED_GLOBAL_UNIT_MULTI_PROBE-2-1-16,1,target-1,memory,0.4300537109375
2021-06-09T13:45:20.877Z,RESERVED_GLOBAL_UNIT_MULTI_PROBE-2-1-16,1,target-1,memory,0.4298210144042969
2021-06-09T13:50:00.877Z,RESERVED_GLOBAL_UNIT_MULTI_PROBE-2-1-16,1,target-1,memory,0.4294166564941406
2021-06-09T13:51:00.877Z,RESERVED_GLOBAL_UNIT_MULTI_PROBE-2-1-16,1,target-1,memory,0.429595947265625
2021-06-09T13:51:20.877Z,RESERVED_GLOBAL_UNIT_MULTI_PROBE-2-1-16,1,target-1,memory,0.42958831787109375
2021-06-09T13:50:50.877Z,RESERVED_GLOBAL_UNIT_MULTI_PROBE-2-1-16,1,target-1,memory,0.4291343688964844
2021-06-09T13:50:10.877Z,RESERVED_GLOBAL_UNIT_MULTI_PROBE-2-1-16,1,target-1,memory,0.4291496276855469
2021-06-09T13:50:40.877Z,RESERVED_GLOBAL_UNIT_MULTI_PROBE-2-1-16,1,target-1,memory,0.4291343688964844
2021-06-09T13:50:30.877Z,RESERVED_GLOBAL_UNIT_MULTI_PROBE-2-1-16,1,target-1,memory,0.4291343688964844
2021-06-09T13:51:10.877Z,RESERVED_GLOBAL_UNIT_MULTI_PROBE-2-1-16,1,target-1,memory,0.42958831787109375
2021-06-09T13:50:20.877Z,RESERVED_GLOBAL_UNIT_MULTI_PROBE-2-1-16,1,target-1,memory,0.4291496276855469
2021-06-09T13:45:10.877Z,RESERVED_GLOBAL_UNIT_MULTI_PROBE-2-1-16,1,target-1,memory,0.4298210144042969
2021-06-09T13:44:40.877Z,RESERVED_GLOBAL_UNIT_MULTI_PROBE-2-1-16,1,target-1,memory,0.4303092956542969
2021-06-09T13:44:50.877Z,RESERVED_GLOBAL_UNIT_MULTI_PROBE-2-1-16,1,target-1,memory,0.4303092956542969
2021-06-09T13:45:00.877Z,RESERVED_GLOBAL_UNIT_MULTI_PROBE-2-1-16,1,target-1,memory,0.4298210144042969
2021-06-09T13:49:40.877Z,RESERVED_GLOBAL_UNIT_MULTI_PROBE-2-1-16,1,target-1,memory,0.42966461181640625
2021-06-09T13:48:40.877Z,RESERVED_GLOBAL_UNIT_MULTI_PROBE-2-1-16,1,target-1,memory,0.42995452880859375
2021-06-09T13:49:30.877Z,RESERVED_GLOBAL_UNIT_MULTI_PROBE-2-1-16,1,target-1,memory,0.4296722412109375
2021-06-09T13:49:00.877Z,RESERVED_GLOBAL_UNIT_MULTI_PROBE-2-1-16,1,target-1,memory,0.4297065734863281
2021-06-09T13:49:50.877Z,RESERVED_GLOBAL_UNIT_MULTI_PROBE-2-1-16,1,target-1,memory,0.42966461181640625
2021-06-09T13:49:20.877Z,RESERVED_GLOBAL_UNIT_MULTI_PROBE-2-1-16,1,target-1,memory,0.4296760559082031
2021-06-09T13:49:10.877Z,RESERVED_GLOBAL_UNIT_MULTI_PROBE-2-1-16,1,target-1,memory,0.4296760559082031
2021-06-09T13:48:50.877Z,RESERVED_GLOBAL_UNIT_MULTI_PROBE-2-1-16,1,target-1,memory,0.42995452880859375
2021-06-09T13:48:30.877Z,RESERVED_GLOBAL_UNIT_MULTI_PROBE-2-1-16,1,target-1,memory,0.42995452880859375
2021-06-09T14:03:41.096Z,RESERVED_GLOBAL_UNIT_MULTI_PROBE-2-1-16,2,target-1,memory,0.4281578063964844
2021-06-09T14:04:01.096Z,RESERVED_GLOBAL_UNIT_MULTI_PROBE-2-1-16,2,target-1,memory,0.4281501770019531
2021-06-09T14:04:31.096Z,RESERVED_GLOBAL_UNIT_MULTI_PROBE-2-1-16,2,target-1,memory,0.4276580810546875
2021-06-09T14:03:31.096Z,RESERVED_GLOBAL_UNIT_MULTI_PROBE-2-1-16,2,target-1,memory,0.4281654357910156
2021-06-09T14:04:11.098Z,RESERVED_GLOBAL_UNIT_MULTI_PROBE-2-1-16,2,target-1,memory,0.4281501770019531
2021-06-09T14:04:41.096Z,RESERVED_GLOBAL_UNIT_MULTI_PROBE-2-1-16,2,target-1,memory,0.4276580810546875
2021-06-09T14:03:51.096Z,RESERVED_GLOBAL_UNIT_MULTI_PROBE-2-1-16,2,target-1,memory,0.4281578063964844
2021-06-09T14:04:21.096Z,RESERVED_GLOBAL_UNIT_MULTI_PROBE-2-1-16,2,target-1,memory,0.4281501770019531
2021-06-09T14:04:51.096Z,RESERVED_GLOBAL_UNIT_MULTI_PROBE-2-1-16,2,target-1,memory,0.4276580810546875
2021-06-09T14:09:31.096Z,RESERVED_GLOBAL_UNIT_MULTI_PROBE-2-1-16,2,target-1,memory,0.4278106689453125
2021-06-09T14:10:51.096Z,RESERVED_GLOBAL_UNIT_MULTI_PROBE-2-1-16,2,target-1,memory,0.4282646179199219
2021-06-09T14:09:51.096Z,RESERVED_GLOBAL_UNIT_MULTI_PROBE-2-1-16,2,target-1,memory,0.4277992248535156
2021-06-09T14:10:41.096Z,RESERVED_GLOBAL_UNIT_MULTI_PROBE-2-1-16,2,target-1,memory,0.4282646179199219
2021-06-09T14:10:31.096Z,RESERVED_GLOBAL_UNIT_MULTI_PROBE-2-1-16,2,target-1,memory,0.4282798767089844
2021-06-09T14:10:21.096Z,RESERVED_GLOBAL_UNIT_MULTI_PROBE-2-1-16,2,target-1,memory,0.4282722473144531
2021-06-09T14:09:41.096Z,RESERVED_GLOBAL_UNIT_MULTI_PROBE-2-1-16,2,target-1,memory,0.4277992248535156
2021-06-09T14:10:11.096Z,RESERVED_GLOBAL_UNIT_MULTI_PROBE-2-1-16,2,target-1,memory,0.4282722473144531
2021-06-09T14:10:01.096Z,RESERVED_GLOBAL_UNIT_MULTI_PROBE-2-1-16,2,target-1,memory,0.42852020263671875
2021-06-09T14:06:01.096Z,RESERVED_GLOBAL_UNIT_MULTI_PROBE-2-1-16,2,target-1,memory,0.42763519287109375
2021-06-09T14:05:01.096Z,RESERVED_GLOBAL_UNIT_MULTI_PROBE-2-1-16,2,target-1,memory,0.427886962890625
2021-06-09T14:06:21.096Z,RESERVED_GLOBAL_UNIT_MULTI_PROBE-2-1-16,2,target-1,memory,0.4276275634765625
2021-06-09T14:05:51.096Z,RESERVED_GLOBAL_UNIT_MULTI_PROBE-2-1-16,2,target-1,memory,0.4276313781738281
2021-06-09T14:06:11.096Z,RESERVED_GLOBAL_UNIT_MULTI_PROBE-2-1-16,2,target-1,memory,0.4276275634765625
2021-06-09T14:05:21.096Z,RESERVED_GLOBAL_UNIT_MULTI_PROBE-2-1-16,2,target-1,memory,0.42787933349609375
2021-06-09T14:05:41.096Z,RESERVED_GLOBAL_UNIT_MULTI_PROBE-2-1-16,2,target-1,memory,0.4276313781738281
2021-06-09T14:05:31.096Z,RESERVED_GLOBAL_UNIT_MULTI_PROBE-2-1-16,2,target-1,memory,0.4276390075683594
2021-06-09T14:05:11.096Z,RESERVED_GLOBAL_UNIT_MULTI_PROBE-2-1-16,2,target-1,memory,0.42787933349609375
2021-06-09T14:02:31.096Z,RESERVED_GLOBAL_UNIT_MULTI_PROBE-2-1-16,2,target-1,memory,0.4281883239746094
2021-06-09T14:03:21.096Z,RESERVED_GLOBAL_UNIT_MULTI_PROBE-2-1-16,2,target-1,memory,0.42840576171875
2021-06-09T14:02:21.096Z,RESERVED_GLOBAL_UNIT_MULTI_PROBE-2-1-16,2,target-1,memory,0.4274711608886719
2021-06-09T14:03:01.096Z,RESERVED_GLOBAL_UNIT_MULTI_PROBE-2-1-16,2,target-1,memory,0.42841339111328125
2021-06-09T14:02:41.096Z,RESERVED_GLOBAL_UNIT_MULTI_PROBE-2-1-16,2,target-1,memory,0.4281806945800781
2021-06-09T14:02:51.096Z,RESERVED_GLOBAL_UNIT_MULTI_PROBE-2-1-16,2,target-1,memory,0.4281806945800781
2021-06-09T14:02:11.096Z,RESERVED_GLOBAL_UNIT_MULTI_PROBE-2-1-16,2,target-1,memory,0.4275550842285156
2021-06-09T14:03:11.096Z,RESERVED_GLOBAL_UNIT_MULTI_PROBE-2-1-16,2,target-1,memory,0.42841339111328125
2021-06-09T14:02:01.096Z,RESERVED_GLOBAL_UNIT_MULTI_PROBE-2-1-16,2,target-1,memory,0.4275550842285156
2021-06-09T14:08:01.096Z,RESERVED_GLOBAL_UNIT_MULTI_PROBE-2-1-16,2,target-1,memory,0.4275970458984375
2021-06-09T14:09:11.096Z,RESERVED_GLOBAL_UNIT_MULTI_PROBE-2-1-16,2,target-1,memory,0.4278144836425781
2021-06-09T14:08:31.096Z,RESERVED_GLOBAL_UNIT_MULTI_PROBE-2-1-16,2,target-1,memory,0.4278297424316406
2021-06-09T14:08:11.096Z,RESERVED_GLOBAL_UNIT_MULTI_PROBE-2-1-16,2,target-1,memory,0.42758941650390625
2021-06-09T14:08:51.096Z,RESERVED_GLOBAL_UNIT_MULTI_PROBE-2-1-16,2,target-1,memory,0.4278297424316406
2021-06-09T14:09:21.096Z,RESERVED_GLOBAL_UNIT_MULTI_PROBE-2-1-16,2,target-1,memory,0.4278144836425781
2021-06-09T14:09:01.096Z,RESERVED_GLOBAL_UNIT_MULTI_PROBE-2-1-16,2,target-1,memory,0.4278297424316406
2021-06-09T14:08:41.096Z,RESERVED_GLOBAL_UNIT_MULTI_PROBE-2-1-16,2,target-1,memory,0.4278297424316406
2021-06-09T14:08:21.096Z,RESERVED_GLOBAL_UNIT_MULTI_PROBE-2-1-16,2,target-1,memory,0.42758941650390625
2021-06-09T14:01:31.096Z,RESERVED_GLOBAL_UNIT_MULTI_PROBE-2-1-16,2,target-1,memory,0.4275703430175781
2021-06-09T14:01:51.096Z,RESERVED_GLOBAL_UNIT_MULTI_PROBE-2-1-16,2,target-1,memory,0.4275627136230469
2021-06-09T14:01:41.096Z,RESERVED_GLOBAL_UNIT_MULTI_PROBE-2-1-16,2,target-1,memory,0.4275627136230469
2021-06-09T14:01:21.096Z,RESERVED_GLOBAL_UNIT_MULTI_PROBE-2-1-16,2,target-1,memory,0.427703857421875
2021-06-09T14:07:41.096Z,RESERVED_GLOBAL_UNIT_MULTI_PROBE-2-1-16,2,target-1,memory,0.4276123046875
2021-06-09T14:06:31.096Z,RESERVED_GLOBAL_UNIT_MULTI_PROBE-2-1-16,2,target-1,memory,0.4276275634765625
2021-06-09T14:07:01.096Z,RESERVED_GLOBAL_UNIT_MULTI_PROBE-2-1-16,2,target-1,memory,0.4281005859375
2021-06-09T14:06:51.096Z,RESERVED_GLOBAL_UNIT_MULTI_PROBE-2-1-16,2,target-1,memory,0.4276275634765625
2021-06-09T14:07:51.096Z,RESERVED_GLOBAL_UNIT_MULTI_PROBE-2-1-16,2,target-1,memory,0.4276084899902344
2021-06-09T14:07:21.096Z,RESERVED_GLOBAL_UNIT_MULTI_PROBE-2-1-16,2,target-1,memory,0.42809295654296875
2021-06-09T14:07:11.096Z,RESERVED_GLOBAL_UNIT_MULTI_PROBE-2-1-16,2,target-1,memory,0.42809295654296875
2021-06-09T14:06:41.096Z,RESERVED_GLOBAL_UNIT_MULTI_PROBE-2-1-16,2,target-1,memory,0.4276275634765625
2021-06-09T14:07:31.096Z,RESERVED_GLOBAL_UNIT_MULTI_PROBE-2-1-16,2,target-1,memory,0.4276123046875
2021-06-09T14:11:11.096Z,RESERVED_GLOBAL_UNIT_MULTI_PROBE-2-1-16,2,target-1,memory,0.4280242919921875
2021-06-09T14:11:01.096Z,RESERVED_GLOBAL_UNIT_MULTI_PROBE-2-1-16,2,target-1,memory,0.4280242919921875
2021-06-09T14:19:23.494Z,RESERVED_GLOBAL_UNIT_MULTI_PROBE-2-1-16,3,target-1,memory,0.429473876953125
2021-06-09T14:19:13.494Z,RESERVED_GLOBAL_UNIT_MULTI_PROBE-2-1-16,3,target-1,memory,0.429473876953125
2021-06-09T14:19:43.495Z,RESERVED_GLOBAL_UNIT_MULTI_PROBE-2-1-16,3,target-1,memory,0.4294548034667969
2021-06-09T14:19:33.494Z,RESERVED_GLOBAL_UNIT_MULTI_PROBE-2-1-16,3,target-1,memory,0.4294548034667969
2021-06-09T14:19:53.494Z,RESERVED_GLOBAL_UNIT_MULTI_PROBE-2-1-16,3,target-1,memory,0.4294548034667969
2021-06-09T14:23:03.494Z,RESERVED_GLOBAL_UNIT_MULTI_PROBE-2-1-16,3,target-1,memory,0.4296112060546875
2021-06-09T14:23:13.494Z,RESERVED_GLOBAL_UNIT_MULTI_PROBE-2-1-16,3,target-1,memory,0.4296112060546875
2021-06-09T14:23:23.494Z,RESERVED_GLOBAL_UNIT_MULTI_PROBE-2-1-16,3,target-1,memory,0.4296112060546875
2021-06-09T14:23:33.494Z,RESERVED_GLOBAL_UNIT_MULTI_PROBE-2-1-16,3,target-1,memory,0.430084228515625
2021-06-09T14:25:23.494Z,RESERVED_GLOBAL_UNIT_MULTI_PROBE-2-1-16,3,target-1,memory,0.4295463562011719
2021-06-09T14:25:43.494Z,RESERVED_GLOBAL_UNIT_MULTI_PROBE-2-1-16,3,target-1,memory,0.42905426025390625
2021-06-09T14:25:33.494Z,RESERVED_GLOBAL_UNIT_MULTI_PROBE-2-1-16,3,target-1,memory,0.42905426025390625
2021-06-09T14:25:13.494Z,RESERVED_GLOBAL_UNIT_MULTI_PROBE-2-1-16,3,target-1,memory,0.4295463562011719
2021-06-09T14:25:53.494Z,RESERVED_GLOBAL_UNIT_MULTI_PROBE-2-1-16,3,target-1,memory,0.42905426025390625
2021-06-09T14:28:13.494Z,RESERVED_GLOBAL_UNIT_MULTI_PROBE-2-1-16,3,target-1,memory,0.4291954040527344
2021-06-09T14:18:23.494Z,RESERVED_GLOBAL_UNIT_MULTI_PROBE-2-1-16,3,target-1,memory,0.4297294616699219
2021-06-09T14:20:23.494Z,RESERVED_GLOBAL_UNIT_MULTI_PROBE-2-1-16,3,target-1,memory,0.4294471740722656
2021-06-09T14:20:13.494Z,RESERVED_GLOBAL_UNIT_MULTI_PROBE-2-1-16,3,target-1,memory,0.4294471740722656
2021-06-09T14:20:33.494Z,RESERVED_GLOBAL_UNIT_MULTI_PROBE-2-1-16,3,target-1,memory,0.4296875
2021-06-09T14:20:03.494Z,RESERVED_GLOBAL_UNIT_MULTI_PROBE-2-1-16,3,target-1,memory,0.4294471740722656
2021-06-09T14:23:43.494Z,RESERVED_GLOBAL_UNIT_MULTI_PROBE-2-1-16,3,target-1,memory,0.430084228515625
2021-06-09T14:24:13.494Z,RESERVED_GLOBAL_UNIT_MULTI_PROBE-2-1-16,3,target-1,memory,0.42911529541015625
2021-06-09T14:24:23.494Z,RESERVED_GLOBAL_UNIT_MULTI_PROBE-2-1-16,3,target-1,memory,0.42911529541015625
2021-06-09T14:24:03.494Z,RESERVED_GLOBAL_UNIT_MULTI_PROBE-2-1-16,3,target-1,memory,0.42911529541015625
2021-06-09T14:23:53.494Z,RESERVED_GLOBAL_UNIT_MULTI_PROBE-2-1-16,3,target-1,memory,0.430084228515625
2021-06-09T14:26:03.494Z,RESERVED_GLOBAL_UNIT_MULTI_PROBE-2-1-16,3,target-1,memory,0.42952728271484375
2021-06-09T14:26:13.494Z,RESERVED_GLOBAL_UNIT_MULTI_PROBE-2-1-16,3,target-1,memory,0.42952728271484375
2021-06-09T14:26:33.494Z,RESERVED_GLOBAL_UNIT_MULTI_PROBE-2-1-16,3,target-1,memory,0.4289894104003906
2021-06-09T14:26:23.494Z,RESERVED_GLOBAL_UNIT_MULTI_PROBE-2-1-16,3,target-1,memory,0.42952728271484375
2021-06-09T14:19:03.494Z,RESERVED_GLOBAL_UNIT_MULTI_PROBE-2-1-16,3,target-1,memory,0.429473876953125
2021-06-09T14:18:43.494Z,RESERVED_GLOBAL_UNIT_MULTI_PROBE-2-1-16,3,target-1,memory,0.4294891357421875
2021-06-09T14:18:33.494Z,RESERVED_GLOBAL_UNIT_MULTI_PROBE-2-1-16,3,target-1,memory,0.4296722412109375
2021-06-09T14:18:53.494Z,RESERVED_GLOBAL_UNIT_MULTI_PROBE-2-1-16,3,target-1,memory,0.4294891357421875
2021-06-09T14:21:53.494Z,RESERVED_GLOBAL_UNIT_MULTI_PROBE-2-1-16,3,target-1,memory,0.428924560546875
2021-06-09T14:21:43.494Z,RESERVED_GLOBAL_UNIT_MULTI_PROBE-2-1-16,3,target-1,memory,0.428924560546875
2021-06-09T14:22:03.494Z,RESERVED_GLOBAL_UNIT_MULTI_PROBE-2-1-16,3,target-1,memory,0.4291496276855469
2021-06-09T14:21:33.494Z,RESERVED_GLOBAL_UNIT_MULTI_PROBE-2-1-16,3,target-1,memory,0.42893218994140625
2021-06-09T14:24:53.494Z,RESERVED_GLOBAL_UNIT_MULTI_PROBE-2-1-16,3,target-1,memory,0.4295539855957031
2021-06-09T14:24:33.494Z,RESERVED_GLOBAL_UNIT_MULTI_PROBE-2-1-16,3,target-1,memory,0.4295539855957031
2021-06-09T14:24:43.494Z,RESERVED_GLOBAL_UNIT_MULTI_PROBE-2-1-16,3,target-1,memory,0.4295539855957031
2021-06-09T14:25:03.494Z,RESERVED_GLOBAL_UNIT_MULTI_PROBE-2-1-16,3,target-1,memory,0.4295463562011719
2021-06-09T14:27:33.494Z,RESERVED_GLOBAL_UNIT_MULTI_PROBE-2-1-16,3,target-1,memory,0.4292030334472656
2021-06-09T14:27:53.494Z,RESERVED_GLOBAL_UNIT_MULTI_PROBE-2-1-16,3,target-1,memory,0.4292030334472656
2021-06-09T14:27:43.494Z,RESERVED_GLOBAL_UNIT_MULTI_PROBE-2-1-16,3,target-1,memory,0.4292030334472656
2021-06-09T14:28:03.494Z,RESERVED_GLOBAL_UNIT_MULTI_PROBE-2-1-16,3,target-1,memory,0.4291954040527344
2021-06-09T14:20:43.494Z,RESERVED_GLOBAL_UNIT_MULTI_PROBE-2-1-16,3,target-1,memory,0.4296875
2021-06-09T14:20:53.494Z,RESERVED_GLOBAL_UNIT_MULTI_PROBE-2-1-16,3,target-1,memory,0.4296875
2021-06-09T14:21:03.494Z,RESERVED_GLOBAL_UNIT_MULTI_PROBE-2-1-16,3,target-1,memory,0.4291954040527344
2021-06-09T14:21:23.494Z,RESERVED_GLOBAL_UNIT_MULTI_PROBE-2-1-16,3,target-1,memory,0.4291954040527344
2021-06-09T14:21:13.494Z,RESERVED_GLOBAL_UNIT_MULTI_PROBE-2-1-16,3,target-1,memory,0.4291954040527344
2021-06-09T14:22:13.494Z,RESERVED_GLOBAL_UNIT_MULTI_PROBE-2-1-16,3,target-1,memory,0.4291496276855469
2021-06-09T14:22:33.494Z,RESERVED_GLOBAL_UNIT_MULTI_PROBE-2-1-16,3,target-1,memory,0.42986297607421875
2021-06-09T14:22:23.494Z,RESERVED_GLOBAL_UNIT_MULTI_PROBE-2-1-16,3,target-1,memory,0.4291496276855469
2021-06-09T14:22:53.494Z,RESERVED_GLOBAL_UNIT_MULTI_PROBE-2-1-16,3,target-1,memory,0.42986297607421875
2021-06-09T14:22:43.494Z,RESERVED_GLOBAL_UNIT_MULTI_PROBE-2-1-16,3,target-1,memory,0.42986297607421875
2021-06-09T14:27:03.494Z,RESERVED_GLOBAL_UNIT_MULTI_PROBE-2-1-16,3,target-1,memory,0.42969512939453125
2021-06-09T14:27:23.494Z,RESERVED_GLOBAL_UNIT_MULTI_PROBE-2-1-16,3,target-1,memory,0.42969512939453125
2021-06-09T14:26:53.494Z,RESERVED_GLOBAL_UNIT_MULTI_PROBE-2-1-16,3,target-1,memory,0.4289894104003906
2021-06-09T14:26:43.494Z,RESERVED_GLOBAL_UNIT_MULTI_PROBE-2-1-16,3,target-1,memory,0.4289894104003906
2021-06-09T14:27:13.494Z,RESERVED_GLOBAL_UNIT_MULTI_PROBE-2-1-16,3,target-1,memory,0.42969512939453125
