2023-07-14T11:26:47.681Z,cadvisor-s45tv,cpu,10968966
2023-07-14T11:26:17.681Z,cadvisor-s45tv,cpu,11809456
2023-07-14T11:26:07.307Z,cadvisor-s45tv,cpu,11809456
2023-07-14T11:26:27.680Z,cadvisor-s45tv,cpu,11809456
2023-07-14T11:26:37.680Z,cadvisor-s45tv,cpu,11239784
2023-07-14T11:26:07.505Z,cadvisor-qhvxw,cpu,11184370
2023-07-14T11:26:37.911Z,cadvisor-qhvxw,cpu,8894371
2023-07-14T11:26:17.911Z,cadvisor-qhvxw,cpu,9917213
2023-07-14T11:26:27.911Z,cadvisor-qhvxw,cpu,8894371
2023-07-14T11:26:47.911Z,cadvisor-qhvxw,cpu,8894371
2023-07-14T11:26:57.681Z,cadvisor-s45tv,cpu,10968966
2023-07-14T11:26:57.911Z,cadvisor-qhvxw,cpu,8685379
2023-07-14T11:26:18.123Z,cadvisor-vfbj6,cpu,10345650
2023-07-14T11:26:28.124Z,cadvisor-vfbj6,cpu,10339524
2023-07-14T11:26:38.122Z,cadvisor-vfbj6,cpu,10339524
2023-07-14T11:26:48.123Z,cadvisor-vfbj6,cpu,8679011
2023-07-14T11:26:07.604Z,cadvisor-vfbj6,cpu,7161757
2023-07-14T11:26:58.124Z,cadvisor-vfbj6,cpu,7445434
2023-07-14T11:27:07.681Z,cadvisor-s45tv,cpu,10057655
2023-07-14T11:27:07.911Z,cadvisor-qhvxw,cpu,8685379
2023-07-14T11:27:08.122Z,cadvisor-vfbj6,cpu,11220667
2023-07-14T11:27:17.681Z,cadvisor-s45tv,cpu,10057655
2023-07-14T11:27:17.911Z,cadvisor-qhvxw,cpu,11893648
2023-07-14T11:27:18.122Z,cadvisor-vfbj6,cpu,8362526
2023-07-14T11:27:27.681Z,cadvisor-s45tv,cpu,10519719
2023-07-14T11:27:27.911Z,cadvisor-qhvxw,cpu,11893648
2023-07-14T11:27:28.122Z,cadvisor-vfbj6,cpu,8362526
2023-07-14T11:27:37.681Z,cadvisor-s45tv,cpu,9841500
2023-07-14T11:27:37.911Z,cadvisor-qhvxw,cpu,11893648
2023-07-14T11:27:38.124Z,cadvisor-vfbj6,cpu,8194389
2023-07-14T11:27:47.680Z,cadvisor-s45tv,cpu,9841500
2023-07-14T11:27:47.911Z,cadvisor-qhvxw,cpu,10443181
2023-07-14T11:27:48.122Z,cadvisor-vfbj6,cpu,10146509
2023-07-14T11:27:57.681Z,cadvisor-s45tv,cpu,7820779
2023-07-14T11:27:57.911Z,cadvisor-qhvxw,cpu,10443181
2023-07-14T11:27:58.123Z,cadvisor-vfbj6,cpu,10146509
2023-07-14T11:28:07.681Z,cadvisor-s45tv,cpu,7820779
2023-07-14T11:28:07.911Z,cadvisor-qhvxw,cpu,9563783
2023-07-14T11:28:08.122Z,cadvisor-vfbj6,cpu,10146509
2023-07-14T11:28:17.681Z,cadvisor-s45tv,cpu,10615565
2023-07-14T11:28:17.911Z,cadvisor-qhvxw,cpu,9563783
2023-07-14T11:28:18.123Z,cadvisor-vfbj6,cpu,11697651
2023-07-14T11:28:27.681Z,cadvisor-s45tv,cpu,10615565
2023-07-14T11:28:27.911Z,cadvisor-qhvxw,cpu,9563783
2023-07-14T11:28:28.123Z,cadvisor-vfbj6,cpu,9677440
2023-07-14T11:28:37.681Z,cadvisor-s45tv,cpu,7661047
2023-07-14T11:28:37.911Z,cadvisor-qhvxw,cpu,8300219
2023-07-14T11:28:38.123Z,cadvisor-vfbj6,cpu,9677440
2023-07-14T11:28:47.681Z,cadvisor-s45tv,cpu,7661047
2023-07-14T11:28:47.910Z,cadvisor-qhvxw,cpu,8112245
2023-07-14T11:28:48.122Z,cadvisor-vfbj6,cpu,9377518
2023-07-14T11:28:57.681Z,cadvisor-s45tv,cpu,10638447
2023-07-14T11:28:57.910Z,cadvisor-qhvxw,cpu,8112245
2023-07-14T11:28:58.123Z,cadvisor-vfbj6,cpu,9377518
2023-07-14T11:29:07.681Z,cadvisor-s45tv,cpu,9029650
2023-07-14T11:29:07.910Z,cadvisor-qhvxw,cpu,9720368
2023-07-14T11:29:08.122Z,cadvisor-vfbj6,cpu,9377518
2023-07-14T11:29:17.681Z,cadvisor-s45tv,cpu,9029650
2023-07-14T11:29:17.910Z,cadvisor-qhvxw,cpu,8505282
2023-07-14T11:29:18.122Z,cadvisor-vfbj6,cpu,7572336
2023-07-14T11:29:27.681Z,cadvisor-s45tv,cpu,9029650
2023-07-14T11:29:27.911Z,cadvisor-qhvxw,cpu,9745700
2023-07-14T11:29:28.123Z,cadvisor-vfbj6,cpu,10511441
2023-07-14T11:29:37.681Z,cadvisor-s45tv,cpu,10770362
2023-07-14T11:29:37.911Z,cadvisor-qhvxw,cpu,9745700
2023-07-14T11:29:38.123Z,cadvisor-vfbj6,cpu,7955978
2023-07-14T11:29:47.681Z,cadvisor-s45tv,cpu,9670923
2023-07-14T11:29:47.911Z,cadvisor-qhvxw,cpu,9295956
2023-07-14T11:29:48.123Z,cadvisor-vfbj6,cpu,11038442
2023-07-14T11:29:57.681Z,cadvisor-s45tv,cpu,9670923
2023-07-14T11:29:57.913Z,cadvisor-qhvxw,cpu,9730982
2023-07-14T11:29:58.122Z,cadvisor-vfbj6,cpu,11038442
2023-07-14T11:30:07.681Z,cadvisor-s45tv,cpu,8679928
2023-07-14T11:30:07.911Z,cadvisor-qhvxw,cpu,9730982
2023-07-14T11:30:08.123Z,cadvisor-vfbj6,cpu,8705061
2023-07-14T11:30:17.681Z,cadvisor-s45tv,cpu,8284747
2023-07-14T11:30:17.911Z,cadvisor-qhvxw,cpu,11181388
2023-07-14T11:30:18.122Z,cadvisor-vfbj6,cpu,8865400
2023-07-14T11:30:27.681Z,cadvisor-s45tv,cpu,8284747
2023-07-14T11:30:27.912Z,cadvisor-qhvxw,cpu,10521117
2023-07-14T11:30:28.123Z,cadvisor-vfbj6,cpu,8865400
2023-07-14T11:30:37.680Z,cadvisor-s45tv,cpu,12637285
2023-07-14T11:30:37.911Z,cadvisor-qhvxw,cpu,10521117
2023-07-14T11:30:38.123Z,cadvisor-vfbj6,cpu,9277678
2023-07-14T11:30:47.681Z,cadvisor-s45tv,cpu,7876290
2023-07-14T11:30:47.910Z,cadvisor-qhvxw,cpu,7718793
2023-07-14T11:30:48.122Z,cadvisor-vfbj6,cpu,9277678
2023-07-14T11:30:57.681Z,cadvisor-s45tv,cpu,8180279
2023-07-14T11:30:57.910Z,cadvisor-qhvxw,cpu,10748869
2023-07-14T11:30:58.124Z,cadvisor-vfbj6,cpu,10512402
2023-07-14T11:31:07.681Z,cadvisor-s45tv,cpu,10821200
2023-07-14T11:31:07.911Z,cadvisor-qhvxw,cpu,10748869
2023-07-14T11:31:08.123Z,cadvisor-vfbj6,cpu,8702087
2023-07-14T11:31:17.681Z,cadvisor-s45tv,cpu,10821200
2023-07-14T11:31:17.911Z,cadvisor-qhvxw,cpu,8943585
2023-07-14T11:31:18.123Z,cadvisor-vfbj6,cpu,8702087
2023-07-14T11:31:27.680Z,cadvisor-s45tv,cpu,10821200
2023-07-14T11:31:27.910Z,cadvisor-qhvxw,cpu,8943585
2023-07-14T11:31:28.122Z,cadvisor-vfbj6,cpu,8702087
2023-07-14T11:31:37.681Z,cadvisor-s45tv,cpu,10137503
2023-07-14T11:31:37.910Z,cadvisor-qhvxw,cpu,9407008
2023-07-14T11:31:38.123Z,cadvisor-vfbj6,cpu,9454214
2023-07-14T11:31:47.681Z,cadvisor-s45tv,cpu,8794590
2023-07-14T11:31:47.910Z,cadvisor-qhvxw,cpu,9407008
2023-07-14T11:31:48.123Z,cadvisor-vfbj6,cpu,9009421
2023-07-14T11:31:57.681Z,cadvisor-s45tv,cpu,8794590
2023-07-14T11:31:57.911Z,cadvisor-qhvxw,cpu,8540024
2023-07-14T11:31:58.122Z,cadvisor-vfbj6,cpu,9009421
2023-07-14T11:32:07.681Z,cadvisor-s45tv,cpu,9734517
2023-07-14T11:32:07.911Z,cadvisor-qhvxw,cpu,8540024
2023-07-14T11:32:08.123Z,cadvisor-vfbj6,cpu,10536526
2023-07-14T11:32:17.681Z,cadvisor-s45tv,cpu,7220647
2023-07-14T11:32:17.911Z,cadvisor-qhvxw,cpu,11124440
2023-07-14T11:32:18.123Z,cadvisor-vfbj6,cpu,10536526
2023-07-14T11:32:27.681Z,cadvisor-s45tv,cpu,7220647
2023-07-14T11:32:27.911Z,cadvisor-qhvxw,cpu,9042691
2023-07-14T11:32:28.122Z,cadvisor-vfbj6,cpu,8189571
2023-07-14T11:32:37.681Z,cadvisor-s45tv,cpu,11563448
2023-07-14T11:32:37.911Z,cadvisor-qhvxw,cpu,9042691
2023-07-14T11:32:38.123Z,cadvisor-vfbj6,cpu,8173760
2023-07-14T11:32:47.681Z,cadvisor-s45tv,cpu,11563448
2023-07-14T11:32:47.911Z,cadvisor-qhvxw,cpu,9042691
2023-07-14T11:32:48.126Z,cadvisor-vfbj6,cpu,8173760
2023-07-14T11:32:57.681Z,cadvisor-s45tv,cpu,9765239
2023-07-14T11:32:57.911Z,cadvisor-qhvxw,cpu,7494450
2023-07-14T11:32:58.122Z,cadvisor-vfbj6,cpu,8173760
2023-07-14T11:33:07.681Z,cadvisor-s45tv,cpu,9765239
2023-07-14T11:33:07.911Z,cadvisor-qhvxw,cpu,11327536
2023-07-14T11:33:08.123Z,cadvisor-vfbj6,cpu,9567702
2023-07-14T11:33:17.681Z,cadvisor-s45tv,cpu,9765239
2023-07-14T11:33:17.911Z,cadvisor-qhvxw,cpu,10791429
2023-07-14T11:33:18.122Z,cadvisor-vfbj6,cpu,7904448
2023-07-14T11:33:27.681Z,cadvisor-s45tv,cpu,9419718
2023-07-14T11:33:27.910Z,cadvisor-qhvxw,cpu,10791429
2023-07-14T11:33:28.123Z,cadvisor-vfbj6,cpu,7904448
2023-07-14T11:33:37.681Z,cadvisor-s45tv,cpu,10092427
2023-07-14T11:33:37.911Z,cadvisor-qhvxw,cpu,9705017
2023-07-14T11:33:38.123Z,cadvisor-vfbj6,cpu,10923021
2023-07-14T11:33:47.681Z,cadvisor-s45tv,cpu,8965904
2023-07-14T11:33:47.911Z,cadvisor-qhvxw,cpu,9705017
2023-07-14T11:33:48.123Z,cadvisor-vfbj6,cpu,10923021
2023-07-14T11:33:57.680Z,cadvisor-s45tv,cpu,8965904
2023-07-14T11:33:57.911Z,cadvisor-qhvxw,cpu,7699145
2023-07-14T11:33:58.122Z,cadvisor-vfbj6,cpu,10923021
2023-07-14T11:34:07.681Z,cadvisor-s45tv,cpu,9858459
2023-07-14T11:34:07.911Z,cadvisor-qhvxw,cpu,10466225
2023-07-14T11:34:08.122Z,cadvisor-vfbj6,cpu,9714868
2023-07-14T11:34:17.681Z,cadvisor-s45tv,cpu,9692575
2023-07-14T11:34:17.911Z,cadvisor-qhvxw,cpu,10466225
2023-07-14T11:34:18.123Z,cadvisor-vfbj6,cpu,10767456
2023-07-14T11:34:27.681Z,cadvisor-s45tv,cpu,9630498
2023-07-14T11:34:27.911Z,cadvisor-qhvxw,cpu,10099885
2023-07-14T11:34:28.122Z,cadvisor-vfbj6,cpu,10767456
2023-07-14T11:34:37.681Z,cadvisor-s45tv,cpu,9630498
2023-07-14T11:34:37.911Z,cadvisor-qhvxw,cpu,10099885
2023-07-14T11:34:38.122Z,cadvisor-vfbj6,cpu,10767456
2023-07-14T11:34:47.681Z,cadvisor-s45tv,cpu,10187413
2023-07-14T11:34:47.910Z,cadvisor-qhvxw,cpu,10099885
2023-07-14T11:34:48.125Z,cadvisor-vfbj6,cpu,8521435
2023-07-14T11:34:57.681Z,cadvisor-s45tv,cpu,10187413
2023-07-14T11:34:57.910Z,cadvisor-qhvxw,cpu,9365051
2023-07-14T11:34:58.123Z,cadvisor-vfbj6,cpu,9416697
2023-07-14T11:35:07.681Z,cadvisor-s45tv,cpu,10546216
2023-07-14T11:35:07.911Z,cadvisor-qhvxw,cpu,9365051
2023-07-14T11:35:08.123Z,cadvisor-vfbj6,cpu,7275677
2023-07-14T11:35:17.681Z,cadvisor-s45tv,cpu,10546216
2023-07-14T11:35:17.910Z,cadvisor-qhvxw,cpu,9365051
2023-07-14T11:35:18.123Z,cadvisor-vfbj6,cpu,7275677
2023-07-14T11:35:27.681Z,cadvisor-s45tv,cpu,9459394
2023-07-14T11:35:27.911Z,cadvisor-qhvxw,cpu,10520397
2023-07-14T11:35:28.122Z,cadvisor-vfbj6,cpu,7275677
2023-07-14T11:35:37.680Z,cadvisor-s45tv,cpu,12456890
2023-07-14T11:35:37.911Z,cadvisor-qhvxw,cpu,8127818
2023-07-14T11:35:38.123Z,cadvisor-vfbj6,cpu,12124059
2023-07-14T11:35:47.681Z,cadvisor-s45tv,cpu,8678129
2023-07-14T11:35:47.911Z,cadvisor-qhvxw,cpu,12383244
2023-07-14T11:35:48.122Z,cadvisor-vfbj6,cpu,8017976
2023-07-14T11:35:57.681Z,cadvisor-s45tv,cpu,11225006
2023-07-14T11:35:57.911Z,cadvisor-qhvxw,cpu,10191966
2023-07-14T11:35:58.123Z,cadvisor-vfbj6,cpu,10004212
2023-07-14T11:36:07.681Z,cadvisor-s45tv,cpu,11225006
2023-07-14T11:36:07.911Z,cadvisor-qhvxw,cpu,8165818
2023-07-14T11:36:08.122Z,cadvisor-vfbj6,cpu,10004212
2023-07-14T11:36:17.681Z,cadvisor-s45tv,cpu,7559629
2023-07-14T11:36:17.911Z,cadvisor-qhvxw,cpu,9867750
2023-07-14T11:36:18.123Z,cadvisor-vfbj6,cpu,10105915
2023-07-14T11:36:27.681Z,cadvisor-s45tv,cpu,7559629
2023-07-14T11:36:27.911Z,cadvisor-qhvxw,cpu,9867750
2023-07-14T11:36:28.123Z,cadvisor-vfbj6,cpu,10105915
