2023-07-24T13:56:50.241Z,productcatalogservice,cpu,0.0171
2023-07-24T13:56:50.307Z,currencyservice,cpu,0.0143
2023-07-24T13:56:52.180Z,cartservice,cpu,0.0192
2023-07-24T13:56:52.638Z,checkoutservice,cpu,0.0189
2023-07-24T13:56:51.919Z,paymentservice-2,cpu,0.0197
2023-07-24T13:56:54.096Z,probe-holder,cpu,0.0136
2023-07-24T13:56:53.598Z,paymentservice-3,cpu,0.0456
2023-07-24T13:56:54.349Z,emailservice,cpu,0.0152
2023-07-24T13:56:50.221Z,shippingservice,cpu,0.0178
2023-07-24T13:56:49.965Z,adservice,cpu,0.0522
2023-07-24T13:56:55.637Z,paymentservice-4,cpu,0.0486
2023-07-24T13:56:56.221Z,recommendationservice,cpu,0.0195
2023-07-24T13:56:56.258Z,paymentservice-1,cpu,0.0246
2023-07-24T13:57:00.222Z,shippingservice,cpu,0.007
2023-07-24T13:56:59.965Z,adservice,cpu,0.0151
2023-07-24T13:57:00.242Z,productcatalogservice,cpu,0.002
2023-07-24T13:57:00.308Z,currencyservice,cpu,0.007
2023-07-24T13:57:01.919Z,paymentservice-2,cpu,0.003
2023-07-24T13:57:02.181Z,cartservice,cpu,0.005
2023-07-24T13:57:02.638Z,checkoutservice,cpu,0.003
2023-07-24T13:57:03.598Z,paymentservice-3,cpu,0.004
2023-07-24T13:57:04.097Z,probe-holder,cpu,0.007
2023-07-24T13:57:04.350Z,emailservice,cpu,0.003
2023-07-24T13:57:05.637Z,paymentservice-4,cpu,0.006
2023-07-24T13:57:06.222Z,recommendationservice,cpu,0.0049
2023-07-24T13:57:06.258Z,paymentservice-1,cpu,0.002
2023-07-24T13:57:10.222Z,shippingservice,cpu,0.001
2023-07-24T13:57:09.965Z,adservice,cpu,0.0171
2023-07-24T13:57:10.308Z,currencyservice,cpu,0.004
2023-07-24T13:57:10.241Z,productcatalogservice,cpu,0.003
2023-07-24T13:57:11.919Z,paymentservice-2,cpu,0.004
2023-07-24T13:57:12.180Z,cartservice,cpu,0.004
2023-07-24T13:57:12.638Z,checkoutservice,cpu,0.001
2023-07-24T13:57:13.599Z,paymentservice-3,cpu,0.004
2023-07-24T13:57:14.096Z,probe-holder,cpu,0.011
2023-07-24T13:57:14.351Z,emailservice,cpu,0.002
2023-07-24T13:57:15.637Z,paymentservice-4,cpu,0.011
2023-07-24T13:57:16.222Z,recommendationservice,cpu,0.004
2023-07-24T13:57:16.258Z,paymentservice-1,cpu,0.003
2023-07-24T13:57:20.222Z,shippingservice,cpu,0.005
2023-07-24T13:57:19.965Z,adservice,cpu,0.018
2023-07-24T13:57:20.308Z,currencyservice,cpu,0.003
2023-07-24T13:57:20.241Z,productcatalogservice,cpu,0.002
2023-07-24T13:57:21.919Z,paymentservice-2,cpu,0.008
2023-07-24T13:57:22.180Z,cartservice,cpu,0.009
2023-07-24T13:57:22.638Z,checkoutservice,cpu,0.003
2023-07-24T13:57:23.598Z,paymentservice-3,cpu,0.002
2023-07-24T13:57:24.097Z,probe-holder,cpu,0.008
2023-07-24T13:57:24.350Z,emailservice,cpu,0.003
2023-07-24T13:57:25.637Z,paymentservice-4,cpu,0.005
2023-07-24T13:57:26.222Z,recommendationservice,cpu,0.005
2023-07-24T13:57:26.258Z,paymentservice-1,cpu,0.012
2023-07-24T13:57:30.222Z,shippingservice,cpu,0.003
2023-07-24T13:57:29.965Z,adservice,cpu,0.008
2023-07-24T13:57:30.241Z,productcatalogservice,cpu,0.004
2023-07-24T13:57:30.308Z,currencyservice,cpu,0.002
2023-07-24T13:57:31.919Z,paymentservice-2,cpu,0.003
2023-07-24T13:57:32.181Z,cartservice,cpu,0.003
2023-07-24T13:57:32.638Z,checkoutservice,cpu,0.004
2023-07-24T13:57:33.598Z,paymentservice-3,cpu,0.002
2023-07-24T13:57:34.096Z,probe-holder,cpu,0.007
2023-07-24T13:57:34.350Z,emailservice,cpu,0.007
2023-07-24T13:57:35.637Z,paymentservice-4,cpu,0.004
2023-07-24T13:57:36.222Z,recommendationservice,cpu,0.004
2023-07-24T13:57:36.258Z,paymentservice-1,cpu,0.002
2023-07-24T13:57:40.222Z,shippingservice,cpu,0.004
2023-07-24T13:57:39.965Z,adservice,cpu,0.006
2023-07-24T13:57:40.241Z,productcatalogservice,cpu,0.003
2023-07-24T13:57:40.308Z,currencyservice,cpu,0.002
2023-07-24T13:57:41.919Z,paymentservice-2,cpu,0.005
2023-07-24T13:57:42.180Z,cartservice,cpu,0.003
2023-07-24T13:57:42.638Z,checkoutservice,cpu,0.002
2023-07-24T13:57:43.598Z,paymentservice-3,cpu,0.005
2023-07-24T13:57:44.096Z,probe-holder,cpu,0.009
2023-07-24T13:57:44.350Z,emailservice,cpu,0.003
2023-07-24T13:57:45.637Z,paymentservice-4,cpu,0.005
2023-07-24T13:57:46.222Z,recommendationservice,cpu,0.015
2023-07-24T13:57:46.258Z,paymentservice-1,cpu,0.005
2023-07-24T13:57:50.222Z,shippingservice,cpu,0.007
2023-07-24T13:57:49.965Z,adservice,cpu,0.006
2023-07-24T13:57:50.242Z,productcatalogservice,cpu,0.003
2023-07-24T13:57:50.308Z,currencyservice,cpu,0.004
2023-07-24T13:57:51.919Z,paymentservice-2,cpu,0.006
2023-07-24T13:57:52.180Z,cartservice,cpu,0.004
2023-07-24T13:57:52.638Z,checkoutservice,cpu,0.002
2023-07-24T13:57:53.598Z,paymentservice-3,cpu,0.008
2023-07-24T13:57:54.097Z,probe-holder,cpu,0.011
2023-07-24T13:57:54.350Z,emailservice,cpu,0.004
2023-07-24T13:57:55.637Z,paymentservice-4,cpu,0.004
2023-07-24T13:57:56.222Z,recommendationservice,cpu,0.015
2023-07-24T13:57:56.258Z,paymentservice-1,cpu,0.004
2023-07-24T13:58:00.222Z,shippingservice,cpu,0.006
2023-07-24T13:57:59.965Z,adservice,cpu,0.01
2023-07-24T13:58:00.242Z,productcatalogservice,cpu,0.005
2023-07-24T13:58:00.308Z,currencyservice,cpu,0.006
2023-07-24T13:58:01.919Z,paymentservice-2,cpu,0.005
2023-07-24T13:58:02.180Z,cartservice,cpu,0.006
2023-07-24T13:58:02.638Z,checkoutservice,cpu,0.005
2023-07-24T13:58:03.598Z,paymentservice-3,cpu,0.005
2023-07-24T13:58:04.096Z,probe-holder,cpu,0.01
2023-07-24T13:58:04.350Z,emailservice,cpu,0.005
2023-07-24T13:58:05.637Z,paymentservice-4,cpu,0.007
2023-07-24T13:58:06.222Z,recommendationservice,cpu,0.011
2023-07-24T13:58:06.258Z,paymentservice-1,cpu,0.007
2023-07-24T13:58:10.222Z,shippingservice,cpu,0.002
2023-07-24T13:58:09.965Z,adservice,cpu,0.008
2023-07-24T13:58:10.242Z,productcatalogservice,cpu,0.004
2023-07-24T13:58:10.309Z,currencyservice,cpu,0.003
2023-07-24T13:58:11.919Z,paymentservice-2,cpu,0.002
2023-07-24T13:58:12.180Z,cartservice,cpu,0.003
2023-07-24T13:58:12.638Z,checkoutservice,cpu,0.003
2023-07-24T13:58:13.598Z,paymentservice-3,cpu,0.002
2023-07-24T13:58:14.096Z,probe-holder,cpu,0.012
2023-07-24T13:58:14.350Z,emailservice,cpu,0.003
2023-07-24T13:58:15.637Z,paymentservice-4,cpu,0.007
2023-07-24T13:58:16.223Z,recommendationservice,cpu,0.0149
2023-07-24T13:58:16.258Z,paymentservice-1,cpu,0.003
2023-07-24T13:58:20.222Z,shippingservice,cpu,0.006
2023-07-24T13:58:19.965Z,adservice,cpu,0.0091
2023-07-24T13:58:20.242Z,productcatalogservice,cpu,0.003
2023-07-24T13:58:20.308Z,currencyservice,cpu,0.005
2023-07-24T13:58:21.919Z,paymentservice-2,cpu,0.008
2023-07-24T13:58:22.180Z,cartservice,cpu,0.009
2023-07-24T13:58:22.638Z,checkoutservice,cpu,0.002
2023-07-24T13:58:23.598Z,paymentservice-3,cpu,0.003
2023-07-24T13:58:24.096Z,probe-holder,cpu,0.01
2023-07-24T13:58:24.350Z,emailservice,cpu,0.004
2023-07-24T13:58:25.637Z,paymentservice-4,cpu,0.002
2023-07-24T13:58:26.222Z,recommendationservice,cpu,0.009
2023-07-24T13:58:26.258Z,paymentservice-1,cpu,0.011
2023-07-24T13:58:30.222Z,shippingservice,cpu,0.002
2023-07-24T13:58:29.965Z,adservice,cpu,0.014
2023-07-24T13:58:30.241Z,productcatalogservice,cpu,0.006
2023-07-24T13:58:30.308Z,currencyservice,cpu,0.003
2023-07-24T13:58:31.919Z,paymentservice-2,cpu,0.003
2023-07-24T13:58:32.180Z,cartservice,cpu,0.003
2023-07-24T13:58:32.638Z,checkoutservice,cpu,0.003
2023-07-24T13:58:33.598Z,paymentservice-3,cpu,0.003
2023-07-24T13:58:34.097Z,probe-holder,cpu,0.008
2023-07-24T13:58:34.350Z,emailservice,cpu,0.004
2023-07-24T13:58:35.637Z,paymentservice-4,cpu,0.005
2023-07-24T13:58:36.222Z,recommendationservice,cpu,0.0209
2023-07-24T13:58:36.258Z,paymentservice-1,cpu,0.002
2023-07-24T13:58:40.222Z,shippingservice,cpu,0.002
2023-07-24T13:58:39.965Z,adservice,cpu,0.005
2023-07-24T13:58:40.241Z,productcatalogservice,cpu,0.001
2023-07-24T13:58:40.308Z,currencyservice,cpu,0.004
2023-07-24T13:58:41.919Z,paymentservice-2,cpu,0.004
2023-07-24T13:58:42.180Z,cartservice,cpu,0.003
2023-07-24T13:58:42.638Z,checkoutservice,cpu,0.003
2023-07-24T13:58:43.598Z,paymentservice-3,cpu,0.002
2023-07-24T13:58:44.096Z,probe-holder,cpu,0.009
2023-07-24T13:58:44.350Z,emailservice,cpu,0.002
2023-07-24T13:58:45.637Z,paymentservice-4,cpu,0.004
2023-07-24T13:58:46.222Z,recommendationservice,cpu,0.008
2023-07-24T13:58:46.258Z,paymentservice-1,cpu,0.004
2023-07-24T13:58:50.223Z,shippingservice,cpu,0.004
2023-07-24T13:58:49.965Z,adservice,cpu,0.005
2023-07-24T13:58:50.241Z,productcatalogservice,cpu,0.003
2023-07-24T13:58:50.308Z,currencyservice,cpu,0.003
2023-07-24T13:58:51.919Z,paymentservice-2,cpu,0.004
2023-07-24T13:58:52.180Z,cartservice,cpu,0.004
2023-07-24T13:58:52.638Z,checkoutservice,cpu,0.004
2023-07-24T13:58:53.598Z,paymentservice-3,cpu,0.004
2023-07-24T13:58:54.097Z,probe-holder,cpu,0.008
2023-07-24T13:58:54.350Z,emailservice,cpu,0.003
2023-07-24T13:58:55.637Z,paymentservice-4,cpu,0.003
2023-07-24T13:58:56.222Z,recommendationservice,cpu,0.014
2023-07-24T13:58:56.258Z,paymentservice-1,cpu,0.005
2023-07-24T13:59:00.222Z,shippingservice,cpu,0.006
2023-07-24T13:58:59.965Z,adservice,cpu,0.008
2023-07-24T13:59:00.242Z,productcatalogservice,cpu,0.002
2023-07-24T13:59:00.308Z,currencyservice,cpu,0.006
2023-07-24T13:59:01.919Z,paymentservice-2,cpu,0.003
2023-07-24T13:59:02.181Z,cartservice,cpu,0.002
2023-07-24T13:59:02.638Z,checkoutservice,cpu,0.002
2023-07-24T13:59:03.598Z,paymentservice-3,cpu,0.004
2023-07-24T13:59:04.099Z,probe-holder,cpu,0.008
2023-07-24T13:59:04.350Z,emailservice,cpu,0.003
2023-07-24T13:59:05.637Z,paymentservice-4,cpu,0.005
2023-07-24T13:59:06.222Z,recommendationservice,cpu,0.011
2023-07-24T13:59:06.258Z,paymentservice-1,cpu,0.003
2023-07-24T13:59:10.222Z,shippingservice,cpu,0.001
2023-07-24T13:59:09.965Z,adservice,cpu,0.004
2023-07-24T13:59:10.241Z,productcatalogservice,cpu,0.006
2023-07-24T13:59:10.308Z,currencyservice,cpu,0.006
2023-07-24T13:59:11.919Z,paymentservice-2,cpu,0.004
2023-07-24T13:59:12.180Z,cartservice,cpu,0.004
2023-07-24T13:59:12.638Z,checkoutservice,cpu,0.002
2023-07-24T13:59:13.598Z,paymentservice-3,cpu,0.002
2023-07-24T13:59:14.097Z,probe-holder,cpu,0.012
2023-07-24T13:59:14.350Z,emailservice,cpu,0.005
2023-07-24T13:59:15.637Z,paymentservice-4,cpu,0.009
2023-07-24T13:59:16.222Z,recommendationservice,cpu,0.013
2023-07-24T13:59:16.258Z,paymentservice-1,cpu,0.003
2023-07-24T13:59:20.222Z,shippingservice,cpu,0.007
2023-07-24T13:59:19.965Z,adservice,cpu,0.007
2023-07-24T13:59:20.241Z,productcatalogservice,cpu,0.002
2023-07-24T13:59:20.309Z,currencyservice,cpu,0.005
2023-07-24T13:59:21.919Z,paymentservice-2,cpu,0.006
2023-07-24T13:59:22.180Z,cartservice,cpu,0.008
2023-07-24T13:59:22.638Z,checkoutservice,cpu,0.002
2023-07-24T13:59:23.598Z,paymentservice-3,cpu,0.004
2023-07-24T13:59:24.096Z,probe-holder,cpu,0.007
2023-07-24T13:59:24.350Z,emailservice,cpu,0.003
2023-07-24T13:59:25.637Z,paymentservice-4,cpu,0.003
2023-07-24T13:59:26.222Z,recommendationservice,cpu,0.007
2023-07-24T13:59:26.258Z,paymentservice-1,cpu,0.008
2023-07-24T13:59:30.222Z,shippingservice,cpu,0.002
2023-07-24T13:59:29.965Z,adservice,cpu,0.004
2023-07-24T13:59:30.241Z,productcatalogservice,cpu,0.006
2023-07-24T13:59:30.308Z,currencyservice,cpu,0.002
2023-07-24T13:59:31.919Z,paymentservice-2,cpu,0.003
2023-07-24T13:59:32.180Z,cartservice,cpu,0.004
2023-07-24T13:59:32.638Z,checkoutservice,cpu,0.005
2023-07-24T13:59:33.598Z,paymentservice-3,cpu,0.002
2023-07-24T13:59:34.097Z,probe-holder,cpu,0.009
2023-07-24T13:59:34.350Z,emailservice,cpu,0.004
2023-07-24T13:59:35.637Z,paymentservice-4,cpu,0.005
2023-07-24T13:59:36.222Z,recommendationservice,cpu,0.0119
2023-07-24T13:59:36.258Z,paymentservice-1,cpu,0.004
2023-07-24T13:59:40.223Z,shippingservice,cpu,0.003
2023-07-24T13:59:39.965Z,adservice,cpu,0.004
2023-07-24T13:59:40.241Z,productcatalogservice,cpu,0.004
2023-07-24T13:59:40.309Z,currencyservice,cpu,0.002
2023-07-24T13:59:41.919Z,paymentservice-2,cpu,0.003
2023-07-24T13:59:42.180Z,cartservice,cpu,0.001
2023-07-24T13:59:42.638Z,checkoutservice,cpu,0.005
2023-07-24T13:59:43.598Z,paymentservice-3,cpu,0.002
2023-07-24T13:59:44.096Z,probe-holder,cpu,0.008
2023-07-24T13:59:44.350Z,emailservice,cpu,0.005
2023-07-24T13:59:45.637Z,paymentservice-4,cpu,0.002
2023-07-24T13:59:46.222Z,recommendationservice,cpu,0.005
2023-07-24T13:59:46.258Z,paymentservice-1,cpu,0.002
2023-07-24T13:59:50.222Z,shippingservice,cpu,0.005
2023-07-24T13:59:49.965Z,adservice,cpu,0.004
2023-07-24T13:59:50.241Z,productcatalogservice,cpu,0.002
2023-07-24T13:59:50.309Z,currencyservice,cpu,0.004
2023-07-24T13:59:51.920Z,paymentservice-2,cpu,0.004
2023-07-24T13:59:52.181Z,cartservice,cpu,0.004
2023-07-24T13:59:52.638Z,checkoutservice,cpu,0.001
2023-07-24T13:59:53.598Z,paymentservice-3,cpu,0.008
2023-07-24T13:59:54.097Z,probe-holder,cpu,0.006
2023-07-24T13:59:54.350Z,emailservice,cpu,0.003
2023-07-24T13:59:55.637Z,paymentservice-4,cpu,0.005
2023-07-24T13:59:56.222Z,recommendationservice,cpu,0.013
2023-07-24T13:59:56.258Z,paymentservice-1,cpu,0.004
2023-07-24T14:00:00.222Z,shippingservice,cpu,0.002
2023-07-24T13:59:59.965Z,adservice,cpu,0.006
2023-07-24T14:00:00.241Z,productcatalogservice,cpu,0.004
2023-07-24T14:00:00.308Z,currencyservice,cpu,0.005
2023-07-24T14:00:01.919Z,paymentservice-2,cpu,0.004
2023-07-24T14:00:02.180Z,cartservice,cpu,0.003
2023-07-24T14:00:02.638Z,checkoutservice,cpu,0
2023-07-24T14:00:03.598Z,paymentservice-3,cpu,0.002
2023-07-24T14:00:04.096Z,probe-holder,cpu,0.008
2023-07-24T14:00:04.350Z,emailservice,cpu,0.002
2023-07-24T14:00:05.637Z,paymentservice-4,cpu,0.005
2023-07-24T14:00:06.222Z,recommendationservice,cpu,0.008
2023-07-24T14:00:06.258Z,paymentservice-1,cpu,0.004
2023-07-24T14:00:10.222Z,shippingservice,cpu,0.001
2023-07-24T14:00:09.965Z,adservice,cpu,0.004
2023-07-24T14:00:10.241Z,productcatalogservice,cpu,0.003
2023-07-24T14:00:10.309Z,currencyservice,cpu,0.002
2023-07-24T14:00:11.919Z,paymentservice-2,cpu,0.004
2023-07-24T14:00:12.181Z,cartservice,cpu,0.002
2023-07-24T14:00:12.638Z,checkoutservice,cpu,0.004
2023-07-24T14:00:13.598Z,paymentservice-3,cpu,0.001
2023-07-24T14:00:14.097Z,probe-holder,cpu,0.011
2023-07-24T14:00:14.350Z,emailservice,cpu,0.004
2023-07-24T14:00:15.637Z,paymentservice-4,cpu,0.008
2023-07-24T14:00:16.222Z,recommendationservice,cpu,0.006
2023-07-24T14:00:16.258Z,paymentservice-1,cpu,0.002
2023-07-24T14:00:20.222Z,shippingservice,cpu,0.009
2023-07-24T14:00:19.965Z,adservice,cpu,0.006
2023-07-24T14:00:20.241Z,productcatalogservice,cpu,0.002
2023-07-24T14:00:20.308Z,currencyservice,cpu,0.005
2023-07-24T14:00:21.919Z,paymentservice-2,cpu,0.005
2023-07-24T14:00:22.180Z,cartservice,cpu,0.008
2023-07-24T14:00:22.638Z,checkoutservice,cpu,0.001
2023-07-24T14:00:23.598Z,paymentservice-3,cpu,0.003
2023-07-24T14:00:24.096Z,probe-holder,cpu,0.008
2023-07-24T14:00:24.350Z,emailservice,cpu,0.004
2023-07-24T14:00:25.637Z,paymentservice-4,cpu,0.004
2023-07-24T14:00:26.222Z,recommendationservice,cpu,0.006
2023-07-24T14:00:26.258Z,paymentservice-1,cpu,0.008
2023-07-24T14:00:30.222Z,shippingservice,cpu,0.002
2023-07-24T14:00:29.965Z,adservice,cpu,0.004
2023-07-24T14:00:30.242Z,productcatalogservice,cpu,0.005
2023-07-24T14:00:30.308Z,currencyservice,cpu,0.002
2023-07-24T14:00:31.919Z,paymentservice-2,cpu,0.003
2023-07-24T14:00:32.180Z,cartservice,cpu,0.003
2023-07-24T14:00:32.638Z,checkoutservice,cpu,0.005
2023-07-24T14:00:33.598Z,paymentservice-3,cpu,0.004
2023-07-24T14:00:34.096Z,probe-holder,cpu,0.007
2023-07-24T14:00:34.350Z,emailservice,cpu,0.005
2023-07-24T14:00:35.637Z,paymentservice-4,cpu,0.006
2023-07-24T14:00:36.222Z,recommendationservice,cpu,0.009
2023-07-24T14:00:36.258Z,paymentservice-1,cpu,0.004
2023-07-24T14:00:40.223Z,shippingservice,cpu,0.002
2023-07-24T14:00:39.965Z,adservice,cpu,0.004
2023-07-24T14:00:40.308Z,currencyservice,cpu,0.003
2023-07-24T14:00:40.242Z,productcatalogservice,cpu,0.002
2023-07-24T14:00:41.919Z,paymentservice-2,cpu,0.004
2023-07-24T14:00:42.181Z,cartservice,cpu,0
2023-07-24T14:00:42.638Z,checkoutservice,cpu,0.004
2023-07-24T14:00:43.598Z,paymentservice-3,cpu,0.004
2023-07-24T14:00:44.096Z,probe-holder,cpu,0.008
2023-07-24T14:00:44.350Z,emailservice,cpu,0.005
2023-07-24T14:00:45.637Z,paymentservice-4,cpu,0.003
2023-07-24T14:00:46.222Z,recommendationservice,cpu,0.005
2023-07-24T14:00:46.258Z,paymentservice-1,cpu,0.003
2023-07-24T14:00:50.223Z,shippingservice,cpu,0.004
2023-07-24T14:00:49.965Z,adservice,cpu,0.006
2023-07-24T14:00:50.242Z,productcatalogservice,cpu,0.004
2023-07-24T14:00:50.308Z,currencyservice,cpu,0.003
2023-07-24T14:00:51.919Z,paymentservice-2,cpu,0.004
2023-07-24T14:00:52.180Z,cartservice,cpu,0.005
2023-07-24T14:00:52.638Z,checkoutservice,cpu,0.001
2023-07-24T14:00:53.598Z,paymentservice-3,cpu,0.004
2023-07-24T14:00:54.096Z,probe-holder,cpu,0.009
2023-07-24T14:00:54.350Z,emailservice,cpu,0.003
2023-07-24T14:00:55.637Z,paymentservice-4,cpu,0.003
2023-07-24T14:00:56.222Z,recommendationservice,cpu,0.006
2023-07-24T14:00:56.258Z,paymentservice-1,cpu,0.002
2023-07-24T14:01:00.222Z,shippingservice,cpu,0.002
2023-07-24T14:00:59.965Z,adservice,cpu,0.006
2023-07-24T14:01:00.241Z,productcatalogservice,cpu,0.002
2023-07-24T14:01:00.308Z,currencyservice,cpu,0.005
2023-07-24T14:01:01.920Z,paymentservice-2,cpu,0.003
2023-07-24T14:01:02.180Z,cartservice,cpu,0.005
2023-07-24T14:01:02.638Z,checkoutservice,cpu,0.002
2023-07-24T14:01:03.598Z,paymentservice-3,cpu,0.003
2023-07-24T14:01:04.096Z,probe-holder,cpu,0.009
2023-07-24T14:01:04.350Z,emailservice,cpu,0.002
2023-07-24T14:01:05.637Z,paymentservice-4,cpu,0.005
2023-07-24T14:01:06.222Z,recommendationservice,cpu,0.006
2023-07-24T14:01:06.258Z,paymentservice-1,cpu,0.002
2023-07-24T14:01:10.222Z,shippingservice,cpu,0.002
2023-07-24T14:01:09.965Z,adservice,cpu,0.003
2023-07-24T14:01:10.241Z,productcatalogservice,cpu,0.004
2023-07-24T14:01:10.308Z,currencyservice,cpu,0.003
2023-07-24T14:01:11.919Z,paymentservice-2,cpu,0.002
2023-07-24T14:01:12.180Z,cartservice,cpu,0.003
2023-07-24T14:01:12.638Z,checkoutservice,cpu,0.003
2023-07-24T14:01:13.598Z,paymentservice-3,cpu,0.004
2023-07-24T14:01:14.096Z,probe-holder,cpu,0.012
2023-07-24T14:01:14.350Z,emailservice,cpu,0.002
2023-07-24T14:01:15.637Z,paymentservice-4,cpu,0.008
2023-07-24T14:01:16.222Z,recommendationservice,cpu,0.003
2023-07-24T14:01:16.258Z,paymentservice-1,cpu,0.004
2023-07-24T14:01:20.222Z,shippingservice,cpu,0.008
2023-07-24T14:01:19.965Z,adservice,cpu,0.006
2023-07-24T14:01:20.241Z,productcatalogservice,cpu,0.004
2023-07-24T14:01:20.308Z,currencyservice,cpu,0.003
2023-07-24T14:01:21.919Z,paymentservice-2,cpu,0.008
2023-07-24T14:01:22.180Z,cartservice,cpu,0.008
2023-07-24T14:01:22.638Z,checkoutservice,cpu,0.003
2023-07-24T14:01:23.598Z,paymentservice-3,cpu,0.004
2023-07-24T14:01:24.096Z,probe-holder,cpu,0.007
2023-07-24T14:01:24.350Z,emailservice,cpu,0.003
2023-07-24T14:01:25.637Z,paymentservice-4,cpu,0.004
2023-07-24T14:01:26.222Z,recommendationservice,cpu,0.007
2023-07-24T14:01:26.258Z,paymentservice-1,cpu,0.009
2023-07-24T14:01:30.222Z,shippingservice,cpu,0.002
2023-07-24T14:01:29.965Z,adservice,cpu,0.003
2023-07-24T14:01:30.241Z,productcatalogservice,cpu,0.003
2023-07-24T14:01:30.308Z,currencyservice,cpu,0.003
2023-07-24T14:01:31.920Z,paymentservice-2,cpu,0.005
2023-07-24T14:01:32.181Z,cartservice,cpu,0.003
2023-07-24T14:01:32.638Z,checkoutservice,cpu,0.004
2023-07-24T14:01:33.598Z,paymentservice-3,cpu,0.003
2023-07-24T14:01:34.096Z,probe-holder,cpu,0.01
2023-07-24T14:01:34.350Z,emailservice,cpu,0.008
2023-07-24T14:01:35.637Z,paymentservice-4,cpu,0.004
2023-07-24T14:01:36.222Z,recommendationservice,cpu,0.0099
2023-07-24T14:01:36.258Z,paymentservice-1,cpu,0.004
2023-07-24T14:01:40.222Z,shippingservice,cpu,0.004
2023-07-24T14:01:39.965Z,adservice,cpu,0.005
2023-07-24T14:01:40.241Z,productcatalogservice,cpu,0.003
2023-07-24T14:01:40.308Z,currencyservice,cpu,0.003
2023-07-24T14:01:41.919Z,paymentservice-2,cpu,0.003
2023-07-24T14:01:42.180Z,cartservice,cpu,0.003
2023-07-24T14:01:42.638Z,checkoutservice,cpu,0.003
2023-07-24T14:01:43.598Z,paymentservice-3,cpu,0.002
2023-07-24T14:01:44.096Z,probe-holder,cpu,0.007
2023-07-24T14:01:44.350Z,emailservice,cpu,0.003
2023-07-24T14:01:45.637Z,paymentservice-4,cpu,0.003
2023-07-24T14:01:46.222Z,recommendationservice,cpu,0.008
2023-07-24T14:01:46.258Z,paymentservice-1,cpu,0.002
2023-07-24T14:01:50.222Z,shippingservice,cpu,0.003
2023-07-24T14:01:49.965Z,adservice,cpu,0.006
2023-07-24T14:01:50.241Z,productcatalogservice,cpu,0.003
2023-07-24T14:01:50.308Z,currencyservice,cpu,0.004
2023-07-24T14:01:51.919Z,paymentservice-2,cpu,0.003
2023-07-24T14:01:52.181Z,cartservice,cpu,0.005
2023-07-24T14:01:52.638Z,checkoutservice,cpu,0.003
2023-07-24T14:01:53.598Z,paymentservice-3,cpu,0.007
2023-07-24T14:01:54.098Z,probe-holder,cpu,0.009
2023-07-24T14:01:54.350Z,emailservice,cpu,0.004
2023-07-24T14:01:55.637Z,paymentservice-4,cpu,0.004
2023-07-24T14:01:56.222Z,recommendationservice,cpu,0.005
2023-07-24T14:01:56.258Z,paymentservice-1,cpu,0.003
2023-07-24T14:02:00.222Z,shippingservice,cpu,0.003
2023-07-24T14:01:59.965Z,adservice,cpu,0.004
2023-07-24T14:02:00.241Z,productcatalogservice,cpu,0.001
2023-07-24T14:02:00.308Z,currencyservice,cpu,0.005
2023-07-24T14:02:01.919Z,paymentservice-2,cpu,0.003
2023-07-24T14:02:02.181Z,cartservice,cpu,0.002
2023-07-24T14:02:02.638Z,checkoutservice,cpu,0
2023-07-24T14:02:03.598Z,paymentservice-3,cpu,0.002
2023-07-24T14:02:04.096Z,probe-holder,cpu,0.009
2023-07-24T14:02:04.350Z,emailservice,cpu,0.003
2023-07-24T14:02:05.637Z,paymentservice-4,cpu,0.003
2023-07-24T14:02:06.222Z,recommendationservice,cpu,0.004
2023-07-24T14:02:06.258Z,paymentservice-1,cpu,0.004
2023-07-24T14:02:10.222Z,shippingservice,cpu,0.003
2023-07-24T14:02:09.965Z,adservice,cpu,0.005
2023-07-24T14:02:10.241Z,productcatalogservice,cpu,0.003
2023-07-24T14:02:10.308Z,currencyservice,cpu,0.003
2023-07-24T14:02:11.919Z,paymentservice-2,cpu,0.004
2023-07-24T14:02:12.180Z,cartservice,cpu,0.002
2023-07-24T14:02:12.638Z,checkoutservice,cpu,0.003
2023-07-24T14:02:13.598Z,paymentservice-3,cpu,0.002
2023-07-24T14:02:14.096Z,probe-holder,cpu,0.011
2023-07-24T14:02:14.350Z,emailservice,cpu,0.002
2023-07-24T14:02:15.637Z,paymentservice-4,cpu,0.01
2023-07-24T14:02:16.222Z,recommendationservice,cpu,0.004
2023-07-24T14:02:16.258Z,paymentservice-1,cpu,0.002
2023-07-24T14:02:20.222Z,shippingservice,cpu,0.006
2023-07-24T14:02:19.965Z,adservice,cpu,0.005
2023-07-24T14:02:20.242Z,productcatalogservice,cpu,0.003
2023-07-24T14:02:20.309Z,currencyservice,cpu,0.003
2023-07-24T14:02:21.919Z,paymentservice-2,cpu,0.007
2023-07-24T14:02:22.180Z,cartservice,cpu,0.01
2023-07-24T14:02:22.638Z,checkoutservice,cpu,0.003
2023-07-24T14:02:23.598Z,paymentservice-3,cpu,0.002
2023-07-24T14:02:24.096Z,probe-holder,cpu,0.008
2023-07-24T14:02:24.350Z,emailservice,cpu,0.003
2023-07-24T14:02:25.637Z,paymentservice-4,cpu,0.003
2023-07-24T14:02:26.222Z,recommendationservice,cpu,0.005
2023-07-24T14:02:26.258Z,paymentservice-1,cpu,0.012
2023-07-24T14:02:30.222Z,shippingservice,cpu,0.001
2023-07-24T14:02:29.965Z,adservice,cpu,0.005
2023-07-24T14:02:30.241Z,productcatalogservice,cpu,0.003
2023-07-24T14:02:30.308Z,currencyservice,cpu,0.003
2023-07-24T14:02:31.919Z,paymentservice-2,cpu,0.003
2023-07-24T14:02:32.180Z,cartservice,cpu,0.002
2023-07-24T14:02:32.638Z,checkoutservice,cpu,0.005
2023-07-24T14:02:33.598Z,paymentservice-3,cpu,0.003
2023-07-24T14:02:34.096Z,probe-holder,cpu,0.008
2023-07-24T14:02:34.350Z,emailservice,cpu,0.006
2023-07-24T14:02:35.637Z,paymentservice-4,cpu,0.003
2023-07-24T14:02:36.222Z,recommendationservice,cpu,0.0109
2023-07-24T14:02:36.258Z,paymentservice-1,cpu,0.004
2023-07-24T14:02:40.222Z,shippingservice,cpu,0.004
2023-07-24T14:02:39.965Z,adservice,cpu,0.001
2023-07-24T14:02:40.242Z,productcatalogservice,cpu,0.001
2023-07-24T14:02:40.309Z,currencyservice,cpu,0.003
2023-07-24T14:02:41.920Z,paymentservice-2,cpu,0.005
2023-07-24T14:02:42.180Z,cartservice,cpu,0.001
2023-07-24T14:02:42.638Z,checkoutservice,cpu,0.003
2023-07-24T14:02:43.598Z,paymentservice-3,cpu,0.004
2023-07-24T14:02:44.096Z,probe-holder,cpu,0.008
2023-07-24T14:02:44.350Z,emailservice,cpu,0.006
2023-07-24T14:02:45.637Z,paymentservice-4,cpu,0.004
2023-07-24T14:02:46.222Z,recommendationservice,cpu,0.003
2023-07-24T14:02:46.258Z,paymentservice-1,cpu,0.004
2023-07-24T14:02:50.222Z,shippingservice,cpu,0.004
2023-07-24T14:02:49.965Z,adservice,cpu,0.004
2023-07-24T14:02:50.241Z,productcatalogservice,cpu,0.003
2023-07-24T14:02:50.308Z,currencyservice,cpu,0.004
2023-07-24T14:02:51.921Z,paymentservice-2,cpu,0.003
2023-07-24T14:02:52.180Z,cartservice,cpu,0.004
2023-07-24T14:02:52.638Z,checkoutservice,cpu,0.002
2023-07-24T14:02:53.599Z,paymentservice-3,cpu,0.006
2023-07-24T14:02:54.096Z,probe-holder,cpu,0.007
2023-07-24T14:02:54.350Z,emailservice,cpu,0.004
2023-07-24T14:02:55.637Z,paymentservice-4,cpu,0.002
2023-07-24T14:02:56.222Z,recommendationservice,cpu,0.006
2023-07-24T14:02:56.258Z,paymentservice-1,cpu,0.005
2023-07-24T14:03:00.222Z,shippingservice,cpu,0.004
2023-07-24T14:02:59.965Z,adservice,cpu,0.006
2023-07-24T14:03:00.241Z,productcatalogservice,cpu,0.002
2023-07-24T14:03:00.308Z,currencyservice,cpu,0.004
2023-07-24T14:03:01.919Z,paymentservice-2,cpu,0.001
2023-07-24T14:03:02.180Z,cartservice,cpu,0.002
2023-07-24T14:03:02.638Z,checkoutservice,cpu,0.001
2023-07-24T14:03:03.599Z,paymentservice-3,cpu,0.002
2023-07-24T14:03:04.097Z,probe-holder,cpu,0.008
2023-07-24T14:03:04.350Z,emailservice,cpu,0.003
2023-07-24T14:03:05.637Z,paymentservice-4,cpu,0.006
2023-07-24T14:03:06.222Z,recommendationservice,cpu,0.004
2023-07-24T14:03:06.258Z,paymentservice-1,cpu,0.002
2023-07-24T14:03:10.222Z,shippingservice,cpu,0.003
2023-07-24T14:03:09.965Z,adservice,cpu,0.005
2023-07-24T14:03:10.241Z,productcatalogservice,cpu,0.005
2023-07-24T14:03:10.309Z,currencyservice,cpu,0.002
2023-07-24T14:03:11.920Z,paymentservice-2,cpu,0.002
2023-07-24T14:03:12.181Z,cartservice,cpu,0.002
2023-07-24T14:03:12.638Z,checkoutservice,cpu,0.006
2023-07-24T14:03:13.598Z,paymentservice-3,cpu,0.003
2023-07-24T14:03:14.096Z,probe-holder,cpu,0.013
2023-07-24T14:03:14.350Z,emailservice,cpu,0.003
2023-07-24T14:03:15.637Z,paymentservice-4,cpu,0.009
2023-07-24T14:03:16.222Z,recommendationservice,cpu,0.002
2023-07-24T14:03:16.258Z,paymentservice-1,cpu,0.002
2023-07-24T14:03:20.222Z,shippingservice,cpu,0.006
2023-07-24T14:03:19.965Z,adservice,cpu,0.007
2023-07-24T14:03:20.241Z,productcatalogservice,cpu,0.004
2023-07-24T14:03:20.308Z,currencyservice,cpu,0.003
2023-07-24T14:03:21.919Z,paymentservice-2,cpu,0.008
2023-07-24T14:03:22.180Z,cartservice,cpu,0.008
2023-07-24T14:03:22.638Z,checkoutservice,cpu,0.004
2023-07-24T14:03:23.598Z,paymentservice-3,cpu,0.004
2023-07-24T14:03:24.096Z,probe-holder,cpu,0.007
2023-07-24T14:03:24.350Z,emailservice,cpu,0.002
2023-07-24T14:03:25.637Z,paymentservice-4,cpu,0.002
2023-07-24T14:03:26.222Z,recommendationservice,cpu,0.004
2023-07-24T14:03:26.258Z,paymentservice-1,cpu,0.009
2023-07-24T14:03:30.222Z,shippingservice,cpu,0.003
2023-07-24T14:03:29.965Z,adservice,cpu,0.004
2023-07-24T14:03:30.242Z,productcatalogservice,cpu,0.005
2023-07-24T14:03:30.308Z,currencyservice,cpu,0.003
2023-07-24T14:03:31.919Z,paymentservice-2,cpu,0.004
2023-07-24T14:03:32.181Z,cartservice,cpu,0.002
2023-07-24T14:03:32.638Z,checkoutservice,cpu,0.003
2023-07-24T14:03:33.598Z,paymentservice-3,cpu,0.002
2023-07-24T14:03:34.096Z,probe-holder,cpu,0.009
2023-07-24T14:03:34.350Z,emailservice,cpu,0.007
2023-07-24T14:03:35.637Z,paymentservice-4,cpu,0.005
2023-07-24T14:03:36.222Z,recommendationservice,cpu,0.005
2023-07-24T14:03:36.258Z,paymentservice-1,cpu,0.002
2023-07-24T14:03:40.222Z,shippingservice,cpu,0.002
2023-07-24T14:03:39.965Z,adservice,cpu,0.005
2023-07-24T14:03:40.308Z,currencyservice,cpu,0.002
2023-07-24T14:03:40.241Z,productcatalogservice,cpu,0.002
2023-07-24T14:03:41.919Z,paymentservice-2,cpu,0.005
2023-07-24T14:03:42.180Z,cartservice,cpu,0.003
2023-07-24T14:03:42.638Z,checkoutservice,cpu,0.003
2023-07-24T14:03:43.598Z,paymentservice-3,cpu,0.003
2023-07-24T14:03:44.096Z,probe-holder,cpu,0.009
2023-07-24T14:03:44.350Z,emailservice,cpu,0.004
2023-07-24T14:03:45.637Z,paymentservice-4,cpu,0.002
2023-07-24T14:03:46.222Z,recommendationservice,cpu,0.011
2023-07-24T14:03:46.258Z,paymentservice-1,cpu,0.005
2023-07-24T14:03:50.223Z,shippingservice,cpu,0.007
2023-07-24T14:03:49.965Z,adservice,cpu,0.006
2023-07-24T14:03:50.309Z,currencyservice,cpu,0.003
2023-07-24T14:03:50.242Z,productcatalogservice,cpu,0.002
2023-07-24T14:03:51.919Z,paymentservice-2,cpu,0.002
2023-07-24T14:03:52.180Z,cartservice,cpu,0.004
2023-07-24T14:03:52.638Z,checkoutservice,cpu,0.002
2023-07-24T14:03:53.598Z,paymentservice-3,cpu,0.004
2023-07-24T14:03:54.097Z,probe-holder,cpu,0.009
2023-07-24T14:03:54.350Z,emailservice,cpu,0.005
2023-07-24T14:03:55.637Z,paymentservice-4,cpu,0.003
2023-07-24T14:03:56.222Z,recommendationservice,cpu,0.007
2023-07-24T14:03:56.258Z,paymentservice-1,cpu,0.004
2023-07-24T14:04:00.222Z,shippingservice,cpu,0.002
2023-07-24T14:03:59.965Z,adservice,cpu,0.007
2023-07-24T14:04:00.308Z,currencyservice,cpu,0.004
2023-07-24T14:04:00.241Z,productcatalogservice,cpu,0.003
2023-07-24T14:04:01.919Z,paymentservice-2,cpu,0.004
2023-07-24T14:04:02.180Z,cartservice,cpu,0.005
2023-07-24T14:04:02.638Z,checkoutservice,cpu,0.002
2023-07-24T14:04:03.598Z,paymentservice-3,cpu,0.002
2023-07-24T14:04:04.097Z,probe-holder,cpu,0.005
2023-07-24T14:04:04.350Z,emailservice,cpu,0.001
2023-07-24T14:04:05.637Z,paymentservice-4,cpu,0.003
2023-07-24T14:04:06.222Z,recommendationservice,cpu,0.005
2023-07-24T14:04:06.258Z,paymentservice-1,cpu,0.003
2023-07-24T14:04:10.222Z,shippingservice,cpu,0.003
2023-07-24T14:04:09.965Z,adservice,cpu,0.004
2023-07-24T14:04:10.241Z,productcatalogservice,cpu,0.002
2023-07-24T14:04:10.308Z,currencyservice,cpu,0.003
2023-07-24T14:04:11.919Z,paymentservice-2,cpu,0.003
2023-07-24T14:04:12.180Z,cartservice,cpu,0.003
2023-07-24T14:04:12.638Z,checkoutservice,cpu,0.002
2023-07-24T14:04:13.598Z,paymentservice-3,cpu,0.004
2023-07-24T14:04:14.096Z,probe-holder,cpu,0.013
2023-07-24T14:04:14.350Z,emailservice,cpu,0.001
2023-07-24T14:04:15.637Z,paymentservice-4,cpu,0.008
2023-07-24T14:04:16.222Z,recommendationservice,cpu,0.005
2023-07-24T14:04:16.258Z,paymentservice-1,cpu,0.005
2023-07-24T14:04:20.222Z,shippingservice,cpu,0.006
2023-07-24T14:04:19.965Z,adservice,cpu,0.007
2023-07-24T14:04:20.242Z,productcatalogservice,cpu,0.004
2023-07-24T14:04:20.308Z,currencyservice,cpu,0.004
2023-07-24T14:04:21.919Z,paymentservice-2,cpu,0.007
2023-07-24T14:04:22.181Z,cartservice,cpu,0.007
2023-07-24T14:04:22.638Z,checkoutservice,cpu,0.001
2023-07-24T14:04:23.598Z,paymentservice-3,cpu,0.002
2023-07-24T14:04:24.096Z,probe-holder,cpu,0.007
2023-07-24T14:04:24.350Z,emailservice,cpu,0.004
2023-07-24T14:04:25.637Z,paymentservice-4,cpu,0.003
2023-07-24T14:04:26.222Z,recommendationservice,cpu,0.007
2023-07-24T14:04:26.258Z,paymentservice-1,cpu,0.007
2023-07-24T14:04:30.222Z,shippingservice,cpu,0.002
2023-07-24T14:04:29.965Z,adservice,cpu,0.005
2023-07-24T14:04:30.308Z,currencyservice,cpu,0.004
2023-07-24T14:04:30.242Z,productcatalogservice,cpu,0.005
2023-07-24T14:04:31.919Z,paymentservice-2,cpu,0.004
2023-07-24T14:04:32.180Z,cartservice,cpu,0.003
2023-07-24T14:04:32.638Z,checkoutservice,cpu,0.005
2023-07-24T14:04:33.598Z,paymentservice-3,cpu,0.004
2023-07-24T14:04:34.097Z,probe-holder,cpu,0.011
2023-07-24T14:04:34.350Z,emailservice,cpu,0.005
2023-07-24T14:04:35.637Z,paymentservice-4,cpu,0.004
2023-07-24T14:04:36.222Z,recommendationservice,cpu,0.008
2023-07-24T14:04:36.258Z,paymentservice-1,cpu,0.004
2023-07-24T14:04:40.222Z,shippingservice,cpu,0.001
2023-07-24T14:04:39.965Z,adservice,cpu,0.004
2023-07-24T14:04:40.242Z,productcatalogservice,cpu,0.001
2023-07-24T14:04:40.308Z,currencyservice,cpu,0.003
2023-07-24T14:04:41.919Z,paymentservice-2,cpu,0.004
2023-07-24T14:04:42.181Z,cartservice,cpu,0.002
2023-07-24T14:04:42.638Z,checkoutservice,cpu,0.003
2023-07-24T14:04:43.598Z,paymentservice-3,cpu,0.005
2023-07-24T14:04:44.096Z,probe-holder,cpu,0.006
2023-07-24T14:04:44.350Z,emailservice,cpu,0.004
2023-07-24T14:04:45.637Z,paymentservice-4,cpu,0.002
2023-07-24T14:04:46.222Z,recommendationservice,cpu,0.004
2023-07-24T14:04:46.258Z,paymentservice-1,cpu,0.006
2023-07-24T14:04:50.222Z,shippingservice,cpu,0.005
2023-07-24T14:04:49.965Z,adservice,cpu,0.007
2023-07-24T14:04:50.241Z,productcatalogservice,cpu,0.003
2023-07-24T14:04:50.308Z,currencyservice,cpu,0.003
2023-07-24T14:04:51.919Z,paymentservice-2,cpu,0.003
2023-07-24T14:04:52.180Z,cartservice,cpu,0.003
2023-07-24T14:04:52.638Z,checkoutservice,cpu,0.002
2023-07-24T14:04:53.598Z,paymentservice-3,cpu,0.003
2023-07-24T14:04:54.096Z,probe-holder,cpu,0.01
2023-07-24T14:04:54.350Z,emailservice,cpu,0.002
2023-07-24T14:04:55.637Z,paymentservice-4,cpu,0.004
2023-07-24T14:04:56.222Z,recommendationservice,cpu,0.008
2023-07-24T14:04:56.258Z,paymentservice-1,cpu,0.002
2023-07-24T14:05:00.222Z,shippingservice,cpu,0.002
2023-07-24T14:04:59.965Z,adservice,cpu,0.006
2023-07-24T14:05:00.308Z,currencyservice,cpu,0.005
2023-07-24T14:05:00.241Z,productcatalogservice,cpu,0.002
2023-07-24T14:05:01.919Z,paymentservice-2,cpu,0.003
2023-07-24T14:05:02.180Z,cartservice,cpu,0.001
2023-07-24T14:05:02.638Z,checkoutservice,cpu,0.001
2023-07-24T14:05:03.598Z,paymentservice-3,cpu,0.002
2023-07-24T14:05:04.096Z,probe-holder,cpu,0.008
2023-07-24T14:05:04.350Z,emailservice,cpu,0.003
2023-07-24T14:05:05.637Z,paymentservice-4,cpu,0.003
2023-07-24T14:05:06.222Z,recommendationservice,cpu,0.006
2023-07-24T14:05:06.258Z,paymentservice-1,cpu,0.002
2023-07-24T14:05:10.222Z,shippingservice,cpu,0.002
2023-07-24T14:05:09.965Z,adservice,cpu,0.006
2023-07-24T14:05:10.241Z,productcatalogservice,cpu,0.002
2023-07-24T14:05:10.308Z,currencyservice,cpu,0.002
2023-07-24T14:05:11.919Z,paymentservice-2,cpu,0.002
2023-07-24T14:05:12.180Z,cartservice,cpu,0.003
2023-07-24T14:05:12.638Z,checkoutservice,cpu,0.004
2023-07-24T14:05:13.598Z,paymentservice-3,cpu,0.003
2023-07-24T14:05:14.096Z,probe-holder,cpu,0.009
2023-07-24T14:05:14.350Z,emailservice,cpu,0.003
2023-07-24T14:05:15.637Z,paymentservice-4,cpu,0.006
2023-07-24T14:05:16.222Z,recommendationservice,cpu,0.005
2023-07-24T14:05:16.258Z,paymentservice-1,cpu,0.004
2023-07-24T14:05:20.222Z,shippingservice,cpu,0.01
2023-07-24T14:05:19.965Z,adservice,cpu,0.006
2023-07-24T14:05:20.308Z,currencyservice,cpu,0.005
2023-07-24T14:05:20.242Z,productcatalogservice,cpu,0.005
2023-07-24T14:05:21.919Z,paymentservice-2,cpu,0.006
2023-07-24T14:05:22.180Z,cartservice,cpu,0.011
2023-07-24T14:05:22.638Z,checkoutservice,cpu,0.005
2023-07-24T14:05:23.599Z,paymentservice-3,cpu,0.004
2023-07-24T14:05:24.096Z,probe-holder,cpu,0.008
2023-07-24T14:05:24.350Z,emailservice,cpu,0.003
2023-07-24T14:05:25.637Z,paymentservice-4,cpu,0.003
2023-07-24T14:05:26.222Z,recommendationservice,cpu,0.005
2023-07-24T14:05:26.258Z,paymentservice-1,cpu,0.006
2023-07-24T14:05:30.222Z,shippingservice,cpu,0.001
2023-07-24T14:05:29.965Z,adservice,cpu,0.006
2023-07-24T14:05:30.241Z,productcatalogservice,cpu,0.005
2023-07-24T14:05:30.309Z,currencyservice,cpu,0.001
2023-07-24T14:05:31.920Z,paymentservice-2,cpu,0.004
2023-07-24T14:05:32.181Z,cartservice,cpu,0.002
2023-07-24T14:05:32.638Z,checkoutservice,cpu,0.005
2023-07-24T14:05:33.598Z,paymentservice-3,cpu,0
2023-07-24T14:05:34.096Z,probe-holder,cpu,0.009
2023-07-24T14:05:34.350Z,emailservice,cpu,0.004
2023-07-24T14:05:35.637Z,paymentservice-4,cpu,0.005
2023-07-24T14:05:36.222Z,recommendationservice,cpu,0.01
2023-07-24T14:05:36.258Z,paymentservice-1,cpu,0.002
2023-07-24T14:05:40.222Z,shippingservice,cpu,0.002
2023-07-24T14:05:39.965Z,adservice,cpu,0.003
2023-07-24T14:05:40.241Z,productcatalogservice,cpu,0.001
2023-07-24T14:05:40.308Z,currencyservice,cpu,0.004
2023-07-24T14:05:41.919Z,paymentservice-2,cpu,0.006
2023-07-24T14:05:42.181Z,cartservice,cpu,0.002
2023-07-24T14:05:42.638Z,checkoutservice,cpu,0.003
2023-07-24T14:05:43.598Z,paymentservice-3,cpu,0.005
2023-07-24T14:05:44.096Z,probe-holder,cpu,0.007
2023-07-24T14:05:44.350Z,emailservice,cpu,0.005
2023-07-24T14:05:45.637Z,paymentservice-4,cpu,0.004
2023-07-24T14:05:46.222Z,recommendationservice,cpu,0.004
2023-07-24T14:05:46.258Z,paymentservice-1,cpu,0.005
2023-07-24T14:05:50.222Z,shippingservice,cpu,0.003
2023-07-24T14:05:49.965Z,adservice,cpu,0.004
2023-07-24T14:05:50.241Z,productcatalogservice,cpu,0.004
2023-07-24T14:05:50.308Z,currencyservice,cpu,0.003
2023-07-24T14:05:51.919Z,paymentservice-2,cpu,0.003
2023-07-24T14:05:52.180Z,cartservice,cpu,0.004
2023-07-24T14:05:52.638Z,checkoutservice,cpu,0.002
2023-07-24T14:05:53.598Z,paymentservice-3,cpu,0.005
2023-07-24T14:05:54.096Z,probe-holder,cpu,0.006
2023-07-24T14:05:54.350Z,emailservice,cpu,0.003
2023-07-24T14:05:55.637Z,paymentservice-4,cpu,0.002
2023-07-24T14:05:56.222Z,recommendationservice,cpu,0.005
2023-07-24T14:05:56.258Z,paymentservice-1,cpu,0.004
2023-07-24T14:06:00.222Z,shippingservice,cpu,0.002
2023-07-24T14:05:59.965Z,adservice,cpu,0.005
2023-07-24T14:06:00.308Z,currencyservice,cpu,0.005
2023-07-24T14:06:00.242Z,productcatalogservice,cpu,0.001
2023-07-24T14:06:01.919Z,paymentservice-2,cpu,0.003
2023-07-24T14:06:02.181Z,cartservice,cpu,0.001
2023-07-24T14:06:02.638Z,checkoutservice,cpu,0.003
2023-07-24T14:06:03.598Z,paymentservice-3,cpu,0.002
2023-07-24T14:06:04.096Z,probe-holder,cpu,0.012
2023-07-24T14:06:04.350Z,emailservice,cpu,0.003
2023-07-24T14:06:05.637Z,paymentservice-4,cpu,0.003
2023-07-24T14:06:06.222Z,recommendationservice,cpu,0.006
2023-07-24T14:06:06.258Z,paymentservice-1,cpu,0.001
2023-07-24T14:06:10.222Z,shippingservice,cpu,0.001
2023-07-24T14:06:09.965Z,adservice,cpu,0.007
2023-07-24T14:06:10.241Z,productcatalogservice,cpu,0.002
2023-07-24T14:06:10.308Z,currencyservice,cpu,0.003
2023-07-24T14:06:11.919Z,paymentservice-2,cpu,0.003
2023-07-24T14:06:12.180Z,cartservice,cpu,0.003
2023-07-24T14:06:12.638Z,checkoutservice,cpu,0.002
2023-07-24T14:06:13.598Z,paymentservice-3,cpu,0.003
2023-07-24T14:06:14.098Z,probe-holder,cpu,0.012
2023-07-24T14:06:14.350Z,emailservice,cpu,0.003
2023-07-24T14:06:15.637Z,paymentservice-4,cpu,0.009
2023-07-24T14:06:16.222Z,recommendationservice,cpu,0.004
2023-07-24T14:06:16.258Z,paymentservice-1,cpu,0.002
2023-07-24T14:06:20.222Z,shippingservice,cpu,0.006
2023-07-24T14:06:19.965Z,adservice,cpu,0.004
2023-07-24T14:06:20.308Z,currencyservice,cpu,0.002
2023-07-24T14:06:20.241Z,productcatalogservice,cpu,0.004
2023-07-24T14:06:21.919Z,paymentservice-2,cpu,0.008
2023-07-24T14:06:22.180Z,cartservice,cpu,0.007
2023-07-24T14:06:22.638Z,checkoutservice,cpu,0.001
2023-07-24T14:06:23.598Z,paymentservice-3,cpu,0.003
2023-07-24T14:06:24.096Z,probe-holder,cpu,0.006
2023-07-24T14:06:24.350Z,emailservice,cpu,0.002
2023-07-24T14:06:25.637Z,paymentservice-4,cpu,0.004
2023-07-24T14:06:26.222Z,recommendationservice,cpu,0.005
2023-07-24T14:06:26.258Z,paymentservice-1,cpu,0.01
2023-07-24T14:06:30.222Z,shippingservice,cpu,0.002
2023-07-24T14:06:29.965Z,adservice,cpu,0.005
2023-07-24T14:06:30.308Z,currencyservice,cpu,0.003
2023-07-24T14:06:30.241Z,productcatalogservice,cpu,0.006
2023-07-24T14:06:31.919Z,paymentservice-2,cpu,0.001
2023-07-24T14:06:32.180Z,cartservice,cpu,0.005
2023-07-24T14:06:32.638Z,checkoutservice,cpu,0.004
2023-07-24T14:06:33.598Z,paymentservice-3,cpu,0.002
2023-07-24T14:06:34.096Z,probe-holder,cpu,0.011
2023-07-24T14:06:34.350Z,emailservice,cpu,0.005
2023-07-24T14:06:35.637Z,paymentservice-4,cpu,0.004
2023-07-24T14:06:36.222Z,recommendationservice,cpu,0.006
2023-07-24T14:06:36.258Z,paymentservice-1,cpu,0.002
2023-07-24T14:06:40.222Z,shippingservice,cpu,0.001
2023-07-24T14:06:39.965Z,adservice,cpu,0.006
2023-07-24T14:06:40.241Z,productcatalogservice,cpu,0.002
2023-07-24T14:06:40.308Z,currencyservice,cpu,0.003
2023-07-24T14:06:41.919Z,paymentservice-2,cpu,0.004
2023-07-24T14:06:42.181Z,cartservice,cpu,0.002
2023-07-24T14:06:42.638Z,checkoutservice,cpu,0.002
2023-07-24T14:06:43.598Z,paymentservice-3,cpu,0.004
2023-07-24T14:06:44.096Z,probe-holder,cpu,0.005
2023-07-24T14:06:44.350Z,emailservice,cpu,0.003
2023-07-24T14:06:45.637Z,paymentservice-4,cpu,0.002
2023-07-24T14:06:46.222Z,recommendationservice,cpu,0.007
2023-07-24T14:06:46.258Z,paymentservice-1,cpu,0.003
2023-07-24T14:06:50.222Z,shippingservice,cpu,0.006
2023-07-24T14:06:49.965Z,adservice,cpu,0.005
2023-07-24T14:06:50.241Z,productcatalogservice,cpu,0.002
2023-07-24T14:06:50.308Z,currencyservice,cpu,0.003
2023-07-24T14:06:51.919Z,paymentservice-2,cpu,0.004
2023-07-24T14:06:52.180Z,cartservice,cpu,0.004
2023-07-24T14:06:52.638Z,checkoutservice,cpu,0.002
2023-07-24T14:06:53.598Z,paymentservice-3,cpu,0.005
2023-07-24T14:06:54.096Z,probe-holder,cpu,0.009
2023-07-24T14:06:54.350Z,emailservice,cpu,0.004
2023-07-24T14:06:55.637Z,paymentservice-4,cpu,0.004
2023-07-24T14:06:56.222Z,recommendationservice,cpu,0.008
2023-07-24T14:06:56.258Z,paymentservice-1,cpu,0.003
2023-07-24T14:07:00.222Z,shippingservice,cpu,0
2023-07-24T14:06:59.965Z,adservice,cpu,0.0562
2023-07-24T14:07:00.242Z,productcatalogservice,cpu,0.003
2023-07-24T14:07:00.308Z,currencyservice,cpu,0.0973
2023-07-24T14:07:01.920Z,paymentservice-2,cpu,0.1023
2023-07-24T14:07:02.180Z,cartservice,cpu,0.1331
2023-07-24T14:07:02.638Z,checkoutservice,cpu,0.1121
2023-07-24T14:07:03.598Z,paymentservice-3,cpu,0.1053
2023-07-24T14:07:04.096Z,probe-holder,cpu,0.008
