2023-07-24T13:56:50.219Z,checkoutservice,network_in,897644457
2023-07-24T13:56:48.919Z,currencyservice,network_in,414339951
2023-07-24T13:56:51.511Z,emailservice,network_in,395893616
2023-07-24T13:56:49.506Z,paymentservice-4,network_in,246333146
2023-07-24T13:56:54.399Z,cartservice,network_in,568714412
2023-07-24T13:56:50.256Z,paymentservice-1,network_in,354320319
2023-07-24T13:56:50.234Z,recommendationservice,network_in,346128584
2023-07-24T13:56:49.930Z,shippingservice,network_in,786116641
2023-07-24T13:56:55.655Z,paymentservice-2,network_in,300451749
2023-07-24T13:56:56.161Z,productcatalogservice,network_in,788919838
2023-07-24T13:56:56.456Z,adservice,network_in,705587504
2023-07-24T13:56:57.549Z,probe-holder,network_in,354342363
2023-07-24T13:56:57.971Z,paymentservice-3,network_in,246154713
2023-07-24T13:56:58.919Z,currencyservice,network_in,414344595
2023-07-24T13:56:59.507Z,paymentservice-4,network_in,246346316
2023-07-24T13:56:59.930Z,shippingservice,network_in,786125354
2023-07-24T13:57:00.220Z,checkoutservice,network_in,897653868
2023-07-24T13:57:00.256Z,paymentservice-1,network_in,354328681
2023-07-24T13:57:00.235Z,recommendationservice,network_in,346142297
2023-07-24T13:57:01.511Z,emailservice,network_in,395898725
2023-07-24T13:57:04.400Z,cartservice,network_in,568719319
2023-07-24T13:57:05.655Z,paymentservice-2,network_in,300460219
2023-07-24T13:57:06.161Z,productcatalogservice,network_in,788928880
2023-07-24T13:57:06.457Z,adservice,network_in,705604949
2023-07-24T13:57:07.549Z,probe-holder,network_in,354423051
2023-07-24T13:57:07.971Z,paymentservice-3,network_in,246159067
2023-07-24T13:57:08.919Z,currencyservice,network_in,414352602
2023-07-24T13:57:09.507Z,paymentservice-4,network_in,246351092
2023-07-24T13:57:09.930Z,shippingservice,network_in,786130133
2023-07-24T13:57:10.256Z,paymentservice-1,network_in,354333035
2023-07-24T13:57:10.220Z,checkoutservice,network_in,897662848
2023-07-24T13:57:10.234Z,recommendationservice,network_in,346150841
2023-07-24T13:57:11.511Z,emailservice,network_in,395907224
2023-07-24T13:57:14.400Z,cartservice,network_in,568727876
2023-07-24T13:57:15.656Z,paymentservice-2,network_in,300464573
2023-07-24T13:57:16.161Z,productcatalogservice,network_in,788942399
2023-07-24T13:57:16.457Z,adservice,network_in,705617888
2023-07-24T13:57:17.549Z,probe-holder,network_in,354512050
2023-07-24T13:57:17.971Z,paymentservice-3,network_in,246167115
2023-07-24T13:57:18.919Z,currencyservice,network_in,414365863
2023-07-24T13:57:19.506Z,paymentservice-4,network_in,246359140
2023-07-24T13:57:19.931Z,shippingservice,network_in,786138594
2023-07-24T13:57:20.256Z,paymentservice-1,network_in,354341083
2023-07-24T13:57:20.219Z,checkoutservice,network_in,897668248
2023-07-24T13:57:20.234Z,recommendationservice,network_in,346155669
2023-07-24T13:57:21.511Z,emailservice,network_in,395915728
2023-07-24T13:57:24.400Z,cartservice,network_in,568738029
2023-07-24T13:57:25.655Z,paymentservice-2,network_in,300472707
2023-07-24T13:57:26.161Z,productcatalogservice,network_in,788947295
2023-07-24T13:57:26.457Z,adservice,network_in,705627749
2023-07-24T13:57:27.549Z,probe-holder,network_in,354596634
2023-07-24T13:57:27.971Z,paymentservice-3,network_in,246175163
2023-07-24T13:57:28.919Z,currencyservice,network_in,414370193
2023-07-24T13:57:29.507Z,paymentservice-4,network_in,246367188
2023-07-24T13:57:29.930Z,shippingservice,network_in,786147056
2023-07-24T13:57:30.219Z,checkoutservice,network_in,897677329
2023-07-24T13:57:30.234Z,recommendationservice,network_in,346164639
2023-07-24T13:57:30.256Z,paymentservice-1,network_in,354349553
2023-07-24T13:57:31.511Z,emailservice,network_in,395920639
2023-07-24T13:57:34.400Z,cartservice,network_in,568746578
2023-07-24T13:57:35.656Z,paymentservice-2,network_in,300480755
2023-07-24T13:57:36.161Z,productcatalogservice,network_in,788955914
2023-07-24T13:57:36.457Z,adservice,network_in,705635818
2023-07-24T13:57:37.549Z,probe-holder,network_in,354677387
2023-07-24T13:57:37.971Z,paymentservice-3,network_in,246184475
2023-07-24T13:57:38.919Z,currencyservice,network_in,414378200
2023-07-24T13:57:39.507Z,paymentservice-4,network_in,246371542
2023-07-24T13:57:39.930Z,shippingservice,network_in,786152268
2023-07-24T13:57:40.219Z,checkoutservice,network_in,897686697
2023-07-24T13:57:40.234Z,recommendationservice,network_in,346175610
2023-07-24T13:57:40.256Z,paymentservice-1,network_in,354353907
2023-07-24T13:57:41.511Z,emailservice,network_in,395929566
2023-07-24T13:57:44.400Z,cartservice,network_in,568755130
2023-07-24T13:57:45.655Z,paymentservice-2,network_in,300490114
2023-07-24T13:57:46.161Z,productcatalogservice,network_in,788964536
2023-07-24T13:57:46.457Z,adservice,network_in,705642416
2023-07-24T13:57:47.549Z,probe-holder,network_in,354761921
2023-07-24T13:57:47.971Z,paymentservice-3,network_in,246192523
2023-07-24T13:57:48.919Z,currencyservice,network_in,414386399
2023-07-24T13:57:49.507Z,paymentservice-4,network_in,246379848
2023-07-24T13:57:49.930Z,shippingservice,network_in,786166684
2023-07-24T13:57:50.219Z,checkoutservice,network_in,897697246
2023-07-24T13:57:50.235Z,recommendationservice,network_in,346190544
2023-07-24T13:57:50.256Z,paymentservice-1,network_in,354367154
2023-07-24T13:57:51.511Z,emailservice,network_in,395943157
2023-07-24T13:57:54.400Z,cartservice,network_in,568760283
2023-07-24T13:57:55.656Z,paymentservice-2,network_in,300498420
2023-07-24T13:57:56.161Z,productcatalogservice,network_in,788969687
2023-07-24T13:57:56.457Z,adservice,network_in,705652493
2023-07-24T13:57:57.549Z,probe-holder,network_in,354847208
2023-07-24T13:57:57.971Z,paymentservice-3,network_in,246201243
2023-07-24T13:57:58.919Z,currencyservice,network_in,414390771
2023-07-24T13:57:59.507Z,paymentservice-4,network_in,246392770
2023-07-24T13:57:59.930Z,shippingservice,network_in,786176066
2023-07-24T13:58:00.220Z,checkoutservice,network_in,897707817
2023-07-24T13:58:00.234Z,recommendationservice,network_in,346210307
2023-07-24T13:58:00.256Z,paymentservice-1,network_in,354375202
2023-07-24T13:58:01.511Z,emailservice,network_in,395950153
2023-07-24T13:58:04.400Z,cartservice,network_in,568768840
2023-07-24T13:58:05.656Z,paymentservice-2,network_in,300506890
2023-07-24T13:58:06.161Z,productcatalogservice,network_in,788978729
2023-07-24T13:58:06.457Z,adservice,network_in,705666200
2023-07-24T13:58:07.549Z,probe-holder,network_in,354927776
2023-07-24T13:58:07.971Z,paymentservice-3,network_in,246205597
2023-07-24T13:58:08.919Z,currencyservice,network_in,414398778
2023-07-24T13:58:09.507Z,paymentservice-4,network_in,246397546
2023-07-24T13:58:09.930Z,shippingservice,network_in,786180850
2023-07-24T13:58:10.219Z,checkoutservice,network_in,897716765
2023-07-24T13:58:10.234Z,recommendationservice,network_in,346224808
2023-07-24T13:58:10.256Z,paymentservice-1,network_in,354379556
2023-07-24T13:58:11.511Z,emailservice,network_in,395958653
2023-07-24T13:58:14.400Z,cartservice,network_in,568777390
2023-07-24T13:58:15.655Z,paymentservice-2,network_in,300511244
2023-07-24T13:58:16.161Z,productcatalogservice,network_in,788994397
2023-07-24T13:58:16.457Z,adservice,network_in,705675367
2023-07-24T13:58:17.549Z,probe-holder,network_in,355016777
2023-07-24T13:58:17.971Z,paymentservice-3,network_in,246213645
2023-07-24T13:58:18.920Z,currencyservice,network_in,414411997
2023-07-24T13:58:19.507Z,paymentservice-4,network_in,246405594
2023-07-24T13:58:19.930Z,shippingservice,network_in,786189312
2023-07-24T13:58:20.256Z,paymentservice-1,network_in,354387604
2023-07-24T13:58:20.219Z,checkoutservice,network_in,897722161
2023-07-24T13:58:20.234Z,recommendationservice,network_in,346234871
2023-07-24T13:58:21.511Z,emailservice,network_in,395967153
2023-07-24T13:58:24.400Z,cartservice,network_in,568787609
2023-07-24T13:58:25.656Z,paymentservice-2,network_in,300519292
2023-07-24T13:58:26.161Z,productcatalogservice,network_in,788999299
2023-07-24T13:58:26.457Z,adservice,network_in,705685186
2023-07-24T13:58:27.549Z,probe-holder,network_in,355100624
2023-07-24T13:58:27.971Z,paymentservice-3,network_in,246221693
2023-07-24T13:58:28.919Z,currencyservice,network_in,414416327
2023-07-24T13:58:29.507Z,paymentservice-4,network_in,246413642
2023-07-24T13:58:29.930Z,shippingservice,network_in,786197776
2023-07-24T13:58:30.219Z,checkoutservice,network_in,897731245
2023-07-24T13:58:30.234Z,recommendationservice,network_in,346252263
2023-07-24T13:58:30.256Z,paymentservice-1,network_in,354396074
2023-07-24T13:58:31.511Z,emailservice,network_in,395972065
2023-07-24T13:58:34.400Z,cartservice,network_in,568796162
2023-07-24T13:58:35.655Z,paymentservice-2,network_in,300527340
2023-07-24T13:58:36.161Z,productcatalogservice,network_in,789007917
2023-07-24T13:58:36.457Z,adservice,network_in,705700275
2023-07-24T13:58:37.549Z,probe-holder,network_in,355181287
2023-07-24T13:58:37.971Z,paymentservice-3,network_in,246230919
2023-07-24T13:58:38.919Z,currencyservice,network_in,414424334
2023-07-24T13:58:39.507Z,paymentservice-4,network_in,246417996
2023-07-24T13:58:39.930Z,shippingservice,network_in,786202982
2023-07-24T13:58:40.256Z,paymentservice-1,network_in,354400428
2023-07-24T13:58:40.220Z,checkoutservice,network_in,897740663
2023-07-24T13:58:40.234Z,recommendationservice,network_in,346269017
2023-07-24T13:58:41.511Z,emailservice,network_in,395981056
2023-07-24T13:58:44.400Z,cartservice,network_in,568804711
2023-07-24T13:58:45.655Z,paymentservice-2,network_in,300536567
2023-07-24T13:58:46.161Z,productcatalogservice,network_in,789016535
2023-07-24T13:58:46.457Z,adservice,network_in,705705523
2023-07-24T13:58:47.549Z,probe-holder,network_in,355265491
2023-07-24T13:58:47.971Z,paymentservice-3,network_in,246240461
2023-07-24T13:58:48.919Z,currencyservice,network_in,414432317
2023-07-24T13:58:49.507Z,paymentservice-4,network_in,246426044
2023-07-24T13:58:49.931Z,shippingservice,network_in,786216300
2023-07-24T13:58:50.256Z,paymentservice-1,network_in,354413351
2023-07-24T13:58:50.219Z,checkoutservice,network_in,897750915
2023-07-24T13:58:50.234Z,recommendationservice,network_in,346280164
2023-07-24T13:58:51.511Z,emailservice,network_in,395994392
2023-07-24T13:58:54.400Z,cartservice,network_in,568809612
2023-07-24T13:58:55.655Z,paymentservice-2,network_in,300544615
2023-07-24T13:58:56.161Z,productcatalogservice,network_in,789021448
2023-07-24T13:58:56.457Z,adservice,network_in,705713494
2023-07-24T13:58:57.549Z,probe-holder,network_in,355350224
2023-07-24T13:58:57.971Z,paymentservice-3,network_in,246248931
2023-07-24T13:58:58.919Z,currencyservice,network_in,414436647
2023-07-24T13:58:59.507Z,paymentservice-4,network_in,246438966
2023-07-24T13:58:59.930Z,shippingservice,network_in,786229056
2023-07-24T13:59:00.219Z,checkoutservice,network_in,897759991
2023-07-24T13:59:00.234Z,recommendationservice,network_in,346300029
2023-07-24T13:59:00.256Z,paymentservice-1,network_in,354421399
2023-07-24T13:59:01.511Z,emailservice,network_in,395999241
2023-07-24T13:59:04.400Z,cartservice,network_in,568818172
2023-07-24T13:59:05.655Z,paymentservice-2,network_in,300553085
2023-07-24T13:59:06.161Z,productcatalogservice,network_in,789031153
2023-07-24T13:59:06.457Z,adservice,network_in,705721489
2023-07-24T13:59:07.549Z,probe-holder,network_in,355430700
2023-07-24T13:59:07.971Z,paymentservice-3,network_in,246253285
2023-07-24T13:59:08.919Z,currencyservice,network_in,414444654
2023-07-24T13:59:09.507Z,paymentservice-4,network_in,246443742
2023-07-24T13:59:09.930Z,shippingservice,network_in,786233929
2023-07-24T13:59:10.219Z,checkoutservice,network_in,897768944
2023-07-24T13:59:10.234Z,recommendationservice,network_in,346314353
2023-07-24T13:59:10.256Z,paymentservice-1,network_in,354425753
2023-07-24T13:59:11.511Z,emailservice,network_in,396011172
2023-07-24T13:59:14.400Z,cartservice,network_in,568826724
2023-07-24T13:59:15.655Z,paymentservice-2,network_in,300557439
2023-07-24T13:59:16.161Z,productcatalogservice,network_in,789046602
2023-07-24T13:59:16.457Z,adservice,network_in,705730656
2023-07-24T13:59:17.549Z,probe-holder,network_in,355519805
2023-07-24T13:59:17.971Z,paymentservice-3,network_in,246261333
2023-07-24T13:59:18.919Z,currencyservice,network_in,414457873
2023-07-24T13:59:19.507Z,paymentservice-4,network_in,246451912
2023-07-24T13:59:19.930Z,shippingservice,network_in,786242461
2023-07-24T13:59:20.219Z,checkoutservice,network_in,897774386
2023-07-24T13:59:20.235Z,recommendationservice,network_in,346327736
2023-07-24T13:59:20.256Z,paymentservice-1,network_in,354433801
2023-07-24T13:59:21.511Z,emailservice,network_in,396019679
2023-07-24T13:59:24.400Z,cartservice,network_in,568836873
2023-07-24T13:59:25.655Z,paymentservice-2,network_in,300565487
2023-07-24T13:59:26.161Z,productcatalogservice,network_in,789051502
2023-07-24T13:59:26.457Z,adservice,network_in,705738585
2023-07-24T13:59:27.549Z,probe-holder,network_in,355603944
2023-07-24T13:59:27.971Z,paymentservice-3,network_in,246269381
2023-07-24T13:59:28.919Z,currencyservice,network_in,414462245
2023-07-24T13:59:29.507Z,paymentservice-4,network_in,246460046
2023-07-24T13:59:29.930Z,shippingservice,network_in,786250925
2023-07-24T13:59:30.220Z,checkoutservice,network_in,897783465
2023-07-24T13:59:30.234Z,recommendationservice,network_in,346336710
2023-07-24T13:59:30.256Z,paymentservice-1,network_in,354442271
2023-07-24T13:59:31.511Z,emailservice,network_in,396024591
2023-07-24T13:59:34.400Z,cartservice,network_in,568845428
2023-07-24T13:59:35.655Z,paymentservice-2,network_in,300573535
2023-07-24T13:59:36.161Z,productcatalogservice,network_in,789060118
2023-07-24T13:59:36.457Z,adservice,network_in,705746622
2023-07-24T13:59:37.549Z,probe-holder,network_in,355684466
2023-07-24T13:59:37.971Z,paymentservice-3,network_in,246278607
2023-07-24T13:59:38.919Z,currencyservice,network_in,414470252
2023-07-24T13:59:39.507Z,paymentservice-4,network_in,246464400
2023-07-24T13:59:39.930Z,shippingservice,network_in,786256185
2023-07-24T13:59:40.219Z,checkoutservice,network_in,897792832
2023-07-24T13:59:40.234Z,recommendationservice,network_in,346341606
2023-07-24T13:59:40.256Z,paymentservice-1,network_in,354446625
2023-07-24T13:59:41.511Z,emailservice,network_in,396033579
2023-07-24T13:59:44.400Z,cartservice,network_in,568853987
2023-07-24T13:59:45.655Z,paymentservice-2,network_in,300582762
2023-07-24T13:59:46.161Z,productcatalogservice,network_in,789068734
2023-07-24T13:59:46.457Z,adservice,network_in,705751404
2023-07-24T13:59:47.549Z,probe-holder,network_in,355768670
2023-07-24T13:59:47.971Z,paymentservice-3,network_in,246286655
2023-07-24T13:59:48.919Z,currencyservice,network_in,414478193
2023-07-24T13:59:49.506Z,paymentservice-4,network_in,246472448
2023-07-24T13:59:49.931Z,shippingservice,network_in,786269507
2023-07-24T13:59:50.219Z,checkoutservice,network_in,897803088
2023-07-24T13:59:50.234Z,recommendationservice,network_in,346352260
2023-07-24T13:59:50.256Z,paymentservice-1,network_in,354459548
2023-07-24T13:59:51.511Z,emailservice,network_in,396046915
2023-07-24T13:59:54.400Z,cartservice,network_in,568858886
2023-07-24T13:59:55.655Z,paymentservice-2,network_in,300590810
2023-07-24T13:59:56.161Z,productcatalogservice,network_in,789073633
2023-07-24T13:59:56.457Z,adservice,network_in,705759333
2023-07-24T13:59:57.549Z,probe-holder,network_in,355853192
2023-07-24T13:59:57.971Z,paymentservice-3,network_in,246295125
2023-07-24T13:59:58.919Z,currencyservice,network_in,414482565
2023-07-24T13:59:59.507Z,paymentservice-4,network_in,246485370
2023-07-24T13:59:59.930Z,shippingservice,network_in,786274294
2023-07-24T14:00:00.219Z,checkoutservice,network_in,897812174
2023-07-24T14:00:00.234Z,recommendationservice,network_in,346375799
2023-07-24T14:00:00.256Z,paymentservice-1,network_in,354467596
2023-07-24T14:00:01.511Z,emailservice,network_in,396051822
2023-07-24T14:00:04.400Z,cartservice,network_in,568867442
2023-07-24T14:00:05.655Z,paymentservice-2,network_in,300599280
2023-07-24T14:00:06.161Z,productcatalogservice,network_in,789082675
2023-07-24T14:00:06.457Z,adservice,network_in,705767328
2023-07-24T14:00:07.549Z,probe-holder,network_in,355933833
2023-07-24T14:00:07.971Z,paymentservice-3,network_in,246299479
2023-07-24T14:00:08.920Z,currencyservice,network_in,414490572
2023-07-24T14:00:09.507Z,paymentservice-4,network_in,246490146
2023-07-24T14:00:09.930Z,shippingservice,network_in,786282757
2023-07-24T14:00:10.219Z,checkoutservice,network_in,897821165
2023-07-24T14:00:10.235Z,recommendationservice,network_in,346380829
2023-07-24T14:00:10.256Z,paymentservice-1,network_in,354471950
2023-07-24T14:00:11.511Z,emailservice,network_in,396060340
2023-07-24T14:00:14.400Z,cartservice,network_in,568875998
2023-07-24T14:00:15.655Z,paymentservice-2,network_in,300603634
2023-07-24T14:00:16.161Z,productcatalogservice,network_in,789096264
2023-07-24T14:00:16.457Z,adservice,network_in,705776561
2023-07-24T14:00:17.549Z,probe-holder,network_in,356022860
2023-07-24T14:00:17.971Z,paymentservice-3,network_in,246307527
2023-07-24T14:00:18.920Z,currencyservice,network_in,414502581
2023-07-24T14:00:19.506Z,paymentservice-4,network_in,246498194
2023-07-24T14:00:19.931Z,shippingservice,network_in,786291213
2023-07-24T14:00:20.219Z,checkoutservice,network_in,897826568
2023-07-24T14:00:20.234Z,recommendationservice,network_in,346389375
2023-07-24T14:00:20.256Z,paymentservice-1,network_in,354479998
2023-07-24T14:00:21.511Z,emailservice,network_in,396065182
2023-07-24T14:00:24.400Z,cartservice,network_in,568886152
2023-07-24T14:00:25.655Z,paymentservice-2,network_in,300611682
2023-07-24T14:00:26.161Z,productcatalogservice,network_in,789101160
2023-07-24T14:00:26.457Z,adservice,network_in,705784532
2023-07-24T14:00:27.549Z,probe-holder,network_in,356106882
2023-07-24T14:00:27.971Z,paymentservice-3,network_in,246315575
2023-07-24T14:00:28.919Z,currencyservice,network_in,414508121
2023-07-24T14:00:29.507Z,paymentservice-4,network_in,246506242
2023-07-24T14:00:29.930Z,shippingservice,network_in,786296069
2023-07-24T14:00:30.219Z,checkoutservice,network_in,897835643
2023-07-24T14:00:30.234Z,recommendationservice,network_in,346398340
2023-07-24T14:00:30.256Z,paymentservice-1,network_in,354488468
2023-07-24T14:00:31.511Z,emailservice,network_in,396073684
2023-07-24T14:00:34.400Z,cartservice,network_in,568894702
2023-07-24T14:00:35.655Z,paymentservice-2,network_in,300619730
2023-07-24T14:00:36.161Z,productcatalogservice,network_in,789109785
2023-07-24T14:00:36.457Z,adservice,network_in,705792593
2023-07-24T14:00:37.549Z,probe-holder,network_in,356187480
2023-07-24T14:00:37.971Z,paymentservice-3,network_in,246324801
2023-07-24T14:00:38.920Z,currencyservice,network_in,414516104
2023-07-24T14:00:39.507Z,paymentservice-4,network_in,246510662
2023-07-24T14:00:39.931Z,shippingservice,network_in,786304957
2023-07-24T14:00:40.256Z,paymentservice-1,network_in,354492822
2023-07-24T14:00:40.219Z,checkoutservice,network_in,897845009
2023-07-24T14:00:40.234Z,recommendationservice,network_in,346403166
2023-07-24T14:00:41.511Z,emailservice,network_in,396082686
2023-07-24T14:00:44.400Z,cartservice,network_in,568903257
2023-07-24T14:00:45.655Z,paymentservice-2,network_in,300628957
2023-07-24T14:00:46.161Z,productcatalogservice,network_in,789118404
2023-07-24T14:00:46.457Z,adservice,network_in,705797375
2023-07-24T14:00:47.549Z,probe-holder,network_in,356271728
2023-07-24T14:00:47.971Z,paymentservice-3,network_in,246332849
2023-07-24T14:00:48.920Z,currencyservice,network_in,414520434
2023-07-24T14:00:49.507Z,paymentservice-4,network_in,246518710
2023-07-24T14:00:49.930Z,shippingservice,network_in,786318355
2023-07-24T14:00:50.220Z,checkoutservice,network_in,897855314
2023-07-24T14:00:50.234Z,recommendationservice,network_in,346411780
2023-07-24T14:00:50.256Z,paymentservice-1,network_in,354505745
2023-07-24T14:00:51.511Z,emailservice,network_in,396092362
2023-07-24T14:00:54.400Z,cartservice,network_in,568908159
2023-07-24T14:00:55.655Z,paymentservice-2,network_in,300637005
2023-07-24T14:00:56.161Z,productcatalogservice,network_in,789123305
2023-07-24T14:00:56.457Z,adservice,network_in,705805304
2023-07-24T14:00:57.549Z,probe-holder,network_in,356356256
2023-07-24T14:00:57.971Z,paymentservice-3,network_in,246341319
2023-07-24T14:00:58.919Z,currencyservice,network_in,414528441
2023-07-24T14:00:59.507Z,paymentservice-4,network_in,246531632
2023-07-24T14:00:59.930Z,shippingservice,network_in,786323138
2023-07-24T14:01:00.219Z,checkoutservice,network_in,897864387
2023-07-24T14:01:00.234Z,recommendationservice,network_in,346425229
2023-07-24T14:01:00.256Z,paymentservice-1,network_in,354513793
2023-07-24T14:01:01.511Z,emailservice,network_in,396100863
2023-07-24T14:01:04.400Z,cartservice,network_in,568916715
2023-07-24T14:01:05.655Z,paymentservice-2,network_in,300645475
2023-07-24T14:01:06.161Z,productcatalogservice,network_in,789132345
2023-07-24T14:01:06.459Z,adservice,network_in,705813341
2023-07-24T14:01:07.549Z,probe-holder,network_in,356436674
2023-07-24T14:01:07.971Z,paymentservice-3,network_in,246345673
2023-07-24T14:01:08.919Z,currencyservice,network_in,414536424
2023-07-24T14:01:09.507Z,paymentservice-4,network_in,246536408
2023-07-24T14:01:09.930Z,shippingservice,network_in,786331609
2023-07-24T14:01:10.220Z,checkoutservice,network_in,897873331
2023-07-24T14:01:10.234Z,recommendationservice,network_in,346430055
2023-07-24T14:01:10.256Z,paymentservice-1,network_in,354518213
2023-07-24T14:01:11.511Z,emailservice,network_in,396109425
2023-07-24T14:01:14.400Z,cartservice,network_in,568925267
2023-07-24T14:01:15.655Z,paymentservice-2,network_in,300649829
2023-07-24T14:01:16.161Z,productcatalogservice,network_in,789145871
2023-07-24T14:01:16.457Z,adservice,network_in,705822508
2023-07-24T14:01:17.549Z,probe-holder,network_in,356525556
2023-07-24T14:01:17.971Z,paymentservice-3,network_in,246353721
2023-07-24T14:01:18.920Z,currencyservice,network_in,414545610
2023-07-24T14:01:19.507Z,paymentservice-4,network_in,246544456
2023-07-24T14:01:19.930Z,shippingservice,network_in,786340136
2023-07-24T14:01:20.219Z,checkoutservice,network_in,897878739
2023-07-24T14:01:20.235Z,recommendationservice,network_in,346438607
2023-07-24T14:01:20.256Z,paymentservice-1,network_in,354526261
2023-07-24T14:01:21.511Z,emailservice,network_in,396114271
2023-07-24T14:01:24.400Z,cartservice,network_in,568935417
2023-07-24T14:01:25.655Z,paymentservice-2,network_in,300657877
2023-07-24T14:01:26.161Z,productcatalogservice,network_in,789150767
2023-07-24T14:01:26.457Z,adservice,network_in,705830437
2023-07-24T14:01:27.549Z,probe-holder,network_in,356609478
2023-07-24T14:01:27.971Z,paymentservice-3,network_in,246361769
2023-07-24T14:01:28.919Z,currencyservice,network_in,414554039
2023-07-24T14:01:29.507Z,paymentservice-4,network_in,246552504
2023-07-24T14:01:29.930Z,shippingservice,network_in,786344983
2023-07-24T14:01:30.219Z,checkoutservice,network_in,897887690
2023-07-24T14:01:30.234Z,recommendationservice,network_in,346447571
2023-07-24T14:01:30.256Z,paymentservice-1,network_in,354534731
2023-07-24T14:01:31.511Z,emailservice,network_in,396122771
2023-07-24T14:01:34.400Z,cartservice,network_in,568943968
2023-07-24T14:01:35.655Z,paymentservice-2,network_in,300665925
2023-07-24T14:01:36.161Z,productcatalogservice,network_in,789159387
2023-07-24T14:01:36.457Z,adservice,network_in,705838432
2023-07-24T14:01:37.549Z,probe-holder,network_in,356689968
2023-07-24T14:01:37.971Z,paymentservice-3,network_in,246370995
2023-07-24T14:01:38.919Z,currencyservice,network_in,414562108
2023-07-24T14:01:39.506Z,paymentservice-4,network_in,246556924
2023-07-24T14:01:39.930Z,shippingservice,network_in,786353868
2023-07-24T14:01:40.219Z,checkoutservice,network_in,897897234
2023-07-24T14:01:40.234Z,recommendationservice,network_in,346452396
2023-07-24T14:01:40.256Z,paymentservice-1,network_in,354539085
2023-07-24T14:01:41.511Z,emailservice,network_in,396131693
2023-07-24T14:01:44.400Z,cartservice,network_in,568952527
2023-07-24T14:01:45.655Z,paymentservice-2,network_in,300675238
2023-07-24T14:01:46.161Z,productcatalogservice,network_in,789168005
2023-07-24T14:01:46.457Z,adservice,network_in,705843214
2023-07-24T14:01:47.549Z,probe-holder,network_in,356774004
2023-07-24T14:01:47.971Z,paymentservice-3,network_in,246379043
2023-07-24T14:01:48.920Z,currencyservice,network_in,414566438
2023-07-24T14:01:49.507Z,paymentservice-4,network_in,246564972
2023-07-24T14:01:49.930Z,shippingservice,network_in,786367188
2023-07-24T14:01:50.219Z,checkoutservice,network_in,897907490
2023-07-24T14:01:50.234Z,recommendationservice,network_in,346461011
2023-07-24T14:01:50.256Z,paymentservice-1,network_in,354552008
2023-07-24T14:01:51.511Z,emailservice,network_in,396141373
2023-07-24T14:01:54.400Z,cartservice,network_in,568957434
2023-07-24T14:01:55.655Z,paymentservice-2,network_in,300683286
2023-07-24T14:01:56.161Z,productcatalogservice,network_in,789172903
2023-07-24T14:01:56.457Z,adservice,network_in,705851185
2023-07-24T14:01:57.549Z,probe-holder,network_in,356858469
2023-07-24T14:01:57.971Z,paymentservice-3,network_in,246387513
2023-07-24T14:01:58.919Z,currencyservice,network_in,414574445
2023-07-24T14:01:59.506Z,paymentservice-4,network_in,246577960
2023-07-24T14:01:59.931Z,shippingservice,network_in,786371979
2023-07-24T14:02:00.219Z,checkoutservice,network_in,897916440
2023-07-24T14:02:00.234Z,recommendationservice,network_in,346474461
2023-07-24T14:02:00.256Z,paymentservice-1,network_in,354560122
2023-07-24T14:02:01.511Z,emailservice,network_in,396149877
2023-07-24T14:02:04.400Z,cartservice,network_in,568966070
2023-07-24T14:02:05.655Z,paymentservice-2,network_in,300691756
2023-07-24T14:02:06.161Z,productcatalogservice,network_in,789182031
2023-07-24T14:02:06.457Z,adservice,network_in,705859180
2023-07-24T14:02:07.549Z,probe-holder,network_in,356938797
2023-07-24T14:02:07.971Z,paymentservice-3,network_in,246391867
2023-07-24T14:02:08.919Z,currencyservice,network_in,414582514
2023-07-24T14:02:09.507Z,paymentservice-4,network_in,246582736
2023-07-24T14:02:09.930Z,shippingservice,network_in,786380510
2023-07-24T14:02:10.219Z,checkoutservice,network_in,897925517
2023-07-24T14:02:10.234Z,recommendationservice,network_in,346479287
2023-07-24T14:02:10.256Z,paymentservice-1,network_in,354564476
2023-07-24T14:02:11.511Z,emailservice,network_in,396158380
2023-07-24T14:02:14.400Z,cartservice,network_in,568974625
2023-07-24T14:02:15.655Z,paymentservice-2,network_in,300696110
2023-07-24T14:02:16.161Z,productcatalogservice,network_in,789195558
2023-07-24T14:02:16.457Z,adservice,network_in,705868347
2023-07-24T14:02:17.549Z,probe-holder,network_in,357027571
2023-07-24T14:02:17.971Z,paymentservice-3,network_in,246399915
2023-07-24T14:02:18.919Z,currencyservice,network_in,414591700
2023-07-24T14:02:19.507Z,paymentservice-4,network_in,246590784
2023-07-24T14:02:19.931Z,shippingservice,network_in,786388974
2023-07-24T14:02:20.219Z,checkoutservice,network_in,897931003
2023-07-24T14:02:20.234Z,recommendationservice,network_in,346487924
2023-07-24T14:02:20.256Z,paymentservice-1,network_in,354572524
2023-07-24T14:02:21.511Z,emailservice,network_in,396163299
2023-07-24T14:02:24.400Z,cartservice,network_in,568984781
2023-07-24T14:02:25.655Z,paymentservice-2,network_in,300704158
2023-07-24T14:02:26.161Z,productcatalogservice,network_in,789200457
2023-07-24T14:02:26.457Z,adservice,network_in,705876276
2023-07-24T14:02:27.549Z,probe-holder,network_in,357111827
2023-07-24T14:02:27.971Z,paymentservice-3,network_in,246407963
2023-07-24T14:02:28.919Z,currencyservice,network_in,414600129
2023-07-24T14:02:29.507Z,paymentservice-4,network_in,246598832
2023-07-24T14:02:29.930Z,shippingservice,network_in,786393826
2023-07-24T14:02:30.219Z,checkoutservice,network_in,897939993
2023-07-24T14:02:30.234Z,recommendationservice,network_in,346496894
2023-07-24T14:02:30.256Z,paymentservice-1,network_in,354582884
2023-07-24T14:02:31.511Z,emailservice,network_in,396171797
2023-07-24T14:02:34.400Z,cartservice,network_in,568993332
2023-07-24T14:02:35.655Z,paymentservice-2,network_in,300712206
2023-07-24T14:02:36.161Z,productcatalogservice,network_in,789209071
2023-07-24T14:02:36.457Z,adservice,network_in,705884313
2023-07-24T14:02:37.549Z,probe-holder,network_in,357192133
2023-07-24T14:02:37.971Z,paymentservice-3,network_in,246417189
2023-07-24T14:02:38.919Z,currencyservice,network_in,414608112
2023-07-24T14:02:39.507Z,paymentservice-4,network_in,246603338
2023-07-24T14:02:39.930Z,shippingservice,network_in,786402713
2023-07-24T14:02:40.219Z,checkoutservice,network_in,897949487
2023-07-24T14:02:40.234Z,recommendationservice,network_in,346501720
2023-07-24T14:02:40.256Z,paymentservice-1,network_in,354587238
2023-07-24T14:02:41.511Z,emailservice,network_in,396180723
2023-07-24T14:02:44.400Z,cartservice,network_in,569001883
2023-07-24T14:02:45.655Z,paymentservice-2,network_in,300721433
2023-07-24T14:02:46.161Z,productcatalogservice,network_in,789217689
2023-07-24T14:02:46.459Z,adservice,network_in,705889095
2023-07-24T14:02:47.549Z,probe-holder,network_in,357276186
2023-07-24T14:02:47.971Z,paymentservice-3,network_in,246425237
2023-07-24T14:02:48.919Z,currencyservice,network_in,414612442
2023-07-24T14:02:49.507Z,paymentservice-4,network_in,246611452
2023-07-24T14:02:49.930Z,shippingservice,network_in,786416032
2023-07-24T14:02:50.220Z,checkoutservice,network_in,897959738
2023-07-24T14:02:50.235Z,recommendationservice,network_in,346510268
2023-07-24T14:02:50.256Z,paymentservice-1,network_in,354600161
2023-07-24T14:02:51.511Z,emailservice,network_in,396190401
2023-07-24T14:02:54.400Z,cartservice,network_in,569006789
2023-07-24T14:02:55.655Z,paymentservice-2,network_in,300729481
2023-07-24T14:02:56.161Z,productcatalogservice,network_in,789222589
2023-07-24T14:02:56.457Z,adservice,network_in,705897024
2023-07-24T14:02:57.549Z,probe-holder,network_in,357360769
2023-07-24T14:02:57.971Z,paymentservice-3,network_in,246433707
2023-07-24T14:02:58.919Z,currencyservice,network_in,414620449
2023-07-24T14:02:59.507Z,paymentservice-4,network_in,246624374
2023-07-24T14:02:59.930Z,shippingservice,network_in,786423024
2023-07-24T14:03:00.219Z,checkoutservice,network_in,897968683
2023-07-24T14:03:00.234Z,recommendationservice,network_in,346523720
2023-07-24T14:03:00.256Z,paymentservice-1,network_in,354608209
2023-07-24T14:03:01.511Z,emailservice,network_in,396200185
2023-07-24T14:03:04.400Z,cartservice,network_in,569015344
2023-07-24T14:03:05.655Z,paymentservice-2,network_in,300737951
2023-07-24T14:03:06.161Z,productcatalogservice,network_in,789231785
2023-07-24T14:03:06.457Z,adservice,network_in,705905019
2023-07-24T14:03:07.549Z,probe-holder,network_in,357441079
2023-07-24T14:03:07.971Z,paymentservice-3,network_in,246438061
2023-07-24T14:03:08.919Z,currencyservice,network_in,414628432
2023-07-24T14:03:09.507Z,paymentservice-4,network_in,246629216
2023-07-24T14:03:09.930Z,shippingservice,network_in,786431483
2023-07-24T14:03:10.219Z,checkoutservice,network_in,897977805
2023-07-24T14:03:10.234Z,recommendationservice,network_in,346528543
2023-07-24T14:03:10.256Z,paymentservice-1,network_in,354612563
2023-07-24T14:03:11.511Z,emailservice,network_in,396208685
2023-07-24T14:03:14.400Z,cartservice,network_in,569023893
2023-07-24T14:03:15.656Z,paymentservice-2,network_in,300742305
2023-07-24T14:03:16.161Z,productcatalogservice,network_in,789246515
2023-07-24T14:03:16.457Z,adservice,network_in,705914120
2023-07-24T14:03:17.549Z,probe-holder,network_in,357530001
2023-07-24T14:03:17.971Z,paymentservice-3,network_in,246446109
2023-07-24T14:03:18.919Z,currencyservice,network_in,414637618
2023-07-24T14:03:19.506Z,paymentservice-4,network_in,246637264
2023-07-24T14:03:19.930Z,shippingservice,network_in,786439947
2023-07-24T14:03:20.219Z,checkoutservice,network_in,897983201
2023-07-24T14:03:20.234Z,recommendationservice,network_in,346537090
2023-07-24T14:03:20.256Z,paymentservice-1,network_in,354620611
2023-07-24T14:03:21.511Z,emailservice,network_in,396213533
2023-07-24T14:03:24.400Z,cartservice,network_in,569034045
2023-07-24T14:03:25.655Z,paymentservice-2,network_in,300750353
2023-07-24T14:03:26.161Z,productcatalogservice,network_in,789251488
2023-07-24T14:03:26.457Z,adservice,network_in,705922157
2023-07-24T14:03:27.549Z,probe-holder,network_in,357614159
2023-07-24T14:03:27.971Z,paymentservice-3,network_in,246454157
2023-07-24T14:03:28.919Z,currencyservice,network_in,414646047
2023-07-24T14:03:29.507Z,paymentservice-4,network_in,246645312
2023-07-24T14:03:29.930Z,shippingservice,network_in,786444800
2023-07-24T14:03:30.256Z,paymentservice-1,network_in,354629081
2023-07-24T14:03:30.219Z,checkoutservice,network_in,897992149
2023-07-24T14:03:30.234Z,recommendationservice,network_in,346546060
2023-07-24T14:03:31.512Z,emailservice,network_in,396222035
2023-07-24T14:03:34.400Z,cartservice,network_in,569042685
2023-07-24T14:03:35.655Z,paymentservice-2,network_in,300758401
2023-07-24T14:03:36.161Z,productcatalogservice,network_in,789260111
2023-07-24T14:03:36.457Z,adservice,network_in,705930152
2023-07-24T14:03:37.549Z,probe-holder,network_in,357694863
2023-07-24T14:03:37.971Z,paymentservice-3,network_in,246463383
2023-07-24T14:03:38.919Z,currencyservice,network_in,414654096
2023-07-24T14:03:39.507Z,paymentservice-4,network_in,246649732
2023-07-24T14:03:39.930Z,shippingservice,network_in,786453682
2023-07-24T14:03:40.219Z,checkoutservice,network_in,897997972
2023-07-24T14:03:40.234Z,recommendationservice,network_in,346550881
2023-07-24T14:03:40.256Z,paymentservice-1,network_in,354633435
2023-07-24T14:03:41.511Z,emailservice,network_in,396230954
2023-07-24T14:03:44.400Z,cartservice,network_in,569051239
2023-07-24T14:03:45.655Z,paymentservice-2,network_in,300768061
2023-07-24T14:03:46.161Z,productcatalogservice,network_in,789268728
2023-07-24T14:03:46.457Z,adservice,network_in,705934868
2023-07-24T14:03:47.549Z,probe-holder,network_in,357778726
2023-07-24T14:03:47.971Z,paymentservice-3,network_in,246471431
2023-07-24T14:03:48.919Z,currencyservice,network_in,414658426
2023-07-24T14:03:49.507Z,paymentservice-4,network_in,246657846
2023-07-24T14:03:49.930Z,shippingservice,network_in,786467062
2023-07-24T14:03:50.220Z,checkoutservice,network_in,898011900
2023-07-24T14:03:50.234Z,recommendationservice,network_in,346559521
2023-07-24T14:03:50.256Z,paymentservice-1,network_in,354646358
2023-07-24T14:03:51.511Z,emailservice,network_in,396240638
2023-07-24T14:03:54.400Z,cartservice,network_in,569056138
2023-07-24T14:03:55.655Z,paymentservice-2,network_in,300776109
2023-07-24T14:03:56.161Z,productcatalogservice,network_in,789273630
2023-07-24T14:03:56.457Z,adservice,network_in,705942863
2023-07-24T14:03:57.549Z,probe-holder,network_in,357863294
2023-07-24T14:03:57.971Z,paymentservice-3,network_in,246479901
2023-07-24T14:03:58.919Z,currencyservice,network_in,414666433
2023-07-24T14:03:59.507Z,paymentservice-4,network_in,246667074
2023-07-24T14:03:59.930Z,shippingservice,network_in,786471918
2023-07-24T14:04:00.220Z,checkoutservice,network_in,898020883
2023-07-24T14:04:00.234Z,recommendationservice,network_in,346572971
2023-07-24T14:04:00.256Z,paymentservice-1,network_in,354650778
2023-07-24T14:04:01.511Z,emailservice,network_in,396249143
2023-07-24T14:04:04.400Z,cartservice,network_in,569064703
2023-07-24T14:04:05.655Z,paymentservice-2,network_in,300784579
2023-07-24T14:04:06.161Z,productcatalogservice,network_in,789282669
2023-07-24T14:04:06.457Z,adservice,network_in,705950858
2023-07-24T14:04:07.549Z,probe-holder,network_in,357943576
2023-07-24T14:04:07.971Z,paymentservice-3,network_in,246484255
2023-07-24T14:04:08.919Z,currencyservice,network_in,414674416
2023-07-24T14:04:09.506Z,paymentservice-4,network_in,246675544
2023-07-24T14:04:09.930Z,shippingservice,network_in,786480377
2023-07-24T14:04:10.220Z,checkoutservice,network_in,898026288
2023-07-24T14:04:10.234Z,recommendationservice,network_in,346577797
2023-07-24T14:04:10.256Z,paymentservice-1,network_in,354658826
2023-07-24T14:04:11.511Z,emailservice,network_in,396257643
2023-07-24T14:04:14.401Z,cartservice,network_in,569073253
2023-07-24T14:04:15.655Z,paymentservice-2,network_in,300788999
2023-07-24T14:04:16.161Z,productcatalogservice,network_in,789292471
2023-07-24T14:04:16.457Z,adservice,network_in,705960001
2023-07-24T14:04:17.549Z,probe-holder,network_in,358032461
2023-07-24T14:04:17.971Z,paymentservice-3,network_in,246492303
2023-07-24T14:04:18.919Z,currencyservice,network_in,414683602
2023-07-24T14:04:19.507Z,paymentservice-4,network_in,246683592
2023-07-24T14:04:19.930Z,shippingservice,network_in,786488839
2023-07-24T14:04:20.220Z,checkoutservice,network_in,898035360
2023-07-24T14:04:20.234Z,recommendationservice,network_in,346586338
2023-07-24T14:04:20.256Z,paymentservice-1,network_in,354666874
2023-07-24T14:04:21.511Z,emailservice,network_in,396262487
2023-07-24T14:04:24.400Z,cartservice,network_in,569083471
2023-07-24T14:04:25.655Z,paymentservice-2,network_in,300797047
2023-07-24T14:04:26.161Z,productcatalogservice,network_in,789301175
2023-07-24T14:04:26.457Z,adservice,network_in,705968062
2023-07-24T14:04:27.549Z,probe-holder,network_in,358116661
2023-07-24T14:04:27.971Z,paymentservice-3,network_in,246500351
2023-07-24T14:04:28.919Z,currencyservice,network_in,414692031
2023-07-24T14:04:29.507Z,paymentservice-4,network_in,246687946
2023-07-24T14:04:29.930Z,shippingservice,network_in,786493626
2023-07-24T14:04:30.219Z,checkoutservice,network_in,898044310
2023-07-24T14:04:30.234Z,recommendationservice,network_in,346595306
2023-07-24T14:04:30.256Z,paymentservice-1,network_in,354671650
2023-07-24T14:04:31.511Z,emailservice,network_in,396270988
2023-07-24T14:04:34.400Z,cartservice,network_in,569092023
2023-07-24T14:04:35.655Z,paymentservice-2,network_in,300805095
2023-07-24T14:04:36.161Z,productcatalogservice,network_in,789309794
2023-07-24T14:04:36.457Z,adservice,network_in,705976057
2023-07-24T14:04:37.549Z,probe-holder,network_in,358197336
2023-07-24T14:04:37.971Z,paymentservice-3,network_in,246509577
2023-07-24T14:04:38.919Z,currencyservice,network_in,414700014
2023-07-24T14:04:39.507Z,paymentservice-4,network_in,246695994
2023-07-24T14:04:39.930Z,shippingservice,network_in,786502510
2023-07-24T14:04:40.219Z,checkoutservice,network_in,898050180
2023-07-24T14:04:40.234Z,recommendationservice,network_in,346600137
2023-07-24T14:04:40.256Z,paymentservice-1,network_in,354679698
2023-07-24T14:04:41.511Z,emailservice,network_in,396279912
2023-07-24T14:04:44.400Z,cartservice,network_in,569100580
2023-07-24T14:04:45.655Z,paymentservice-2,network_in,300814322
2023-07-24T14:04:46.161Z,productcatalogservice,network_in,789314690
2023-07-24T14:04:46.457Z,adservice,network_in,705980773
2023-07-24T14:04:47.549Z,probe-holder,network_in,358281634
2023-07-24T14:04:47.971Z,paymentservice-3,network_in,246517625
2023-07-24T14:04:48.919Z,currencyservice,network_in,414704344
2023-07-24T14:04:49.507Z,paymentservice-4,network_in,246704108
2023-07-24T14:04:49.930Z,shippingservice,network_in,786515828
2023-07-24T14:04:50.220Z,checkoutservice,network_in,898064114
2023-07-24T14:04:50.234Z,recommendationservice,network_in,346608679
2023-07-24T14:04:50.256Z,paymentservice-1,network_in,354692621
2023-07-24T14:04:51.511Z,emailservice,network_in,396289589
2023-07-24T14:04:54.400Z,cartservice,network_in,569105480
2023-07-24T14:04:55.655Z,paymentservice-2,network_in,300822370
2023-07-24T14:04:56.161Z,productcatalogservice,network_in,789323383
2023-07-24T14:04:56.457Z,adservice,network_in,705988810
2023-07-24T14:04:57.549Z,probe-holder,network_in,358366359
2023-07-24T14:04:57.971Z,paymentservice-3,network_in,246526095
2023-07-24T14:04:58.919Z,currencyservice,network_in,414712351
2023-07-24T14:04:59.507Z,paymentservice-4,network_in,246713336
2023-07-24T14:04:59.930Z,shippingservice,network_in,786520612
2023-07-24T14:05:00.219Z,checkoutservice,network_in,898073123
2023-07-24T14:05:00.234Z,recommendationservice,network_in,346622129
2023-07-24T14:05:00.256Z,paymentservice-1,network_in,354696975
2023-07-24T14:05:01.511Z,emailservice,network_in,396298150
2023-07-24T14:05:04.400Z,cartservice,network_in,569114036
2023-07-24T14:05:05.656Z,paymentservice-2,network_in,300830840
2023-07-24T14:05:06.161Z,productcatalogservice,network_in,789332492
2023-07-24T14:05:06.457Z,adservice,network_in,705993256
2023-07-24T14:05:07.549Z,probe-holder,network_in,358446727
2023-07-24T14:05:07.971Z,paymentservice-3,network_in,246530449
2023-07-24T14:05:08.919Z,currencyservice,network_in,414720292
2023-07-24T14:05:09.506Z,paymentservice-4,network_in,246721806
2023-07-24T14:05:09.931Z,shippingservice,network_in,786529081
2023-07-24T14:05:10.220Z,checkoutservice,network_in,898078528
2023-07-24T14:05:10.234Z,recommendationservice,network_in,346626961
2023-07-24T14:05:10.256Z,paymentservice-1,network_in,354705023
2023-07-24T14:05:11.511Z,emailservice,network_in,396306655
2023-07-24T14:05:14.400Z,cartservice,network_in,569118940
2023-07-24T14:05:15.655Z,paymentservice-2,network_in,300835194
2023-07-24T14:05:16.161Z,productcatalogservice,network_in,789342292
2023-07-24T14:05:16.457Z,adservice,network_in,706006425
2023-07-24T14:05:17.549Z,probe-holder,network_in,358535677
2023-07-24T14:05:17.971Z,paymentservice-3,network_in,246538497
2023-07-24T14:05:18.919Z,currencyservice,network_in,414729520
2023-07-24T14:05:19.506Z,paymentservice-4,network_in,246729940
2023-07-24T14:05:19.930Z,shippingservice,network_in,786537540
2023-07-24T14:05:20.256Z,paymentservice-1,network_in,354713071
2023-07-24T14:05:20.220Z,checkoutservice,network_in,898087609
2023-07-24T14:05:20.235Z,recommendationservice,network_in,346635504
2023-07-24T14:05:21.511Z,emailservice,network_in,396311498
2023-07-24T14:05:24.400Z,cartservice,network_in,569132806
2023-07-24T14:05:25.655Z,paymentservice-2,network_in,300843242
2023-07-24T14:05:26.162Z,productcatalogservice,network_in,789350910
2023-07-24T14:05:26.457Z,adservice,network_in,706014420
2023-07-24T14:05:27.549Z,probe-holder,network_in,358619705
2023-07-24T14:05:27.974Z,paymentservice-3,network_in,246545512
2023-07-24T14:05:28.919Z,currencyservice,network_in,414737949
2023-07-24T14:05:29.507Z,paymentservice-4,network_in,246734294
2023-07-24T14:05:29.930Z,shippingservice,network_in,786542328
2023-07-24T14:05:30.219Z,checkoutservice,network_in,898096594
2023-07-24T14:05:30.234Z,recommendationservice,network_in,346644474
2023-07-24T14:05:30.256Z,paymentservice-1,network_in,354717913
2023-07-24T14:05:31.511Z,emailservice,network_in,396320005
2023-07-24T14:05:34.400Z,cartservice,network_in,569141356
2023-07-24T14:05:35.655Z,paymentservice-2,network_in,300847596
2023-07-24T14:05:36.161Z,productcatalogservice,network_in,789359533
2023-07-24T14:05:36.457Z,adservice,network_in,706018780
2023-07-24T14:05:37.549Z,probe-holder,network_in,358700124
2023-07-24T14:05:37.971Z,paymentservice-3,network_in,246555771
2023-07-24T14:05:38.919Z,currencyservice,network_in,414745890
2023-07-24T14:05:39.507Z,paymentservice-4,network_in,246742342
2023-07-24T14:05:39.930Z,shippingservice,network_in,786551213
2023-07-24T14:05:40.256Z,paymentservice-1,network_in,354725961
2023-07-24T14:05:40.219Z,checkoutservice,network_in,898102499
2023-07-24T14:05:40.234Z,recommendationservice,network_in,346649302
2023-07-24T14:05:41.511Z,emailservice,network_in,396328933
2023-07-24T14:05:44.400Z,cartservice,network_in,569146267
2023-07-24T14:05:45.655Z,paymentservice-2,network_in,300860517
2023-07-24T14:05:46.161Z,productcatalogservice,network_in,789364429
2023-07-24T14:05:46.457Z,adservice,network_in,706027173
2023-07-24T14:05:47.549Z,probe-holder,network_in,358784367
2023-07-24T14:05:47.971Z,paymentservice-3,network_in,246563819
2023-07-24T14:05:48.919Z,currencyservice,network_in,414750220
2023-07-24T14:05:49.507Z,paymentservice-4,network_in,246750390
2023-07-24T14:05:49.930Z,shippingservice,network_in,786564526
2023-07-24T14:05:50.219Z,checkoutservice,network_in,898116432
2023-07-24T14:05:50.234Z,recommendationservice,network_in,346657849
2023-07-24T14:05:50.256Z,paymentservice-1,network_in,354738884
2023-07-24T14:05:51.511Z,emailservice,network_in,396338607
2023-07-24T14:05:54.400Z,cartservice,network_in,569154817
2023-07-24T14:05:55.655Z,paymentservice-2,network_in,300868565
2023-07-24T14:05:56.161Z,productcatalogservice,network_in,789373047
2023-07-24T14:05:56.457Z,adservice,network_in,706035168
2023-07-24T14:05:57.549Z,probe-holder,network_in,358869064
2023-07-24T14:05:57.971Z,paymentservice-3,network_in,246568595
2023-07-24T14:05:58.919Z,currencyservice,network_in,414758227
2023-07-24T14:05:59.507Z,paymentservice-4,network_in,246759618
2023-07-24T14:05:59.930Z,shippingservice,network_in,786569312
2023-07-24T14:06:00.220Z,checkoutservice,network_in,898125375
2023-07-24T14:06:00.234Z,recommendationservice,network_in,346671382
2023-07-24T14:06:00.256Z,paymentservice-1,network_in,354743238
2023-07-24T14:06:01.511Z,emailservice,network_in,396347109
2023-07-24T14:06:04.400Z,cartservice,network_in,569163367
2023-07-24T14:06:05.655Z,paymentservice-2,network_in,300872919
2023-07-24T14:06:06.161Z,productcatalogservice,network_in,789382171
2023-07-24T14:06:06.457Z,adservice,network_in,706039528
2023-07-24T14:06:07.549Z,probe-holder,network_in,358949561
2023-07-24T14:06:07.971Z,paymentservice-3,network_in,246576643
2023-07-24T14:06:08.919Z,currencyservice,network_in,414766210
2023-07-24T14:06:09.507Z,paymentservice-4,network_in,246768088
2023-07-24T14:06:09.930Z,shippingservice,network_in,786577778
2023-07-24T14:06:10.219Z,checkoutservice,network_in,898130815
2023-07-24T14:06:10.234Z,recommendationservice,network_in,346676214
2023-07-24T14:06:10.256Z,paymentservice-1,network_in,354751286
2023-07-24T14:06:11.511Z,emailservice,network_in,396355678
2023-07-24T14:06:14.400Z,cartservice,network_in,569168270
2023-07-24T14:06:15.655Z,paymentservice-2,network_in,300881475
2023-07-24T14:06:16.161Z,productcatalogservice,network_in,789391978
2023-07-24T14:06:16.457Z,adservice,network_in,706052264
2023-07-24T14:06:17.549Z,probe-holder,network_in,359038299
2023-07-24T14:06:17.971Z,paymentservice-3,network_in,246584691
2023-07-24T14:06:18.919Z,currencyservice,network_in,414775396
2023-07-24T14:06:19.507Z,paymentservice-4,network_in,246776136
2023-07-24T14:06:19.931Z,shippingservice,network_in,786586236
2023-07-24T14:06:20.219Z,checkoutservice,network_in,898139890
2023-07-24T14:06:20.235Z,recommendationservice,network_in,346684826
2023-07-24T14:06:20.256Z,paymentservice-1,network_in,354759334
2023-07-24T14:06:21.511Z,emailservice,network_in,396360521
2023-07-24T14:06:24.400Z,cartservice,network_in,569182073
2023-07-24T14:06:25.655Z,paymentservice-2,network_in,300889523
2023-07-24T14:06:26.161Z,productcatalogservice,network_in,789400592
2023-07-24T14:06:26.457Z,adservice,network_in,706060301
2023-07-24T14:06:27.549Z,probe-holder,network_in,359122468
2023-07-24T14:06:27.971Z,paymentservice-3,network_in,246589045
2023-07-24T14:06:28.919Z,currencyservice,network_in,414783825
2023-07-24T14:06:29.507Z,paymentservice-4,network_in,246780556
2023-07-24T14:06:29.930Z,shippingservice,network_in,786591023
2023-07-24T14:06:30.219Z,checkoutservice,network_in,898148837
2023-07-24T14:06:30.234Z,recommendationservice,network_in,346693793
2023-07-24T14:06:30.256Z,paymentservice-1,network_in,354764110
2023-07-24T14:06:31.511Z,emailservice,network_in,396369085
2023-07-24T14:06:34.400Z,cartservice,network_in,569190624
2023-07-24T14:06:35.655Z,paymentservice-2,network_in,300893877
2023-07-24T14:06:36.161Z,productcatalogservice,network_in,789409212
2023-07-24T14:06:36.457Z,adservice,network_in,706064661
2023-07-24T14:06:37.549Z,probe-holder,network_in,359202980
2023-07-24T14:06:37.971Z,paymentservice-3,network_in,246603246
2023-07-24T14:06:38.920Z,currencyservice,network_in,414791766
2023-07-24T14:06:39.507Z,paymentservice-4,network_in,246788670
2023-07-24T14:06:39.930Z,shippingservice,network_in,786599975
2023-07-24T14:06:40.219Z,checkoutservice,network_in,898154744
2023-07-24T14:06:40.234Z,recommendationservice,network_in,346698617
2023-07-24T14:06:40.256Z,paymentservice-1,network_in,354772158
2023-07-24T14:06:41.511Z,emailservice,network_in,396378009
2023-07-24T14:06:44.400Z,cartservice,network_in,569195528
2023-07-24T14:06:45.655Z,paymentservice-2,network_in,300906864
2023-07-24T14:06:46.161Z,productcatalogservice,network_in,789414117
2023-07-24T14:06:46.457Z,adservice,network_in,706073012
2023-07-24T14:06:47.549Z,probe-holder,network_in,359287081
2023-07-24T14:06:47.971Z,paymentservice-3,network_in,246611294
2023-07-24T14:06:48.919Z,currencyservice,network_in,414796138
2023-07-24T14:06:49.507Z,paymentservice-4,network_in,246796718
2023-07-24T14:06:49.931Z,shippingservice,network_in,786613362
2023-07-24T14:06:50.219Z,checkoutservice,network_in,898168744
2023-07-24T14:06:50.234Z,recommendationservice,network_in,346707167
2023-07-24T14:06:50.256Z,paymentservice-1,network_in,354785081
2023-07-24T14:06:51.513Z,emailservice,network_in,396387689
2023-07-24T14:06:54.400Z,cartservice,network_in,569204082
2023-07-24T14:06:55.656Z,paymentservice-2,network_in,300914912
2023-07-24T14:06:56.161Z,productcatalogservice,network_in,789422797
2023-07-24T14:06:56.458Z,adservice,network_in,706081007
2023-07-24T14:06:57.549Z,probe-holder,network_in,359368086
2023-07-24T14:06:57.971Z,paymentservice-3,network_in,246616070
2023-07-24T14:06:58.919Z,currencyservice,network_in,414804211
2023-07-24T14:06:59.507Z,paymentservice-4,network_in,246805946
2023-07-24T14:06:59.930Z,shippingservice,network_in,786618146
2023-07-24T14:07:00.219Z,checkoutservice,network_in,898397848
2023-07-24T14:07:00.234Z,recommendationservice,network_in,346720623
2023-07-24T14:07:00.256Z,paymentservice-1,network_in,354789435
2023-07-24T14:07:01.511Z,emailservice,network_in,396617867
