timestamp,key,run_id,resource,metric,value
2022-03-31T11:43:57.864Z,FULLY_SHARED_SIDECAR_1-2-1-1,1,target-1,network_out,0.018453598022460938
2022-03-31T11:54:14.292Z,FULLY_SHARED_SIDECAR_1-2-1-1,2,target-1,network_out,0.01856517791748047
2022-03-31T12:04:21.442Z,FULLY_SHARED_SIDECAR_1-2-1-1,3,target-1,network_out,0.026323318481445312
2022-03-31T13:46:43.713Z,FULLY_SHARED_SIDECAR_1-2-1-16,1,target-1,network_out,0.3272705078125
2022-03-31T13:57:16.006Z,FULLY_SHARED_SIDECAR_1-2-1-16,2,target-1,network_out,0.3380565643310547
2022-03-31T14:07:50.759Z,FULLY_SHARED_SIDECAR_1-2-1-16,3,target-1,network_out,0.3330268859863281
2022-03-31T12:14:29.779Z,FULLY_SHARED_SIDECAR_1-2-1-2,1,target-1,network_out,0.03701972961425781
2022-03-31T12:24:38.162Z,FULLY_SHARED_SIDECAR_1-2-1-2,2,target-1,network_out,0.04204559326171875
2022-03-31T12:34:48.108Z,FULLY_SHARED_SIDECAR_1-2-1-2,3,target-1,network_out,0.05272865295410156
2022-03-31T12:44:56.796Z,FULLY_SHARED_SIDECAR_1-2-1-4,1,target-1,network_out,0.07235145568847656
2022-03-31T12:55:09.282Z,FULLY_SHARED_SIDECAR_1-2-1-4,2,target-1,network_out,0.08029747009277344
2022-03-31T13:05:21.609Z,FULLY_SHARED_SIDECAR_1-2-1-4,3,target-1,network_out,0.08792877197265625
2022-03-31T13:15:34.500Z,FULLY_SHARED_SIDECAR_1-2-1-8,1,target-1,network_out,0.1576395034790039
2022-03-31T13:25:55.291Z,FULLY_SHARED_SIDECAR_1-2-1-8,2,target-1,network_out,0.1760578155517578
2022-03-31T13:36:14.619Z,FULLY_SHARED_SIDECAR_1-2-1-8,3,target-1,network_out,0.16804790496826172
