timestamp,key,run_id,resource,metric,value
2022-04-01T09:03:22.866Z,RESERVED_UNIT_1-1-1-1,1,target-1,network_in,0.013661384582519531
2022-04-01T09:13:39.324Z,RESERVED_UNIT_1-1-1-1,2,target-1,network_in,0.014374732971191406
2022-04-01T09:23:37.589Z,RESERVED_UNIT_1-1-1-1,3,target-1,network_in,0.013821601867675781
2022-04-01T11:06:08.329Z,RESERVED_UNIT_1-1-1-16,1,target-1,network_in,0.31645870208740234
2022-04-01T11:16:43.302Z,RESERVED_UNIT_1-1-1-16,2,target-1,network_in,0.3107328414916992
2022-04-01T11:27:17.664Z,RESERVED_UNIT_1-1-1-16,3,target-1,network_in,0.2984933853149414
2022-04-01T09:33:54.563Z,RESERVED_UNIT_1-1-1-2,1,target-1,network_in,0.04174995422363281
2022-04-01T09:44:02.488Z,RESERVED_UNIT_1-1-1-2,2,target-1,network_in,0.02738189697265625
2022-04-01T09:54:11.281Z,RESERVED_UNIT_1-1-1-2,3,target-1,network_in,0.02680206298828125
2022-04-01T10:04:21.459Z,RESERVED_UNIT_1-1-1-4,1,target-1,network_in,0.09329891204833984
2022-04-01T10:14:34.215Z,RESERVED_UNIT_1-1-1-4,2,target-1,network_in,0.06931114196777344
2022-04-01T10:24:47.510Z,RESERVED_UNIT_1-1-1-4,3,target-1,network_in,0.08078384399414062
2022-04-01T10:34:59.665Z,RESERVED_UNIT_1-1-1-8,1,target-1,network_in,0.13862228393554688
2022-04-01T10:45:19.230Z,RESERVED_UNIT_1-1-1-8,2,target-1,network_in,0.164459228515625
2022-04-01T10:55:38.790Z,RESERVED_UNIT_1-1-1-8,3,target-1,network_in,0.1700429916381836
