2023-07-04T18:28:08.971Z,shippingservice,memory,6844416
2023-07-04T18:28:09.004Z,frontend,memory,13025280
2023-07-04T18:28:08.971Z,redis-cart,memory,7958528
2023-07-04T18:28:09.004Z,productcatalogservice,memory,10661888
2023-07-04T18:28:09.004Z,recommendationservice,memory,41414656
2023-07-04T18:28:08.971Z,emailservice,memory,42950656
2023-07-04T18:28:08.971Z,adservice,memory,74346496
2023-07-04T18:28:08.971Z,paymentservice,memory,19693568
2023-07-04T18:28:08.969Z,currencyservice,memory,21385216
2023-07-04T18:28:08.969Z,cartservice,memory,28160000
2023-07-04T18:28:09.004Z,checkoutservice,memory,11051008
2023-07-04T18:28:19.318Z,cartservice,memory,28160000
2023-07-04T18:28:19.335Z,redis-cart,memory,7970816
2023-07-04T18:28:19.335Z,paymentservice,memory,19083264
2023-07-04T18:28:19.335Z,shippingservice,memory,6905856
2023-07-04T18:28:19.335Z,adservice,memory,74346496
2023-07-04T18:28:19.335Z,emailservice,memory,42958848
2023-07-04T18:28:19.318Z,currencyservice,memory,22351872
2023-07-04T18:28:19.513Z,productcatalogservice,memory,10518528
2023-07-04T18:28:19.513Z,checkoutservice,memory,11051008
2023-07-04T18:28:19.513Z,recommendationservice,memory,41426944
2023-07-04T18:28:19.513Z,frontend,memory,13119488
2023-07-04T18:28:29.318Z,cartservice,memory,28205056
2023-07-04T18:28:29.318Z,currencyservice,memory,22351872
2023-07-04T18:28:29.336Z,emailservice,memory,42954752
2023-07-04T18:28:29.336Z,redis-cart,memory,7970816
2023-07-04T18:28:29.336Z,adservice,memory,75137024
2023-07-04T18:28:29.336Z,paymentservice,memory,19083264
2023-07-04T18:28:29.336Z,shippingservice,memory,7401472
2023-07-04T18:28:29.512Z,productcatalogservice,memory,10518528
2023-07-04T18:28:29.512Z,checkoutservice,memory,11051008
2023-07-04T18:28:29.512Z,recommendationservice,memory,41426944
2023-07-04T18:28:29.512Z,frontend,memory,13119488
2023-07-04T18:28:39.335Z,emailservice,memory,42954752
2023-07-04T18:28:39.318Z,currencyservice,memory,22487040
2023-07-04T18:28:39.318Z,cartservice,memory,28205056
2023-07-04T18:28:39.335Z,paymentservice,memory,19083264
2023-07-04T18:28:39.335Z,shippingservice,memory,7401472
2023-07-04T18:28:39.335Z,redis-cart,memory,7970816
2023-07-04T18:28:39.335Z,adservice,memory,75137024
2023-07-04T18:28:39.513Z,recommendationservice,memory,41426944
2023-07-04T18:28:39.513Z,checkoutservice,memory,11010048
2023-07-04T18:28:39.513Z,frontend,memory,13234176
2023-07-04T18:28:39.513Z,productcatalogservice,memory,11091968
2023-07-04T18:28:49.318Z,cartservice,memory,28205056
2023-07-04T18:28:49.335Z,emailservice,memory,42954752
2023-07-04T18:28:49.318Z,currencyservice,memory,22487040
2023-07-04T18:28:49.335Z,shippingservice,memory,7434240
2023-07-04T18:28:49.335Z,adservice,memory,75976704
2023-07-04T18:28:49.335Z,paymentservice,memory,19664896
2023-07-04T18:28:49.335Z,redis-cart,memory,7970816
2023-07-04T18:28:49.512Z,recommendationservice,memory,41426944
2023-07-04T18:28:49.512Z,frontend,memory,13234176
2023-07-04T18:28:49.512Z,checkoutservice,memory,11010048
2023-07-04T18:28:49.512Z,productcatalogservice,memory,11091968
2023-07-04T18:28:59.336Z,paymentservice,memory,19664896
2023-07-04T18:28:59.336Z,redis-cart,memory,8114176
2023-07-04T18:28:59.336Z,adservice,memory,78016512
2023-07-04T18:28:59.319Z,cartservice,memory,28909568
2023-07-04T18:28:59.319Z,currencyservice,memory,22675456
2023-07-04T18:28:59.336Z,shippingservice,memory,7716864
2023-07-04T18:28:59.336Z,emailservice,memory,42954752
2023-07-04T18:28:59.513Z,checkoutservice,memory,11145216
2023-07-04T18:28:59.513Z,recommendationservice,memory,41443328
2023-07-04T18:28:59.513Z,frontend,memory,15454208
2023-07-04T18:28:59.513Z,productcatalogservice,memory,11034624
2023-07-04T18:29:09.335Z,paymentservice,memory,19664896
2023-07-04T18:29:09.318Z,cartservice,memory,28209152
2023-07-04T18:29:09.335Z,emailservice,memory,42954752
2023-07-04T18:29:09.335Z,redis-cart,memory,8114176
2023-07-04T18:29:09.335Z,shippingservice,memory,7716864
2023-07-04T18:29:09.335Z,adservice,memory,78016512
2023-07-04T18:29:09.318Z,currencyservice,memory,23195648
2023-07-04T18:29:09.513Z,frontend,memory,15876096
2023-07-04T18:29:09.513Z,recommendationservice,memory,41443328
2023-07-04T18:29:09.513Z,checkoutservice,memory,11169792
2023-07-04T18:29:09.513Z,productcatalogservice,memory,11034624
2023-07-04T18:29:19.319Z,currencyservice,memory,23011328
2023-07-04T18:29:19.335Z,shippingservice,memory,7983104
2023-07-04T18:29:19.319Z,cartservice,memory,29859840
2023-07-04T18:29:19.335Z,redis-cart,memory,8130560
2023-07-04T18:29:19.335Z,paymentservice,memory,19439616
2023-07-04T18:29:19.335Z,adservice,memory,79060992
2023-07-04T18:29:19.335Z,emailservice,memory,42954752
2023-07-04T18:29:19.512Z,frontend,memory,15876096
2023-07-04T18:29:19.512Z,recommendationservice,memory,41443328
2023-07-04T18:29:19.512Z,checkoutservice,memory,11169792
2023-07-04T18:29:19.512Z,productcatalogservice,memory,11034624
2023-07-04T18:29:29.319Z,cartservice,memory,30511104
2023-07-04T18:29:29.335Z,redis-cart,memory,8130560
2023-07-04T18:29:29.335Z,paymentservice,memory,19439616
2023-07-04T18:29:29.335Z,adservice,memory,79060992
2023-07-04T18:29:29.335Z,emailservice,memory,42954752
2023-07-04T18:29:29.335Z,shippingservice,memory,7983104
2023-07-04T18:29:29.319Z,currencyservice,memory,22978560
2023-07-04T18:29:29.512Z,productcatalogservice,memory,10936320
2023-07-04T18:29:29.512Z,frontend,memory,15720448
2023-07-04T18:29:29.512Z,recommendationservice,memory,41435136
2023-07-04T18:29:29.512Z,checkoutservice,memory,11149312
2023-07-04T18:29:39.336Z,shippingservice,memory,8126464
2023-07-04T18:29:39.336Z,paymentservice,memory,19623936
2023-07-04T18:29:39.319Z,currencyservice,memory,22978560
2023-07-04T18:29:39.336Z,emailservice,memory,42954752
2023-07-04T18:29:39.336Z,redis-cart,memory,7995392
2023-07-04T18:29:39.336Z,adservice,memory,80097280
2023-07-04T18:29:39.319Z,cartservice,memory,30511104
2023-07-04T18:29:39.513Z,checkoutservice,memory,11149312
2023-07-04T18:29:39.513Z,frontend,memory,16003072
2023-07-04T18:29:39.513Z,recommendationservice,memory,41549824
2023-07-04T18:29:39.513Z,productcatalogservice,memory,10977280
2023-07-04T18:29:49.319Z,currencyservice,memory,22978560
2023-07-04T18:29:49.336Z,adservice,memory,80539648
2023-07-04T18:29:49.319Z,cartservice,memory,30511104
2023-07-04T18:29:49.336Z,redis-cart,memory,8130560
2023-07-04T18:29:49.336Z,paymentservice,memory,20086784
2023-07-04T18:29:49.336Z,emailservice,memory,42958848
2023-07-04T18:29:49.336Z,shippingservice,memory,8011776
2023-07-04T18:29:49.513Z,recommendationservice,memory,41553920
2023-07-04T18:29:49.513Z,frontend,memory,15966208
2023-07-04T18:29:49.513Z,checkoutservice,memory,11247616
2023-07-04T18:29:49.513Z,productcatalogservice,memory,10977280
2023-07-04T18:29:59.335Z,adservice,memory,80539648
2023-07-04T18:29:59.319Z,currencyservice,memory,23859200
2023-07-04T18:29:59.335Z,redis-cart,memory,8130560
2023-07-04T18:29:59.335Z,emailservice,memory,42958848
2023-07-04T18:29:59.335Z,paymentservice,memory,20086784
2023-07-04T18:29:59.335Z,shippingservice,memory,8011776
2023-07-04T18:29:59.319Z,cartservice,memory,30568448
2023-07-04T18:29:59.513Z,recommendationservice,memory,41553920
2023-07-04T18:29:59.513Z,checkoutservice,memory,11247616
2023-07-04T18:29:59.513Z,frontend,memory,15966208
2023-07-04T18:29:59.513Z,productcatalogservice,memory,10977280
2023-07-04T18:30:09.335Z,shippingservice,memory,8114176
2023-07-04T18:30:09.335Z,adservice,memory,80539648
2023-07-04T18:30:09.335Z,paymentservice,memory,20242432
2023-07-04T18:30:09.319Z,cartservice,memory,32088064
2023-07-04T18:30:09.335Z,emailservice,memory,42971136
2023-07-04T18:30:09.335Z,redis-cart,memory,8130560
2023-07-04T18:30:09.319Z,currencyservice,memory,23982080
2023-07-04T18:30:09.512Z,checkoutservice,memory,11272192
2023-07-04T18:30:09.512Z,recommendationservice,memory,41566208
2023-07-04T18:30:09.512Z,frontend,memory,16101376
2023-07-04T18:30:09.512Z,productcatalogservice,memory,11083776
2023-07-04T18:30:19.318Z,currencyservice,memory,23982080
2023-07-04T18:30:19.335Z,paymentservice,memory,19656704
2023-07-04T18:30:19.335Z,emailservice,memory,42987520
2023-07-04T18:30:19.335Z,adservice,memory,81027072
2023-07-04T18:30:19.318Z,cartservice,memory,32088064
2023-07-04T18:30:19.335Z,redis-cart,memory,8134656
2023-07-04T18:30:19.335Z,shippingservice,memory,8151040
2023-07-04T18:30:19.512Z,frontend,memory,16101376
2023-07-04T18:30:19.512Z,recommendationservice,memory,41648128
2023-07-04T18:30:19.512Z,checkoutservice,memory,11255808
2023-07-04T18:30:19.512Z,productcatalogservice,memory,10952704
2023-07-04T18:30:29.335Z,emailservice,memory,42987520
2023-07-04T18:30:29.335Z,adservice,memory,81027072
2023-07-04T18:30:29.335Z,paymentservice,memory,19656704
2023-07-04T18:30:29.319Z,currencyservice,memory,27267072
2023-07-04T18:30:29.335Z,redis-cart,memory,8134656
2023-07-04T18:30:29.335Z,shippingservice,memory,8151040
2023-07-04T18:30:29.319Z,cartservice,memory,30949376
2023-07-04T18:30:29.512Z,recommendationservice,memory,41648128
2023-07-04T18:30:29.512Z,productcatalogservice,memory,11022336
2023-07-04T18:30:29.512Z,frontend,memory,16195584
2023-07-04T18:30:29.512Z,checkoutservice,memory,11264000
2023-07-04T18:30:39.336Z,redis-cart,memory,7999488
2023-07-04T18:30:39.336Z,emailservice,memory,42987520
2023-07-04T18:30:39.336Z,adservice,memory,81027072
2023-07-04T18:30:39.336Z,paymentservice,memory,19795968
2023-07-04T18:30:39.336Z,shippingservice,memory,8159232
2023-07-04T18:30:39.319Z,currencyservice,memory,26255360
2023-07-04T18:30:39.319Z,cartservice,memory,31719424
2023-07-04T18:30:39.512Z,frontend,memory,16195584
2023-07-04T18:30:39.512Z,recommendationservice,memory,41582592
2023-07-04T18:30:39.512Z,checkoutservice,memory,11264000
2023-07-04T18:30:39.512Z,productcatalogservice,memory,11022336
2023-07-04T18:30:49.336Z,shippingservice,memory,8163328
2023-07-04T18:30:49.319Z,cartservice,memory,31719424
2023-07-04T18:30:49.319Z,currencyservice,memory,26255360
2023-07-04T18:30:49.336Z,paymentservice,memory,20205568
2023-07-04T18:30:49.336Z,emailservice,memory,44888064
2023-07-04T18:30:49.336Z,adservice,memory,81616896
2023-07-04T18:30:49.336Z,redis-cart,memory,7991296
2023-07-04T18:30:49.513Z,frontend,memory,15941632
2023-07-04T18:30:49.513Z,checkoutservice,memory,11276288
2023-07-04T18:30:49.513Z,recommendationservice,memory,41574400
2023-07-04T18:30:49.513Z,productcatalogservice,memory,11165696
2023-07-04T18:30:59.336Z,emailservice,memory,44920832
2023-07-04T18:30:59.336Z,shippingservice,memory,10670080
2023-07-04T18:30:59.336Z,adservice,memory,81616896
2023-07-04T18:30:59.336Z,redis-cart,memory,8122368
2023-07-04T18:30:59.318Z,cartservice,memory,31719424
2023-07-04T18:30:59.318Z,currencyservice,memory,26255360
2023-07-04T18:30:59.336Z,paymentservice,memory,19603456
2023-07-04T18:30:59.513Z,productcatalogservice,memory,11055104
2023-07-04T18:30:59.513Z,recommendationservice,memory,41574400
2023-07-04T18:30:59.513Z,frontend,memory,16232448
2023-07-04T18:30:59.513Z,checkoutservice,memory,11276288
2023-07-04T18:31:09.319Z,currencyservice,memory,26742784
2023-07-04T18:31:09.319Z,cartservice,memory,32202752
2023-07-04T18:31:09.336Z,redis-cart,memory,7995392
2023-07-04T18:31:09.336Z,paymentservice,memory,19947520
2023-07-04T18:31:09.336Z,emailservice,memory,44920832
2023-07-04T18:31:09.336Z,shippingservice,memory,10674176
2023-07-04T18:31:09.336Z,adservice,memory,81817600
2023-07-04T18:31:09.513Z,productcatalogservice,memory,11055104
2023-07-04T18:31:09.513Z,checkoutservice,memory,11276288
2023-07-04T18:31:09.513Z,frontend,memory,16232448
2023-07-04T18:31:09.513Z,recommendationservice,memory,41574400
2023-07-04T18:31:19.318Z,currencyservice,memory,26742784
2023-07-04T18:31:19.336Z,redis-cart,memory,7995392
2023-07-04T18:31:19.318Z,cartservice,memory,32202752
2023-07-04T18:31:19.336Z,adservice,memory,81817600
2023-07-04T18:31:19.336Z,paymentservice,memory,19947520
2023-07-04T18:31:19.336Z,shippingservice,memory,10674176
2023-07-04T18:31:19.336Z,emailservice,memory,44920832
2023-07-04T18:31:19.512Z,recommendationservice,memory,41574400
2023-07-04T18:31:19.512Z,productcatalogservice,memory,11235328
2023-07-04T18:31:19.512Z,frontend,memory,16502784
2023-07-04T18:31:19.512Z,checkoutservice,memory,11284480
2023-07-04T18:31:29.336Z,adservice,memory,82247680
2023-07-04T18:31:29.336Z,emailservice,memory,44920832
2023-07-04T18:31:29.318Z,cartservice,memory,33193984
2023-07-04T18:31:29.336Z,redis-cart,memory,8126464
2023-07-04T18:31:29.336Z,paymentservice,memory,20070400
2023-07-04T18:31:29.336Z,shippingservice,memory,10690560
2023-07-04T18:31:29.318Z,currencyservice,memory,27852800
2023-07-04T18:31:29.513Z,recommendationservice,memory,41586688
2023-07-04T18:31:29.513Z,frontend,memory,16502784
2023-07-04T18:31:29.513Z,productcatalogservice,memory,11177984
2023-07-04T18:31:29.513Z,checkoutservice,memory,11284480
2023-07-04T18:31:39.335Z,adservice,memory,82247680
2023-07-04T18:31:39.319Z,cartservice,memory,33193984
2023-07-04T18:31:39.335Z,redis-cart,memory,8126464
2023-07-04T18:31:39.335Z,paymentservice,memory,20070400
2023-07-04T18:31:39.335Z,shippingservice,memory,10690560
2023-07-04T18:31:39.335Z,emailservice,memory,44920832
2023-07-04T18:31:39.319Z,currencyservice,memory,27852800
2023-07-04T18:31:39.513Z,productcatalogservice,memory,11177984
2023-07-04T18:31:39.513Z,recommendationservice,memory,41586688
2023-07-04T18:31:39.513Z,checkoutservice,memory,11284480
2023-07-04T18:31:39.513Z,frontend,memory,16502784
2023-07-04T18:31:49.319Z,currencyservice,memory,27852800
2023-07-04T18:31:49.335Z,adservice,memory,82366464
2023-07-04T18:31:49.319Z,cartservice,memory,33193984
2023-07-04T18:31:49.335Z,paymentservice,memory,20283392
2023-07-04T18:31:49.335Z,shippingservice,memory,10797056
2023-07-04T18:31:49.335Z,emailservice,memory,44920832
2023-07-04T18:31:49.335Z,redis-cart,memory,7991296
2023-07-04T18:31:49.512Z,checkoutservice,memory,11284480
2023-07-04T18:31:49.512Z,recommendationservice,memory,41594880
2023-07-04T18:31:49.512Z,frontend,memory,16175104
2023-07-04T18:31:49.512Z,productcatalogservice,memory,11182080
2023-07-04T18:31:59.336Z,adservice,memory,82489344
2023-07-04T18:31:59.336Z,shippingservice,memory,10797056
2023-07-04T18:31:59.336Z,emailservice,memory,44920832
2023-07-04T18:31:59.319Z,cartservice,memory,33378304
2023-07-04T18:31:59.319Z,currencyservice,memory,28110848
2023-07-04T18:31:59.336Z,redis-cart,memory,7987200
2023-07-04T18:31:59.336Z,paymentservice,memory,19521536
2023-07-04T18:31:59.512Z,productcatalogservice,memory,11206656
2023-07-04T18:31:59.512Z,recommendationservice,memory,41594880
2023-07-04T18:31:59.512Z,frontend,memory,16613376
2023-07-04T18:31:59.512Z,checkoutservice,memory,11284480
2023-07-04T18:32:09.318Z,cartservice,memory,33378304
2023-07-04T18:32:09.335Z,adservice,memory,82489344
2023-07-04T18:32:09.335Z,shippingservice,memory,10797056
2023-07-04T18:32:09.335Z,redis-cart,memory,7987200
2023-07-04T18:32:09.318Z,currencyservice,memory,28110848
2023-07-04T18:32:09.335Z,emailservice,memory,44920832
2023-07-04T18:32:09.335Z,paymentservice,memory,19521536
2023-07-04T18:32:09.513Z,frontend,memory,16453632
2023-07-04T18:32:09.513Z,recommendationservice,memory,41603072
2023-07-04T18:32:09.513Z,productcatalogservice,memory,11206656
2023-07-04T18:32:09.513Z,checkoutservice,memory,11472896
2023-07-04T18:32:19.336Z,redis-cart,memory,7987200
2023-07-04T18:32:19.319Z,currencyservice,memory,28397568
2023-07-04T18:32:19.336Z,adservice,memory,82792448
2023-07-04T18:32:19.336Z,emailservice,memory,44924928
2023-07-04T18:32:19.336Z,shippingservice,memory,10805248
2023-07-04T18:32:19.336Z,paymentservice,memory,19521536
2023-07-04T18:32:19.319Z,cartservice,memory,34127872
2023-07-04T18:32:19.512Z,productcatalogservice,memory,11206656
2023-07-04T18:32:19.512Z,checkoutservice,memory,11472896
2023-07-04T18:32:19.512Z,recommendationservice,memory,41603072
2023-07-04T18:32:19.512Z,frontend,memory,16453632
2023-07-04T18:32:29.335Z,paymentservice,memory,20144128
2023-07-04T18:32:29.318Z,currencyservice,memory,28397568
2023-07-04T18:32:29.335Z,emailservice,memory,44924928
2023-07-04T18:32:29.335Z,redis-cart,memory,8433664
2023-07-04T18:32:29.318Z,cartservice,memory,34127872
2023-07-04T18:32:29.335Z,shippingservice,memory,10801152
2023-07-04T18:32:29.335Z,adservice,memory,82915328
2023-07-04T18:32:29.512Z,productcatalogservice,memory,11165696
2023-07-04T18:32:29.512Z,checkoutservice,memory,11534336
2023-07-04T18:32:29.512Z,recommendationservice,memory,41607168
2023-07-04T18:32:29.512Z,frontend,memory,16674816
2023-07-04T18:32:39.335Z,redis-cart,memory,8429568
2023-07-04T18:32:39.319Z,currencyservice,memory,28786688
2023-07-04T18:32:39.319Z,cartservice,memory,34783232
2023-07-04T18:32:39.335Z,adservice,memory,82915328
2023-07-04T18:32:39.335Z,shippingservice,memory,10653696
2023-07-04T18:32:39.335Z,paymentservice,memory,21237760
2023-07-04T18:32:39.335Z,emailservice,memory,44924928
2023-07-04T18:32:39.512Z,checkoutservice,memory,11534336
2023-07-04T18:32:39.512Z,frontend,memory,16527360
2023-07-04T18:32:39.512Z,recommendationservice,memory,41615360
2023-07-04T18:32:39.512Z,productcatalogservice,memory,11165696
2023-07-04T18:32:49.336Z,redis-cart,memory,8429568
2023-07-04T18:32:49.336Z,adservice,memory,82989056
2023-07-04T18:32:49.336Z,emailservice,memory,44924928
2023-07-04T18:32:49.319Z,cartservice,memory,34783232
2023-07-04T18:32:49.319Z,currencyservice,memory,29425664
2023-07-04T18:32:49.336Z,paymentservice,memory,21237760
2023-07-04T18:32:49.336Z,shippingservice,memory,10661888
2023-07-04T18:32:49.512Z,checkoutservice,memory,11534336
2023-07-04T18:32:49.512Z,productcatalogservice,memory,11165696
2023-07-04T18:32:49.512Z,frontend,memory,16527360
2023-07-04T18:32:49.512Z,recommendationservice,memory,41615360
2023-07-04T18:32:59.336Z,redis-cart,memory,8429568
2023-07-04T18:32:59.336Z,shippingservice,memory,10661888
2023-07-04T18:32:59.318Z,cartservice,memory,34783232
2023-07-04T18:32:59.336Z,adservice,memory,82989056
2023-07-04T18:32:59.318Z,currencyservice,memory,29425664
2023-07-04T18:32:59.336Z,paymentservice,memory,21237760
2023-07-04T18:32:59.336Z,emailservice,memory,44924928
2023-07-04T18:32:59.513Z,frontend,memory,16699392
2023-07-04T18:32:59.513Z,recommendationservice,memory,41611264
2023-07-04T18:32:59.513Z,checkoutservice,memory,11653120
2023-07-04T18:32:59.513Z,productcatalogservice,memory,11542528
2023-07-04T18:33:09.319Z,currencyservice,memory,30134272
2023-07-04T18:33:09.336Z,redis-cart,memory,8601600
2023-07-04T18:33:09.336Z,shippingservice,memory,10694656
2023-07-04T18:33:09.336Z,adservice,memory,83574784
2023-07-04T18:33:09.336Z,emailservice,memory,44929024
2023-07-04T18:33:09.336Z,paymentservice,memory,20901888
2023-07-04T18:33:09.319Z,cartservice,memory,36245504
2023-07-04T18:33:09.513Z,productcatalogservice,memory,11542528
2023-07-04T18:33:09.513Z,checkoutservice,memory,11665408
2023-07-04T18:33:09.513Z,recommendationservice,memory,41623552
2023-07-04T18:33:09.513Z,frontend,memory,16699392
2023-07-04T18:33:19.335Z,adservice,memory,83574784
2023-07-04T18:33:19.335Z,shippingservice,memory,10694656
2023-07-04T18:33:19.335Z,emailservice,memory,44929024
2023-07-04T18:33:19.319Z,cartservice,memory,36245504
2023-07-04T18:33:19.319Z,currencyservice,memory,30068736
2023-07-04T18:33:19.335Z,redis-cart,memory,8601600
2023-07-04T18:33:19.335Z,paymentservice,memory,20901888
2023-07-04T18:33:19.513Z,recommendationservice,memory,41623552
2023-07-04T18:33:19.513Z,frontend,memory,16699392
2023-07-04T18:33:19.513Z,checkoutservice,memory,11665408
2023-07-04T18:33:19.513Z,productcatalogservice,memory,11194368
2023-07-04T18:33:29.336Z,emailservice,memory,44929024
2023-07-04T18:33:29.336Z,redis-cart,memory,8605696
2023-07-04T18:33:29.336Z,adservice,memory,83615744
2023-07-04T18:33:29.319Z,cartservice,memory,36245504
2023-07-04T18:33:29.319Z,currencyservice,memory,30068736
2023-07-04T18:33:29.336Z,shippingservice,memory,12197888
2023-07-04T18:33:29.336Z,paymentservice,memory,21041152
2023-07-04T18:33:29.512Z,checkoutservice,memory,11665408
2023-07-04T18:33:29.512Z,recommendationservice,memory,41623552
2023-07-04T18:33:29.512Z,productcatalogservice,memory,11194368
2023-07-04T18:33:29.512Z,frontend,memory,16699392
2023-07-04T18:33:39.319Z,cartservice,memory,36245504
2023-07-04T18:33:39.336Z,shippingservice,memory,12197888
2023-07-04T18:33:39.336Z,paymentservice,memory,21041152
2023-07-04T18:33:39.319Z,currencyservice,memory,29429760
2023-07-04T18:33:39.336Z,emailservice,memory,44929024
2023-07-04T18:33:39.336Z,redis-cart,memory,8605696
2023-07-04T18:33:39.336Z,adservice,memory,83615744
2023-07-04T18:33:39.512Z,productcatalogservice,memory,11272192
2023-07-04T18:33:39.512Z,recommendationservice,memory,41627648
2023-07-04T18:33:39.512Z,checkoutservice,memory,11698176
2023-07-04T18:33:39.512Z,frontend,memory,16453632
2023-07-04T18:33:49.319Z,currencyservice,memory,29429760
2023-07-04T18:33:49.335Z,shippingservice,memory,16265216
2023-07-04T18:33:49.335Z,paymentservice,memory,20566016
2023-07-04T18:33:49.335Z,emailservice,memory,44929024
2023-07-04T18:33:49.319Z,cartservice,memory,36245504
2023-07-04T18:33:49.335Z,redis-cart,memory,8736768
2023-07-04T18:33:49.335Z,adservice,memory,83972096
2023-07-04T18:33:49.513Z,frontend,memory,16576512
2023-07-04T18:33:49.513Z,checkoutservice,memory,11698176
2023-07-04T18:33:49.513Z,recommendationservice,memory,41627648
2023-07-04T18:33:49.513Z,productcatalogservice,memory,11374592
2023-07-04T18:33:59.336Z,emailservice,memory,44929024
2023-07-04T18:33:59.318Z,cartservice,memory,36139008
2023-07-04T18:33:59.336Z,adservice,memory,85262336
2023-07-04T18:33:59.336Z,paymentservice,memory,20774912
2023-07-04T18:33:59.336Z,redis-cart,memory,8474624
2023-07-04T18:33:59.336Z,shippingservice,memory,16265216
2023-07-04T18:33:59.318Z,currencyservice,memory,30318592
2023-07-04T18:33:59.512Z,checkoutservice,memory,11698176
2023-07-04T18:33:59.512Z,productcatalogservice,memory,11374592
2023-07-04T18:33:59.512Z,frontend,memory,16576512
2023-07-04T18:33:59.512Z,recommendationservice,memory,41627648
2023-07-04T18:34:09.336Z,shippingservice,memory,16273408
2023-07-04T18:34:09.319Z,cartservice,memory,36188160
2023-07-04T18:34:09.336Z,adservice,memory,84434944
2023-07-04T18:34:09.319Z,currencyservice,memory,30314496
2023-07-04T18:34:09.336Z,redis-cart,memory,8601600
2023-07-04T18:34:09.336Z,paymentservice,memory,21020672
2023-07-04T18:34:09.336Z,emailservice,memory,44929024
2023-07-04T18:34:09.512Z,frontend,memory,16674816
2023-07-04T18:34:09.512Z,productcatalogservice,memory,11177984
2023-07-04T18:34:09.512Z,checkoutservice,memory,11698176
2023-07-04T18:34:09.512Z,recommendationservice,memory,41644032
2023-07-04T18:34:19.336Z,redis-cart,memory,8474624
2023-07-04T18:34:19.318Z,currencyservice,memory,30314496
2023-07-04T18:34:19.336Z,paymentservice,memory,21020672
2023-07-04T18:34:19.318Z,cartservice,memory,36188160
2023-07-04T18:34:19.336Z,shippingservice,memory,16273408
2023-07-04T18:34:19.336Z,adservice,memory,84434944
2023-07-04T18:34:19.336Z,emailservice,memory,44929024
2023-07-04T18:34:19.513Z,recommendationservice,memory,41627648
2023-07-04T18:34:19.513Z,frontend,memory,16674816
2023-07-04T18:34:19.513Z,productcatalogservice,memory,11284480
2023-07-04T18:34:19.513Z,checkoutservice,memory,11698176
2023-07-04T18:34:29.319Z,currencyservice,memory,30724096
2023-07-04T18:34:29.336Z,paymentservice,memory,21020672
2023-07-04T18:34:29.336Z,shippingservice,memory,16273408
2023-07-04T18:34:29.336Z,redis-cart,memory,8474624
2023-07-04T18:34:29.336Z,emailservice,memory,44929024
2023-07-04T18:34:29.336Z,adservice,memory,84434944
2023-07-04T18:34:29.319Z,cartservice,memory,36184064
2023-07-04T18:34:29.513Z,productcatalogservice,memory,11284480
2023-07-04T18:34:29.513Z,recommendationservice,memory,41627648
2023-07-04T18:34:29.513Z,frontend,memory,16674816
2023-07-04T18:34:29.513Z,checkoutservice,memory,11698176
2023-07-04T18:34:39.335Z,emailservice,memory,44929024
2023-07-04T18:34:39.335Z,shippingservice,memory,16273408
2023-07-04T18:34:39.319Z,currencyservice,memory,30724096
2023-07-04T18:34:39.335Z,paymentservice,memory,20680704
2023-07-04T18:34:39.319Z,cartservice,memory,36184064
2023-07-04T18:34:39.335Z,redis-cart,memory,8470528
2023-07-04T18:34:39.335Z,adservice,memory,84475904
2023-07-04T18:34:39.512Z,checkoutservice,memory,11726848
2023-07-04T18:34:39.512Z,productcatalogservice,memory,11272192
2023-07-04T18:34:39.512Z,recommendationservice,memory,41631744
2023-07-04T18:34:39.512Z,frontend,memory,16515072
2023-07-04T18:34:49.335Z,paymentservice,memory,20680704
2023-07-04T18:34:49.335Z,redis-cart,memory,8470528
2023-07-04T18:34:49.335Z,adservice,memory,84475904
2023-07-04T18:34:49.335Z,emailservice,memory,44929024
2023-07-04T18:34:49.335Z,shippingservice,memory,16273408
2023-07-04T18:34:49.318Z,currencyservice,memory,30310400
2023-07-04T18:34:49.318Z,cartservice,memory,36130816
2023-07-04T18:34:49.512Z,checkoutservice,memory,11726848
2023-07-04T18:34:49.512Z,productcatalogservice,memory,11272192
2023-07-04T18:34:49.512Z,frontend,memory,16515072
2023-07-04T18:34:49.512Z,recommendationservice,memory,41631744
2023-07-04T18:34:59.318Z,cartservice,memory,36118528
2023-07-04T18:34:59.336Z,shippingservice,memory,16277504
2023-07-04T18:34:59.336Z,redis-cart,memory,8474624
2023-07-04T18:34:59.336Z,emailservice,memory,44929024
2023-07-04T18:34:59.318Z,currencyservice,memory,30781440
2023-07-04T18:34:59.336Z,adservice,memory,84697088
2023-07-04T18:34:59.336Z,paymentservice,memory,20770816
2023-07-04T18:34:59.513Z,frontend,memory,17371136
2023-07-04T18:34:59.513Z,productcatalogservice,memory,11284480
2023-07-04T18:34:59.513Z,checkoutservice,memory,11710464
2023-07-04T18:34:59.513Z,recommendationservice,memory,41639936
2023-07-04T18:35:09.336Z,paymentservice,memory,20930560
2023-07-04T18:35:09.336Z,shippingservice,memory,16322560
2023-07-04T18:35:09.336Z,redis-cart,memory,8474624
2023-07-04T18:35:09.319Z,currencyservice,memory,31019008
2023-07-04T18:35:09.336Z,emailservice,memory,44929024
2023-07-04T18:35:09.319Z,cartservice,memory,36409344
2023-07-04T18:35:09.336Z,adservice,memory,84697088
2023-07-04T18:35:09.513Z,frontend,memory,17371136
2023-07-04T18:35:09.513Z,productcatalogservice,memory,11284480
2023-07-04T18:35:09.513Z,checkoutservice,memory,11710464
2023-07-04T18:35:09.513Z,recommendationservice,memory,41639936
2023-07-04T18:35:19.335Z,shippingservice,memory,16322560
2023-07-04T18:35:19.335Z,adservice,memory,84697088
2023-07-04T18:35:19.318Z,cartservice,memory,36163584
2023-07-04T18:35:19.335Z,paymentservice,memory,20930560
2023-07-04T18:35:19.335Z,redis-cart,memory,8474624
2023-07-04T18:35:19.335Z,emailservice,memory,44929024
2023-07-04T18:35:19.318Z,currencyservice,memory,31686656
2023-07-04T18:35:19.513Z,recommendationservice,memory,41635840
2023-07-04T18:35:19.513Z,checkoutservice,memory,11710464
2023-07-04T18:35:19.513Z,frontend,memory,16707584
2023-07-04T18:35:19.513Z,productcatalogservice,memory,11255808
2023-07-04T18:35:29.319Z,currencyservice,memory,31686656
2023-07-04T18:35:29.336Z,shippingservice,memory,16281600
2023-07-04T18:35:29.336Z,adservice,memory,84787200
2023-07-04T18:35:29.336Z,redis-cart,memory,8482816
2023-07-04T18:35:29.319Z,cartservice,memory,36163584
2023-07-04T18:35:29.336Z,emailservice,memory,45314048
2023-07-04T18:35:29.336Z,paymentservice,memory,21065728
2023-07-04T18:35:29.512Z,frontend,memory,16707584
2023-07-04T18:35:29.512Z,recommendationservice,memory,41635840
2023-07-04T18:35:29.512Z,checkoutservice,memory,11710464
2023-07-04T18:35:29.512Z,productcatalogservice,memory,11255808
2023-07-04T18:35:39.335Z,paymentservice,memory,21065728
2023-07-04T18:35:39.318Z,currencyservice,memory,31686656
2023-07-04T18:35:39.335Z,shippingservice,memory,16281600
2023-07-04T18:35:39.318Z,cartservice,memory,36163584
2023-07-04T18:35:39.335Z,redis-cart,memory,8482816
2023-07-04T18:35:39.335Z,emailservice,memory,45314048
2023-07-04T18:35:39.335Z,adservice,memory,84787200
2023-07-04T18:35:39.513Z,recommendationservice,memory,41648128
2023-07-04T18:35:39.513Z,frontend,memory,16625664
2023-07-04T18:35:39.513Z,checkoutservice,memory,11448320
2023-07-04T18:35:39.513Z,productcatalogservice,memory,11317248
2023-07-04T18:35:49.335Z,adservice,memory,85127168
2023-07-04T18:35:49.335Z,shippingservice,memory,16277504
2023-07-04T18:35:49.318Z,currencyservice,memory,31764480
2023-07-04T18:35:49.318Z,cartservice,memory,36311040
2023-07-04T18:35:49.335Z,redis-cart,memory,8609792
2023-07-04T18:35:49.335Z,paymentservice,memory,21491712
2023-07-04T18:35:49.335Z,emailservice,memory,44929024
2023-07-04T18:35:49.512Z,productcatalogservice,memory,11317248
2023-07-04T18:35:49.512Z,checkoutservice,memory,11448320
2023-07-04T18:35:49.512Z,recommendationservice,memory,41648128
2023-07-04T18:35:49.512Z,frontend,memory,16625664
2023-07-04T18:35:59.335Z,emailservice,memory,44929024
2023-07-04T18:35:59.335Z,shippingservice,memory,16277504
2023-07-04T18:35:59.319Z,currencyservice,memory,31764480
2023-07-04T18:35:59.319Z,cartservice,memory,36405248
2023-07-04T18:35:59.335Z,redis-cart,memory,8609792
2023-07-04T18:35:59.335Z,adservice,memory,85127168
2023-07-04T18:35:59.335Z,paymentservice,memory,21491712
2023-07-04T18:35:59.512Z,frontend,memory,17047552
2023-07-04T18:35:59.512Z,productcatalogservice,memory,11169792
2023-07-04T18:35:59.512Z,checkoutservice,memory,11448320
2023-07-04T18:35:59.512Z,recommendationservice,memory,41644032
2023-07-04T18:36:09.318Z,currencyservice,memory,31764480
2023-07-04T18:36:09.318Z,cartservice,memory,36405248
2023-07-04T18:36:09.336Z,emailservice,memory,44929024
2023-07-04T18:36:09.336Z,paymentservice,memory,20803584
2023-07-04T18:36:09.336Z,shippingservice,memory,16285696
2023-07-04T18:36:09.336Z,redis-cart,memory,8609792
2023-07-04T18:36:09.336Z,adservice,memory,85127168
2023-07-04T18:36:09.512Z,frontend,memory,17047552
2023-07-04T18:36:09.512Z,checkoutservice,memory,11472896
2023-07-04T18:36:09.512Z,recommendationservice,memory,41644032
2023-07-04T18:36:09.512Z,productcatalogservice,memory,11169792
2023-07-04T18:36:19.319Z,cartservice,memory,36139008
2023-07-04T18:36:19.336Z,shippingservice,memory,16281600
2023-07-04T18:36:19.336Z,paymentservice,memory,21229568
2023-07-04T18:36:19.336Z,adservice,memory,86093824
2023-07-04T18:36:19.319Z,currencyservice,memory,32706560
2023-07-04T18:36:19.336Z,emailservice,memory,44929024
2023-07-04T18:36:19.336Z,redis-cart,memory,8474624
2023-07-04T18:36:19.513Z,recommendationservice,memory,41648128
2023-07-04T18:36:19.513Z,productcatalogservice,memory,11370496
2023-07-04T18:36:19.513Z,frontend,memory,17047552
2023-07-04T18:36:19.513Z,checkoutservice,memory,11616256
2023-07-04T18:36:29.336Z,emailservice,memory,44929024
2023-07-04T18:36:29.336Z,paymentservice,memory,21229568
2023-07-04T18:36:29.336Z,adservice,memory,86093824
2023-07-04T18:36:29.336Z,shippingservice,memory,16281600
2023-07-04T18:36:29.319Z,cartservice,memory,36139008
2023-07-04T18:36:29.319Z,currencyservice,memory,32706560
2023-07-04T18:36:29.336Z,redis-cart,memory,8474624
2023-07-04T18:36:29.512Z,recommendationservice,memory,41648128
2023-07-04T18:36:29.512Z,productcatalogservice,memory,11370496
2023-07-04T18:36:29.512Z,frontend,memory,17047552
2023-07-04T18:36:29.512Z,checkoutservice,memory,11616256
2023-07-04T18:36:39.318Z,currencyservice,memory,32559104
2023-07-04T18:36:39.335Z,emailservice,memory,45060096
2023-07-04T18:36:39.335Z,shippingservice,memory,18903040
2023-07-04T18:36:39.318Z,cartservice,memory,36188160
2023-07-04T18:36:39.335Z,adservice,memory,85266432
2023-07-04T18:36:39.335Z,redis-cart,memory,8478720
2023-07-04T18:36:39.335Z,paymentservice,memory,21594112
2023-07-04T18:36:39.513Z,checkoutservice,memory,13611008
2023-07-04T18:36:39.513Z,recommendationservice,memory,41664512
2023-07-04T18:36:39.513Z,productcatalogservice,memory,11157504
2023-07-04T18:36:39.513Z,frontend,memory,17068032
2023-07-04T18:36:49.335Z,paymentservice,memory,21594112
2023-07-04T18:36:49.335Z,emailservice,memory,45060096
2023-07-04T18:36:49.319Z,cartservice,memory,36188160
2023-07-04T18:36:49.335Z,adservice,memory,85266432
2023-07-04T18:36:49.335Z,redis-cart,memory,8478720
2023-07-04T18:36:49.335Z,shippingservice,memory,18903040
2023-07-04T18:36:49.319Z,currencyservice,memory,32460800
2023-07-04T18:36:49.512Z,checkoutservice,memory,13611008
2023-07-04T18:36:49.512Z,productcatalogservice,memory,11157504
2023-07-04T18:36:49.512Z,recommendationservice,memory,41664512
2023-07-04T18:36:49.512Z,frontend,memory,17068032
2023-07-04T18:36:59.319Z,cartservice,memory,36188160
2023-07-04T18:36:59.335Z,paymentservice,memory,21594112
2023-07-04T18:36:59.319Z,currencyservice,memory,32460800
2023-07-04T18:36:59.335Z,adservice,memory,85364736
2023-07-04T18:36:59.335Z,emailservice,memory,44929024
2023-07-04T18:36:59.335Z,redis-cart,memory,8474624
2023-07-04T18:36:59.335Z,shippingservice,memory,16310272
2023-07-04T18:36:59.513Z,frontend,memory,16965632
2023-07-04T18:36:59.513Z,checkoutservice,memory,15699968
2023-07-04T18:36:59.513Z,recommendationservice,memory,41705472
2023-07-04T18:36:59.513Z,productcatalogservice,memory,11309056
2023-07-04T18:37:09.336Z,paymentservice,memory,21000192
2023-07-04T18:37:09.336Z,redis-cart,memory,8474624
2023-07-04T18:37:09.336Z,shippingservice,memory,16314368
2023-07-04T18:37:09.336Z,adservice,memory,85524480
2023-07-04T18:37:09.336Z,emailservice,memory,44929024
2023-07-04T18:37:09.319Z,cartservice,memory,36110336
2023-07-04T18:37:09.319Z,currencyservice,memory,32645120
2023-07-04T18:37:09.512Z,productcatalogservice,memory,11309056
2023-07-04T18:37:09.512Z,frontend,memory,16965632
2023-07-04T18:37:09.512Z,checkoutservice,memory,15699968
2023-07-04T18:37:09.512Z,recommendationservice,memory,41705472
2023-07-04T18:37:19.335Z,adservice,memory,85413888
2023-07-04T18:37:19.335Z,redis-cart,memory,8605696
2023-07-04T18:37:19.335Z,emailservice,memory,44929024
2023-07-04T18:37:19.335Z,shippingservice,memory,16322560
2023-07-04T18:37:19.335Z,paymentservice,memory,21037056
2023-07-04T18:37:19.319Z,cartservice,memory,36257792
2023-07-04T18:37:19.319Z,currencyservice,memory,33640448
2023-07-04T18:37:19.512Z,checkoutservice,memory,15794176
2023-07-04T18:37:19.512Z,frontend,memory,17391616
2023-07-04T18:37:19.512Z,recommendationservice,memory,41713664
2023-07-04T18:37:19.512Z,productcatalogservice,memory,11173888
2023-07-04T18:37:29.336Z,redis-cart,memory,8605696
2023-07-04T18:37:29.336Z,paymentservice,memory,21151744
2023-07-04T18:37:29.336Z,adservice,memory,85594112
2023-07-04T18:37:29.319Z,cartservice,memory,36159488
2023-07-04T18:37:29.319Z,currencyservice,memory,33640448
2023-07-04T18:37:29.336Z,shippingservice,memory,16322560
2023-07-04T18:37:29.336Z,emailservice,memory,44929024
2023-07-04T18:37:29.512Z,recommendationservice,memory,41709568
2023-07-04T18:37:29.512Z,productcatalogservice,memory,11280384
2023-07-04T18:37:29.512Z,checkoutservice,memory,15794176
2023-07-04T18:37:29.512Z,frontend,memory,20983808
2023-07-04T18:37:39.335Z,adservice,memory,85594112
2023-07-04T18:37:39.319Z,cartservice,memory,36159488
2023-07-04T18:37:39.319Z,currencyservice,memory,33640448
2023-07-04T18:37:39.335Z,paymentservice,memory,21151744
2023-07-04T18:37:39.335Z,shippingservice,memory,16322560
2023-07-04T18:37:39.335Z,redis-cart,memory,8605696
2023-07-04T18:37:39.335Z,emailservice,memory,44929024
2023-07-04T18:37:39.512Z,productcatalogservice,memory,11280384
2023-07-04T18:37:39.512Z,checkoutservice,memory,15794176
2023-07-04T18:37:39.512Z,frontend,memory,20983808
2023-07-04T18:37:39.512Z,recommendationservice,memory,41709568
2023-07-04T18:37:49.319Z,currencyservice,memory,33300480
2023-07-04T18:37:49.335Z,adservice,memory,85667840
2023-07-04T18:37:49.335Z,emailservice,memory,44929024
2023-07-04T18:37:49.335Z,shippingservice,memory,16318464
2023-07-04T18:37:49.335Z,redis-cart,memory,8478720
2023-07-04T18:37:49.319Z,cartservice,memory,36216832
2023-07-04T18:37:49.335Z,paymentservice,memory,21528576
2023-07-04T18:37:49.513Z,productcatalogservice,memory,11390976
2023-07-04T18:37:49.513Z,checkoutservice,memory,15794176
2023-07-04T18:37:49.513Z,frontend,memory,23199744
2023-07-04T18:37:49.513Z,recommendationservice,memory,41705472
2023-07-04T18:37:59.318Z,currencyservice,memory,33300480
2023-07-04T18:37:59.318Z,cartservice,memory,36216832
2023-07-04T18:37:59.335Z,emailservice,memory,44929024
2023-07-04T18:37:59.335Z,adservice,memory,85856256
2023-07-04T18:37:59.335Z,shippingservice,memory,16326656
2023-07-04T18:37:59.335Z,redis-cart,memory,8478720
2023-07-04T18:37:59.335Z,paymentservice,memory,21528576
2023-07-04T18:37:59.513Z,frontend,memory,22900736
2023-07-04T18:37:59.513Z,checkoutservice,memory,15794176
2023-07-04T18:37:59.513Z,recommendationservice,memory,41705472
2023-07-04T18:37:59.513Z,productcatalogservice,memory,11223040
2023-07-04T18:38:09.336Z,emailservice,memory,44929024
2023-07-04T18:38:09.336Z,paymentservice,memory,21700608
2023-07-04T18:38:09.318Z,cartservice,memory,36188160
2023-07-04T18:38:09.318Z,currencyservice,memory,33898496
2023-07-04T18:38:09.336Z,shippingservice,memory,17154048
2023-07-04T18:38:09.336Z,redis-cart,memory,8486912
2023-07-04T18:38:09.336Z,adservice,memory,85856256
2023-07-04T18:38:09.513Z,checkoutservice,memory,15794176
2023-07-04T18:38:09.513Z,frontend,memory,22900736
2023-07-04T18:38:09.513Z,recommendationservice,memory,41705472
2023-07-04T18:38:09.513Z,productcatalogservice,memory,11223040
2023-07-04T18:38:19.319Z,currencyservice,memory,33734656
2023-07-04T18:38:19.336Z,redis-cart,memory,8486912
2023-07-04T18:38:19.336Z,emailservice,memory,44929024
2023-07-04T18:38:19.336Z,shippingservice,memory,16322560
2023-07-04T18:38:19.336Z,paymentservice,memory,21856256
2023-07-04T18:38:19.319Z,cartservice,memory,36196352
2023-07-04T18:38:19.336Z,adservice,memory,85884928
2023-07-04T18:38:19.512Z,recommendationservice,memory,41713664
2023-07-04T18:38:19.512Z,productcatalogservice,memory,11321344
2023-07-04T18:38:19.512Z,frontend,memory,22933504
2023-07-04T18:38:19.512Z,checkoutservice,memory,15794176
2023-07-04T18:38:29.318Z,cartservice,memory,36196352
2023-07-04T18:38:29.318Z,currencyservice,memory,33734656
2023-07-04T18:38:29.335Z,shippingservice,memory,16322560
2023-07-04T18:38:29.335Z,emailservice,memory,44929024
2023-07-04T18:38:29.335Z,paymentservice,memory,21856256
2023-07-04T18:38:29.335Z,redis-cart,memory,8486912
2023-07-04T18:38:29.335Z,adservice,memory,85884928
2023-07-04T18:38:29.513Z,recommendationservice,memory,41709568
2023-07-04T18:38:29.513Z,checkoutservice,memory,15847424
2023-07-04T18:38:29.513Z,frontend,memory,22933504
2023-07-04T18:38:29.513Z,productcatalogservice,memory,11239424
