2023-07-04T18:28:08.969Z,blackbox-exporter,network_in,43135
2023-07-04T18:28:08.971Z,redis-exporter-dbops-team,network_in,37581
2023-07-04T18:28:08.969Z,redis-exporter-dev-team,network_in,18459
2023-07-04T18:28:19.318Z,blackbox-exporter,network_in,51684
2023-07-04T18:28:19.318Z,redis-exporter-dev-team,network_in,18459
2023-07-04T18:28:19.335Z,redis-exporter-dbops-team,network_in,38055
2023-07-04T18:28:29.318Z,redis-exporter-dev-team,network_in,35288
2023-07-04T18:28:29.336Z,redis-exporter-dbops-team,network_in,38055
2023-07-04T18:28:29.318Z,blackbox-exporter,network_in,70038
2023-07-04T18:28:39.318Z,redis-exporter-dev-team,network_in,35288
2023-07-04T18:28:39.318Z,blackbox-exporter,network_in,70038
2023-07-04T18:28:39.335Z,redis-exporter-dbops-team,network_in,38055
2023-07-04T18:28:49.318Z,redis-exporter-dev-team,network_in,35288
2023-07-04T18:28:49.318Z,blackbox-exporter,network_in,70038
2023-07-04T18:28:49.335Z,redis-exporter-dbops-team,network_in,55629
2023-07-04T18:28:59.319Z,blackbox-exporter,network_in,73558
2023-07-04T18:28:59.336Z,redis-exporter-dbops-team,network_in,55629
2023-07-04T18:28:59.319Z,redis-exporter-dev-team,network_in,52199
2023-07-04T18:29:09.335Z,redis-exporter-dbops-team,network_in,55629
2023-07-04T18:29:09.318Z,blackbox-exporter,network_in,98434
2023-07-04T18:29:09.318Z,redis-exporter-dev-team,network_in,52331
2023-07-04T18:29:19.319Z,redis-exporter-dev-team,network_in,69534
2023-07-04T18:29:19.319Z,blackbox-exporter,network_in,105438
2023-07-04T18:29:19.335Z,redis-exporter-dbops-team,network_in,73373
2023-07-04T18:29:29.319Z,redis-exporter-dev-team,network_in,69646
2023-07-04T18:29:29.335Z,redis-exporter-dbops-team,network_in,73373
2023-07-04T18:29:29.319Z,blackbox-exporter,network_in,105438
2023-07-04T18:29:39.319Z,blackbox-exporter,network_in,124322
2023-07-04T18:29:39.319Z,redis-exporter-dev-team,network_in,69646
2023-07-04T18:29:39.336Z,redis-exporter-dbops-team,network_in,73819
2023-07-04T18:29:49.319Z,blackbox-exporter,network_in,124322
2023-07-04T18:29:49.336Z,redis-exporter-dbops-team,network_in,91800
2023-07-04T18:29:49.319Z,redis-exporter-dev-team,network_in,69646
2023-07-04T18:29:59.335Z,redis-exporter-dbops-team,network_in,91800
2023-07-04T18:29:59.319Z,blackbox-exporter,network_in,142660
2023-07-04T18:29:59.319Z,redis-exporter-dev-team,network_in,86798
2023-07-04T18:30:09.319Z,redis-exporter-dev-team,network_in,86972
2023-07-04T18:30:09.335Z,redis-exporter-dbops-team,network_in,109408
2023-07-04T18:30:09.319Z,blackbox-exporter,network_in,147568
2023-07-04T18:30:19.318Z,redis-exporter-dev-team,network_in,86972
2023-07-04T18:30:19.335Z,redis-exporter-dbops-team,network_in,109450
2023-07-04T18:30:19.318Z,blackbox-exporter,network_in,147568
2023-07-04T18:30:29.319Z,blackbox-exporter,network_in,154826
2023-07-04T18:30:29.335Z,redis-exporter-dbops-team,network_in,109450
2023-07-04T18:30:29.319Z,redis-exporter-dev-team,network_in,104143
2023-07-04T18:30:39.336Z,redis-exporter-dbops-team,network_in,109756
2023-07-04T18:30:39.319Z,redis-exporter-dev-team,network_in,104143
2023-07-04T18:30:39.319Z,blackbox-exporter,network_in,176123
2023-07-04T18:30:49.336Z,redis-exporter-dbops-team,network_in,127679
2023-07-04T18:30:49.319Z,blackbox-exporter,network_in,176123
2023-07-04T18:30:49.319Z,redis-exporter-dev-team,network_in,121234
2023-07-04T18:30:59.318Z,redis-exporter-dev-team,network_in,121234
2023-07-04T18:30:59.318Z,blackbox-exporter,network_in,176123
2023-07-04T18:30:59.336Z,redis-exporter-dbops-team,network_in,127679
2023-07-04T18:31:09.319Z,blackbox-exporter,network_in,200870
2023-07-04T18:31:09.319Z,redis-exporter-dev-team,network_in,121366
2023-07-04T18:31:09.336Z,redis-exporter-dbops-team,network_in,145445
2023-07-04T18:31:19.318Z,redis-exporter-dev-team,network_in,121366
2023-07-04T18:31:19.336Z,redis-exporter-dbops-team,network_in,145445
2023-07-04T18:31:19.318Z,blackbox-exporter,network_in,200870
2023-07-04T18:31:29.336Z,redis-exporter-dbops-team,network_in,145849
2023-07-04T18:31:29.318Z,redis-exporter-dev-team,network_in,138634
2023-07-04T18:31:29.318Z,blackbox-exporter,network_in,207278
2023-07-04T18:31:39.335Z,redis-exporter-dbops-team,network_in,145849
2023-07-04T18:31:39.319Z,redis-exporter-dev-team,network_in,138808
2023-07-04T18:31:39.319Z,blackbox-exporter,network_in,226296
2023-07-04T18:31:49.319Z,blackbox-exporter,network_in,226296
2023-07-04T18:31:49.335Z,redis-exporter-dbops-team,network_in,163597
2023-07-04T18:31:49.319Z,redis-exporter-dev-team,network_in,138808
2023-07-04T18:31:59.319Z,blackbox-exporter,network_in,233954
2023-07-04T18:31:59.319Z,redis-exporter-dev-team,network_in,155945
2023-07-04T18:31:59.336Z,redis-exporter-dbops-team,network_in,163931
2023-07-04T18:32:09.335Z,redis-exporter-dbops-team,network_in,163931
2023-07-04T18:32:09.318Z,redis-exporter-dev-team,network_in,155945
2023-07-04T18:32:09.318Z,blackbox-exporter,network_in,233954
2023-07-04T18:32:19.336Z,redis-exporter-dbops-team,network_in,181619
2023-07-04T18:32:19.319Z,redis-exporter-dev-team,network_in,156077
2023-07-04T18:32:19.319Z,blackbox-exporter,network_in,274298
2023-07-04T18:32:29.335Z,redis-exporter-dbops-team,network_in,181953
2023-07-04T18:32:29.318Z,redis-exporter-dev-team,network_in,156077
2023-07-04T18:32:29.318Z,blackbox-exporter,network_in,274298
2023-07-04T18:32:39.319Z,redis-exporter-dev-team,network_in,173333
2023-07-04T18:32:39.319Z,blackbox-exporter,network_in,280724
2023-07-04T18:32:39.335Z,redis-exporter-dbops-team,network_in,199648
2023-07-04T18:32:49.319Z,blackbox-exporter,network_in,286877
2023-07-04T18:32:49.336Z,redis-exporter-dbops-team,network_in,199648
2023-07-04T18:32:49.319Z,redis-exporter-dev-team,network_in,190419
2023-07-04T18:32:59.336Z,redis-exporter-dbops-team,network_in,199648
2023-07-04T18:32:59.318Z,redis-exporter-dev-team,network_in,190419
2023-07-04T18:32:59.318Z,blackbox-exporter,network_in,286877
2023-07-04T18:33:09.319Z,blackbox-exporter,network_in,305808
2023-07-04T18:33:09.336Z,redis-exporter-dbops-team,network_in,217636
2023-07-04T18:33:09.319Z,redis-exporter-dev-team,network_in,190593
2023-07-04T18:33:19.319Z,redis-exporter-dev-team,network_in,190593
2023-07-04T18:33:19.335Z,redis-exporter-dbops-team,network_in,217636
2023-07-04T18:33:19.319Z,blackbox-exporter,network_in,309508
2023-07-04T18:33:29.336Z,redis-exporter-dbops-team,network_in,217900
2023-07-04T18:33:29.319Z,blackbox-exporter,network_in,309508
2023-07-04T18:33:29.319Z,redis-exporter-dev-team,network_in,190593
2023-07-04T18:33:39.336Z,redis-exporter-dbops-team,network_in,217900
2023-07-04T18:33:39.319Z,blackbox-exporter,network_in,334776
2023-07-04T18:33:39.319Z,redis-exporter-dev-team,network_in,207840
2023-07-04T18:33:49.319Z,blackbox-exporter,network_in,334776
2023-07-04T18:33:49.335Z,redis-exporter-dbops-team,network_in,235627
2023-07-04T18:33:49.319Z,redis-exporter-dev-team,network_in,207840
2023-07-04T18:33:59.318Z,blackbox-exporter,network_in,355238
2023-07-04T18:33:59.336Z,redis-exporter-dbops-team,network_in,235891
2023-07-04T18:33:59.318Z,redis-exporter-dev-team,network_in,225131
2023-07-04T18:34:09.319Z,blackbox-exporter,network_in,361577
2023-07-04T18:34:09.319Z,redis-exporter-dev-team,network_in,225131
2023-07-04T18:34:09.336Z,redis-exporter-dbops-team,network_in,253620
2023-07-04T18:34:19.336Z,redis-exporter-dbops-team,network_in,253620
2023-07-04T18:34:19.318Z,blackbox-exporter,network_in,361577
2023-07-04T18:34:19.318Z,redis-exporter-dev-team,network_in,225131
2023-07-04T18:34:29.336Z,redis-exporter-dbops-team,network_in,253620
2023-07-04T18:34:29.319Z,blackbox-exporter,network_in,367635
2023-07-04T18:34:29.319Z,redis-exporter-dev-team,network_in,242381
2023-07-04T18:34:39.335Z,redis-exporter-dbops-team,network_in,253884
2023-07-04T18:34:39.319Z,blackbox-exporter,network_in,367635
2023-07-04T18:34:39.319Z,redis-exporter-dev-team,network_in,242381
2023-07-04T18:34:49.335Z,redis-exporter-dbops-team,network_in,253884
2023-07-04T18:34:49.318Z,blackbox-exporter,network_in,387873
2023-07-04T18:34:49.318Z,redis-exporter-dev-team,network_in,259547
2023-07-04T18:34:59.318Z,redis-exporter-dev-team,network_in,259679
2023-07-04T18:34:59.336Z,redis-exporter-dbops-team,network_in,271925
2023-07-04T18:34:59.318Z,blackbox-exporter,network_in,407981
2023-07-04T18:35:09.319Z,blackbox-exporter,network_in,414254
2023-07-04T18:35:09.336Z,redis-exporter-dbops-team,network_in,289731
2023-07-04T18:35:09.319Z,redis-exporter-dev-team,network_in,259679
2023-07-04T18:35:19.335Z,redis-exporter-dbops-team,network_in,289731
2023-07-04T18:35:19.318Z,redis-exporter-dev-team,network_in,276821
2023-07-04T18:35:19.318Z,blackbox-exporter,network_in,421490
2023-07-04T18:35:29.319Z,blackbox-exporter,network_in,421490
2023-07-04T18:35:29.336Z,redis-exporter-dbops-team,network_in,307734
2023-07-04T18:35:29.319Z,redis-exporter-dev-team,network_in,276821
2023-07-04T18:35:39.318Z,redis-exporter-dev-team,network_in,276821
2023-07-04T18:35:39.335Z,redis-exporter-dbops-team,network_in,307734
2023-07-04T18:35:39.318Z,blackbox-exporter,network_in,421490
2023-07-04T18:35:49.318Z,blackbox-exporter,network_in,441021
2023-07-04T18:35:49.318Z,redis-exporter-dev-team,network_in,294348
2023-07-04T18:35:49.335Z,redis-exporter-dbops-team,network_in,308334
2023-07-04T18:35:59.319Z,blackbox-exporter,network_in,459846
2023-07-04T18:35:59.335Z,redis-exporter-dbops-team,network_in,308334
2023-07-04T18:35:59.319Z,redis-exporter-dev-team,network_in,294348
2023-07-04T18:36:09.318Z,redis-exporter-dev-team,network_in,294348
2023-07-04T18:36:09.336Z,redis-exporter-dbops-team,network_in,308334
2023-07-04T18:36:09.318Z,blackbox-exporter,network_in,459846
2023-07-04T18:36:19.319Z,blackbox-exporter,network_in,473712
2023-07-04T18:36:19.319Z,redis-exporter-dev-team,network_in,294480
2023-07-04T18:36:19.336Z,redis-exporter-dbops-team,network_in,326212
2023-07-04T18:36:29.336Z,redis-exporter-dbops-team,network_in,326212
2023-07-04T18:36:29.319Z,blackbox-exporter,network_in,473712
2023-07-04T18:36:29.319Z,redis-exporter-dev-team,network_in,294480
2023-07-04T18:36:39.335Z,redis-exporter-dbops-team,network_in,344244
2023-07-04T18:36:39.318Z,redis-exporter-dev-team,network_in,311838
2023-07-04T18:36:39.318Z,blackbox-exporter,network_in,491654
2023-07-04T18:36:49.335Z,redis-exporter-dbops-team,network_in,344244
2023-07-04T18:36:49.319Z,blackbox-exporter,network_in,497859
2023-07-04T18:36:49.319Z,redis-exporter-dev-team,network_in,311838
2023-07-04T18:36:59.319Z,redis-exporter-dev-team,network_in,311838
2023-07-04T18:36:59.319Z,blackbox-exporter,network_in,497859
2023-07-04T18:36:59.335Z,redis-exporter-dbops-team,network_in,344508
2023-07-04T18:37:09.336Z,redis-exporter-dbops-team,network_in,344508
2023-07-04T18:37:09.319Z,blackbox-exporter,network_in,522041
2023-07-04T18:37:09.319Z,redis-exporter-dev-team,network_in,329171
2023-07-04T18:37:19.319Z,blackbox-exporter,network_in,522041
2023-07-04T18:37:19.335Z,redis-exporter-dbops-team,network_in,362654
2023-07-04T18:37:19.319Z,redis-exporter-dev-team,network_in,346330
2023-07-04T18:37:29.336Z,redis-exporter-dbops-team,network_in,380349
2023-07-04T18:37:29.319Z,redis-exporter-dev-team,network_in,346330
2023-07-04T18:37:29.319Z,blackbox-exporter,network_in,540756
2023-07-04T18:37:39.335Z,redis-exporter-dbops-team,network_in,380349
2023-07-04T18:37:39.319Z,redis-exporter-dev-team,network_in,346330
2023-07-04T18:37:39.319Z,blackbox-exporter,network_in,540756
2023-07-04T18:37:49.319Z,blackbox-exporter,network_in,548296
2023-07-04T18:37:49.319Z,redis-exporter-dev-team,network_in,363686
2023-07-04T18:37:49.335Z,redis-exporter-dbops-team,network_in,380697
2023-07-04T18:37:59.318Z,redis-exporter-dev-team,network_in,363686
2023-07-04T18:37:59.335Z,redis-exporter-dbops-team,network_in,380697
2023-07-04T18:37:59.318Z,blackbox-exporter,network_in,548296
2023-07-04T18:38:09.336Z,redis-exporter-dbops-team,network_in,398409
2023-07-04T18:38:09.318Z,blackbox-exporter,network_in,567334
2023-07-04T18:38:09.318Z,redis-exporter-dev-team,network_in,363818
2023-07-04T18:38:19.319Z,blackbox-exporter,network_in,574851
2023-07-04T18:38:19.336Z,redis-exporter-dbops-team,network_in,398799
2023-07-04T18:38:19.319Z,redis-exporter-dev-team,network_in,381003
2023-07-04T18:38:29.335Z,redis-exporter-dbops-team,network_in,398799
2023-07-04T18:38:29.318Z,blackbox-exporter,network_in,574851
2023-07-04T18:38:29.318Z,redis-exporter-dev-team,network_in,381003
