2023-07-04T21:01:47.927Z,cartservice,memory,29360128
2023-07-04T21:01:47.927Z,emailservice,memory,42954752
2023-07-04T21:01:47.916Z,cartservice,memory,21524480
2023-07-04T21:01:47.916Z,productcatalogservice,memory,10219520
2023-07-04T21:01:47.927Z,cartservice,memory,23732224
2023-07-04T21:01:47.927Z,cartservice,memory,27312128
2023-07-04T21:01:47.936Z,cartservice,memory,23789568
2023-07-04T21:01:47.916Z,shippingservice,memory,6836224
2023-07-04T21:01:47.916Z,checkoutservice,memory,10702848
2023-07-04T21:01:47.927Z,adservice,memory,73560064
2023-07-04T21:01:47.936Z,recommendationservice,memory,43663360
2023-07-04T21:01:47.936Z,cartservice,memory,21622784
2023-07-04T21:01:47.927Z,cartservice,memory,23470080
2023-07-04T21:01:47.916Z,cartservice,memory,21512192
2023-07-04T21:01:47.936Z,cartservice,memory,23707648
2023-07-04T21:01:47.936Z,cartservice,memory,20463616
2023-07-04T21:01:58.276Z,cartservice,memory,23986176
2023-07-04T21:01:58.295Z,paymentservice,memory,19021824
2023-07-04T21:01:58.295Z,cartservice,memory,23957504
2023-07-04T21:01:58.295Z,currencyservice,memory,23670784
2023-07-04T21:01:58.299Z,cartservice,memory,27312128
2023-07-04T21:01:58.276Z,shippingservice,memory,7458816
2023-07-04T21:01:58.276Z,cartservice,memory,23687168
2023-07-04T21:01:58.276Z,productcatalogservice,memory,10354688
2023-07-04T21:01:58.276Z,cartservice,memory,23629824
2023-07-04T21:01:58.295Z,cartservice,memory,23793664
2023-07-04T21:01:58.295Z,cartservice,memory,23965696
2023-07-04T21:01:58.299Z,adservice,memory,73887744
2023-07-04T21:01:58.276Z,frontend,memory,11816960
2023-07-04T21:01:58.295Z,cartservice,memory,23953408
2023-07-04T21:01:58.295Z,recommendationservice,memory,43663360
2023-07-04T21:01:58.299Z,cartservice,memory,23781376
2023-07-04T21:01:58.299Z,cartservice,memory,22654976
2023-07-04T21:01:58.299Z,cartservice,memory,27807744
2023-07-04T21:01:58.276Z,checkoutservice,memory,10723328
2023-07-04T21:01:58.295Z,cartservice,memory,23986176
2023-07-04T21:01:58.295Z,cartservice,memory,24141824
2023-07-04T21:01:58.276Z,cartservice,memory,21524480
2023-07-04T21:01:58.276Z,redis-cart,memory,7987200
2023-07-04T21:01:58.276Z,cartservice,memory,23977984
2023-07-04T21:01:58.299Z,cartservice,memory,23732224
2023-07-04T21:01:58.299Z,emailservice,memory,42958848
2023-07-04T21:02:08.275Z,cartservice,memory,24129536
2023-07-04T21:02:08.275Z,shippingservice,memory,7471104
2023-07-04T21:02:08.275Z,frontend,memory,11927552
2023-07-04T21:02:08.300Z,cartservice,memory,23781376
2023-07-04T21:02:08.275Z,productcatalogservice,memory,10354688
2023-07-04T21:02:08.275Z,cartservice,memory,24133632
2023-07-04T21:02:08.295Z,recommendationservice,memory,43675648
2023-07-04T21:02:08.295Z,cartservice,memory,24096768
2023-07-04T21:02:08.300Z,emailservice,memory,42958848
2023-07-04T21:02:08.275Z,redis-cart,memory,7991296
2023-07-04T21:02:08.275Z,cartservice,memory,22720512
2023-07-04T21:02:08.295Z,paymentservice,memory,19021824
2023-07-04T21:02:08.295Z,cartservice,memory,24113152
2023-07-04T21:02:08.295Z,cartservice,memory,23953408
2023-07-04T21:02:08.300Z,cartservice,memory,28581888
2023-07-04T21:02:08.300Z,cartservice,memory,27807744
2023-07-04T21:02:08.275Z,checkoutservice,memory,10723328
2023-07-04T21:02:08.275Z,cartservice,memory,24100864
2023-07-04T21:02:08.275Z,cartservice,memory,23912448
2023-07-04T21:02:08.295Z,currencyservice,memory,22249472
2023-07-04T21:02:08.295Z,cartservice,memory,24150016
2023-07-04T21:02:08.295Z,cartservice,memory,24141824
2023-07-04T21:02:08.295Z,cartservice,memory,24150016
2023-07-04T21:02:08.300Z,cartservice,memory,22802432
2023-07-04T21:02:08.300Z,cartservice,memory,22892544
2023-07-04T21:02:08.300Z,adservice,memory,74358784
2023-07-04T21:02:18.275Z,productcatalogservice,memory,10354688
2023-07-04T21:02:18.275Z,cartservice,memory,24133632
2023-07-04T21:02:18.300Z,cartservice,memory,28942336
2023-07-04T21:02:18.300Z,emailservice,memory,42971136
2023-07-04T21:02:18.300Z,adservice,memory,74358784
2023-07-04T21:02:18.295Z,cartservice,memory,24113152
2023-07-04T21:02:18.295Z,cartservice,memory,22917120
2023-07-04T21:02:18.275Z,checkoutservice,memory,10723328
2023-07-04T21:02:18.275Z,cartservice,memory,24100864
2023-07-04T21:02:18.275Z,cartservice,memory,23912448
2023-07-04T21:02:18.295Z,cartservice,memory,24526848
2023-07-04T21:02:18.295Z,cartservice,memory,22900736
2023-07-04T21:02:18.295Z,cartservice,memory,24150016
2023-07-04T21:02:18.275Z,cartservice,memory,24129536
2023-07-04T21:02:18.275Z,shippingservice,memory,7471104
2023-07-04T21:02:18.275Z,frontend,memory,11927552
2023-07-04T21:02:18.300Z,cartservice,memory,22892544
2023-07-04T21:02:18.300Z,cartservice,memory,22994944
2023-07-04T21:02:18.300Z,cartservice,memory,21405696
2023-07-04T21:02:18.300Z,cartservice,memory,27582464
2023-07-04T21:02:18.295Z,currencyservice,memory,22249472
2023-07-04T21:02:18.295Z,cartservice,memory,24096768
2023-07-04T21:02:18.275Z,redis-cart,memory,7991296
2023-07-04T21:02:18.275Z,cartservice,memory,22720512
2023-07-04T21:02:18.295Z,paymentservice,memory,19488768
2023-07-04T21:02:18.295Z,recommendationservice,memory,43671552
2023-07-04T21:02:28.275Z,productcatalogservice,memory,10797056
2023-07-04T21:02:28.300Z,cartservice,memory,27582464
2023-07-04T21:02:28.275Z,frontend,memory,12038144
2023-07-04T21:02:28.275Z,cartservice,memory,23195648
2023-07-04T21:02:28.295Z,cartservice,memory,24113152
2023-07-04T21:02:28.295Z,cartservice,memory,24526848
2023-07-04T21:02:28.295Z,currencyservice,memory,22249472
2023-07-04T21:02:28.295Z,paymentservice,memory,19488768
2023-07-04T21:02:28.295Z,cartservice,memory,22917120
2023-07-04T21:02:28.275Z,checkoutservice,memory,10981376
2023-07-04T21:02:28.300Z,cartservice,memory,22892544
2023-07-04T21:02:28.275Z,cartservice,memory,22245376
2023-07-04T21:02:28.300Z,cartservice,memory,22994944
2023-07-04T21:02:28.275Z,cartservice,memory,24506368
2023-07-04T21:02:28.295Z,cartservice,memory,24096768
2023-07-04T21:02:28.300Z,cartservice,memory,21405696
2023-07-04T21:02:28.295Z,recommendationservice,memory,43671552
2023-07-04T21:02:28.295Z,cartservice,memory,22900736
2023-07-04T21:02:28.300Z,cartservice,memory,28942336
2023-07-04T21:02:28.300Z,emailservice,memory,42971136
2023-07-04T21:02:28.275Z,shippingservice,memory,7516160
2023-07-04T21:02:28.295Z,cartservice,memory,24150016
2023-07-04T21:02:28.300Z,adservice,memory,74358784
2023-07-04T21:02:28.275Z,cartservice,memory,22937600
2023-07-04T21:02:28.275Z,cartservice,memory,24367104
2023-07-04T21:02:28.275Z,redis-cart,memory,7991296
2023-07-04T21:02:38.275Z,shippingservice,memory,7516160
2023-07-04T21:02:38.275Z,redis-cart,memory,7987200
2023-07-04T21:02:38.295Z,currencyservice,memory,22327296
2023-07-04T21:02:38.295Z,cartservice,memory,22065152
2023-07-04T21:02:38.275Z,productcatalogservice,memory,10616832
2023-07-04T21:02:38.275Z,cartservice,memory,22339584
2023-07-04T21:02:38.275Z,cartservice,memory,24842240
2023-07-04T21:02:38.295Z,cartservice,memory,23080960
2023-07-04T21:02:38.275Z,frontend,memory,12038144
2023-07-04T21:02:38.275Z,checkoutservice,memory,10981376
2023-07-04T21:02:38.295Z,cartservice,memory,22396928
2023-07-04T21:02:38.295Z,recommendationservice,memory,43671552
2023-07-04T21:02:38.295Z,cartservice,memory,22466560
2023-07-04T21:02:38.275Z,cartservice,memory,23195648
2023-07-04T21:02:38.275Z,cartservice,memory,22536192
2023-07-04T21:02:38.275Z,cartservice,memory,22360064
2023-07-04T21:02:38.295Z,cartservice,memory,22183936
2023-07-04T21:02:38.299Z,cartservice,memory,28258304
2023-07-04T21:02:38.299Z,emailservice,memory,42954752
2023-07-04T21:02:38.299Z,adservice,memory,77619200
2023-07-04T21:02:38.299Z,cartservice,memory,22298624
2023-07-04T21:02:38.299Z,cartservice,memory,28131328
2023-07-04T21:02:38.299Z,cartservice,memory,23392256
2023-07-04T21:02:38.295Z,cartservice,memory,23093248
2023-07-04T21:02:38.299Z,cartservice,memory,22343680
2023-07-04T21:02:38.295Z,paymentservice,memory,19963904
2023-07-04T21:02:48.275Z,productcatalogservice,memory,10616832
2023-07-04T21:02:48.275Z,cartservice,memory,22339584
2023-07-04T21:02:48.275Z,cartservice,memory,24842240
2023-07-04T21:02:48.295Z,cartservice,memory,22286336
2023-07-04T21:02:48.295Z,cartservice,memory,21606400
2023-07-04T21:02:48.295Z,cartservice,memory,21901312
2023-07-04T21:02:48.300Z,cartservice,memory,28258304
2023-07-04T21:02:48.300Z,cartservice,memory,28131328
2023-07-04T21:02:48.275Z,cartservice,memory,23195648
2023-07-04T21:02:48.275Z,cartservice,memory,22536192
2023-07-04T21:02:48.275Z,cartservice,memory,22360064
2023-07-04T21:02:48.295Z,paymentservice,memory,19341312
2023-07-04T21:02:48.295Z,cartservice,memory,21811200
2023-07-04T21:02:48.295Z,currencyservice,memory,22327296
2023-07-04T21:02:48.295Z,cartservice,memory,22376448
2023-07-04T21:02:48.300Z,cartservice,memory,23392256
2023-07-04T21:02:48.300Z,emailservice,memory,42954752
2023-07-04T21:02:48.275Z,shippingservice,memory,7516160
2023-07-04T21:02:48.275Z,redis-cart,memory,7987200
2023-07-04T21:02:48.295Z,cartservice,memory,22544384
2023-07-04T21:02:48.300Z,adservice,memory,77619200
2023-07-04T21:02:48.300Z,cartservice,memory,21864448
2023-07-04T21:02:48.300Z,cartservice,memory,21946368
2023-07-04T21:02:48.275Z,frontend,memory,12038144
2023-07-04T21:02:48.275Z,checkoutservice,memory,10981376
2023-07-04T21:02:48.295Z,recommendationservice,memory,43692032
2023-07-04T21:02:58.275Z,cartservice,memory,21553152
2023-07-04T21:02:58.275Z,productcatalogservice,memory,10588160
2023-07-04T21:02:58.275Z,redis-cart,memory,8138752
2023-07-04T21:02:58.295Z,cartservice,memory,22065152
2023-07-04T21:02:58.295Z,recommendationservice,memory,43692032
2023-07-04T21:02:58.295Z,cartservice,memory,22384640
2023-07-04T21:02:58.275Z,shippingservice,memory,8048640
2023-07-04T21:02:58.299Z,cartservice,memory,21864448
2023-07-04T21:02:58.275Z,checkoutservice,memory,11108352
2023-07-04T21:02:58.275Z,cartservice,memory,21630976
2023-07-04T21:02:58.275Z,cartservice,memory,24973312
2023-07-04T21:02:58.299Z,cartservice,memory,28258304
2023-07-04T21:02:58.299Z,cartservice,memory,23392256
2023-07-04T21:02:58.299Z,adservice,memory,77619200
2023-07-04T21:02:58.295Z,currencyservice,memory,23138304
2023-07-04T21:02:58.295Z,paymentservice,memory,19341312
2023-07-04T21:02:58.295Z,cartservice,memory,21606400
2023-07-04T21:02:58.295Z,cartservice,memory,21929984
2023-07-04T21:02:58.295Z,cartservice,memory,22396928
2023-07-04T21:02:58.295Z,cartservice,memory,22544384
2023-07-04T21:02:58.299Z,emailservice,memory,42954752
2023-07-04T21:02:58.299Z,cartservice,memory,28131328
2023-07-04T21:02:58.299Z,cartservice,memory,21946368
2023-07-04T21:02:58.275Z,cartservice,memory,21630976
2023-07-04T21:02:58.275Z,cartservice,memory,22568960
2023-07-04T21:02:58.275Z,frontend,memory,12533760
2023-07-04T21:03:08.295Z,recommendationservice,memory,43692032
2023-07-04T21:03:08.275Z,cartservice,memory,22638592
2023-07-04T21:03:08.275Z,cartservice,memory,22749184
2023-07-04T21:03:08.299Z,cartservice,memory,29319168
2023-07-04T21:03:08.295Z,cartservice,memory,22396928
2023-07-04T21:03:08.295Z,cartservice,memory,22065152
2023-07-04T21:03:08.295Z,cartservice,memory,22384640
2023-07-04T21:03:08.275Z,cartservice,memory,22568960
2023-07-04T21:03:08.275Z,cartservice,memory,22650880
2023-07-04T21:03:08.275Z,productcatalogservice,memory,10633216
2023-07-04T21:03:08.299Z,cartservice,memory,22667264
2023-07-04T21:03:08.299Z,emailservice,memory,42962944
2023-07-04T21:03:08.295Z,currencyservice,memory,23138304
2023-07-04T21:03:08.295Z,cartservice,memory,22544384
2023-07-04T21:03:08.275Z,frontend,memory,12533760
2023-07-04T21:03:08.275Z,cartservice,memory,22843392
2023-07-04T21:03:08.299Z,adservice,memory,78032896
2023-07-04T21:03:08.299Z,cartservice,memory,27734016
2023-07-04T21:03:08.295Z,paymentservice,memory,19341312
2023-07-04T21:03:08.295Z,cartservice,memory,21606400
2023-07-04T21:03:08.295Z,cartservice,memory,21929984
2023-07-04T21:03:08.275Z,checkoutservice,memory,16199680
2023-07-04T21:03:08.275Z,redis-cart,memory,8024064
2023-07-04T21:03:08.275Z,shippingservice,memory,8048640
2023-07-04T21:03:08.299Z,cartservice,memory,22413312
2023-07-04T21:03:08.299Z,cartservice,memory,22523904
2023-07-04T21:03:18.275Z,cartservice,memory,22749184
2023-07-04T21:03:18.275Z,shippingservice,memory,8048640
2023-07-04T21:03:18.275Z,cartservice,memory,22822912
2023-07-04T21:03:18.300Z,cartservice,memory,29319168
2023-07-04T21:03:18.300Z,adservice,memory,78032896
2023-07-04T21:03:18.295Z,paymentservice,memory,19881984
2023-07-04T21:03:18.275Z,checkoutservice,memory,16199680
2023-07-04T21:03:18.275Z,cartservice,memory,22843392
2023-07-04T21:03:18.300Z,cartservice,memory,27734016
2023-07-04T21:03:18.300Z,cartservice,memory,24047616
2023-07-04T21:03:18.295Z,currencyservice,memory,23425024
2023-07-04T21:03:18.275Z,frontend,memory,12832768
2023-07-04T21:03:18.275Z,productcatalogservice,memory,10633216
2023-07-04T21:03:18.275Z,cartservice,memory,22650880
2023-07-04T21:03:18.300Z,emailservice,memory,42962944
2023-07-04T21:03:18.295Z,cartservice,memory,22618112
2023-07-04T21:03:18.295Z,cartservice,memory,23339008
2023-07-04T21:03:18.295Z,recommendationservice,memory,43696128
2023-07-04T21:03:18.275Z,cartservice,memory,22638592
2023-07-04T21:03:18.275Z,redis-cart,memory,8011776
2023-07-04T21:03:18.300Z,cartservice,memory,22573056
2023-07-04T21:03:18.300Z,cartservice,memory,22990848
2023-07-04T21:03:18.295Z,cartservice,memory,23470080
2023-07-04T21:03:18.295Z,cartservice,memory,21954560
2023-07-04T21:03:18.295Z,cartservice,memory,22188032
2023-07-04T21:03:18.295Z,cartservice,memory,27635712
2023-07-04T21:03:28.275Z,frontend,memory,12832768
2023-07-04T21:03:28.275Z,cartservice,memory,22872064
2023-07-04T21:03:28.299Z,emailservice,memory,42962944
2023-07-04T21:03:28.275Z,cartservice,memory,24150016
2023-07-04T21:03:28.299Z,cartservice,memory,24047616
2023-07-04T21:03:28.299Z,cartservice,memory,22990848
2023-07-04T21:03:28.299Z,adservice,memory,78032896
2023-07-04T21:03:28.275Z,productcatalogservice,memory,10645504
2023-07-04T21:03:28.275Z,cartservice,memory,22298624
2023-07-04T21:03:28.275Z,checkoutservice,memory,11239424
2023-07-04T21:03:28.275Z,cartservice,memory,24088576
2023-07-04T21:03:28.275Z,redis-cart,memory,8011776
2023-07-04T21:03:28.275Z,cartservice,memory,22990848
2023-07-04T21:03:28.275Z,shippingservice,memory,8105984
2023-07-04T21:03:28.299Z,cartservice,memory,29319168
2023-07-04T21:03:28.299Z,cartservice,memory,22573056
2023-07-04T21:03:28.299Z,cartservice,memory,27734016
2023-07-04T21:03:28.295Z,cartservice,memory,23339008
2023-07-04T21:03:28.295Z,currencyservice,memory,23175168
2023-07-04T21:03:28.295Z,cartservice,memory,23908352
2023-07-04T21:03:28.295Z,cartservice,memory,22618112
2023-07-04T21:03:28.295Z,paymentservice,memory,19881984
2023-07-04T21:03:28.295Z,cartservice,memory,23470080
2023-07-04T21:03:28.295Z,recommendationservice,memory,43696128
2023-07-04T21:03:28.295Z,cartservice,memory,27635712
2023-07-04T21:03:28.295Z,cartservice,memory,22188032
2023-07-04T21:03:38.275Z,cartservice,memory,24150016
2023-07-04T21:03:38.275Z,redis-cart,memory,8011776
2023-07-04T21:03:38.300Z,cartservice,memory,31825920
2023-07-04T21:03:38.275Z,productcatalogservice,memory,10645504
2023-07-04T21:03:38.275Z,checkoutservice,memory,11239424
2023-07-04T21:03:38.300Z,adservice,memory,78430208
2023-07-04T21:03:38.300Z,cartservice,memory,30818304
2023-07-04T21:03:38.275Z,frontend,memory,12832768
2023-07-04T21:03:38.275Z,cartservice,memory,22298624
2023-07-04T21:03:38.275Z,cartservice,memory,22872064
2023-07-04T21:03:38.275Z,cartservice,memory,24088576
2023-07-04T21:03:38.300Z,cartservice,memory,24137728
2023-07-04T21:03:38.300Z,cartservice,memory,24231936
2023-07-04T21:03:38.300Z,cartservice,memory,24170496
2023-07-04T21:03:38.275Z,cartservice,memory,22990848
2023-07-04T21:03:38.275Z,shippingservice,memory,8105984
2023-07-04T21:03:38.295Z,recommendationservice,memory,43757568
2023-07-04T21:03:38.295Z,currencyservice,memory,23175168
2023-07-04T21:03:38.295Z,paymentservice,memory,19353600
2023-07-04T21:03:38.295Z,cartservice,memory,24182784
2023-07-04T21:03:38.295Z,cartservice,memory,23789568
2023-07-04T21:03:38.295Z,cartservice,memory,23908352
2023-07-04T21:03:38.295Z,cartservice,memory,24162304
2023-07-04T21:03:38.295Z,cartservice,memory,24158208
2023-07-04T21:03:38.295Z,cartservice,memory,24260608
2023-07-04T21:03:38.300Z,emailservice,memory,42995712
2023-07-04T21:03:48.295Z,cartservice,memory,23384064
2023-07-04T21:03:48.295Z,cartservice,memory,24485888
2023-07-04T21:03:48.275Z,cartservice,memory,24195072
2023-07-04T21:03:48.295Z,cartservice,memory,24346624
2023-07-04T21:03:48.275Z,cartservice,memory,24485888
2023-07-04T21:03:48.299Z,cartservice,memory,24363008
2023-07-04T21:03:48.295Z,paymentservice,memory,19582976
2023-07-04T21:03:48.295Z,cartservice,memory,23789568
2023-07-04T21:03:48.295Z,cartservice,memory,24244224
2023-07-04T21:03:48.275Z,productcatalogservice,memory,10661888
2023-07-04T21:03:48.275Z,cartservice,memory,24252416
2023-07-04T21:03:48.275Z,cartservice,memory,24260608
2023-07-04T21:03:48.275Z,shippingservice,memory,8196096
2023-07-04T21:03:48.295Z,recommendationservice,memory,43696128
2023-07-04T21:03:48.295Z,currencyservice,memory,23719936
2023-07-04T21:03:48.295Z,cartservice,memory,24444928
2023-07-04T21:03:48.275Z,checkoutservice,memory,11251712
2023-07-04T21:03:48.275Z,cartservice,memory,24281088
2023-07-04T21:03:48.275Z,frontend,memory,13062144
2023-07-04T21:03:48.275Z,redis-cart,memory,8015872
2023-07-04T21:03:48.299Z,cartservice,memory,32178176
2023-07-04T21:03:48.299Z,cartservice,memory,30818304
2023-07-04T21:03:48.299Z,emailservice,memory,42995712
2023-07-04T21:03:48.299Z,cartservice,memory,23416832
2023-07-04T21:03:48.299Z,adservice,memory,78983168
2023-07-04T21:03:48.299Z,cartservice,memory,24461312
2023-07-04T21:03:58.275Z,cartservice,memory,24485888
2023-07-04T21:03:58.275Z,redis-cart,memory,8015872
2023-07-04T21:03:58.275Z,cartservice,memory,23744512
2023-07-04T21:03:58.295Z,cartservice,memory,24244224
2023-07-04T21:03:58.275Z,cartservice,memory,23400448
2023-07-04T21:03:58.275Z,productcatalogservice,memory,10661888
2023-07-04T21:03:58.275Z,shippingservice,memory,8196096
2023-07-04T21:03:58.275Z,cartservice,memory,23339008
2023-07-04T21:03:58.275Z,cartservice,memory,23298048
2023-07-04T21:03:58.295Z,cartservice,memory,24346624
2023-07-04T21:03:58.295Z,recommendationservice,memory,43696128
2023-07-04T21:03:58.300Z,emailservice,memory,42999808
2023-07-04T21:03:58.300Z,cartservice,memory,23416832
2023-07-04T21:03:58.295Z,currencyservice,memory,23719936
2023-07-04T21:03:58.300Z,cartservice,memory,24457216
2023-07-04T21:03:58.295Z,paymentservice,memory,19582976
2023-07-04T21:03:58.300Z,adservice,memory,78995456
2023-07-04T21:03:58.300Z,cartservice,memory,32178176
2023-07-04T21:03:58.300Z,cartservice,memory,24461312
2023-07-04T21:03:58.295Z,cartservice,memory,23384064
2023-07-04T21:03:58.295Z,cartservice,memory,24444928
2023-07-04T21:03:58.295Z,cartservice,memory,23789568
2023-07-04T21:03:58.300Z,cartservice,memory,30310400
2023-07-04T21:03:58.295Z,cartservice,memory,24485888
2023-07-04T21:03:58.275Z,checkoutservice,memory,11284480
2023-07-04T21:03:58.275Z,frontend,memory,12599296
2023-07-04T21:04:08.275Z,checkoutservice,memory,11284480
2023-07-04T21:04:08.300Z,cartservice,memory,24698880
2023-07-04T21:04:08.275Z,cartservice,memory,23068672
2023-07-04T21:04:08.275Z,redis-cart,memory,8019968
2023-07-04T21:04:08.275Z,cartservice,memory,23429120
2023-07-04T21:04:08.275Z,shippingservice,memory,8204288
2023-07-04T21:04:08.300Z,cartservice,memory,30310400
2023-07-04T21:04:08.295Z,cartservice,memory,23543808
2023-07-04T21:04:08.295Z,currencyservice,memory,23896064
2023-07-04T21:04:08.275Z,cartservice,memory,23339008
2023-07-04T21:04:08.300Z,emailservice,memory,42999808
2023-07-04T21:04:08.300Z,cartservice,memory,32403456
2023-07-04T21:04:08.295Z,cartservice,memory,24625152
2023-07-04T21:04:08.295Z,cartservice,memory,23314432
2023-07-04T21:04:08.275Z,cartservice,memory,23744512
2023-07-04T21:04:08.275Z,productcatalogservice,memory,10674176
2023-07-04T21:04:08.275Z,frontend,memory,12599296
2023-07-04T21:04:08.275Z,cartservice,memory,24608768
2023-07-04T21:04:08.300Z,cartservice,memory,24457216
2023-07-04T21:04:08.300Z,adservice,memory,78995456
2023-07-04T21:04:08.300Z,cartservice,memory,22863872
2023-07-04T21:04:08.295Z,cartservice,memory,22904832
2023-07-04T21:04:08.295Z,recommendationservice,memory,43700224
2023-07-04T21:04:08.295Z,cartservice,memory,22904832
2023-07-04T21:04:08.295Z,paymentservice,memory,19898368
2023-07-04T21:04:08.295Z,cartservice,memory,22769664
2023-07-04T21:04:18.275Z,redis-cart,memory,8146944
2023-07-04T21:04:18.275Z,cartservice,memory,23982080
2023-07-04T21:04:18.299Z,cartservice,memory,24457216
2023-07-04T21:04:18.294Z,cartservice,memory,22769664
2023-07-04T21:04:18.294Z,cartservice,memory,22999040
2023-07-04T21:04:18.294Z,recommendationservice,memory,43773952
2023-07-04T21:04:18.275Z,productcatalogservice,memory,10809344
2023-07-04T21:04:18.275Z,cartservice,memory,24064000
2023-07-04T21:04:18.294Z,paymentservice,memory,20189184
2023-07-04T21:04:18.294Z,cartservice,memory,24625152
2023-07-04T21:04:18.294Z,cartservice,memory,23433216
2023-07-04T21:04:18.275Z,cartservice,memory,23183360
2023-07-04T21:04:18.275Z,checkoutservice,memory,11374592
2023-07-04T21:04:18.275Z,shippingservice,memory,8208384
2023-07-04T21:04:18.275Z,cartservice,memory,24088576
2023-07-04T21:04:18.294Z,currencyservice,memory,24526848
2023-07-04T21:04:18.294Z,cartservice,memory,22904832
2023-07-04T21:04:18.275Z,frontend,memory,12705792
2023-07-04T21:04:18.275Z,cartservice,memory,23478272
2023-07-04T21:04:18.299Z,emailservice,memory,42999808
2023-07-04T21:04:18.299Z,adservice,memory,78995456
2023-07-04T21:04:18.299Z,cartservice,memory,24698880
2023-07-04T21:04:18.299Z,cartservice,memory,32403456
2023-07-04T21:04:18.299Z,cartservice,memory,22863872
2023-07-04T21:04:18.299Z,cartservice,memory,30310400
2023-07-04T21:04:18.294Z,cartservice,memory,22904832
2023-07-04T21:04:28.275Z,cartservice,memory,23183360
2023-07-04T21:04:28.275Z,checkoutservice,memory,11374592
2023-07-04T21:04:28.275Z,shippingservice,memory,8208384
2023-07-04T21:04:28.275Z,cartservice,memory,24088576
2023-07-04T21:04:28.295Z,cartservice,memory,23318528
2023-07-04T21:04:28.300Z,cartservice,memory,24023040
2023-07-04T21:04:28.275Z,redis-cart,memory,8146944
2023-07-04T21:04:28.275Z,cartservice,memory,23982080
2023-07-04T21:04:28.300Z,emailservice,memory,43003904
2023-07-04T21:04:28.300Z,adservice,memory,79482880
2023-07-04T21:04:28.295Z,paymentservice,memory,20189184
2023-07-04T21:04:28.275Z,frontend,memory,12705792
2023-07-04T21:04:28.275Z,cartservice,memory,23478272
2023-07-04T21:04:28.300Z,cartservice,memory,23318528
2023-07-04T21:04:28.300Z,cartservice,memory,31350784
2023-07-04T21:04:28.300Z,cartservice,memory,29589504
2023-07-04T21:04:28.295Z,cartservice,memory,23334912
2023-07-04T21:04:28.295Z,recommendationservice,memory,43773952
2023-07-04T21:04:28.295Z,cartservice,memory,23433216
2023-07-04T21:04:28.295Z,cartservice,memory,23236608
2023-07-04T21:04:28.275Z,productcatalogservice,memory,10809344
2023-07-04T21:04:28.275Z,cartservice,memory,24064000
2023-07-04T21:04:28.300Z,cartservice,memory,24674304
2023-07-04T21:04:28.295Z,cartservice,memory,23031808
2023-07-04T21:04:28.295Z,currencyservice,memory,24526848
2023-07-04T21:04:28.295Z,cartservice,memory,24006656
2023-07-04T21:04:38.299Z,adservice,memory,79761408
2023-07-04T21:04:38.299Z,cartservice,memory,29106176
2023-07-04T21:04:38.294Z,paymentservice,memory,19619840
2023-07-04T21:04:38.275Z,checkoutservice,memory,11386880
2023-07-04T21:04:38.299Z,cartservice,memory,23351296
2023-07-04T21:04:38.294Z,cartservice,memory,23334912
2023-07-04T21:04:38.294Z,cartservice,memory,23269376
2023-07-04T21:04:38.275Z,cartservice,memory,24317952
2023-07-04T21:04:38.275Z,frontend,memory,12845056
2023-07-04T21:04:38.275Z,cartservice,memory,24276992
2023-07-04T21:04:38.275Z,shippingservice,memory,8437760
2023-07-04T21:04:38.275Z,cartservice,memory,23298048
2023-07-04T21:04:38.275Z,cartservice,memory,23105536
2023-07-04T21:04:38.275Z,redis-cart,memory,8151040
2023-07-04T21:04:38.275Z,productcatalogservice,memory,10825728
2023-07-04T21:04:38.275Z,cartservice,memory,23461888
2023-07-04T21:04:38.299Z,cartservice,memory,25006080
2023-07-04T21:04:38.294Z,currencyservice,memory,24633344
2023-07-04T21:04:38.294Z,cartservice,memory,23261184
2023-07-04T21:04:38.294Z,cartservice,memory,24158208
2023-07-04T21:04:38.299Z,cartservice,memory,31350784
2023-07-04T21:04:38.299Z,emailservice,memory,45092864
2023-07-04T21:04:38.299Z,cartservice,memory,23273472
2023-07-04T21:04:38.294Z,cartservice,memory,23236608
2023-07-04T21:04:38.294Z,cartservice,memory,24461312
2023-07-04T21:04:38.294Z,recommendationservice,memory,43786240
2023-07-04T21:04:48.295Z,cartservice,memory,23322624
2023-07-04T21:04:48.295Z,cartservice,memory,23465984
2023-07-04T21:04:48.295Z,cartservice,memory,23302144
2023-07-04T21:04:48.299Z,cartservice,memory,23625728
2023-07-04T21:04:48.299Z,emailservice,memory,45092864
2023-07-04T21:04:48.275Z,redis-cart,memory,8151040
2023-07-04T21:04:48.295Z,currencyservice,memory,25157632
2023-07-04T21:04:48.299Z,cartservice,memory,29106176
2023-07-04T21:04:48.299Z,cartservice,memory,25006080
2023-07-04T21:04:48.275Z,shippingservice,memory,8605696
2023-07-04T21:04:48.275Z,checkoutservice,memory,11382784
2023-07-04T21:04:48.295Z,cartservice,memory,23519232
2023-07-04T21:04:48.295Z,paymentservice,memory,19734528
2023-07-04T21:04:48.299Z,adservice,memory,79925248
2023-07-04T21:04:48.275Z,cartservice,memory,23683072
2023-07-04T21:04:48.275Z,frontend,memory,12845056
2023-07-04T21:04:48.275Z,productcatalogservice,memory,10657792
2023-07-04T21:04:48.295Z,cartservice,memory,24473600
2023-07-04T21:04:48.295Z,recommendationservice,memory,43786240
2023-07-04T21:04:48.295Z,cartservice,memory,24158208
2023-07-04T21:04:48.299Z,cartservice,memory,23539712
2023-07-04T21:04:48.299Z,cartservice,memory,31817728
2023-07-04T21:04:48.275Z,cartservice,memory,23506944
2023-07-04T21:04:48.275Z,cartservice,memory,24461312
2023-07-04T21:04:48.275Z,cartservice,memory,24444928
2023-07-04T21:04:48.275Z,cartservice,memory,24399872
2023-07-04T21:04:58.275Z,frontend,memory,12955648
2023-07-04T21:04:58.275Z,checkoutservice,memory,11382784
2023-07-04T21:04:58.295Z,cartservice,memory,23773184
2023-07-04T21:04:58.300Z,cartservice,memory,31817728
2023-07-04T21:04:58.275Z,cartservice,memory,23506944
2023-07-04T21:04:58.275Z,cartservice,memory,24461312
2023-07-04T21:04:58.275Z,redis-cart,memory,8015872
2023-07-04T21:04:58.275Z,shippingservice,memory,8626176
2023-07-04T21:04:58.295Z,cartservice,memory,23322624
2023-07-04T21:04:58.300Z,adservice,memory,79925248
2023-07-04T21:04:58.300Z,cartservice,memory,23773184
2023-07-04T21:04:58.300Z,cartservice,memory,23789568
2023-07-04T21:04:58.300Z,emailservice,memory,45092864
2023-07-04T21:04:58.275Z,cartservice,memory,24399872
2023-07-04T21:04:58.275Z,productcatalogservice,memory,10657792
2023-07-04T21:04:58.275Z,cartservice,memory,24621056
2023-07-04T21:04:58.275Z,cartservice,memory,23871488
2023-07-04T21:04:58.295Z,currencyservice,memory,25264128
2023-07-04T21:04:58.295Z,cartservice,memory,23625728
2023-07-04T21:04:58.295Z,cartservice,memory,24473600
2023-07-04T21:04:58.295Z,recommendationservice,memory,43790336
2023-07-04T21:04:58.295Z,cartservice,memory,23777280
2023-07-04T21:04:58.295Z,paymentservice,memory,19734528
2023-07-04T21:04:58.295Z,cartservice,memory,23519232
2023-07-04T21:04:58.300Z,cartservice,memory,23625728
2023-07-04T21:04:58.300Z,cartservice,memory,29396992
2023-07-04T21:05:08.275Z,cartservice,memory,23506944
2023-07-04T21:05:08.275Z,cartservice,memory,24461312
2023-07-04T21:05:08.295Z,cartservice,memory,23773184
2023-07-04T21:05:08.275Z,frontend,memory,12955648
2023-07-04T21:05:08.275Z,checkoutservice,memory,11382784
2023-07-04T21:05:08.295Z,recommendationservice,memory,43798528
2023-07-04T21:05:08.299Z,cartservice,memory,23773184
2023-07-04T21:05:08.299Z,cartservice,memory,23625728
2023-07-04T21:05:08.299Z,cartservice,memory,31817728
2023-07-04T21:05:08.275Z,cartservice,memory,24399872
2023-07-04T21:05:08.275Z,productcatalogservice,memory,10657792
2023-07-04T21:05:08.275Z,cartservice,memory,24621056
2023-07-04T21:05:08.275Z,cartservice,memory,23871488
2023-07-04T21:05:08.295Z,cartservice,memory,23724032
2023-07-04T21:05:08.295Z,currencyservice,memory,25264128
2023-07-04T21:05:08.295Z,cartservice,memory,23957504
2023-07-04T21:05:08.295Z,cartservice,memory,23625728
2023-07-04T21:05:08.299Z,cartservice,memory,29396992
2023-07-04T21:05:08.275Z,redis-cart,memory,8015872
2023-07-04T21:05:08.275Z,shippingservice,memory,8626176
2023-07-04T21:05:08.295Z,cartservice,memory,23822336
2023-07-04T21:05:08.295Z,cartservice,memory,23777280
2023-07-04T21:05:08.295Z,paymentservice,memory,20058112
2023-07-04T21:05:08.299Z,adservice,memory,79925248
2023-07-04T21:05:08.299Z,cartservice,memory,23789568
2023-07-04T21:05:08.299Z,emailservice,memory,45092864
2023-07-04T21:05:18.295Z,currencyservice,memory,26058752
2023-07-04T21:05:18.275Z,redis-cart,memory,8015872
2023-07-04T21:05:18.275Z,shippingservice,memory,8630272
2023-07-04T21:05:18.299Z,cartservice,memory,23928832
2023-07-04T21:05:18.299Z,emailservice,memory,45088768
2023-07-04T21:05:18.299Z,cartservice,memory,23822336
2023-07-04T21:05:18.295Z,cartservice,memory,24014848
2023-07-04T21:05:18.295Z,cartservice,memory,23724032
2023-07-04T21:05:18.295Z,cartservice,memory,23957504
2023-07-04T21:05:18.275Z,cartservice,memory,24088576
2023-07-04T21:05:18.275Z,productcatalogservice,memory,10731520
2023-07-04T21:05:18.275Z,frontend,memory,13078528
2023-07-04T21:05:18.299Z,adservice,memory,80445440
2023-07-04T21:05:18.299Z,cartservice,memory,32542720
2023-07-04T21:05:18.295Z,cartservice,memory,24809472
2023-07-04T21:05:18.295Z,cartservice,memory,24821760
2023-07-04T21:05:18.295Z,recommendationservice,memory,43798528
2023-07-04T21:05:18.275Z,cartservice,memory,24002560
2023-07-04T21:05:18.275Z,cartservice,memory,24072192
2023-07-04T21:05:18.275Z,cartservice,memory,23912448
2023-07-04T21:05:18.299Z,cartservice,memory,23875584
2023-07-04T21:05:18.295Z,cartservice,memory,24924160
2023-07-04T21:05:18.295Z,paymentservice,memory,20058112
2023-07-04T21:05:18.275Z,checkoutservice,memory,11386880
2023-07-04T21:05:18.275Z,cartservice,memory,24768512
2023-07-04T21:05:18.299Z,cartservice,memory,29593600
2023-07-04T21:05:28.275Z,checkoutservice,memory,11390976
2023-07-04T21:05:28.275Z,redis-cart,memory,8015872
2023-07-04T21:05:28.295Z,currencyservice,memory,26058752
2023-07-04T21:05:28.300Z,cartservice,memory,23822336
2023-07-04T21:05:28.275Z,cartservice,memory,24088576
2023-07-04T21:05:28.275Z,cartservice,memory,25124864
2023-07-04T21:05:28.275Z,frontend,memory,13234176
2023-07-04T21:05:28.295Z,cartservice,memory,24924160
2023-07-04T21:05:28.295Z,paymentservice,memory,20058112
2023-07-04T21:05:28.300Z,cartservice,memory,25047040
2023-07-04T21:05:28.300Z,cartservice,memory,30556160
2023-07-04T21:05:28.300Z,cartservice,memory,32542720
2023-07-04T21:05:28.275Z,cartservice,memory,25100288
2023-07-04T21:05:28.275Z,cartservice,memory,24059904
2023-07-04T21:05:28.295Z,cartservice,memory,24809472
2023-07-04T21:05:28.295Z,cartservice,memory,24821760
2023-07-04T21:05:28.295Z,recommendationservice,memory,43798528
2023-07-04T21:05:28.295Z,cartservice,memory,23957504
2023-07-04T21:05:28.300Z,emailservice,memory,45088768
2023-07-04T21:05:28.300Z,cartservice,memory,24109056
2023-07-04T21:05:28.300Z,adservice,memory,80445440
2023-07-04T21:05:28.275Z,cartservice,memory,24182784
2023-07-04T21:05:28.275Z,shippingservice,memory,8511488
2023-07-04T21:05:28.275Z,productcatalogservice,memory,10731520
2023-07-04T21:05:28.295Z,cartservice,memory,24014848
2023-07-04T21:05:28.295Z,cartservice,memory,23724032
2023-07-04T21:05:38.275Z,checkoutservice,memory,11390976
2023-07-04T21:05:38.275Z,redis-cart,memory,8015872
2023-07-04T21:05:38.300Z,cartservice,memory,30556160
2023-07-04T21:05:38.300Z,cartservice,memory,24203264
2023-07-04T21:05:38.294Z,recommendationservice,memory,43823104
2023-07-04T21:05:38.294Z,cartservice,memory,25186304
2023-07-04T21:05:38.275Z,cartservice,memory,24088576
2023-07-04T21:05:38.275Z,cartservice,memory,25124864
2023-07-04T21:05:38.275Z,frontend,memory,13234176
2023-07-04T21:05:38.300Z,cartservice,memory,24109056
2023-07-04T21:05:38.294Z,cartservice,memory,25079808
2023-07-04T21:05:38.275Z,cartservice,memory,24182784
2023-07-04T21:05:38.275Z,shippingservice,memory,8511488
2023-07-04T21:05:38.275Z,productcatalogservice,memory,10731520
2023-07-04T21:05:38.300Z,adservice,memory,81199104
2023-07-04T21:05:38.300Z,cartservice,memory,24043520
2023-07-04T21:05:38.300Z,cartservice,memory,32731136
2023-07-04T21:05:38.294Z,cartservice,memory,25071616
2023-07-04T21:05:38.275Z,cartservice,memory,25100288
2023-07-04T21:05:38.275Z,cartservice,memory,24059904
2023-07-04T21:05:38.300Z,emailservice,memory,45088768
2023-07-04T21:05:38.294Z,paymentservice,memory,19648512
2023-07-04T21:05:38.294Z,cartservice,memory,24891392
2023-07-04T21:05:38.294Z,cartservice,memory,24039424
2023-07-04T21:05:38.294Z,cartservice,memory,24059904
2023-07-04T21:05:38.294Z,currencyservice,memory,26251264
2023-07-04T21:05:48.295Z,cartservice,memory,24236032
2023-07-04T21:05:48.295Z,recommendationservice,memory,43823104
2023-07-04T21:05:48.300Z,cartservice,memory,32731136
2023-07-04T21:05:48.275Z,checkoutservice,memory,11399168
2023-07-04T21:05:48.295Z,paymentservice,memory,19648512
2023-07-04T21:05:48.295Z,cartservice,memory,24342528
2023-07-04T21:05:48.300Z,adservice,memory,81199104
2023-07-04T21:05:48.300Z,cartservice,memory,30556160
2023-07-04T21:05:48.275Z,redis-cart,memory,8003584
2023-07-04T21:05:48.295Z,cartservice,memory,24186880
2023-07-04T21:05:48.300Z,cartservice,memory,24109056
2023-07-04T21:05:48.275Z,cartservice,memory,24256512
2023-07-04T21:05:48.275Z,productcatalogservice,memory,10747904
2023-07-04T21:05:48.275Z,shippingservice,memory,8515584
2023-07-04T21:05:48.275Z,cartservice,memory,24276992
2023-07-04T21:05:48.295Z,cartservice,memory,25223168
2023-07-04T21:05:48.295Z,currencyservice,memory,26243072
2023-07-04T21:05:48.295Z,cartservice,memory,24420352
2023-07-04T21:05:48.295Z,cartservice,memory,24403968
2023-07-04T21:05:48.300Z,cartservice,memory,24043520
2023-07-04T21:05:48.300Z,cartservice,memory,24203264
2023-07-04T21:05:48.300Z,emailservice,memory,45088768
2023-07-04T21:05:48.275Z,cartservice,memory,24276992
2023-07-04T21:05:48.275Z,frontend,memory,13352960
2023-07-04T21:05:48.275Z,cartservice,memory,24330240
2023-07-04T21:05:48.275Z,cartservice,memory,24363008
2023-07-04T21:05:58.294Z,cartservice,memory,25223168
2023-07-04T21:05:58.294Z,cartservice,memory,24403968
2023-07-04T21:05:58.300Z,cartservice,memory,33325056
2023-07-04T21:05:58.300Z,cartservice,memory,30208000
2023-07-04T21:05:58.294Z,cartservice,memory,24186880
2023-07-04T21:05:58.294Z,recommendationservice,memory,43823104
2023-07-04T21:05:58.294Z,cartservice,memory,24342528
2023-07-04T21:05:58.275Z,redis-cart,memory,8003584
2023-07-04T21:05:58.275Z,cartservice,memory,24256512
2023-07-04T21:05:58.275Z,cartservice,memory,24584192
2023-07-04T21:05:58.300Z,adservice,memory,80916480
2023-07-04T21:05:58.294Z,cartservice,memory,24236032
2023-07-04T21:05:58.294Z,paymentservice,memory,19648512
2023-07-04T21:05:58.275Z,checkoutservice,memory,11403264
2023-07-04T21:05:58.275Z,productcatalogservice,memory,10743808
2023-07-04T21:05:58.275Z,cartservice,memory,24477696
2023-07-04T21:05:58.275Z,cartservice,memory,24584192
2023-07-04T21:05:58.300Z,cartservice,memory,25526272
2023-07-04T21:05:58.294Z,currencyservice,memory,26243072
2023-07-04T21:05:58.294Z,cartservice,memory,24420352
2023-07-04T21:05:58.275Z,shippingservice,memory,8515584
2023-07-04T21:05:58.275Z,frontend,memory,13352960
2023-07-04T21:05:58.275Z,cartservice,memory,24432640
2023-07-04T21:05:58.300Z,emailservice,memory,45092864
2023-07-04T21:05:58.300Z,cartservice,memory,25329664
2023-07-04T21:05:58.300Z,cartservice,memory,24334336
2023-07-04T21:06:08.275Z,cartservice,memory,24494080
2023-07-04T21:06:08.275Z,cartservice,memory,24477696
2023-07-04T21:06:08.299Z,cartservice,memory,34021376
2023-07-04T21:06:08.299Z,cartservice,memory,24498176
2023-07-04T21:06:08.294Z,paymentservice,memory,20111360
2023-07-04T21:06:08.275Z,cartservice,memory,24584192
2023-07-04T21:06:08.275Z,checkoutservice,memory,11415552
2023-07-04T21:06:08.299Z,cartservice,memory,25440256
2023-07-04T21:06:08.294Z,cartservice,memory,24440832
2023-07-04T21:06:08.294Z,cartservice,memory,25395200
2023-07-04T21:06:08.275Z,productcatalogservice,memory,10743808
2023-07-04T21:06:08.275Z,cartservice,memory,24756224
2023-07-04T21:06:08.275Z,cartservice,memory,24641536
2023-07-04T21:06:08.299Z,cartservice,memory,25526272
2023-07-04T21:06:08.299Z,adservice,memory,80916480
2023-07-04T21:06:08.294Z,cartservice,memory,24453120
2023-07-04T21:06:08.275Z,shippingservice,memory,8523776
2023-07-04T21:06:08.275Z,frontend,memory,13287424
2023-07-04T21:06:08.275Z,redis-cart,memory,8581120
2023-07-04T21:06:08.299Z,emailservice,memory,45096960
2023-07-04T21:06:08.299Z,cartservice,memory,31395840
2023-07-04T21:06:08.294Z,currencyservice,memory,27045888
2023-07-04T21:06:08.294Z,cartservice,memory,24735744
2023-07-04T21:06:08.294Z,recommendationservice,memory,43839488
2023-07-04T21:06:08.294Z,cartservice,memory,24596480
2023-07-04T21:06:08.294Z,cartservice,memory,24535040
2023-07-04T21:06:18.275Z,shippingservice,memory,8523776
2023-07-04T21:06:18.275Z,frontend,memory,13287424
2023-07-04T21:06:18.275Z,redis-cart,memory,8581120
2023-07-04T21:06:18.294Z,paymentservice,memory,20111360
2023-07-04T21:06:18.275Z,cartservice,memory,24494080
2023-07-04T21:06:18.275Z,cartservice,memory,24477696
2023-07-04T21:06:18.294Z,cartservice,memory,24596480
2023-07-04T21:06:18.294Z,cartservice,memory,24535040
2023-07-04T21:06:18.299Z,cartservice,memory,31395840
2023-07-04T21:06:18.275Z,productcatalogservice,memory,10743808
2023-07-04T21:06:18.275Z,cartservice,memory,24756224
2023-07-04T21:06:18.275Z,cartservice,memory,24641536
2023-07-04T21:06:18.299Z,emailservice,memory,45096960
2023-07-04T21:06:18.299Z,cartservice,memory,25440256
2023-07-04T21:06:18.299Z,adservice,memory,80916480
2023-07-04T21:06:18.275Z,cartservice,memory,24584192
2023-07-04T21:06:18.275Z,checkoutservice,memory,11415552
2023-07-04T21:06:18.294Z,cartservice,memory,24768512
2023-07-04T21:06:18.294Z,cartservice,memory,25395200
2023-07-04T21:06:18.299Z,cartservice,memory,34021376
2023-07-04T21:06:18.299Z,cartservice,memory,25526272
2023-07-04T21:06:18.294Z,currencyservice,memory,27340800
2023-07-04T21:06:18.294Z,cartservice,memory,24735744
2023-07-04T21:06:18.299Z,cartservice,memory,24498176
2023-07-04T21:06:18.294Z,cartservice,memory,24866816
2023-07-04T21:06:18.294Z,recommendationservice,memory,43835392
2023-07-04T21:06:28.295Z,cartservice,memory,25137152
2023-07-04T21:06:28.295Z,recommendationservice,memory,43835392
2023-07-04T21:06:28.275Z,redis-cart,memory,8593408
2023-07-04T21:06:28.300Z,cartservice,memory,25219072
2023-07-04T21:06:28.295Z,paymentservice,memory,20402176
2023-07-04T21:06:28.295Z,cartservice,memory,25042944
2023-07-04T21:06:28.275Z,productcatalogservice,memory,10874880
2023-07-04T21:06:28.275Z,checkoutservice,memory,11415552
2023-07-04T21:06:28.300Z,adservice,memory,81506304
2023-07-04T21:06:28.295Z,cartservice,memory,25059328
2023-07-04T21:06:28.295Z,cartservice,memory,25038848
2023-07-04T21:06:28.295Z,cartservice,memory,24735744
2023-07-04T21:06:28.275Z,cartservice,memory,24936448
2023-07-04T21:06:28.275Z,shippingservice,memory,8552448
2023-07-04T21:06:28.275Z,cartservice,memory,25161728
2023-07-04T21:06:28.275Z,cartservice,memory,25739264
2023-07-04T21:06:28.300Z,emailservice,memory,45101056
2023-07-04T21:06:28.300Z,cartservice,memory,25161728
2023-07-04T21:06:28.295Z,currencyservice,memory,27725824
2023-07-04T21:06:28.295Z,cartservice,memory,25133056
2023-07-04T21:06:28.275Z,frontend,memory,13438976
2023-07-04T21:06:28.275Z,cartservice,memory,24981504
2023-07-04T21:06:28.275Z,cartservice,memory,25915392
2023-07-04T21:06:28.300Z,cartservice,memory,25059328
2023-07-04T21:06:28.300Z,cartservice,memory,34312192
2023-07-04T21:06:28.300Z,cartservice,memory,31571968
2023-07-04T21:06:38.275Z,frontend,memory,13217792
2023-07-04T21:06:38.275Z,cartservice,memory,25915392
2023-07-04T21:06:38.275Z,productcatalogservice,memory,10874880
2023-07-04T21:06:38.275Z,cartservice,memory,25001984
2023-07-04T21:06:38.295Z,cartservice,memory,24944640
2023-07-04T21:06:38.295Z,paymentservice,memory,19587072
2023-07-04T21:06:38.295Z,cartservice,memory,25247744
2023-07-04T21:06:38.275Z,cartservice,memory,24895488
2023-07-04T21:06:38.275Z,cartservice,memory,25239552
2023-07-04T21:06:38.295Z,currencyservice,memory,27725824
2023-07-04T21:06:38.299Z,cartservice,memory,25358336
2023-07-04T21:06:38.275Z,redis-cart,memory,8486912
2023-07-04T21:06:38.299Z,adservice,memory,81506304
2023-07-04T21:06:38.299Z,cartservice,memory,25059328
2023-07-04T21:06:38.299Z,cartservice,memory,30822400
2023-07-04T21:06:38.299Z,cartservice,memory,25251840
2023-07-04T21:06:38.299Z,cartservice,memory,34877440
2023-07-04T21:06:38.299Z,emailservice,memory,45101056
2023-07-04T21:06:38.275Z,checkoutservice,memory,11427840
2023-07-04T21:06:38.275Z,shippingservice,memory,8552448
2023-07-04T21:06:38.275Z,cartservice,memory,25362432
2023-07-04T21:06:38.295Z,cartservice,memory,25161728
2023-07-04T21:06:38.295Z,cartservice,memory,25231360
2023-07-04T21:06:38.295Z,recommendationservice,memory,43835392
2023-07-04T21:06:38.295Z,cartservice,memory,25133056
2023-07-04T21:06:38.295Z,cartservice,memory,25137152
2023-07-04T21:06:48.275Z,cartservice,memory,24895488
2023-07-04T21:06:48.275Z,cartservice,memory,25239552
2023-07-04T21:06:48.294Z,recommendationservice,memory,43835392
2023-07-04T21:06:48.294Z,cartservice,memory,24944640
2023-07-04T21:06:48.294Z,currencyservice,memory,27725824
2023-07-04T21:06:48.299Z,adservice,memory,81506304
2023-07-04T21:06:48.299Z,cartservice,memory,25251840
2023-07-04T21:06:48.275Z,checkoutservice,memory,11427840
2023-07-04T21:06:48.275Z,shippingservice,memory,8552448
2023-07-04T21:06:48.275Z,cartservice,memory,25362432
2023-07-04T21:06:48.294Z,cartservice,memory,25231360
2023-07-04T21:06:48.294Z,paymentservice,memory,19587072
2023-07-04T21:06:48.294Z,cartservice,memory,25247744
2023-07-04T21:06:48.299Z,cartservice,memory,30822400
2023-07-04T21:06:48.299Z,cartservice,memory,25358336
2023-07-04T21:06:48.275Z,frontend,memory,13217792
2023-07-04T21:06:48.275Z,cartservice,memory,25915392
2023-07-04T21:06:48.275Z,productcatalogservice,memory,10874880
2023-07-04T21:06:48.275Z,cartservice,memory,25001984
2023-07-04T21:06:48.294Z,cartservice,memory,25161728
2023-07-04T21:06:48.294Z,cartservice,memory,25133056
2023-07-04T21:06:48.294Z,cartservice,memory,25137152
2023-07-04T21:06:48.299Z,cartservice,memory,34877440
2023-07-04T21:06:48.275Z,redis-cart,memory,8486912
2023-07-04T21:06:48.299Z,cartservice,memory,25059328
2023-07-04T21:06:48.299Z,emailservice,memory,45101056
2023-07-04T21:06:58.275Z,checkoutservice,memory,11431936
2023-07-04T21:06:58.299Z,cartservice,memory,25186304
2023-07-04T21:06:58.299Z,cartservice,memory,36147200
2023-07-04T21:06:58.299Z,cartservice,memory,25468928
2023-07-04T21:06:58.295Z,cartservice,memory,25190400
2023-07-04T21:06:58.275Z,cartservice,memory,25583616
2023-07-04T21:06:58.275Z,cartservice,memory,25337856
2023-07-04T21:06:58.275Z,cartservice,memory,25411584
2023-07-04T21:06:58.299Z,cartservice,memory,25038848
2023-07-04T21:06:58.299Z,emailservice,memory,45101056
2023-07-04T21:06:58.295Z,cartservice,memory,25235456
2023-07-04T21:06:58.295Z,cartservice,memory,25391104
2023-07-04T21:06:58.295Z,cartservice,memory,25051136
2023-07-04T21:06:58.275Z,cartservice,memory,25219072
2023-07-04T21:06:58.275Z,frontend,memory,13402112
2023-07-04T21:06:58.275Z,shippingservice,memory,8552448
2023-07-04T21:06:58.299Z,adservice,memory,81465344
2023-07-04T21:06:58.295Z,cartservice,memory,25411584
2023-07-04T21:06:58.295Z,recommendationservice,memory,43839488
2023-07-04T21:06:58.295Z,currencyservice,memory,27508736
2023-07-04T21:06:58.275Z,redis-cart,memory,8495104
2023-07-04T21:06:58.275Z,cartservice,memory,25157632
2023-07-04T21:06:58.275Z,productcatalogservice,memory,10735616
2023-07-04T21:06:58.299Z,cartservice,memory,31215616
2023-07-04T21:06:58.295Z,paymentservice,memory,19873792
2023-07-04T21:06:58.295Z,cartservice,memory,25100288
2023-07-04T21:07:08.275Z,frontend,memory,13402112
2023-07-04T21:07:08.295Z,cartservice,memory,25190400
2023-07-04T21:07:08.299Z,cartservice,memory,25378816
2023-07-04T21:07:08.275Z,cartservice,memory,25268224
2023-07-04T21:07:08.275Z,cartservice,memory,25260032
2023-07-04T21:07:08.275Z,productcatalogservice,memory,10739712
2023-07-04T21:07:08.295Z,paymentservice,memory,20291584
2023-07-04T21:07:08.295Z,cartservice,memory,25235456
2023-07-04T21:07:08.295Z,recommendationservice,memory,43839488
2023-07-04T21:07:08.295Z,currencyservice,memory,28286976
2023-07-04T21:07:08.299Z,cartservice,memory,36147200
2023-07-04T21:07:08.299Z,emailservice,memory,45096960
2023-07-04T21:07:08.275Z,cartservice,memory,25583616
2023-07-04T21:07:08.275Z,cartservice,memory,25444352
2023-07-04T21:07:08.275Z,checkoutservice,memory,11436032
2023-07-04T21:07:08.275Z,cartservice,memory,25329664
2023-07-04T21:07:08.295Z,cartservice,memory,25411584
2023-07-04T21:07:08.295Z,cartservice,memory,25210880
2023-07-04T21:07:08.295Z,cartservice,memory,25501696
2023-07-04T21:07:08.299Z,adservice,memory,82616320
2023-07-04T21:07:08.299Z,cartservice,memory,26312704
2023-07-04T21:07:08.275Z,redis-cart,memory,8626176
2023-07-04T21:07:08.275Z,shippingservice,memory,8572928
2023-07-04T21:07:08.295Z,cartservice,memory,25223168
2023-07-04T21:07:08.299Z,cartservice,memory,25214976
2023-07-04T21:07:08.299Z,cartservice,memory,31453184
2023-07-04T21:07:18.275Z,frontend,memory,13434880
2023-07-04T21:07:18.295Z,cartservice,memory,25501696
2023-07-04T21:07:18.300Z,cartservice,memory,31567872
2023-07-04T21:07:18.275Z,cartservice,memory,25268224
2023-07-04T21:07:18.275Z,redis-cart,memory,8626176
2023-07-04T21:07:18.275Z,cartservice,memory,25444352
2023-07-04T21:07:18.295Z,currencyservice,memory,28491776
2023-07-04T21:07:18.300Z,cartservice,memory,26312704
2023-07-04T21:07:18.300Z,cartservice,memory,36147200
2023-07-04T21:07:18.300Z,adservice,memory,86798336
2023-07-04T21:07:18.275Z,cartservice,memory,25620480
2023-07-04T21:07:18.275Z,cartservice,memory,25329664
2023-07-04T21:07:18.275Z,productcatalogservice,memory,10940416
2023-07-04T21:07:18.275Z,cartservice,memory,25260032
2023-07-04T21:07:18.275Z,checkoutservice,memory,11440128
2023-07-04T21:07:18.295Z,cartservice,memory,25432064
2023-07-04T21:07:18.295Z,cartservice,memory,25423872
2023-07-04T21:07:18.300Z,cartservice,memory,25395200
2023-07-04T21:07:18.300Z,emailservice,memory,45096960
2023-07-04T21:07:18.275Z,shippingservice,memory,8572928
2023-07-04T21:07:18.295Z,recommendationservice,memory,43888640
2023-07-04T21:07:18.295Z,cartservice,memory,25477120
2023-07-04T21:07:18.295Z,cartservice,memory,25915392
2023-07-04T21:07:18.295Z,cartservice,memory,25395200
2023-07-04T21:07:18.295Z,paymentservice,memory,19689472
2023-07-04T21:07:18.300Z,cartservice,memory,25690112
2023-07-04T21:07:28.275Z,frontend,memory,13434880
2023-07-04T21:07:28.295Z,cartservice,memory,25501696
2023-07-04T21:07:28.275Z,cartservice,memory,25268224
2023-07-04T21:07:28.275Z,redis-cart,memory,8626176
2023-07-04T21:07:28.275Z,cartservice,memory,25444352
2023-07-04T21:07:28.295Z,currencyservice,memory,28491776
2023-07-04T21:07:28.299Z,cartservice,memory,26312704
2023-07-04T21:07:28.299Z,cartservice,memory,25395200
2023-07-04T21:07:28.295Z,cartservice,memory,25915392
2023-07-04T21:07:28.299Z,cartservice,memory,31567872
2023-07-04T21:07:28.295Z,cartservice,memory,25395200
2023-07-04T21:07:28.295Z,paymentservice,memory,19689472
2023-07-04T21:07:28.299Z,adservice,memory,86798336
2023-07-04T21:07:28.275Z,cartservice,memory,25620480
2023-07-04T21:07:28.275Z,cartservice,memory,25329664
2023-07-04T21:07:28.275Z,productcatalogservice,memory,10940416
2023-07-04T21:07:28.275Z,cartservice,memory,25260032
2023-07-04T21:07:28.275Z,checkoutservice,memory,11440128
2023-07-04T21:07:28.295Z,cartservice,memory,25432064
2023-07-04T21:07:28.295Z,recommendationservice,memory,43888640
2023-07-04T21:07:28.299Z,cartservice,memory,25690112
2023-07-04T21:07:28.295Z,cartservice,memory,25423872
2023-07-04T21:07:28.299Z,cartservice,memory,36147200
2023-07-04T21:07:28.275Z,shippingservice,memory,8572928
2023-07-04T21:07:28.295Z,cartservice,memory,25477120
2023-07-04T21:07:28.299Z,emailservice,memory,45096960
2023-07-04T21:07:38.275Z,cartservice,memory,26304512
2023-07-04T21:07:38.275Z,redis-cart,memory,8630272
2023-07-04T21:07:38.275Z,cartservice,memory,25899008
2023-07-04T21:07:38.275Z,productcatalogservice,memory,10756096
2023-07-04T21:07:38.299Z,cartservice,memory,31830016
2023-07-04T21:07:38.299Z,cartservice,memory,25837568
2023-07-04T21:07:38.275Z,cartservice,memory,25677824
2023-07-04T21:07:38.275Z,frontend,memory,13783040
2023-07-04T21:07:38.275Z,cartservice,memory,26275840
2023-07-04T21:07:38.275Z,cartservice,memory,25751552
2023-07-04T21:07:38.275Z,shippingservice,memory,8601600
2023-07-04T21:07:38.295Z,cartservice,memory,25538560
2023-07-04T21:07:38.299Z,cartservice,memory,26562560
2023-07-04T21:07:38.299Z,cartservice,memory,36311040
2023-07-04T21:07:38.299Z,cartservice,memory,25522176
2023-07-04T21:07:38.275Z,checkoutservice,memory,11452416
2023-07-04T21:07:38.295Z,currencyservice,memory,29110272
2023-07-04T21:07:38.295Z,cartservice,memory,26005504
2023-07-04T21:07:38.295Z,cartservice,memory,26484736
2023-07-04T21:07:38.295Z,cartservice,memory,25575424
2023-07-04T21:07:38.295Z,paymentservice,memory,19898368
2023-07-04T21:07:38.295Z,cartservice,memory,25620480
2023-07-04T21:07:38.295Z,cartservice,memory,25530368
2023-07-04T21:07:38.295Z,recommendationservice,memory,43978752
2023-07-04T21:07:38.299Z,adservice,memory,83247104
2023-07-04T21:07:38.299Z,emailservice,memory,45096960
2023-07-04T21:07:48.276Z,cartservice,memory,25878528
2023-07-04T21:07:48.276Z,checkoutservice,memory,11452416
2023-07-04T21:07:48.276Z,frontend,memory,13619200
2023-07-04T21:07:48.276Z,cartservice,memory,25677824
2023-07-04T21:07:48.295Z,cartservice,memory,25710592
2023-07-04T21:07:48.295Z,currencyservice,memory,28504064
2023-07-04T21:07:48.295Z,cartservice,memory,26484736
2023-07-04T21:07:48.295Z,recommendationservice,memory,43843584
2023-07-04T21:07:48.300Z,cartservice,memory,25784320
2023-07-04T21:07:48.295Z,paymentservice,memory,20193280
2023-07-04T21:07:48.295Z,cartservice,memory,26030080
2023-07-04T21:07:48.300Z,cartservice,memory,36102144
2023-07-04T21:07:48.295Z,cartservice,memory,25530368
2023-07-04T21:07:48.295Z,cartservice,memory,26083328
2023-07-04T21:07:48.300Z,cartservice,memory,32018432
2023-07-04T21:07:48.295Z,cartservice,memory,25649152
2023-07-04T21:07:48.300Z,cartservice,memory,26562560
2023-07-04T21:07:48.300Z,emailservice,memory,45101056
2023-07-04T21:07:48.300Z,cartservice,memory,25886720
2023-07-04T21:07:48.300Z,adservice,memory,83361792
2023-07-04T21:07:48.276Z,shippingservice,memory,8601600
2023-07-04T21:07:48.276Z,cartservice,memory,26275840
2023-07-04T21:07:48.276Z,cartservice,memory,26304512
2023-07-04T21:07:48.276Z,redis-cart,memory,8499200
2023-07-04T21:07:48.276Z,cartservice,memory,26017792
2023-07-04T21:07:48.276Z,productcatalogservice,memory,10866688
2023-07-04T21:07:58.275Z,cartservice,memory,25878528
2023-07-04T21:07:58.275Z,shippingservice,memory,8626176
2023-07-04T21:07:58.275Z,redis-cart,memory,8499200
2023-07-04T21:07:58.295Z,cartservice,memory,25530368
2023-07-04T21:07:58.275Z,productcatalogservice,memory,10866688
2023-07-04T21:07:58.275Z,cartservice,memory,26230784
2023-07-04T21:07:58.275Z,cartservice,memory,26148864
2023-07-04T21:07:58.300Z,cartservice,memory,25784320
2023-07-04T21:07:58.300Z,cartservice,memory,26071040
2023-07-04T21:07:58.295Z,cartservice,memory,26030080
2023-07-04T21:07:58.295Z,cartservice,memory,25649152
2023-07-04T21:07:58.300Z,cartservice,memory,36102144
2023-07-04T21:07:58.295Z,cartservice,memory,25710592
2023-07-04T21:07:58.300Z,adservice,memory,83361792
2023-07-04T21:07:58.300Z,cartservice,memory,32018432
2023-07-04T21:07:58.295Z,cartservice,memory,26083328
2023-07-04T21:07:58.300Z,emailservice,memory,45101056
2023-07-04T21:07:58.275Z,cartservice,memory,26353664
2023-07-04T21:07:58.275Z,checkoutservice,memory,11464704
2023-07-04T21:07:58.275Z,cartservice,memory,26148864
2023-07-04T21:07:58.275Z,frontend,memory,13619200
2023-07-04T21:07:58.295Z,currencyservice,memory,28504064
2023-07-04T21:07:58.295Z,cartservice,memory,26484736
2023-07-04T21:07:58.295Z,recommendationservice,memory,43843584
2023-07-04T21:07:58.295Z,paymentservice,memory,20193280
2023-07-04T21:07:58.300Z,cartservice,memory,26206208
2023-07-04T21:08:08.275Z,checkoutservice,memory,11464704
2023-07-04T21:08:08.275Z,cartservice,memory,26230784
2023-07-04T21:08:08.300Z,cartservice,memory,36102144
2023-07-04T21:08:08.300Z,cartservice,memory,32018432
2023-07-04T21:08:08.295Z,cartservice,memory,26169344
2023-07-04T21:08:08.275Z,frontend,memory,13500416
2023-07-04T21:08:08.275Z,cartservice,memory,26259456
2023-07-04T21:08:08.275Z,productcatalogservice,memory,11042816
2023-07-04T21:08:08.300Z,cartservice,memory,25784320
2023-07-04T21:08:08.300Z,emailservice,memory,45101056
2023-07-04T21:08:08.295Z,paymentservice,memory,20635648
2023-07-04T21:08:08.275Z,shippingservice,memory,8708096
2023-07-04T21:08:08.275Z,cartservice,memory,26353664
2023-07-04T21:08:08.300Z,cartservice,memory,26206208
2023-07-04T21:08:08.295Z,cartservice,memory,26771456
2023-07-04T21:08:08.295Z,cartservice,memory,25911296
2023-07-04T21:08:08.295Z,cartservice,memory,25935872
2023-07-04T21:08:08.275Z,redis-cart,memory,8507392
2023-07-04T21:08:08.275Z,cartservice,memory,26218496
2023-07-04T21:08:08.275Z,cartservice,memory,26312704
2023-07-04T21:08:08.300Z,adservice,memory,83361792
2023-07-04T21:08:08.300Z,cartservice,memory,26071040
2023-07-04T21:08:08.295Z,recommendationservice,memory,43868160
2023-07-04T21:08:08.295Z,cartservice,memory,26091520
2023-07-04T21:08:08.295Z,currencyservice,memory,28721152
2023-07-04T21:08:08.295Z,cartservice,memory,26701824
2023-07-04T21:08:18.275Z,redis-cart,memory,8507392
2023-07-04T21:08:18.275Z,cartservice,memory,26218496
2023-07-04T21:08:18.275Z,cartservice,memory,26312704
2023-07-04T21:08:18.299Z,cartservice,memory,26185728
2023-07-04T21:08:18.275Z,shippingservice,memory,8708096
2023-07-04T21:08:18.275Z,cartservice,memory,26353664
2023-07-04T21:08:18.299Z,cartservice,memory,26484736
2023-07-04T21:08:18.299Z,cartservice,memory,32563200
2023-07-04T21:08:18.295Z,paymentservice,memory,19832832
2023-07-04T21:08:18.295Z,recommendationservice,memory,43868160
2023-07-04T21:08:18.295Z,cartservice,memory,26169344
2023-07-04T21:08:18.275Z,frontend,memory,13500416
2023-07-04T21:08:18.275Z,cartservice,memory,26259456
2023-07-04T21:08:18.275Z,productcatalogservice,memory,11042816
2023-07-04T21:08:18.299Z,adservice,memory,83435520
2023-07-04T21:08:18.299Z,cartservice,memory,26865664
2023-07-04T21:08:18.295Z,cartservice,memory,25964544
2023-07-04T21:08:18.295Z,cartservice,memory,25911296
2023-07-04T21:08:18.295Z,cartservice,memory,26050560
2023-07-04T21:08:18.275Z,checkoutservice,memory,11464704
2023-07-04T21:08:18.275Z,cartservice,memory,26230784
2023-07-04T21:08:18.299Z,cartservice,memory,36036608
2023-07-04T21:08:18.299Z,emailservice,memory,45101056
2023-07-04T21:08:18.295Z,currencyservice,memory,29208576
2023-07-04T21:08:18.295Z,cartservice,memory,26701824
2023-07-04T21:08:18.295Z,cartservice,memory,26906624
2023-07-04T21:08:28.275Z,cartservice,memory,26525696
2023-07-04T21:08:28.275Z,cartservice,memory,26365952
2023-07-04T21:08:28.300Z,emailservice,memory,45101056
2023-07-04T21:08:28.300Z,cartservice,memory,36036608
2023-07-04T21:08:28.300Z,cartservice,memory,26484736
2023-07-04T21:08:28.275Z,cartservice,memory,26644480
2023-07-04T21:08:28.275Z,cartservice,memory,26157056
2023-07-04T21:08:28.275Z,cartservice,memory,26968064
2023-07-04T21:08:28.294Z,currencyservice,memory,29208576
2023-07-04T21:08:28.294Z,cartservice,memory,26558464
2023-07-04T21:08:28.294Z,paymentservice,memory,23027712
2023-07-04T21:08:28.294Z,cartservice,memory,26226688
2023-07-04T21:08:28.294Z,cartservice,memory,26976256
2023-07-04T21:08:28.294Z,cartservice,memory,26243072
2023-07-04T21:08:28.294Z,recommendationservice,memory,43872256
2023-07-04T21:08:28.294Z,cartservice,memory,26292224
2023-07-04T21:08:28.294Z,cartservice,memory,27140096
2023-07-04T21:08:28.300Z,cartservice,memory,26980352
2023-07-04T21:08:28.300Z,adservice,memory,83435520
2023-07-04T21:08:28.275Z,productcatalogservice,memory,11186176
2023-07-04T21:08:28.275Z,checkoutservice,memory,11468800
2023-07-04T21:08:28.300Z,cartservice,memory,32563200
2023-07-04T21:08:28.300Z,cartservice,memory,26185728
2023-07-04T21:08:28.275Z,redis-cart,memory,8495104
2023-07-04T21:08:28.275Z,frontend,memory,13529088
2023-07-04T21:08:28.275Z,shippingservice,memory,8630272
2023-07-04T21:08:38.275Z,cartservice,memory,26365952
2023-07-04T21:08:38.295Z,cartservice,memory,26660864
2023-07-04T21:08:38.300Z,cartservice,memory,26484736
2023-07-04T21:08:38.275Z,redis-cart,memory,8630272
2023-07-04T21:08:38.275Z,frontend,memory,13529088
2023-07-04T21:08:38.295Z,recommendationservice,memory,43872256
2023-07-04T21:08:38.275Z,cartservice,memory,26476544
2023-07-04T21:08:38.275Z,checkoutservice,memory,11468800
2023-07-04T21:08:38.275Z,productcatalogservice,memory,10932224
2023-07-04T21:08:38.275Z,shippingservice,memory,8630272
2023-07-04T21:08:38.300Z,cartservice,memory,26185728
2023-07-04T21:08:38.275Z,cartservice,memory,26476544
2023-07-04T21:08:38.275Z,cartservice,memory,26427392
2023-07-04T21:08:38.275Z,cartservice,memory,27062272
2023-07-04T21:08:38.295Z,cartservice,memory,26292224
2023-07-04T21:08:38.295Z,currencyservice,memory,29913088
2023-07-04T21:08:38.295Z,cartservice,memory,27140096
2023-07-04T21:08:38.295Z,cartservice,memory,26361856
2023-07-04T21:08:38.295Z,paymentservice,memory,23027712
2023-07-04T21:08:38.295Z,cartservice,memory,26603520
2023-07-04T21:08:38.295Z,cartservice,memory,26771456
2023-07-04T21:08:38.300Z,emailservice,memory,45101056
2023-07-04T21:08:38.300Z,cartservice,memory,32563200
2023-07-04T21:08:38.300Z,cartservice,memory,26980352
2023-07-04T21:08:38.300Z,cartservice,memory,36036608
2023-07-04T21:08:38.300Z,adservice,memory,83435520
2023-07-04T21:08:48.275Z,cartservice,memory,26365952
2023-07-04T21:08:48.295Z,paymentservice,memory,20312064
2023-07-04T21:08:48.295Z,cartservice,memory,26292224
2023-07-04T21:08:48.295Z,cartservice,memory,26361856
2023-07-04T21:08:48.295Z,currencyservice,memory,29921280
2023-07-04T21:08:48.299Z,cartservice,memory,26603520
2023-07-04T21:08:48.299Z,cartservice,memory,26669056
2023-07-04T21:08:48.299Z,adservice,memory,83193856
2023-07-04T21:08:48.275Z,cartservice,memory,26476544
2023-07-04T21:08:48.275Z,cartservice,memory,26427392
2023-07-04T21:08:48.275Z,cartservice,memory,27062272
2023-07-04T21:08:48.295Z,cartservice,memory,26603520
2023-07-04T21:08:48.295Z,cartservice,memory,26591232
2023-07-04T21:08:48.275Z,cartservice,memory,26476544
2023-07-04T21:08:48.275Z,checkoutservice,memory,11468800
2023-07-04T21:08:48.275Z,productcatalogservice,memory,10932224
2023-07-04T21:08:48.275Z,shippingservice,memory,8630272
2023-07-04T21:08:48.295Z,recommendationservice,memory,43880448
2023-07-04T21:08:48.299Z,cartservice,memory,33062912
2023-07-04T21:08:48.299Z,emailservice,memory,45096960
2023-07-04T21:08:48.275Z,redis-cart,memory,8630272
2023-07-04T21:08:48.275Z,frontend,memory,13529088
2023-07-04T21:08:48.295Z,cartservice,memory,27316224
2023-07-04T21:08:48.295Z,cartservice,memory,26771456
2023-07-04T21:08:48.299Z,cartservice,memory,26607616
2023-07-04T21:08:48.299Z,cartservice,memory,36040704
2023-07-04T21:08:58.295Z,cartservice,memory,26664960
2023-07-04T21:08:58.295Z,recommendationservice,memory,43876352
2023-07-04T21:08:58.300Z,cartservice,memory,26882048
2023-07-04T21:08:58.300Z,cartservice,memory,33062912
2023-07-04T21:08:58.275Z,cartservice,memory,27049984
2023-07-04T21:08:58.275Z,cartservice,memory,26894336
2023-07-04T21:08:58.300Z,adservice,memory,82931712
2023-07-04T21:08:58.275Z,frontend,memory,13803520
2023-07-04T21:08:58.275Z,shippingservice,memory,8638464
2023-07-04T21:08:58.275Z,redis-cart,memory,8495104
2023-07-04T21:08:58.295Z,cartservice,memory,27316224
2023-07-04T21:08:58.295Z,currencyservice,memory,30101504
2023-07-04T21:08:58.275Z,cartservice,memory,26578944
2023-07-04T21:08:58.275Z,checkoutservice,memory,11489280
2023-07-04T21:08:58.295Z,cartservice,memory,27058176
2023-07-04T21:08:58.295Z,cartservice,memory,26718208
2023-07-04T21:08:58.295Z,cartservice,memory,26923008
2023-07-04T21:08:58.295Z,paymentservice,memory,20471808
2023-07-04T21:08:58.295Z,cartservice,memory,26984448
2023-07-04T21:08:58.300Z,cartservice,memory,26669056
2023-07-04T21:08:58.300Z,cartservice,memory,26775552
2023-07-04T21:08:58.300Z,cartservice,memory,36171776
2023-07-04T21:08:58.300Z,emailservice,memory,45096960
2023-07-04T21:08:58.275Z,productcatalogservice,memory,10928128
2023-07-04T21:08:58.275Z,cartservice,memory,26583040
2023-07-04T21:08:58.275Z,cartservice,memory,26865664
2023-07-04T21:09:08.275Z,checkoutservice,memory,11489280
2023-07-04T21:09:08.275Z,cartservice,memory,26865664
2023-07-04T21:09:08.295Z,cartservice,memory,26664960
2023-07-04T21:09:08.300Z,cartservice,memory,33337344
2023-07-04T21:09:08.300Z,emailservice,memory,45096960
2023-07-04T21:09:08.300Z,cartservice,memory,26882048
2023-07-04T21:09:08.275Z,productcatalogservice,memory,10862592
2023-07-04T21:09:08.275Z,shippingservice,memory,8658944
2023-07-04T21:09:08.295Z,paymentservice,memory,20471808
2023-07-04T21:09:08.295Z,cartservice,memory,27095040
2023-07-04T21:09:08.275Z,redis-cart,memory,8626176
2023-07-04T21:09:08.275Z,cartservice,memory,26746880
2023-07-04T21:09:08.275Z,cartservice,memory,26828800
2023-07-04T21:09:08.275Z,cartservice,memory,27049984
2023-07-04T21:09:08.295Z,cartservice,memory,27115520
2023-07-04T21:09:08.300Z,cartservice,memory,26976256
2023-07-04T21:09:08.300Z,adservice,memory,82931712
2023-07-04T21:09:08.275Z,cartservice,memory,27549696
2023-07-04T21:09:08.275Z,frontend,memory,13803520
2023-07-04T21:09:08.295Z,cartservice,memory,26763264
2023-07-04T21:09:08.295Z,cartservice,memory,26984448
2023-07-04T21:09:08.295Z,recommendationservice,memory,43876352
2023-07-04T21:09:08.295Z,currencyservice,memory,30101504
2023-07-04T21:09:08.295Z,cartservice,memory,26685440
2023-07-04T21:09:08.300Z,cartservice,memory,26775552
2023-07-04T21:09:08.300Z,cartservice,memory,36171776
2023-07-04T21:09:18.275Z,checkoutservice,memory,11558912
2023-07-04T21:09:18.275Z,cartservice,memory,27136000
2023-07-04T21:09:18.275Z,cartservice,memory,27713536
2023-07-04T21:09:18.275Z,frontend,memory,13651968
2023-07-04T21:09:18.275Z,cartservice,memory,26746880
2023-07-04T21:09:18.300Z,cartservice,memory,26976256
2023-07-04T21:09:18.300Z,adservice,memory,82931712
2023-07-04T21:09:18.275Z,cartservice,memory,27602944
2023-07-04T21:09:18.275Z,shippingservice,memory,8642560
2023-07-04T21:09:18.300Z,cartservice,memory,26775552
2023-07-04T21:09:18.300Z,cartservice,memory,36171776
2023-07-04T21:09:18.300Z,cartservice,memory,26882048
2023-07-04T21:09:18.275Z,redis-cart,memory,8495104
2023-07-04T21:09:18.275Z,productcatalogservice,memory,10891264
2023-07-04T21:09:18.275Z,cartservice,memory,27037696
2023-07-04T21:09:18.295Z,cartservice,memory,26664960
2023-07-04T21:09:18.295Z,paymentservice,memory,20471808
2023-07-04T21:09:18.295Z,cartservice,memory,27095040
2023-07-04T21:09:18.295Z,cartservice,memory,27115520
2023-07-04T21:09:18.295Z,cartservice,memory,26763264
2023-07-04T21:09:18.295Z,cartservice,memory,26984448
2023-07-04T21:09:18.295Z,recommendationservice,memory,43876352
2023-07-04T21:09:18.295Z,currencyservice,memory,30101504
2023-07-04T21:09:18.295Z,cartservice,memory,26685440
2023-07-04T21:09:18.300Z,cartservice,memory,33337344
2023-07-04T21:09:18.300Z,emailservice,memory,45096960
2023-07-04T21:09:28.275Z,cartservice,memory,27713536
2023-07-04T21:09:28.275Z,frontend,memory,13651968
2023-07-04T21:09:28.275Z,cartservice,memory,26746880
2023-07-04T21:09:28.296Z,recommendationservice,memory,44015616
2023-07-04T21:09:28.300Z,cartservice,memory,36118528
2023-07-04T21:09:28.300Z,cartservice,memory,26914816
2023-07-04T21:09:28.275Z,checkoutservice,memory,11558912
2023-07-04T21:09:28.275Z,cartservice,memory,27136000
2023-07-04T21:09:28.296Z,cartservice,memory,27095040
2023-07-04T21:09:28.296Z,cartservice,memory,26804224
2023-07-04T21:09:28.296Z,cartservice,memory,27070464
2023-07-04T21:09:28.300Z,emailservice,memory,45096960
2023-07-04T21:09:28.300Z,cartservice,memory,33378304
2023-07-04T21:09:28.275Z,redis-cart,memory,8495104
2023-07-04T21:09:28.275Z,productcatalogservice,memory,10891264
2023-07-04T21:09:28.275Z,cartservice,memory,27037696
2023-07-04T21:09:28.296Z,cartservice,memory,27090944
2023-07-04T21:09:28.296Z,cartservice,memory,27262976
2023-07-04T21:09:28.296Z,cartservice,memory,27500544
2023-07-04T21:09:28.300Z,cartservice,memory,27242496
2023-07-04T21:09:28.275Z,cartservice,memory,27602944
2023-07-04T21:09:28.275Z,shippingservice,memory,8642560
2023-07-04T21:09:28.296Z,currencyservice,memory,30519296
2023-07-04T21:09:28.296Z,paymentservice,memory,19922944
2023-07-04T21:09:28.300Z,adservice,memory,82829312
2023-07-04T21:09:28.300Z,cartservice,memory,27746304
2023-07-04T21:09:38.295Z,cartservice,memory,27070464
2023-07-04T21:09:38.295Z,currencyservice,memory,30519296
2023-07-04T21:09:38.295Z,cartservice,memory,27365376
2023-07-04T21:09:38.295Z,cartservice,memory,27095040
2023-07-04T21:09:38.295Z,paymentservice,memory,20058112
2023-07-04T21:09:38.276Z,checkoutservice,memory,11489280
2023-07-04T21:09:38.299Z,cartservice,memory,27746304
2023-07-04T21:09:38.295Z,cartservice,memory,27398144
2023-07-04T21:09:38.276Z,cartservice,memory,27262976
2023-07-04T21:09:38.276Z,shippingservice,memory,8658944
2023-07-04T21:09:38.276Z,cartservice,memory,27353088
2023-07-04T21:09:38.276Z,cartservice,memory,27262976
2023-07-04T21:09:38.299Z,cartservice,memory,27459584
2023-07-04T21:09:38.299Z,cartservice,memory,27856896
2023-07-04T21:09:38.299Z,emailservice,memory,45096960
2023-07-04T21:09:38.276Z,productcatalogservice,memory,10805248
2023-07-04T21:09:38.276Z,redis-cart,memory,8495104
2023-07-04T21:09:38.299Z,adservice,memory,82882560
2023-07-04T21:09:38.299Z,cartservice,memory,36454400
2023-07-04T21:09:38.299Z,cartservice,memory,33579008
2023-07-04T21:09:38.295Z,cartservice,memory,27115520
2023-07-04T21:09:38.295Z,cartservice,memory,27836416
2023-07-04T21:09:38.295Z,recommendationservice,memory,43884544
2023-07-04T21:09:38.276Z,frontend,memory,13754368
2023-07-04T21:09:38.276Z,cartservice,memory,27201536
2023-07-04T21:09:38.276Z,cartservice,memory,27766784
2023-07-04T21:09:48.275Z,productcatalogservice,memory,10805248
2023-07-04T21:09:48.275Z,cartservice,memory,27435008
2023-07-04T21:09:48.275Z,cartservice,memory,27353088
2023-07-04T21:09:48.275Z,cartservice,memory,27455488
2023-07-04T21:09:48.300Z,cartservice,memory,36454400
2023-07-04T21:09:48.275Z,frontend,memory,13754368
2023-07-04T21:09:48.275Z,cartservice,memory,27308032
2023-07-04T21:09:48.275Z,shippingservice,memory,8654848
2023-07-04T21:09:48.300Z,cartservice,memory,33579008
2023-07-04T21:09:48.300Z,cartservice,memory,27422720
2023-07-04T21:09:48.300Z,adservice,memory,82882560
2023-07-04T21:09:48.300Z,cartservice,memory,27856896
2023-07-04T21:09:48.300Z,cartservice,memory,28008448
2023-07-04T21:09:48.300Z,emailservice,memory,45096960
2023-07-04T21:09:48.275Z,redis-cart,memory,8495104
2023-07-04T21:09:48.275Z,cartservice,memory,27496448
2023-07-04T21:09:48.275Z,checkoutservice,memory,11493376
2023-07-04T21:09:48.295Z,cartservice,memory,27836416
2023-07-04T21:09:48.295Z,cartservice,memory,27115520
2023-07-04T21:09:48.295Z,cartservice,memory,27430912
2023-07-04T21:09:48.295Z,recommendationservice,memory,43892736
2023-07-04T21:09:48.295Z,cartservice,memory,27226112
2023-07-04T21:09:48.295Z,cartservice,memory,27541504
2023-07-04T21:09:48.295Z,cartservice,memory,27357184
2023-07-04T21:09:48.295Z,currencyservice,memory,30703616
2023-07-04T21:09:48.295Z,paymentservice,memory,20058112
2023-07-04T21:09:58.275Z,frontend,memory,13754368
2023-07-04T21:09:58.275Z,cartservice,memory,27308032
2023-07-04T21:09:58.275Z,shippingservice,memory,8654848
2023-07-04T21:09:58.295Z,cartservice,memory,27115520
2023-07-04T21:09:58.295Z,cartservice,memory,27226112
2023-07-04T21:09:58.295Z,currencyservice,memory,30703616
2023-07-04T21:09:58.299Z,cartservice,memory,33579008
2023-07-04T21:09:58.299Z,cartservice,memory,27422720
2023-07-04T21:09:58.299Z,emailservice,memory,45096960
2023-07-04T21:09:58.275Z,productcatalogservice,memory,10805248
2023-07-04T21:09:58.275Z,cartservice,memory,27435008
2023-07-04T21:09:58.299Z,cartservice,memory,28008448
2023-07-04T21:09:58.275Z,cartservice,memory,27353088
2023-07-04T21:09:58.275Z,cartservice,memory,27455488
2023-07-04T21:09:58.295Z,cartservice,memory,27836416
2023-07-04T21:09:58.295Z,cartservice,memory,27357184
2023-07-04T21:09:58.299Z,adservice,memory,82882560
2023-07-04T21:09:58.299Z,cartservice,memory,36454400
2023-07-04T21:09:58.275Z,redis-cart,memory,8495104
2023-07-04T21:09:58.275Z,cartservice,memory,27496448
2023-07-04T21:09:58.275Z,checkoutservice,memory,11493376
2023-07-04T21:09:58.295Z,cartservice,memory,27430912
2023-07-04T21:09:58.295Z,recommendationservice,memory,43892736
2023-07-04T21:09:58.295Z,cartservice,memory,27541504
2023-07-04T21:09:58.295Z,paymentservice,memory,20058112
2023-07-04T21:09:58.299Z,cartservice,memory,27856896
2023-07-04T21:10:08.276Z,shippingservice,memory,8658944
2023-07-04T21:10:08.276Z,productcatalogservice,memory,10792960
2023-07-04T21:10:08.294Z,cartservice,memory,27496448
2023-07-04T21:10:08.276Z,cartservice,memory,27774976
2023-07-04T21:10:08.276Z,checkoutservice,memory,13467648
2023-07-04T21:10:08.294Z,paymentservice,memory,20275200
2023-07-04T21:10:08.294Z,cartservice,memory,27668480
2023-07-04T21:10:08.294Z,currencyservice,memory,31133696
2023-07-04T21:10:08.294Z,cartservice,memory,27648000
2023-07-04T21:10:08.294Z,recommendationservice,memory,43892736
2023-07-04T21:10:08.276Z,cartservice,memory,27635712
2023-07-04T21:10:08.276Z,frontend,memory,13598720
2023-07-04T21:10:08.276Z,redis-cart,memory,8503296
2023-07-04T21:10:08.294Z,cartservice,memory,28237824
2023-07-04T21:10:08.294Z,cartservice,memory,27697152
2023-07-04T21:10:08.294Z,cartservice,memory,27852800
2023-07-04T21:10:08.299Z,cartservice,memory,36081664
2023-07-04T21:10:08.276Z,cartservice,memory,27623424
2023-07-04T21:10:08.276Z,cartservice,memory,27639808
2023-07-04T21:10:08.276Z,cartservice,memory,27557888
2023-07-04T21:10:08.299Z,cartservice,memory,34304000
2023-07-04T21:10:08.299Z,cartservice,memory,27586560
2023-07-04T21:10:08.299Z,cartservice,memory,27656192
2023-07-04T21:10:08.299Z,adservice,memory,83136512
2023-07-04T21:10:08.299Z,cartservice,memory,27607040
2023-07-04T21:10:08.299Z,emailservice,memory,45101056
2023-07-04T21:10:18.300Z,cartservice,memory,27803648
2023-07-04T21:10:18.275Z,redis-cart,memory,8486912
2023-07-04T21:10:18.300Z,cartservice,memory,27721728
2023-07-04T21:10:18.275Z,checkoutservice,memory,13467648
2023-07-04T21:10:18.295Z,cartservice,memory,27750400
2023-07-04T21:10:18.295Z,cartservice,memory,28291072
2023-07-04T21:10:18.295Z,cartservice,memory,27496448
2023-07-04T21:10:18.275Z,cartservice,memory,27996160
2023-07-04T21:10:18.275Z,cartservice,memory,27979776
2023-07-04T21:10:18.275Z,cartservice,memory,27918336
2023-07-04T21:10:18.295Z,cartservice,memory,27668480
2023-07-04T21:10:18.295Z,paymentservice,memory,20680704
2023-07-04T21:10:18.295Z,cartservice,memory,27770880
2023-07-04T21:10:18.300Z,cartservice,memory,27656192
2023-07-04T21:10:18.300Z,adservice,memory,83136512
2023-07-04T21:10:18.300Z,emailservice,memory,45101056
2023-07-04T21:10:18.300Z,cartservice,memory,34304000
2023-07-04T21:10:18.300Z,cartservice,memory,36081664
2023-07-04T21:10:18.275Z,cartservice,memory,27557888
2023-07-04T21:10:18.275Z,cartservice,memory,27750400
2023-07-04T21:10:18.275Z,shippingservice,memory,8663040
2023-07-04T21:10:18.275Z,frontend,memory,13598720
2023-07-04T21:10:18.275Z,productcatalogservice,memory,10985472
2023-07-04T21:10:18.295Z,cartservice,memory,27852800
2023-07-04T21:10:18.295Z,currencyservice,memory,31240192
2023-07-04T21:10:18.295Z,recommendationservice,memory,43991040
2023-07-04T21:10:28.275Z,shippingservice,memory,8663040
2023-07-04T21:10:28.275Z,cartservice,memory,27979776
2023-07-04T21:10:28.275Z,frontend,memory,14020608
2023-07-04T21:10:28.275Z,cartservice,memory,27918336
2023-07-04T21:10:28.300Z,cartservice,memory,27803648
2023-07-04T21:10:28.300Z,cartservice,memory,34668544
2023-07-04T21:10:28.295Z,cartservice,memory,28291072
2023-07-04T21:10:28.275Z,checkoutservice,memory,15585280
2023-07-04T21:10:28.275Z,redis-cart,memory,8626176
2023-07-04T21:10:28.275Z,productcatalogservice,memory,10985472
2023-07-04T21:10:28.275Z,cartservice,memory,28139520
2023-07-04T21:10:28.300Z,adservice,memory,83247104
2023-07-04T21:10:28.300Z,emailservice,memory,45101056
2023-07-04T21:10:28.295Z,cartservice,memory,27860992
2023-07-04T21:10:28.295Z,cartservice,memory,28090368
2023-07-04T21:10:28.300Z,cartservice,memory,36081664
2023-07-04T21:10:28.295Z,paymentservice,memory,19771392
2023-07-04T21:10:28.295Z,cartservice,memory,27889664
2023-07-04T21:10:28.275Z,cartservice,memory,27996160
2023-07-04T21:10:28.275Z,cartservice,memory,28049408
2023-07-04T21:10:28.300Z,cartservice,memory,28110848
2023-07-04T21:10:28.300Z,cartservice,memory,27721728
2023-07-04T21:10:28.295Z,currencyservice,memory,31240192
2023-07-04T21:10:28.295Z,cartservice,memory,27770880
2023-07-04T21:10:28.295Z,recommendationservice,memory,43991040
2023-07-04T21:10:28.295Z,cartservice,memory,27668480
2023-07-04T21:10:38.275Z,checkoutservice,memory,15556608
2023-07-04T21:10:38.275Z,cartservice,memory,28397568
2023-07-04T21:10:38.295Z,cartservice,memory,28037120
2023-07-04T21:10:38.295Z,currencyservice,memory,31334400
2023-07-04T21:10:38.295Z,cartservice,memory,28172288
2023-07-04T21:10:38.300Z,emailservice,memory,45096960
2023-07-04T21:10:38.275Z,cartservice,memory,28041216
2023-07-04T21:10:38.275Z,shippingservice,memory,8658944
2023-07-04T21:10:38.295Z,cartservice,memory,28033024
2023-07-04T21:10:38.295Z,cartservice,memory,28196864
2023-07-04T21:10:38.295Z,recommendationservice,memory,43917312
2023-07-04T21:10:38.300Z,cartservice,memory,36089856
2023-07-04T21:10:38.275Z,redis-cart,memory,8486912
2023-07-04T21:10:38.275Z,frontend,memory,13697024
2023-07-04T21:10:38.295Z,cartservice,memory,28573696
2023-07-04T21:10:38.295Z,cartservice,memory,27668480
2023-07-04T21:10:38.295Z,paymentservice,memory,19771392
2023-07-04T21:10:38.300Z,cartservice,memory,28110848
2023-07-04T21:10:38.300Z,cartservice,memory,34668544
2023-07-04T21:10:38.300Z,adservice,memory,83247104
2023-07-04T21:10:38.275Z,cartservice,memory,28110848
2023-07-04T21:10:38.275Z,productcatalogservice,memory,10936320
2023-07-04T21:10:38.275Z,cartservice,memory,28127232
2023-07-04T21:10:38.275Z,cartservice,memory,28139520
2023-07-04T21:10:38.300Z,cartservice,memory,28008448
2023-07-04T21:10:38.300Z,cartservice,memory,27959296
2023-07-04T21:10:48.275Z,shippingservice,memory,8658944
2023-07-04T21:10:48.275Z,cartservice,memory,28200960
2023-07-04T21:10:48.300Z,cartservice,memory,28008448
2023-07-04T21:10:48.300Z,cartservice,memory,27959296
2023-07-04T21:10:48.275Z,cartservice,memory,28192768
2023-07-04T21:10:48.275Z,cartservice,memory,28438528
2023-07-04T21:10:48.275Z,productcatalogservice,memory,10936320
2023-07-04T21:10:48.300Z,emailservice,memory,45096960
2023-07-04T21:10:48.275Z,frontend,memory,13864960
2023-07-04T21:10:48.275Z,checkoutservice,memory,15556608
2023-07-04T21:10:48.300Z,cartservice,memory,36089856
2023-07-04T21:10:48.275Z,redis-cart,memory,8486912
2023-07-04T21:10:48.275Z,cartservice,memory,28397568
2023-07-04T21:10:48.275Z,cartservice,memory,28110848
2023-07-04T21:10:48.295Z,currencyservice,memory,31858688
2023-07-04T21:10:48.295Z,cartservice,memory,28037120
2023-07-04T21:10:48.295Z,cartservice,memory,28254208
2023-07-04T21:10:48.295Z,cartservice,memory,28172288
2023-07-04T21:10:48.295Z,cartservice,memory,27955200
2023-07-04T21:10:48.295Z,cartservice,memory,28573696
2023-07-04T21:10:48.295Z,recommendationservice,memory,43933696
2023-07-04T21:10:48.295Z,cartservice,memory,28033024
2023-07-04T21:10:48.295Z,paymentservice,memory,20041728
2023-07-04T21:10:48.300Z,cartservice,memory,28110848
2023-07-04T21:10:48.300Z,cartservice,memory,34668544
2023-07-04T21:10:48.300Z,adservice,memory,83247104
2023-07-04T21:10:58.275Z,shippingservice,memory,8658944
2023-07-04T21:10:58.295Z,cartservice,memory,28254208
2023-07-04T21:10:58.295Z,cartservice,memory,27955200
2023-07-04T21:10:58.295Z,cartservice,memory,28033024
2023-07-04T21:10:58.300Z,cartservice,memory,28254208
2023-07-04T21:10:58.300Z,cartservice,memory,28278784
2023-07-04T21:10:58.300Z,emailservice,memory,45101056
2023-07-04T21:10:58.275Z,redis-cart,memory,8486912
2023-07-04T21:10:58.275Z,cartservice,memory,28397568
2023-07-04T21:10:58.295Z,cartservice,memory,28037120
2023-07-04T21:10:58.295Z,recommendationservice,memory,43933696
2023-07-04T21:10:58.300Z,cartservice,memory,28278784
2023-07-04T21:10:58.300Z,cartservice,memory,36065280
2023-07-04T21:10:58.275Z,frontend,memory,13864960
2023-07-04T21:10:58.275Z,checkoutservice,memory,15556608
2023-07-04T21:10:58.275Z,cartservice,memory,28438528
2023-07-04T21:10:58.295Z,currencyservice,memory,31858688
2023-07-04T21:10:58.295Z,cartservice,memory,28172288
2023-07-04T21:10:58.295Z,cartservice,memory,28573696
2023-07-04T21:10:58.295Z,paymentservice,memory,20041728
2023-07-04T21:10:58.275Z,cartservice,memory,28192768
2023-07-04T21:10:58.275Z,cartservice,memory,28110848
2023-07-04T21:10:58.275Z,cartservice,memory,28200960
2023-07-04T21:10:58.275Z,productcatalogservice,memory,10936320
2023-07-04T21:10:58.300Z,cartservice,memory,36081664
2023-07-04T21:10:58.300Z,adservice,memory,83398656
2023-07-04T21:11:08.300Z,cartservice,memory,28364800
2023-07-04T21:11:08.275Z,cartservice,memory,28618752
2023-07-04T21:11:08.295Z,cartservice,memory,28569600
2023-07-04T21:11:08.295Z,currencyservice,memory,32165888
2023-07-04T21:11:08.275Z,cartservice,memory,28520448
2023-07-04T21:11:08.275Z,cartservice,memory,28672000
2023-07-04T21:11:08.275Z,frontend,memory,13926400
2023-07-04T21:11:08.275Z,checkoutservice,memory,15568896
2023-07-04T21:11:08.275Z,shippingservice,memory,8658944
2023-07-04T21:11:08.295Z,recommendationservice,memory,43937792
2023-07-04T21:11:08.295Z,cartservice,memory,28479488
2023-07-04T21:11:08.295Z,cartservice,memory,28852224
2023-07-04T21:11:08.300Z,emailservice,memory,45096960
2023-07-04T21:11:08.300Z,cartservice,memory,36065280
2023-07-04T21:11:08.275Z,cartservice,memory,28258304
2023-07-04T21:11:08.275Z,productcatalogservice,memory,10878976
2023-07-04T21:11:08.275Z,redis-cart,memory,8761344
2023-07-04T21:11:08.295Z,cartservice,memory,28065792
2023-07-04T21:11:08.300Z,cartservice,memory,36044800
2023-07-04T21:11:08.300Z,cartservice,memory,28602368
2023-07-04T21:11:08.300Z,cartservice,memory,28241920
2023-07-04T21:11:08.300Z,adservice,memory,84172800
2023-07-04T21:11:08.275Z,cartservice,memory,28577792
2023-07-04T21:11:08.295Z,cartservice,memory,28581888
2023-07-04T21:11:08.295Z,cartservice,memory,28467200
2023-07-04T21:11:08.295Z,paymentservice,memory,20254720
2023-07-04T21:11:18.275Z,cartservice,memory,28631040
2023-07-04T21:11:18.275Z,productcatalogservice,memory,10878976
2023-07-04T21:11:18.300Z,cartservice,memory,35856384
2023-07-04T21:11:18.295Z,cartservice,memory,29016064
2023-07-04T21:11:18.295Z,currencyservice,memory,31789056
2023-07-04T21:11:18.275Z,checkoutservice,memory,15568896
2023-07-04T21:11:18.275Z,cartservice,memory,28782592
2023-07-04T21:11:18.275Z,frontend,memory,15802368
2023-07-04T21:11:18.295Z,cartservice,memory,28983296
2023-07-04T21:11:18.295Z,cartservice,memory,28643328
2023-07-04T21:11:18.295Z,cartservice,memory,28512256
2023-07-04T21:11:18.275Z,redis-cart,memory,8499200
2023-07-04T21:11:18.275Z,cartservice,memory,28684288
2023-07-04T21:11:18.300Z,cartservice,memory,28655616
2023-07-04T21:11:18.300Z,emailservice,memory,45096960
2023-07-04T21:11:18.300Z,cartservice,memory,28495872
2023-07-04T21:11:18.300Z,adservice,memory,86245376
2023-07-04T21:11:18.295Z,paymentservice,memory,20586496
2023-07-04T21:11:18.275Z,cartservice,memory,28577792
2023-07-04T21:11:18.275Z,cartservice,memory,28778496
2023-07-04T21:11:18.275Z,shippingservice,memory,8663040
2023-07-04T21:11:18.300Z,cartservice,memory,28577792
2023-07-04T21:11:18.300Z,cartservice,memory,36040704
2023-07-04T21:11:18.295Z,cartservice,memory,28569600
2023-07-04T21:11:18.295Z,recommendationservice,memory,43945984
2023-07-04T21:11:18.295Z,cartservice,memory,28590080
2023-07-04T21:11:28.275Z,cartservice,memory,28577792
2023-07-04T21:11:28.275Z,shippingservice,memory,8663040
2023-07-04T21:11:28.295Z,paymentservice,memory,20586496
2023-07-04T21:11:28.295Z,cartservice,memory,28827648
2023-07-04T21:11:28.295Z,cartservice,memory,29016064
2023-07-04T21:11:28.299Z,cartservice,memory,28577792
2023-07-04T21:11:28.299Z,cartservice,memory,36040704
2023-07-04T21:11:28.275Z,redis-cart,memory,8503296
2023-07-04T21:11:28.275Z,cartservice,memory,28782592
2023-07-04T21:11:28.275Z,productcatalogservice,memory,10973184
2023-07-04T21:11:28.295Z,cartservice,memory,28749824
2023-07-04T21:11:28.295Z,recommendationservice,memory,43945984
2023-07-04T21:11:28.299Z,cartservice,memory,28495872
2023-07-04T21:11:28.299Z,adservice,memory,86245376
2023-07-04T21:11:28.275Z,cartservice,memory,28684288
2023-07-04T21:11:28.275Z,cartservice,memory,28778496
2023-07-04T21:11:28.275Z,frontend,memory,18165760
2023-07-04T21:11:28.295Z,cartservice,memory,28983296
2023-07-04T21:11:28.295Z,currencyservice,memory,31789056
2023-07-04T21:11:28.295Z,cartservice,memory,28729344
2023-07-04T21:11:28.299Z,cartservice,memory,28655616
2023-07-04T21:11:28.299Z,emailservice,memory,45096960
2023-07-04T21:11:28.275Z,cartservice,memory,28631040
2023-07-04T21:11:28.275Z,checkoutservice,memory,15572992
2023-07-04T21:11:28.295Z,cartservice,memory,28590080
2023-07-04T21:11:28.299Z,cartservice,memory,35856384
2023-07-04T21:11:38.275Z,cartservice,memory,28577792
2023-07-04T21:11:38.275Z,shippingservice,memory,8663040
2023-07-04T21:11:38.295Z,currencyservice,memory,32296960
2023-07-04T21:11:38.295Z,recommendationservice,memory,43937792
2023-07-04T21:11:38.300Z,cartservice,memory,35856384
2023-07-04T21:11:38.275Z,redis-cart,memory,8503296
2023-07-04T21:11:38.275Z,cartservice,memory,28782592
2023-07-04T21:11:38.275Z,productcatalogservice,memory,10973184
2023-07-04T21:11:38.295Z,cartservice,memory,28905472
2023-07-04T21:11:38.295Z,paymentservice,memory,20086784
2023-07-04T21:11:38.295Z,cartservice,memory,28708864
2023-07-04T21:11:38.300Z,emailservice,memory,45101056
2023-07-04T21:11:38.275Z,cartservice,memory,28631040
2023-07-04T21:11:38.275Z,checkoutservice,memory,15572992
2023-07-04T21:11:38.295Z,cartservice,memory,28729344
2023-07-04T21:11:38.295Z,cartservice,memory,28749824
2023-07-04T21:11:38.300Z,cartservice,memory,36040704
2023-07-04T21:11:38.300Z,adservice,memory,84840448
2023-07-04T21:11:38.300Z,cartservice,memory,28676096
2023-07-04T21:11:38.275Z,cartservice,memory,28684288
2023-07-04T21:11:38.275Z,cartservice,memory,28778496
2023-07-04T21:11:38.275Z,frontend,memory,18165760
2023-07-04T21:11:38.295Z,cartservice,memory,29192192
2023-07-04T21:11:38.295Z,cartservice,memory,28827648
2023-07-04T21:11:38.300Z,cartservice,memory,28815360
2023-07-04T21:11:38.300Z,cartservice,memory,28721152
2023-07-04T21:11:48.295Z,cartservice,memory,28917760
2023-07-04T21:11:48.295Z,cartservice,memory,28975104
2023-07-04T21:11:48.300Z,cartservice,memory,31842304
2023-07-04T21:11:48.275Z,cartservice,memory,28962816
2023-07-04T21:11:48.275Z,checkoutservice,memory,15581184
2023-07-04T21:11:48.295Z,cartservice,memory,28930048
2023-07-04T21:11:48.295Z,cartservice,memory,28889088
2023-07-04T21:11:48.295Z,cartservice,memory,29278208
2023-07-04T21:11:48.300Z,cartservice,memory,28995584
2023-07-04T21:11:48.275Z,redis-cart,memory,8507392
2023-07-04T21:11:48.275Z,cartservice,memory,28966912
2023-07-04T21:11:48.275Z,cartservice,memory,28999680
2023-07-04T21:11:48.295Z,recommendationservice,memory,43941888
2023-07-04T21:11:48.295Z,paymentservice,memory,20303872
2023-07-04T21:11:48.300Z,cartservice,memory,36040704
2023-07-04T21:11:48.300Z,cartservice,memory,29224960
2023-07-04T21:11:48.300Z,emailservice,memory,45101056
2023-07-04T21:11:48.275Z,cartservice,memory,28856320
2023-07-04T21:11:48.275Z,frontend,memory,18268160
2023-07-04T21:11:48.295Z,currencyservice,memory,32296960
2023-07-04T21:11:48.295Z,cartservice,memory,28962816
2023-07-04T21:11:48.300Z,cartservice,memory,35856384
2023-07-04T21:11:48.300Z,adservice,memory,84840448
2023-07-04T21:11:48.275Z,shippingservice,memory,8658944
2023-07-04T21:11:48.275Z,productcatalogservice,memory,12959744
2023-07-04T21:11:48.275Z,cartservice,memory,28741632
2023-07-04T21:11:58.275Z,productcatalogservice,memory,12959744
2023-07-04T21:11:58.295Z,recommendationservice,memory,43941888
2023-07-04T21:11:58.295Z,paymentservice,memory,20303872
2023-07-04T21:11:58.275Z,cartservice,memory,29097984
2023-07-04T21:11:58.275Z,shippingservice,memory,8671232
2023-07-04T21:11:58.275Z,redis-cart,memory,8503296
2023-07-04T21:11:58.275Z,cartservice,memory,29134848
2023-07-04T21:11:58.295Z,currencyservice,memory,32296960
2023-07-04T21:11:58.295Z,cartservice,memory,28962816
2023-07-04T21:11:58.300Z,cartservice,memory,35856384
2023-07-04T21:11:58.275Z,cartservice,memory,29093888
2023-07-04T21:11:58.275Z,cartservice,memory,29335552
2023-07-04T21:11:58.295Z,cartservice,memory,28917760
2023-07-04T21:11:58.295Z,cartservice,memory,28975104
2023-07-04T21:11:58.275Z,cartservice,memory,29036544
2023-07-04T21:11:58.275Z,checkoutservice,memory,15581184
2023-07-04T21:11:58.275Z,frontend,memory,18268160
2023-07-04T21:11:58.295Z,cartservice,memory,28930048
2023-07-04T21:11:58.295Z,cartservice,memory,28889088
2023-07-04T21:11:58.295Z,cartservice,memory,29278208
2023-07-04T21:11:58.300Z,cartservice,memory,36040704
2023-07-04T21:11:58.300Z,cartservice,memory,28995584
2023-07-04T21:11:58.300Z,adservice,memory,84840448
2023-07-04T21:11:58.300Z,cartservice,memory,29224960
2023-07-04T21:11:58.300Z,cartservice,memory,31842304
2023-07-04T21:11:58.300Z,emailservice,memory,45101056
2023-07-04T21:12:08.275Z,checkoutservice,memory,15581184
2023-07-04T21:12:08.275Z,cartservice,memory,29233152
2023-07-04T21:12:08.275Z,shippingservice,memory,8675328
2023-07-04T21:12:08.299Z,cartservice,memory,36089856
2023-07-04T21:12:08.295Z,cartservice,memory,29270016
2023-07-04T21:12:08.275Z,frontend,memory,18042880
2023-07-04T21:12:08.275Z,productcatalogservice,memory,14925824
2023-07-04T21:12:08.275Z,redis-cart,memory,8503296
2023-07-04T21:12:08.275Z,cartservice,memory,29196288
2023-07-04T21:12:08.299Z,cartservice,memory,35856384
2023-07-04T21:12:08.299Z,emailservice,memory,45137920
2023-07-04T21:12:08.299Z,cartservice,memory,29065216
2023-07-04T21:12:08.295Z,recommendationservice,memory,43950080
2023-07-04T21:12:08.295Z,cartservice,memory,29265920
2023-07-04T21:12:08.295Z,cartservice,memory,29241344
2023-07-04T21:12:08.295Z,paymentservice,memory,20467712
2023-07-04T21:12:08.295Z,cartservice,memory,29138944
2023-07-04T21:12:08.275Z,cartservice,memory,29118464
2023-07-04T21:12:08.275Z,cartservice,memory,29036544
2023-07-04T21:12:08.275Z,cartservice,memory,29163520
2023-07-04T21:12:08.299Z,adservice,memory,83894272
2023-07-04T21:12:08.299Z,cartservice,memory,29294592
2023-07-04T21:12:08.299Z,cartservice,memory,29061120
2023-07-04T21:12:08.295Z,cartservice,memory,29208576
2023-07-04T21:12:08.295Z,currencyservice,memory,32600064
2023-07-04T21:12:08.295Z,cartservice,memory,29315072
