timestamp,key,run_id,resource,metric,value
2021-06-08T11:17:14.282Z,SHARED_GLOBAL_UNIT_MULTI_PROBE-1-1-1,1,monitoring-unit-1,network_in,1.4777297973632812
2021-06-08T11:28:59.972Z,SHARED_GLOBAL_UNIT_MULTI_PROBE-1-1-1,2,monitoring-unit-1,network_in,1.5009374618530273
2021-06-08T11:40:44.625Z,SHARED_GLOBAL_UNIT_MULTI_PROBE-1-1-1,3,monitoring-unit-1,network_in,1.5103321075439453
2021-06-08T19:58:50.540Z,SHARED_GLOBAL_UNIT_MULTI_PROBE-1-16-1,1,monitoring-unit-1,network_in,1.9283208847045898
2021-06-08T20:13:27.921Z,SHARED_GLOBAL_UNIT_MULTI_PROBE-1-16-1,2,monitoring-unit-1,network_in,1.867964744567871
2021-06-08T20:28:04.337Z,SHARED_GLOBAL_UNIT_MULTI_PROBE-1-16-1,3,monitoring-unit-1,network_in,1.9277801513671875
2021-06-08T18:06:01.130Z,SHARED_GLOBAL_UNIT_MULTI_PROBE-1-2-1,1,monitoring-unit-1,network_in,1.5161466598510742
2021-06-08T18:17:47.530Z,SHARED_GLOBAL_UNIT_MULTI_PROBE-1-2-1,2,monitoring-unit-1,network_in,1.5356664657592773
2021-06-08T18:29:38.400Z,SHARED_GLOBAL_UNIT_MULTI_PROBE-1-2-1,3,monitoring-unit-1,network_in,1.5163707733154297
2021-06-08T18:41:39.536Z,SHARED_GLOBAL_UNIT_MULTI_PROBE-1-4-1,1,monitoring-unit-1,network_in,1.584564208984375
2021-06-08T18:53:39.610Z,SHARED_GLOBAL_UNIT_MULTI_PROBE-1-4-1,2,monitoring-unit-1,network_in,1.591470718383789
2021-06-08T19:05:41.486Z,SHARED_GLOBAL_UNIT_MULTI_PROBE-1-4-1,3,monitoring-unit-1,network_in,1.5969057083129883
2021-06-08T19:18:32.282Z,SHARED_GLOBAL_UNIT_MULTI_PROBE-1-8-1,1,monitoring-unit-1,network_in,1.6894598007202148
2021-06-08T19:31:24.231Z,SHARED_GLOBAL_UNIT_MULTI_PROBE-1-8-1,2,monitoring-unit-1,network_in,1.6849842071533203
2021-06-08T19:44:09.581Z,SHARED_GLOBAL_UNIT_MULTI_PROBE-1-8-1,3,monitoring-unit-1,network_in,1.7081060409545898
