2023-07-10T15:34:48.909Z,target-1,network_in,110112307
2023-07-10T15:34:58.909Z,target-1,network_in,110119975
2023-07-10T15:35:08.909Z,target-1,network_in,110128797
2023-07-10T15:35:18.909Z,target-1,network_in,110137240
2023-07-10T15:35:28.911Z,target-1,network_in,110144660
2023-07-10T15:35:38.911Z,target-1,network_in,110148610
2023-07-10T15:35:48.911Z,target-1,network_in,110156318
2023-07-10T15:35:58.911Z,target-1,network_in,110163738
2023-07-10T15:36:08.909Z,target-1,network_in,110172376
2023-07-10T15:36:18.909Z,target-1,network_in,110180218
2023-07-10T15:36:28.909Z,target-1,network_in,110187638
2023-07-10T15:36:38.912Z,target-1,network_in,110191420
2023-07-10T15:36:48.909Z,target-1,network_in,110198840
2023-07-10T15:36:58.909Z,target-1,network_in,110206260
2023-07-10T15:37:08.909Z,target-1,network_in,110214918
2023-07-10T15:37:18.909Z,target-1,network_in,110222760
2023-07-10T15:37:28.911Z,target-1,network_in,110230180
2023-07-10T15:37:38.912Z,target-1,network_in,110233962
2023-07-10T15:37:48.909Z,target-1,network_in,110241382
2023-07-10T15:37:58.912Z,target-1,network_in,110245164
2023-07-10T15:38:08.912Z,target-1,network_in,110257374
2023-07-10T15:38:18.912Z,target-1,network_in,110265216
2023-07-10T15:38:28.909Z,target-1,network_in,110268998
2023-07-10T15:38:38.909Z,target-1,network_in,110276418
2023-07-10T15:38:48.912Z,target-1,network_in,110283838
2023-07-10T15:38:58.911Z,target-1,network_in,110287620
2023-07-10T15:39:08.911Z,target-1,network_in,110299830
2023-07-10T15:39:18.911Z,target-1,network_in,110307672
2023-07-10T15:39:28.909Z,target-1,network_in,110311454
2023-07-10T15:39:38.911Z,target-1,network_in,110318874
2023-07-10T15:39:48.911Z,target-1,network_in,110326294
2023-07-10T15:39:58.909Z,target-1,network_in,110330076
2023-07-10T15:40:08.909Z,target-1,network_in,110342286
2023-07-10T15:40:18.909Z,target-1,network_in,110350561
2023-07-10T15:40:28.909Z,target-1,network_in,110354343
2023-07-10T15:40:38.912Z,target-1,network_in,110361763
2023-07-10T15:40:48.909Z,target-1,network_in,110369183
2023-07-10T15:40:58.909Z,target-1,network_in,110372965
2023-07-10T15:41:08.909Z,target-1,network_in,110385175
2023-07-10T15:41:18.909Z,target-1,network_in,110393450
2023-07-10T15:41:28.909Z,target-1,network_in,110397232
2023-07-10T15:41:38.909Z,target-1,network_in,110404652
2023-07-10T15:41:48.911Z,target-1,network_in,110412072
2023-07-10T15:41:58.909Z,target-1,network_in,110415854
2023-07-10T15:42:08.909Z,target-1,network_in,110428064
2023-07-10T15:42:18.909Z,target-1,network_in,110435906
2023-07-10T15:42:28.909Z,target-1,network_in,110439688
2023-07-10T15:42:38.909Z,target-1,network_in,110447108
2023-07-10T15:42:48.911Z,target-1,network_in,110454528
2023-07-10T15:42:58.911Z,target-1,network_in,110458396
2023-07-10T15:43:08.909Z,target-1,network_in,110470606
2023-07-10T15:43:18.911Z,target-1,network_in,110478448
2023-07-10T15:43:28.909Z,target-1,network_in,110482320
2023-07-10T15:43:38.909Z,target-1,network_in,110489740
2023-07-10T15:43:48.911Z,target-1,network_in,110497160
2023-07-10T15:43:58.909Z,target-1,network_in,110500942
2023-07-10T15:44:08.909Z,target-1,network_in,110513152
2023-07-10T15:44:18.909Z,target-1,network_in,110520994
2023-07-10T15:44:28.909Z,target-1,network_in,110524776
2023-07-10T15:44:38.912Z,target-1,network_in,110532196
2023-07-10T15:44:48.909Z,target-1,network_in,110539616
2023-07-10T15:45:29.517Z,target-1,network_in,111473123
2023-07-10T15:45:39.517Z,target-1,network_in,111480727
2023-07-10T15:45:49.518Z,target-1,network_in,111488147
2023-07-10T15:45:59.518Z,target-1,network_in,111492097
2023-07-10T15:46:09.517Z,target-1,network_in,111504475
2023-07-10T15:46:19.518Z,target-1,network_in,111512317
2023-07-10T15:46:29.518Z,target-1,network_in,111516387
2023-07-10T15:46:39.518Z,target-1,network_in,111523807
2023-07-10T15:46:49.517Z,target-1,network_in,111531227
2023-07-10T15:46:59.517Z,target-1,network_in,111535009
2023-07-10T15:47:09.517Z,target-1,network_in,111547285
2023-07-10T15:47:19.518Z,target-1,network_in,111555127
2023-07-10T15:47:29.518Z,target-1,network_in,111558909
2023-07-10T15:47:39.517Z,target-1,network_in,111566329
2023-07-10T15:47:49.517Z,target-1,network_in,111573815
2023-07-10T15:47:59.517Z,target-1,network_in,111577597
2023-07-10T15:48:09.518Z,target-1,network_in,111589807
2023-07-10T15:48:19.517Z,target-1,network_in,111594011
2023-07-10T15:48:29.518Z,target-1,network_in,111601431
2023-07-10T15:48:39.517Z,target-1,network_in,111608851
2023-07-10T15:48:49.518Z,target-1,network_in,111612633
2023-07-10T15:48:59.517Z,target-1,network_in,111620053
2023-07-10T15:49:09.518Z,target-1,network_in,111632263
2023-07-10T15:49:19.518Z,target-1,network_in,111636467
2023-07-10T15:49:29.517Z,target-1,network_in,111643887
2023-07-10T15:49:39.518Z,target-1,network_in,111651307
2023-07-10T15:49:49.518Z,target-1,network_in,111655089
2023-07-10T15:49:59.517Z,target-1,network_in,111662509
2023-07-10T15:50:09.517Z,target-1,network_in,111674719
2023-07-10T15:50:19.518Z,target-1,network_in,111679356
2023-07-10T15:50:29.518Z,target-1,network_in,111686776
2023-07-10T15:50:39.517Z,target-1,network_in,111694196
2023-07-10T15:50:49.518Z,target-1,network_in,111697978
2023-07-10T15:50:59.517Z,target-1,network_in,111705398
2023-07-10T15:51:09.518Z,target-1,network_in,111717608
2023-07-10T15:51:19.517Z,target-1,network_in,111721812
2023-07-10T15:51:29.518Z,target-1,network_in,111729232
2023-07-10T15:51:39.518Z,target-1,network_in,111736652
2023-07-10T15:51:49.518Z,target-1,network_in,111740434
2023-07-10T15:51:59.517Z,target-1,network_in,111747854
2023-07-10T15:52:09.518Z,target-1,network_in,111760064
2023-07-10T15:52:19.518Z,target-1,network_in,111764268
2023-07-10T15:52:29.518Z,target-1,network_in,111771688
2023-07-10T15:52:39.517Z,target-1,network_in,111779108
2023-07-10T15:52:49.518Z,target-1,network_in,111782890
2023-07-10T15:52:59.518Z,target-1,network_in,111790310
2023-07-10T15:53:09.517Z,target-1,network_in,111802520
2023-07-10T15:53:19.517Z,target-1,network_in,111806724
2023-07-10T15:53:29.518Z,target-1,network_in,111814144
2023-07-10T15:53:39.518Z,target-1,network_in,111821564
2023-07-10T15:53:49.517Z,target-1,network_in,111825346
2023-07-10T15:53:59.518Z,target-1,network_in,111832766
2023-07-10T15:54:09.518Z,target-1,network_in,111845042
2023-07-10T15:54:19.517Z,target-1,network_in,111849246
2023-07-10T15:54:29.518Z,target-1,network_in,111856666
2023-07-10T15:54:39.517Z,target-1,network_in,111864086
2023-07-10T15:54:49.518Z,target-1,network_in,111867868
2023-07-10T15:54:59.518Z,target-1,network_in,111875288
2023-07-10T15:55:09.517Z,target-1,network_in,111887498
2023-07-10T15:55:19.517Z,target-1,network_in,111892135
