timestamp,key,run_id,resource,metric,value
2022-03-30T16:05:37.917Z,FULLY_SHARED_UNIT_1-1-1-1,1,target-1,cpu,17651
2022-03-30T16:05:47.917Z,FULLY_SHARED_UNIT_1-1-1-1,1,target-1,cpu,17651
2022-03-30T16:05:57.917Z,FULLY_SHARED_UNIT_1-1-1-1,1,target-1,cpu,17651
2022-03-30T16:06:07.917Z,FULLY_SHARED_UNIT_1-1-1-1,1,target-1,cpu,14020
2022-03-30T16:06:17.916Z,FULLY_SHARED_UNIT_1-1-1-1,1,target-1,cpu,14020
2022-03-30T16:06:27.916Z,FULLY_SHARED_UNIT_1-1-1-1,1,target-1,cpu,23968
2022-03-30T16:06:37.917Z,FULLY_SHARED_UNIT_1-1-1-1,1,target-1,cpu,17454
2022-03-30T16:06:47.917Z,FULLY_SHARED_UNIT_1-1-1-1,1,target-1,cpu,17454
2022-03-30T16:06:57.916Z,FULLY_SHARED_UNIT_1-1-1-1,1,target-1,cpu,17454
2022-03-30T16:07:07.917Z,FULLY_SHARED_UNIT_1-1-1-1,1,target-1,cpu,29438
2022-03-30T16:07:17.917Z,FULLY_SHARED_UNIT_1-1-1-1,1,target-1,cpu,29438
2022-03-30T16:07:27.917Z,FULLY_SHARED_UNIT_1-1-1-1,1,target-1,cpu,15139
2022-03-30T16:07:37.916Z,FULLY_SHARED_UNIT_1-1-1-1,1,target-1,cpu,15139
2022-03-30T16:07:47.916Z,FULLY_SHARED_UNIT_1-1-1-1,1,target-1,cpu,29370
2022-03-30T16:07:57.917Z,FULLY_SHARED_UNIT_1-1-1-1,1,target-1,cpu,20288
2022-03-30T16:08:07.916Z,FULLY_SHARED_UNIT_1-1-1-1,1,target-1,cpu,20288
2022-03-30T16:08:17.916Z,FULLY_SHARED_UNIT_1-1-1-1,1,target-1,cpu,9403
2022-03-30T16:08:27.917Z,FULLY_SHARED_UNIT_1-1-1-1,1,target-1,cpu,171209
2022-03-30T16:08:37.916Z,FULLY_SHARED_UNIT_1-1-1-1,1,target-1,cpu,171209
2022-03-30T16:08:47.916Z,FULLY_SHARED_UNIT_1-1-1-1,1,target-1,cpu,22884
2022-03-30T16:08:57.917Z,FULLY_SHARED_UNIT_1-1-1-1,1,target-1,cpu,23089
2022-03-30T16:09:07.917Z,FULLY_SHARED_UNIT_1-1-1-1,1,target-1,cpu,23089
2022-03-30T16:09:17.917Z,FULLY_SHARED_UNIT_1-1-1-1,1,target-1,cpu,14219
2022-03-30T16:09:27.917Z,FULLY_SHARED_UNIT_1-1-1-1,1,target-1,cpu,14219
2022-03-30T16:09:37.917Z,FULLY_SHARED_UNIT_1-1-1-1,1,target-1,cpu,21534
2022-03-30T16:09:47.916Z,FULLY_SHARED_UNIT_1-1-1-1,1,target-1,cpu,21534
2022-03-30T16:09:57.916Z,FULLY_SHARED_UNIT_1-1-1-1,1,target-1,cpu,35199
2022-03-30T16:10:07.917Z,FULLY_SHARED_UNIT_1-1-1-1,1,target-1,cpu,12411
2022-03-30T16:10:17.917Z,FULLY_SHARED_UNIT_1-1-1-1,1,target-1,cpu,23160
2022-03-30T16:10:27.916Z,FULLY_SHARED_UNIT_1-1-1-1,1,target-1,cpu,23160
2022-03-30T16:10:37.917Z,FULLY_SHARED_UNIT_1-1-1-1,1,target-1,cpu,17482
2022-03-30T16:10:47.916Z,FULLY_SHARED_UNIT_1-1-1-1,1,target-1,cpu,17482
2022-03-30T16:10:57.917Z,FULLY_SHARED_UNIT_1-1-1-1,1,target-1,cpu,13243
2022-03-30T16:11:07.916Z,FULLY_SHARED_UNIT_1-1-1-1,1,target-1,cpu,13243
2022-03-30T16:11:17.917Z,FULLY_SHARED_UNIT_1-1-1-1,1,target-1,cpu,16269
2022-03-30T16:11:27.916Z,FULLY_SHARED_UNIT_1-1-1-1,1,target-1,cpu,16269
2022-03-30T16:11:37.916Z,FULLY_SHARED_UNIT_1-1-1-1,1,target-1,cpu,26457
2022-03-30T16:11:47.917Z,FULLY_SHARED_UNIT_1-1-1-1,1,target-1,cpu,22896
2022-03-30T16:11:57.916Z,FULLY_SHARED_UNIT_1-1-1-1,1,target-1,cpu,22896
2022-03-30T16:12:07.916Z,FULLY_SHARED_UNIT_1-1-1-1,1,target-1,cpu,12667
2022-03-30T16:12:17.917Z,FULLY_SHARED_UNIT_1-1-1-1,1,target-1,cpu,25137
2022-03-30T16:12:27.916Z,FULLY_SHARED_UNIT_1-1-1-1,1,target-1,cpu,25137
2022-03-30T16:12:37.916Z,FULLY_SHARED_UNIT_1-1-1-1,1,target-1,cpu,34126
2022-03-30T16:12:47.917Z,FULLY_SHARED_UNIT_1-1-1-1,1,target-1,cpu,14914
2022-03-30T16:12:57.917Z,FULLY_SHARED_UNIT_1-1-1-1,1,target-1,cpu,13831
2022-03-30T16:13:07.916Z,FULLY_SHARED_UNIT_1-1-1-1,1,target-1,cpu,13831
2022-03-30T16:13:17.916Z,FULLY_SHARED_UNIT_1-1-1-1,1,target-1,cpu,22678
2022-03-30T16:13:27.917Z,FULLY_SHARED_UNIT_1-1-1-1,1,target-1,cpu,22678
2022-03-30T16:13:37.916Z,FULLY_SHARED_UNIT_1-1-1-1,1,target-1,cpu,22678
2022-03-30T16:13:47.916Z,FULLY_SHARED_UNIT_1-1-1-1,1,target-1,cpu,19658
2022-03-30T16:13:57.917Z,FULLY_SHARED_UNIT_1-1-1-1,1,target-1,cpu,25239
2022-03-30T16:14:07.916Z,FULLY_SHARED_UNIT_1-1-1-1,1,target-1,cpu,25239
2022-03-30T16:14:17.916Z,FULLY_SHARED_UNIT_1-1-1-1,1,target-1,cpu,33342
2022-03-30T16:14:27.917Z,FULLY_SHARED_UNIT_1-1-1-1,1,target-1,cpu,34568
2022-03-30T16:14:37.917Z,FULLY_SHARED_UNIT_1-1-1-1,1,target-1,cpu,16250
2022-03-30T16:14:47.917Z,FULLY_SHARED_UNIT_1-1-1-1,1,target-1,cpu,16250
2022-03-30T16:14:57.917Z,FULLY_SHARED_UNIT_1-1-1-1,1,target-1,cpu,32841
2022-03-30T16:15:07.917Z,FULLY_SHARED_UNIT_1-1-1-1,1,target-1,cpu,14717
2022-03-30T16:15:17.917Z,FULLY_SHARED_UNIT_1-1-1-1,1,target-1,cpu,14717
2022-03-30T16:15:27.917Z,FULLY_SHARED_UNIT_1-1-1-1,1,target-1,cpu,30605
2022-03-30T16:15:46.164Z,FULLY_SHARED_UNIT_1-1-1-1,2,target-1,cpu,19864
2022-03-30T16:15:56.164Z,FULLY_SHARED_UNIT_1-1-1-1,2,target-1,cpu,26250
2022-03-30T16:16:06.163Z,FULLY_SHARED_UNIT_1-1-1-1,2,target-1,cpu,26250
2022-03-30T16:16:16.163Z,FULLY_SHARED_UNIT_1-1-1-1,2,target-1,cpu,26268
2022-03-30T16:16:26.163Z,FULLY_SHARED_UNIT_1-1-1-1,2,target-1,cpu,26268
2022-03-30T16:16:36.163Z,FULLY_SHARED_UNIT_1-1-1-1,2,target-1,cpu,19565
2022-03-30T16:16:46.163Z,FULLY_SHARED_UNIT_1-1-1-1,2,target-1,cpu,19565
2022-03-30T16:16:56.164Z,FULLY_SHARED_UNIT_1-1-1-1,2,target-1,cpu,30338
2022-03-30T16:17:06.163Z,FULLY_SHARED_UNIT_1-1-1-1,2,target-1,cpu,30338
2022-03-30T16:17:16.164Z,FULLY_SHARED_UNIT_1-1-1-1,2,target-1,cpu,19365
2022-03-30T16:17:26.163Z,FULLY_SHARED_UNIT_1-1-1-1,2,target-1,cpu,19365
2022-03-30T16:17:36.164Z,FULLY_SHARED_UNIT_1-1-1-1,2,target-1,cpu,15277
2022-03-30T16:17:46.163Z,FULLY_SHARED_UNIT_1-1-1-1,2,target-1,cpu,15277
2022-03-30T16:17:56.163Z,FULLY_SHARED_UNIT_1-1-1-1,2,target-1,cpu,21141
2022-03-30T16:18:06.164Z,FULLY_SHARED_UNIT_1-1-1-1,2,target-1,cpu,28704
2022-03-30T16:18:16.163Z,FULLY_SHARED_UNIT_1-1-1-1,2,target-1,cpu,28704
2022-03-30T16:18:26.164Z,FULLY_SHARED_UNIT_1-1-1-1,2,target-1,cpu,17571
2022-03-30T16:18:36.163Z,FULLY_SHARED_UNIT_1-1-1-1,2,target-1,cpu,17571
2022-03-30T16:18:46.164Z,FULLY_SHARED_UNIT_1-1-1-1,2,target-1,cpu,11863
2022-03-30T16:18:56.164Z,FULLY_SHARED_UNIT_1-1-1-1,2,target-1,cpu,11863
2022-03-30T16:19:06.164Z,FULLY_SHARED_UNIT_1-1-1-1,2,target-1,cpu,22586
2022-03-30T16:19:16.163Z,FULLY_SHARED_UNIT_1-1-1-1,2,target-1,cpu,22586
2022-03-30T16:19:26.164Z,FULLY_SHARED_UNIT_1-1-1-1,2,target-1,cpu,16207
2022-03-30T16:19:36.163Z,FULLY_SHARED_UNIT_1-1-1-1,2,target-1,cpu,16207
2022-03-30T16:19:46.164Z,FULLY_SHARED_UNIT_1-1-1-1,2,target-1,cpu,36930
2022-03-30T16:19:56.163Z,FULLY_SHARED_UNIT_1-1-1-1,2,target-1,cpu,36930
2022-03-30T16:20:06.163Z,FULLY_SHARED_UNIT_1-1-1-1,2,target-1,cpu,21757
2022-03-30T16:20:16.163Z,FULLY_SHARED_UNIT_1-1-1-1,2,target-1,cpu,14564
2022-03-30T16:20:26.163Z,FULLY_SHARED_UNIT_1-1-1-1,2,target-1,cpu,14564
2022-03-30T16:20:36.163Z,FULLY_SHARED_UNIT_1-1-1-1,2,target-1,cpu,35693
2022-03-30T16:20:46.163Z,FULLY_SHARED_UNIT_1-1-1-1,2,target-1,cpu,10746
2022-03-30T16:20:56.163Z,FULLY_SHARED_UNIT_1-1-1-1,2,target-1,cpu,35244
2022-03-30T16:21:06.163Z,FULLY_SHARED_UNIT_1-1-1-1,2,target-1,cpu,35244
2022-03-30T16:21:16.163Z,FULLY_SHARED_UNIT_1-1-1-1,2,target-1,cpu,17535
2022-03-30T16:21:26.164Z,FULLY_SHARED_UNIT_1-1-1-1,2,target-1,cpu,21099
2022-03-30T16:21:36.163Z,FULLY_SHARED_UNIT_1-1-1-1,2,target-1,cpu,21099
2022-03-30T16:21:46.164Z,FULLY_SHARED_UNIT_1-1-1-1,2,target-1,cpu,11685
2022-03-30T16:21:56.163Z,FULLY_SHARED_UNIT_1-1-1-1,2,target-1,cpu,11685
2022-03-30T16:22:06.163Z,FULLY_SHARED_UNIT_1-1-1-1,2,target-1,cpu,14955
2022-03-30T16:22:16.164Z,FULLY_SHARED_UNIT_1-1-1-1,2,target-1,cpu,14955
2022-03-30T16:22:26.163Z,FULLY_SHARED_UNIT_1-1-1-1,2,target-1,cpu,14955
2022-03-30T16:22:36.164Z,FULLY_SHARED_UNIT_1-1-1-1,2,target-1,cpu,12290
2022-03-30T16:22:46.164Z,FULLY_SHARED_UNIT_1-1-1-1,2,target-1,cpu,18254
2022-03-30T16:22:56.164Z,FULLY_SHARED_UNIT_1-1-1-1,2,target-1,cpu,18254
2022-03-30T16:23:06.163Z,FULLY_SHARED_UNIT_1-1-1-1,2,target-1,cpu,18254
2022-03-30T16:23:16.163Z,FULLY_SHARED_UNIT_1-1-1-1,2,target-1,cpu,14672
2022-03-30T16:23:26.164Z,FULLY_SHARED_UNIT_1-1-1-1,2,target-1,cpu,14672
2022-03-30T16:23:36.164Z,FULLY_SHARED_UNIT_1-1-1-1,2,target-1,cpu,14672
2022-03-30T16:23:46.163Z,FULLY_SHARED_UNIT_1-1-1-1,2,target-1,cpu,29975
2022-03-30T16:23:56.163Z,FULLY_SHARED_UNIT_1-1-1-1,2,target-1,cpu,13163
2022-03-30T16:24:06.163Z,FULLY_SHARED_UNIT_1-1-1-1,2,target-1,cpu,18822
2022-03-30T16:24:16.163Z,FULLY_SHARED_UNIT_1-1-1-1,2,target-1,cpu,18822
2022-03-30T16:24:26.163Z,FULLY_SHARED_UNIT_1-1-1-1,2,target-1,cpu,27730
2022-03-30T16:24:36.164Z,FULLY_SHARED_UNIT_1-1-1-1,2,target-1,cpu,27730
2022-03-30T16:24:46.164Z,FULLY_SHARED_UNIT_1-1-1-1,2,target-1,cpu,21763
2022-03-30T16:24:56.163Z,FULLY_SHARED_UNIT_1-1-1-1,2,target-1,cpu,21763
2022-03-30T16:25:06.164Z,FULLY_SHARED_UNIT_1-1-1-1,2,target-1,cpu,18187
2022-03-30T16:25:16.163Z,FULLY_SHARED_UNIT_1-1-1-1,2,target-1,cpu,18187
2022-03-30T16:25:26.163Z,FULLY_SHARED_UNIT_1-1-1-1,2,target-1,cpu,13144
2022-03-30T16:25:36.163Z,FULLY_SHARED_UNIT_1-1-1-1,2,target-1,cpu,13144
2022-03-30T16:25:54.363Z,FULLY_SHARED_UNIT_1-1-1-1,3,target-1,cpu,36477
2022-03-30T16:26:04.363Z,FULLY_SHARED_UNIT_1-1-1-1,3,target-1,cpu,36477
2022-03-30T16:26:14.363Z,FULLY_SHARED_UNIT_1-1-1-1,3,target-1,cpu,24885
2022-03-30T16:26:24.363Z,FULLY_SHARED_UNIT_1-1-1-1,3,target-1,cpu,24885
2022-03-30T16:26:34.363Z,FULLY_SHARED_UNIT_1-1-1-1,3,target-1,cpu,9772
2022-03-30T16:26:44.363Z,FULLY_SHARED_UNIT_1-1-1-1,3,target-1,cpu,12376
2022-03-30T16:26:54.365Z,FULLY_SHARED_UNIT_1-1-1-1,3,target-1,cpu,26028
2022-03-30T16:27:04.364Z,FULLY_SHARED_UNIT_1-1-1-1,3,target-1,cpu,26028
2022-03-30T16:27:14.364Z,FULLY_SHARED_UNIT_1-1-1-1,3,target-1,cpu,23518
2022-03-30T16:27:24.363Z,FULLY_SHARED_UNIT_1-1-1-1,3,target-1,cpu,23518
2022-03-30T16:27:34.364Z,FULLY_SHARED_UNIT_1-1-1-1,3,target-1,cpu,17673
2022-03-30T16:27:44.364Z,FULLY_SHARED_UNIT_1-1-1-1,3,target-1,cpu,17673
2022-03-30T16:27:54.364Z,FULLY_SHARED_UNIT_1-1-1-1,3,target-1,cpu,22459
2022-03-30T16:28:04.363Z,FULLY_SHARED_UNIT_1-1-1-1,3,target-1,cpu,22459
2022-03-30T16:28:14.364Z,FULLY_SHARED_UNIT_1-1-1-1,3,target-1,cpu,15589
2022-03-30T16:28:24.364Z,FULLY_SHARED_UNIT_1-1-1-1,3,target-1,cpu,21051
2022-03-30T16:28:34.363Z,FULLY_SHARED_UNIT_1-1-1-1,3,target-1,cpu,21051
2022-03-30T16:28:44.364Z,FULLY_SHARED_UNIT_1-1-1-1,3,target-1,cpu,21700
2022-03-30T16:28:54.363Z,FULLY_SHARED_UNIT_1-1-1-1,3,target-1,cpu,21700
2022-03-30T16:29:04.363Z,FULLY_SHARED_UNIT_1-1-1-1,3,target-1,cpu,17706
2022-03-30T16:29:14.364Z,FULLY_SHARED_UNIT_1-1-1-1,3,target-1,cpu,13803
2022-03-30T16:29:24.364Z,FULLY_SHARED_UNIT_1-1-1-1,3,target-1,cpu,13803
2022-03-30T16:29:34.363Z,FULLY_SHARED_UNIT_1-1-1-1,3,target-1,cpu,13803
2022-03-30T16:29:44.363Z,FULLY_SHARED_UNIT_1-1-1-1,3,target-1,cpu,19073
2022-03-30T16:29:54.363Z,FULLY_SHARED_UNIT_1-1-1-1,3,target-1,cpu,19073
2022-03-30T16:30:04.363Z,FULLY_SHARED_UNIT_1-1-1-1,3,target-1,cpu,12037
2022-03-30T16:30:14.364Z,FULLY_SHARED_UNIT_1-1-1-1,3,target-1,cpu,21893
2022-03-30T16:30:24.364Z,FULLY_SHARED_UNIT_1-1-1-1,3,target-1,cpu,21893
2022-03-30T16:30:34.363Z,FULLY_SHARED_UNIT_1-1-1-1,3,target-1,cpu,12367
2022-03-30T16:30:44.363Z,FULLY_SHARED_UNIT_1-1-1-1,3,target-1,cpu,12367
2022-03-30T16:30:54.363Z,FULLY_SHARED_UNIT_1-1-1-1,3,target-1,cpu,26309
2022-03-30T16:31:04.363Z,FULLY_SHARED_UNIT_1-1-1-1,3,target-1,cpu,26309
2022-03-30T16:31:14.363Z,FULLY_SHARED_UNIT_1-1-1-1,3,target-1,cpu,23378
2022-03-30T16:31:24.363Z,FULLY_SHARED_UNIT_1-1-1-1,3,target-1,cpu,23378
2022-03-30T16:31:34.364Z,FULLY_SHARED_UNIT_1-1-1-1,3,target-1,cpu,11630
2022-03-30T16:31:44.363Z,FULLY_SHARED_UNIT_1-1-1-1,3,target-1,cpu,11630
2022-03-30T16:31:54.364Z,FULLY_SHARED_UNIT_1-1-1-1,3,target-1,cpu,15466
2022-03-30T16:32:04.363Z,FULLY_SHARED_UNIT_1-1-1-1,3,target-1,cpu,15466
2022-03-30T16:32:14.363Z,FULLY_SHARED_UNIT_1-1-1-1,3,target-1,cpu,14215
2022-03-30T16:32:24.364Z,FULLY_SHARED_UNIT_1-1-1-1,3,target-1,cpu,19501
2022-03-30T16:32:34.364Z,FULLY_SHARED_UNIT_1-1-1-1,3,target-1,cpu,13682
2022-03-30T16:32:44.364Z,FULLY_SHARED_UNIT_1-1-1-1,3,target-1,cpu,13682
2022-03-30T16:32:54.363Z,FULLY_SHARED_UNIT_1-1-1-1,3,target-1,cpu,12511
2022-03-30T16:33:04.363Z,FULLY_SHARED_UNIT_1-1-1-1,3,target-1,cpu,12511
2022-03-30T16:33:14.364Z,FULLY_SHARED_UNIT_1-1-1-1,3,target-1,cpu,14089
2022-03-30T16:33:24.364Z,FULLY_SHARED_UNIT_1-1-1-1,3,target-1,cpu,14089
2022-03-30T16:33:34.363Z,FULLY_SHARED_UNIT_1-1-1-1,3,target-1,cpu,29412
2022-03-30T16:33:44.364Z,FULLY_SHARED_UNIT_1-1-1-1,3,target-1,cpu,10107
2022-03-30T16:33:54.363Z,FULLY_SHARED_UNIT_1-1-1-1,3,target-1,cpu,10107
2022-03-30T16:34:04.363Z,FULLY_SHARED_UNIT_1-1-1-1,3,target-1,cpu,17965
2022-03-30T16:34:14.363Z,FULLY_SHARED_UNIT_1-1-1-1,3,target-1,cpu,17965
2022-03-30T16:34:24.363Z,FULLY_SHARED_UNIT_1-1-1-1,3,target-1,cpu,13304
2022-03-30T16:34:34.363Z,FULLY_SHARED_UNIT_1-1-1-1,3,target-1,cpu,13304
2022-03-30T16:34:44.364Z,FULLY_SHARED_UNIT_1-1-1-1,3,target-1,cpu,13884
2022-03-30T16:34:54.364Z,FULLY_SHARED_UNIT_1-1-1-1,3,target-1,cpu,13884
2022-03-30T16:35:04.363Z,FULLY_SHARED_UNIT_1-1-1-1,3,target-1,cpu,20664
2022-03-30T16:35:14.364Z,FULLY_SHARED_UNIT_1-1-1-1,3,target-1,cpu,12138
2022-03-30T16:35:24.364Z,FULLY_SHARED_UNIT_1-1-1-1,3,target-1,cpu,12138
2022-03-30T16:35:34.363Z,FULLY_SHARED_UNIT_1-1-1-1,3,target-1,cpu,21848
2022-03-30T16:35:44.364Z,FULLY_SHARED_UNIT_1-1-1-1,3,target-1,cpu,20531
2022-03-30T19:11:02.646Z,FULLY_SHARED_UNIT_1-2-1-2,1,target-1,cpu,48593
2022-03-30T19:11:12.645Z,FULLY_SHARED_UNIT_1-2-1-2,1,target-1,cpu,48593
2022-03-30T19:11:22.646Z,FULLY_SHARED_UNIT_1-2-1-2,1,target-1,cpu,61933
2022-03-30T19:11:32.646Z,FULLY_SHARED_UNIT_1-2-1-2,1,target-1,cpu,21931
2022-03-30T19:11:42.646Z,FULLY_SHARED_UNIT_1-2-1-2,1,target-1,cpu,46303
2022-03-30T19:11:52.645Z,FULLY_SHARED_UNIT_1-2-1-2,1,target-1,cpu,46303
2022-03-30T19:12:02.646Z,FULLY_SHARED_UNIT_1-2-1-2,1,target-1,cpu,49145
2022-03-30T19:12:12.646Z,FULLY_SHARED_UNIT_1-2-1-2,1,target-1,cpu,49145
2022-03-30T19:12:22.645Z,FULLY_SHARED_UNIT_1-2-1-2,1,target-1,cpu,36151
2022-03-30T19:12:32.645Z,FULLY_SHARED_UNIT_1-2-1-2,1,target-1,cpu,73547
2022-03-30T19:12:42.645Z,FULLY_SHARED_UNIT_1-2-1-2,1,target-1,cpu,73547
2022-03-30T19:12:52.646Z,FULLY_SHARED_UNIT_1-2-1-2,1,target-1,cpu,37093
2022-03-30T19:13:02.645Z,FULLY_SHARED_UNIT_1-2-1-2,1,target-1,cpu,37093
2022-03-30T19:13:12.646Z,FULLY_SHARED_UNIT_1-2-1-2,1,target-1,cpu,40730
2022-03-30T19:13:22.645Z,FULLY_SHARED_UNIT_1-2-1-2,1,target-1,cpu,40730
2022-03-30T19:13:32.645Z,FULLY_SHARED_UNIT_1-2-1-2,1,target-1,cpu,29335
2022-03-30T19:13:42.645Z,FULLY_SHARED_UNIT_1-2-1-2,1,target-1,cpu,29335
2022-03-30T19:13:52.645Z,FULLY_SHARED_UNIT_1-2-1-2,1,target-1,cpu,30277
2022-03-30T19:14:02.645Z,FULLY_SHARED_UNIT_1-2-1-2,1,target-1,cpu,30277
2022-03-30T19:14:12.645Z,FULLY_SHARED_UNIT_1-2-1-2,1,target-1,cpu,30277
2022-03-30T19:14:22.646Z,FULLY_SHARED_UNIT_1-2-1-2,1,target-1,cpu,31594
2022-03-30T19:14:32.646Z,FULLY_SHARED_UNIT_1-2-1-2,1,target-1,cpu,31594
2022-03-30T19:14:42.646Z,FULLY_SHARED_UNIT_1-2-1-2,1,target-1,cpu,29102
2022-03-30T19:14:52.645Z,FULLY_SHARED_UNIT_1-2-1-2,1,target-1,cpu,29102
2022-03-30T19:15:02.645Z,FULLY_SHARED_UNIT_1-2-1-2,1,target-1,cpu,53303
2022-03-30T19:15:12.646Z,FULLY_SHARED_UNIT_1-2-1-2,1,target-1,cpu,47190
2022-03-30T19:15:22.646Z,FULLY_SHARED_UNIT_1-2-1-2,1,target-1,cpu,47190
2022-03-30T19:15:32.646Z,FULLY_SHARED_UNIT_1-2-1-2,1,target-1,cpu,45149
2022-03-30T19:15:42.646Z,FULLY_SHARED_UNIT_1-2-1-2,1,target-1,cpu,45149
2022-03-30T19:15:52.646Z,FULLY_SHARED_UNIT_1-2-1-2,1,target-1,cpu,31984
2022-03-30T19:16:02.646Z,FULLY_SHARED_UNIT_1-2-1-2,1,target-1,cpu,31984
2022-03-30T19:16:12.646Z,FULLY_SHARED_UNIT_1-2-1-2,1,target-1,cpu,31984
2022-03-30T19:16:22.646Z,FULLY_SHARED_UNIT_1-2-1-2,1,target-1,cpu,73513
2022-03-30T19:16:32.646Z,FULLY_SHARED_UNIT_1-2-1-2,1,target-1,cpu,73513
2022-03-30T19:16:42.646Z,FULLY_SHARED_UNIT_1-2-1-2,1,target-1,cpu,40537
2022-03-30T19:16:52.646Z,FULLY_SHARED_UNIT_1-2-1-2,1,target-1,cpu,40537
2022-03-30T19:17:02.645Z,FULLY_SHARED_UNIT_1-2-1-2,1,target-1,cpu,24723
2022-03-30T19:17:12.647Z,FULLY_SHARED_UNIT_1-2-1-2,1,target-1,cpu,44062
2022-03-30T19:17:22.645Z,FULLY_SHARED_UNIT_1-2-1-2,1,target-1,cpu,44062
2022-03-30T19:17:32.646Z,FULLY_SHARED_UNIT_1-2-1-2,1,target-1,cpu,30363
2022-03-30T19:17:42.646Z,FULLY_SHARED_UNIT_1-2-1-2,1,target-1,cpu,56509
2022-03-30T19:17:52.646Z,FULLY_SHARED_UNIT_1-2-1-2,1,target-1,cpu,56509
2022-03-30T19:18:02.646Z,FULLY_SHARED_UNIT_1-2-1-2,1,target-1,cpu,32619
2022-03-30T19:18:12.646Z,FULLY_SHARED_UNIT_1-2-1-2,1,target-1,cpu,39584
2022-03-30T19:18:22.645Z,FULLY_SHARED_UNIT_1-2-1-2,1,target-1,cpu,39584
2022-03-30T19:18:32.645Z,FULLY_SHARED_UNIT_1-2-1-2,1,target-1,cpu,23779
2022-03-30T19:18:42.645Z,FULLY_SHARED_UNIT_1-2-1-2,1,target-1,cpu,23779
2022-03-30T19:18:52.645Z,FULLY_SHARED_UNIT_1-2-1-2,1,target-1,cpu,23779
2022-03-30T19:19:02.645Z,FULLY_SHARED_UNIT_1-2-1-2,1,target-1,cpu,42053
2022-03-30T19:19:12.646Z,FULLY_SHARED_UNIT_1-2-1-2,1,target-1,cpu,30452
2022-03-30T19:19:22.645Z,FULLY_SHARED_UNIT_1-2-1-2,1,target-1,cpu,30452
2022-03-30T19:19:32.646Z,FULLY_SHARED_UNIT_1-2-1-2,1,target-1,cpu,35377
2022-03-30T19:19:42.645Z,FULLY_SHARED_UNIT_1-2-1-2,1,target-1,cpu,35377
2022-03-30T19:19:52.646Z,FULLY_SHARED_UNIT_1-2-1-2,1,target-1,cpu,45375
2022-03-30T19:20:02.645Z,FULLY_SHARED_UNIT_1-2-1-2,1,target-1,cpu,45375
2022-03-30T19:20:12.646Z,FULLY_SHARED_UNIT_1-2-1-2,1,target-1,cpu,30644
2022-03-30T19:20:22.645Z,FULLY_SHARED_UNIT_1-2-1-2,1,target-1,cpu,30644
2022-03-30T19:20:32.645Z,FULLY_SHARED_UNIT_1-2-1-2,1,target-1,cpu,51586
2022-03-30T19:20:42.646Z,FULLY_SHARED_UNIT_1-2-1-2,1,target-1,cpu,31612
2022-03-30T19:20:52.646Z,FULLY_SHARED_UNIT_1-2-1-2,1,target-1,cpu,31612
2022-03-30T19:21:12.549Z,FULLY_SHARED_UNIT_1-2-1-2,2,target-1,cpu,65697
2022-03-30T19:21:22.549Z,FULLY_SHARED_UNIT_1-2-1-2,2,target-1,cpu,65697
2022-03-30T19:21:32.548Z,FULLY_SHARED_UNIT_1-2-1-2,2,target-1,cpu,65697
2022-03-30T19:21:42.549Z,FULLY_SHARED_UNIT_1-2-1-2,2,target-1,cpu,28523
2022-03-30T19:21:52.549Z,FULLY_SHARED_UNIT_1-2-1-2,2,target-1,cpu,28523
2022-03-30T19:22:02.549Z,FULLY_SHARED_UNIT_1-2-1-2,2,target-1,cpu,28523
2022-03-30T19:22:12.549Z,FULLY_SHARED_UNIT_1-2-1-2,2,target-1,cpu,38535
2022-03-30T19:22:22.549Z,FULLY_SHARED_UNIT_1-2-1-2,2,target-1,cpu,42211
2022-03-30T19:22:32.549Z,FULLY_SHARED_UNIT_1-2-1-2,2,target-1,cpu,42211
2022-03-30T19:22:42.549Z,FULLY_SHARED_UNIT_1-2-1-2,2,target-1,cpu,43892
2022-03-30T19:22:52.548Z,FULLY_SHARED_UNIT_1-2-1-2,2,target-1,cpu,43892
2022-03-30T19:23:02.548Z,FULLY_SHARED_UNIT_1-2-1-2,2,target-1,cpu,43892
2022-03-30T19:23:12.548Z,FULLY_SHARED_UNIT_1-2-1-2,2,target-1,cpu,36177
2022-03-30T19:23:22.549Z,FULLY_SHARED_UNIT_1-2-1-2,2,target-1,cpu,43608
2022-03-30T19:23:32.548Z,FULLY_SHARED_UNIT_1-2-1-2,2,target-1,cpu,43608
2022-03-30T19:23:42.548Z,FULLY_SHARED_UNIT_1-2-1-2,2,target-1,cpu,58589
2022-03-30T19:23:52.549Z,FULLY_SHARED_UNIT_1-2-1-2,2,target-1,cpu,31995
2022-03-30T19:24:02.548Z,FULLY_SHARED_UNIT_1-2-1-2,2,target-1,cpu,31995
2022-03-30T19:24:12.548Z,FULLY_SHARED_UNIT_1-2-1-2,2,target-1,cpu,51738
2022-03-30T19:24:22.549Z,FULLY_SHARED_UNIT_1-2-1-2,2,target-1,cpu,51738
2022-03-30T19:24:32.548Z,FULLY_SHARED_UNIT_1-2-1-2,2,target-1,cpu,51738
2022-03-30T19:24:42.548Z,FULLY_SHARED_UNIT_1-2-1-2,2,target-1,cpu,54703
2022-03-30T19:24:52.548Z,FULLY_SHARED_UNIT_1-2-1-2,2,target-1,cpu,54703
2022-03-30T19:25:02.549Z,FULLY_SHARED_UNIT_1-2-1-2,2,target-1,cpu,40371
2022-03-30T19:25:12.549Z,FULLY_SHARED_UNIT_1-2-1-2,2,target-1,cpu,40407
2022-03-30T19:25:22.549Z,FULLY_SHARED_UNIT_1-2-1-2,2,target-1,cpu,40407
2022-03-30T19:25:32.548Z,FULLY_SHARED_UNIT_1-2-1-2,2,target-1,cpu,23516
2022-03-30T19:25:42.549Z,FULLY_SHARED_UNIT_1-2-1-2,2,target-1,cpu,58325
2022-03-30T19:25:52.548Z,FULLY_SHARED_UNIT_1-2-1-2,2,target-1,cpu,58325
2022-03-30T19:26:02.548Z,FULLY_SHARED_UNIT_1-2-1-2,2,target-1,cpu,38551
2022-03-30T19:26:12.549Z,FULLY_SHARED_UNIT_1-2-1-2,2,target-1,cpu,36839
2022-03-30T19:26:22.549Z,FULLY_SHARED_UNIT_1-2-1-2,2,target-1,cpu,36839
2022-03-30T19:26:32.549Z,FULLY_SHARED_UNIT_1-2-1-2,2,target-1,cpu,31884
2022-03-30T19:26:42.549Z,FULLY_SHARED_UNIT_1-2-1-2,2,target-1,cpu,31884
2022-03-30T19:26:52.548Z,FULLY_SHARED_UNIT_1-2-1-2,2,target-1,cpu,31884
2022-03-30T19:27:02.548Z,FULLY_SHARED_UNIT_1-2-1-2,2,target-1,cpu,28661
2022-03-30T19:27:12.549Z,FULLY_SHARED_UNIT_1-2-1-2,2,target-1,cpu,28661
2022-03-30T19:27:22.549Z,FULLY_SHARED_UNIT_1-2-1-2,2,target-1,cpu,48903
2022-03-30T19:27:32.549Z,FULLY_SHARED_UNIT_1-2-1-2,2,target-1,cpu,48903
2022-03-30T19:27:42.548Z,FULLY_SHARED_UNIT_1-2-1-2,2,target-1,cpu,39026
2022-03-30T19:27:52.549Z,FULLY_SHARED_UNIT_1-2-1-2,2,target-1,cpu,41723
2022-03-30T19:28:02.549Z,FULLY_SHARED_UNIT_1-2-1-2,2,target-1,cpu,41723
2022-03-30T19:28:12.548Z,FULLY_SHARED_UNIT_1-2-1-2,2,target-1,cpu,41723
2022-03-30T19:28:22.549Z,FULLY_SHARED_UNIT_1-2-1-2,2,target-1,cpu,25570
2022-03-30T19:28:32.549Z,FULLY_SHARED_UNIT_1-2-1-2,2,target-1,cpu,25570
2022-03-30T19:28:42.548Z,FULLY_SHARED_UNIT_1-2-1-2,2,target-1,cpu,56751
2022-03-30T19:28:52.549Z,FULLY_SHARED_UNIT_1-2-1-2,2,target-1,cpu,28960
2022-03-30T19:29:02.548Z,FULLY_SHARED_UNIT_1-2-1-2,2,target-1,cpu,28960
2022-03-30T19:29:12.549Z,FULLY_SHARED_UNIT_1-2-1-2,2,target-1,cpu,48819
2022-03-30T19:29:22.548Z,FULLY_SHARED_UNIT_1-2-1-2,2,target-1,cpu,48819
2022-03-30T19:29:32.549Z,FULLY_SHARED_UNIT_1-2-1-2,2,target-1,cpu,28747
2022-03-30T19:29:42.549Z,FULLY_SHARED_UNIT_1-2-1-2,2,target-1,cpu,28747
2022-03-30T19:29:52.548Z,FULLY_SHARED_UNIT_1-2-1-2,2,target-1,cpu,55877
2022-03-30T19:30:02.548Z,FULLY_SHARED_UNIT_1-2-1-2,2,target-1,cpu,50335
2022-03-30T19:30:12.548Z,FULLY_SHARED_UNIT_1-2-1-2,2,target-1,cpu,50335
2022-03-30T19:30:22.548Z,FULLY_SHARED_UNIT_1-2-1-2,2,target-1,cpu,35864
2022-03-30T19:30:32.548Z,FULLY_SHARED_UNIT_1-2-1-2,2,target-1,cpu,35864
2022-03-30T19:30:42.549Z,FULLY_SHARED_UNIT_1-2-1-2,2,target-1,cpu,54671
2022-03-30T19:30:52.548Z,FULLY_SHARED_UNIT_1-2-1-2,2,target-1,cpu,54671
2022-03-30T19:31:02.548Z,FULLY_SHARED_UNIT_1-2-1-2,2,target-1,cpu,26294
2022-03-30T19:31:22.573Z,FULLY_SHARED_UNIT_1-2-1-2,3,target-1,cpu,79406
2022-03-30T19:31:32.573Z,FULLY_SHARED_UNIT_1-2-1-2,3,target-1,cpu,79406
2022-03-30T19:31:42.572Z,FULLY_SHARED_UNIT_1-2-1-2,3,target-1,cpu,79406
2022-03-30T19:31:52.573Z,FULLY_SHARED_UNIT_1-2-1-2,3,target-1,cpu,33458
2022-03-30T19:32:02.573Z,FULLY_SHARED_UNIT_1-2-1-2,3,target-1,cpu,33458
2022-03-30T19:32:12.573Z,FULLY_SHARED_UNIT_1-2-1-2,3,target-1,cpu,54277
2022-03-30T19:32:22.573Z,FULLY_SHARED_UNIT_1-2-1-2,3,target-1,cpu,54277
2022-03-30T19:32:32.573Z,FULLY_SHARED_UNIT_1-2-1-2,3,target-1,cpu,50582
2022-03-30T19:32:42.573Z,FULLY_SHARED_UNIT_1-2-1-2,3,target-1,cpu,50582
2022-03-30T19:32:52.573Z,FULLY_SHARED_UNIT_1-2-1-2,3,target-1,cpu,50582
2022-03-30T19:33:02.573Z,FULLY_SHARED_UNIT_1-2-1-2,3,target-1,cpu,42972
2022-03-30T19:33:12.573Z,FULLY_SHARED_UNIT_1-2-1-2,3,target-1,cpu,42972
2022-03-30T19:33:22.573Z,FULLY_SHARED_UNIT_1-2-1-2,3,target-1,cpu,27483
2022-03-30T19:33:32.573Z,FULLY_SHARED_UNIT_1-2-1-2,3,target-1,cpu,53363
2022-03-30T19:33:42.573Z,FULLY_SHARED_UNIT_1-2-1-2,3,target-1,cpu,30496
2022-03-30T19:33:52.573Z,FULLY_SHARED_UNIT_1-2-1-2,3,target-1,cpu,30496
2022-03-30T19:34:02.572Z,FULLY_SHARED_UNIT_1-2-1-2,3,target-1,cpu,40502
2022-03-30T19:34:12.573Z,FULLY_SHARED_UNIT_1-2-1-2,3,target-1,cpu,45072
2022-03-30T19:34:22.573Z,FULLY_SHARED_UNIT_1-2-1-2,3,target-1,cpu,45072
2022-03-30T19:34:32.573Z,FULLY_SHARED_UNIT_1-2-1-2,3,target-1,cpu,36204
2022-03-30T19:34:42.573Z,FULLY_SHARED_UNIT_1-2-1-2,3,target-1,cpu,36204
2022-03-30T19:34:52.573Z,FULLY_SHARED_UNIT_1-2-1-2,3,target-1,cpu,45544
2022-03-30T19:35:02.573Z,FULLY_SHARED_UNIT_1-2-1-2,3,target-1,cpu,45544
2022-03-30T19:35:12.573Z,FULLY_SHARED_UNIT_1-2-1-2,3,target-1,cpu,55768
2022-03-30T19:35:22.572Z,FULLY_SHARED_UNIT_1-2-1-2,3,target-1,cpu,55768
2022-03-30T19:35:32.573Z,FULLY_SHARED_UNIT_1-2-1-2,3,target-1,cpu,50791
2022-03-30T19:35:42.573Z,FULLY_SHARED_UNIT_1-2-1-2,3,target-1,cpu,29166
2022-03-30T19:35:52.574Z,FULLY_SHARED_UNIT_1-2-1-2,3,target-1,cpu,29166
2022-03-30T19:36:02.572Z,FULLY_SHARED_UNIT_1-2-1-2,3,target-1,cpu,29166
2022-03-30T19:36:12.573Z,FULLY_SHARED_UNIT_1-2-1-2,3,target-1,cpu,22786
2022-03-30T19:36:22.572Z,FULLY_SHARED_UNIT_1-2-1-2,3,target-1,cpu,22786
2022-03-30T19:36:32.573Z,FULLY_SHARED_UNIT_1-2-1-2,3,target-1,cpu,87995
2022-03-30T19:36:42.573Z,FULLY_SHARED_UNIT_1-2-1-2,3,target-1,cpu,87995
2022-03-30T19:36:52.573Z,FULLY_SHARED_UNIT_1-2-1-2,3,target-1,cpu,30505
2022-03-30T19:37:02.574Z,FULLY_SHARED_UNIT_1-2-1-2,3,target-1,cpu,53725
2022-03-30T19:37:12.573Z,FULLY_SHARED_UNIT_1-2-1-2,3,target-1,cpu,53725
2022-03-30T19:37:22.573Z,FULLY_SHARED_UNIT_1-2-1-2,3,target-1,cpu,52784
2022-03-30T19:37:32.573Z,FULLY_SHARED_UNIT_1-2-1-2,3,target-1,cpu,52784
2022-03-30T19:37:42.573Z,FULLY_SHARED_UNIT_1-2-1-2,3,target-1,cpu,25917
2022-03-30T19:37:52.574Z,FULLY_SHARED_UNIT_1-2-1-2,3,target-1,cpu,49897
2022-03-30T19:38:02.573Z,FULLY_SHARED_UNIT_1-2-1-2,3,target-1,cpu,49897
2022-03-30T19:38:12.572Z,FULLY_SHARED_UNIT_1-2-1-2,3,target-1,cpu,33449
2022-03-30T19:38:22.573Z,FULLY_SHARED_UNIT_1-2-1-2,3,target-1,cpu,60178
2022-03-30T19:38:32.573Z,FULLY_SHARED_UNIT_1-2-1-2,3,target-1,cpu,60178
2022-03-30T19:38:42.573Z,FULLY_SHARED_UNIT_1-2-1-2,3,target-1,cpu,19014
2022-03-30T19:38:52.573Z,FULLY_SHARED_UNIT_1-2-1-2,3,target-1,cpu,19014
2022-03-30T19:39:02.573Z,FULLY_SHARED_UNIT_1-2-1-2,3,target-1,cpu,36426
2022-03-30T19:39:12.572Z,FULLY_SHARED_UNIT_1-2-1-2,3,target-1,cpu,36426
2022-03-30T19:39:22.573Z,FULLY_SHARED_UNIT_1-2-1-2,3,target-1,cpu,31112
2022-03-30T19:39:32.573Z,FULLY_SHARED_UNIT_1-2-1-2,3,target-1,cpu,39256
2022-03-30T19:39:42.573Z,FULLY_SHARED_UNIT_1-2-1-2,3,target-1,cpu,32189
2022-03-30T19:39:52.573Z,FULLY_SHARED_UNIT_1-2-1-2,3,target-1,cpu,32189
2022-03-30T19:40:02.573Z,FULLY_SHARED_UNIT_1-2-1-2,3,target-1,cpu,29779
2022-03-30T19:40:12.573Z,FULLY_SHARED_UNIT_1-2-1-2,3,target-1,cpu,29779
2022-03-30T19:40:22.573Z,FULLY_SHARED_UNIT_1-2-1-2,3,target-1,cpu,29779
2022-03-30T19:40:32.573Z,FULLY_SHARED_UNIT_1-2-1-2,3,target-1,cpu,46725
2022-03-30T19:40:42.573Z,FULLY_SHARED_UNIT_1-2-1-2,3,target-1,cpu,33554
2022-03-30T19:40:52.573Z,FULLY_SHARED_UNIT_1-2-1-2,3,target-1,cpu,47287
2022-03-30T19:41:02.573Z,FULLY_SHARED_UNIT_1-2-1-2,3,target-1,cpu,35542
2022-03-30T19:41:12.573Z,FULLY_SHARED_UNIT_1-2-1-2,3,target-1,cpu,35542
2022-03-31T02:53:31.353Z,FULLY_SHARED_UNIT_1-4-1-4,1,target-1,cpu,61332
2022-03-31T02:53:41.353Z,FULLY_SHARED_UNIT_1-4-1-4,1,target-1,cpu,61332
2022-03-31T02:53:51.352Z,FULLY_SHARED_UNIT_1-4-1-4,1,target-1,cpu,139025
2022-03-31T02:54:01.352Z,FULLY_SHARED_UNIT_1-4-1-4,1,target-1,cpu,86057
2022-03-31T02:54:11.353Z,FULLY_SHARED_UNIT_1-4-1-4,1,target-1,cpu,86057
2022-03-31T02:54:21.353Z,FULLY_SHARED_UNIT_1-4-1-4,1,target-1,cpu,86057
2022-03-31T02:54:31.353Z,FULLY_SHARED_UNIT_1-4-1-4,1,target-1,cpu,68779
2022-03-31T02:54:41.352Z,FULLY_SHARED_UNIT_1-4-1-4,1,target-1,cpu,68779
2022-03-31T02:54:51.352Z,FULLY_SHARED_UNIT_1-4-1-4,1,target-1,cpu,116372
2022-03-31T02:55:01.353Z,FULLY_SHARED_UNIT_1-4-1-4,1,target-1,cpu,116372
2022-03-31T02:55:11.353Z,FULLY_SHARED_UNIT_1-4-1-4,1,target-1,cpu,116372
2022-03-31T02:55:21.352Z,FULLY_SHARED_UNIT_1-4-1-4,1,target-1,cpu,84737
2022-03-31T02:55:31.352Z,FULLY_SHARED_UNIT_1-4-1-4,1,target-1,cpu,84737
2022-03-31T02:55:41.353Z,FULLY_SHARED_UNIT_1-4-1-4,1,target-1,cpu,105319
2022-03-31T02:55:51.352Z,FULLY_SHARED_UNIT_1-4-1-4,1,target-1,cpu,105319
2022-03-31T02:56:01.352Z,FULLY_SHARED_UNIT_1-4-1-4,1,target-1,cpu,58447
2022-03-31T02:56:11.352Z,FULLY_SHARED_UNIT_1-4-1-4,1,target-1,cpu,78498
2022-03-31T02:56:21.353Z,FULLY_SHARED_UNIT_1-4-1-4,1,target-1,cpu,71536
2022-03-31T02:56:31.353Z,FULLY_SHARED_UNIT_1-4-1-4,1,target-1,cpu,83387
2022-03-31T02:56:41.353Z,FULLY_SHARED_UNIT_1-4-1-4,1,target-1,cpu,83387
2022-03-31T02:56:51.353Z,FULLY_SHARED_UNIT_1-4-1-4,1,target-1,cpu,126593
2022-03-31T02:57:01.353Z,FULLY_SHARED_UNIT_1-4-1-4,1,target-1,cpu,126593
2022-03-31T02:57:11.353Z,FULLY_SHARED_UNIT_1-4-1-4,1,target-1,cpu,91811
2022-03-31T02:57:21.353Z,FULLY_SHARED_UNIT_1-4-1-4,1,target-1,cpu,91811
2022-03-31T02:57:31.353Z,FULLY_SHARED_UNIT_1-4-1-4,1,target-1,cpu,78190
2022-03-31T02:57:41.352Z,FULLY_SHARED_UNIT_1-4-1-4,1,target-1,cpu,78190
2022-03-31T02:57:51.353Z,FULLY_SHARED_UNIT_1-4-1-4,1,target-1,cpu,75804
2022-03-31T02:58:01.353Z,FULLY_SHARED_UNIT_1-4-1-4,1,target-1,cpu,75804
2022-03-31T02:58:11.353Z,FULLY_SHARED_UNIT_1-4-1-4,1,target-1,cpu,72977
2022-03-31T02:58:21.352Z,FULLY_SHARED_UNIT_1-4-1-4,1,target-1,cpu,72977
2022-03-31T02:58:31.353Z,FULLY_SHARED_UNIT_1-4-1-4,1,target-1,cpu,65447
2022-03-31T02:58:41.353Z,FULLY_SHARED_UNIT_1-4-1-4,1,target-1,cpu,65447
2022-03-31T02:58:51.353Z,FULLY_SHARED_UNIT_1-4-1-4,1,target-1,cpu,115212
2022-03-31T02:59:01.353Z,FULLY_SHARED_UNIT_1-4-1-4,1,target-1,cpu,115212
2022-03-31T02:59:11.352Z,FULLY_SHARED_UNIT_1-4-1-4,1,target-1,cpu,92669
2022-03-31T02:59:21.352Z,FULLY_SHARED_UNIT_1-4-1-4,1,target-1,cpu,83681
2022-03-31T02:59:31.353Z,FULLY_SHARED_UNIT_1-4-1-4,1,target-1,cpu,58612
2022-03-31T02:59:41.353Z,FULLY_SHARED_UNIT_1-4-1-4,1,target-1,cpu,58612
2022-03-31T02:59:51.353Z,FULLY_SHARED_UNIT_1-4-1-4,1,target-1,cpu,107801
2022-03-31T03:00:01.353Z,FULLY_SHARED_UNIT_1-4-1-4,1,target-1,cpu,107801
2022-03-31T03:00:11.352Z,FULLY_SHARED_UNIT_1-4-1-4,1,target-1,cpu,57508
2022-03-31T03:00:21.353Z,FULLY_SHARED_UNIT_1-4-1-4,1,target-1,cpu,82546
2022-03-31T03:00:31.353Z,FULLY_SHARED_UNIT_1-4-1-4,1,target-1,cpu,82546
2022-03-31T03:00:41.353Z,FULLY_SHARED_UNIT_1-4-1-4,1,target-1,cpu,82951
2022-03-31T03:00:51.353Z,FULLY_SHARED_UNIT_1-4-1-4,1,target-1,cpu,89455
2022-03-31T03:01:01.353Z,FULLY_SHARED_UNIT_1-4-1-4,1,target-1,cpu,89455
2022-03-31T03:01:11.353Z,FULLY_SHARED_UNIT_1-4-1-4,1,target-1,cpu,63801
2022-03-31T03:01:21.353Z,FULLY_SHARED_UNIT_1-4-1-4,1,target-1,cpu,83045
2022-03-31T03:01:31.353Z,FULLY_SHARED_UNIT_1-4-1-4,1,target-1,cpu,77592
2022-03-31T03:01:41.353Z,FULLY_SHARED_UNIT_1-4-1-4,1,target-1,cpu,77592
2022-03-31T03:01:51.353Z,FULLY_SHARED_UNIT_1-4-1-4,1,target-1,cpu,107461
2022-03-31T03:02:01.353Z,FULLY_SHARED_UNIT_1-4-1-4,1,target-1,cpu,50121
2022-03-31T03:02:11.353Z,FULLY_SHARED_UNIT_1-4-1-4,1,target-1,cpu,50121
2022-03-31T03:02:21.353Z,FULLY_SHARED_UNIT_1-4-1-4,1,target-1,cpu,93286
2022-03-31T03:02:31.353Z,FULLY_SHARED_UNIT_1-4-1-4,1,target-1,cpu,93286
2022-03-31T03:02:41.353Z,FULLY_SHARED_UNIT_1-4-1-4,1,target-1,cpu,93286
2022-03-31T03:02:51.353Z,FULLY_SHARED_UNIT_1-4-1-4,1,target-1,cpu,95675
2022-03-31T03:03:01.353Z,FULLY_SHARED_UNIT_1-4-1-4,1,target-1,cpu,95675
2022-03-31T03:03:11.353Z,FULLY_SHARED_UNIT_1-4-1-4,1,target-1,cpu,98808
2022-03-31T03:03:21.353Z,FULLY_SHARED_UNIT_1-4-1-4,1,target-1,cpu,71425
2022-03-31T03:03:43.599Z,FULLY_SHARED_UNIT_1-4-1-4,2,target-1,cpu,111361
2022-03-31T03:03:53.598Z,FULLY_SHARED_UNIT_1-4-1-4,2,target-1,cpu,111361
2022-03-31T03:04:03.598Z,FULLY_SHARED_UNIT_1-4-1-4,2,target-1,cpu,129533
2022-03-31T03:04:13.599Z,FULLY_SHARED_UNIT_1-4-1-4,2,target-1,cpu,129533
2022-03-31T03:04:23.598Z,FULLY_SHARED_UNIT_1-4-1-4,2,target-1,cpu,129533
2022-03-31T03:04:33.599Z,FULLY_SHARED_UNIT_1-4-1-4,2,target-1,cpu,95708
2022-03-31T03:04:43.599Z,FULLY_SHARED_UNIT_1-4-1-4,2,target-1,cpu,66600
2022-03-31T03:04:53.599Z,FULLY_SHARED_UNIT_1-4-1-4,2,target-1,cpu,83562
2022-03-31T03:05:03.599Z,FULLY_SHARED_UNIT_1-4-1-4,2,target-1,cpu,83562
2022-03-31T03:05:13.599Z,FULLY_SHARED_UNIT_1-4-1-4,2,target-1,cpu,82172
2022-03-31T03:05:23.599Z,FULLY_SHARED_UNIT_1-4-1-4,2,target-1,cpu,78379
2022-03-31T03:05:33.599Z,FULLY_SHARED_UNIT_1-4-1-4,2,target-1,cpu,78379
2022-03-31T03:05:43.599Z,FULLY_SHARED_UNIT_1-4-1-4,2,target-1,cpu,70122
2022-03-31T03:05:53.599Z,FULLY_SHARED_UNIT_1-4-1-4,2,target-1,cpu,70122
2022-03-31T03:06:03.598Z,FULLY_SHARED_UNIT_1-4-1-4,2,target-1,cpu,81028
2022-03-31T03:06:13.598Z,FULLY_SHARED_UNIT_1-4-1-4,2,target-1,cpu,81028
2022-03-31T03:06:23.598Z,FULLY_SHARED_UNIT_1-4-1-4,2,target-1,cpu,68934
2022-03-31T03:06:33.599Z,FULLY_SHARED_UNIT_1-4-1-4,2,target-1,cpu,68934
2022-03-31T03:06:43.599Z,FULLY_SHARED_UNIT_1-4-1-4,2,target-1,cpu,68934
2022-03-31T03:06:53.599Z,FULLY_SHARED_UNIT_1-4-1-4,2,target-1,cpu,90195
2022-03-31T03:07:03.599Z,FULLY_SHARED_UNIT_1-4-1-4,2,target-1,cpu,69460
2022-03-31T03:07:13.599Z,FULLY_SHARED_UNIT_1-4-1-4,2,target-1,cpu,112066
2022-03-31T03:07:23.599Z,FULLY_SHARED_UNIT_1-4-1-4,2,target-1,cpu,112066
2022-03-31T03:07:33.599Z,FULLY_SHARED_UNIT_1-4-1-4,2,target-1,cpu,79678
2022-03-31T03:07:43.599Z,FULLY_SHARED_UNIT_1-4-1-4,2,target-1,cpu,82918
2022-03-31T03:07:53.599Z,FULLY_SHARED_UNIT_1-4-1-4,2,target-1,cpu,82918
2022-03-31T03:08:03.599Z,FULLY_SHARED_UNIT_1-4-1-4,2,target-1,cpu,82918
2022-03-31T03:08:13.599Z,FULLY_SHARED_UNIT_1-4-1-4,2,target-1,cpu,112060
2022-03-31T03:08:23.599Z,FULLY_SHARED_UNIT_1-4-1-4,2,target-1,cpu,123868
2022-03-31T03:08:33.599Z,FULLY_SHARED_UNIT_1-4-1-4,2,target-1,cpu,123868
2022-03-31T03:08:43.599Z,FULLY_SHARED_UNIT_1-4-1-4,2,target-1,cpu,49151
2022-03-31T03:08:53.599Z,FULLY_SHARED_UNIT_1-4-1-4,2,target-1,cpu,49151
2022-03-31T03:09:03.598Z,FULLY_SHARED_UNIT_1-4-1-4,2,target-1,cpu,114985
2022-03-31T03:09:13.599Z,FULLY_SHARED_UNIT_1-4-1-4,2,target-1,cpu,62154
2022-03-31T03:09:23.599Z,FULLY_SHARED_UNIT_1-4-1-4,2,target-1,cpu,62154
2022-03-31T03:09:33.599Z,FULLY_SHARED_UNIT_1-4-1-4,2,target-1,cpu,116295
2022-03-31T03:09:43.598Z,FULLY_SHARED_UNIT_1-4-1-4,2,target-1,cpu,116295
2022-03-31T03:09:53.599Z,FULLY_SHARED_UNIT_1-4-1-4,2,target-1,cpu,47447
2022-03-31T03:10:03.598Z,FULLY_SHARED_UNIT_1-4-1-4,2,target-1,cpu,47447
2022-03-31T03:10:13.599Z,FULLY_SHARED_UNIT_1-4-1-4,2,target-1,cpu,58347
2022-03-31T03:10:23.599Z,FULLY_SHARED_UNIT_1-4-1-4,2,target-1,cpu,58347
2022-03-31T03:10:33.599Z,FULLY_SHARED_UNIT_1-4-1-4,2,target-1,cpu,58347
2022-03-31T03:10:43.599Z,FULLY_SHARED_UNIT_1-4-1-4,2,target-1,cpu,74766
2022-03-31T03:10:53.599Z,FULLY_SHARED_UNIT_1-4-1-4,2,target-1,cpu,74766
2022-03-31T03:11:03.599Z,FULLY_SHARED_UNIT_1-4-1-4,2,target-1,cpu,74766
2022-03-31T03:11:13.598Z,FULLY_SHARED_UNIT_1-4-1-4,2,target-1,cpu,99993
2022-03-31T03:11:23.599Z,FULLY_SHARED_UNIT_1-4-1-4,2,target-1,cpu,88558
2022-03-31T03:11:33.598Z,FULLY_SHARED_UNIT_1-4-1-4,2,target-1,cpu,88558
2022-03-31T03:11:43.598Z,FULLY_SHARED_UNIT_1-4-1-4,2,target-1,cpu,69218
2022-03-31T03:11:53.599Z,FULLY_SHARED_UNIT_1-4-1-4,2,target-1,cpu,83187
2022-03-31T03:12:03.599Z,FULLY_SHARED_UNIT_1-4-1-4,2,target-1,cpu,80545
2022-03-31T03:12:13.599Z,FULLY_SHARED_UNIT_1-4-1-4,2,target-1,cpu,80545
2022-03-31T03:12:23.599Z,FULLY_SHARED_UNIT_1-4-1-4,2,target-1,cpu,80545
2022-03-31T03:12:33.599Z,FULLY_SHARED_UNIT_1-4-1-4,2,target-1,cpu,74091
2022-03-31T03:12:43.598Z,FULLY_SHARED_UNIT_1-4-1-4,2,target-1,cpu,74091
2022-03-31T03:12:53.599Z,FULLY_SHARED_UNIT_1-4-1-4,2,target-1,cpu,70184
2022-03-31T03:13:03.599Z,FULLY_SHARED_UNIT_1-4-1-4,2,target-1,cpu,70184
2022-03-31T03:13:13.598Z,FULLY_SHARED_UNIT_1-4-1-4,2,target-1,cpu,83259
2022-03-31T03:13:23.599Z,FULLY_SHARED_UNIT_1-4-1-4,2,target-1,cpu,110754
2022-03-31T03:13:33.599Z,FULLY_SHARED_UNIT_1-4-1-4,2,target-1,cpu,110754
2022-03-31T03:13:56.320Z,FULLY_SHARED_UNIT_1-4-1-4,3,target-1,cpu,114115
2022-03-31T03:14:06.320Z,FULLY_SHARED_UNIT_1-4-1-4,3,target-1,cpu,114115
2022-03-31T03:14:16.320Z,FULLY_SHARED_UNIT_1-4-1-4,3,target-1,cpu,92512
2022-03-31T03:14:26.320Z,FULLY_SHARED_UNIT_1-4-1-4,3,target-1,cpu,95259
2022-03-31T03:14:36.320Z,FULLY_SHARED_UNIT_1-4-1-4,3,target-1,cpu,95259
2022-03-31T03:14:46.320Z,FULLY_SHARED_UNIT_1-4-1-4,3,target-1,cpu,86909
2022-03-31T03:14:56.320Z,FULLY_SHARED_UNIT_1-4-1-4,3,target-1,cpu,81356
2022-03-31T03:15:06.320Z,FULLY_SHARED_UNIT_1-4-1-4,3,target-1,cpu,81356
2022-03-31T03:15:16.320Z,FULLY_SHARED_UNIT_1-4-1-4,3,target-1,cpu,81356
2022-03-31T03:15:26.321Z,FULLY_SHARED_UNIT_1-4-1-4,3,target-1,cpu,86976
2022-03-31T03:15:36.320Z,FULLY_SHARED_UNIT_1-4-1-4,3,target-1,cpu,86976
2022-03-31T03:15:46.321Z,FULLY_SHARED_UNIT_1-4-1-4,3,target-1,cpu,88912
2022-03-31T03:15:56.320Z,FULLY_SHARED_UNIT_1-4-1-4,3,target-1,cpu,88912
2022-03-31T03:16:06.320Z,FULLY_SHARED_UNIT_1-4-1-4,3,target-1,cpu,77847
2022-03-31T03:16:16.321Z,FULLY_SHARED_UNIT_1-4-1-4,3,target-1,cpu,57059
2022-03-31T03:16:26.320Z,FULLY_SHARED_UNIT_1-4-1-4,3,target-1,cpu,57059
2022-03-31T03:16:36.320Z,FULLY_SHARED_UNIT_1-4-1-4,3,target-1,cpu,60965
2022-03-31T03:16:46.320Z,FULLY_SHARED_UNIT_1-4-1-4,3,target-1,cpu,60965
2022-03-31T03:16:56.320Z,FULLY_SHARED_UNIT_1-4-1-4,3,target-1,cpu,70140
2022-03-31T03:17:06.320Z,FULLY_SHARED_UNIT_1-4-1-4,3,target-1,cpu,70140
2022-03-31T03:17:16.320Z,FULLY_SHARED_UNIT_1-4-1-4,3,target-1,cpu,133538
2022-03-31T03:17:26.321Z,FULLY_SHARED_UNIT_1-4-1-4,3,target-1,cpu,68641
2022-03-31T03:17:36.320Z,FULLY_SHARED_UNIT_1-4-1-4,3,target-1,cpu,68641
2022-03-31T03:17:46.321Z,FULLY_SHARED_UNIT_1-4-1-4,3,target-1,cpu,80801
2022-03-31T03:17:56.320Z,FULLY_SHARED_UNIT_1-4-1-4,3,target-1,cpu,80801
2022-03-31T03:18:06.320Z,FULLY_SHARED_UNIT_1-4-1-4,3,target-1,cpu,104886
2022-03-31T03:18:16.320Z,FULLY_SHARED_UNIT_1-4-1-4,3,target-1,cpu,80102
2022-03-31T03:18:26.320Z,FULLY_SHARED_UNIT_1-4-1-4,3,target-1,cpu,80102
2022-03-31T03:18:36.320Z,FULLY_SHARED_UNIT_1-4-1-4,3,target-1,cpu,88479
2022-03-31T03:18:46.320Z,FULLY_SHARED_UNIT_1-4-1-4,3,target-1,cpu,101673
2022-03-31T03:18:56.320Z,FULLY_SHARED_UNIT_1-4-1-4,3,target-1,cpu,94983
2022-03-31T03:19:06.321Z,FULLY_SHARED_UNIT_1-4-1-4,3,target-1,cpu,94983
2022-03-31T03:19:16.320Z,FULLY_SHARED_UNIT_1-4-1-4,3,target-1,cpu,94983
2022-03-31T03:19:26.321Z,FULLY_SHARED_UNIT_1-4-1-4,3,target-1,cpu,121044
2022-03-31T03:19:36.320Z,FULLY_SHARED_UNIT_1-4-1-4,3,target-1,cpu,121044
2022-03-31T03:19:46.320Z,FULLY_SHARED_UNIT_1-4-1-4,3,target-1,cpu,56729
2022-03-31T03:19:56.320Z,FULLY_SHARED_UNIT_1-4-1-4,3,target-1,cpu,96930
2022-03-31T03:20:06.320Z,FULLY_SHARED_UNIT_1-4-1-4,3,target-1,cpu,96930
2022-03-31T03:20:16.320Z,FULLY_SHARED_UNIT_1-4-1-4,3,target-1,cpu,96930
2022-03-31T03:20:26.320Z,FULLY_SHARED_UNIT_1-4-1-4,3,target-1,cpu,97506
2022-03-31T03:20:36.320Z,FULLY_SHARED_UNIT_1-4-1-4,3,target-1,cpu,97506
2022-03-31T03:20:46.321Z,FULLY_SHARED_UNIT_1-4-1-4,3,target-1,cpu,74537
2022-03-31T03:20:56.320Z,FULLY_SHARED_UNIT_1-4-1-4,3,target-1,cpu,74537
2022-03-31T03:21:06.320Z,FULLY_SHARED_UNIT_1-4-1-4,3,target-1,cpu,61607
2022-03-31T03:21:16.320Z,FULLY_SHARED_UNIT_1-4-1-4,3,target-1,cpu,61607
2022-03-31T03:21:26.321Z,FULLY_SHARED_UNIT_1-4-1-4,3,target-1,cpu,89234
2022-03-31T03:21:36.321Z,FULLY_SHARED_UNIT_1-4-1-4,3,target-1,cpu,75709
2022-03-31T03:21:46.320Z,FULLY_SHARED_UNIT_1-4-1-4,3,target-1,cpu,75709
2022-03-31T03:21:56.320Z,FULLY_SHARED_UNIT_1-4-1-4,3,target-1,cpu,148946
2022-03-31T03:22:06.320Z,FULLY_SHARED_UNIT_1-4-1-4,3,target-1,cpu,148946
2022-03-31T03:22:16.321Z,FULLY_SHARED_UNIT_1-4-1-4,3,target-1,cpu,87157
2022-03-31T03:22:26.320Z,FULLY_SHARED_UNIT_1-4-1-4,3,target-1,cpu,87157
2022-03-31T03:22:36.321Z,FULLY_SHARED_UNIT_1-4-1-4,3,target-1,cpu,102556
2022-03-31T03:22:46.320Z,FULLY_SHARED_UNIT_1-4-1-4,3,target-1,cpu,102556
2022-03-31T03:22:56.320Z,FULLY_SHARED_UNIT_1-4-1-4,3,target-1,cpu,101607
2022-03-31T03:23:06.320Z,FULLY_SHARED_UNIT_1-4-1-4,3,target-1,cpu,101607
2022-03-31T03:23:16.321Z,FULLY_SHARED_UNIT_1-4-1-4,3,target-1,cpu,84962
2022-03-31T03:23:26.320Z,FULLY_SHARED_UNIT_1-4-1-4,3,target-1,cpu,84962
2022-03-31T03:23:36.320Z,FULLY_SHARED_UNIT_1-4-1-4,3,target-1,cpu,92549
2022-03-31T03:23:46.321Z,FULLY_SHARED_UNIT_1-4-1-4,3,target-1,cpu,69834
2022-03-31T03:24:08.927Z,FULLY_SHARED_UNIT_1-8-1-8,1,target-1,cpu,94347
2022-03-31T03:24:18.927Z,FULLY_SHARED_UNIT_1-8-1-8,1,target-1,cpu,127676
2022-03-31T03:24:28.927Z,FULLY_SHARED_UNIT_1-8-1-8,1,target-1,cpu,127676
2022-03-31T03:24:38.928Z,FULLY_SHARED_UNIT_1-8-1-8,1,target-1,cpu,162938
2022-03-31T03:24:48.927Z,FULLY_SHARED_UNIT_1-8-1-8,1,target-1,cpu,162938
2022-03-31T03:24:58.928Z,FULLY_SHARED_UNIT_1-8-1-8,1,target-1,cpu,167448
2022-03-31T03:25:08.927Z,FULLY_SHARED_UNIT_1-8-1-8,1,target-1,cpu,167448
2022-03-31T03:25:18.927Z,FULLY_SHARED_UNIT_1-8-1-8,1,target-1,cpu,172971
2022-03-31T03:25:28.927Z,FULLY_SHARED_UNIT_1-8-1-8,1,target-1,cpu,148676
2022-03-31T03:25:38.928Z,FULLY_SHARED_UNIT_1-8-1-8,1,target-1,cpu,186620
2022-03-31T03:25:48.927Z,FULLY_SHARED_UNIT_1-8-1-8,1,target-1,cpu,186620
2022-03-31T03:25:58.927Z,FULLY_SHARED_UNIT_1-8-1-8,1,target-1,cpu,171757
2022-03-31T03:26:08.927Z,FULLY_SHARED_UNIT_1-8-1-8,1,target-1,cpu,171757
2022-03-31T03:26:18.928Z,FULLY_SHARED_UNIT_1-8-1-8,1,target-1,cpu,159409
2022-03-31T03:26:28.927Z,FULLY_SHARED_UNIT_1-8-1-8,1,target-1,cpu,159409
2022-03-31T03:26:38.928Z,FULLY_SHARED_UNIT_1-8-1-8,1,target-1,cpu,155713
2022-03-31T03:26:48.927Z,FULLY_SHARED_UNIT_1-8-1-8,1,target-1,cpu,155713
2022-03-31T03:26:58.928Z,FULLY_SHARED_UNIT_1-8-1-8,1,target-1,cpu,139707
2022-03-31T03:27:08.927Z,FULLY_SHARED_UNIT_1-8-1-8,1,target-1,cpu,139707
2022-03-31T03:27:18.928Z,FULLY_SHARED_UNIT_1-8-1-8,1,target-1,cpu,158309
2022-03-31T03:27:28.928Z,FULLY_SHARED_UNIT_1-8-1-8,1,target-1,cpu,158309
2022-03-31T03:27:38.928Z,FULLY_SHARED_UNIT_1-8-1-8,1,target-1,cpu,168001
2022-03-31T03:27:48.927Z,FULLY_SHARED_UNIT_1-8-1-8,1,target-1,cpu,168001
2022-03-31T03:27:58.927Z,FULLY_SHARED_UNIT_1-8-1-8,1,target-1,cpu,167290
2022-03-31T03:28:08.927Z,FULLY_SHARED_UNIT_1-8-1-8,1,target-1,cpu,141639
2022-03-31T03:28:18.928Z,FULLY_SHARED_UNIT_1-8-1-8,1,target-1,cpu,141639
2022-03-31T03:28:28.927Z,FULLY_SHARED_UNIT_1-8-1-8,1,target-1,cpu,141639
2022-03-31T03:28:38.928Z,FULLY_SHARED_UNIT_1-8-1-8,1,target-1,cpu,167477
2022-03-31T03:28:48.927Z,FULLY_SHARED_UNIT_1-8-1-8,1,target-1,cpu,167477
2022-03-31T03:28:58.927Z,FULLY_SHARED_UNIT_1-8-1-8,1,target-1,cpu,165726
2022-03-31T03:29:08.927Z,FULLY_SHARED_UNIT_1-8-1-8,1,target-1,cpu,192479
2022-03-31T03:29:18.927Z,FULLY_SHARED_UNIT_1-8-1-8,1,target-1,cpu,192479
2022-03-31T03:29:28.927Z,FULLY_SHARED_UNIT_1-8-1-8,1,target-1,cpu,146089
2022-03-31T03:29:38.927Z,FULLY_SHARED_UNIT_1-8-1-8,1,target-1,cpu,179664
2022-03-31T03:29:48.928Z,FULLY_SHARED_UNIT_1-8-1-8,1,target-1,cpu,179664
2022-03-31T03:29:58.927Z,FULLY_SHARED_UNIT_1-8-1-8,1,target-1,cpu,179664
2022-03-31T03:30:08.927Z,FULLY_SHARED_UNIT_1-8-1-8,1,target-1,cpu,179667
2022-03-31T03:30:18.927Z,FULLY_SHARED_UNIT_1-8-1-8,1,target-1,cpu,179667
2022-03-31T03:30:28.928Z,FULLY_SHARED_UNIT_1-8-1-8,1,target-1,cpu,147188
2022-03-31T03:30:38.927Z,FULLY_SHARED_UNIT_1-8-1-8,1,target-1,cpu,147188
2022-03-31T03:30:48.927Z,FULLY_SHARED_UNIT_1-8-1-8,1,target-1,cpu,133253
2022-03-31T03:30:58.927Z,FULLY_SHARED_UNIT_1-8-1-8,1,target-1,cpu,179059
2022-03-31T03:31:08.927Z,FULLY_SHARED_UNIT_1-8-1-8,1,target-1,cpu,179059
2022-03-31T03:31:18.927Z,FULLY_SHARED_UNIT_1-8-1-8,1,target-1,cpu,142918
2022-03-31T03:31:28.928Z,FULLY_SHARED_UNIT_1-8-1-8,1,target-1,cpu,165422
2022-03-31T03:31:38.927Z,FULLY_SHARED_UNIT_1-8-1-8,1,target-1,cpu,165422
2022-03-31T03:31:48.927Z,FULLY_SHARED_UNIT_1-8-1-8,1,target-1,cpu,191153
2022-03-31T03:31:58.927Z,FULLY_SHARED_UNIT_1-8-1-8,1,target-1,cpu,191153
2022-03-31T03:32:08.927Z,FULLY_SHARED_UNIT_1-8-1-8,1,target-1,cpu,191153
2022-03-31T03:32:18.928Z,FULLY_SHARED_UNIT_1-8-1-8,1,target-1,cpu,163125
2022-03-31T03:32:28.927Z,FULLY_SHARED_UNIT_1-8-1-8,1,target-1,cpu,163125
2022-03-31T03:32:38.927Z,FULLY_SHARED_UNIT_1-8-1-8,1,target-1,cpu,183607
2022-03-31T03:32:48.927Z,FULLY_SHARED_UNIT_1-8-1-8,1,target-1,cpu,183607
2022-03-31T03:32:58.928Z,FULLY_SHARED_UNIT_1-8-1-8,1,target-1,cpu,169678
2022-03-31T03:33:08.928Z,FULLY_SHARED_UNIT_1-8-1-8,1,target-1,cpu,186062
2022-03-31T03:33:18.928Z,FULLY_SHARED_UNIT_1-8-1-8,1,target-1,cpu,186062
2022-03-31T03:33:28.927Z,FULLY_SHARED_UNIT_1-8-1-8,1,target-1,cpu,154976
2022-03-31T03:33:38.927Z,FULLY_SHARED_UNIT_1-8-1-8,1,target-1,cpu,154976
2022-03-31T03:33:48.927Z,FULLY_SHARED_UNIT_1-8-1-8,1,target-1,cpu,183249
2022-03-31T03:33:58.927Z,FULLY_SHARED_UNIT_1-8-1-8,1,target-1,cpu,150316
2022-03-31T03:34:28.457Z,FULLY_SHARED_UNIT_1-8-1-8,2,target-1,cpu,144256
2022-03-31T03:34:38.457Z,FULLY_SHARED_UNIT_1-8-1-8,2,target-1,cpu,135769
2022-03-31T03:34:48.457Z,FULLY_SHARED_UNIT_1-8-1-8,2,target-1,cpu,135769
2022-03-31T03:34:58.457Z,FULLY_SHARED_UNIT_1-8-1-8,2,target-1,cpu,167233
2022-03-31T03:35:08.457Z,FULLY_SHARED_UNIT_1-8-1-8,2,target-1,cpu,167233
2022-03-31T03:35:18.457Z,FULLY_SHARED_UNIT_1-8-1-8,2,target-1,cpu,189021
2022-03-31T03:35:28.457Z,FULLY_SHARED_UNIT_1-8-1-8,2,target-1,cpu,189021
2022-03-31T03:35:38.458Z,FULLY_SHARED_UNIT_1-8-1-8,2,target-1,cpu,195278
2022-03-31T03:35:48.457Z,FULLY_SHARED_UNIT_1-8-1-8,2,target-1,cpu,195278
2022-03-31T03:35:58.457Z,FULLY_SHARED_UNIT_1-8-1-8,2,target-1,cpu,161186
2022-03-31T03:36:08.457Z,FULLY_SHARED_UNIT_1-8-1-8,2,target-1,cpu,161186
2022-03-31T03:36:18.457Z,FULLY_SHARED_UNIT_1-8-1-8,2,target-1,cpu,155969
2022-03-31T03:36:28.457Z,FULLY_SHARED_UNIT_1-8-1-8,2,target-1,cpu,183128
2022-03-31T03:36:38.457Z,FULLY_SHARED_UNIT_1-8-1-8,2,target-1,cpu,183128
2022-03-31T03:36:48.458Z,FULLY_SHARED_UNIT_1-8-1-8,2,target-1,cpu,151854
2022-03-31T03:36:58.457Z,FULLY_SHARED_UNIT_1-8-1-8,2,target-1,cpu,151854
2022-03-31T03:37:08.458Z,FULLY_SHARED_UNIT_1-8-1-8,2,target-1,cpu,159857
2022-03-31T03:37:18.457Z,FULLY_SHARED_UNIT_1-8-1-8,2,target-1,cpu,159857
2022-03-31T03:37:28.457Z,FULLY_SHARED_UNIT_1-8-1-8,2,target-1,cpu,152324
2022-03-31T03:37:38.457Z,FULLY_SHARED_UNIT_1-8-1-8,2,target-1,cpu,152324
2022-03-31T03:37:48.457Z,FULLY_SHARED_UNIT_1-8-1-8,2,target-1,cpu,152324
2022-03-31T03:37:58.457Z,FULLY_SHARED_UNIT_1-8-1-8,2,target-1,cpu,175897
2022-03-31T03:38:08.457Z,FULLY_SHARED_UNIT_1-8-1-8,2,target-1,cpu,175897
2022-03-31T03:38:18.457Z,FULLY_SHARED_UNIT_1-8-1-8,2,target-1,cpu,158521
2022-03-31T03:38:28.457Z,FULLY_SHARED_UNIT_1-8-1-8,2,target-1,cpu,149390
2022-03-31T03:38:38.457Z,FULLY_SHARED_UNIT_1-8-1-8,2,target-1,cpu,159730
2022-03-31T03:38:48.458Z,FULLY_SHARED_UNIT_1-8-1-8,2,target-1,cpu,181757
2022-03-31T03:38:58.457Z,FULLY_SHARED_UNIT_1-8-1-8,2,target-1,cpu,181757
2022-03-31T03:39:08.457Z,FULLY_SHARED_UNIT_1-8-1-8,2,target-1,cpu,162926
2022-03-31T03:39:18.457Z,FULLY_SHARED_UNIT_1-8-1-8,2,target-1,cpu,162926
2022-03-31T03:39:28.457Z,FULLY_SHARED_UNIT_1-8-1-8,2,target-1,cpu,141328
2022-03-31T03:39:38.457Z,FULLY_SHARED_UNIT_1-8-1-8,2,target-1,cpu,141328
2022-03-31T03:39:48.457Z,FULLY_SHARED_UNIT_1-8-1-8,2,target-1,cpu,185092
2022-03-31T03:39:58.457Z,FULLY_SHARED_UNIT_1-8-1-8,2,target-1,cpu,152309
2022-03-31T03:40:08.457Z,FULLY_SHARED_UNIT_1-8-1-8,2,target-1,cpu,152309
2022-03-31T03:40:18.457Z,FULLY_SHARED_UNIT_1-8-1-8,2,target-1,cpu,129579
2022-03-31T03:40:28.458Z,FULLY_SHARED_UNIT_1-8-1-8,2,target-1,cpu,150812
2022-03-31T03:40:38.457Z,FULLY_SHARED_UNIT_1-8-1-8,2,target-1,cpu,150812
2022-03-31T03:40:48.457Z,FULLY_SHARED_UNIT_1-8-1-8,2,target-1,cpu,174090
2022-03-31T03:40:58.457Z,FULLY_SHARED_UNIT_1-8-1-8,2,target-1,cpu,174090
2022-03-31T03:41:08.457Z,FULLY_SHARED_UNIT_1-8-1-8,2,target-1,cpu,141055
2022-03-31T03:41:18.457Z,FULLY_SHARED_UNIT_1-8-1-8,2,target-1,cpu,137158
2022-03-31T03:41:28.457Z,FULLY_SHARED_UNIT_1-8-1-8,2,target-1,cpu,137158
2022-03-31T03:41:38.457Z,FULLY_SHARED_UNIT_1-8-1-8,2,target-1,cpu,139100
2022-03-31T03:41:48.457Z,FULLY_SHARED_UNIT_1-8-1-8,2,target-1,cpu,165900
2022-03-31T03:41:58.457Z,FULLY_SHARED_UNIT_1-8-1-8,2,target-1,cpu,165900
2022-03-31T03:42:08.457Z,FULLY_SHARED_UNIT_1-8-1-8,2,target-1,cpu,177666
2022-03-31T03:42:18.458Z,FULLY_SHARED_UNIT_1-8-1-8,2,target-1,cpu,158700
2022-03-31T03:42:28.458Z,FULLY_SHARED_UNIT_1-8-1-8,2,target-1,cpu,188577
2022-03-31T03:42:38.457Z,FULLY_SHARED_UNIT_1-8-1-8,2,target-1,cpu,188577
2022-03-31T03:42:48.457Z,FULLY_SHARED_UNIT_1-8-1-8,2,target-1,cpu,140484
2022-03-31T03:42:58.457Z,FULLY_SHARED_UNIT_1-8-1-8,2,target-1,cpu,180737
2022-03-31T03:43:08.457Z,FULLY_SHARED_UNIT_1-8-1-8,2,target-1,cpu,180737
2022-03-31T03:43:18.457Z,FULLY_SHARED_UNIT_1-8-1-8,2,target-1,cpu,146985
2022-03-31T03:43:28.457Z,FULLY_SHARED_UNIT_1-8-1-8,2,target-1,cpu,146985
2022-03-31T03:43:38.457Z,FULLY_SHARED_UNIT_1-8-1-8,2,target-1,cpu,173586
2022-03-31T03:43:48.457Z,FULLY_SHARED_UNIT_1-8-1-8,2,target-1,cpu,173586
2022-03-31T03:43:58.457Z,FULLY_SHARED_UNIT_1-8-1-8,2,target-1,cpu,168982
2022-03-31T03:44:08.458Z,FULLY_SHARED_UNIT_1-8-1-8,2,target-1,cpu,168982
2022-03-31T03:44:18.457Z,FULLY_SHARED_UNIT_1-8-1-8,2,target-1,cpu,168982
2022-03-31T03:44:48.574Z,FULLY_SHARED_UNIT_1-8-1-8,3,target-1,cpu,174063
2022-03-31T03:44:58.574Z,FULLY_SHARED_UNIT_1-8-1-8,3,target-1,cpu,174063
2022-03-31T03:45:08.574Z,FULLY_SHARED_UNIT_1-8-1-8,3,target-1,cpu,160724
2022-03-31T03:45:18.574Z,FULLY_SHARED_UNIT_1-8-1-8,3,target-1,cpu,160724
2022-03-31T03:45:28.573Z,FULLY_SHARED_UNIT_1-8-1-8,3,target-1,cpu,159081
2022-03-31T03:45:38.573Z,FULLY_SHARED_UNIT_1-8-1-8,3,target-1,cpu,159081
2022-03-31T03:45:48.574Z,FULLY_SHARED_UNIT_1-8-1-8,3,target-1,cpu,140557
2022-03-31T03:45:58.573Z,FULLY_SHARED_UNIT_1-8-1-8,3,target-1,cpu,140557
2022-03-31T03:46:08.574Z,FULLY_SHARED_UNIT_1-8-1-8,3,target-1,cpu,145701
2022-03-31T03:46:18.573Z,FULLY_SHARED_UNIT_1-8-1-8,3,target-1,cpu,145701
2022-03-31T03:46:28.574Z,FULLY_SHARED_UNIT_1-8-1-8,3,target-1,cpu,174500
2022-03-31T03:46:38.574Z,FULLY_SHARED_UNIT_1-8-1-8,3,target-1,cpu,174500
2022-03-31T03:46:48.573Z,FULLY_SHARED_UNIT_1-8-1-8,3,target-1,cpu,176402
2022-03-31T03:46:58.573Z,FULLY_SHARED_UNIT_1-8-1-8,3,target-1,cpu,176402
2022-03-31T03:47:08.573Z,FULLY_SHARED_UNIT_1-8-1-8,3,target-1,cpu,176402
2022-03-31T03:47:18.573Z,FULLY_SHARED_UNIT_1-8-1-8,3,target-1,cpu,174515
2022-03-31T03:47:28.574Z,FULLY_SHARED_UNIT_1-8-1-8,3,target-1,cpu,162573
2022-03-31T03:47:38.573Z,FULLY_SHARED_UNIT_1-8-1-8,3,target-1,cpu,162573
2022-03-31T03:47:48.574Z,FULLY_SHARED_UNIT_1-8-1-8,3,target-1,cpu,156214
2022-03-31T03:47:58.573Z,FULLY_SHARED_UNIT_1-8-1-8,3,target-1,cpu,156214
2022-03-31T03:48:08.574Z,FULLY_SHARED_UNIT_1-8-1-8,3,target-1,cpu,134841
2022-03-31T03:48:18.573Z,FULLY_SHARED_UNIT_1-8-1-8,3,target-1,cpu,134841
2022-03-31T03:48:28.573Z,FULLY_SHARED_UNIT_1-8-1-8,3,target-1,cpu,192416
2022-03-31T03:48:38.574Z,FULLY_SHARED_UNIT_1-8-1-8,3,target-1,cpu,192416
2022-03-31T03:48:48.573Z,FULLY_SHARED_UNIT_1-8-1-8,3,target-1,cpu,192416
2022-03-31T03:48:58.574Z,FULLY_SHARED_UNIT_1-8-1-8,3,target-1,cpu,179925
2022-03-31T03:49:08.574Z,FULLY_SHARED_UNIT_1-8-1-8,3,target-1,cpu,179925
2022-03-31T03:49:18.574Z,FULLY_SHARED_UNIT_1-8-1-8,3,target-1,cpu,285367
2022-03-31T03:49:28.574Z,FULLY_SHARED_UNIT_1-8-1-8,3,target-1,cpu,285367
2022-03-31T03:49:38.574Z,FULLY_SHARED_UNIT_1-8-1-8,3,target-1,cpu,285367
2022-03-31T03:49:48.574Z,FULLY_SHARED_UNIT_1-8-1-8,3,target-1,cpu,145727
2022-03-31T03:49:58.574Z,FULLY_SHARED_UNIT_1-8-1-8,3,target-1,cpu,145727
2022-03-31T03:50:08.574Z,FULLY_SHARED_UNIT_1-8-1-8,3,target-1,cpu,133423
2022-03-31T03:50:18.574Z,FULLY_SHARED_UNIT_1-8-1-8,3,target-1,cpu,133423
2022-03-31T03:50:28.574Z,FULLY_SHARED_UNIT_1-8-1-8,3,target-1,cpu,161958
2022-03-31T03:50:38.574Z,FULLY_SHARED_UNIT_1-8-1-8,3,target-1,cpu,134039
2022-03-31T03:50:48.573Z,FULLY_SHARED_UNIT_1-8-1-8,3,target-1,cpu,134039
2022-03-31T03:50:58.574Z,FULLY_SHARED_UNIT_1-8-1-8,3,target-1,cpu,149564
2022-03-31T03:51:08.573Z,FULLY_SHARED_UNIT_1-8-1-8,3,target-1,cpu,149564
2022-03-31T03:51:18.573Z,FULLY_SHARED_UNIT_1-8-1-8,3,target-1,cpu,179633
2022-03-31T03:51:28.574Z,FULLY_SHARED_UNIT_1-8-1-8,3,target-1,cpu,174203
2022-03-31T03:51:38.574Z,FULLY_SHARED_UNIT_1-8-1-8,3,target-1,cpu,174203
2022-03-31T03:51:48.574Z,FULLY_SHARED_UNIT_1-8-1-8,3,target-1,cpu,153752
2022-03-31T03:51:58.574Z,FULLY_SHARED_UNIT_1-8-1-8,3,target-1,cpu,170555
2022-03-31T03:52:08.574Z,FULLY_SHARED_UNIT_1-8-1-8,3,target-1,cpu,140314
2022-03-31T03:52:18.574Z,FULLY_SHARED_UNIT_1-8-1-8,3,target-1,cpu,140314
2022-03-31T03:52:28.573Z,FULLY_SHARED_UNIT_1-8-1-8,3,target-1,cpu,165124
2022-03-31T03:52:38.574Z,FULLY_SHARED_UNIT_1-8-1-8,3,target-1,cpu,170501
2022-03-31T03:52:48.574Z,FULLY_SHARED_UNIT_1-8-1-8,3,target-1,cpu,170501
2022-03-31T03:52:58.574Z,FULLY_SHARED_UNIT_1-8-1-8,3,target-1,cpu,153716
2022-03-31T03:53:08.573Z,FULLY_SHARED_UNIT_1-8-1-8,3,target-1,cpu,153716
2022-03-31T03:53:18.574Z,FULLY_SHARED_UNIT_1-8-1-8,3,target-1,cpu,146610
2022-03-31T03:53:28.573Z,FULLY_SHARED_UNIT_1-8-1-8,3,target-1,cpu,146610
2022-03-31T03:53:38.574Z,FULLY_SHARED_UNIT_1-8-1-8,3,target-1,cpu,227467
2022-03-31T03:53:48.574Z,FULLY_SHARED_UNIT_1-8-1-8,3,target-1,cpu,227467
2022-03-31T03:53:58.573Z,FULLY_SHARED_UNIT_1-8-1-8,3,target-1,cpu,156567
2022-03-31T03:54:08.574Z,FULLY_SHARED_UNIT_1-8-1-8,3,target-1,cpu,156567
2022-03-31T03:54:18.574Z,FULLY_SHARED_UNIT_1-8-1-8,3,target-1,cpu,137130
2022-03-31T03:54:28.573Z,FULLY_SHARED_UNIT_1-8-1-8,3,target-1,cpu,137130
2022-03-31T03:54:38.574Z,FULLY_SHARED_UNIT_1-8-1-8,3,target-1,cpu,185185
2022-03-31T03:55:19.408Z,FULLY_SHARED_UNIT_1-16-1-16,1,target-1,cpu,258151
2022-03-31T03:55:29.407Z,FULLY_SHARED_UNIT_1-16-1-16,1,target-1,cpu,258151
2022-03-31T03:55:39.407Z,FULLY_SHARED_UNIT_1-16-1-16,1,target-1,cpu,356264
2022-03-31T03:55:49.407Z,FULLY_SHARED_UNIT_1-16-1-16,1,target-1,cpu,356264
2022-03-31T03:55:59.407Z,FULLY_SHARED_UNIT_1-16-1-16,1,target-1,cpu,317478
2022-03-31T03:56:09.408Z,FULLY_SHARED_UNIT_1-16-1-16,1,target-1,cpu,317478
2022-03-31T03:56:19.407Z,FULLY_SHARED_UNIT_1-16-1-16,1,target-1,cpu,317478
2022-03-31T03:56:29.407Z,FULLY_SHARED_UNIT_1-16-1-16,1,target-1,cpu,328832
2022-03-31T03:56:39.408Z,FULLY_SHARED_UNIT_1-16-1-16,1,target-1,cpu,353170
2022-03-31T03:56:49.407Z,FULLY_SHARED_UNIT_1-16-1-16,1,target-1,cpu,353170
2022-03-31T03:56:59.408Z,FULLY_SHARED_UNIT_1-16-1-16,1,target-1,cpu,294395
2022-03-31T03:57:09.408Z,FULLY_SHARED_UNIT_1-16-1-16,1,target-1,cpu,359358
2022-03-31T03:57:19.407Z,FULLY_SHARED_UNIT_1-16-1-16,1,target-1,cpu,359358
2022-03-31T03:57:29.407Z,FULLY_SHARED_UNIT_1-16-1-16,1,target-1,cpu,302549
2022-03-31T03:57:39.407Z,FULLY_SHARED_UNIT_1-16-1-16,1,target-1,cpu,344443
2022-03-31T03:57:49.408Z,FULLY_SHARED_UNIT_1-16-1-16,1,target-1,cpu,290576
2022-03-31T03:57:59.408Z,FULLY_SHARED_UNIT_1-16-1-16,1,target-1,cpu,290576
2022-03-31T03:58:09.408Z,FULLY_SHARED_UNIT_1-16-1-16,1,target-1,cpu,303080
2022-03-31T03:58:19.408Z,FULLY_SHARED_UNIT_1-16-1-16,1,target-1,cpu,303080
2022-03-31T03:58:29.407Z,FULLY_SHARED_UNIT_1-16-1-16,1,target-1,cpu,323728
2022-03-31T03:58:39.408Z,FULLY_SHARED_UNIT_1-16-1-16,1,target-1,cpu,322288
2022-03-31T03:58:49.407Z,FULLY_SHARED_UNIT_1-16-1-16,1,target-1,cpu,322288
2022-03-31T03:58:59.408Z,FULLY_SHARED_UNIT_1-16-1-16,1,target-1,cpu,356006
2022-03-31T03:59:09.408Z,FULLY_SHARED_UNIT_1-16-1-16,1,target-1,cpu,356006
2022-03-31T03:59:19.408Z,FULLY_SHARED_UNIT_1-16-1-16,1,target-1,cpu,360900
2022-03-31T03:59:29.408Z,FULLY_SHARED_UNIT_1-16-1-16,1,target-1,cpu,360900
2022-03-31T03:59:39.407Z,FULLY_SHARED_UNIT_1-16-1-16,1,target-1,cpu,324956
2022-03-31T03:59:49.408Z,FULLY_SHARED_UNIT_1-16-1-16,1,target-1,cpu,324818
2022-03-31T03:59:59.408Z,FULLY_SHARED_UNIT_1-16-1-16,1,target-1,cpu,324818
2022-03-31T04:00:09.408Z,FULLY_SHARED_UNIT_1-16-1-16,1,target-1,cpu,313469
2022-03-31T04:00:19.408Z,FULLY_SHARED_UNIT_1-16-1-16,1,target-1,cpu,313469
2022-03-31T04:00:29.408Z,FULLY_SHARED_UNIT_1-16-1-16,1,target-1,cpu,298632
2022-03-31T04:00:39.407Z,FULLY_SHARED_UNIT_1-16-1-16,1,target-1,cpu,298632
2022-03-31T04:00:49.408Z,FULLY_SHARED_UNIT_1-16-1-16,1,target-1,cpu,315285
2022-03-31T04:00:59.407Z,FULLY_SHARED_UNIT_1-16-1-16,1,target-1,cpu,315285
2022-03-31T04:01:09.408Z,FULLY_SHARED_UNIT_1-16-1-16,1,target-1,cpu,336114
2022-03-31T04:01:19.407Z,FULLY_SHARED_UNIT_1-16-1-16,1,target-1,cpu,336114
2022-03-31T04:01:29.408Z,FULLY_SHARED_UNIT_1-16-1-16,1,target-1,cpu,329640
2022-03-31T04:01:39.408Z,FULLY_SHARED_UNIT_1-16-1-16,1,target-1,cpu,283726
2022-03-31T04:01:49.408Z,FULLY_SHARED_UNIT_1-16-1-16,1,target-1,cpu,283726
2022-03-31T04:01:59.407Z,FULLY_SHARED_UNIT_1-16-1-16,1,target-1,cpu,320133
2022-03-31T04:02:09.408Z,FULLY_SHARED_UNIT_1-16-1-16,1,target-1,cpu,320133
2022-03-31T04:02:19.408Z,FULLY_SHARED_UNIT_1-16-1-16,1,target-1,cpu,301185
2022-03-31T04:02:29.408Z,FULLY_SHARED_UNIT_1-16-1-16,1,target-1,cpu,301185
2022-03-31T04:02:39.408Z,FULLY_SHARED_UNIT_1-16-1-16,1,target-1,cpu,306576
2022-03-31T04:02:49.407Z,FULLY_SHARED_UNIT_1-16-1-16,1,target-1,cpu,306576
2022-03-31T04:02:59.407Z,FULLY_SHARED_UNIT_1-16-1-16,1,target-1,cpu,306223
2022-03-31T04:03:09.408Z,FULLY_SHARED_UNIT_1-16-1-16,1,target-1,cpu,306223
2022-03-31T04:03:19.407Z,FULLY_SHARED_UNIT_1-16-1-16,1,target-1,cpu,306223
2022-03-31T04:03:29.407Z,FULLY_SHARED_UNIT_1-16-1-16,1,target-1,cpu,291908
2022-03-31T04:03:39.408Z,FULLY_SHARED_UNIT_1-16-1-16,1,target-1,cpu,291908
2022-03-31T04:03:49.407Z,FULLY_SHARED_UNIT_1-16-1-16,1,target-1,cpu,291908
2022-03-31T04:03:59.407Z,FULLY_SHARED_UNIT_1-16-1-16,1,target-1,cpu,291664
2022-03-31T04:04:09.408Z,FULLY_SHARED_UNIT_1-16-1-16,1,target-1,cpu,315135
2022-03-31T04:04:19.408Z,FULLY_SHARED_UNIT_1-16-1-16,1,target-1,cpu,315135
2022-03-31T04:04:29.407Z,FULLY_SHARED_UNIT_1-16-1-16,1,target-1,cpu,313557
2022-03-31T04:04:39.408Z,FULLY_SHARED_UNIT_1-16-1-16,1,target-1,cpu,313557
2022-03-31T04:04:49.408Z,FULLY_SHARED_UNIT_1-16-1-16,1,target-1,cpu,313557
2022-03-31T04:04:59.408Z,FULLY_SHARED_UNIT_1-16-1-16,1,target-1,cpu,267750
2022-03-31T04:05:09.408Z,FULLY_SHARED_UNIT_1-16-1-16,1,target-1,cpu,283174
2022-03-31T04:05:52.202Z,FULLY_SHARED_UNIT_1-16-1-16,2,target-1,cpu,239713
2022-03-31T04:06:02.202Z,FULLY_SHARED_UNIT_1-16-1-16,2,target-1,cpu,239713
2022-03-31T04:06:12.202Z,FULLY_SHARED_UNIT_1-16-1-16,2,target-1,cpu,239713
2022-03-31T04:06:22.202Z,FULLY_SHARED_UNIT_1-16-1-16,2,target-1,cpu,295367
2022-03-31T04:06:32.202Z,FULLY_SHARED_UNIT_1-16-1-16,2,target-1,cpu,439786
2022-03-31T04:06:42.202Z,FULLY_SHARED_UNIT_1-16-1-16,2,target-1,cpu,439786
2022-03-31T04:06:52.202Z,FULLY_SHARED_UNIT_1-16-1-16,2,target-1,cpu,439786
2022-03-31T04:07:02.202Z,FULLY_SHARED_UNIT_1-16-1-16,2,target-1,cpu,293347
2022-03-31T04:07:12.203Z,FULLY_SHARED_UNIT_1-16-1-16,2,target-1,cpu,304735
2022-03-31T04:07:22.202Z,FULLY_SHARED_UNIT_1-16-1-16,2,target-1,cpu,304735
2022-03-31T04:07:32.202Z,FULLY_SHARED_UNIT_1-16-1-16,2,target-1,cpu,274536
2022-03-31T04:07:42.203Z,FULLY_SHARED_UNIT_1-16-1-16,2,target-1,cpu,274536
2022-03-31T04:07:52.202Z,FULLY_SHARED_UNIT_1-16-1-16,2,target-1,cpu,274536
2022-03-31T04:08:02.202Z,FULLY_SHARED_UNIT_1-16-1-16,2,target-1,cpu,328465
2022-03-31T04:08:12.202Z,FULLY_SHARED_UNIT_1-16-1-16,2,target-1,cpu,328465
2022-03-31T04:08:22.202Z,FULLY_SHARED_UNIT_1-16-1-16,2,target-1,cpu,326479
2022-03-31T04:08:32.202Z,FULLY_SHARED_UNIT_1-16-1-16,2,target-1,cpu,326479
2022-03-31T04:08:42.202Z,FULLY_SHARED_UNIT_1-16-1-16,2,target-1,cpu,275421
2022-03-31T04:08:52.202Z,FULLY_SHARED_UNIT_1-16-1-16,2,target-1,cpu,275421
2022-03-31T04:09:02.202Z,FULLY_SHARED_UNIT_1-16-1-16,2,target-1,cpu,312272
2022-03-31T04:09:12.202Z,FULLY_SHARED_UNIT_1-16-1-16,2,target-1,cpu,247826
2022-03-31T04:09:22.202Z,FULLY_SHARED_UNIT_1-16-1-16,2,target-1,cpu,317560
2022-03-31T04:09:32.202Z,FULLY_SHARED_UNIT_1-16-1-16,2,target-1,cpu,324067
2022-03-31T04:09:42.202Z,FULLY_SHARED_UNIT_1-16-1-16,2,target-1,cpu,284068
2022-03-31T04:09:52.202Z,FULLY_SHARED_UNIT_1-16-1-16,2,target-1,cpu,284068
2022-03-31T04:10:02.202Z,FULLY_SHARED_UNIT_1-16-1-16,2,target-1,cpu,286312
2022-03-31T04:10:12.202Z,FULLY_SHARED_UNIT_1-16-1-16,2,target-1,cpu,286312
2022-03-31T04:10:22.202Z,FULLY_SHARED_UNIT_1-16-1-16,2,target-1,cpu,293772
2022-03-31T04:10:32.202Z,FULLY_SHARED_UNIT_1-16-1-16,2,target-1,cpu,293772
2022-03-31T04:10:42.202Z,FULLY_SHARED_UNIT_1-16-1-16,2,target-1,cpu,303888
2022-03-31T04:10:52.202Z,FULLY_SHARED_UNIT_1-16-1-16,2,target-1,cpu,303888
2022-03-31T04:11:02.203Z,FULLY_SHARED_UNIT_1-16-1-16,2,target-1,cpu,380852
2022-03-31T04:11:12.202Z,FULLY_SHARED_UNIT_1-16-1-16,2,target-1,cpu,380852
2022-03-31T04:11:22.202Z,FULLY_SHARED_UNIT_1-16-1-16,2,target-1,cpu,316580
2022-03-31T04:11:32.202Z,FULLY_SHARED_UNIT_1-16-1-16,2,target-1,cpu,316580
2022-03-31T04:11:42.202Z,FULLY_SHARED_UNIT_1-16-1-16,2,target-1,cpu,271689
2022-03-31T04:11:52.202Z,FULLY_SHARED_UNIT_1-16-1-16,2,target-1,cpu,324010
2022-03-31T04:12:02.202Z,FULLY_SHARED_UNIT_1-16-1-16,2,target-1,cpu,324010
2022-03-31T04:12:12.202Z,FULLY_SHARED_UNIT_1-16-1-16,2,target-1,cpu,413392
2022-03-31T04:12:22.202Z,FULLY_SHARED_UNIT_1-16-1-16,2,target-1,cpu,413392
2022-03-31T04:12:32.202Z,FULLY_SHARED_UNIT_1-16-1-16,2,target-1,cpu,303336
2022-03-31T04:12:42.202Z,FULLY_SHARED_UNIT_1-16-1-16,2,target-1,cpu,345739
2022-03-31T04:12:52.202Z,FULLY_SHARED_UNIT_1-16-1-16,2,target-1,cpu,345739
2022-03-31T04:13:02.202Z,FULLY_SHARED_UNIT_1-16-1-16,2,target-1,cpu,345739
2022-03-31T04:13:12.202Z,FULLY_SHARED_UNIT_1-16-1-16,2,target-1,cpu,294609
2022-03-31T04:13:22.202Z,FULLY_SHARED_UNIT_1-16-1-16,2,target-1,cpu,294609
2022-03-31T04:13:32.202Z,FULLY_SHARED_UNIT_1-16-1-16,2,target-1,cpu,305586
2022-03-31T04:13:42.202Z,FULLY_SHARED_UNIT_1-16-1-16,2,target-1,cpu,301737
2022-03-31T04:13:52.202Z,FULLY_SHARED_UNIT_1-16-1-16,2,target-1,cpu,301737
2022-03-31T04:14:02.202Z,FULLY_SHARED_UNIT_1-16-1-16,2,target-1,cpu,285423
2022-03-31T04:14:12.202Z,FULLY_SHARED_UNIT_1-16-1-16,2,target-1,cpu,285423
2022-03-31T04:14:22.202Z,FULLY_SHARED_UNIT_1-16-1-16,2,target-1,cpu,302024
2022-03-31T04:14:32.202Z,FULLY_SHARED_UNIT_1-16-1-16,2,target-1,cpu,302024
2022-03-31T04:14:42.202Z,FULLY_SHARED_UNIT_1-16-1-16,2,target-1,cpu,309086
2022-03-31T04:14:52.203Z,FULLY_SHARED_UNIT_1-16-1-16,2,target-1,cpu,305984
2022-03-31T04:15:02.202Z,FULLY_SHARED_UNIT_1-16-1-16,2,target-1,cpu,305984
2022-03-31T04:15:12.202Z,FULLY_SHARED_UNIT_1-16-1-16,2,target-1,cpu,290610
2022-03-31T04:15:22.202Z,FULLY_SHARED_UNIT_1-16-1-16,2,target-1,cpu,290610
2022-03-31T04:15:32.202Z,FULLY_SHARED_UNIT_1-16-1-16,2,target-1,cpu,290610
2022-03-31T04:15:42.202Z,FULLY_SHARED_UNIT_1-16-1-16,2,target-1,cpu,312642
2022-03-31T04:16:27.144Z,FULLY_SHARED_UNIT_1-16-1-16,3,target-1,cpu,141352
2022-03-31T04:16:37.143Z,FULLY_SHARED_UNIT_1-16-1-16,3,target-1,cpu,141352
2022-03-31T04:16:47.143Z,FULLY_SHARED_UNIT_1-16-1-16,3,target-1,cpu,294997
2022-03-31T04:16:57.144Z,FULLY_SHARED_UNIT_1-16-1-16,3,target-1,cpu,320791
2022-03-31T04:17:07.144Z,FULLY_SHARED_UNIT_1-16-1-16,3,target-1,cpu,320791
2022-03-31T04:17:17.143Z,FULLY_SHARED_UNIT_1-16-1-16,3,target-1,cpu,320791
2022-03-31T04:17:27.143Z,FULLY_SHARED_UNIT_1-16-1-16,3,target-1,cpu,316894
2022-03-31T04:17:37.144Z,FULLY_SHARED_UNIT_1-16-1-16,3,target-1,cpu,314878
2022-03-31T04:17:47.143Z,FULLY_SHARED_UNIT_1-16-1-16,3,target-1,cpu,314878
2022-03-31T04:17:57.144Z,FULLY_SHARED_UNIT_1-16-1-16,3,target-1,cpu,316228
2022-03-31T04:18:07.143Z,FULLY_SHARED_UNIT_1-16-1-16,3,target-1,cpu,316228
2022-03-31T04:18:17.144Z,FULLY_SHARED_UNIT_1-16-1-16,3,target-1,cpu,315878
2022-03-31T04:18:27.144Z,FULLY_SHARED_UNIT_1-16-1-16,3,target-1,cpu,315878
2022-03-31T04:18:37.143Z,FULLY_SHARED_UNIT_1-16-1-16,3,target-1,cpu,301270
2022-03-31T04:18:47.144Z,FULLY_SHARED_UNIT_1-16-1-16,3,target-1,cpu,301270
2022-03-31T04:18:57.143Z,FULLY_SHARED_UNIT_1-16-1-16,3,target-1,cpu,301270
2022-03-31T04:19:07.143Z,FULLY_SHARED_UNIT_1-16-1-16,3,target-1,cpu,319610
2022-03-31T04:19:17.143Z,FULLY_SHARED_UNIT_1-16-1-16,3,target-1,cpu,288476
2022-03-31T04:19:27.144Z,FULLY_SHARED_UNIT_1-16-1-16,3,target-1,cpu,288476
2022-03-31T04:19:37.143Z,FULLY_SHARED_UNIT_1-16-1-16,3,target-1,cpu,288476
2022-03-31T04:19:47.143Z,FULLY_SHARED_UNIT_1-16-1-16,3,target-1,cpu,300119
2022-03-31T04:19:57.144Z,FULLY_SHARED_UNIT_1-16-1-16,3,target-1,cpu,300119
2022-03-31T04:20:07.144Z,FULLY_SHARED_UNIT_1-16-1-16,3,target-1,cpu,315869
2022-03-31T04:20:17.144Z,FULLY_SHARED_UNIT_1-16-1-16,3,target-1,cpu,315869
2022-03-31T04:20:27.143Z,FULLY_SHARED_UNIT_1-16-1-16,3,target-1,cpu,315869
2022-03-31T04:20:37.144Z,FULLY_SHARED_UNIT_1-16-1-16,3,target-1,cpu,308453
2022-03-31T04:20:47.143Z,FULLY_SHARED_UNIT_1-16-1-16,3,target-1,cpu,308453
2022-03-31T04:20:57.144Z,FULLY_SHARED_UNIT_1-16-1-16,3,target-1,cpu,286475
2022-03-31T04:21:07.144Z,FULLY_SHARED_UNIT_1-16-1-16,3,target-1,cpu,324441
2022-03-31T04:21:17.143Z,FULLY_SHARED_UNIT_1-16-1-16,3,target-1,cpu,324441
2022-03-31T04:21:27.144Z,FULLY_SHARED_UNIT_1-16-1-16,3,target-1,cpu,277130
2022-03-31T04:21:37.144Z,FULLY_SHARED_UNIT_1-16-1-16,3,target-1,cpu,277130
2022-03-31T04:21:47.144Z,FULLY_SHARED_UNIT_1-16-1-16,3,target-1,cpu,277130
2022-03-31T04:21:57.144Z,FULLY_SHARED_UNIT_1-16-1-16,3,target-1,cpu,302097
2022-03-31T04:22:07.143Z,FULLY_SHARED_UNIT_1-16-1-16,3,target-1,cpu,305837
2022-03-31T04:22:17.144Z,FULLY_SHARED_UNIT_1-16-1-16,3,target-1,cpu,311929
2022-03-31T04:22:27.144Z,FULLY_SHARED_UNIT_1-16-1-16,3,target-1,cpu,311929
2022-03-31T04:22:37.143Z,FULLY_SHARED_UNIT_1-16-1-16,3,target-1,cpu,311929
2022-03-31T04:22:47.144Z,FULLY_SHARED_UNIT_1-16-1-16,3,target-1,cpu,313442
2022-03-31T04:22:57.144Z,FULLY_SHARED_UNIT_1-16-1-16,3,target-1,cpu,295231
2022-03-31T04:23:07.144Z,FULLY_SHARED_UNIT_1-16-1-16,3,target-1,cpu,295231
2022-03-31T04:23:17.144Z,FULLY_SHARED_UNIT_1-16-1-16,3,target-1,cpu,304596
2022-03-31T04:23:27.144Z,FULLY_SHARED_UNIT_1-16-1-16,3,target-1,cpu,304596
2022-03-31T04:23:37.144Z,FULLY_SHARED_UNIT_1-16-1-16,3,target-1,cpu,330674
2022-03-31T04:23:47.143Z,FULLY_SHARED_UNIT_1-16-1-16,3,target-1,cpu,330674
2022-03-31T04:23:57.143Z,FULLY_SHARED_UNIT_1-16-1-16,3,target-1,cpu,296501
2022-03-31T04:24:07.143Z,FULLY_SHARED_UNIT_1-16-1-16,3,target-1,cpu,296501
2022-03-31T04:24:17.144Z,FULLY_SHARED_UNIT_1-16-1-16,3,target-1,cpu,288034
2022-03-31T04:24:27.143Z,FULLY_SHARED_UNIT_1-16-1-16,3,target-1,cpu,288034
2022-03-31T04:24:37.143Z,FULLY_SHARED_UNIT_1-16-1-16,3,target-1,cpu,293401
2022-03-31T04:24:47.143Z,FULLY_SHARED_UNIT_1-16-1-16,3,target-1,cpu,293401
2022-03-31T04:24:57.143Z,FULLY_SHARED_UNIT_1-16-1-16,3,target-1,cpu,300997
2022-03-31T04:25:07.144Z,FULLY_SHARED_UNIT_1-16-1-16,3,target-1,cpu,277397
2022-03-31T04:25:17.144Z,FULLY_SHARED_UNIT_1-16-1-16,3,target-1,cpu,351791
2022-03-31T04:25:27.144Z,FULLY_SHARED_UNIT_1-16-1-16,3,target-1,cpu,351791
2022-03-31T04:25:37.144Z,FULLY_SHARED_UNIT_1-16-1-16,3,target-1,cpu,351791
2022-03-31T04:25:47.144Z,FULLY_SHARED_UNIT_1-16-1-16,3,target-1,cpu,292019
2022-03-31T04:25:57.144Z,FULLY_SHARED_UNIT_1-16-1-16,3,target-1,cpu,292019
2022-03-31T04:26:07.144Z,FULLY_SHARED_UNIT_1-16-1-16,3,target-1,cpu,317750
2022-03-31T04:26:17.144Z,FULLY_SHARED_UNIT_1-16-1-16,3,target-1,cpu,271811
