2023-07-04T16:18:13.923Z,redis-exporter-dbops-team,network_out,12699
2023-07-04T16:18:13.923Z,redis-exporter-dev-team,network_out,17099
2023-07-04T16:18:13.923Z,blackbox-exporter,network_out,48790
2023-07-04T16:18:24.292Z,blackbox-exporter,network_out,48790
2023-07-04T16:18:24.292Z,redis-exporter-dev-team,network_out,22705
2023-07-04T16:18:24.292Z,redis-exporter-dbops-team,network_out,24430
2023-07-04T16:18:34.291Z,blackbox-exporter,network_out,48790
2023-07-04T16:18:34.291Z,redis-exporter-dbops-team,network_out,24430
2023-07-04T16:18:34.291Z,redis-exporter-dev-team,network_out,22705
2023-07-04T16:18:44.292Z,blackbox-exporter,network_out,69684
2023-07-04T16:18:44.292Z,redis-exporter-dbops-team,network_out,24562
2023-07-04T16:18:44.292Z,redis-exporter-dev-team,network_out,34522
2023-07-04T16:18:54.292Z,redis-exporter-dev-team,network_out,34522
2023-07-04T16:18:54.292Z,blackbox-exporter,network_out,69684
2023-07-04T16:18:54.292Z,redis-exporter-dbops-team,network_out,24562
2023-07-04T16:19:04.292Z,blackbox-exporter,network_out,110440
2023-07-04T16:19:04.292Z,redis-exporter-dbops-team,network_out,36360
2023-07-04T16:19:04.292Z,redis-exporter-dev-team,network_out,40854
2023-07-04T16:19:14.292Z,blackbox-exporter,network_out,130324
2023-07-04T16:19:14.292Z,redis-exporter-dbops-team,network_out,36492
2023-07-04T16:19:14.292Z,redis-exporter-dev-team,network_out,46506
2023-07-04T16:19:24.291Z,redis-exporter-dbops-team,network_out,36492
2023-07-04T16:19:24.291Z,blackbox-exporter,network_out,130324
2023-07-04T16:19:24.291Z,redis-exporter-dev-team,network_out,46506
2023-07-04T16:19:34.291Z,blackbox-exporter,network_out,161374
2023-07-04T16:19:34.291Z,redis-exporter-dev-team,network_out,52911
2023-07-04T16:19:34.291Z,redis-exporter-dbops-team,network_out,48351
2023-07-04T16:19:44.291Z,redis-exporter-dev-team,network_out,52911
2023-07-04T16:19:44.291Z,blackbox-exporter,network_out,161374
2023-07-04T16:19:44.291Z,redis-exporter-dbops-team,network_out,48351
2023-07-04T16:19:54.292Z,blackbox-exporter,network_out,196906
2023-07-04T16:19:54.292Z,redis-exporter-dbops-team,network_out,60439
2023-07-04T16:19:54.292Z,redis-exporter-dev-team,network_out,58567
2023-07-04T16:20:04.292Z,blackbox-exporter,network_out,196906
2023-07-04T16:20:04.292Z,redis-exporter-dbops-team,network_out,60439
2023-07-04T16:20:04.292Z,redis-exporter-dev-team,network_out,58567
2023-07-04T16:20:14.292Z,blackbox-exporter,network_out,235015
2023-07-04T16:20:14.292Z,redis-exporter-dev-team,network_out,64927
2023-07-04T16:20:14.292Z,redis-exporter-dbops-team,network_out,60571
2023-07-04T16:20:24.292Z,blackbox-exporter,network_out,235015
2023-07-04T16:20:24.292Z,redis-exporter-dev-team,network_out,64927
2023-07-04T16:20:24.292Z,redis-exporter-dbops-team,network_out,60571
2023-07-04T16:20:34.291Z,redis-exporter-dbops-team,network_out,72604
2023-07-04T16:20:34.291Z,blackbox-exporter,network_out,274140
2023-07-04T16:20:34.291Z,redis-exporter-dev-team,network_out,76985
2023-07-04T16:20:44.292Z,redis-exporter-dev-team,network_out,82651
2023-07-04T16:20:44.292Z,blackbox-exporter,network_out,296334
2023-07-04T16:20:44.292Z,redis-exporter-dbops-team,network_out,72604
2023-07-04T16:20:54.292Z,blackbox-exporter,network_out,296334
2023-07-04T16:20:54.292Z,redis-exporter-dbops-team,network_out,78289
2023-07-04T16:20:54.292Z,redis-exporter-dev-team,network_out,82651
2023-07-04T16:21:04.291Z,blackbox-exporter,network_out,296334
2023-07-04T16:21:04.291Z,redis-exporter-dbops-team,network_out,78289
2023-07-04T16:21:04.291Z,redis-exporter-dev-team,network_out,82651
2023-07-04T16:21:14.291Z,blackbox-exporter,network_out,362461
2023-07-04T16:21:14.291Z,redis-exporter-dev-team,network_out,94805
2023-07-04T16:21:14.291Z,redis-exporter-dbops-team,network_out,84542
2023-07-04T16:21:24.292Z,redis-exporter-dbops-team,network_out,90369
2023-07-04T16:21:24.292Z,redis-exporter-dev-team,network_out,101210
2023-07-04T16:21:24.292Z,blackbox-exporter,network_out,362461
2023-07-04T16:21:34.291Z,redis-exporter-dbops-team,network_out,90369
2023-07-04T16:21:34.291Z,blackbox-exporter,network_out,362461
2023-07-04T16:21:34.291Z,redis-exporter-dev-team,network_out,101210
2023-07-04T16:21:44.291Z,redis-exporter-dev-team,network_out,101210
2023-07-04T16:21:44.291Z,blackbox-exporter,network_out,408449
2023-07-04T16:21:44.291Z,redis-exporter-dbops-team,network_out,96621
2023-07-04T16:21:54.292Z,blackbox-exporter,network_out,438767
2023-07-04T16:21:54.292Z,redis-exporter-dev-team,network_out,106900
2023-07-04T16:21:54.292Z,redis-exporter-dbops-team,network_out,102449
2023-07-04T16:22:04.292Z,blackbox-exporter,network_out,486935
2023-07-04T16:22:04.292Z,redis-exporter-dbops-team,network_out,108710
2023-07-04T16:22:04.292Z,redis-exporter-dev-team,network_out,113282
2023-07-04T16:22:14.292Z,redis-exporter-dbops-team,network_out,108710
2023-07-04T16:22:14.292Z,blackbox-exporter,network_out,486935
2023-07-04T16:22:14.292Z,redis-exporter-dev-team,network_out,113282
2023-07-04T16:22:24.291Z,blackbox-exporter,network_out,541255
2023-07-04T16:22:24.291Z,redis-exporter-dbops-team,network_out,108912
2023-07-04T16:22:24.291Z,redis-exporter-dev-team,network_out,118985
2023-07-04T16:22:34.292Z,redis-exporter-dev-team,network_out,125417
2023-07-04T16:22:34.292Z,redis-exporter-dbops-team,network_out,120906
2023-07-04T16:22:34.292Z,blackbox-exporter,network_out,575128
2023-07-04T16:22:44.292Z,redis-exporter-dev-team,network_out,125417
2023-07-04T16:22:44.292Z,blackbox-exporter,network_out,575128
2023-07-04T16:22:44.292Z,redis-exporter-dbops-team,network_out,126742
2023-07-04T16:22:54.291Z,redis-exporter-dbops-team,network_out,126742
2023-07-04T16:22:54.291Z,redis-exporter-dev-team,network_out,125417
2023-07-04T16:22:54.291Z,blackbox-exporter,network_out,575128
2023-07-04T16:23:04.291Z,blackbox-exporter,network_out,633709
2023-07-04T16:23:04.291Z,redis-exporter-dev-team,network_out,143279
2023-07-04T16:23:04.291Z,redis-exporter-dbops-team,network_out,133041
2023-07-04T16:23:14.292Z,redis-exporter-dev-team,network_out,143279
2023-07-04T16:23:14.292Z,redis-exporter-dbops-team,network_out,133173
2023-07-04T16:23:14.292Z,blackbox-exporter,network_out,690357
2023-07-04T16:23:24.291Z,redis-exporter-dev-team,network_out,143279
2023-07-04T16:23:24.291Z,redis-exporter-dbops-team,network_out,133173
2023-07-04T16:23:24.291Z,blackbox-exporter,network_out,690357
2023-07-04T16:23:34.291Z,redis-exporter-dev-team,network_out,149744
2023-07-04T16:23:34.291Z,blackbox-exporter,network_out,715188
2023-07-04T16:23:34.291Z,redis-exporter-dbops-team,network_out,145179
2023-07-04T16:23:44.292Z,blackbox-exporter,network_out,777780
2023-07-04T16:23:44.292Z,redis-exporter-dev-team,network_out,155442
2023-07-04T16:23:44.292Z,redis-exporter-dbops-team,network_out,145311
2023-07-04T16:23:54.291Z,redis-exporter-dev-team,network_out,155442
2023-07-04T16:23:54.291Z,redis-exporter-dbops-team,network_out,145311
2023-07-04T16:23:54.291Z,blackbox-exporter,network_out,777780
2023-07-04T16:24:04.291Z,blackbox-exporter,network_out,861772
2023-07-04T16:24:04.291Z,redis-exporter-dev-team,network_out,161894
2023-07-04T16:24:04.291Z,redis-exporter-dbops-team,network_out,157312
2023-07-04T16:24:14.291Z,redis-exporter-dev-team,network_out,161894
2023-07-04T16:24:14.291Z,redis-exporter-dbops-team,network_out,157444
2023-07-04T16:24:14.291Z,blackbox-exporter,network_out,861772
2023-07-04T16:24:24.291Z,redis-exporter-dbops-team,network_out,157444
2023-07-04T16:24:24.291Z,blackbox-exporter,network_out,861772
2023-07-04T16:24:24.291Z,redis-exporter-dev-team,network_out,161894
2023-07-04T16:24:34.291Z,blackbox-exporter,network_out,924237
2023-07-04T16:24:34.291Z,redis-exporter-dev-team,network_out,174051
2023-07-04T16:24:34.291Z,redis-exporter-dbops-team,network_out,169466
2023-07-04T16:24:44.292Z,redis-exporter-dev-team,network_out,179745
2023-07-04T16:24:44.292Z,redis-exporter-dbops-team,network_out,169598
2023-07-04T16:24:44.292Z,blackbox-exporter,network_out,977434
2023-07-04T16:24:54.291Z,redis-exporter-dev-team,network_out,179745
2023-07-04T16:24:54.291Z,redis-exporter-dbops-team,network_out,169598
2023-07-04T16:24:54.291Z,blackbox-exporter,network_out,977434
2023-07-04T16:25:04.292Z,redis-exporter-dbops-team,network_out,181628
2023-07-04T16:25:04.292Z,blackbox-exporter,network_out,1011663
2023-07-04T16:25:04.292Z,redis-exporter-dev-team,network_out,191980
2023-07-04T16:25:14.291Z,redis-exporter-dbops-team,network_out,181628
2023-07-04T16:25:14.291Z,blackbox-exporter,network_out,1011663
2023-07-04T16:25:14.291Z,redis-exporter-dev-team,network_out,191980
2023-07-04T16:25:24.292Z,redis-exporter-dbops-team,network_out,187463
2023-07-04T16:25:24.292Z,redis-exporter-dev-team,network_out,191980
2023-07-04T16:25:24.292Z,blackbox-exporter,network_out,1065024
2023-07-04T16:25:34.291Z,redis-exporter-dev-team,network_out,191980
2023-07-04T16:25:34.291Z,redis-exporter-dbops-team,network_out,187463
2023-07-04T16:25:34.291Z,blackbox-exporter,network_out,1065024
2023-07-04T16:25:44.292Z,redis-exporter-dbops-team,network_out,193803
2023-07-04T16:25:44.292Z,blackbox-exporter,network_out,1099299
2023-07-04T16:25:44.292Z,redis-exporter-dev-team,network_out,191980
2023-07-04T16:25:54.292Z,blackbox-exporter,network_out,1152585
2023-07-04T16:25:54.292Z,redis-exporter-dbops-team,network_out,199641
2023-07-04T16:25:54.292Z,redis-exporter-dev-team,network_out,204143
2023-07-04T16:26:04.291Z,redis-exporter-dev-team,network_out,204143
2023-07-04T16:26:04.291Z,redis-exporter-dbops-team,network_out,199641
2023-07-04T16:26:04.291Z,blackbox-exporter,network_out,1152585
2023-07-04T16:26:14.292Z,redis-exporter-dev-team,network_out,216335
2023-07-04T16:26:14.292Z,blackbox-exporter,network_out,1216930
2023-07-04T16:26:14.292Z,redis-exporter-dbops-team,network_out,205979
2023-07-04T16:26:24.291Z,redis-exporter-dev-team,network_out,216335
2023-07-04T16:26:24.291Z,blackbox-exporter,network_out,1216930
2023-07-04T16:26:24.291Z,redis-exporter-dbops-team,network_out,205979
2023-07-04T16:26:34.291Z,redis-exporter-dbops-team,network_out,218163
2023-07-04T16:26:34.291Z,redis-exporter-dev-team,network_out,228523
2023-07-04T16:26:34.291Z,blackbox-exporter,network_out,1270626
2023-07-04T16:26:44.292Z,redis-exporter-dev-team,network_out,228523
2023-07-04T16:26:44.292Z,redis-exporter-dbops-team,network_out,218365
2023-07-04T16:26:44.292Z,blackbox-exporter,network_out,1304605
2023-07-04T16:26:54.292Z,blackbox-exporter,network_out,1333297
2023-07-04T16:26:54.292Z,redis-exporter-dev-team,network_out,228655
2023-07-04T16:26:54.292Z,redis-exporter-dbops-team,network_out,218365
2023-07-04T16:27:04.292Z,blackbox-exporter,network_out,1333297
2023-07-04T16:27:04.292Z,redis-exporter-dbops-team,network_out,218365
2023-07-04T16:27:04.292Z,redis-exporter-dev-team,network_out,228655
2023-07-04T16:27:14.292Z,redis-exporter-dev-team,network_out,234976
2023-07-04T16:27:14.292Z,blackbox-exporter,network_out,1390378
2023-07-04T16:27:14.292Z,redis-exporter-dbops-team,network_out,236228
2023-07-04T16:27:24.291Z,redis-exporter-dev-team,network_out,234976
2023-07-04T16:27:24.291Z,redis-exporter-dbops-team,network_out,236228
2023-07-04T16:27:24.291Z,blackbox-exporter,network_out,1390378
2023-07-04T16:27:34.291Z,blackbox-exporter,network_out,1445866
2023-07-04T16:27:34.291Z,redis-exporter-dev-team,network_out,240817
2023-07-04T16:27:34.291Z,redis-exporter-dbops-team,network_out,242573
2023-07-04T16:27:44.292Z,redis-exporter-dev-team,network_out,252884
2023-07-04T16:27:44.292Z,blackbox-exporter,network_out,1479840
2023-07-04T16:27:44.292Z,redis-exporter-dbops-team,network_out,242705
2023-07-04T16:27:54.292Z,blackbox-exporter,network_out,1479840
2023-07-04T16:27:54.292Z,redis-exporter-dev-team,network_out,252884
2023-07-04T16:27:54.292Z,redis-exporter-dbops-team,network_out,242705
2023-07-04T16:28:04.292Z,blackbox-exporter,network_out,1533456
2023-07-04T16:28:04.292Z,redis-exporter-dev-team,network_out,265114
2023-07-04T16:28:04.292Z,redis-exporter-dbops-team,network_out,254873
2023-07-04T16:28:14.292Z,blackbox-exporter,network_out,1533456
2023-07-04T16:28:14.292Z,redis-exporter-dev-team,network_out,265114
2023-07-04T16:28:14.292Z,redis-exporter-dbops-team,network_out,254873
2023-07-04T16:28:24.292Z,redis-exporter-dev-team,network_out,271589
2023-07-04T16:28:24.292Z,redis-exporter-dbops-team,network_out,260575
2023-07-04T16:28:24.292Z,blackbox-exporter,network_out,1596281
2023-07-04T16:28:34.292Z,blackbox-exporter,network_out,1596281
2023-07-04T16:28:34.292Z,redis-exporter-dev-team,network_out,271589
2023-07-04T16:28:34.292Z,redis-exporter-dbops-team,network_out,267128
