timestamp,key,run_id,resource,metric,value
2022-05-26T10:22:33.740Z,SHARED_SIDECAR_MULTI_PROBE-1-1-1,1,target-1,memory,0.4404640197753906
2022-05-26T10:22:43.741Z,SHARED_SIDECAR_MULTI_PROBE-1-1-1,1,target-1,memory,0.4404640197753906
2022-05-26T10:22:53.741Z,SHARED_SIDECAR_MULTI_PROBE-1-1-1,1,target-1,memory,0.4404945373535156
2022-05-26T10:23:03.741Z,SHARED_SIDECAR_MULTI_PROBE-1-1-1,1,target-1,memory,0.4404945373535156
2022-05-26T10:23:13.741Z,SHARED_SIDECAR_MULTI_PROBE-1-1-1,1,target-1,memory,0.4405097961425781
2022-05-26T10:23:23.740Z,SHARED_SIDECAR_MULTI_PROBE-1-1-1,1,target-1,memory,0.4405021667480469
2022-05-26T10:23:33.740Z,SHARED_SIDECAR_MULTI_PROBE-1-1-1,1,target-1,memory,0.4500846862792969
2022-05-26T10:23:43.741Z,SHARED_SIDECAR_MULTI_PROBE-1-1-1,1,target-1,memory,0.4556465148925781
2022-05-26T10:23:53.740Z,SHARED_SIDECAR_MULTI_PROBE-1-1-1,1,target-1,memory,0.4552116394042969
2022-05-26T10:24:03.740Z,SHARED_SIDECAR_MULTI_PROBE-1-1-1,1,target-1,memory,0.4558296203613281
2022-05-26T10:24:13.740Z,SHARED_SIDECAR_MULTI_PROBE-1-1-1,1,target-1,memory,0.44333648681640625
2022-05-26T10:24:23.740Z,SHARED_SIDECAR_MULTI_PROBE-1-1-1,1,target-1,memory,0.4433326721191406
2022-05-26T10:24:33.740Z,SHARED_SIDECAR_MULTI_PROBE-1-1-1,1,target-1,memory,0.4430961608886719
2022-05-26T10:24:43.740Z,SHARED_SIDECAR_MULTI_PROBE-1-1-1,1,target-1,memory,0.4430961608886719
2022-05-26T10:24:53.740Z,SHARED_SIDECAR_MULTI_PROBE-1-1-1,1,target-1,memory,0.4428558349609375
2022-05-26T10:25:03.740Z,SHARED_SIDECAR_MULTI_PROBE-1-1-1,1,target-1,memory,0.443328857421875
2022-05-26T10:25:13.741Z,SHARED_SIDECAR_MULTI_PROBE-1-1-1,1,target-1,memory,0.4432868957519531
2022-05-26T10:25:23.740Z,SHARED_SIDECAR_MULTI_PROBE-1-1-1,1,target-1,memory,0.4432868957519531
2022-05-26T10:25:33.740Z,SHARED_SIDECAR_MULTI_PROBE-1-1-1,1,target-1,memory,0.4430389404296875
2022-05-26T10:25:43.740Z,SHARED_SIDECAR_MULTI_PROBE-1-1-1,1,target-1,memory,0.4430389404296875
2022-05-26T10:25:53.741Z,SHARED_SIDECAR_MULTI_PROBE-1-1-1,1,target-1,memory,0.4429931640625
2022-05-26T10:26:03.740Z,SHARED_SIDECAR_MULTI_PROBE-1-1-1,1,target-1,memory,0.44202423095703125
2022-05-26T10:26:13.740Z,SHARED_SIDECAR_MULTI_PROBE-1-1-1,1,target-1,memory,0.44202423095703125
2022-05-26T10:26:23.740Z,SHARED_SIDECAR_MULTI_PROBE-1-1-1,1,target-1,memory,0.4420204162597656
2022-05-26T10:26:33.740Z,SHARED_SIDECAR_MULTI_PROBE-1-1-1,1,target-1,memory,0.4420127868652344
2022-05-26T10:26:43.741Z,SHARED_SIDECAR_MULTI_PROBE-1-1-1,1,target-1,memory,0.44200897216796875
2022-05-26T10:26:53.740Z,SHARED_SIDECAR_MULTI_PROBE-1-1-1,1,target-1,memory,0.44200897216796875
2022-05-26T10:27:03.740Z,SHARED_SIDECAR_MULTI_PROBE-1-1-1,1,target-1,memory,0.4427223205566406
2022-05-26T10:27:13.741Z,SHARED_SIDECAR_MULTI_PROBE-1-1-1,1,target-1,memory,0.4427223205566406
2022-05-26T10:27:23.740Z,SHARED_SIDECAR_MULTI_PROBE-1-1-1,1,target-1,memory,0.4427223205566406
2022-05-26T10:27:33.740Z,SHARED_SIDECAR_MULTI_PROBE-1-1-1,1,target-1,memory,0.4427146911621094
2022-05-26T10:27:43.741Z,SHARED_SIDECAR_MULTI_PROBE-1-1-1,1,target-1,memory,0.4427146911621094
2022-05-26T10:27:53.740Z,SHARED_SIDECAR_MULTI_PROBE-1-1-1,1,target-1,memory,0.44271087646484375
2022-05-26T10:28:03.740Z,SHARED_SIDECAR_MULTI_PROBE-1-1-1,1,target-1,memory,0.44222259521484375
2022-05-26T10:28:13.741Z,SHARED_SIDECAR_MULTI_PROBE-1-1-1,1,target-1,memory,0.44222259521484375
2022-05-26T10:28:23.740Z,SHARED_SIDECAR_MULTI_PROBE-1-1-1,1,target-1,memory,0.44225311279296875
2022-05-26T10:28:33.740Z,SHARED_SIDECAR_MULTI_PROBE-1-1-1,1,target-1,memory,0.4422454833984375
2022-05-26T10:28:43.740Z,SHARED_SIDECAR_MULTI_PROBE-1-1-1,1,target-1,memory,0.4422454833984375
2022-05-26T10:28:53.741Z,SHARED_SIDECAR_MULTI_PROBE-1-1-1,1,target-1,memory,0.4422454833984375
2022-05-26T10:29:03.740Z,SHARED_SIDECAR_MULTI_PROBE-1-1-1,1,target-1,memory,0.4419708251953125
2022-05-26T10:29:13.740Z,SHARED_SIDECAR_MULTI_PROBE-1-1-1,1,target-1,memory,0.4419708251953125
2022-05-26T10:29:23.740Z,SHARED_SIDECAR_MULTI_PROBE-1-1-1,1,target-1,memory,0.4422111511230469
2022-05-26T10:29:33.740Z,SHARED_SIDECAR_MULTI_PROBE-1-1-1,1,target-1,memory,0.4422035217285156
2022-05-26T10:29:43.740Z,SHARED_SIDECAR_MULTI_PROBE-1-1-1,1,target-1,memory,0.4422035217285156
2022-05-26T10:29:53.740Z,SHARED_SIDECAR_MULTI_PROBE-1-1-1,1,target-1,memory,0.44219970703125
2022-05-26T10:30:03.740Z,SHARED_SIDECAR_MULTI_PROBE-1-1-1,1,target-1,memory,0.44219207763671875
2022-05-26T10:30:13.740Z,SHARED_SIDECAR_MULTI_PROBE-1-1-1,1,target-1,memory,0.44219207763671875
2022-05-26T10:30:23.740Z,SHARED_SIDECAR_MULTI_PROBE-1-1-1,1,target-1,memory,0.4421844482421875
2022-05-26T10:30:33.740Z,SHARED_SIDECAR_MULTI_PROBE-1-1-1,1,target-1,memory,0.4421806335449219
2022-05-26T10:30:43.740Z,SHARED_SIDECAR_MULTI_PROBE-1-1-1,1,target-1,memory,0.4421806335449219
2022-05-26T10:30:53.740Z,SHARED_SIDECAR_MULTI_PROBE-1-1-1,1,target-1,memory,0.44242095947265625
2022-05-26T10:31:03.740Z,SHARED_SIDECAR_MULTI_PROBE-1-1-1,1,target-1,memory,0.4419403076171875
2022-05-26T10:31:13.741Z,SHARED_SIDECAR_MULTI_PROBE-1-1-1,1,target-1,memory,0.4419403076171875
2022-05-26T10:31:23.740Z,SHARED_SIDECAR_MULTI_PROBE-1-1-1,1,target-1,memory,0.4421730041503906
2022-05-26T10:31:33.740Z,SHARED_SIDECAR_MULTI_PROBE-1-1-1,1,target-1,memory,0.4421653747558594
2022-05-26T10:31:43.740Z,SHARED_SIDECAR_MULTI_PROBE-1-1-1,1,target-1,memory,0.4421653747558594
2022-05-26T10:31:53.741Z,SHARED_SIDECAR_MULTI_PROBE-1-1-1,1,target-1,memory,0.4421653747558594
2022-05-26T10:32:03.740Z,SHARED_SIDECAR_MULTI_PROBE-1-1-1,1,target-1,memory,0.44191741943359375
2022-05-26T10:32:13.740Z,SHARED_SIDECAR_MULTI_PROBE-1-1-1,1,target-1,memory,0.44191741943359375
2022-05-26T10:32:23.740Z,SHARED_SIDECAR_MULTI_PROBE-1-1-1,1,target-1,memory,0.4421577453613281
2022-05-26T10:34:19.114Z,SHARED_SIDECAR_MULTI_PROBE-1-1-1,2,target-1,memory,0.4442939758300781
2022-05-26T10:34:29.113Z,SHARED_SIDECAR_MULTI_PROBE-1-1-1,2,target-1,memory,0.4442939758300781
2022-05-26T10:34:39.114Z,SHARED_SIDECAR_MULTI_PROBE-1-1-1,2,target-1,memory,0.444549560546875
2022-05-26T10:34:49.113Z,SHARED_SIDECAR_MULTI_PROBE-1-1-1,2,target-1,memory,0.44454193115234375
2022-05-26T10:34:59.113Z,SHARED_SIDECAR_MULTI_PROBE-1-1-1,2,target-1,memory,0.44454193115234375
2022-05-26T10:35:09.114Z,SHARED_SIDECAR_MULTI_PROBE-1-1-1,2,target-1,memory,0.44454193115234375
2022-05-26T10:35:19.114Z,SHARED_SIDECAR_MULTI_PROBE-1-1-1,2,target-1,memory,0.4447822570800781
2022-05-26T10:35:29.113Z,SHARED_SIDECAR_MULTI_PROBE-1-1-1,2,target-1,memory,0.4445343017578125
2022-05-26T10:35:39.114Z,SHARED_SIDECAR_MULTI_PROBE-1-1-1,2,target-1,memory,0.4443206787109375
2022-05-26T10:35:49.113Z,SHARED_SIDECAR_MULTI_PROBE-1-1-1,2,target-1,memory,0.445281982421875
2022-05-26T10:35:59.113Z,SHARED_SIDECAR_MULTI_PROBE-1-1-1,2,target-1,memory,0.44527435302734375
2022-05-26T10:36:09.114Z,SHARED_SIDECAR_MULTI_PROBE-1-1-1,2,target-1,memory,0.4450416564941406
2022-05-26T10:36:19.114Z,SHARED_SIDECAR_MULTI_PROBE-1-1-1,2,target-1,memory,0.4450340270996094
2022-05-26T10:36:29.113Z,SHARED_SIDECAR_MULTI_PROBE-1-1-1,2,target-1,memory,0.4450340270996094
2022-05-26T10:36:39.114Z,SHARED_SIDECAR_MULTI_PROBE-1-1-1,2,target-1,memory,0.44503021240234375
2022-05-26T10:36:49.113Z,SHARED_SIDECAR_MULTI_PROBE-1-1-1,2,target-1,memory,0.44503021240234375
2022-05-26T10:36:59.113Z,SHARED_SIDECAR_MULTI_PROBE-1-1-1,2,target-1,memory,0.4458122253417969
2022-05-26T10:37:09.114Z,SHARED_SIDECAR_MULTI_PROBE-1-1-1,2,target-1,memory,0.445526123046875
2022-05-26T10:37:19.114Z,SHARED_SIDECAR_MULTI_PROBE-1-1-1,2,target-1,memory,0.445526123046875
2022-05-26T10:37:29.113Z,SHARED_SIDECAR_MULTI_PROBE-1-1-1,2,target-1,memory,0.44551849365234375
2022-05-26T10:37:39.113Z,SHARED_SIDECAR_MULTI_PROBE-1-1-1,2,target-1,memory,0.4452781677246094
2022-05-26T10:37:49.113Z,SHARED_SIDECAR_MULTI_PROBE-1-1-1,2,target-1,memory,0.4453010559082031
2022-05-26T10:37:59.114Z,SHARED_SIDECAR_MULTI_PROBE-1-1-1,2,target-1,memory,0.4453010559082031
2022-05-26T10:38:09.114Z,SHARED_SIDECAR_MULTI_PROBE-1-1-1,2,target-1,memory,0.44481658935546875
2022-05-26T10:38:19.114Z,SHARED_SIDECAR_MULTI_PROBE-1-1-1,2,target-1,memory,0.44480133056640625
2022-05-26T10:38:29.113Z,SHARED_SIDECAR_MULTI_PROBE-1-1-1,2,target-1,memory,0.44480133056640625
2022-05-26T10:38:39.114Z,SHARED_SIDECAR_MULTI_PROBE-1-1-1,2,target-1,memory,0.4445533752441406
2022-05-26T10:38:49.114Z,SHARED_SIDECAR_MULTI_PROBE-1-1-1,2,target-1,memory,0.4445533752441406
2022-05-26T10:38:59.113Z,SHARED_SIDECAR_MULTI_PROBE-1-1-1,2,target-1,memory,0.4445533752441406
2022-05-26T10:39:09.114Z,SHARED_SIDECAR_MULTI_PROBE-1-1-1,2,target-1,memory,0.444305419921875
2022-05-26T10:39:19.114Z,SHARED_SIDECAR_MULTI_PROBE-1-1-1,2,target-1,memory,0.444305419921875
2022-05-26T10:39:29.113Z,SHARED_SIDECAR_MULTI_PROBE-1-1-1,2,target-1,memory,0.444305419921875
2022-05-26T10:39:39.114Z,SHARED_SIDECAR_MULTI_PROBE-1-1-1,2,target-1,memory,0.4450263977050781
2022-05-26T10:39:49.113Z,SHARED_SIDECAR_MULTI_PROBE-1-1-1,2,target-1,memory,0.4452667236328125
2022-05-26T10:39:59.113Z,SHARED_SIDECAR_MULTI_PROBE-1-1-1,2,target-1,memory,0.44525909423828125
2022-05-26T10:40:09.114Z,SHARED_SIDECAR_MULTI_PROBE-1-1-1,2,target-1,memory,0.4452476501464844
2022-05-26T10:40:19.114Z,SHARED_SIDECAR_MULTI_PROBE-1-1-1,2,target-1,memory,0.4452476501464844
2022-05-26T10:40:29.113Z,SHARED_SIDECAR_MULTI_PROBE-1-1-1,2,target-1,memory,0.44500732421875
2022-05-26T10:40:39.114Z,SHARED_SIDECAR_MULTI_PROBE-1-1-1,2,target-1,memory,0.44452667236328125
2022-05-26T10:40:49.114Z,SHARED_SIDECAR_MULTI_PROBE-1-1-1,2,target-1,memory,0.44452667236328125
2022-05-26T10:40:59.113Z,SHARED_SIDECAR_MULTI_PROBE-1-1-1,2,target-1,memory,0.44452667236328125
2022-05-26T10:41:09.114Z,SHARED_SIDECAR_MULTI_PROBE-1-1-1,2,target-1,memory,0.4442787170410156
2022-05-26T10:41:19.113Z,SHARED_SIDECAR_MULTI_PROBE-1-1-1,2,target-1,memory,0.4447517395019531
2022-05-26T10:41:29.113Z,SHARED_SIDECAR_MULTI_PROBE-1-1-1,2,target-1,memory,0.4447517395019531
2022-05-26T10:41:39.113Z,SHARED_SIDECAR_MULTI_PROBE-1-1-1,2,target-1,memory,0.44522857666015625
2022-05-26T10:41:49.114Z,SHARED_SIDECAR_MULTI_PROBE-1-1-1,2,target-1,memory,0.445220947265625
2022-05-26T10:41:59.114Z,SHARED_SIDECAR_MULTI_PROBE-1-1-1,2,target-1,memory,0.445220947265625
2022-05-26T10:42:09.114Z,SHARED_SIDECAR_MULTI_PROBE-1-1-1,2,target-1,memory,0.44498443603515625
2022-05-26T10:42:19.113Z,SHARED_SIDECAR_MULTI_PROBE-1-1-1,2,target-1,memory,0.444976806640625
2022-05-26T10:42:29.114Z,SHARED_SIDECAR_MULTI_PROBE-1-1-1,2,target-1,memory,0.444976806640625
2022-05-26T10:42:39.114Z,SHARED_SIDECAR_MULTI_PROBE-1-1-1,2,target-1,memory,0.44449615478515625
2022-05-26T10:42:49.114Z,SHARED_SIDECAR_MULTI_PROBE-1-1-1,2,target-1,memory,0.44449615478515625
2022-05-26T10:42:59.113Z,SHARED_SIDECAR_MULTI_PROBE-1-1-1,2,target-1,memory,0.4447288513183594
2022-05-26T10:43:09.114Z,SHARED_SIDECAR_MULTI_PROBE-1-1-1,2,target-1,memory,0.4454460144042969
2022-05-26T10:43:19.114Z,SHARED_SIDECAR_MULTI_PROBE-1-1-1,2,target-1,memory,0.44544219970703125
2022-05-26T10:43:29.114Z,SHARED_SIDECAR_MULTI_PROBE-1-1-1,2,target-1,memory,0.4452018737792969
2022-05-26T10:43:39.114Z,SHARED_SIDECAR_MULTI_PROBE-1-1-1,2,target-1,memory,0.4444694519042969
2022-05-26T10:43:49.113Z,SHARED_SIDECAR_MULTI_PROBE-1-1-1,2,target-1,memory,0.4444580078125
2022-05-26T10:43:59.114Z,SHARED_SIDECAR_MULTI_PROBE-1-1-1,2,target-1,memory,0.4446983337402344
2022-05-26T10:44:09.114Z,SHARED_SIDECAR_MULTI_PROBE-1-1-1,2,target-1,memory,0.4446983337402344
2022-05-26T10:46:02.541Z,SHARED_SIDECAR_MULTI_PROBE-1-1-1,3,target-1,memory,0.44660186767578125
2022-05-26T10:46:12.541Z,SHARED_SIDECAR_MULTI_PROBE-1-1-1,3,target-1,memory,0.4466361999511719
2022-05-26T10:46:22.542Z,SHARED_SIDECAR_MULTI_PROBE-1-1-1,3,target-1,memory,0.4466133117675781
2022-05-26T10:46:32.542Z,SHARED_SIDECAR_MULTI_PROBE-1-1-1,3,target-1,memory,0.4470939636230469
2022-05-26T10:46:42.541Z,SHARED_SIDECAR_MULTI_PROBE-1-1-1,3,target-1,memory,0.4478416442871094
2022-05-26T10:46:52.542Z,SHARED_SIDECAR_MULTI_PROBE-1-1-1,3,target-1,memory,0.4470710754394531
2022-05-26T10:47:02.542Z,SHARED_SIDECAR_MULTI_PROBE-1-1-1,3,target-1,memory,0.44683837890625
2022-05-26T10:47:12.541Z,SHARED_SIDECAR_MULTI_PROBE-1-1-1,3,target-1,memory,0.44683074951171875
2022-05-26T10:47:22.542Z,SHARED_SIDECAR_MULTI_PROBE-1-1-1,3,target-1,memory,0.4468231201171875
2022-05-26T10:47:32.542Z,SHARED_SIDECAR_MULTI_PROBE-1-1-1,3,target-1,memory,0.44634246826171875
2022-05-26T10:47:42.541Z,SHARED_SIDECAR_MULTI_PROBE-1-1-1,3,target-1,memory,0.4463348388671875
2022-05-26T10:47:52.541Z,SHARED_SIDECAR_MULTI_PROBE-1-1-1,3,target-1,memory,0.4470558166503906
2022-05-26T10:48:02.542Z,SHARED_SIDECAR_MULTI_PROBE-1-1-1,3,target-1,memory,0.4477729797363281
2022-05-26T10:48:12.541Z,SHARED_SIDECAR_MULTI_PROBE-1-1-1,3,target-1,memory,0.4477729797363281
2022-05-26T10:48:22.542Z,SHARED_SIDECAR_MULTI_PROBE-1-1-1,3,target-1,memory,0.4480133056640625
2022-05-26T10:48:32.541Z,SHARED_SIDECAR_MULTI_PROBE-1-1-1,3,target-1,memory,0.44899749755859375
2022-05-26T10:48:42.541Z,SHARED_SIDECAR_MULTI_PROBE-1-1-1,3,target-1,memory,0.44898223876953125
2022-05-26T10:48:52.541Z,SHARED_SIDECAR_MULTI_PROBE-1-1-1,3,target-1,memory,0.44898223876953125
2022-05-26T10:49:02.542Z,SHARED_SIDECAR_MULTI_PROBE-1-1-1,3,target-1,memory,0.44872283935546875
2022-05-26T10:49:12.541Z,SHARED_SIDECAR_MULTI_PROBE-1-1-1,3,target-1,memory,0.44872283935546875
2022-05-26T10:49:22.541Z,SHARED_SIDECAR_MULTI_PROBE-1-1-1,3,target-1,memory,0.44872283935546875
2022-05-26T10:49:32.541Z,SHARED_SIDECAR_MULTI_PROBE-1-1-1,3,target-1,memory,0.4487190246582031
2022-05-26T10:49:42.541Z,SHARED_SIDECAR_MULTI_PROBE-1-1-1,3,target-1,memory,0.4487190246582031
2022-05-26T10:49:52.542Z,SHARED_SIDECAR_MULTI_PROBE-1-1-1,3,target-1,memory,0.447509765625
2022-05-26T10:50:02.542Z,SHARED_SIDECAR_MULTI_PROBE-1-1-1,3,target-1,memory,0.4475059509277344
2022-05-26T10:50:12.541Z,SHARED_SIDECAR_MULTI_PROBE-1-1-1,3,target-1,memory,0.44774627685546875
2022-05-26T10:50:22.542Z,SHARED_SIDECAR_MULTI_PROBE-1-1-1,3,target-1,memory,0.4472923278808594
2022-05-26T10:50:32.541Z,SHARED_SIDECAR_MULTI_PROBE-1-1-1,3,target-1,memory,0.4472846984863281
2022-05-26T10:50:42.541Z,SHARED_SIDECAR_MULTI_PROBE-1-1-1,3,target-1,memory,0.4477653503417969
2022-05-26T10:50:52.541Z,SHARED_SIDECAR_MULTI_PROBE-1-1-1,3,target-1,memory,0.4477653503417969
2022-05-26T10:51:02.542Z,SHARED_SIDECAR_MULTI_PROBE-1-1-1,3,target-1,memory,0.44775390625
2022-05-26T10:51:12.541Z,SHARED_SIDECAR_MULTI_PROBE-1-1-1,3,target-1,memory,0.4479942321777344
2022-05-26T10:51:22.542Z,SHARED_SIDECAR_MULTI_PROBE-1-1-1,3,target-1,memory,0.44774627685546875
2022-05-26T10:51:32.541Z,SHARED_SIDECAR_MULTI_PROBE-1-1-1,3,target-1,memory,0.4477500915527344
2022-05-26T10:51:42.541Z,SHARED_SIDECAR_MULTI_PROBE-1-1-1,3,target-1,memory,0.4482307434082031
2022-05-26T10:51:52.541Z,SHARED_SIDECAR_MULTI_PROBE-1-1-1,3,target-1,memory,0.44774627685546875
2022-05-26T10:52:02.548Z,SHARED_SIDECAR_MULTI_PROBE-1-1-1,3,target-1,memory,0.44725799560546875
2022-05-26T10:52:12.541Z,SHARED_SIDECAR_MULTI_PROBE-1-1-1,3,target-1,memory,0.44725799560546875
2022-05-26T10:52:22.542Z,SHARED_SIDECAR_MULTI_PROBE-1-1-1,3,target-1,memory,0.44716644287109375
2022-05-26T10:52:32.542Z,SHARED_SIDECAR_MULTI_PROBE-1-1-1,3,target-1,memory,0.447174072265625
2022-05-26T10:52:42.541Z,SHARED_SIDECAR_MULTI_PROBE-1-1-1,3,target-1,memory,0.44716644287109375
2022-05-26T10:52:52.541Z,SHARED_SIDECAR_MULTI_PROBE-1-1-1,3,target-1,memory,0.4466819763183594
2022-05-26T10:53:02.541Z,SHARED_SIDECAR_MULTI_PROBE-1-1-1,3,target-1,memory,0.44667816162109375
2022-05-26T10:53:12.541Z,SHARED_SIDECAR_MULTI_PROBE-1-1-1,3,target-1,memory,0.44667816162109375
2022-05-26T10:53:22.542Z,SHARED_SIDECAR_MULTI_PROBE-1-1-1,3,target-1,memory,0.4466705322265625
2022-05-26T10:53:32.542Z,SHARED_SIDECAR_MULTI_PROBE-1-1-1,3,target-1,memory,0.4469146728515625
2022-05-26T10:53:42.541Z,SHARED_SIDECAR_MULTI_PROBE-1-1-1,3,target-1,memory,0.4469146728515625
2022-05-26T10:53:52.541Z,SHARED_SIDECAR_MULTI_PROBE-1-1-1,3,target-1,memory,0.44785308837890625
2022-05-26T10:54:02.542Z,SHARED_SIDECAR_MULTI_PROBE-1-1-1,3,target-1,memory,0.44785308837890625
2022-05-26T10:54:12.541Z,SHARED_SIDECAR_MULTI_PROBE-1-1-1,3,target-1,memory,0.44785308837890625
2022-05-26T10:54:22.545Z,SHARED_SIDECAR_MULTI_PROBE-1-1-1,3,target-1,memory,0.447845458984375
2022-05-26T10:54:32.542Z,SHARED_SIDECAR_MULTI_PROBE-1-1-1,3,target-1,memory,0.4490470886230469
2022-05-26T10:54:42.541Z,SHARED_SIDECAR_MULTI_PROBE-1-1-1,3,target-1,memory,0.4490470886230469
2022-05-26T10:54:52.542Z,SHARED_SIDECAR_MULTI_PROBE-1-1-1,3,target-1,memory,0.4490470886230469
2022-05-26T10:55:02.542Z,SHARED_SIDECAR_MULTI_PROBE-1-1-1,3,target-1,memory,0.4492759704589844
2022-05-26T10:55:12.541Z,SHARED_SIDECAR_MULTI_PROBE-1-1-1,3,target-1,memory,0.44951629638671875
2022-05-26T10:55:22.544Z,SHARED_SIDECAR_MULTI_PROBE-1-1-1,3,target-1,memory,0.4495124816894531
2022-05-26T10:55:32.542Z,SHARED_SIDECAR_MULTI_PROBE-1-1-1,3,target-1,memory,0.4492645263671875
2022-05-26T10:55:42.541Z,SHARED_SIDECAR_MULTI_PROBE-1-1-1,3,target-1,memory,0.4492645263671875
2022-05-26T10:55:52.542Z,SHARED_SIDECAR_MULTI_PROBE-1-1-1,3,target-1,memory,0.44830322265625
2021-06-07T17:08:35.023Z,SHARED_SIDECAR_MULTI_PROBE-2-1-1,1,target-1,memory,0.41460418701171875
2021-06-07T17:07:15.023Z,SHARED_SIDECAR_MULTI_PROBE-2-1-1,1,target-1,memory,0.4148139953613281
2021-06-07T17:07:45.023Z,SHARED_SIDECAR_MULTI_PROBE-2-1-1,1,target-1,memory,0.41408538818359375
2021-06-07T17:08:25.023Z,SHARED_SIDECAR_MULTI_PROBE-2-1-1,1,target-1,memory,0.414581298828125
2021-06-07T17:07:55.023Z,SHARED_SIDECAR_MULTI_PROBE-2-1-1,1,target-1,memory,0.41408538818359375
2021-06-07T17:07:35.023Z,SHARED_SIDECAR_MULTI_PROBE-2-1-1,1,target-1,memory,0.4148063659667969
2021-06-07T17:08:15.023Z,SHARED_SIDECAR_MULTI_PROBE-2-1-1,1,target-1,memory,0.4145698547363281
2021-06-07T17:08:05.023Z,SHARED_SIDECAR_MULTI_PROBE-2-1-1,1,target-1,memory,0.41411590576171875
2021-06-07T17:07:25.023Z,SHARED_SIDECAR_MULTI_PROBE-2-1-1,1,target-1,memory,0.4148139953613281
2021-06-07T17:12:55.023Z,SHARED_SIDECAR_MULTI_PROBE-2-1-1,1,target-1,memory,0.41440582275390625
2021-06-07T17:12:45.023Z,SHARED_SIDECAR_MULTI_PROBE-2-1-1,1,target-1,memory,0.41440582275390625
2021-06-07T17:12:15.023Z,SHARED_SIDECAR_MULTI_PROBE-2-1-1,1,target-1,memory,0.4146575927734375
2021-06-07T17:12:35.023Z,SHARED_SIDECAR_MULTI_PROBE-2-1-1,1,target-1,memory,0.4146537780761719
2021-06-07T17:12:25.023Z,SHARED_SIDECAR_MULTI_PROBE-2-1-1,1,target-1,memory,0.4146575927734375
2021-06-07T17:11:45.023Z,SHARED_SIDECAR_MULTI_PROBE-2-1-1,1,target-1,memory,0.4144248962402344
2021-06-07T17:13:05.023Z,SHARED_SIDECAR_MULTI_PROBE-2-1-1,1,target-1,memory,0.41436767578125
2021-06-07T17:12:05.023Z,SHARED_SIDECAR_MULTI_PROBE-2-1-1,1,target-1,memory,0.4144248962402344
2021-06-07T17:11:55.023Z,SHARED_SIDECAR_MULTI_PROBE-2-1-1,1,target-1,memory,0.4144248962402344
2021-06-07T17:06:45.023Z,SHARED_SIDECAR_MULTI_PROBE-2-1-1,1,target-1,memory,0.4143943786621094
2021-06-07T17:07:05.023Z,SHARED_SIDECAR_MULTI_PROBE-2-1-1,1,target-1,memory,0.4143333435058594
2021-06-07T17:05:55.023Z,SHARED_SIDECAR_MULTI_PROBE-2-1-1,1,target-1,memory,0.413421630859375
2021-06-07T17:06:25.023Z,SHARED_SIDECAR_MULTI_PROBE-2-1-1,1,target-1,memory,0.4146461486816406
2021-06-07T17:06:05.023Z,SHARED_SIDECAR_MULTI_PROBE-2-1-1,1,target-1,memory,0.41341400146484375
2021-06-07T17:06:55.023Z,SHARED_SIDECAR_MULTI_PROBE-2-1-1,1,target-1,memory,0.41439056396484375
2021-06-07T17:05:45.023Z,SHARED_SIDECAR_MULTI_PROBE-2-1-1,1,target-1,memory,0.413421630859375
2021-06-07T17:06:35.023Z,SHARED_SIDECAR_MULTI_PROBE-2-1-1,1,target-1,memory,0.4146385192871094
2021-06-07T17:06:15.023Z,SHARED_SIDECAR_MULTI_PROBE-2-1-1,1,target-1,memory,0.41341400146484375
2021-06-07T17:10:45.023Z,SHARED_SIDECAR_MULTI_PROBE-2-1-1,1,target-1,memory,0.4144477844238281
2021-06-07T17:10:35.023Z,SHARED_SIDECAR_MULTI_PROBE-2-1-1,1,target-1,memory,0.41454315185546875
2021-06-07T17:11:15.023Z,SHARED_SIDECAR_MULTI_PROBE-2-1-1,1,target-1,memory,0.4146728515625
2021-06-07T17:10:25.023Z,SHARED_SIDECAR_MULTI_PROBE-2-1-1,1,target-1,memory,0.4145545959472656
2021-06-07T17:11:05.023Z,SHARED_SIDECAR_MULTI_PROBE-2-1-1,1,target-1,memory,0.4146766662597656
2021-06-07T17:11:25.023Z,SHARED_SIDECAR_MULTI_PROBE-2-1-1,1,target-1,memory,0.4144287109375
2021-06-07T17:10:15.024Z,SHARED_SIDECAR_MULTI_PROBE-2-1-1,1,target-1,memory,0.41431427001953125
2021-06-07T17:11:35.023Z,SHARED_SIDECAR_MULTI_PROBE-2-1-1,1,target-1,memory,0.41442108154296875
2021-06-07T17:10:55.023Z,SHARED_SIDECAR_MULTI_PROBE-2-1-1,1,target-1,memory,0.4144477844238281
2021-06-07T17:14:45.023Z,SHARED_SIDECAR_MULTI_PROBE-2-1-1,1,target-1,memory,0.4143333435058594
2021-06-07T17:14:55.023Z,SHARED_SIDECAR_MULTI_PROBE-2-1-1,1,target-1,memory,0.4143333435058594
2021-06-07T17:05:05.023Z,SHARED_SIDECAR_MULTI_PROBE-2-1-1,1,target-1,memory,0.4133796691894531
2021-06-07T17:05:15.023Z,SHARED_SIDECAR_MULTI_PROBE-2-1-1,1,target-1,memory,0.41364288330078125
2021-06-07T17:05:25.023Z,SHARED_SIDECAR_MULTI_PROBE-2-1-1,1,target-1,memory,0.41364288330078125
2021-06-07T17:05:35.023Z,SHARED_SIDECAR_MULTI_PROBE-2-1-1,1,target-1,memory,0.4136695861816406
2021-06-07T17:08:45.023Z,SHARED_SIDECAR_MULTI_PROBE-2-1-1,1,target-1,memory,0.4136314392089844
2021-06-07T17:09:05.023Z,SHARED_SIDECAR_MULTI_PROBE-2-1-1,1,target-1,memory,0.4136199951171875
2021-06-07T17:09:55.023Z,SHARED_SIDECAR_MULTI_PROBE-2-1-1,1,target-1,memory,0.4145660400390625
2021-06-07T17:09:45.023Z,SHARED_SIDECAR_MULTI_PROBE-2-1-1,1,target-1,memory,0.4143257141113281
2021-06-07T17:09:15.023Z,SHARED_SIDECAR_MULTI_PROBE-2-1-1,1,target-1,memory,0.41361236572265625
2021-06-07T17:09:35.023Z,SHARED_SIDECAR_MULTI_PROBE-2-1-1,1,target-1,memory,0.41361236572265625
2021-06-07T17:10:05.023Z,SHARED_SIDECAR_MULTI_PROBE-2-1-1,1,target-1,memory,0.4145622253417969
2021-06-07T17:08:55.023Z,SHARED_SIDECAR_MULTI_PROBE-2-1-1,1,target-1,memory,0.4136314392089844
2021-06-07T17:09:25.023Z,SHARED_SIDECAR_MULTI_PROBE-2-1-1,1,target-1,memory,0.41361236572265625
2021-06-07T17:13:45.023Z,SHARED_SIDECAR_MULTI_PROBE-2-1-1,1,target-1,memory,0.41458892822265625
2021-06-07T17:13:15.023Z,SHARED_SIDECAR_MULTI_PROBE-2-1-1,1,target-1,memory,0.4145965576171875
2021-06-07T17:13:35.023Z,SHARED_SIDECAR_MULTI_PROBE-2-1-1,1,target-1,memory,0.4145965576171875
2021-06-07T17:14:35.023Z,SHARED_SIDECAR_MULTI_PROBE-2-1-1,1,target-1,memory,0.4138603210449219
2021-06-07T17:14:25.023Z,SHARED_SIDECAR_MULTI_PROBE-2-1-1,1,target-1,memory,0.4138641357421875
2021-06-07T17:14:05.023Z,SHARED_SIDECAR_MULTI_PROBE-2-1-1,1,target-1,memory,0.414581298828125
2021-06-07T17:13:25.023Z,SHARED_SIDECAR_MULTI_PROBE-2-1-1,1,target-1,memory,0.4145965576171875
2021-06-07T17:14:15.023Z,SHARED_SIDECAR_MULTI_PROBE-2-1-1,1,target-1,memory,0.4138641357421875
2021-06-07T17:13:55.023Z,SHARED_SIDECAR_MULTI_PROBE-2-1-1,1,target-1,memory,0.41458892822265625
2021-06-07T17:17:00.174Z,SHARED_SIDECAR_MULTI_PROBE-2-1-1,2,target-1,memory,0.4138641357421875
2021-06-07T17:16:50.174Z,SHARED_SIDECAR_MULTI_PROBE-2-1-1,2,target-1,memory,0.412841796875
2021-06-07T17:17:10.174Z,SHARED_SIDECAR_MULTI_PROBE-2-1-1,2,target-1,memory,0.4139556884765625
2021-06-07T17:17:20.174Z,SHARED_SIDECAR_MULTI_PROBE-2-1-1,2,target-1,memory,0.4139862060546875
2021-06-07T17:18:30.174Z,SHARED_SIDECAR_MULTI_PROBE-2-1-1,2,target-1,memory,0.4142570495605469
2021-06-07T17:18:20.174Z,SHARED_SIDECAR_MULTI_PROBE-2-1-1,2,target-1,memory,0.41423797607421875
2021-06-07T17:17:40.175Z,SHARED_SIDECAR_MULTI_PROBE-2-1-1,2,target-1,memory,0.4139747619628906
2021-06-07T17:17:30.174Z,SHARED_SIDECAR_MULTI_PROBE-2-1-1,2,target-1,memory,0.41422271728515625
2021-06-07T17:18:10.174Z,SHARED_SIDECAR_MULTI_PROBE-2-1-1,2,target-1,memory,0.41423797607421875
2021-06-07T17:18:00.174Z,SHARED_SIDECAR_MULTI_PROBE-2-1-1,2,target-1,memory,0.4140052795410156
2021-06-07T17:17:50.174Z,SHARED_SIDECAR_MULTI_PROBE-2-1-1,2,target-1,memory,0.4140052795410156
2021-06-07T17:19:20.174Z,SHARED_SIDECAR_MULTI_PROBE-2-1-1,2,target-1,memory,0.4165802001953125
2021-06-07T17:19:30.174Z,SHARED_SIDECAR_MULTI_PROBE-2-1-1,2,target-1,memory,0.4166107177734375
2021-06-07T17:18:50.174Z,SHARED_SIDECAR_MULTI_PROBE-2-1-1,2,target-1,memory,0.4148750305175781
2021-06-07T17:19:10.174Z,SHARED_SIDECAR_MULTI_PROBE-2-1-1,2,target-1,memory,0.4165802001953125
2021-06-07T17:18:40.174Z,SHARED_SIDECAR_MULTI_PROBE-2-1-1,2,target-1,memory,0.41423797607421875
2021-06-07T17:19:00.174Z,SHARED_SIDECAR_MULTI_PROBE-2-1-1,2,target-1,memory,0.4148750305175781
2021-06-07T17:20:00.174Z,SHARED_SIDECAR_MULTI_PROBE-2-1-1,2,target-1,memory,0.41663360595703125
2021-06-07T17:19:40.174Z,SHARED_SIDECAR_MULTI_PROBE-2-1-1,2,target-1,memory,0.41660308837890625
2021-06-07T17:19:50.174Z,SHARED_SIDECAR_MULTI_PROBE-2-1-1,2,target-1,memory,0.41663360595703125
2021-06-07T17:21:20.174Z,SHARED_SIDECAR_MULTI_PROBE-2-1-1,2,target-1,memory,0.41638946533203125
2021-06-07T17:20:10.174Z,SHARED_SIDECAR_MULTI_PROBE-2-1-1,2,target-1,memory,0.4164314270019531
2021-06-07T17:20:50.174Z,SHARED_SIDECAR_MULTI_PROBE-2-1-1,2,target-1,memory,0.4161567687988281
2021-06-07T17:21:00.174Z,SHARED_SIDECAR_MULTI_PROBE-2-1-1,2,target-1,memory,0.4161567687988281
2021-06-07T17:20:20.174Z,SHARED_SIDECAR_MULTI_PROBE-2-1-1,2,target-1,memory,0.41640472412109375
2021-06-07T17:20:40.175Z,SHARED_SIDECAR_MULTI_PROBE-2-1-1,2,target-1,memory,0.4161643981933594
2021-06-07T17:20:30.174Z,SHARED_SIDECAR_MULTI_PROBE-2-1-1,2,target-1,memory,0.41640472412109375
2021-06-07T17:21:10.174Z,SHARED_SIDECAR_MULTI_PROBE-2-1-1,2,target-1,memory,0.41640472412109375
2021-06-07T17:21:30.174Z,SHARED_SIDECAR_MULTI_PROBE-2-1-1,2,target-1,memory,0.41638946533203125
2021-06-07T17:22:20.175Z,SHARED_SIDECAR_MULTI_PROBE-2-1-1,2,target-1,memory,0.41587066650390625
2021-06-07T17:21:50.174Z,SHARED_SIDECAR_MULTI_PROBE-2-1-1,2,target-1,memory,0.4163818359375
2021-06-07T17:21:40.174Z,SHARED_SIDECAR_MULTI_PROBE-2-1-1,2,target-1,memory,0.41638946533203125
2021-06-07T17:22:10.174Z,SHARED_SIDECAR_MULTI_PROBE-2-1-1,2,target-1,memory,0.4158897399902344
2021-06-07T17:22:30.174Z,SHARED_SIDECAR_MULTI_PROBE-2-1-1,2,target-1,memory,0.41587066650390625
2021-06-07T17:22:40.174Z,SHARED_SIDECAR_MULTI_PROBE-2-1-1,2,target-1,memory,0.4161109924316406
2021-06-07T17:22:00.174Z,SHARED_SIDECAR_MULTI_PROBE-2-1-1,2,target-1,memory,0.4163818359375
2021-06-07T17:22:50.174Z,SHARED_SIDECAR_MULTI_PROBE-2-1-1,2,target-1,memory,0.416107177734375
2021-06-07T17:23:20.174Z,SHARED_SIDECAR_MULTI_PROBE-2-1-1,2,target-1,memory,0.4156150817871094
2021-06-07T17:23:00.174Z,SHARED_SIDECAR_MULTI_PROBE-2-1-1,2,target-1,memory,0.416107177734375
2021-06-07T17:23:10.174Z,SHARED_SIDECAR_MULTI_PROBE-2-1-1,2,target-1,memory,0.4156303405761719
2021-06-07T17:23:30.174Z,SHARED_SIDECAR_MULTI_PROBE-2-1-1,2,target-1,memory,0.4156150817871094
2021-06-07T17:24:10.174Z,SHARED_SIDECAR_MULTI_PROBE-2-1-1,2,target-1,memory,0.41558837890625
2021-06-07T17:23:40.174Z,SHARED_SIDECAR_MULTI_PROBE-2-1-1,2,target-1,memory,0.4160804748535156
2021-06-07T17:23:50.174Z,SHARED_SIDECAR_MULTI_PROBE-2-1-1,2,target-1,memory,0.41606903076171875
2021-06-07T17:24:00.174Z,SHARED_SIDECAR_MULTI_PROBE-2-1-1,2,target-1,memory,0.41606903076171875
2021-06-07T17:24:20.174Z,SHARED_SIDECAR_MULTI_PROBE-2-1-1,2,target-1,memory,0.41558074951171875
2021-06-07T17:24:40.174Z,SHARED_SIDECAR_MULTI_PROBE-2-1-1,2,target-1,memory,0.4160614013671875
2021-06-07T17:24:30.174Z,SHARED_SIDECAR_MULTI_PROBE-2-1-1,2,target-1,memory,0.41558074951171875
2021-06-07T17:24:50.174Z,SHARED_SIDECAR_MULTI_PROBE-2-1-1,2,target-1,memory,0.4160614013671875
2021-06-07T17:25:00.174Z,SHARED_SIDECAR_MULTI_PROBE-2-1-1,2,target-1,memory,0.4160614013671875
2021-06-07T17:25:20.174Z,SHARED_SIDECAR_MULTI_PROBE-2-1-1,2,target-1,memory,0.416046142578125
2021-06-07T17:25:10.174Z,SHARED_SIDECAR_MULTI_PROBE-2-1-1,2,target-1,memory,0.4160614013671875
2021-06-07T17:25:40.174Z,SHARED_SIDECAR_MULTI_PROBE-2-1-1,2,target-1,memory,0.4160499572753906
2021-06-07T17:25:30.174Z,SHARED_SIDECAR_MULTI_PROBE-2-1-1,2,target-1,memory,0.416046142578125
2021-06-07T17:25:50.174Z,SHARED_SIDECAR_MULTI_PROBE-2-1-1,2,target-1,memory,0.4160499572753906
2021-06-07T17:26:20.174Z,SHARED_SIDECAR_MULTI_PROBE-2-1-1,2,target-1,memory,0.4160308837890625
2021-06-07T17:26:30.174Z,SHARED_SIDECAR_MULTI_PROBE-2-1-1,2,target-1,memory,0.4160308837890625
2021-06-07T17:26:10.174Z,SHARED_SIDECAR_MULTI_PROBE-2-1-1,2,target-1,memory,0.41603851318359375
2021-06-07T17:26:00.174Z,SHARED_SIDECAR_MULTI_PROBE-2-1-1,2,target-1,memory,0.4160499572753906
2021-06-07T17:26:40.174Z,SHARED_SIDECAR_MULTI_PROBE-2-1-1,2,target-1,memory,0.4160308837890625
2021-06-07T17:28:43.650Z,SHARED_SIDECAR_MULTI_PROBE-2-1-1,3,target-1,memory,0.4135284423828125
2021-06-07T17:28:53.651Z,SHARED_SIDECAR_MULTI_PROBE-2-1-1,3,target-1,memory,0.4137687683105469
2021-06-07T17:29:13.650Z,SHARED_SIDECAR_MULTI_PROBE-2-1-1,3,target-1,memory,0.4135475158691406
2021-06-07T17:29:03.650Z,SHARED_SIDECAR_MULTI_PROBE-2-1-1,3,target-1,memory,0.41355133056640625
2021-06-07T17:28:33.650Z,SHARED_SIDECAR_MULTI_PROBE-2-1-1,3,target-1,memory,0.41205596923828125
2021-06-07T17:30:43.650Z,SHARED_SIDECAR_MULTI_PROBE-2-1-1,3,target-1,memory,0.4132804870605469
2021-06-07T17:29:53.650Z,SHARED_SIDECAR_MULTI_PROBE-2-1-1,3,target-1,memory,0.4130592346191406
2021-06-07T17:30:03.650Z,SHARED_SIDECAR_MULTI_PROBE-2-1-1,3,target-1,memory,0.41304779052734375
2021-06-07T17:30:13.650Z,SHARED_SIDECAR_MULTI_PROBE-2-1-1,3,target-1,memory,0.4132881164550781
2021-06-07T17:29:43.650Z,SHARED_SIDECAR_MULTI_PROBE-2-1-1,3,target-1,memory,0.4130592346191406
2021-06-07T17:30:23.650Z,SHARED_SIDECAR_MULTI_PROBE-2-1-1,3,target-1,memory,0.4132881164550781
2021-06-07T17:30:33.650Z,SHARED_SIDECAR_MULTI_PROBE-2-1-1,3,target-1,memory,0.4132881164550781
2021-06-07T17:29:23.650Z,SHARED_SIDECAR_MULTI_PROBE-2-1-1,3,target-1,memory,0.4135475158691406
2021-06-07T17:29:33.650Z,SHARED_SIDECAR_MULTI_PROBE-2-1-1,3,target-1,memory,0.4135475158691406
2021-06-07T17:31:13.650Z,SHARED_SIDECAR_MULTI_PROBE-2-1-1,3,target-1,memory,0.41357421875
2021-06-07T17:32:03.650Z,SHARED_SIDECAR_MULTI_PROBE-2-1-1,3,target-1,memory,0.4135932922363281
2021-06-07T17:32:13.650Z,SHARED_SIDECAR_MULTI_PROBE-2-1-1,3,target-1,memory,0.4135856628417969
2021-06-07T17:31:43.650Z,SHARED_SIDECAR_MULTI_PROBE-2-1-1,3,target-1,memory,0.41356658935546875
2021-06-07T17:31:23.655Z,SHARED_SIDECAR_MULTI_PROBE-2-1-1,3,target-1,memory,0.41357421875
2021-06-07T17:31:03.650Z,SHARED_SIDECAR_MULTI_PROBE-2-1-1,3,target-1,memory,0.4133338928222656
2021-06-07T17:31:33.650Z,SHARED_SIDECAR_MULTI_PROBE-2-1-1,3,target-1,memory,0.41357421875
2021-06-07T17:30:53.650Z,SHARED_SIDECAR_MULTI_PROBE-2-1-1,3,target-1,memory,0.4132804870605469
2021-06-07T17:31:53.651Z,SHARED_SIDECAR_MULTI_PROBE-2-1-1,3,target-1,memory,0.41356658935546875
2021-06-07T17:32:43.650Z,SHARED_SIDECAR_MULTI_PROBE-2-1-1,3,target-1,memory,0.41333770751953125
2021-06-07T17:32:33.650Z,SHARED_SIDECAR_MULTI_PROBE-2-1-1,3,target-1,memory,0.4135856628417969
2021-06-07T17:33:13.650Z,SHARED_SIDECAR_MULTI_PROBE-2-1-1,3,target-1,memory,0.413330078125
2021-06-07T17:33:23.650Z,SHARED_SIDECAR_MULTI_PROBE-2-1-1,3,target-1,memory,0.413330078125
2021-06-07T17:33:03.650Z,SHARED_SIDECAR_MULTI_PROBE-2-1-1,3,target-1,memory,0.413330078125
2021-06-07T17:32:23.650Z,SHARED_SIDECAR_MULTI_PROBE-2-1-1,3,target-1,memory,0.4135856628417969
2021-06-07T17:33:43.650Z,SHARED_SIDECAR_MULTI_PROBE-2-1-1,3,target-1,memory,0.41259765625
2021-06-07T17:32:53.650Z,SHARED_SIDECAR_MULTI_PROBE-2-1-1,3,target-1,memory,0.41333770751953125
2021-06-07T17:33:33.650Z,SHARED_SIDECAR_MULTI_PROBE-2-1-1,3,target-1,memory,0.4133262634277344
2021-06-07T17:35:13.650Z,SHARED_SIDECAR_MULTI_PROBE-2-1-1,3,target-1,memory,0.41324615478515625
2021-06-07T17:35:03.650Z,SHARED_SIDECAR_MULTI_PROBE-2-1-1,3,target-1,memory,0.4132537841796875
2021-06-07T17:33:53.650Z,SHARED_SIDECAR_MULTI_PROBE-2-1-1,3,target-1,memory,0.4125938415527344
2021-06-07T17:34:33.650Z,SHARED_SIDECAR_MULTI_PROBE-2-1-1,3,target-1,memory,0.4132499694824219
2021-06-07T17:34:43.650Z,SHARED_SIDECAR_MULTI_PROBE-2-1-1,3,target-1,memory,0.4132537841796875
2021-06-07T17:34:03.650Z,SHARED_SIDECAR_MULTI_PROBE-2-1-1,3,target-1,memory,0.41253662109375
2021-06-07T17:34:13.650Z,SHARED_SIDECAR_MULTI_PROBE-2-1-1,3,target-1,memory,0.4132575988769531
2021-06-07T17:34:53.650Z,SHARED_SIDECAR_MULTI_PROBE-2-1-1,3,target-1,memory,0.4132537841796875
2021-06-07T17:34:23.650Z,SHARED_SIDECAR_MULTI_PROBE-2-1-1,3,target-1,memory,0.4132575988769531
2021-06-07T17:36:23.650Z,SHARED_SIDECAR_MULTI_PROBE-2-1-1,3,target-1,memory,0.4129829406738281
2021-06-07T17:35:53.650Z,SHARED_SIDECAR_MULTI_PROBE-2-1-1,3,target-1,memory,0.4132347106933594
2021-06-07T17:36:43.650Z,SHARED_SIDECAR_MULTI_PROBE-2-1-1,3,target-1,memory,0.4134559631347656
2021-06-07T17:35:23.650Z,SHARED_SIDECAR_MULTI_PROBE-2-1-1,3,target-1,memory,0.41324615478515625
2021-06-07T17:36:13.650Z,SHARED_SIDECAR_MULTI_PROBE-2-1-1,3,target-1,memory,0.4129905700683594
2021-06-07T17:35:33.650Z,SHARED_SIDECAR_MULTI_PROBE-2-1-1,3,target-1,memory,0.41324615478515625
2021-06-07T17:36:03.650Z,SHARED_SIDECAR_MULTI_PROBE-2-1-1,3,target-1,memory,0.4132270812988281
2021-06-07T17:35:43.650Z,SHARED_SIDECAR_MULTI_PROBE-2-1-1,3,target-1,memory,0.4132347106933594
2021-06-07T17:36:33.650Z,SHARED_SIDECAR_MULTI_PROBE-2-1-1,3,target-1,memory,0.4129829406738281
2021-06-07T17:38:13.650Z,SHARED_SIDECAR_MULTI_PROBE-2-1-1,3,target-1,memory,0.4151458740234375
2021-06-07T17:38:03.650Z,SHARED_SIDECAR_MULTI_PROBE-2-1-1,3,target-1,memory,0.4151458740234375
2021-06-07T17:37:13.650Z,SHARED_SIDECAR_MULTI_PROBE-2-1-1,3,target-1,memory,0.4132041931152344
2021-06-07T17:36:53.650Z,SHARED_SIDECAR_MULTI_PROBE-2-1-1,3,target-1,memory,0.4134559631347656
2021-06-07T17:37:53.650Z,SHARED_SIDECAR_MULTI_PROBE-2-1-1,3,target-1,memory,0.4131927490234375
2021-06-07T17:37:33.650Z,SHARED_SIDECAR_MULTI_PROBE-2-1-1,3,target-1,memory,0.4132041931152344
2021-06-07T17:37:03.650Z,SHARED_SIDECAR_MULTI_PROBE-2-1-1,3,target-1,memory,0.4134483337402344
2021-06-07T17:37:43.650Z,SHARED_SIDECAR_MULTI_PROBE-2-1-1,3,target-1,memory,0.4131927490234375
2021-06-07T17:37:23.650Z,SHARED_SIDECAR_MULTI_PROBE-2-1-1,3,target-1,memory,0.4132041931152344
2021-06-07T17:38:23.650Z,SHARED_SIDECAR_MULTI_PROBE-2-1-1,3,target-1,memory,0.41513824462890625
2021-06-08T04:28:30.236Z,SHARED_SIDECAR_MULTI_PROBE-4-1-1,1,target-1,memory,0.4127082824707031
2021-06-08T04:29:00.235Z,SHARED_SIDECAR_MULTI_PROBE-4-1-1,1,target-1,memory,0.4122772216796875
2021-06-08T04:28:20.235Z,SHARED_SIDECAR_MULTI_PROBE-4-1-1,1,target-1,memory,0.4122314453125
2021-06-08T04:28:50.235Z,SHARED_SIDECAR_MULTI_PROBE-4-1-1,1,target-1,memory,0.4127006530761719
2021-06-08T04:28:40.236Z,SHARED_SIDECAR_MULTI_PROBE-4-1-1,1,target-1,memory,0.4127082824707031
2021-06-08T04:33:00.236Z,SHARED_SIDECAR_MULTI_PROBE-4-1-1,1,target-1,memory,0.4122810363769531
2021-06-08T04:33:30.235Z,SHARED_SIDECAR_MULTI_PROBE-4-1-1,1,target-1,memory,0.4117774963378906
2021-06-08T04:33:20.235Z,SHARED_SIDECAR_MULTI_PROBE-4-1-1,1,target-1,memory,0.4122810363769531
2021-06-08T04:33:10.236Z,SHARED_SIDECAR_MULTI_PROBE-4-1-1,1,target-1,memory,0.4122810363769531
2021-06-08T04:32:50.236Z,SHARED_SIDECAR_MULTI_PROBE-4-1-1,1,target-1,memory,0.41156005859375
2021-06-08T04:36:20.235Z,SHARED_SIDECAR_MULTI_PROBE-4-1-1,1,target-1,memory,0.4122047424316406
2021-06-08T04:36:30.236Z,SHARED_SIDECAR_MULTI_PROBE-4-1-1,1,target-1,memory,0.4121971130371094
2021-06-08T04:36:00.236Z,SHARED_SIDECAR_MULTI_PROBE-4-1-1,1,target-1,memory,0.4122047424316406
2021-06-08T04:35:50.236Z,SHARED_SIDECAR_MULTI_PROBE-4-1-1,1,target-1,memory,0.41222381591796875
2021-06-08T04:36:10.236Z,SHARED_SIDECAR_MULTI_PROBE-4-1-1,1,target-1,memory,0.4122047424316406
2021-06-08T04:30:30.236Z,SHARED_SIDECAR_MULTI_PROBE-4-1-1,1,target-1,memory,0.41255950927734375
2021-06-08T04:30:00.236Z,SHARED_SIDECAR_MULTI_PROBE-4-1-1,1,target-1,memory,0.4131622314453125
2021-06-08T04:30:10.235Z,SHARED_SIDECAR_MULTI_PROBE-4-1-1,1,target-1,memory,0.4131622314453125
2021-06-08T04:30:20.235Z,SHARED_SIDECAR_MULTI_PROBE-4-1-1,1,target-1,memory,0.4131622314453125
2021-06-08T04:29:50.236Z,SHARED_SIDECAR_MULTI_PROBE-4-1-1,1,target-1,memory,0.412689208984375
2021-06-08T04:34:20.235Z,SHARED_SIDECAR_MULTI_PROBE-4-1-1,1,target-1,memory,0.4122505187988281
2021-06-08T04:35:00.236Z,SHARED_SIDECAR_MULTI_PROBE-4-1-1,1,target-1,memory,0.4122314453125
2021-06-08T04:34:30.236Z,SHARED_SIDECAR_MULTI_PROBE-4-1-1,1,target-1,memory,0.4120063781738281
2021-06-08T04:34:50.236Z,SHARED_SIDECAR_MULTI_PROBE-4-1-1,1,target-1,memory,0.4119987487792969
2021-06-08T04:34:40.236Z,SHARED_SIDECAR_MULTI_PROBE-4-1-1,1,target-1,memory,0.4119987487792969
2021-06-08T04:32:00.236Z,SHARED_SIDECAR_MULTI_PROBE-4-1-1,1,target-1,memory,0.41213226318359375
2021-06-08T04:31:40.236Z,SHARED_SIDECAR_MULTI_PROBE-4-1-1,1,target-1,memory,0.4116630554199219
2021-06-08T04:31:50.236Z,SHARED_SIDECAR_MULTI_PROBE-4-1-1,1,target-1,memory,0.41165924072265625
2021-06-08T04:31:30.236Z,SHARED_SIDECAR_MULTI_PROBE-4-1-1,1,target-1,memory,0.4116706848144531
2021-06-08T04:31:20.235Z,SHARED_SIDECAR_MULTI_PROBE-4-1-1,1,target-1,memory,0.4125518798828125
2021-06-08T04:37:20.236Z,SHARED_SIDECAR_MULTI_PROBE-4-1-1,1,target-1,memory,0.41194915771484375
2021-06-08T04:31:00.236Z,SHARED_SIDECAR_MULTI_PROBE-4-1-1,1,target-1,memory,0.41255950927734375
2021-06-08T04:30:40.236Z,SHARED_SIDECAR_MULTI_PROBE-4-1-1,1,target-1,memory,0.41255950927734375
2021-06-08T04:30:50.236Z,SHARED_SIDECAR_MULTI_PROBE-4-1-1,1,target-1,memory,0.4123344421386719
2021-06-08T04:31:10.236Z,SHARED_SIDECAR_MULTI_PROBE-4-1-1,1,target-1,memory,0.4125518798828125
2021-06-08T04:37:10.236Z,SHARED_SIDECAR_MULTI_PROBE-4-1-1,1,target-1,memory,0.41194915771484375
2021-06-08T04:36:50.235Z,SHARED_SIDECAR_MULTI_PROBE-4-1-1,1,target-1,memory,0.4121971130371094
2021-06-08T04:36:40.236Z,SHARED_SIDECAR_MULTI_PROBE-4-1-1,1,target-1,memory,0.4121971130371094
2021-06-08T04:37:00.236Z,SHARED_SIDECAR_MULTI_PROBE-4-1-1,1,target-1,memory,0.41194915771484375
2021-06-08T04:27:50.235Z,SHARED_SIDECAR_MULTI_PROBE-4-1-1,1,target-1,memory,0.4120635986328125
2021-06-08T04:27:40.235Z,SHARED_SIDECAR_MULTI_PROBE-4-1-1,1,target-1,memory,0.4120635986328125
2021-06-08T04:28:10.236Z,SHARED_SIDECAR_MULTI_PROBE-4-1-1,1,target-1,memory,0.4123268127441406
2021-06-08T04:28:00.236Z,SHARED_SIDECAR_MULTI_PROBE-4-1-1,1,target-1,memory,0.4123268127441406
2021-06-08T04:29:40.236Z,SHARED_SIDECAR_MULTI_PROBE-4-1-1,1,target-1,memory,0.412689208984375
2021-06-08T04:29:30.236Z,SHARED_SIDECAR_MULTI_PROBE-4-1-1,1,target-1,memory,0.412689208984375
2021-06-08T04:29:20.235Z,SHARED_SIDECAR_MULTI_PROBE-4-1-1,1,target-1,memory,0.4122772216796875
2021-06-08T04:29:10.236Z,SHARED_SIDECAR_MULTI_PROBE-4-1-1,1,target-1,memory,0.4122772216796875
2021-06-08T04:34:10.236Z,SHARED_SIDECAR_MULTI_PROBE-4-1-1,1,target-1,memory,0.4122505187988281
2021-06-08T04:33:50.235Z,SHARED_SIDECAR_MULTI_PROBE-4-1-1,1,target-1,memory,0.4117774963378906
2021-06-08T04:34:00.236Z,SHARED_SIDECAR_MULTI_PROBE-4-1-1,1,target-1,memory,0.4122581481933594
2021-06-08T04:33:40.236Z,SHARED_SIDECAR_MULTI_PROBE-4-1-1,1,target-1,memory,0.4117774963378906
2021-06-08T04:27:30.235Z,SHARED_SIDECAR_MULTI_PROBE-4-1-1,1,target-1,memory,0.4120330810546875
2021-06-08T04:32:40.236Z,SHARED_SIDECAR_MULTI_PROBE-4-1-1,1,target-1,memory,0.41156005859375
2021-06-08T04:32:20.236Z,SHARED_SIDECAR_MULTI_PROBE-4-1-1,1,target-1,memory,0.4120750427246094
2021-06-08T04:32:10.236Z,SHARED_SIDECAR_MULTI_PROBE-4-1-1,1,target-1,memory,0.41213226318359375
2021-06-08T04:32:30.235Z,SHARED_SIDECAR_MULTI_PROBE-4-1-1,1,target-1,memory,0.41156768798828125
2021-06-08T04:35:30.236Z,SHARED_SIDECAR_MULTI_PROBE-4-1-1,1,target-1,memory,0.41222381591796875
2021-06-08T04:35:20.235Z,SHARED_SIDECAR_MULTI_PROBE-4-1-1,1,target-1,memory,0.4122314453125
2021-06-08T04:35:40.236Z,SHARED_SIDECAR_MULTI_PROBE-4-1-1,1,target-1,memory,0.41222381591796875
2021-06-08T04:35:10.235Z,SHARED_SIDECAR_MULTI_PROBE-4-1-1,1,target-1,memory,0.4122314453125
2021-06-08T04:44:53.149Z,SHARED_SIDECAR_MULTI_PROBE-4-1-1,2,target-1,memory,0.418243408203125
2021-06-08T04:45:43.149Z,SHARED_SIDECAR_MULTI_PROBE-4-1-1,2,target-1,memory,0.4191780090332031
2021-06-08T04:44:43.149Z,SHARED_SIDECAR_MULTI_PROBE-4-1-1,2,target-1,memory,0.418243408203125
2021-06-08T04:45:03.149Z,SHARED_SIDECAR_MULTI_PROBE-4-1-1,2,target-1,memory,0.41919708251953125
2021-06-08T04:45:33.149Z,SHARED_SIDECAR_MULTI_PROBE-4-1-1,2,target-1,memory,0.419189453125
2021-06-08T04:45:53.149Z,SHARED_SIDECAR_MULTI_PROBE-4-1-1,2,target-1,memory,0.4191703796386719
2021-06-08T04:45:13.149Z,SHARED_SIDECAR_MULTI_PROBE-4-1-1,2,target-1,memory,0.41919708251953125
2021-06-08T04:45:23.149Z,SHARED_SIDECAR_MULTI_PROBE-4-1-1,2,target-1,memory,0.41919708251953125
2021-06-08T04:44:33.149Z,SHARED_SIDECAR_MULTI_PROBE-4-1-1,2,target-1,memory,0.418243408203125
2021-06-08T04:41:13.149Z,SHARED_SIDECAR_MULTI_PROBE-4-1-1,2,target-1,memory,0.4196319580078125
2021-06-08T04:40:43.149Z,SHARED_SIDECAR_MULTI_PROBE-4-1-1,2,target-1,memory,0.4182472229003906
2021-06-08T04:40:53.149Z,SHARED_SIDECAR_MULTI_PROBE-4-1-1,2,target-1,memory,0.4182472229003906
2021-06-08T04:40:03.149Z,SHARED_SIDECAR_MULTI_PROBE-4-1-1,2,target-1,memory,0.4188804626464844
2021-06-08T04:40:33.149Z,SHARED_SIDECAR_MULTI_PROBE-4-1-1,2,target-1,memory,0.4188995361328125
2021-06-08T04:41:23.149Z,SHARED_SIDECAR_MULTI_PROBE-4-1-1,2,target-1,memory,0.4196434020996094
2021-06-08T04:40:13.149Z,SHARED_SIDECAR_MULTI_PROBE-4-1-1,2,target-1,memory,0.4189109802246094
2021-06-08T04:40:23.149Z,SHARED_SIDECAR_MULTI_PROBE-4-1-1,2,target-1,memory,0.4189109802246094
2021-06-08T04:41:03.151Z,SHARED_SIDECAR_MULTI_PROBE-4-1-1,2,target-1,memory,0.41895294189453125
2021-06-08T04:49:03.149Z,SHARED_SIDECAR_MULTI_PROBE-4-1-1,2,target-1,memory,0.41912078857421875
2021-06-08T04:49:13.149Z,SHARED_SIDECAR_MULTI_PROBE-4-1-1,2,target-1,memory,0.4191093444824219
2021-06-08T04:39:23.149Z,SHARED_SIDECAR_MULTI_PROBE-4-1-1,2,target-1,memory,0.4195556640625
2021-06-08T04:39:43.149Z,SHARED_SIDECAR_MULTI_PROBE-4-1-1,2,target-1,memory,0.419097900390625
2021-06-08T04:39:53.149Z,SHARED_SIDECAR_MULTI_PROBE-4-1-1,2,target-1,memory,0.41912841796875
2021-06-08T04:39:33.149Z,SHARED_SIDECAR_MULTI_PROBE-4-1-1,2,target-1,memory,0.4190673828125
2021-06-08T04:47:03.149Z,SHARED_SIDECAR_MULTI_PROBE-4-1-1,2,target-1,memory,0.4191551208496094
2021-06-08T04:46:03.149Z,SHARED_SIDECAR_MULTI_PROBE-4-1-1,2,target-1,memory,0.4191703796386719
2021-06-08T04:46:13.149Z,SHARED_SIDECAR_MULTI_PROBE-4-1-1,2,target-1,memory,0.4191703796386719
2021-06-08T04:46:33.149Z,SHARED_SIDECAR_MULTI_PROBE-4-1-1,2,target-1,memory,0.4191627502441406
2021-06-08T04:46:53.149Z,SHARED_SIDECAR_MULTI_PROBE-4-1-1,2,target-1,memory,0.4191627502441406
2021-06-08T04:47:13.149Z,SHARED_SIDECAR_MULTI_PROBE-4-1-1,2,target-1,memory,0.4191551208496094
2021-06-08T04:46:43.149Z,SHARED_SIDECAR_MULTI_PROBE-4-1-1,2,target-1,memory,0.4191627502441406
2021-06-08T04:47:23.149Z,SHARED_SIDECAR_MULTI_PROBE-4-1-1,2,target-1,memory,0.4191551208496094
2021-06-08T04:46:23.149Z,SHARED_SIDECAR_MULTI_PROBE-4-1-1,2,target-1,memory,0.4191703796386719
2021-06-08T04:41:53.149Z,SHARED_SIDECAR_MULTI_PROBE-4-1-1,2,target-1,memory,0.4188957214355469
2021-06-08T04:42:13.149Z,SHARED_SIDECAR_MULTI_PROBE-4-1-1,2,target-1,memory,0.4191246032714844
2021-06-08T04:41:33.149Z,SHARED_SIDECAR_MULTI_PROBE-4-1-1,2,target-1,memory,0.4189186096191406
2021-06-08T04:42:53.149Z,SHARED_SIDECAR_MULTI_PROBE-4-1-1,2,target-1,memory,0.41887664794921875
2021-06-08T04:42:23.149Z,SHARED_SIDECAR_MULTI_PROBE-4-1-1,2,target-1,memory,0.4191246032714844
2021-06-08T04:42:33.149Z,SHARED_SIDECAR_MULTI_PROBE-4-1-1,2,target-1,memory,0.41888427734375
2021-06-08T04:42:43.149Z,SHARED_SIDECAR_MULTI_PROBE-4-1-1,2,target-1,memory,0.41887664794921875
2021-06-08T04:41:43.149Z,SHARED_SIDECAR_MULTI_PROBE-4-1-1,2,target-1,memory,0.4188957214355469
2021-06-08T04:42:03.149Z,SHARED_SIDECAR_MULTI_PROBE-4-1-1,2,target-1,memory,0.41913604736328125
2021-06-08T04:48:53.149Z,SHARED_SIDECAR_MULTI_PROBE-4-1-1,2,target-1,memory,0.41912841796875
2021-06-08T04:47:53.149Z,SHARED_SIDECAR_MULTI_PROBE-4-1-1,2,target-1,memory,0.41913604736328125
2021-06-08T04:47:43.149Z,SHARED_SIDECAR_MULTI_PROBE-4-1-1,2,target-1,memory,0.41913604736328125
2021-06-08T04:47:33.149Z,SHARED_SIDECAR_MULTI_PROBE-4-1-1,2,target-1,memory,0.4191551208496094
2021-06-08T04:48:13.149Z,SHARED_SIDECAR_MULTI_PROBE-4-1-1,2,target-1,memory,0.4186553955078125
2021-06-08T04:48:23.149Z,SHARED_SIDECAR_MULTI_PROBE-4-1-1,2,target-1,memory,0.4186553955078125
2021-06-08T04:48:43.149Z,SHARED_SIDECAR_MULTI_PROBE-4-1-1,2,target-1,memory,0.41912841796875
2021-06-08T04:48:33.149Z,SHARED_SIDECAR_MULTI_PROBE-4-1-1,2,target-1,memory,0.41912841796875
2021-06-08T04:48:03.149Z,SHARED_SIDECAR_MULTI_PROBE-4-1-1,2,target-1,memory,0.4186553955078125
2021-06-08T04:43:33.149Z,SHARED_SIDECAR_MULTI_PROBE-4-1-1,2,target-1,memory,0.4191131591796875
2021-06-08T04:43:53.149Z,SHARED_SIDECAR_MULTI_PROBE-4-1-1,2,target-1,memory,0.4191093444824219
2021-06-08T04:44:13.149Z,SHARED_SIDECAR_MULTI_PROBE-4-1-1,2,target-1,memory,0.41921234130859375
2021-06-08T04:44:23.149Z,SHARED_SIDECAR_MULTI_PROBE-4-1-1,2,target-1,memory,0.41921234130859375
2021-06-08T04:44:03.149Z,SHARED_SIDECAR_MULTI_PROBE-4-1-1,2,target-1,memory,0.419219970703125
2021-06-08T04:43:03.149Z,SHARED_SIDECAR_MULTI_PROBE-4-1-1,2,target-1,memory,0.41912078857421875
2021-06-08T04:43:23.149Z,SHARED_SIDECAR_MULTI_PROBE-4-1-1,2,target-1,memory,0.41912078857421875
2021-06-08T04:43:43.149Z,SHARED_SIDECAR_MULTI_PROBE-4-1-1,2,target-1,memory,0.4191093444824219
2021-06-08T04:43:13.149Z,SHARED_SIDECAR_MULTI_PROBE-4-1-1,2,target-1,memory,0.41912078857421875
2021-06-08T04:55:19.845Z,SHARED_SIDECAR_MULTI_PROBE-4-1-1,3,target-1,memory,0.41765594482421875
2021-06-08T04:55:59.845Z,SHARED_SIDECAR_MULTI_PROBE-4-1-1,3,target-1,memory,0.4176025390625
2021-06-08T04:55:09.845Z,SHARED_SIDECAR_MULTI_PROBE-4-1-1,3,target-1,memory,0.41765594482421875
2021-06-08T04:54:59.845Z,SHARED_SIDECAR_MULTI_PROBE-4-1-1,3,target-1,memory,0.41765594482421875
2021-06-08T04:55:49.845Z,SHARED_SIDECAR_MULTI_PROBE-4-1-1,3,target-1,memory,0.4169197082519531
2021-06-08T04:56:19.845Z,SHARED_SIDECAR_MULTI_PROBE-4-1-1,3,target-1,memory,0.4171791076660156
2021-06-08T04:55:29.845Z,SHARED_SIDECAR_MULTI_PROBE-4-1-1,3,target-1,memory,0.4169197082519531
2021-06-08T04:55:39.845Z,SHARED_SIDECAR_MULTI_PROBE-4-1-1,3,target-1,memory,0.4169197082519531
2021-06-08T04:56:09.845Z,SHARED_SIDECAR_MULTI_PROBE-4-1-1,3,target-1,memory,0.4171791076660156
2021-06-08T04:51:49.845Z,SHARED_SIDECAR_MULTI_PROBE-4-1-1,3,target-1,memory,0.4181861877441406
2021-06-08T04:51:39.845Z,SHARED_SIDECAR_MULTI_PROBE-4-1-1,3,target-1,memory,0.4181861877441406
2021-06-08T04:50:59.845Z,SHARED_SIDECAR_MULTI_PROBE-4-1-1,3,target-1,memory,0.4171905517578125
2021-06-08T04:51:19.845Z,SHARED_SIDECAR_MULTI_PROBE-4-1-1,3,target-1,memory,0.4180145263671875
2021-06-08T04:51:29.845Z,SHARED_SIDECAR_MULTI_PROBE-4-1-1,3,target-1,memory,0.4182090759277344
2021-06-08T04:51:09.845Z,SHARED_SIDECAR_MULTI_PROBE-4-1-1,3,target-1,memory,0.41802978515625
2021-06-08T04:59:29.845Z,SHARED_SIDECAR_MULTI_PROBE-4-1-1,3,target-1,memory,0.4178352355957031
2021-06-08T04:59:59.845Z,SHARED_SIDECAR_MULTI_PROBE-4-1-1,3,target-1,memory,0.4173393249511719
2021-06-08T04:59:39.845Z,SHARED_SIDECAR_MULTI_PROBE-4-1-1,3,target-1,memory,0.4178276062011719
2021-06-08T04:59:49.845Z,SHARED_SIDECAR_MULTI_PROBE-4-1-1,3,target-1,memory,0.4178276062011719
2021-06-08T04:59:19.845Z,SHARED_SIDECAR_MULTI_PROBE-4-1-1,3,target-1,memory,0.4178504943847656
2021-06-08T04:56:49.845Z,SHARED_SIDECAR_MULTI_PROBE-4-1-1,3,target-1,memory,0.41741180419921875
2021-06-08T04:56:59.845Z,SHARED_SIDECAR_MULTI_PROBE-4-1-1,3,target-1,memory,0.4169273376464844
2021-06-08T04:56:39.845Z,SHARED_SIDECAR_MULTI_PROBE-4-1-1,3,target-1,memory,0.41741180419921875
2021-06-08T04:57:09.845Z,SHARED_SIDECAR_MULTI_PROBE-4-1-1,3,target-1,memory,0.4169273376464844
2021-06-08T04:56:29.845Z,SHARED_SIDECAR_MULTI_PROBE-4-1-1,3,target-1,memory,0.41741180419921875
2021-06-08T04:57:19.845Z,SHARED_SIDECAR_MULTI_PROBE-4-1-1,3,target-1,memory,0.4169273376464844
2021-06-08T04:57:29.845Z,SHARED_SIDECAR_MULTI_PROBE-4-1-1,3,target-1,memory,0.4174041748046875
2021-06-08T04:57:39.845Z,SHARED_SIDECAR_MULTI_PROBE-4-1-1,3,target-1,memory,0.41739654541015625
2021-06-08T04:52:39.845Z,SHARED_SIDECAR_MULTI_PROBE-4-1-1,3,target-1,memory,0.4180908203125
2021-06-08T04:51:59.845Z,SHARED_SIDECAR_MULTI_PROBE-4-1-1,3,target-1,memory,0.4179649353027344
2021-06-08T04:52:59.845Z,SHARED_SIDECAR_MULTI_PROBE-4-1-1,3,target-1,memory,0.4176521301269531
2021-06-08T04:52:09.845Z,SHARED_SIDECAR_MULTI_PROBE-4-1-1,3,target-1,memory,0.4179649353027344
2021-06-08T04:53:19.845Z,SHARED_SIDECAR_MULTI_PROBE-4-1-1,3,target-1,memory,0.4176521301269531
2021-06-08T04:52:19.849Z,SHARED_SIDECAR_MULTI_PROBE-4-1-1,3,target-1,memory,0.4179649353027344
2021-06-08T04:52:29.845Z,SHARED_SIDECAR_MULTI_PROBE-4-1-1,3,target-1,memory,0.4180908203125
2021-06-08T04:53:09.845Z,SHARED_SIDECAR_MULTI_PROBE-4-1-1,3,target-1,memory,0.4176521301269531
2021-06-08T04:52:49.845Z,SHARED_SIDECAR_MULTI_PROBE-4-1-1,3,target-1,memory,0.41815185546875
2021-06-08T04:58:49.845Z,SHARED_SIDECAR_MULTI_PROBE-4-1-1,3,target-1,memory,0.4178619384765625
2021-06-08T04:58:39.845Z,SHARED_SIDECAR_MULTI_PROBE-4-1-1,3,target-1,memory,0.4178619384765625
2021-06-08T04:58:59.845Z,SHARED_SIDECAR_MULTI_PROBE-4-1-1,3,target-1,memory,0.4178581237792969
2021-06-08T04:59:09.845Z,SHARED_SIDECAR_MULTI_PROBE-4-1-1,3,target-1,memory,0.4178504943847656
2021-06-08T04:58:29.845Z,SHARED_SIDECAR_MULTI_PROBE-4-1-1,3,target-1,memory,0.41786956787109375
2021-06-08T04:58:19.845Z,SHARED_SIDECAR_MULTI_PROBE-4-1-1,3,target-1,memory,0.417388916015625
2021-06-08T04:57:49.845Z,SHARED_SIDECAR_MULTI_PROBE-4-1-1,3,target-1,memory,0.41739654541015625
2021-06-08T04:57:59.845Z,SHARED_SIDECAR_MULTI_PROBE-4-1-1,3,target-1,memory,0.41739654541015625
2021-06-08T04:58:09.845Z,SHARED_SIDECAR_MULTI_PROBE-4-1-1,3,target-1,memory,0.417388916015625
2021-06-08T05:00:49.845Z,SHARED_SIDECAR_MULTI_PROBE-4-1-1,3,target-1,memory,0.4178352355957031
2021-06-08T04:53:59.845Z,SHARED_SIDECAR_MULTI_PROBE-4-1-1,3,target-1,memory,0.4169921875
2021-06-08T04:53:39.845Z,SHARED_SIDECAR_MULTI_PROBE-4-1-1,3,target-1,memory,0.4174842834472656
2021-06-08T04:54:49.845Z,SHARED_SIDECAR_MULTI_PROBE-4-1-1,3,target-1,memory,0.41766357421875
2021-06-08T04:54:09.845Z,SHARED_SIDECAR_MULTI_PROBE-4-1-1,3,target-1,memory,0.4169921875
2021-06-08T04:54:19.845Z,SHARED_SIDECAR_MULTI_PROBE-4-1-1,3,target-1,memory,0.4169921875
2021-06-08T04:54:39.845Z,SHARED_SIDECAR_MULTI_PROBE-4-1-1,3,target-1,memory,0.41766357421875
2021-06-08T04:54:29.845Z,SHARED_SIDECAR_MULTI_PROBE-4-1-1,3,target-1,memory,0.41766357421875
2021-06-08T04:53:49.845Z,SHARED_SIDECAR_MULTI_PROBE-4-1-1,3,target-1,memory,0.4174842834472656
2021-06-08T04:53:29.845Z,SHARED_SIDECAR_MULTI_PROBE-4-1-1,3,target-1,memory,0.4174842834472656
2021-06-08T05:00:39.845Z,SHARED_SIDECAR_MULTI_PROBE-4-1-1,3,target-1,memory,0.4178352355957031
2021-06-08T05:00:29.845Z,SHARED_SIDECAR_MULTI_PROBE-4-1-1,3,target-1,memory,0.4178352355957031
2021-06-08T05:00:19.845Z,SHARED_SIDECAR_MULTI_PROBE-4-1-1,3,target-1,memory,0.4173622131347656
2021-06-08T05:00:09.845Z,SHARED_SIDECAR_MULTI_PROBE-4-1-1,3,target-1,memory,0.4173622131347656
2021-06-08T05:03:20.564Z,SHARED_SIDECAR_MULTI_PROBE-8-1-1,1,target-1,memory,0.4177970886230469
2021-06-08T05:03:30.564Z,SHARED_SIDECAR_MULTI_PROBE-8-1-1,1,target-1,memory,0.41802978515625
2021-06-08T05:03:10.564Z,SHARED_SIDECAR_MULTI_PROBE-8-1-1,1,target-1,memory,0.4177970886230469
2021-06-08T05:02:50.564Z,SHARED_SIDECAR_MULTI_PROBE-8-1-1,1,target-1,memory,0.41866302490234375
2021-06-08T05:03:00.564Z,SHARED_SIDECAR_MULTI_PROBE-8-1-1,1,target-1,memory,0.4177665710449219
2021-06-08T05:11:50.564Z,SHARED_SIDECAR_MULTI_PROBE-8-1-1,1,target-1,memory,0.4179496765136719
2021-06-08T05:12:20.564Z,SHARED_SIDECAR_MULTI_PROBE-8-1-1,1,target-1,memory,0.4174537658691406
2021-06-08T05:11:40.564Z,SHARED_SIDECAR_MULTI_PROBE-8-1-1,1,target-1,memory,0.4179496765136719
2021-06-08T05:12:30.564Z,SHARED_SIDECAR_MULTI_PROBE-8-1-1,1,target-1,memory,0.4179344177246094
2021-06-08T05:12:10.564Z,SHARED_SIDECAR_MULTI_PROBE-8-1-1,1,target-1,memory,0.4174537658691406
2021-06-08T05:11:20.564Z,SHARED_SIDECAR_MULTI_PROBE-8-1-1,1,target-1,memory,0.41796112060546875
2021-06-08T05:11:30.564Z,SHARED_SIDECAR_MULTI_PROBE-8-1-1,1,target-1,memory,0.4179573059082031
2021-06-08T05:11:10.564Z,SHARED_SIDECAR_MULTI_PROBE-8-1-1,1,target-1,memory,0.41796112060546875
2021-06-08T05:12:00.564Z,SHARED_SIDECAR_MULTI_PROBE-8-1-1,1,target-1,memory,0.4174690246582031
2021-06-08T05:12:40.564Z,SHARED_SIDECAR_MULTI_PROBE-8-1-1,1,target-1,memory,0.4179344177246094
2021-06-08T05:08:30.564Z,SHARED_SIDECAR_MULTI_PROBE-8-1-1,1,target-1,memory,0.4175758361816406
2021-06-08T05:09:20.564Z,SHARED_SIDECAR_MULTI_PROBE-8-1-1,1,target-1,memory,0.4180450439453125
2021-06-08T05:09:00.564Z,SHARED_SIDECAR_MULTI_PROBE-8-1-1,1,target-1,memory,0.4180450439453125
2021-06-08T05:08:20.564Z,SHARED_SIDECAR_MULTI_PROBE-8-1-1,1,target-1,memory,0.4180641174316406
2021-06-08T05:09:10.564Z,SHARED_SIDECAR_MULTI_PROBE-8-1-1,1,target-1,memory,0.4180450439453125
2021-06-08T05:09:30.564Z,SHARED_SIDECAR_MULTI_PROBE-8-1-1,1,target-1,memory,0.4175567626953125
2021-06-08T05:08:50.564Z,SHARED_SIDECAR_MULTI_PROBE-8-1-1,1,target-1,memory,0.41756439208984375
2021-06-08T05:08:10.564Z,SHARED_SIDECAR_MULTI_PROBE-8-1-1,1,target-1,memory,0.4180641174316406
2021-06-08T05:08:40.564Z,SHARED_SIDECAR_MULTI_PROBE-8-1-1,1,target-1,memory,0.4175758361816406
2021-06-08T05:04:20.564Z,SHARED_SIDECAR_MULTI_PROBE-8-1-1,1,target-1,memory,0.4176063537597656
2021-06-08T05:05:00.564Z,SHARED_SIDECAR_MULTI_PROBE-8-1-1,1,target-1,memory,0.4173583984375
2021-06-08T05:04:30.564Z,SHARED_SIDECAR_MULTI_PROBE-8-1-1,1,target-1,memory,0.41786956787109375
2021-06-08T05:04:00.564Z,SHARED_SIDECAR_MULTI_PROBE-8-1-1,1,target-1,memory,0.4175758361816406
2021-06-08T05:04:10.564Z,SHARED_SIDECAR_MULTI_PROBE-8-1-1,1,target-1,memory,0.4176063537597656
2021-06-08T05:03:40.564Z,SHARED_SIDECAR_MULTI_PROBE-8-1-1,1,target-1,memory,0.41802978515625
2021-06-08T05:04:50.564Z,SHARED_SIDECAR_MULTI_PROBE-8-1-1,1,target-1,memory,0.41783905029296875
2021-06-08T05:03:50.564Z,SHARED_SIDECAR_MULTI_PROBE-8-1-1,1,target-1,memory,0.41802978515625
2021-06-08T05:04:40.564Z,SHARED_SIDECAR_MULTI_PROBE-8-1-1,1,target-1,memory,0.41783905029296875
2021-06-08T05:06:30.564Z,SHARED_SIDECAR_MULTI_PROBE-8-1-1,1,target-1,memory,0.4178733825683594
2021-06-08T05:06:20.564Z,SHARED_SIDECAR_MULTI_PROBE-8-1-1,1,target-1,memory,0.4173927307128906
2021-06-08T05:06:10.564Z,SHARED_SIDECAR_MULTI_PROBE-8-1-1,1,target-1,memory,0.4173927307128906
2021-06-08T05:05:20.564Z,SHARED_SIDECAR_MULTI_PROBE-8-1-1,1,target-1,memory,0.4173469543457031
2021-06-08T05:06:00.564Z,SHARED_SIDECAR_MULTI_PROBE-8-1-1,1,target-1,memory,0.4173927307128906
2021-06-08T05:05:50.564Z,SHARED_SIDECAR_MULTI_PROBE-8-1-1,1,target-1,memory,0.4178810119628906
2021-06-08T05:05:30.564Z,SHARED_SIDECAR_MULTI_PROBE-8-1-1,1,target-1,memory,0.4178199768066406
2021-06-08T05:05:40.564Z,SHARED_SIDECAR_MULTI_PROBE-8-1-1,1,target-1,memory,0.4178810119628906
2021-06-08T05:05:10.564Z,SHARED_SIDECAR_MULTI_PROBE-8-1-1,1,target-1,memory,0.4173469543457031
2021-06-08T05:10:40.564Z,SHARED_SIDECAR_MULTI_PROBE-8-1-1,1,target-1,memory,0.4177398681640625
2021-06-08T05:09:40.564Z,SHARED_SIDECAR_MULTI_PROBE-8-1-1,1,target-1,memory,0.41754913330078125
2021-06-08T05:10:10.564Z,SHARED_SIDECAR_MULTI_PROBE-8-1-1,1,target-1,memory,0.4177589416503906
2021-06-08T05:09:50.564Z,SHARED_SIDECAR_MULTI_PROBE-8-1-1,1,target-1,memory,0.4175262451171875
2021-06-08T05:10:20.564Z,SHARED_SIDECAR_MULTI_PROBE-8-1-1,1,target-1,memory,0.4177589416503906
2021-06-08T05:10:50.564Z,SHARED_SIDECAR_MULTI_PROBE-8-1-1,1,target-1,memory,0.417724609375
2021-06-08T05:10:00.565Z,SHARED_SIDECAR_MULTI_PROBE-8-1-1,1,target-1,memory,0.417999267578125
2021-06-08T05:11:00.564Z,SHARED_SIDECAR_MULTI_PROBE-8-1-1,1,target-1,memory,0.4179649353027344
2021-06-08T05:10:30.564Z,SHARED_SIDECAR_MULTI_PROBE-8-1-1,1,target-1,memory,0.4177513122558594
2021-06-08T05:06:50.564Z,SHARED_SIDECAR_MULTI_PROBE-8-1-1,1,target-1,memory,0.4178466796875
2021-06-08T05:06:40.565Z,SHARED_SIDECAR_MULTI_PROBE-8-1-1,1,target-1,memory,0.4178657531738281
2021-06-08T05:07:40.564Z,SHARED_SIDECAR_MULTI_PROBE-8-1-1,1,target-1,memory,0.4180717468261719
2021-06-08T05:07:50.564Z,SHARED_SIDECAR_MULTI_PROBE-8-1-1,1,target-1,memory,0.4180641174316406
2021-06-08T05:07:00.564Z,SHARED_SIDECAR_MULTI_PROBE-8-1-1,1,target-1,memory,0.41808319091796875
2021-06-08T05:08:00.564Z,SHARED_SIDECAR_MULTI_PROBE-8-1-1,1,target-1,memory,0.4180641174316406
2021-06-08T05:07:10.564Z,SHARED_SIDECAR_MULTI_PROBE-8-1-1,1,target-1,memory,0.41808319091796875
2021-06-08T05:07:30.564Z,SHARED_SIDECAR_MULTI_PROBE-8-1-1,1,target-1,memory,0.4180717468261719
2021-06-08T05:07:20.564Z,SHARED_SIDECAR_MULTI_PROBE-8-1-1,1,target-1,memory,0.41808319091796875
2021-06-08T05:22:17.584Z,SHARED_SIDECAR_MULTI_PROBE-8-1-1,2,target-1,memory,0.4195098876953125
2021-06-08T05:22:57.584Z,SHARED_SIDECAR_MULTI_PROBE-8-1-1,2,target-1,memory,0.41900634765625
2021-06-08T05:21:57.584Z,SHARED_SIDECAR_MULTI_PROBE-8-1-1,2,target-1,memory,0.41880035400390625
2021-06-08T05:22:07.584Z,SHARED_SIDECAR_MULTI_PROBE-8-1-1,2,target-1,memory,0.4195098876953125
2021-06-08T05:22:37.584Z,SHARED_SIDECAR_MULTI_PROBE-8-1-1,2,target-1,memory,0.4190216064453125
2021-06-08T05:21:37.584Z,SHARED_SIDECAR_MULTI_PROBE-8-1-1,2,target-1,memory,0.41880035400390625
2021-06-08T05:22:47.585Z,SHARED_SIDECAR_MULTI_PROBE-8-1-1,2,target-1,memory,0.4190216064453125
2021-06-08T05:21:47.584Z,SHARED_SIDECAR_MULTI_PROBE-8-1-1,2,target-1,memory,0.41880035400390625
2021-06-08T05:22:27.584Z,SHARED_SIDECAR_MULTI_PROBE-8-1-1,2,target-1,memory,0.4195098876953125
2021-06-08T05:23:07.584Z,SHARED_SIDECAR_MULTI_PROBE-8-1-1,2,target-1,memory,0.41948699951171875
2021-06-08T05:23:17.584Z,SHARED_SIDECAR_MULTI_PROBE-8-1-1,2,target-1,memory,0.41948699951171875
2021-06-08T05:24:27.584Z,SHARED_SIDECAR_MULTI_PROBE-8-1-1,2,target-1,memory,0.41919708251953125
2021-06-08T05:24:07.584Z,SHARED_SIDECAR_MULTI_PROBE-8-1-1,2,target-1,memory,0.41921234130859375
2021-06-08T05:24:17.584Z,SHARED_SIDECAR_MULTI_PROBE-8-1-1,2,target-1,memory,0.41921234130859375
2021-06-08T05:23:27.584Z,SHARED_SIDECAR_MULTI_PROBE-8-1-1,2,target-1,memory,0.419464111328125
2021-06-08T05:23:47.584Z,SHARED_SIDECAR_MULTI_PROBE-8-1-1,2,target-1,memory,0.41898345947265625
2021-06-08T05:23:37.584Z,SHARED_SIDECAR_MULTI_PROBE-8-1-1,2,target-1,memory,0.41898345947265625
2021-06-08T05:23:57.584Z,SHARED_SIDECAR_MULTI_PROBE-8-1-1,2,target-1,memory,0.4189720153808594
2021-06-08T05:19:27.584Z,SHARED_SIDECAR_MULTI_PROBE-8-1-1,2,target-1,memory,0.41884613037109375
2021-06-08T05:18:47.584Z,SHARED_SIDECAR_MULTI_PROBE-8-1-1,2,target-1,memory,0.4193572998046875
2021-06-08T05:19:47.584Z,SHARED_SIDECAR_MULTI_PROBE-8-1-1,2,target-1,memory,0.41931915283203125
2021-06-08T05:19:57.584Z,SHARED_SIDECAR_MULTI_PROBE-8-1-1,2,target-1,memory,0.4193153381347656
2021-06-08T05:19:17.584Z,SHARED_SIDECAR_MULTI_PROBE-8-1-1,2,target-1,memory,0.4188690185546875
2021-06-08T05:18:57.584Z,SHARED_SIDECAR_MULTI_PROBE-8-1-1,2,target-1,memory,0.4193572998046875
2021-06-08T05:19:37.584Z,SHARED_SIDECAR_MULTI_PROBE-8-1-1,2,target-1,memory,0.41931915283203125
2021-06-08T05:18:37.584Z,SHARED_SIDECAR_MULTI_PROBE-8-1-1,2,target-1,memory,0.4193572998046875
2021-06-08T05:19:07.584Z,SHARED_SIDECAR_MULTI_PROBE-8-1-1,2,target-1,memory,0.4188690185546875
2021-06-08T05:15:07.584Z,SHARED_SIDECAR_MULTI_PROBE-8-1-1,2,target-1,memory,0.41878509521484375
2021-06-08T05:14:47.584Z,SHARED_SIDECAR_MULTI_PROBE-8-1-1,2,target-1,memory,0.41852569580078125
2021-06-08T05:15:27.584Z,SHARED_SIDECAR_MULTI_PROBE-8-1-1,2,target-1,memory,0.41876983642578125
2021-06-08T05:15:17.584Z,SHARED_SIDECAR_MULTI_PROBE-8-1-1,2,target-1,memory,0.4187774658203125
2021-06-08T05:14:37.585Z,SHARED_SIDECAR_MULTI_PROBE-8-1-1,2,target-1,memory,0.4195289611816406
2021-06-08T05:14:57.584Z,SHARED_SIDECAR_MULTI_PROBE-8-1-1,2,target-1,memory,0.41855621337890625
2021-06-08T05:16:37.584Z,SHARED_SIDECAR_MULTI_PROBE-8-1-1,2,target-1,memory,0.41912078857421875
2021-06-08T05:16:47.584Z,SHARED_SIDECAR_MULTI_PROBE-8-1-1,2,target-1,memory,0.41912078857421875
2021-06-08T05:16:17.584Z,SHARED_SIDECAR_MULTI_PROBE-8-1-1,2,target-1,memory,0.41880035400390625
2021-06-08T05:16:07.584Z,SHARED_SIDECAR_MULTI_PROBE-8-1-1,2,target-1,memory,0.4187774658203125
2021-06-08T05:15:47.584Z,SHARED_SIDECAR_MULTI_PROBE-8-1-1,2,target-1,memory,0.4192352294921875
2021-06-08T05:15:37.584Z,SHARED_SIDECAR_MULTI_PROBE-8-1-1,2,target-1,memory,0.4192352294921875
2021-06-08T05:16:27.584Z,SHARED_SIDECAR_MULTI_PROBE-8-1-1,2,target-1,memory,0.41880035400390625
2021-06-08T05:16:57.584Z,SHARED_SIDECAR_MULTI_PROBE-8-1-1,2,target-1,memory,0.4191169738769531
2021-06-08T05:15:57.584Z,SHARED_SIDECAR_MULTI_PROBE-8-1-1,2,target-1,memory,0.4192657470703125
2021-06-08T05:21:27.584Z,SHARED_SIDECAR_MULTI_PROBE-8-1-1,2,target-1,memory,0.4190521240234375
2021-06-08T05:21:17.584Z,SHARED_SIDECAR_MULTI_PROBE-8-1-1,2,target-1,memory,0.4190521240234375
2021-06-08T05:20:47.584Z,SHARED_SIDECAR_MULTI_PROBE-8-1-1,2,target-1,memory,0.4195404052734375
2021-06-08T05:20:07.584Z,SHARED_SIDECAR_MULTI_PROBE-8-1-1,2,target-1,memory,0.4195518493652344
2021-06-08T05:20:27.584Z,SHARED_SIDECAR_MULTI_PROBE-8-1-1,2,target-1,memory,0.4195404052734375
2021-06-08T05:20:37.584Z,SHARED_SIDECAR_MULTI_PROBE-8-1-1,2,target-1,memory,0.4195404052734375
2021-06-08T05:21:07.584Z,SHARED_SIDECAR_MULTI_PROBE-8-1-1,2,target-1,memory,0.4190521240234375
2021-06-08T05:20:17.584Z,SHARED_SIDECAR_MULTI_PROBE-8-1-1,2,target-1,memory,0.4195518493652344
2021-06-08T05:20:57.584Z,SHARED_SIDECAR_MULTI_PROBE-8-1-1,2,target-1,memory,0.4195404052734375
2021-06-08T05:17:57.584Z,SHARED_SIDECAR_MULTI_PROBE-8-1-1,2,target-1,memory,0.4191322326660156
2021-06-08T05:17:27.586Z,SHARED_SIDECAR_MULTI_PROBE-8-1-1,2,target-1,memory,0.4197807312011719
2021-06-08T05:18:17.584Z,SHARED_SIDECAR_MULTI_PROBE-8-1-1,2,target-1,memory,0.4193687438964844
2021-06-08T05:17:47.584Z,SHARED_SIDECAR_MULTI_PROBE-8-1-1,2,target-1,memory,0.41913604736328125
2021-06-08T05:17:37.584Z,SHARED_SIDECAR_MULTI_PROBE-8-1-1,2,target-1,memory,0.41913604736328125
2021-06-08T05:17:07.584Z,SHARED_SIDECAR_MULTI_PROBE-8-1-1,2,target-1,memory,0.4197883605957031
2021-06-08T05:17:17.584Z,SHARED_SIDECAR_MULTI_PROBE-8-1-1,2,target-1,memory,0.4197807312011719
2021-06-08T05:18:07.584Z,SHARED_SIDECAR_MULTI_PROBE-8-1-1,2,target-1,memory,0.4193687438964844
2021-06-08T05:18:27.584Z,SHARED_SIDECAR_MULTI_PROBE-8-1-1,2,target-1,memory,0.4193572998046875
2021-06-08T05:31:35.267Z,SHARED_SIDECAR_MULTI_PROBE-8-1-1,3,target-1,memory,0.4173316955566406
2021-06-08T05:32:35.267Z,SHARED_SIDECAR_MULTI_PROBE-8-1-1,3,target-1,memory,0.4175529479980469
2021-06-08T05:31:25.267Z,SHARED_SIDECAR_MULTI_PROBE-8-1-1,3,target-1,memory,0.4173431396484375
2021-06-08T05:32:15.267Z,SHARED_SIDECAR_MULTI_PROBE-8-1-1,3,target-1,memory,0.4180412292480469
2021-06-08T05:32:25.267Z,SHARED_SIDECAR_MULTI_PROBE-8-1-1,3,target-1,memory,0.4180412292480469
2021-06-08T05:32:05.267Z,SHARED_SIDECAR_MULTI_PROBE-8-1-1,3,target-1,memory,0.4180412292480469
2021-06-08T05:31:45.267Z,SHARED_SIDECAR_MULTI_PROBE-8-1-1,3,target-1,memory,0.4173316955566406
2021-06-08T05:31:55.267Z,SHARED_SIDECAR_MULTI_PROBE-8-1-1,3,target-1,memory,0.4173316955566406
2021-06-08T05:32:45.267Z,SHARED_SIDECAR_MULTI_PROBE-8-1-1,3,target-1,memory,0.4175529479980469
2021-06-08T05:33:55.267Z,SHARED_SIDECAR_MULTI_PROBE-8-1-1,3,target-1,memory,0.4174041748046875
2021-06-08T05:34:15.267Z,SHARED_SIDECAR_MULTI_PROBE-8-1-1,3,target-1,memory,0.4178314208984375
2021-06-08T05:33:05.267Z,SHARED_SIDECAR_MULTI_PROBE-8-1-1,3,target-1,memory,0.4180259704589844
2021-06-08T05:32:55.267Z,SHARED_SIDECAR_MULTI_PROBE-8-1-1,3,target-1,memory,0.4175529479980469
2021-06-08T05:33:15.267Z,SHARED_SIDECAR_MULTI_PROBE-8-1-1,3,target-1,memory,0.41788482666015625
2021-06-08T05:33:35.267Z,SHARED_SIDECAR_MULTI_PROBE-8-1-1,3,target-1,memory,0.4174041748046875
2021-06-08T05:33:25.267Z,SHARED_SIDECAR_MULTI_PROBE-8-1-1,3,target-1,memory,0.41788482666015625
2021-06-08T05:33:45.267Z,SHARED_SIDECAR_MULTI_PROBE-8-1-1,3,target-1,memory,0.4174041748046875
2021-06-08T05:34:05.267Z,SHARED_SIDECAR_MULTI_PROBE-8-1-1,3,target-1,memory,0.417877197265625
2021-06-08T05:29:05.267Z,SHARED_SIDECAR_MULTI_PROBE-8-1-1,3,target-1,memory,0.4176216125488281
2021-06-08T05:28:25.267Z,SHARED_SIDECAR_MULTI_PROBE-8-1-1,3,target-1,memory,0.4181175231933594
2021-06-08T05:29:45.267Z,SHARED_SIDECAR_MULTI_PROBE-8-1-1,3,target-1,memory,0.4183349609375
2021-06-08T05:29:15.267Z,SHARED_SIDECAR_MULTI_PROBE-8-1-1,3,target-1,memory,0.4176216125488281
2021-06-08T05:28:35.267Z,SHARED_SIDECAR_MULTI_PROBE-8-1-1,3,target-1,memory,0.4176292419433594
2021-06-08T05:29:35.267Z,SHARED_SIDECAR_MULTI_PROBE-8-1-1,3,target-1,memory,0.4183349609375
2021-06-08T05:28:55.267Z,SHARED_SIDECAR_MULTI_PROBE-8-1-1,3,target-1,memory,0.4176292419433594
2021-06-08T05:29:25.267Z,SHARED_SIDECAR_MULTI_PROBE-8-1-1,3,target-1,memory,0.4176216125488281
2021-06-08T05:28:45.267Z,SHARED_SIDECAR_MULTI_PROBE-8-1-1,3,target-1,memory,0.4176292419433594
2021-06-08T05:34:35.267Z,SHARED_SIDECAR_MULTI_PROBE-8-1-1,3,target-1,memory,0.4173431396484375
2021-06-08T05:35:25.267Z,SHARED_SIDECAR_MULTI_PROBE-8-1-1,3,target-1,memory,0.4177970886230469
2021-06-08T05:34:25.267Z,SHARED_SIDECAR_MULTI_PROBE-8-1-1,3,target-1,memory,0.41782379150390625
2021-06-08T05:34:45.267Z,SHARED_SIDECAR_MULTI_PROBE-8-1-1,3,target-1,memory,0.4173431396484375
2021-06-08T05:35:05.267Z,SHARED_SIDECAR_MULTI_PROBE-8-1-1,3,target-1,memory,0.417816162109375
2021-06-08T05:35:35.267Z,SHARED_SIDECAR_MULTI_PROBE-8-1-1,3,target-1,memory,0.4175567626953125
2021-06-08T05:34:55.267Z,SHARED_SIDECAR_MULTI_PROBE-8-1-1,3,target-1,memory,0.4173431396484375
2021-06-08T05:35:15.267Z,SHARED_SIDECAR_MULTI_PROBE-8-1-1,3,target-1,memory,0.4177970886230469
2021-06-08T05:35:45.267Z,SHARED_SIDECAR_MULTI_PROBE-8-1-1,3,target-1,memory,0.4175567626953125
2021-06-08T05:27:25.267Z,SHARED_SIDECAR_MULTI_PROBE-8-1-1,3,target-1,memory,0.4173469543457031
2021-06-08T05:27:45.267Z,SHARED_SIDECAR_MULTI_PROBE-8-1-1,3,target-1,memory,0.4178504943847656
2021-06-08T05:27:15.267Z,SHARED_SIDECAR_MULTI_PROBE-8-1-1,3,target-1,memory,0.4173469543457031
2021-06-08T05:27:35.267Z,SHARED_SIDECAR_MULTI_PROBE-8-1-1,3,target-1,memory,0.4178199768066406
2021-06-08T05:28:05.267Z,SHARED_SIDECAR_MULTI_PROBE-8-1-1,3,target-1,memory,0.4173545837402344
2021-06-08T05:27:55.267Z,SHARED_SIDECAR_MULTI_PROBE-8-1-1,3,target-1,memory,0.4178352355957031
2021-06-08T05:26:55.267Z,SHARED_SIDECAR_MULTI_PROBE-8-1-1,3,target-1,memory,0.4183082580566406
2021-06-08T05:28:15.267Z,SHARED_SIDECAR_MULTI_PROBE-8-1-1,3,target-1,memory,0.4185447692871094
2021-06-08T05:27:05.267Z,SHARED_SIDECAR_MULTI_PROBE-8-1-1,3,target-1,memory,0.4173469543457031
2021-06-08T05:29:55.267Z,SHARED_SIDECAR_MULTI_PROBE-8-1-1,3,target-1,memory,0.4183349609375
2021-06-08T05:30:05.267Z,SHARED_SIDECAR_MULTI_PROBE-8-1-1,3,target-1,memory,0.4183197021484375
2021-06-08T05:30:25.267Z,SHARED_SIDECAR_MULTI_PROBE-8-1-1,3,target-1,memory,0.41825103759765625
2021-06-08T05:30:55.267Z,SHARED_SIDECAR_MULTI_PROBE-8-1-1,3,target-1,memory,0.41823577880859375
2021-06-08T05:31:05.267Z,SHARED_SIDECAR_MULTI_PROBE-8-1-1,3,target-1,memory,0.41751861572265625
2021-06-08T05:30:15.267Z,SHARED_SIDECAR_MULTI_PROBE-8-1-1,3,target-1,memory,0.4183197021484375
2021-06-08T05:31:15.267Z,SHARED_SIDECAR_MULTI_PROBE-8-1-1,3,target-1,memory,0.417510986328125
2021-06-08T05:30:35.267Z,SHARED_SIDECAR_MULTI_PROBE-8-1-1,3,target-1,memory,0.418243408203125
2021-06-08T05:30:45.267Z,SHARED_SIDECAR_MULTI_PROBE-8-1-1,3,target-1,memory,0.41823577880859375
2021-06-08T05:26:25.267Z,SHARED_SIDECAR_MULTI_PROBE-8-1-1,3,target-1,memory,0.4182853698730469
2021-06-08T05:26:35.267Z,SHARED_SIDECAR_MULTI_PROBE-8-1-1,3,target-1,memory,0.4182777404785156
2021-06-08T05:26:45.267Z,SHARED_SIDECAR_MULTI_PROBE-8-1-1,3,target-1,memory,0.4183082580566406
2021-06-08T05:36:15.267Z,SHARED_SIDECAR_MULTI_PROBE-8-1-1,3,target-1,memory,0.4177818298339844
2021-06-08T05:35:55.267Z,SHARED_SIDECAR_MULTI_PROBE-8-1-1,3,target-1,memory,0.4175567626953125
2021-06-08T05:36:05.267Z,SHARED_SIDECAR_MULTI_PROBE-8-1-1,3,target-1,memory,0.4177894592285156
2021-06-08T05:40:11.914Z,SHARED_SIDECAR_MULTI_PROBE-16-1-1,1,target-1,memory,0.4207878112792969
2021-06-08T05:39:51.914Z,SHARED_SIDECAR_MULTI_PROBE-16-1-1,1,target-1,memory,0.42010498046875
2021-06-08T05:39:41.914Z,SHARED_SIDECAR_MULTI_PROBE-16-1-1,1,target-1,memory,0.42010498046875
2021-06-08T05:40:01.914Z,SHARED_SIDECAR_MULTI_PROBE-16-1-1,1,target-1,memory,0.4207878112792969
2021-06-08T05:44:01.914Z,SHARED_SIDECAR_MULTI_PROBE-16-1-1,1,target-1,memory,0.4206123352050781
2021-06-08T05:43:51.914Z,SHARED_SIDECAR_MULTI_PROBE-16-1-1,1,target-1,memory,0.4206733703613281
2021-06-08T05:43:41.914Z,SHARED_SIDECAR_MULTI_PROBE-16-1-1,1,target-1,memory,0.4206733703613281
2021-06-08T05:43:21.914Z,SHARED_SIDECAR_MULTI_PROBE-16-1-1,1,target-1,memory,0.41996002197265625
2021-06-08T05:43:31.914Z,SHARED_SIDECAR_MULTI_PROBE-16-1-1,1,target-1,memory,0.42070770263671875
2021-06-08T05:47:41.914Z,SHARED_SIDECAR_MULTI_PROBE-16-1-1,1,target-1,memory,0.4209632873535156
2021-06-08T05:47:21.914Z,SHARED_SIDECAR_MULTI_PROBE-16-1-1,1,target-1,memory,0.4197731018066406
2021-06-08T05:47:11.914Z,SHARED_SIDECAR_MULTI_PROBE-16-1-1,1,target-1,memory,0.4197731018066406
2021-06-08T05:47:31.914Z,SHARED_SIDECAR_MULTI_PROBE-16-1-1,1,target-1,memory,0.42104339599609375
2021-06-08T05:43:11.914Z,SHARED_SIDECAR_MULTI_PROBE-16-1-1,1,target-1,memory,0.41996002197265625
2021-06-08T05:42:51.914Z,SHARED_SIDECAR_MULTI_PROBE-16-1-1,1,target-1,memory,0.4206962585449219
2021-06-08T05:43:01.914Z,SHARED_SIDECAR_MULTI_PROBE-16-1-1,1,target-1,memory,0.4200553894042969
2021-06-08T05:42:41.914Z,SHARED_SIDECAR_MULTI_PROBE-16-1-1,1,target-1,memory,0.4204559326171875
2021-06-08T05:38:31.914Z,SHARED_SIDECAR_MULTI_PROBE-16-1-1,1,target-1,memory,0.42061614990234375
2021-06-08T05:38:11.915Z,SHARED_SIDECAR_MULTI_PROBE-16-1-1,1,target-1,memory,0.420318603515625
2021-06-08T05:38:21.914Z,SHARED_SIDECAR_MULTI_PROBE-16-1-1,1,target-1,memory,0.4203147888183594
2021-06-08T05:38:41.914Z,SHARED_SIDECAR_MULTI_PROBE-16-1-1,1,target-1,memory,0.42059326171875
2021-06-08T05:42:31.914Z,SHARED_SIDECAR_MULTI_PROBE-16-1-1,1,target-1,memory,0.4204559326171875
2021-06-08T05:41:51.914Z,SHARED_SIDECAR_MULTI_PROBE-16-1-1,1,target-1,memory,0.4204673767089844
2021-06-08T05:42:11.914Z,SHARED_SIDECAR_MULTI_PROBE-16-1-1,1,target-1,memory,0.4199790954589844
2021-06-08T05:42:21.914Z,SHARED_SIDECAR_MULTI_PROBE-16-1-1,1,target-1,memory,0.4199790954589844
2021-06-08T05:42:01.915Z,SHARED_SIDECAR_MULTI_PROBE-16-1-1,1,target-1,memory,0.4199790954589844
2021-06-08T05:47:51.914Z,SHARED_SIDECAR_MULTI_PROBE-16-1-1,1,target-1,memory,0.4209632873535156
2021-06-08T05:44:21.914Z,SHARED_SIDECAR_MULTI_PROBE-16-1-1,1,target-1,memory,0.4205970764160156
2021-06-08T05:44:31.914Z,SHARED_SIDECAR_MULTI_PROBE-16-1-1,1,target-1,memory,0.42064666748046875
2021-06-08T05:44:41.914Z,SHARED_SIDECAR_MULTI_PROBE-16-1-1,1,target-1,memory,0.4205818176269531
2021-06-08T05:44:11.914Z,SHARED_SIDECAR_MULTI_PROBE-16-1-1,1,target-1,memory,0.4205970764160156
2021-06-08T05:39:31.914Z,SHARED_SIDECAR_MULTI_PROBE-16-1-1,1,target-1,memory,0.42011260986328125
2021-06-08T05:39:11.914Z,SHARED_SIDECAR_MULTI_PROBE-16-1-1,1,target-1,memory,0.4208526611328125
2021-06-08T05:39:01.914Z,SHARED_SIDECAR_MULTI_PROBE-16-1-1,1,target-1,memory,0.4208526611328125
2021-06-08T05:39:21.914Z,SHARED_SIDECAR_MULTI_PROBE-16-1-1,1,target-1,memory,0.4208526611328125
2021-06-08T05:38:51.914Z,SHARED_SIDECAR_MULTI_PROBE-16-1-1,1,target-1,memory,0.42059326171875
2021-06-08T05:40:51.914Z,SHARED_SIDECAR_MULTI_PROBE-16-1-1,1,target-1,memory,0.4200096130371094
2021-06-08T05:40:21.914Z,SHARED_SIDECAR_MULTI_PROBE-16-1-1,1,target-1,memory,0.4207878112792969
2021-06-08T05:40:41.914Z,SHARED_SIDECAR_MULTI_PROBE-16-1-1,1,target-1,memory,0.4200096130371094
2021-06-08T05:40:31.914Z,SHARED_SIDECAR_MULTI_PROBE-16-1-1,1,target-1,memory,0.4200096130371094
2021-06-08T05:41:01.914Z,SHARED_SIDECAR_MULTI_PROBE-16-1-1,1,target-1,memory,0.4199981689453125
2021-06-08T05:45:51.914Z,SHARED_SIDECAR_MULTI_PROBE-16-1-1,1,target-1,memory,0.4203224182128906
2021-06-08T05:46:01.914Z,SHARED_SIDECAR_MULTI_PROBE-16-1-1,1,target-1,memory,0.4198570251464844
2021-06-08T05:46:11.914Z,SHARED_SIDECAR_MULTI_PROBE-16-1-1,1,target-1,memory,0.4198341369628906
2021-06-08T05:45:41.914Z,SHARED_SIDECAR_MULTI_PROBE-16-1-1,1,target-1,memory,0.4203224182128906
2021-06-08T05:38:01.914Z,SHARED_SIDECAR_MULTI_PROBE-16-1-1,1,target-1,memory,0.4205589294433594
2021-06-08T05:41:41.914Z,SHARED_SIDECAR_MULTI_PROBE-16-1-1,1,target-1,memory,0.4204673767089844
2021-06-08T05:41:31.914Z,SHARED_SIDECAR_MULTI_PROBE-16-1-1,1,target-1,memory,0.4204673767089844
2021-06-08T05:41:11.914Z,SHARED_SIDECAR_MULTI_PROBE-16-1-1,1,target-1,memory,0.4199981689453125
2021-06-08T05:41:21.914Z,SHARED_SIDECAR_MULTI_PROBE-16-1-1,1,target-1,memory,0.4199981689453125
2021-06-08T05:46:41.914Z,SHARED_SIDECAR_MULTI_PROBE-16-1-1,1,target-1,memory,0.4202613830566406
2021-06-08T05:47:01.914Z,SHARED_SIDECAR_MULTI_PROBE-16-1-1,1,target-1,memory,0.4200592041015625
2021-06-08T05:46:21.914Z,SHARED_SIDECAR_MULTI_PROBE-16-1-1,1,target-1,memory,0.4198341369628906
2021-06-08T05:46:31.914Z,SHARED_SIDECAR_MULTI_PROBE-16-1-1,1,target-1,memory,0.4202880859375
2021-06-08T05:46:51.914Z,SHARED_SIDECAR_MULTI_PROBE-16-1-1,1,target-1,memory,0.4202613830566406
2021-06-08T05:44:51.914Z,SHARED_SIDECAR_MULTI_PROBE-16-1-1,1,target-1,memory,0.4205818176269531
2021-06-08T05:45:11.914Z,SHARED_SIDECAR_MULTI_PROBE-16-1-1,1,target-1,memory,0.4200897216796875
2021-06-08T05:45:31.914Z,SHARED_SIDECAR_MULTI_PROBE-16-1-1,1,target-1,memory,0.4203376770019531
2021-06-08T05:45:21.914Z,SHARED_SIDECAR_MULTI_PROBE-16-1-1,1,target-1,memory,0.4200897216796875
2021-06-08T05:45:01.914Z,SHARED_SIDECAR_MULTI_PROBE-16-1-1,1,target-1,memory,0.42010498046875
2021-06-08T05:55:13.512Z,SHARED_SIDECAR_MULTI_PROBE-16-1-1,2,target-1,memory,0.4175682067871094
2021-06-08T05:56:13.512Z,SHARED_SIDECAR_MULTI_PROBE-16-1-1,2,target-1,memory,0.41754913330078125
2021-06-08T05:55:53.512Z,SHARED_SIDECAR_MULTI_PROBE-16-1-1,2,target-1,memory,0.4175682067871094
2021-06-08T05:55:23.512Z,SHARED_SIDECAR_MULTI_PROBE-16-1-1,2,target-1,memory,0.4175682067871094
2021-06-08T05:55:33.512Z,SHARED_SIDECAR_MULTI_PROBE-16-1-1,2,target-1,memory,0.4175682067871094
2021-06-08T05:55:03.512Z,SHARED_SIDECAR_MULTI_PROBE-16-1-1,2,target-1,memory,0.4176216125488281
2021-06-08T05:55:43.512Z,SHARED_SIDECAR_MULTI_PROBE-16-1-1,2,target-1,memory,0.4175682067871094
2021-06-08T05:56:03.512Z,SHARED_SIDECAR_MULTI_PROBE-16-1-1,2,target-1,memory,0.4175605773925781
2021-06-08T05:56:23.512Z,SHARED_SIDECAR_MULTI_PROBE-16-1-1,2,target-1,memory,0.4175453186035156
2021-06-08T05:59:43.512Z,SHARED_SIDECAR_MULTI_PROBE-16-1-1,2,target-1,memory,0.41770172119140625
2021-06-08T05:59:33.512Z,SHARED_SIDECAR_MULTI_PROBE-16-1-1,2,target-1,memory,0.4177055358886719
2021-06-08T05:56:53.512Z,SHARED_SIDECAR_MULTI_PROBE-16-1-1,2,target-1,memory,0.41730499267578125
2021-06-08T05:57:03.512Z,SHARED_SIDECAR_MULTI_PROBE-16-1-1,2,target-1,memory,0.41706085205078125
2021-06-08T05:56:43.512Z,SHARED_SIDECAR_MULTI_PROBE-16-1-1,2,target-1,memory,0.41730499267578125
2021-06-08T05:56:33.512Z,SHARED_SIDECAR_MULTI_PROBE-16-1-1,2,target-1,memory,0.41730499267578125
2021-06-08T05:57:13.512Z,SHARED_SIDECAR_MULTI_PROBE-16-1-1,2,target-1,memory,0.41706085205078125
2021-06-08T05:57:53.512Z,SHARED_SIDECAR_MULTI_PROBE-16-1-1,2,target-1,memory,0.41753387451171875
2021-06-08T05:57:33.512Z,SHARED_SIDECAR_MULTI_PROBE-16-1-1,2,target-1,memory,0.41753387451171875
2021-06-08T05:57:23.512Z,SHARED_SIDECAR_MULTI_PROBE-16-1-1,2,target-1,memory,0.41706085205078125
2021-06-08T05:57:43.512Z,SHARED_SIDECAR_MULTI_PROBE-16-1-1,2,target-1,memory,0.41753387451171875
2021-06-08T05:51:53.512Z,SHARED_SIDECAR_MULTI_PROBE-16-1-1,2,target-1,memory,0.4173240661621094
2021-06-08T05:51:23.512Z,SHARED_SIDECAR_MULTI_PROBE-16-1-1,2,target-1,memory,0.41757965087890625
2021-06-08T05:50:43.512Z,SHARED_SIDECAR_MULTI_PROBE-16-1-1,2,target-1,memory,0.4181404113769531
2021-06-08T05:50:53.512Z,SHARED_SIDECAR_MULTI_PROBE-16-1-1,2,target-1,memory,0.4181404113769531
2021-06-08T05:51:43.512Z,SHARED_SIDECAR_MULTI_PROBE-16-1-1,2,target-1,memory,0.4173240661621094
2021-06-08T05:51:03.512Z,SHARED_SIDECAR_MULTI_PROBE-16-1-1,2,target-1,memory,0.4181327819824219
2021-06-08T05:51:33.512Z,SHARED_SIDECAR_MULTI_PROBE-16-1-1,2,target-1,memory,0.4173316955566406
2021-06-08T05:50:33.512Z,SHARED_SIDECAR_MULTI_PROBE-16-1-1,2,target-1,memory,0.4181175231933594
2021-06-08T05:51:13.512Z,SHARED_SIDECAR_MULTI_PROBE-16-1-1,2,target-1,memory,0.41757965087890625
2021-06-08T05:53:23.512Z,SHARED_SIDECAR_MULTI_PROBE-16-1-1,2,target-1,memory,0.417449951171875
2021-06-08T05:53:03.512Z,SHARED_SIDECAR_MULTI_PROBE-16-1-1,2,target-1,memory,0.4175376892089844
2021-06-08T05:52:43.512Z,SHARED_SIDECAR_MULTI_PROBE-16-1-1,2,target-1,memory,0.4170684814453125
2021-06-08T05:52:33.512Z,SHARED_SIDECAR_MULTI_PROBE-16-1-1,2,target-1,memory,0.4170684814453125
2021-06-08T05:52:13.512Z,SHARED_SIDECAR_MULTI_PROBE-16-1-1,2,target-1,memory,0.4175567626953125
2021-06-08T05:52:03.512Z,SHARED_SIDECAR_MULTI_PROBE-16-1-1,2,target-1,memory,0.4175567626953125
2021-06-08T05:52:53.512Z,SHARED_SIDECAR_MULTI_PROBE-16-1-1,2,target-1,memory,0.4170570373535156
2021-06-08T05:53:13.512Z,SHARED_SIDECAR_MULTI_PROBE-16-1-1,2,target-1,memory,0.417449951171875
2021-06-08T05:52:23.512Z,SHARED_SIDECAR_MULTI_PROBE-16-1-1,2,target-1,memory,0.4175567626953125
2021-06-08T05:54:33.512Z,SHARED_SIDECAR_MULTI_PROBE-16-1-1,2,target-1,memory,0.4174003601074219
2021-06-08T05:53:53.512Z,SHARED_SIDECAR_MULTI_PROBE-16-1-1,2,target-1,memory,0.4169883728027344
2021-06-08T05:54:43.512Z,SHARED_SIDECAR_MULTI_PROBE-16-1-1,2,target-1,memory,0.41738128662109375
2021-06-08T05:53:43.512Z,SHARED_SIDECAR_MULTI_PROBE-16-1-1,2,target-1,memory,0.4171791076660156
2021-06-08T05:54:13.512Z,SHARED_SIDECAR_MULTI_PROBE-16-1-1,2,target-1,memory,0.4169197082519531
2021-06-08T05:54:03.512Z,SHARED_SIDECAR_MULTI_PROBE-16-1-1,2,target-1,memory,0.4169273376464844
2021-06-08T05:53:33.512Z,SHARED_SIDECAR_MULTI_PROBE-16-1-1,2,target-1,memory,0.4172172546386719
2021-06-08T05:54:53.512Z,SHARED_SIDECAR_MULTI_PROBE-16-1-1,2,target-1,memory,0.41738128662109375
2021-06-08T05:54:23.512Z,SHARED_SIDECAR_MULTI_PROBE-16-1-1,2,target-1,memory,0.4169197082519531
2021-06-08T05:50:03.512Z,SHARED_SIDECAR_MULTI_PROBE-16-1-1,2,target-1,memory,0.4183082580566406
2021-06-08T05:50:23.512Z,SHARED_SIDECAR_MULTI_PROBE-16-1-1,2,target-1,memory,0.4181175231933594
2021-06-08T05:49:53.512Z,SHARED_SIDECAR_MULTI_PROBE-16-1-1,2,target-1,memory,0.4183311462402344
2021-06-08T05:50:13.512Z,SHARED_SIDECAR_MULTI_PROBE-16-1-1,2,target-1,memory,0.4181175231933594
2021-06-08T05:58:23.512Z,SHARED_SIDECAR_MULTI_PROBE-16-1-1,2,target-1,memory,0.4174232482910156
2021-06-08T05:58:03.512Z,SHARED_SIDECAR_MULTI_PROBE-16-1-1,2,target-1,memory,0.4175262451171875
2021-06-08T05:58:43.512Z,SHARED_SIDECAR_MULTI_PROBE-16-1-1,2,target-1,memory,0.41741943359375
2021-06-08T05:59:13.512Z,SHARED_SIDECAR_MULTI_PROBE-16-1-1,2,target-1,memory,0.41698455810546875
2021-06-08T05:58:13.512Z,SHARED_SIDECAR_MULTI_PROBE-16-1-1,2,target-1,memory,0.4174232482910156
2021-06-08T05:59:23.512Z,SHARED_SIDECAR_MULTI_PROBE-16-1-1,2,target-1,memory,0.41698455810546875
2021-06-08T05:58:33.512Z,SHARED_SIDECAR_MULTI_PROBE-16-1-1,2,target-1,memory,0.4174232482910156
2021-06-08T05:58:53.512Z,SHARED_SIDECAR_MULTI_PROBE-16-1-1,2,target-1,memory,0.41747283935546875
2021-06-08T05:59:03.512Z,SHARED_SIDECAR_MULTI_PROBE-16-1-1,2,target-1,memory,0.4169921875
2021-06-08T06:05:41.265Z,SHARED_SIDECAR_MULTI_PROBE-16-1-1,3,target-1,memory,0.4198646545410156
2021-06-08T06:05:21.265Z,SHARED_SIDECAR_MULTI_PROBE-16-1-1,3,target-1,memory,0.41939544677734375
2021-06-08T06:05:31.265Z,SHARED_SIDECAR_MULTI_PROBE-16-1-1,3,target-1,memory,0.4193878173828125
2021-06-08T06:05:01.265Z,SHARED_SIDECAR_MULTI_PROBE-16-1-1,3,target-1,memory,0.4196662902832031
2021-06-08T06:05:11.265Z,SHARED_SIDECAR_MULTI_PROBE-16-1-1,3,target-1,memory,0.41939544677734375
2021-06-08T06:05:51.265Z,SHARED_SIDECAR_MULTI_PROBE-16-1-1,3,target-1,memory,0.4198646545410156
2021-06-08T06:06:11.265Z,SHARED_SIDECAR_MULTI_PROBE-16-1-1,3,target-1,memory,0.41937255859375
2021-06-08T06:06:01.265Z,SHARED_SIDECAR_MULTI_PROBE-16-1-1,3,target-1,memory,0.41985321044921875
2021-06-08T06:04:51.265Z,SHARED_SIDECAR_MULTI_PROBE-16-1-1,3,target-1,memory,0.4196662902832031
2021-06-08T06:08:51.265Z,SHARED_SIDECAR_MULTI_PROBE-16-1-1,3,target-1,memory,0.4205513000488281
2021-06-08T06:09:11.265Z,SHARED_SIDECAR_MULTI_PROBE-16-1-1,3,target-1,memory,0.4205284118652344
2021-06-08T06:08:31.265Z,SHARED_SIDECAR_MULTI_PROBE-16-1-1,3,target-1,memory,0.4461860656738281
2021-06-08T06:07:51.265Z,SHARED_SIDECAR_MULTI_PROBE-16-1-1,3,target-1,memory,0.4202880859375
2021-06-08T06:08:21.265Z,SHARED_SIDECAR_MULTI_PROBE-16-1-1,3,target-1,memory,0.4197959899902344
2021-06-08T06:09:01.265Z,SHARED_SIDECAR_MULTI_PROBE-16-1-1,3,target-1,memory,0.4205513000488281
2021-06-08T06:08:01.265Z,SHARED_SIDECAR_MULTI_PROBE-16-1-1,3,target-1,memory,0.4202880859375
2021-06-08T06:08:41.265Z,SHARED_SIDECAR_MULTI_PROBE-16-1-1,3,target-1,memory,0.4205513000488281
2021-06-08T06:08:11.265Z,SHARED_SIDECAR_MULTI_PROBE-16-1-1,3,target-1,memory,0.4197959899902344
2021-06-08T06:06:51.265Z,SHARED_SIDECAR_MULTI_PROBE-16-1-1,3,target-1,memory,0.4198455810546875
2021-06-08T06:07:31.265Z,SHARED_SIDECAR_MULTI_PROBE-16-1-1,3,target-1,memory,0.4193267822265625
2021-06-08T06:07:11.265Z,SHARED_SIDECAR_MULTI_PROBE-16-1-1,3,target-1,memory,0.4190940856933594
2021-06-08T06:06:21.265Z,SHARED_SIDECAR_MULTI_PROBE-16-1-1,3,target-1,memory,0.41937255859375
2021-06-08T06:06:31.265Z,SHARED_SIDECAR_MULTI_PROBE-16-1-1,3,target-1,memory,0.41937255859375
2021-06-08T06:07:21.265Z,SHARED_SIDECAR_MULTI_PROBE-16-1-1,3,target-1,memory,0.4190940856933594
2021-06-08T06:07:41.265Z,SHARED_SIDECAR_MULTI_PROBE-16-1-1,3,target-1,memory,0.4202880859375
2021-06-08T06:06:41.265Z,SHARED_SIDECAR_MULTI_PROBE-16-1-1,3,target-1,memory,0.4198455810546875
2021-06-08T06:07:01.265Z,SHARED_SIDECAR_MULTI_PROBE-16-1-1,3,target-1,memory,0.4198455810546875
2021-06-08T06:02:11.265Z,SHARED_SIDECAR_MULTI_PROBE-16-1-1,3,target-1,memory,0.42041015625
2021-06-08T06:02:01.265Z,SHARED_SIDECAR_MULTI_PROBE-16-1-1,3,target-1,memory,0.4209327697753906
2021-06-08T06:01:41.265Z,SHARED_SIDECAR_MULTI_PROBE-16-1-1,3,target-1,memory,0.4209098815917969
2021-06-08T06:02:21.265Z,SHARED_SIDECAR_MULTI_PROBE-16-1-1,3,target-1,memory,0.420440673828125
2021-06-08T06:01:51.265Z,SHARED_SIDECAR_MULTI_PROBE-16-1-1,3,target-1,memory,0.4209098815917969
2021-06-08T06:02:51.265Z,SHARED_SIDECAR_MULTI_PROBE-16-1-1,3,target-1,memory,0.4211387634277344
2021-06-08T06:03:31.265Z,SHARED_SIDECAR_MULTI_PROBE-16-1-1,3,target-1,memory,0.41999053955078125
2021-06-08T06:03:11.265Z,SHARED_SIDECAR_MULTI_PROBE-16-1-1,3,target-1,memory,0.4199981689453125
2021-06-08T06:03:51.265Z,SHARED_SIDECAR_MULTI_PROBE-16-1-1,3,target-1,memory,0.41999053955078125
2021-06-08T06:03:41.265Z,SHARED_SIDECAR_MULTI_PROBE-16-1-1,3,target-1,memory,0.41999053955078125
2021-06-08T06:03:01.265Z,SHARED_SIDECAR_MULTI_PROBE-16-1-1,3,target-1,memory,0.4211311340332031
2021-06-08T06:02:31.265Z,SHARED_SIDECAR_MULTI_PROBE-16-1-1,3,target-1,memory,0.4204368591308594
2021-06-08T06:03:21.265Z,SHARED_SIDECAR_MULTI_PROBE-16-1-1,3,target-1,memory,0.41999053955078125
2021-06-08T06:02:41.265Z,SHARED_SIDECAR_MULTI_PROBE-16-1-1,3,target-1,memory,0.42137908935546875
2021-06-08T06:04:11.265Z,SHARED_SIDECAR_MULTI_PROBE-16-1-1,3,target-1,memory,0.419921875
2021-06-08T06:04:01.265Z,SHARED_SIDECAR_MULTI_PROBE-16-1-1,3,target-1,memory,0.4199790954589844
2021-06-08T06:04:31.265Z,SHARED_SIDECAR_MULTI_PROBE-16-1-1,3,target-1,memory,0.41991424560546875
2021-06-08T06:04:41.265Z,SHARED_SIDECAR_MULTI_PROBE-16-1-1,3,target-1,memory,0.4196739196777344
2021-06-08T06:04:21.265Z,SHARED_SIDECAR_MULTI_PROBE-16-1-1,3,target-1,memory,0.41991424560546875
2021-06-08T06:11:31.265Z,SHARED_SIDECAR_MULTI_PROBE-16-1-1,3,target-1,memory,0.42047119140625
2021-06-08T06:11:01.265Z,SHARED_SIDECAR_MULTI_PROBE-16-1-1,3,target-1,memory,0.42000579833984375
2021-06-08T06:10:51.265Z,SHARED_SIDECAR_MULTI_PROBE-16-1-1,3,target-1,memory,0.420013427734375
2021-06-08T06:11:11.265Z,SHARED_SIDECAR_MULTI_PROBE-16-1-1,3,target-1,memory,0.4204864501953125
2021-06-08T06:11:21.265Z,SHARED_SIDECAR_MULTI_PROBE-16-1-1,3,target-1,memory,0.4204864501953125
2021-06-08T06:10:41.265Z,SHARED_SIDECAR_MULTI_PROBE-16-1-1,3,target-1,memory,0.420013427734375
2021-06-08T06:10:21.265Z,SHARED_SIDECAR_MULTI_PROBE-16-1-1,3,target-1,memory,0.42050933837890625
2021-06-08T06:10:11.265Z,SHARED_SIDECAR_MULTI_PROBE-16-1-1,3,target-1,memory,0.42050933837890625
2021-06-08T06:09:21.265Z,SHARED_SIDECAR_MULTI_PROBE-16-1-1,3,target-1,memory,0.4205284118652344
2021-06-08T06:10:01.265Z,SHARED_SIDECAR_MULTI_PROBE-16-1-1,3,target-1,memory,0.42003631591796875
2021-06-08T06:09:51.265Z,SHARED_SIDECAR_MULTI_PROBE-16-1-1,3,target-1,memory,0.42003631591796875
2021-06-08T06:10:31.265Z,SHARED_SIDECAR_MULTI_PROBE-16-1-1,3,target-1,memory,0.42049407958984375
2021-06-08T06:09:41.265Z,SHARED_SIDECAR_MULTI_PROBE-16-1-1,3,target-1,memory,0.42003631591796875
2021-06-08T06:09:31.265Z,SHARED_SIDECAR_MULTI_PROBE-16-1-1,3,target-1,memory,0.4205284118652344
