2023-07-24T12:44:59.206Z,emailservice,network_out,22822184
2023-07-24T12:45:00.397Z,checkoutservice,network_out,24195779
2023-07-24T12:45:00.466Z,paymentservice-1,network_out,9326497
2023-07-24T12:45:01.163Z,currencyservice,network_out,27033660
2023-07-24T12:45:03.091Z,cartservice,network_out,23944943
2023-07-24T12:45:03.293Z,adservice,network_out,21743390
2023-07-24T12:45:04.405Z,probe-holder,network_out,250813431
2023-07-24T12:45:04.796Z,recommendationservice,network_out,7756236
2023-07-24T12:45:06.500Z,productcatalogservice,network_out,23305075
2023-07-24T12:45:08.253Z,paymentservice-2,network_out,2453041
2023-07-24T12:45:09.207Z,emailservice,network_out,22837994
2023-07-24T12:45:09.137Z,shippingservice,network_out,22210643
2023-07-24T12:45:10.398Z,checkoutservice,network_out,24211230
2023-07-24T12:45:10.466Z,paymentservice-1,network_out,9345371
2023-07-24T12:45:11.164Z,currencyservice,network_out,27055344
2023-07-24T12:45:13.091Z,cartservice,network_out,23965333
2023-07-24T12:45:13.293Z,adservice,network_out,21770278
2023-07-24T12:45:14.405Z,probe-holder,network_out,251159499
2023-07-24T12:45:14.797Z,recommendationservice,network_out,7771470
2023-07-24T12:45:16.500Z,productcatalogservice,network_out,23323385
2023-07-24T12:45:18.254Z,paymentservice-2,network_out,2476982
2023-07-24T12:45:19.206Z,emailservice,network_out,22859073
2023-07-24T12:45:19.138Z,shippingservice,network_out,22231232
2023-07-24T12:45:20.398Z,checkoutservice,network_out,24232570
2023-07-24T12:45:20.466Z,paymentservice-1,network_out,9369488
2023-07-24T12:45:21.164Z,currencyservice,network_out,27079524
2023-07-24T12:45:23.091Z,cartservice,network_out,23986012
2023-07-24T12:45:23.293Z,adservice,network_out,21795156
2023-07-24T12:45:24.405Z,probe-holder,network_out,251502779
2023-07-24T12:45:24.796Z,recommendationservice,network_out,7792131
2023-07-24T12:45:26.500Z,productcatalogservice,network_out,23344205
2023-07-24T12:45:28.254Z,paymentservice-2,network_out,2495785
2023-07-24T12:45:29.138Z,shippingservice,network_out,22245905
2023-07-24T12:45:29.206Z,emailservice,network_out,22880861
2023-07-24T12:45:30.398Z,checkoutservice,network_out,24253055
2023-07-24T12:45:30.466Z,paymentservice-1,network_out,9393619
2023-07-24T12:45:31.165Z,currencyservice,network_out,27103702
2023-07-24T12:45:33.091Z,cartservice,network_out,24006492
2023-07-24T12:45:33.293Z,adservice,network_out,21814008
2023-07-24T12:45:34.405Z,probe-holder,network_out,251840562
2023-07-24T12:45:34.796Z,recommendationservice,network_out,7812791
2023-07-24T12:45:36.500Z,productcatalogservice,network_out,23365098
2023-07-24T12:45:38.254Z,paymentservice-2,network_out,2522794
2023-07-24T12:45:39.138Z,shippingservice,network_out,22265821
2023-07-24T12:45:39.206Z,emailservice,network_out,22899564
2023-07-24T12:45:40.398Z,checkoutservice,network_out,24271379
2023-07-24T12:45:40.466Z,paymentservice-1,network_out,9412483
2023-07-24T12:45:41.164Z,currencyservice,network_out,27122588
2023-07-24T12:45:43.091Z,cartservice,network_out,24027019
2023-07-24T12:45:43.293Z,adservice,network_out,21838158
2023-07-24T12:45:44.405Z,probe-holder,network_out,252184407
2023-07-24T12:45:44.797Z,recommendationservice,network_out,7828206
2023-07-24T12:45:46.500Z,productcatalogservice,network_out,23380613
2023-07-24T12:45:48.254Z,paymentservice-2,network_out,2547643
2023-07-24T12:45:49.138Z,shippingservice,network_out,22288671
2023-07-24T12:45:49.207Z,emailservice,network_out,22920621
2023-07-24T12:45:50.398Z,checkoutservice,network_out,24294564
2023-07-24T12:45:50.466Z,paymentservice-1,network_out,9439484
2023-07-24T12:45:51.164Z,currencyservice,network_out,27146718
2023-07-24T12:45:53.091Z,cartservice,network_out,24042276
2023-07-24T12:45:53.293Z,adservice,network_out,21857048
2023-07-24T12:45:54.405Z,probe-holder,network_out,252527349
2023-07-24T12:45:54.797Z,recommendationservice,network_out,7859098
2023-07-24T12:45:56.500Z,productcatalogservice,network_out,23402136
2023-07-24T12:45:58.254Z,paymentservice-2,network_out,2566470
2023-07-24T12:45:59.138Z,shippingservice,network_out,22303358
2023-07-24T12:45:59.207Z,emailservice,network_out,22941881
2023-07-24T12:46:00.398Z,checkoutservice,network_out,24315188
2023-07-24T12:46:00.466Z,paymentservice-1,network_out,9464474
2023-07-24T12:46:01.164Z,currencyservice,network_out,27171800
2023-07-24T12:46:03.091Z,cartservice,network_out,24063637
2023-07-24T12:46:03.293Z,adservice,network_out,21881233
2023-07-24T12:46:04.405Z,probe-holder,network_out,252865384
2023-07-24T12:46:04.797Z,recommendationservice,network_out,7880593
2023-07-24T12:46:06.500Z,productcatalogservice,network_out,23423099
2023-07-24T12:46:08.254Z,paymentservice-2,network_out,2590671
2023-07-24T12:46:09.138Z,shippingservice,network_out,22323501
2023-07-24T12:46:09.206Z,emailservice,network_out,22957706
2023-07-24T12:46:10.398Z,checkoutservice,network_out,24330574
2023-07-24T12:46:10.466Z,paymentservice-1,network_out,9483347
2023-07-24T12:46:11.164Z,currencyservice,network_out,27193593
2023-07-24T12:46:13.091Z,cartservice,network_out,24084125
2023-07-24T12:46:13.293Z,adservice,network_out,21908262
2023-07-24T12:46:14.405Z,probe-holder,network_out,253210621
2023-07-24T12:46:14.797Z,recommendationservice,network_out,7895967
2023-07-24T12:46:16.500Z,productcatalogservice,network_out,23441526
2023-07-24T12:46:18.254Z,paymentservice-2,network_out,2614752
2023-07-24T12:46:19.138Z,shippingservice,network_out,22344283
2023-07-24T12:46:19.207Z,emailservice,network_out,22978759
2023-07-24T12:46:20.398Z,checkoutservice,network_out,24351936
2023-07-24T12:46:20.466Z,paymentservice-1,network_out,9507425
2023-07-24T12:46:21.164Z,currencyservice,network_out,27217709
2023-07-24T12:46:23.091Z,cartservice,network_out,24102292
2023-07-24T12:46:23.293Z,adservice,network_out,21927147
2023-07-24T12:46:24.405Z,probe-holder,network_out,253551078
2023-07-24T12:46:24.797Z,recommendationservice,network_out,7916625
2023-07-24T12:46:26.500Z,productcatalogservice,network_out,23462359
2023-07-24T12:46:28.254Z,paymentservice-2,network_out,2633521
2023-07-24T12:46:29.139Z,shippingservice,network_out,22358986
2023-07-24T12:46:29.207Z,emailservice,network_out,23000563
2023-07-24T12:46:30.398Z,checkoutservice,network_out,24372429
2023-07-24T12:46:30.466Z,paymentservice-1,network_out,9526214
2023-07-24T12:46:31.164Z,currencyservice,network_out,27241851
2023-07-24T12:46:33.091Z,cartservice,network_out,24122772
2023-07-24T12:46:33.293Z,adservice,network_out,21951949
2023-07-24T12:46:34.405Z,probe-holder,network_out,253886400
2023-07-24T12:46:34.797Z,recommendationservice,network_out,7937280
2023-07-24T12:46:36.500Z,productcatalogservice,network_out,23483201
2023-07-24T12:46:38.254Z,paymentservice-2,network_out,2660484
2023-07-24T12:46:39.138Z,shippingservice,network_out,22378995
2023-07-24T12:46:39.206Z,emailservice,network_out,23019249
2023-07-24T12:46:40.398Z,checkoutservice,network_out,24390687
2023-07-24T12:46:40.466Z,paymentservice-1,network_out,9550301
2023-07-24T12:46:41.164Z,currencyservice,network_out,27260701
2023-07-24T12:46:43.091Z,cartservice,network_out,24143332
2023-07-24T12:46:43.293Z,adservice,network_out,21976043
2023-07-24T12:46:44.405Z,probe-holder,network_out,254227497
2023-07-24T12:46:44.797Z,recommendationservice,network_out,7952645
2023-07-24T12:46:46.500Z,productcatalogservice,network_out,23498748
2023-07-24T12:46:48.254Z,paymentservice-2,network_out,2685234
2023-07-24T12:46:49.138Z,shippingservice,network_out,22401845
2023-07-24T12:46:49.207Z,emailservice,network_out,23040306
2023-07-24T12:46:50.398Z,checkoutservice,network_out,24411284
2023-07-24T12:46:50.466Z,paymentservice-1,network_out,9577272
2023-07-24T12:46:51.164Z,currencyservice,network_out,27284769
2023-07-24T12:46:53.091Z,cartservice,network_out,24158597
2023-07-24T12:46:53.293Z,adservice,network_out,21994927
2023-07-24T12:46:54.405Z,probe-holder,network_out,254568067
2023-07-24T12:46:54.797Z,recommendationservice,network_out,7976212
2023-07-24T12:46:56.500Z,productcatalogservice,network_out,23520265
2023-07-24T12:46:58.254Z,paymentservice-2,network_out,2704009
2023-07-24T12:46:59.138Z,shippingservice,network_out,22416543
2023-07-24T12:46:59.206Z,emailservice,network_out,23061360
2023-07-24T12:47:00.398Z,checkoutservice,network_out,24431886
2023-07-24T12:47:00.466Z,paymentservice-1,network_out,9596110
2023-07-24T12:47:01.164Z,currencyservice,network_out,27303643
2023-07-24T12:47:03.091Z,cartservice,network_out,24179862
2023-07-24T12:47:03.293Z,adservice,network_out,22019048
2023-07-24T12:47:04.405Z,probe-holder,network_out,254903295
2023-07-24T12:47:04.796Z,recommendationservice,network_out,7997587
2023-07-24T12:47:06.500Z,productcatalogservice,network_out,23541079
2023-07-24T12:47:08.254Z,paymentservice-2,network_out,2728049
2023-07-24T12:47:09.138Z,shippingservice,network_out,22436491
2023-07-24T12:47:09.206Z,emailservice,network_out,23077164
2023-07-24T12:47:10.398Z,checkoutservice,network_out,24447405
2023-07-24T12:47:10.466Z,paymentservice-1,network_out,9620922
2023-07-24T12:47:11.164Z,currencyservice,network_out,27331359
2023-07-24T12:47:13.091Z,cartservice,network_out,24200359
2023-07-24T12:47:13.293Z,adservice,network_out,22046070
2023-07-24T12:47:14.405Z,probe-holder,network_out,255246627
2023-07-24T12:47:14.797Z,recommendationservice,network_out,8012949
2023-07-24T12:47:16.500Z,productcatalogservice,network_out,23559507
2023-07-24T12:47:18.254Z,paymentservice-2,network_out,2752111
2023-07-24T12:47:19.138Z,shippingservice,network_out,22457222
2023-07-24T12:47:19.207Z,emailservice,network_out,23098264
2023-07-24T12:47:20.398Z,checkoutservice,network_out,24468853
2023-07-24T12:47:20.466Z,paymentservice-1,network_out,9645039
2023-07-24T12:47:21.164Z,currencyservice,network_out,27355429
2023-07-24T12:47:23.091Z,cartservice,network_out,24218520
2023-07-24T12:47:23.293Z,adservice,network_out,22064988
2023-07-24T12:47:24.405Z,probe-holder,network_out,255587062
2023-07-24T12:47:24.796Z,recommendationservice,network_out,8033666
2023-07-24T12:47:26.500Z,productcatalogservice,network_out,23580353
2023-07-24T12:47:28.254Z,paymentservice-2,network_out,2770902
2023-07-24T12:47:29.138Z,shippingservice,network_out,22471987
2023-07-24T12:47:29.206Z,emailservice,network_out,23120040
2023-07-24T12:47:30.398Z,checkoutservice,network_out,24489385
2023-07-24T12:47:30.466Z,paymentservice-1,network_out,9663858
2023-07-24T12:47:31.164Z,currencyservice,network_out,27374331
2023-07-24T12:47:33.091Z,cartservice,network_out,24239011
2023-07-24T12:47:33.293Z,adservice,network_out,22089746
2023-07-24T12:47:34.405Z,probe-holder,network_out,255922310
2023-07-24T12:47:34.797Z,recommendationservice,network_out,8054342
2023-07-24T12:47:36.500Z,productcatalogservice,network_out,23601144
2023-07-24T12:47:38.254Z,paymentservice-2,network_out,2797818
2023-07-24T12:47:39.138Z,shippingservice,network_out,22491954
2023-07-24T12:47:39.206Z,emailservice,network_out,23138744
2023-07-24T12:47:40.398Z,checkoutservice,network_out,24507703
2023-07-24T12:47:40.466Z,paymentservice-1,network_out,9687951
2023-07-24T12:47:41.164Z,currencyservice,network_out,27398513
2023-07-24T12:47:43.091Z,cartservice,network_out,24259543
2023-07-24T12:47:43.293Z,adservice,network_out,22113958
2023-07-24T12:47:44.405Z,probe-holder,network_out,256263322
2023-07-24T12:47:44.797Z,recommendationservice,network_out,8069689
2023-07-24T12:47:46.500Z,productcatalogservice,network_out,23616670
2023-07-24T12:47:48.254Z,paymentservice-2,network_out,2825205
2023-07-24T12:47:49.138Z,shippingservice,network_out,22514837
2023-07-24T12:47:49.207Z,emailservice,network_out,23159808
2023-07-24T12:47:50.398Z,checkoutservice,network_out,24528269
2023-07-24T12:47:50.466Z,paymentservice-1,network_out,9714938
2023-07-24T12:47:51.164Z,currencyservice,network_out,27422668
2023-07-24T12:47:53.091Z,cartservice,network_out,24274786
2023-07-24T12:47:53.293Z,adservice,network_out,22132882
2023-07-24T12:47:54.405Z,probe-holder,network_out,256603862
2023-07-24T12:47:54.797Z,recommendationservice,network_out,8093185
2023-07-24T12:47:56.500Z,productcatalogservice,network_out,23638231
2023-07-24T12:47:58.254Z,paymentservice-2,network_out,2844003
2023-07-24T12:47:59.138Z,shippingservice,network_out,22529511
2023-07-24T12:47:59.207Z,emailservice,network_out,23180834
2023-07-24T12:48:00.398Z,checkoutservice,network_out,24548751
2023-07-24T12:48:00.466Z,paymentservice-1,network_out,9733774
2023-07-24T12:48:01.164Z,currencyservice,network_out,27441553
2023-07-24T12:48:03.091Z,cartservice,network_out,24296001
2023-07-24T12:48:03.293Z,adservice,network_out,22156942
2023-07-24T12:48:04.405Z,probe-holder,network_out,256939274
2023-07-24T12:48:04.797Z,recommendationservice,network_out,8108466
2023-07-24T12:48:06.500Z,productcatalogservice,network_out,23659125
2023-07-24T12:48:08.254Z,paymentservice-2,network_out,2868060
2023-07-24T12:48:09.138Z,shippingservice,network_out,22549501
2023-07-24T12:48:09.206Z,emailservice,network_out,23196643
2023-07-24T12:48:10.398Z,checkoutservice,network_out,24564143
2023-07-24T12:48:10.466Z,paymentservice-1,network_out,9758537
2023-07-24T12:48:11.164Z,currencyservice,network_out,27471792
2023-07-24T12:48:13.091Z,cartservice,network_out,24316510
2023-07-24T12:48:13.293Z,adservice,network_out,22184007
2023-07-24T12:48:14.405Z,probe-holder,network_out,257282604
2023-07-24T12:48:14.797Z,recommendationservice,network_out,8129846
2023-07-24T12:48:16.500Z,productcatalogservice,network_out,23677534
2023-07-24T12:48:18.254Z,paymentservice-2,network_out,2892082
2023-07-24T12:48:19.138Z,shippingservice,network_out,22570155
2023-07-24T12:48:19.207Z,emailservice,network_out,23217696
2023-07-24T12:48:20.398Z,checkoutservice,network_out,24585537
2023-07-24T12:48:20.466Z,paymentservice-1,network_out,9782603
2023-07-24T12:48:21.164Z,currencyservice,network_out,27495915
2023-07-24T12:48:23.091Z,cartservice,network_out,24334675
2023-07-24T12:48:23.293Z,adservice,network_out,22202907
2023-07-24T12:48:24.405Z,probe-holder,network_out,257623014
2023-07-24T12:48:24.797Z,recommendationservice,network_out,8150499
2023-07-24T12:48:26.500Z,productcatalogservice,network_out,23698371
2023-07-24T12:48:28.254Z,paymentservice-2,network_out,2910884
2023-07-24T12:48:29.138Z,shippingservice,network_out,22584887
2023-07-24T12:48:29.206Z,emailservice,network_out,23239454
2023-07-24T12:48:30.398Z,checkoutservice,network_out,24606020
2023-07-24T12:48:30.466Z,paymentservice-1,network_out,9801433
2023-07-24T12:48:31.164Z,currencyservice,network_out,27514789
2023-07-24T12:48:33.091Z,cartservice,network_out,24355176
2023-07-24T12:48:33.293Z,adservice,network_out,22227720
2023-07-24T12:48:34.405Z,probe-holder,network_out,257958199
2023-07-24T12:48:34.797Z,recommendationservice,network_out,8165847
2023-07-24T12:48:36.500Z,productcatalogservice,network_out,23719233
2023-07-24T12:48:38.254Z,paymentservice-2,network_out,2937789
2023-07-24T12:48:39.138Z,shippingservice,network_out,22604866
2023-07-24T12:48:39.206Z,emailservice,network_out,23258166
2023-07-24T12:48:40.398Z,checkoutservice,network_out,24624287
2023-07-24T12:48:40.466Z,paymentservice-1,network_out,9825546
2023-07-24T12:48:41.164Z,currencyservice,network_out,27538913
2023-07-24T12:48:43.091Z,cartservice,network_out,24375760
2023-07-24T12:48:43.293Z,adservice,network_out,22251869
2023-07-24T12:48:44.405Z,probe-holder,network_out,258299361
2023-07-24T12:48:44.797Z,recommendationservice,network_out,8186509
2023-07-24T12:48:46.500Z,productcatalogservice,network_out,23734767
2023-07-24T12:48:48.254Z,paymentservice-2,network_out,2962556
2023-07-24T12:48:49.138Z,shippingservice,network_out,22627802
2023-07-24T12:48:49.207Z,emailservice,network_out,23279250
2023-07-24T12:48:50.398Z,checkoutservice,network_out,24644916
2023-07-24T12:48:50.466Z,paymentservice-1,network_out,9852510
2023-07-24T12:48:51.164Z,currencyservice,network_out,27562967
2023-07-24T12:48:53.091Z,cartservice,network_out,24391048
2023-07-24T12:48:53.293Z,adservice,network_out,22270824
2023-07-24T12:48:54.405Z,probe-holder,network_out,258639728
2023-07-24T12:48:54.797Z,recommendationservice,network_out,8210065
2023-07-24T12:48:56.500Z,productcatalogservice,network_out,23756308
2023-07-24T12:48:58.254Z,paymentservice-2,network_out,2981323
2023-07-24T12:48:59.138Z,shippingservice,network_out,22642490
2023-07-24T12:48:59.206Z,emailservice,network_out,23300321
2023-07-24T12:49:00.398Z,checkoutservice,network_out,24665426
2023-07-24T12:49:00.466Z,paymentservice-1,network_out,9871322
2023-07-24T12:49:01.164Z,currencyservice,network_out,27581823
2023-07-24T12:49:03.091Z,cartservice,network_out,24412221
2023-07-24T12:49:03.293Z,adservice,network_out,22294875
2023-07-24T12:49:04.405Z,probe-holder,network_out,258975027
2023-07-24T12:49:04.797Z,recommendationservice,network_out,8225399
2023-07-24T12:49:06.500Z,productcatalogservice,network_out,23777102
2023-07-24T12:49:08.254Z,paymentservice-2,network_out,3005428
2023-07-24T12:49:09.138Z,shippingservice,network_out,22662456
2023-07-24T12:49:09.207Z,emailservice,network_out,23316147
2023-07-24T12:49:10.398Z,checkoutservice,network_out,24680781
2023-07-24T12:49:10.466Z,paymentservice-1,network_out,9896121
2023-07-24T12:49:11.164Z,currencyservice,network_out,27609548
2023-07-24T12:49:13.091Z,cartservice,network_out,24427918
2023-07-24T12:49:13.293Z,adservice,network_out,22321956
2023-07-24T12:49:14.405Z,probe-holder,network_out,259318501
2023-07-24T12:49:14.797Z,recommendationservice,network_out,8246751
2023-07-24T12:49:16.500Z,productcatalogservice,network_out,23795509
2023-07-24T12:49:18.254Z,paymentservice-2,network_out,3029482
2023-07-24T12:49:19.139Z,shippingservice,network_out,22683119
2023-07-24T12:49:19.207Z,emailservice,network_out,23337228
2023-07-24T12:49:20.398Z,checkoutservice,network_out,24702155
2023-07-24T12:49:20.466Z,paymentservice-1,network_out,9920231
2023-07-24T12:49:21.164Z,currencyservice,network_out,27633648
2023-07-24T12:49:23.091Z,cartservice,network_out,24450997
2023-07-24T12:49:23.293Z,adservice,network_out,22340858
2023-07-24T12:49:24.405Z,probe-holder,network_out,259654123
2023-07-24T12:49:24.797Z,recommendationservice,network_out,8267403
2023-07-24T12:49:26.500Z,productcatalogservice,network_out,23816336
2023-07-24T12:49:28.254Z,paymentservice-2,network_out,3048247
2023-07-24T12:49:29.138Z,shippingservice,network_out,22697896
2023-07-24T12:49:29.207Z,emailservice,network_out,23359010
2023-07-24T12:49:30.398Z,checkoutservice,network_out,24722661
2023-07-24T12:49:30.466Z,paymentservice-1,network_out,9939066
2023-07-24T12:49:31.164Z,currencyservice,network_out,27652563
2023-07-24T12:49:33.091Z,cartservice,network_out,24471546
2023-07-24T12:49:33.293Z,adservice,network_out,22365659
2023-07-24T12:49:34.405Z,probe-holder,network_out,259994435
2023-07-24T12:49:34.797Z,recommendationservice,network_out,8282765
2023-07-24T12:49:36.501Z,productcatalogservice,network_out,23837250
2023-07-24T12:49:38.254Z,paymentservice-2,network_out,3075226
2023-07-24T12:49:39.138Z,shippingservice,network_out,22717897
2023-07-24T12:49:39.207Z,emailservice,network_out,23377691
2023-07-24T12:49:40.398Z,checkoutservice,network_out,24740929
2023-07-24T12:49:40.466Z,paymentservice-1,network_out,9963144
2023-07-24T12:49:41.164Z,currencyservice,network_out,27676713
2023-07-24T12:49:43.091Z,cartservice,network_out,24486819
2023-07-24T12:49:43.293Z,adservice,network_out,22389828
2023-07-24T12:49:44.405Z,probe-holder,network_out,260335662
2023-07-24T12:49:44.797Z,recommendationservice,network_out,8303399
2023-07-24T12:49:46.500Z,productcatalogservice,network_out,23852870
2023-07-24T12:49:48.254Z,paymentservice-2,network_out,3099989
2023-07-24T12:49:49.138Z,shippingservice,network_out,22735577
2023-07-24T12:49:49.206Z,emailservice,network_out,23401274
2023-07-24T12:49:50.398Z,checkoutservice,network_out,24761563
2023-07-24T12:49:50.466Z,paymentservice-1,network_out,9990129
2023-07-24T12:49:51.164Z,currencyservice,network_out,27700790
2023-07-24T12:49:53.091Z,cartservice,network_out,24507443
2023-07-24T12:49:53.293Z,adservice,network_out,22408705
2023-07-24T12:49:54.405Z,probe-holder,network_out,260671213
2023-07-24T12:49:54.797Z,recommendationservice,network_out,8326949
2023-07-24T12:49:56.500Z,productcatalogservice,network_out,23874489
2023-07-24T12:49:58.254Z,paymentservice-2,network_out,3118785
2023-07-24T12:49:59.138Z,shippingservice,network_out,22755573
2023-07-24T12:49:59.206Z,emailservice,network_out,23422322
2023-07-24T12:50:00.398Z,checkoutservice,network_out,24782044
2023-07-24T12:50:00.466Z,paymentservice-1,network_out,10008964
2023-07-24T12:50:01.164Z,currencyservice,network_out,27719662
2023-07-24T12:50:03.091Z,cartservice,network_out,24528722
2023-07-24T12:50:03.293Z,adservice,network_out,22432783
2023-07-24T12:50:04.405Z,probe-holder,network_out,261012622
2023-07-24T12:50:04.797Z,recommendationservice,network_out,8342392
2023-07-24T12:50:06.500Z,productcatalogservice,network_out,23890069
2023-07-24T12:50:08.254Z,paymentservice-2,network_out,3142810
2023-07-24T12:50:09.138Z,shippingservice,network_out,22775559
2023-07-24T12:50:09.206Z,emailservice,network_out,23438194
2023-07-24T12:50:10.398Z,checkoutservice,network_out,24797452
2023-07-24T12:50:10.466Z,paymentservice-1,network_out,10033790
2023-07-24T12:50:11.164Z,currencyservice,network_out,27747419
2023-07-24T12:50:13.091Z,cartservice,network_out,24544059
2023-07-24T12:50:13.293Z,adservice,network_out,22459815
2023-07-24T12:50:14.405Z,probe-holder,network_out,261356285
2023-07-24T12:50:14.797Z,recommendationservice,network_out,8363770
2023-07-24T12:50:16.500Z,productcatalogservice,network_out,23913845
2023-07-24T12:50:18.254Z,paymentservice-2,network_out,3166909
2023-07-24T12:50:19.138Z,shippingservice,network_out,22790258
2023-07-24T12:50:19.207Z,emailservice,network_out,23459266
2023-07-24T12:50:20.398Z,checkoutservice,network_out,24818657
2023-07-24T12:50:20.466Z,paymentservice-1,network_out,10057875
2023-07-24T12:50:21.164Z,currencyservice,network_out,27771566
2023-07-24T12:50:23.091Z,cartservice,network_out,24567560
2023-07-24T12:50:23.293Z,adservice,network_out,22478733
2023-07-24T12:50:24.405Z,probe-holder,network_out,261691459
2023-07-24T12:50:24.797Z,recommendationservice,network_out,8384416
2023-07-24T12:50:26.500Z,productcatalogservice,network_out,23934737
2023-07-24T12:50:28.254Z,paymentservice-2,network_out,3185686
2023-07-24T12:50:29.138Z,shippingservice,network_out,22811032
2023-07-24T12:50:29.206Z,emailservice,network_out,23482962
2023-07-24T12:50:30.398Z,checkoutservice,network_out,24839301
2023-07-24T12:50:30.466Z,paymentservice-1,network_out,10076830
2023-07-24T12:50:31.165Z,currencyservice,network_out,27790415
2023-07-24T12:50:33.091Z,cartservice,network_out,24588123
2023-07-24T12:50:33.293Z,adservice,network_out,22503493
2023-07-24T12:50:34.405Z,probe-holder,network_out,262031839
2023-07-24T12:50:34.796Z,recommendationservice,network_out,8399726
2023-07-24T12:50:36.500Z,productcatalogservice,network_out,23950277
2023-07-24T12:50:38.254Z,paymentservice-2,network_out,3212603
2023-07-24T12:50:39.138Z,shippingservice,network_out,22831088
2023-07-24T12:50:39.206Z,emailservice,network_out,23506896
2023-07-24T12:50:40.398Z,checkoutservice,network_out,24857537
2023-07-24T12:50:40.466Z,paymentservice-1,network_out,10100908
2023-07-24T12:50:41.164Z,currencyservice,network_out,27814551
2023-07-24T12:50:43.091Z,cartservice,network_out,24603418
2023-07-24T12:50:43.293Z,adservice,network_out,22527677
2023-07-24T12:50:44.405Z,probe-holder,network_out,262372962
2023-07-24T12:50:44.797Z,recommendationservice,network_out,8420375
2023-07-24T12:50:46.500Z,productcatalogservice,network_out,23971245
2023-07-24T12:50:48.254Z,paymentservice-2,network_out,3237349
2023-07-24T12:50:49.138Z,shippingservice,network_out,22848762
2023-07-24T12:50:49.206Z,emailservice,network_out,23527963
2023-07-24T12:50:50.398Z,checkoutservice,network_out,24878088
2023-07-24T12:50:50.466Z,paymentservice-1,network_out,10122661
2023-07-24T12:50:51.164Z,currencyservice,network_out,27838594
2023-07-24T12:50:53.091Z,cartservice,network_out,24624055
2023-07-24T12:50:53.293Z,adservice,network_out,22546599
2023-07-24T12:50:54.405Z,probe-holder,network_out,262708054
2023-07-24T12:50:54.797Z,recommendationservice,network_out,8443920
2023-07-24T12:50:56.500Z,productcatalogservice,network_out,23992843
2023-07-24T12:50:58.254Z,paymentservice-2,network_out,3256123
2023-07-24T12:50:59.138Z,shippingservice,network_out,22868793
2023-07-24T12:50:59.207Z,emailservice,network_out,23543785
2023-07-24T12:51:00.399Z,checkoutservice,network_out,24898699
2023-07-24T12:51:00.466Z,paymentservice-1,network_out,10146827
2023-07-24T12:51:01.164Z,currencyservice,network_out,27857456
2023-07-24T12:51:03.091Z,cartservice,network_out,24645218
2023-07-24T12:51:03.293Z,adservice,network_out,22570671
2023-07-24T12:51:04.405Z,probe-holder,network_out,263048394
2023-07-24T12:51:04.797Z,recommendationservice,network_out,8459327
2023-07-24T12:51:06.501Z,productcatalogservice,network_out,24008481
2023-07-24T12:51:08.254Z,paymentservice-2,network_out,3280170
2023-07-24T12:51:09.138Z,shippingservice,network_out,22888833
2023-07-24T12:51:09.206Z,emailservice,network_out,23564916
2023-07-24T12:51:10.398Z,checkoutservice,network_out,24914067
2023-07-24T12:51:10.466Z,paymentservice-1,network_out,10171640
2023-07-24T12:51:11.164Z,currencyservice,network_out,27885207
2023-07-24T12:51:13.091Z,cartservice,network_out,24660498
2023-07-24T12:51:13.293Z,adservice,network_out,22597718
2023-07-24T12:51:14.405Z,probe-holder,network_out,263391668
2023-07-24T12:51:14.797Z,recommendationservice,network_out,8480701
2023-07-24T12:51:16.500Z,productcatalogservice,network_out,24032263
2023-07-24T12:51:18.254Z,paymentservice-2,network_out,3304242
2023-07-24T12:51:19.138Z,shippingservice,network_out,22903622
2023-07-24T12:51:19.207Z,emailservice,network_out,23585985
2023-07-24T12:51:20.398Z,checkoutservice,network_out,24935300
2023-07-24T12:51:20.466Z,paymentservice-1,network_out,10190455
2023-07-24T12:51:21.164Z,currencyservice,network_out,27909460
2023-07-24T12:51:23.091Z,cartservice,network_out,24683889
2023-07-24T12:51:23.293Z,adservice,network_out,22616637
2023-07-24T12:51:24.405Z,probe-holder,network_out,263726814
2023-07-24T12:51:24.797Z,recommendationservice,network_out,8501353
2023-07-24T12:51:26.500Z,productcatalogservice,network_out,24053147
2023-07-24T12:51:28.254Z,paymentservice-2,network_out,3323059
2023-07-24T12:51:29.138Z,shippingservice,network_out,22924326
2023-07-24T12:51:29.207Z,emailservice,network_out,23602493
2023-07-24T12:51:30.398Z,checkoutservice,network_out,24955895
2023-07-24T12:51:30.466Z,paymentservice-1,network_out,10214500
2023-07-24T12:51:31.165Z,currencyservice,network_out,27928351
2023-07-24T12:51:33.091Z,cartservice,network_out,24704450
2023-07-24T12:51:33.294Z,adservice,network_out,22641482
2023-07-24T12:51:34.405Z,probe-holder,network_out,264067236
2023-07-24T12:51:34.796Z,recommendationservice,network_out,8516767
2023-07-24T12:51:36.500Z,productcatalogservice,network_out,24068654
2023-07-24T12:51:38.254Z,paymentservice-2,network_out,3350038
2023-07-24T12:51:39.138Z,shippingservice,network_out,22944264
2023-07-24T12:51:39.206Z,emailservice,network_out,23626427
2023-07-24T12:51:40.398Z,checkoutservice,network_out,24974144
2023-07-24T12:51:40.466Z,paymentservice-1,network_out,10238595
2023-07-24T12:51:41.164Z,currencyservice,network_out,27952478
2023-07-24T12:51:43.091Z,cartservice,network_out,24719788
2023-07-24T12:51:43.293Z,adservice,network_out,22665632
2023-07-24T12:51:44.405Z,probe-holder,network_out,264408509
2023-07-24T12:51:44.797Z,recommendationservice,network_out,8537424
2023-07-24T12:51:46.500Z,productcatalogservice,network_out,24089521
2023-07-24T12:51:48.254Z,paymentservice-2,network_out,3374881
2023-07-24T12:51:49.138Z,shippingservice,network_out,22961838
2023-07-24T12:51:49.207Z,emailservice,network_out,23647483
2023-07-24T12:51:50.398Z,checkoutservice,network_out,24994747
2023-07-24T12:51:50.466Z,paymentservice-1,network_out,10260319
2023-07-24T12:51:51.164Z,currencyservice,network_out,27976588
2023-07-24T12:51:53.091Z,cartservice,network_out,24740355
2023-07-24T12:51:53.293Z,adservice,network_out,22684516
2023-07-24T12:51:54.405Z,probe-holder,network_out,264743685
2023-07-24T12:51:54.796Z,recommendationservice,network_out,8561009
2023-07-24T12:51:56.500Z,productcatalogservice,network_out,24111071
2023-07-24T12:51:58.254Z,paymentservice-2,network_out,3393667
2023-07-24T12:51:59.138Z,shippingservice,network_out,22981789
2023-07-24T12:51:59.206Z,emailservice,network_out,23663278
2023-07-24T12:52:00.398Z,checkoutservice,network_out,25010122
2023-07-24T12:52:00.466Z,paymentservice-1,network_out,10284380
2023-07-24T12:52:01.164Z,currencyservice,network_out,27995426
2023-07-24T12:52:03.091Z,cartservice,network_out,24761646
2023-07-24T12:52:03.293Z,adservice,network_out,22708584
2023-07-24T12:52:04.405Z,probe-holder,network_out,265084082
2023-07-24T12:52:04.797Z,recommendationservice,network_out,8576373
2023-07-24T12:52:06.500Z,productcatalogservice,network_out,24126581
2023-07-24T12:52:08.254Z,paymentservice-2,network_out,3417821
2023-07-24T12:52:09.206Z,emailservice,network_out,23684315
2023-07-24T12:52:09.138Z,shippingservice,network_out,23001770
2023-07-24T12:52:10.398Z,checkoutservice,network_out,25030748
2023-07-24T12:52:10.466Z,paymentservice-1,network_out,10309249
2023-07-24T12:52:11.165Z,currencyservice,network_out,28023181
2023-07-24T12:52:13.091Z,cartservice,network_out,24776976
2023-07-24T12:52:13.293Z,adservice,network_out,22735675
2023-07-24T12:52:14.405Z,probe-holder,network_out,265427553
2023-07-24T12:52:14.797Z,recommendationservice,network_out,8597731
2023-07-24T12:52:16.500Z,productcatalogservice,network_out,24150287
2023-07-24T12:52:18.254Z,paymentservice-2,network_out,3441873
2023-07-24T12:52:19.138Z,shippingservice,network_out,23022438
2023-07-24T12:52:19.206Z,emailservice,network_out,23705324
2023-07-24T12:52:20.398Z,checkoutservice,network_out,25052053
2023-07-24T12:52:20.466Z,paymentservice-1,network_out,10328058
2023-07-24T12:52:21.164Z,currencyservice,network_out,28047297
2023-07-24T12:52:23.091Z,cartservice,network_out,24800365
2023-07-24T12:52:23.293Z,adservice,network_out,22754574
2023-07-24T12:52:24.405Z,probe-holder,network_out,265762852
2023-07-24T12:52:24.797Z,recommendationservice,network_out,8618319
2023-07-24T12:52:26.500Z,productcatalogservice,network_out,24171158
2023-07-24T12:52:28.254Z,paymentservice-2,network_out,3460684
2023-07-24T12:52:29.138Z,shippingservice,network_out,23044503
2023-07-24T12:52:29.207Z,emailservice,network_out,23721856
2023-07-24T12:52:30.398Z,checkoutservice,network_out,25067398
2023-07-24T12:52:30.466Z,paymentservice-1,network_out,10352129
2023-07-24T12:52:31.164Z,currencyservice,network_out,28066152
2023-07-24T12:52:33.091Z,cartservice,network_out,24820898
2023-07-24T12:52:33.293Z,adservice,network_out,22779364
2023-07-24T12:52:34.405Z,probe-holder,network_out,266103298
2023-07-24T12:52:34.797Z,recommendationservice,network_out,8633685
2023-07-24T12:52:36.500Z,productcatalogservice,network_out,24190371
2023-07-24T12:52:38.255Z,paymentservice-2,network_out,3486402
2023-07-24T12:52:39.138Z,shippingservice,network_out,23077479
2023-07-24T12:52:39.207Z,emailservice,network_out,23750599
2023-07-24T12:52:40.398Z,checkoutservice,network_out,25090970
2023-07-24T12:52:40.466Z,paymentservice-1,network_out,10376212
2023-07-24T12:52:41.164Z,currencyservice,network_out,28090306
2023-07-24T12:52:43.091Z,cartservice,network_out,24836147
2023-07-24T12:52:43.293Z,adservice,network_out,22803441
2023-07-24T12:52:44.405Z,probe-holder,network_out,266444373
2023-07-24T12:52:44.797Z,recommendationservice,network_out,8654350
2023-07-24T12:52:46.500Z,productcatalogservice,network_out,24214628
2023-07-24T12:52:48.254Z,paymentservice-2,network_out,3507612
2023-07-24T12:52:49.138Z,shippingservice,network_out,23097372
2023-07-24T12:52:49.207Z,emailservice,network_out,23781341
2023-07-24T12:52:50.398Z,checkoutservice,network_out,25111717
2023-07-24T12:52:50.466Z,paymentservice-1,network_out,10397912
2023-07-24T12:52:51.164Z,currencyservice,network_out,28114362
2023-07-24T12:52:53.091Z,cartservice,network_out,24856629
2023-07-24T12:52:53.293Z,adservice,network_out,22822346
2023-07-24T12:52:54.405Z,probe-holder,network_out,266779553
2023-07-24T12:52:54.797Z,recommendationservice,network_out,8677865
2023-07-24T12:52:56.500Z,productcatalogservice,network_out,24242403
2023-07-24T12:52:58.254Z,paymentservice-2,network_out,3531186
2023-07-24T12:52:59.138Z,shippingservice,network_out,23120776
2023-07-24T12:52:59.206Z,emailservice,network_out,23805166
2023-07-24T12:53:00.398Z,checkoutservice,network_out,25127148
2023-07-24T12:53:00.466Z,paymentservice-1,network_out,10422019
2023-07-24T12:53:01.164Z,currencyservice,network_out,28133226
2023-07-24T12:53:03.091Z,cartservice,network_out,24877831
2023-07-24T12:53:03.293Z,adservice,network_out,22846490
2023-07-24T12:53:04.405Z,probe-holder,network_out,267120083
2023-07-24T12:53:04.797Z,recommendationservice,network_out,8693282
2023-07-24T12:53:06.500Z,productcatalogservice,network_out,24266028
2023-07-24T12:53:08.254Z,paymentservice-2,network_out,3555244
2023-07-24T12:53:09.138Z,shippingservice,network_out,23140778
2023-07-24T12:53:09.207Z,emailservice,network_out,23827359
2023-07-24T12:53:10.398Z,checkoutservice,network_out,25147754
2023-07-24T12:53:10.466Z,paymentservice-1,network_out,10446810
2023-07-24T12:53:11.164Z,currencyservice,network_out,28160957
2023-07-24T12:53:13.091Z,cartservice,network_out,24893088
2023-07-24T12:53:13.293Z,adservice,network_out,22873540
2023-07-24T12:53:14.405Z,probe-holder,network_out,267463375
2023-07-24T12:53:14.797Z,recommendationservice,network_out,8714635
2023-07-24T12:53:16.500Z,productcatalogservice,network_out,24292029
2023-07-24T12:53:18.254Z,paymentservice-2,network_out,3574039
2023-07-24T12:53:19.138Z,shippingservice,network_out,23156633
2023-07-24T12:53:19.206Z,emailservice,network_out,23849623
2023-07-24T12:53:20.398Z,checkoutservice,network_out,25169075
2023-07-24T12:53:20.466Z,paymentservice-1,network_out,10465624
2023-07-24T12:53:21.164Z,currencyservice,network_out,28185074
2023-07-24T12:53:23.091Z,cartservice,network_out,24916480
2023-07-24T12:53:23.293Z,adservice,network_out,22892483
2023-07-24T12:53:24.405Z,probe-holder,network_out,267798569
2023-07-24T12:53:24.797Z,recommendationservice,network_out,8735295
2023-07-24T12:53:26.500Z,productcatalogservice,network_out,24315139
2023-07-24T12:53:28.254Z,paymentservice-2,network_out,3598094
2023-07-24T12:53:29.138Z,shippingservice,network_out,23178463
2023-07-24T12:53:29.207Z,emailservice,network_out,23867262
2023-07-24T12:53:30.398Z,checkoutservice,network_out,25184479
2023-07-24T12:53:30.466Z,paymentservice-1,network_out,10489727
2023-07-24T12:53:31.165Z,currencyservice,network_out,28203968
2023-07-24T12:53:33.091Z,cartservice,network_out,24936990
2023-07-24T12:53:33.293Z,adservice,network_out,22917287
2023-07-24T12:53:34.405Z,probe-holder,network_out,268138971
2023-07-24T12:53:34.797Z,recommendationservice,network_out,8750616
2023-07-24T12:53:36.500Z,productcatalogservice,network_out,24330764
2023-07-24T12:53:38.254Z,paymentservice-2,network_out,3622213
2023-07-24T12:53:39.138Z,shippingservice,network_out,23198455
2023-07-24T12:53:39.206Z,emailservice,network_out,23893488
2023-07-24T12:53:40.398Z,checkoutservice,network_out,25207970
2023-07-24T12:53:40.466Z,paymentservice-1,network_out,10513827
2023-07-24T12:53:41.164Z,currencyservice,network_out,28228049
2023-07-24T12:53:43.091Z,cartservice,network_out,24952264
2023-07-24T12:53:43.293Z,adservice,network_out,22936270
2023-07-24T12:53:44.405Z,probe-holder,network_out,268480093
2023-07-24T12:53:44.797Z,recommendationservice,network_out,8771263
2023-07-24T12:53:46.500Z,productcatalogservice,network_out,24353930
2023-07-24T12:53:48.254Z,paymentservice-2,network_out,3643885
2023-07-24T12:53:49.138Z,shippingservice,network_out,23217246
2023-07-24T12:53:49.207Z,emailservice,network_out,23914533
2023-07-24T12:53:50.398Z,checkoutservice,network_out,25228516
2023-07-24T12:53:50.466Z,paymentservice-1,network_out,10535640
2023-07-24T12:53:51.164Z,currencyservice,network_out,28252217
2023-07-24T12:53:53.091Z,cartservice,network_out,24972789
2023-07-24T12:53:53.293Z,adservice,network_out,22960427
2023-07-24T12:53:54.405Z,probe-holder,network_out,268815436
2023-07-24T12:53:54.797Z,recommendationservice,network_out,8794822
2023-07-24T12:53:56.500Z,productcatalogservice,network_out,24375465
2023-07-24T12:53:58.254Z,paymentservice-2,network_out,3668664
2023-07-24T12:53:59.138Z,shippingservice,network_out,23237182
2023-07-24T12:53:59.207Z,emailservice,network_out,23930333
2023-07-24T12:54:00.398Z,checkoutservice,network_out,25243853
2023-07-24T12:54:00.466Z,paymentservice-1,network_out,10559720
2023-07-24T12:54:01.164Z,currencyservice,network_out,28271107
2023-07-24T12:54:03.091Z,cartservice,network_out,24994018
2023-07-24T12:54:03.293Z,adservice,network_out,22984484
2023-07-24T12:54:04.405Z,probe-holder,network_out,269155860
2023-07-24T12:54:04.797Z,recommendationservice,network_out,8810170
2023-07-24T12:54:06.500Z,productcatalogservice,network_out,24390958
2023-07-24T12:54:08.254Z,paymentservice-2,network_out,3692707
2023-07-24T12:54:09.138Z,shippingservice,network_out,23258306
2023-07-24T12:54:09.206Z,emailservice,network_out,23951375
2023-07-24T12:54:10.398Z,checkoutservice,network_out,25264501
2023-07-24T12:54:10.466Z,paymentservice-1,network_out,10584505
2023-07-24T12:54:11.164Z,currencyservice,network_out,28298755
2023-07-24T12:54:13.091Z,cartservice,network_out,25009279
2023-07-24T12:54:13.293Z,adservice,network_out,23006281
2023-07-24T12:54:14.405Z,probe-holder,network_out,269499314
2023-07-24T12:54:14.797Z,recommendationservice,network_out,8831508
2023-07-24T12:54:16.500Z,productcatalogservice,network_out,24418351
2023-07-24T12:54:18.254Z,paymentservice-2,network_out,3711521
2023-07-24T12:54:19.138Z,shippingservice,network_out,23273049
2023-07-24T12:54:19.206Z,emailservice,network_out,23975854
2023-07-24T12:54:20.398Z,checkoutservice,network_out,25285717
2023-07-24T12:54:20.466Z,paymentservice-1,network_out,10603433
2023-07-24T12:54:21.164Z,currencyservice,network_out,28322898
2023-07-24T12:54:23.091Z,cartservice,network_out,25032667
2023-07-24T12:54:23.293Z,adservice,network_out,23030424
2023-07-24T12:54:24.405Z,probe-holder,network_out,269834461
2023-07-24T12:54:24.797Z,recommendationservice,network_out,8852278
2023-07-24T12:54:26.500Z,productcatalogservice,network_out,24440632
2023-07-24T12:54:28.254Z,paymentservice-2,network_out,3735609
2023-07-24T12:54:29.138Z,shippingservice,network_out,23293724
2023-07-24T12:54:29.207Z,emailservice,network_out,23992367
2023-07-24T12:54:30.398Z,checkoutservice,network_out,25301016
2023-07-24T12:54:30.466Z,paymentservice-1,network_out,10634836
2023-07-24T12:54:31.164Z,currencyservice,network_out,28341779
2023-07-24T12:54:33.091Z,cartservice,network_out,25053177
2023-07-24T12:54:33.293Z,adservice,network_out,23055285
2023-07-24T12:54:34.405Z,probe-holder,network_out,270174931
2023-07-24T12:54:34.797Z,recommendationservice,network_out,8867645
2023-07-24T12:54:36.500Z,productcatalogservice,network_out,24476672
2023-07-24T12:54:38.254Z,paymentservice-2,network_out,3759681
2023-07-24T12:54:39.138Z,shippingservice,network_out,23313749
2023-07-24T12:54:39.207Z,emailservice,network_out,24016372
2023-07-24T12:54:40.399Z,checkoutservice,network_out,25324515
2023-07-24T12:54:40.466Z,paymentservice-1,network_out,10659010
2023-07-24T12:54:41.164Z,currencyservice,network_out,28365843
2023-07-24T12:54:43.091Z,cartservice,network_out,25068427
2023-07-24T12:54:43.293Z,adservice,network_out,23074208
2023-07-24T12:54:44.405Z,probe-holder,network_out,270516174
2023-07-24T12:54:44.797Z,recommendationservice,network_out,8888296
2023-07-24T12:54:46.500Z,productcatalogservice,network_out,24509704
2023-07-24T12:54:48.254Z,paymentservice-2,network_out,3781355
2023-07-24T12:54:49.138Z,shippingservice,network_out,23331359
2023-07-24T12:54:49.206Z,emailservice,network_out,24037543
2023-07-24T12:54:50.398Z,checkoutservice,network_out,25345023
2023-07-24T12:54:50.466Z,paymentservice-1,network_out,10680731
2023-07-24T12:54:51.164Z,currencyservice,network_out,28389981
2023-07-24T12:54:53.091Z,cartservice,network_out,25088929
2023-07-24T12:54:53.293Z,adservice,network_out,23098338
2023-07-24T12:54:54.405Z,probe-holder,network_out,270851278
2023-07-24T12:54:54.797Z,recommendationservice,network_out,8911854
2023-07-24T12:54:56.500Z,productcatalogservice,network_out,24542226
2023-07-24T12:54:58.254Z,paymentservice-2,network_out,3806109
2023-07-24T12:54:59.139Z,shippingservice,network_out,23351306
2023-07-24T12:54:59.206Z,emailservice,network_out,24053358
2023-07-24T12:55:00.398Z,checkoutservice,network_out,25360357
2023-07-24T12:55:00.466Z,paymentservice-1,network_out,10704890
2023-07-24T12:55:01.164Z,currencyservice,network_out,28408817
2023-07-24T12:55:03.091Z,cartservice,network_out,25110195
2023-07-24T12:55:03.293Z,adservice,network_out,23122426
2023-07-24T12:55:04.405Z,probe-holder,network_out,271191645
2023-07-24T12:55:04.797Z,recommendationservice,network_out,8927223
2023-07-24T12:55:06.500Z,productcatalogservice,network_out,24566027
2023-07-24T12:55:08.254Z,paymentservice-2,network_out,3830154
2023-07-24T12:55:09.138Z,shippingservice,network_out,23371277
2023-07-24T12:55:09.207Z,emailservice,network_out,24076984
2023-07-24T12:55:10.398Z,checkoutservice,network_out,25390528
2023-07-24T12:55:10.466Z,paymentservice-1,network_out,10729673
2023-07-24T12:55:11.164Z,currencyservice,network_out,28453688
2023-07-24T12:55:14.406Z,probe-holder,network_out,271538344
