2023-07-04T17:17:17.483Z,redis-cart,cpu,1681935
2023-07-04T17:17:17.483Z,emailservice,cpu,6824308
2023-07-04T17:17:17.483Z,redis-cart,cpu,1347493
2023-07-04T17:17:17.719Z,redis-cart,cpu,1671575
2023-07-04T17:17:17.483Z,redis-cart,cpu,1557745
2023-07-04T17:17:17.483Z,paymentservice,cpu,3151024
2023-07-04T17:17:17.483Z,shippingservice,cpu,3962090
2023-07-04T17:17:17.473Z,productcatalogservice,cpu,6544071
2023-07-04T17:17:17.473Z,redis-cart,cpu,1432241
2023-07-04T17:17:17.473Z,checkoutservice,cpu,2249477
2023-07-04T17:17:17.473Z,redis-cart,cpu,1711666
2023-07-04T17:17:17.473Z,frontend,cpu,8353164
2023-07-04T17:17:17.719Z,cartservice,cpu,42848251
2023-07-04T17:17:17.719Z,redis-cart,cpu,1734745
2023-07-04T17:17:17.719Z,currencyservice,cpu,8901215
2023-07-04T17:17:27.837Z,redis-cart,cpu,1681935
2023-07-04T17:17:27.837Z,adservice,cpu,15351680
2023-07-04T17:17:27.837Z,shippingservice,cpu,3888114
2023-07-04T17:17:27.837Z,emailservice,cpu,5590567
2023-07-04T17:17:27.837Z,paymentservice,cpu,4405998
2023-07-04T17:17:27.837Z,redis-cart,cpu,1540971
2023-07-04T17:17:27.837Z,redis-cart,cpu,1628985
2023-07-04T17:17:28.078Z,redis-cart,cpu,1763606
2023-07-04T17:17:28.078Z,currencyservice,cpu,17117583
2023-07-04T17:17:27.983Z,redis-cart,cpu,1594814
2023-07-04T17:17:27.983Z,frontend,cpu,8353164
2023-07-04T17:17:27.983Z,recommendationservice,cpu,9219373
2023-07-04T17:17:27.983Z,redis-cart,cpu,1711666
2023-07-04T17:17:27.983Z,redis-cart,cpu,1432241
2023-07-04T17:17:27.983Z,productcatalogservice,cpu,5828435
2023-07-04T17:17:27.983Z,checkoutservice,cpu,2249477
2023-07-04T17:17:28.078Z,redis-cart,cpu,1734745
2023-07-04T17:17:28.078Z,cartservice,cpu,42848251
2023-07-04T17:17:37.837Z,adservice,cpu,15351680
2023-07-04T17:17:37.837Z,redis-cart,cpu,1540971
2023-07-04T17:17:37.837Z,shippingservice,cpu,3888114
2023-07-04T17:17:37.837Z,paymentservice,cpu,4405998
2023-07-04T17:17:37.837Z,emailservice,cpu,5590567
2023-07-04T17:17:37.837Z,redis-cart,cpu,1628985
2023-07-04T17:17:37.837Z,redis-cart,cpu,1681935
2023-07-04T17:17:38.077Z,redis-cart,cpu,1734745
2023-07-04T17:17:38.077Z,cartservice,cpu,42848251
2023-07-04T17:17:37.983Z,redis-cart,cpu,1602843
2023-07-04T17:17:37.983Z,frontend,cpu,10174559
2023-07-04T17:17:37.983Z,recommendationservice,cpu,9990234
2023-07-04T17:17:38.077Z,currencyservice,cpu,17117583
2023-07-04T17:17:37.983Z,redis-cart,cpu,1592955
2023-07-04T17:17:37.983Z,redis-cart,cpu,1275896
2023-07-04T17:17:37.983Z,checkoutservice,cpu,4733939
2023-07-04T17:17:37.983Z,productcatalogservice,cpu,5828435
2023-07-04T17:17:38.077Z,redis-cart,cpu,1763606
2023-07-04T17:17:47.837Z,emailservice,cpu,5549836
2023-07-04T17:17:47.837Z,redis-cart,cpu,1631101
2023-07-04T17:17:47.837Z,shippingservice,cpu,3888114
2023-07-04T17:17:47.837Z,redis-cart,cpu,1493503
2023-07-04T17:17:47.837Z,redis-cart,cpu,1523817
2023-07-04T17:17:47.837Z,paymentservice,cpu,4405998
2023-07-04T17:17:47.837Z,adservice,cpu,15351680
2023-07-04T17:17:47.984Z,recommendationservice,cpu,9990234
2023-07-04T17:17:48.078Z,redis-cart,cpu,1749707
2023-07-04T17:17:47.984Z,productcatalogservice,cpu,7804182
2023-07-04T17:17:47.984Z,checkoutservice,cpu,4733939
2023-07-04T17:17:47.984Z,redis-cart,cpu,1484792
2023-07-04T17:17:47.984Z,redis-cart,cpu,1596645
2023-07-04T17:17:47.984Z,redis-cart,cpu,1602843
2023-07-04T17:17:47.984Z,frontend,cpu,10174559
2023-07-04T17:17:48.078Z,cartservice,cpu,13703621
2023-07-04T17:17:48.078Z,currencyservice,cpu,11518364
2023-07-04T17:17:48.078Z,redis-cart,cpu,1910224
2023-07-04T17:17:57.837Z,redis-cart,cpu,1527020
2023-07-04T17:17:57.837Z,emailservice,cpu,5937760
2023-07-04T17:17:57.837Z,redis-cart,cpu,1657485
2023-07-04T17:17:57.837Z,redis-cart,cpu,1560995
2023-07-04T17:17:57.837Z,paymentservice,cpu,1921818
2023-07-04T17:17:57.837Z,shippingservice,cpu,4398668
2023-07-04T17:17:57.837Z,adservice,cpu,19896039
2023-07-04T17:17:57.983Z,productcatalogservice,cpu,7804182
2023-07-04T17:17:57.983Z,checkoutservice,cpu,4733939
2023-07-04T17:17:57.983Z,redis-cart,cpu,1602843
2023-07-04T17:17:57.983Z,frontend,cpu,10174559
2023-07-04T17:17:57.983Z,recommendationservice,cpu,9990234
2023-07-04T17:17:58.078Z,redis-cart,cpu,1910224
2023-07-04T17:17:57.983Z,redis-cart,cpu,1484792
2023-07-04T17:17:57.983Z,redis-cart,cpu,1596645
2023-07-04T17:17:58.078Z,currencyservice,cpu,9742992
2023-07-04T17:17:58.078Z,cartservice,cpu,13703621
2023-07-04T17:17:58.078Z,redis-cart,cpu,1703699
2023-07-04T17:18:07.837Z,redis-cart,cpu,1536098
2023-07-04T17:18:07.837Z,adservice,cpu,10744800
2023-07-04T17:18:07.837Z,shippingservice,cpu,5487636
2023-07-04T17:18:07.837Z,paymentservice,cpu,5420090
2023-07-04T17:18:07.837Z,emailservice,cpu,7849597
2023-07-04T17:18:07.837Z,redis-cart,cpu,1657485
2023-07-04T17:18:07.837Z,redis-cart,cpu,1500195
2023-07-04T17:18:07.983Z,recommendationservice,cpu,9234756
2023-07-04T17:18:08.077Z,redis-cart,cpu,1703699
2023-07-04T17:18:07.983Z,redis-cart,cpu,1631344
2023-07-04T17:18:07.983Z,frontend,cpu,9979701
2023-07-04T17:18:07.983Z,redis-cart,cpu,1461212
2023-07-04T17:18:07.983Z,redis-cart,cpu,1467480
2023-07-04T17:18:07.983Z,productcatalogservice,cpu,8214127
2023-07-04T17:18:07.983Z,checkoutservice,cpu,2912794
2023-07-04T17:18:08.077Z,redis-cart,cpu,1910224
2023-07-04T17:18:08.077Z,currencyservice,cpu,9742992
2023-07-04T17:18:08.077Z,cartservice,cpu,13703621
2023-07-04T17:18:17.837Z,redis-cart,cpu,1610722
2023-07-04T17:18:17.837Z,redis-cart,cpu,1611065
2023-07-04T17:18:17.837Z,redis-cart,cpu,1500195
2023-07-04T17:18:17.837Z,paymentservice,cpu,5420090
2023-07-04T17:18:17.837Z,emailservice,cpu,7849597
2023-07-04T17:18:17.837Z,shippingservice,cpu,3485341
2023-07-04T17:18:17.837Z,adservice,cpu,10369023
2023-07-04T17:18:18.077Z,redis-cart,cpu,1545572
2023-07-04T17:18:18.077Z,redis-cart,cpu,1868982
2023-07-04T17:18:18.077Z,cartservice,cpu,9372669
2023-07-04T17:18:17.984Z,frontend,cpu,9405092
2023-07-04T17:18:17.984Z,redis-cart,cpu,1821652
2023-07-04T17:18:17.984Z,redis-cart,cpu,1554923
2023-07-04T17:18:17.984Z,productcatalogservice,cpu,8214127
2023-07-04T17:18:17.984Z,recommendationservice,cpu,9234756
2023-07-04T17:18:17.984Z,redis-cart,cpu,1513202
2023-07-04T17:18:17.984Z,checkoutservice,cpu,3737784
2023-07-04T17:18:18.077Z,currencyservice,cpu,14115243
2023-07-04T17:18:27.837Z,emailservice,cpu,6479265
2023-07-04T17:18:27.837Z,redis-cart,cpu,1660891
2023-07-04T17:18:27.837Z,shippingservice,cpu,3485341
2023-07-04T17:18:27.837Z,adservice,cpu,10369023
2023-07-04T17:18:27.837Z,redis-cart,cpu,1610722
2023-07-04T17:18:27.984Z,frontend,cpu,9405092
2023-07-04T17:18:27.984Z,recommendationservice,cpu,9234756
2023-07-04T17:18:28.077Z,redis-cart,cpu,1545572
2023-07-04T17:18:28.077Z,redis-cart,cpu,1868982
2023-07-04T17:18:28.077Z,cartservice,cpu,9372669
2023-07-04T17:18:27.837Z,paymentservice,cpu,3362432
2023-07-04T17:18:27.837Z,redis-cart,cpu,1637905
2023-07-04T17:18:27.984Z,redis-cart,cpu,1821652
2023-07-04T17:18:27.984Z,redis-cart,cpu,1554923
2023-07-04T17:18:27.984Z,productcatalogservice,cpu,8214127
2023-07-04T17:18:27.984Z,redis-cart,cpu,1513202
2023-07-04T17:18:27.984Z,checkoutservice,cpu,3737784
2023-07-04T17:18:28.077Z,currencyservice,cpu,14115243
2023-07-04T17:18:37.837Z,shippingservice,cpu,3485341
2023-07-04T17:18:37.837Z,paymentservice,cpu,3362432
2023-07-04T17:18:37.837Z,redis-cart,cpu,1610722
2023-07-04T17:18:37.837Z,redis-cart,cpu,1660891
2023-07-04T17:18:37.837Z,redis-cart,cpu,1637905
2023-07-04T17:18:37.837Z,emailservice,cpu,6479265
2023-07-04T17:18:37.837Z,adservice,cpu,10369023
2023-07-04T17:18:37.983Z,redis-cart,cpu,1523322
2023-07-04T17:18:38.077Z,currencyservice,cpu,14115243
2023-07-04T17:18:37.983Z,frontend,cpu,10264833
2023-07-04T17:18:37.983Z,productcatalogservice,cpu,8700572
2023-07-04T17:18:37.983Z,redis-cart,cpu,1380911
2023-07-04T17:18:37.983Z,checkoutservice,cpu,2602962
2023-07-04T17:18:38.077Z,redis-cart,cpu,1868982
2023-07-04T17:18:37.983Z,redis-cart,cpu,1847689
2023-07-04T17:18:37.983Z,recommendationservice,cpu,9150092
2023-07-04T17:18:38.077Z,redis-cart,cpu,1745025
2023-07-04T17:18:38.077Z,cartservice,cpu,12756223
2023-07-04T17:18:47.837Z,paymentservice,cpu,2317004
2023-07-04T17:18:47.837Z,redis-cart,cpu,1545823
2023-07-04T17:18:47.837Z,redis-cart,cpu,1567541
2023-07-04T17:18:47.837Z,shippingservice,cpu,5294482
2023-07-04T17:18:47.837Z,emailservice,cpu,5759691
2023-07-04T17:18:47.837Z,adservice,cpu,13882881
2023-07-04T17:18:47.837Z,redis-cart,cpu,1653036
2023-07-04T17:18:47.984Z,redis-cart,cpu,1380911
2023-07-04T17:18:47.984Z,recommendationservice,cpu,9150092
2023-07-04T17:18:47.984Z,redis-cart,cpu,1290826
2023-07-04T17:18:47.984Z,productcatalogservice,cpu,8370013
2023-07-04T17:18:47.984Z,frontend,cpu,9213971
2023-07-04T17:18:47.984Z,checkoutservice,cpu,2602962
2023-07-04T17:18:47.984Z,redis-cart,cpu,1751446
2023-07-04T17:18:48.078Z,redis-cart,cpu,1778211
2023-07-04T17:18:48.078Z,currencyservice,cpu,10667896
2023-07-04T17:18:48.078Z,redis-cart,cpu,1684323
2023-07-04T17:18:48.078Z,cartservice,cpu,10608571
2023-07-04T17:18:57.837Z,redis-cart,cpu,1545823
2023-07-04T17:18:57.837Z,emailservice,cpu,5759691
2023-07-04T17:18:57.837Z,adservice,cpu,13882881
2023-07-04T17:18:57.837Z,redis-cart,cpu,1567541
2023-07-04T17:18:57.837Z,shippingservice,cpu,5294482
2023-07-04T17:18:57.837Z,paymentservice,cpu,2317004
2023-07-04T17:18:57.837Z,redis-cart,cpu,1653036
2023-07-04T17:18:57.984Z,productcatalogservice,cpu,8370013
2023-07-04T17:18:57.984Z,redis-cart,cpu,1380911
2023-07-04T17:18:57.984Z,recommendationservice,cpu,9150092
2023-07-04T17:18:57.984Z,redis-cart,cpu,1290826
2023-07-04T17:18:57.984Z,redis-cart,cpu,1751446
2023-07-04T17:18:57.984Z,frontend,cpu,9213971
2023-07-04T17:18:57.984Z,checkoutservice,cpu,2602962
2023-07-04T17:18:58.078Z,redis-cart,cpu,1778211
2023-07-04T17:18:58.078Z,cartservice,cpu,16782166
2023-07-04T17:18:58.078Z,currencyservice,cpu,9499054
2023-07-04T17:18:58.078Z,redis-cart,cpu,1764371
2023-07-04T17:19:07.838Z,redis-cart,cpu,1535283
2023-07-04T17:19:07.838Z,emailservice,cpu,6843444
2023-07-04T17:19:07.838Z,shippingservice,cpu,4456951
2023-07-04T17:19:07.838Z,redis-cart,cpu,1645873
2023-07-04T17:19:07.838Z,adservice,cpu,11414232
2023-07-04T17:19:07.838Z,redis-cart,cpu,1640986
2023-07-04T17:19:07.838Z,paymentservice,cpu,4119589
2023-07-04T17:19:08.077Z,redis-cart,cpu,1778211
2023-07-04T17:19:08.077Z,cartservice,cpu,16782166
2023-07-04T17:19:07.983Z,productcatalogservice,cpu,8238396
2023-07-04T17:19:07.983Z,checkoutservice,cpu,3079031
2023-07-04T17:19:07.983Z,frontend,cpu,10968338
2023-07-04T17:19:07.983Z,redis-cart,cpu,1324808
2023-07-04T17:19:07.983Z,recommendationservice,cpu,9759097
2023-07-04T17:19:07.983Z,redis-cart,cpu,1541885
2023-07-04T17:19:07.983Z,redis-cart,cpu,1824982
2023-07-04T17:19:08.077Z,currencyservice,cpu,9499054
2023-07-04T17:19:08.077Z,redis-cart,cpu,1764371
2023-07-04T17:19:17.837Z,paymentservice,cpu,2074584
2023-07-04T17:19:17.837Z,adservice,cpu,10506955
2023-07-04T17:19:17.837Z,shippingservice,cpu,3548512
2023-07-04T17:19:17.837Z,emailservice,cpu,5327634
2023-07-04T17:19:17.837Z,redis-cart,cpu,1460018
2023-07-04T17:19:17.837Z,redis-cart,cpu,1594465
2023-07-04T17:19:17.837Z,redis-cart,cpu,1582886
2023-07-04T17:19:17.984Z,frontend,cpu,10968338
2023-07-04T17:19:17.984Z,productcatalogservice,cpu,7458471
2023-07-04T17:19:17.984Z,redis-cart,cpu,1566631
2023-07-04T17:19:17.984Z,redis-cart,cpu,1568835
2023-07-04T17:19:17.984Z,redis-cart,cpu,1324808
2023-07-04T17:19:17.984Z,recommendationservice,cpu,9174567
2023-07-04T17:19:17.984Z,checkoutservice,cpu,2266861
2023-07-04T17:19:18.078Z,cartservice,cpu,8668648
2023-07-04T17:19:18.078Z,redis-cart,cpu,1918867
2023-07-04T17:19:18.078Z,currencyservice,cpu,11859694
2023-07-04T17:19:18.078Z,redis-cart,cpu,1821242
2023-07-04T17:19:27.837Z,redis-cart,cpu,1460018
2023-07-04T17:19:27.837Z,redis-cart,cpu,1582886
2023-07-04T17:19:27.837Z,shippingservice,cpu,3548512
2023-07-04T17:19:27.837Z,adservice,cpu,10506955
2023-07-04T17:19:27.837Z,paymentservice,cpu,2074584
2023-07-04T17:19:27.837Z,redis-cart,cpu,1594465
2023-07-04T17:19:27.837Z,emailservice,cpu,5327634
2023-07-04T17:19:28.077Z,redis-cart,cpu,1821242
2023-07-04T17:19:28.077Z,redis-cart,cpu,1918867
2023-07-04T17:19:28.077Z,currencyservice,cpu,11859694
2023-07-04T17:19:27.984Z,frontend,cpu,10968338
2023-07-04T17:19:27.984Z,productcatalogservice,cpu,7458471
2023-07-04T17:19:27.984Z,redis-cart,cpu,1566631
2023-07-04T17:19:27.984Z,redis-cart,cpu,1568835
2023-07-04T17:19:27.984Z,redis-cart,cpu,1324808
2023-07-04T17:19:27.984Z,recommendationservice,cpu,9174567
2023-07-04T17:19:27.984Z,checkoutservice,cpu,2266861
2023-07-04T17:19:28.077Z,cartservice,cpu,8668648
2023-07-04T17:19:37.837Z,paymentservice,cpu,3710439
2023-07-04T17:19:37.837Z,redis-cart,cpu,1655830
2023-07-04T17:19:37.837Z,redis-cart,cpu,1582886
2023-07-04T17:19:37.837Z,emailservice,cpu,8390684
2023-07-04T17:19:37.837Z,shippingservice,cpu,5839010
2023-07-04T17:19:37.837Z,redis-cart,cpu,1602750
2023-07-04T17:19:37.837Z,adservice,cpu,10506955
2023-07-04T17:19:37.983Z,frontend,cpu,9718284
2023-07-04T17:19:37.983Z,recommendationservice,cpu,10262102
2023-07-04T17:19:37.983Z,redis-cart,cpu,1524250
2023-07-04T17:19:37.983Z,checkoutservice,cpu,5056110
2023-07-04T17:19:37.983Z,redis-cart,cpu,1622196
2023-07-04T17:19:37.983Z,productcatalogservice,cpu,6226127
2023-07-04T17:19:37.983Z,redis-cart,cpu,1473733
2023-07-04T17:19:38.078Z,redis-cart,cpu,1657813
2023-07-04T17:19:38.078Z,redis-cart,cpu,1674751
2023-07-04T17:19:38.078Z,cartservice,cpu,10078910
2023-07-04T17:19:38.078Z,currencyservice,cpu,11330069
2023-07-04T17:19:47.837Z,emailservice,cpu,5354777
2023-07-04T17:19:47.837Z,shippingservice,cpu,4445521
2023-07-04T17:19:47.837Z,redis-cart,cpu,1571001
2023-07-04T17:19:47.837Z,adservice,cpu,12420442
2023-07-04T17:19:47.837Z,redis-cart,cpu,1661968
2023-07-04T17:19:47.837Z,paymentservice,cpu,3516655
2023-07-04T17:19:47.837Z,redis-cart,cpu,1495390
2023-07-04T17:19:48.077Z,cartservice,cpu,10078910
2023-07-04T17:19:48.077Z,currencyservice,cpu,11330069
2023-07-04T17:19:47.984Z,productcatalogservice,cpu,7381007
2023-07-04T17:19:47.984Z,redis-cart,cpu,1524250
2023-07-04T17:19:47.984Z,frontend,cpu,9718284
2023-07-04T17:19:47.984Z,redis-cart,cpu,1622196
2023-07-04T17:19:47.984Z,checkoutservice,cpu,2503867
2023-07-04T17:19:47.984Z,recommendationservice,cpu,8331711
2023-07-04T17:19:47.984Z,redis-cart,cpu,1412710
2023-07-04T17:19:48.077Z,redis-cart,cpu,1657813
2023-07-04T17:19:48.077Z,redis-cart,cpu,1674751
2023-07-04T17:19:57.838Z,redis-cart,cpu,1661968
2023-07-04T17:19:57.838Z,shippingservice,cpu,4639482
2023-07-04T17:19:57.838Z,redis-cart,cpu,1750408
2023-07-04T17:19:57.838Z,paymentservice,cpu,3661299
2023-07-04T17:19:57.838Z,adservice,cpu,9147006
2023-07-04T17:19:57.838Z,emailservice,cpu,6773465
2023-07-04T17:19:57.838Z,redis-cart,cpu,1495390
2023-07-04T17:19:57.984Z,productcatalogservice,cpu,7381007
2023-07-04T17:19:57.984Z,redis-cart,cpu,1524250
2023-07-04T17:19:57.984Z,frontend,cpu,9718284
2023-07-04T17:19:57.984Z,redis-cart,cpu,1622196
2023-07-04T17:19:57.984Z,checkoutservice,cpu,2503867
2023-07-04T17:19:57.984Z,recommendationservice,cpu,8331711
2023-07-04T17:19:57.984Z,redis-cart,cpu,1412710
2023-07-04T17:19:58.078Z,currencyservice,cpu,14960552
2023-07-04T17:19:58.078Z,redis-cart,cpu,1745152
2023-07-04T17:19:58.078Z,redis-cart,cpu,1772612
2023-07-04T17:19:58.078Z,cartservice,cpu,8310212
2023-07-04T17:20:07.837Z,emailservice,cpu,6773465
2023-07-04T17:20:07.837Z,redis-cart,cpu,1750408
2023-07-04T17:20:07.837Z,shippingservice,cpu,4639482
2023-07-04T17:20:07.837Z,redis-cart,cpu,1661968
2023-07-04T17:20:07.837Z,redis-cart,cpu,1495390
2023-07-04T17:20:07.837Z,paymentservice,cpu,3661299
2023-07-04T17:20:07.837Z,adservice,cpu,9147006
2023-07-04T17:20:07.983Z,redis-cart,cpu,1560891
2023-07-04T17:20:07.983Z,redis-cart,cpu,1245266
2023-07-04T17:20:07.983Z,checkoutservice,cpu,2452069
2023-07-04T17:20:07.983Z,productcatalogservice,cpu,7547666
2023-07-04T17:20:07.983Z,recommendationservice,cpu,9744254
2023-07-04T17:20:07.983Z,redis-cart,cpu,1668916
2023-07-04T17:20:07.983Z,frontend,cpu,11317627
2023-07-04T17:20:08.077Z,currencyservice,cpu,14960552
2023-07-04T17:20:08.077Z,redis-cart,cpu,1745152
2023-07-04T17:20:08.077Z,redis-cart,cpu,1772612
2023-07-04T17:20:08.077Z,cartservice,cpu,8310212
2023-07-04T17:20:17.837Z,paymentservice,cpu,1730612
2023-07-04T17:20:17.837Z,adservice,cpu,9084777
2023-07-04T17:20:17.837Z,shippingservice,cpu,4203814
2023-07-04T17:20:17.837Z,redis-cart,cpu,1555556
2023-07-04T17:20:17.837Z,emailservice,cpu,5852647
2023-07-04T17:20:17.837Z,redis-cart,cpu,1570451
2023-07-04T17:20:17.837Z,redis-cart,cpu,1632811
2023-07-04T17:20:18.077Z,redis-cart,cpu,1634577
2023-07-04T17:20:18.077Z,currencyservice,cpu,12099426
2023-07-04T17:20:18.077Z,cartservice,cpu,7947780
2023-07-04T17:20:18.077Z,redis-cart,cpu,1741436
2023-07-04T17:20:17.983Z,frontend,cpu,8855839
2023-07-04T17:20:17.983Z,checkoutservice,cpu,2554816
2023-07-04T17:20:17.983Z,redis-cart,cpu,1560891
2023-07-04T17:20:17.983Z,redis-cart,cpu,1553203
2023-07-04T17:20:17.983Z,recommendationservice,cpu,9372300
2023-07-04T17:20:17.983Z,redis-cart,cpu,1940345
2023-07-04T17:20:17.983Z,productcatalogservice,cpu,6150283
2023-07-04T17:20:27.837Z,adservice,cpu,9084777
2023-07-04T17:20:27.837Z,redis-cart,cpu,1570451
2023-07-04T17:20:27.837Z,shippingservice,cpu,4988992
2023-07-04T17:20:27.837Z,paymentservice,cpu,1730612
2023-07-04T17:20:27.837Z,redis-cart,cpu,1729821
2023-07-04T17:20:27.837Z,redis-cart,cpu,1504490
2023-07-04T17:20:27.837Z,emailservice,cpu,5852647
2023-07-04T17:20:27.983Z,redis-cart,cpu,1553203
2023-07-04T17:20:27.983Z,redis-cart,cpu,1742166
2023-07-04T17:20:27.983Z,frontend,cpu,9723236
2023-07-04T17:20:27.983Z,recommendationservice,cpu,8551886
2023-07-04T17:20:27.983Z,checkoutservice,cpu,2554816
2023-07-04T17:20:27.983Z,productcatalogservice,cpu,7451926
2023-07-04T17:20:27.983Z,redis-cart,cpu,1392411
2023-07-04T17:20:28.077Z,redis-cart,cpu,1634577
2023-07-04T17:20:28.077Z,currencyservice,cpu,12099426
2023-07-04T17:20:28.077Z,cartservice,cpu,7947780
2023-07-04T17:20:28.077Z,redis-cart,cpu,1741436
2023-07-04T17:20:37.838Z,emailservice,cpu,6925351
2023-07-04T17:20:37.838Z,shippingservice,cpu,4988992
2023-07-04T17:20:37.838Z,redis-cart,cpu,1592724
2023-07-04T17:20:37.838Z,redis-cart,cpu,1628498
2023-07-04T17:20:37.838Z,adservice,cpu,9287088
2023-07-04T17:20:37.838Z,paymentservice,cpu,4563516
2023-07-04T17:20:37.838Z,redis-cart,cpu,1593560
2023-07-04T17:20:37.983Z,productcatalogservice,cpu,7451926
2023-07-04T17:20:37.983Z,redis-cart,cpu,1392411
2023-07-04T17:20:37.983Z,recommendationservice,cpu,8551886
2023-07-04T17:20:37.983Z,redis-cart,cpu,1553203
2023-07-04T17:20:37.983Z,redis-cart,cpu,1742166
2023-07-04T17:20:37.983Z,checkoutservice,cpu,2554816
2023-07-04T17:20:37.983Z,frontend,cpu,9723236
2023-07-04T17:20:38.077Z,redis-cart,cpu,1653574
2023-07-04T17:20:38.077Z,cartservice,cpu,9343151
2023-07-04T17:20:38.077Z,currencyservice,cpu,13960436
2023-07-04T17:20:38.077Z,redis-cart,cpu,1694961
2023-07-04T17:20:47.837Z,emailservice,cpu,6925351
2023-07-04T17:20:47.837Z,adservice,cpu,9287088
2023-07-04T17:20:47.837Z,paymentservice,cpu,4563516
2023-07-04T17:20:47.837Z,redis-cart,cpu,1593560
2023-07-04T17:20:47.837Z,redis-cart,cpu,1628498
2023-07-04T17:20:47.837Z,redis-cart,cpu,1592724
2023-07-04T17:20:47.837Z,shippingservice,cpu,4988992
2023-07-04T17:20:47.983Z,redis-cart,cpu,1322023
2023-07-04T17:20:47.983Z,productcatalogservice,cpu,7451926
2023-07-04T17:20:47.983Z,checkoutservice,cpu,3909352
2023-07-04T17:20:47.983Z,redis-cart,cpu,1742166
2023-07-04T17:20:47.983Z,redis-cart,cpu,1409876
2023-07-04T17:20:47.983Z,frontend,cpu,9723236
2023-07-04T17:20:47.983Z,recommendationservice,cpu,8551886
2023-07-04T17:20:48.078Z,currencyservice,cpu,15886950
2023-07-04T17:20:48.078Z,cartservice,cpu,11412968
2023-07-04T17:20:48.078Z,redis-cart,cpu,1859279
2023-07-04T17:20:48.078Z,redis-cart,cpu,1653574
2023-07-04T17:20:57.837Z,adservice,cpu,12246300
2023-07-04T17:20:57.837Z,emailservice,cpu,6618594
2023-07-04T17:20:57.837Z,redis-cart,cpu,1706142
2023-07-04T17:20:57.837Z,shippingservice,cpu,4483966
2023-07-04T17:20:57.837Z,redis-cart,cpu,1510814
2023-07-04T17:20:57.837Z,redis-cart,cpu,1659395
2023-07-04T17:20:57.837Z,paymentservice,cpu,2564165
2023-07-04T17:20:57.983Z,productcatalogservice,cpu,8764703
2023-07-04T17:20:58.077Z,currencyservice,cpu,15886950
2023-07-04T17:20:58.077Z,cartservice,cpu,11412968
2023-07-04T17:20:58.077Z,redis-cart,cpu,1859279
2023-07-04T17:20:58.077Z,redis-cart,cpu,1653574
2023-07-04T17:20:57.983Z,redis-cart,cpu,1563663
2023-07-04T17:20:57.983Z,redis-cart,cpu,1723113
2023-07-04T17:20:57.983Z,redis-cart,cpu,1440592
2023-07-04T17:20:57.983Z,checkoutservice,cpu,4507692
2023-07-04T17:20:57.983Z,frontend,cpu,12792294
2023-07-04T17:20:57.983Z,recommendationservice,cpu,9644008
2023-07-04T17:21:07.838Z,redis-cart,cpu,1559763
2023-07-04T17:21:07.838Z,paymentservice,cpu,2564165
2023-07-04T17:21:07.838Z,shippingservice,cpu,4648806
2023-07-04T17:21:07.838Z,redis-cart,cpu,1659395
2023-07-04T17:21:07.838Z,redis-cart,cpu,1570128
2023-07-04T17:21:07.838Z,adservice,cpu,8361157
2023-07-04T17:21:07.838Z,emailservice,cpu,7598698
2023-07-04T17:21:07.983Z,redis-cart,cpu,1440592
2023-07-04T17:21:07.983Z,redis-cart,cpu,1628625
2023-07-04T17:21:07.983Z,productcatalogservice,cpu,7515979
2023-07-04T17:21:07.983Z,checkoutservice,cpu,2852693
2023-07-04T17:21:07.983Z,frontend,cpu,12792294
2023-07-04T17:21:07.983Z,recommendationservice,cpu,9644008
2023-07-04T17:21:07.983Z,redis-cart,cpu,1563663
2023-07-04T17:21:08.078Z,cartservice,cpu,13538223
2023-07-04T17:21:08.078Z,redis-cart,cpu,1608205
2023-07-04T17:21:08.078Z,currencyservice,cpu,12966172
2023-07-04T17:21:08.078Z,redis-cart,cpu,1723133
2023-07-04T17:21:17.837Z,paymentservice,cpu,2564165
2023-07-04T17:21:17.837Z,redis-cart,cpu,1659395
2023-07-04T17:21:17.837Z,redis-cart,cpu,1559763
2023-07-04T17:21:17.837Z,shippingservice,cpu,4648806
2023-07-04T17:21:17.837Z,redis-cart,cpu,1570128
2023-07-04T17:21:17.837Z,adservice,cpu,8361157
2023-07-04T17:21:17.837Z,emailservice,cpu,7598698
2023-07-04T17:21:17.984Z,redis-cart,cpu,1702666
2023-07-04T17:21:17.984Z,checkoutservice,cpu,2852693
2023-07-04T17:21:17.984Z,redis-cart,cpu,1560705
2023-07-04T17:21:17.984Z,frontend,cpu,11783929
2023-07-04T17:21:17.984Z,productcatalogservice,cpu,7734488
2023-07-04T17:21:17.984Z,recommendationservice,cpu,10018394
2023-07-04T17:21:17.984Z,redis-cart,cpu,1322819
2023-07-04T17:21:18.078Z,cartservice,cpu,8556883
2023-07-04T17:21:18.078Z,currencyservice,cpu,12966172
2023-07-04T17:21:18.078Z,redis-cart,cpu,1818006
2023-07-04T17:21:18.078Z,redis-cart,cpu,1724905
2023-07-04T17:21:27.983Z,productcatalogservice,cpu,7734488
2023-07-04T17:21:27.983Z,redis-cart,cpu,1322819
2023-07-04T17:21:28.077Z,currencyservice,cpu,12966172
2023-07-04T17:21:27.837Z,paymentservice,cpu,2237702
2023-07-04T17:21:27.837Z,emailservice,cpu,5163275
2023-07-04T17:21:27.983Z,recommendationservice,cpu,10018394
2023-07-04T17:21:28.077Z,cartservice,cpu,8556883
2023-07-04T17:21:28.077Z,redis-cart,cpu,1724905
2023-07-04T17:21:27.837Z,redis-cart,cpu,1522640
2023-07-04T17:21:27.837Z,redis-cart,cpu,1591596
2023-07-04T17:21:27.983Z,frontend,cpu,11783929
2023-07-04T17:21:27.837Z,shippingservice,cpu,5176703
2023-07-04T17:21:27.837Z,redis-cart,cpu,1683660
2023-07-04T17:21:27.837Z,adservice,cpu,8839268
2023-07-04T17:21:27.983Z,redis-cart,cpu,1702666
2023-07-04T17:21:27.983Z,checkoutservice,cpu,2852693
2023-07-04T17:21:27.983Z,redis-cart,cpu,1560705
2023-07-04T17:21:28.077Z,redis-cart,cpu,1818006
2023-07-04T17:21:37.837Z,shippingservice,cpu,5176703
2023-07-04T17:21:37.837Z,adservice,cpu,8839268
2023-07-04T17:21:37.837Z,redis-cart,cpu,1683660
2023-07-04T17:21:37.837Z,emailservice,cpu,5163275
2023-07-04T17:21:37.837Z,redis-cart,cpu,1522640
2023-07-04T17:21:37.837Z,paymentservice,cpu,2237702
2023-07-04T17:21:37.837Z,redis-cart,cpu,1591596
2023-07-04T17:21:37.983Z,recommendationservice,cpu,10445319
2023-07-04T17:21:37.983Z,frontend,cpu,12097995
2023-07-04T17:21:37.983Z,productcatalogservice,cpu,6516318
2023-07-04T17:21:37.983Z,redis-cart,cpu,1941985
2023-07-04T17:21:37.983Z,checkoutservice,cpu,3243354
2023-07-04T17:21:37.983Z,redis-cart,cpu,1281636
2023-07-04T17:21:37.983Z,redis-cart,cpu,1558860
2023-07-04T17:21:38.077Z,redis-cart,cpu,1792567
2023-07-04T17:21:38.077Z,redis-cart,cpu,1645445
2023-07-04T17:21:38.077Z,cartservice,cpu,9439211
2023-07-04T17:21:38.077Z,currencyservice,cpu,9253092
2023-07-04T17:21:47.838Z,redis-cart,cpu,1589919
2023-07-04T17:21:47.838Z,redis-cart,cpu,1582865
2023-07-04T17:21:47.838Z,shippingservice,cpu,3041540
2023-07-04T17:21:47.838Z,emailservice,cpu,5702342
2023-07-04T17:21:47.838Z,adservice,cpu,8072015
2023-07-04T17:21:47.838Z,redis-cart,cpu,1538533
2023-07-04T17:21:47.838Z,paymentservice,cpu,4395171
2023-07-04T17:21:47.984Z,recommendationservice,cpu,9201217
2023-07-04T17:21:47.984Z,frontend,cpu,10003449
2023-07-04T17:21:47.984Z,redis-cart,cpu,1941985
2023-07-04T17:21:47.984Z,redis-cart,cpu,1506548
2023-07-04T17:21:47.984Z,checkoutservice,cpu,3255911
2023-07-04T17:21:47.984Z,productcatalogservice,cpu,7701291
2023-07-04T17:21:47.984Z,redis-cart,cpu,1360699
2023-07-04T17:21:48.078Z,currencyservice,cpu,9253092
2023-07-04T17:21:48.078Z,redis-cart,cpu,1765815
2023-07-04T17:21:48.078Z,redis-cart,cpu,1798358
2023-07-04T17:21:48.078Z,cartservice,cpu,8306196
2023-07-04T17:21:57.837Z,redis-cart,cpu,1589919
2023-07-04T17:21:57.837Z,shippingservice,cpu,3041540
2023-07-04T17:21:57.837Z,adservice,cpu,8072015
2023-07-04T17:21:57.837Z,paymentservice,cpu,4395171
2023-07-04T17:21:57.837Z,redis-cart,cpu,1582865
2023-07-04T17:21:57.837Z,redis-cart,cpu,1538533
2023-07-04T17:21:57.837Z,emailservice,cpu,5702342
2023-07-04T17:21:57.984Z,redis-cart,cpu,1460676
2023-07-04T17:21:58.077Z,cartservice,cpu,8306196
2023-07-04T17:21:57.984Z,frontend,cpu,10003449
2023-07-04T17:21:57.984Z,recommendationservice,cpu,8688187
2023-07-04T17:21:57.984Z,redis-cart,cpu,1506548
2023-07-04T17:21:57.984Z,checkoutservice,cpu,3255911
2023-07-04T17:21:58.077Z,redis-cart,cpu,1765815
2023-07-04T17:21:57.984Z,redis-cart,cpu,1921617
2023-07-04T17:21:57.984Z,productcatalogservice,cpu,7701291
2023-07-04T17:21:58.077Z,currencyservice,cpu,9253092
2023-07-04T17:21:58.077Z,redis-cart,cpu,1798358
2023-07-04T17:22:07.837Z,adservice,cpu,13018373
2023-07-04T17:22:07.837Z,redis-cart,cpu,1585150
2023-07-04T17:22:07.837Z,emailservice,cpu,6660624
2023-07-04T17:22:07.837Z,paymentservice,cpu,4823800
2023-07-04T17:22:07.837Z,shippingservice,cpu,4316085
2023-07-04T17:22:07.837Z,redis-cart,cpu,1610009
2023-07-04T17:22:07.837Z,redis-cart,cpu,1508059
2023-07-04T17:22:07.984Z,recommendationservice,cpu,8688187
2023-07-04T17:22:07.984Z,redis-cart,cpu,1921617
2023-07-04T17:22:07.984Z,frontend,cpu,10003449
2023-07-04T17:22:07.984Z,redis-cart,cpu,1460676
2023-07-04T17:22:07.984Z,redis-cart,cpu,1506548
2023-07-04T17:22:07.984Z,productcatalogservice,cpu,7701291
2023-07-04T17:22:07.984Z,checkoutservice,cpu,3255911
2023-07-04T17:22:08.078Z,cartservice,cpu,7049777
2023-07-04T17:22:08.078Z,currencyservice,cpu,11390726
2023-07-04T17:22:08.078Z,redis-cart,cpu,1679396
2023-07-04T17:22:08.078Z,redis-cart,cpu,1798358
2023-07-04T17:22:17.837Z,redis-cart,cpu,1610009
2023-07-04T17:22:17.837Z,adservice,cpu,13018373
2023-07-04T17:22:17.837Z,redis-cart,cpu,1508059
2023-07-04T17:22:17.837Z,emailservice,cpu,6660624
2023-07-04T17:22:17.837Z,shippingservice,cpu,4316085
2023-07-04T17:22:17.837Z,redis-cart,cpu,1585150
2023-07-04T17:22:17.837Z,paymentservice,cpu,4823800
2023-07-04T17:22:17.984Z,redis-cart,cpu,1797396
2023-07-04T17:22:17.984Z,frontend,cpu,13195779
2023-07-04T17:22:17.984Z,redis-cart,cpu,1285927
2023-07-04T17:22:17.984Z,redis-cart,cpu,1436689
2023-07-04T17:22:17.984Z,recommendationservice,cpu,9992287
2023-07-04T17:22:17.984Z,productcatalogservice,cpu,7365751
2023-07-04T17:22:17.984Z,checkoutservice,cpu,3626764
2023-07-04T17:22:18.078Z,redis-cart,cpu,1636628
2023-07-04T17:22:18.078Z,currencyservice,cpu,10940318
2023-07-04T17:22:18.078Z,redis-cart,cpu,1721093
2023-07-04T17:22:18.078Z,cartservice,cpu,9397774
2023-07-04T17:22:27.837Z,adservice,cpu,8092425
2023-07-04T17:22:27.837Z,paymentservice,cpu,4823800
2023-07-04T17:22:27.837Z,redis-cart,cpu,1809941
2023-07-04T17:22:27.837Z,redis-cart,cpu,1508059
2023-07-04T17:22:27.837Z,redis-cart,cpu,1585150
2023-07-04T17:22:27.837Z,shippingservice,cpu,5575995
2023-07-04T17:22:27.837Z,emailservice,cpu,6660624
2023-07-04T17:22:27.983Z,frontend,cpu,6540535
2023-07-04T17:22:27.983Z,recommendationservice,cpu,8414384
2023-07-04T17:22:27.983Z,redis-cart,cpu,1518348
2023-07-04T17:22:27.983Z,checkoutservice,cpu,3626764
2023-07-04T17:22:27.983Z,productcatalogservice,cpu,8707860
2023-07-04T17:22:27.983Z,redis-cart,cpu,1301646
2023-07-04T17:22:27.983Z,redis-cart,cpu,1769788
2023-07-04T17:22:28.077Z,redis-cart,cpu,1636628
2023-07-04T17:22:28.077Z,currencyservice,cpu,10940318
2023-07-04T17:22:28.077Z,redis-cart,cpu,1721093
2023-07-04T17:22:28.077Z,cartservice,cpu,9397774
2023-07-04T17:22:37.837Z,redis-cart,cpu,1525862
2023-07-04T17:22:37.837Z,shippingservice,cpu,4581312
2023-07-04T17:22:37.837Z,adservice,cpu,13072326
2023-07-04T17:22:37.837Z,redis-cart,cpu,1620380
2023-07-04T17:22:37.837Z,paymentservice,cpu,3876422
2023-07-04T17:22:37.837Z,redis-cart,cpu,1521240
2023-07-04T17:22:37.837Z,emailservice,cpu,5772942
2023-07-04T17:22:37.983Z,productcatalogservice,cpu,8707860
2023-07-04T17:22:37.983Z,redis-cart,cpu,1492713
2023-07-04T17:22:37.983Z,redis-cart,cpu,1509066
2023-07-04T17:22:37.983Z,recommendationservice,cpu,8414384
2023-07-04T17:22:37.983Z,checkoutservice,cpu,1874572
2023-07-04T17:22:37.983Z,redis-cart,cpu,1769788
2023-07-04T17:22:37.983Z,frontend,cpu,6540535
2023-07-04T17:22:38.077Z,cartservice,cpu,8639161
2023-07-04T17:22:38.077Z,currencyservice,cpu,10252993
2023-07-04T17:22:38.077Z,redis-cart,cpu,1907207
2023-07-04T17:22:38.077Z,redis-cart,cpu,1819671
2023-07-04T17:22:47.838Z,adservice,cpu,17702465
2023-07-04T17:22:47.838Z,shippingservice,cpu,4581312
2023-07-04T17:22:47.838Z,redis-cart,cpu,1771193
2023-07-04T17:22:47.838Z,redis-cart,cpu,1476985
2023-07-04T17:22:47.838Z,redis-cart,cpu,1565589
2023-07-04T17:22:47.838Z,emailservice,cpu,7227887
2023-07-04T17:22:47.838Z,paymentservice,cpu,2968545
2023-07-04T17:22:47.983Z,recommendationservice,cpu,10279489
2023-07-04T17:22:47.983Z,redis-cart,cpu,1688948
2023-07-04T17:22:47.983Z,redis-cart,cpu,1509066
2023-07-04T17:22:47.983Z,frontend,cpu,12253916
2023-07-04T17:22:47.983Z,checkoutservice,cpu,3358202
2023-07-04T17:22:47.983Z,productcatalogservice,cpu,6827952
2023-07-04T17:22:47.983Z,redis-cart,cpu,1492713
2023-07-04T17:22:48.078Z,cartservice,cpu,11544554
2023-07-04T17:22:48.078Z,redis-cart,cpu,1857747
2023-07-04T17:22:48.078Z,currencyservice,cpu,8790128
2023-07-04T17:22:48.078Z,redis-cart,cpu,1657961
2023-07-04T17:22:57.837Z,emailservice,cpu,7227887
2023-07-04T17:22:57.837Z,shippingservice,cpu,4581312
2023-07-04T17:22:57.837Z,adservice,cpu,17702465
2023-07-04T17:22:57.837Z,redis-cart,cpu,1565589
2023-07-04T17:22:57.837Z,redis-cart,cpu,1771193
2023-07-04T17:22:57.837Z,redis-cart,cpu,1476985
2023-07-04T17:22:57.837Z,paymentservice,cpu,2968545
2023-07-04T17:22:57.983Z,recommendationservice,cpu,10680783
2023-07-04T17:22:57.983Z,redis-cart,cpu,1800543
2023-07-04T17:22:57.983Z,redis-cart,cpu,1385198
2023-07-04T17:22:57.983Z,frontend,cpu,12253916
2023-07-04T17:22:57.983Z,redis-cart,cpu,1540257
2023-07-04T17:22:57.983Z,checkoutservice,cpu,5213301
2023-07-04T17:22:57.983Z,productcatalogservice,cpu,7909361
2023-07-04T17:22:58.078Z,currencyservice,cpu,12650665
2023-07-04T17:22:58.078Z,redis-cart,cpu,1793134
2023-07-04T17:22:58.078Z,redis-cart,cpu,1857747
2023-07-04T17:22:58.078Z,cartservice,cpu,11544554
2023-07-04T17:23:07.837Z,shippingservice,cpu,5441073
2023-07-04T17:23:07.837Z,paymentservice,cpu,2968545
2023-07-04T17:23:07.837Z,redis-cart,cpu,1771193
2023-07-04T17:23:07.837Z,emailservice,cpu,7103474
2023-07-04T17:23:07.837Z,adservice,cpu,10748869
2023-07-04T17:23:07.837Z,redis-cart,cpu,1675077
2023-07-04T17:23:07.837Z,redis-cart,cpu,1442923
2023-07-04T17:23:07.983Z,redis-cart,cpu,1385198
2023-07-04T17:23:07.983Z,recommendationservice,cpu,10680783
2023-07-04T17:23:07.983Z,redis-cart,cpu,1800543
2023-07-04T17:23:07.983Z,frontend,cpu,12253916
2023-07-04T17:23:07.983Z,redis-cart,cpu,1540257
2023-07-04T17:23:07.983Z,checkoutservice,cpu,5213301
2023-07-04T17:23:07.983Z,productcatalogservice,cpu,7909361
2023-07-04T17:23:08.078Z,cartservice,cpu,7977499
2023-07-04T17:23:08.078Z,redis-cart,cpu,1682643
2023-07-04T17:23:08.078Z,redis-cart,cpu,1684091
2023-07-04T17:23:08.078Z,currencyservice,cpu,12650665
2023-07-04T17:23:17.837Z,shippingservice,cpu,3513542
2023-07-04T17:23:17.837Z,redis-cart,cpu,1443228
2023-07-04T17:23:17.837Z,redis-cart,cpu,1516898
2023-07-04T17:23:17.837Z,adservice,cpu,7842348
2023-07-04T17:23:17.837Z,redis-cart,cpu,1789537
2023-07-04T17:23:17.837Z,emailservice,cpu,6071403
2023-07-04T17:23:17.837Z,paymentservice,cpu,2634300
2023-07-04T17:23:17.984Z,productcatalogservice,cpu,8163918
2023-07-04T17:23:17.984Z,redis-cart,cpu,1463754
2023-07-04T17:23:17.984Z,frontend,cpu,8787012
2023-07-04T17:23:17.984Z,checkoutservice,cpu,1669352
2023-07-04T17:23:17.984Z,redis-cart,cpu,1887143
2023-07-04T17:23:18.078Z,cartservice,cpu,7977499
2023-07-04T17:23:17.984Z,recommendationservice,cpu,8431542
2023-07-04T17:23:17.984Z,redis-cart,cpu,1528843
2023-07-04T17:23:18.078Z,redis-cart,cpu,1682643
2023-07-04T17:23:18.078Z,redis-cart,cpu,1684091
2023-07-04T17:23:18.078Z,currencyservice,cpu,12650665
2023-07-04T17:23:27.838Z,redis-cart,cpu,1461203
2023-07-04T17:23:27.838Z,redis-cart,cpu,1789537
2023-07-04T17:23:27.838Z,paymentservice,cpu,2321721
2023-07-04T17:23:27.838Z,adservice,cpu,7842348
2023-07-04T17:23:27.838Z,shippingservice,cpu,5226233
2023-07-04T17:23:27.838Z,emailservice,cpu,6931210
2023-07-04T17:23:27.838Z,redis-cart,cpu,1541010
2023-07-04T17:23:27.983Z,checkoutservice,cpu,1669352
2023-07-04T17:23:27.983Z,redis-cart,cpu,1887143
2023-07-04T17:23:27.983Z,productcatalogservice,cpu,8163918
2023-07-04T17:23:27.983Z,recommendationservice,cpu,8431542
2023-07-04T17:23:27.983Z,frontend,cpu,8787012
2023-07-04T17:23:27.983Z,redis-cart,cpu,1463754
2023-07-04T17:23:27.983Z,redis-cart,cpu,1528843
2023-07-04T17:23:28.078Z,redis-cart,cpu,1737867
2023-07-04T17:23:28.078Z,cartservice,cpu,7866991
2023-07-04T17:23:28.078Z,currencyservice,cpu,9749661
2023-07-04T17:23:28.078Z,redis-cart,cpu,1893646
2023-07-04T17:23:37.837Z,adservice,cpu,7842348
2023-07-04T17:23:37.837Z,redis-cart,cpu,1789537
2023-07-04T17:23:37.837Z,redis-cart,cpu,1461203
2023-07-04T17:23:37.837Z,redis-cart,cpu,1541010
2023-07-04T17:23:37.837Z,emailservice,cpu,6931210
2023-07-04T17:23:37.837Z,shippingservice,cpu,5226233
2023-07-04T17:23:37.837Z,paymentservice,cpu,2321721
2023-07-04T17:23:37.983Z,redis-cart,cpu,1475215
2023-07-04T17:23:37.983Z,redis-cart,cpu,1823256
2023-07-04T17:23:37.983Z,frontend,cpu,12122293
2023-07-04T17:23:37.983Z,recommendationservice,cpu,11337801
2023-07-04T17:23:37.983Z,productcatalogservice,cpu,6613292
2023-07-04T17:23:37.983Z,redis-cart,cpu,1473198
2023-07-04T17:23:37.983Z,checkoutservice,cpu,6530804
2023-07-04T17:23:38.078Z,redis-cart,cpu,1893646
2023-07-04T17:23:38.078Z,cartservice,cpu,7866991
2023-07-04T17:23:38.078Z,currencyservice,cpu,9749661
2023-07-04T17:23:38.078Z,redis-cart,cpu,1737867
2023-07-04T17:23:47.837Z,redis-cart,cpu,1456069
2023-07-04T17:23:47.837Z,paymentservice,cpu,4085894
2023-07-04T17:23:47.837Z,emailservice,cpu,6719709
2023-07-04T17:23:47.837Z,redis-cart,cpu,1355191
2023-07-04T17:23:47.837Z,redis-cart,cpu,1682925
2023-07-04T17:23:47.837Z,shippingservice,cpu,4457137
2023-07-04T17:23:47.837Z,adservice,cpu,5871706
2023-07-04T17:23:47.983Z,checkoutservice,cpu,6530804
2023-07-04T17:23:47.983Z,redis-cart,cpu,1823256
2023-07-04T17:23:47.983Z,frontend,cpu,12122293
2023-07-04T17:23:47.983Z,redis-cart,cpu,1475215
2023-07-04T17:23:47.983Z,redis-cart,cpu,1473198
2023-07-04T17:23:47.983Z,recommendationservice,cpu,11337801
2023-07-04T17:23:47.983Z,productcatalogservice,cpu,6613292
2023-07-04T17:23:48.077Z,currencyservice,cpu,7798963
2023-07-04T17:23:48.077Z,redis-cart,cpu,1596220
2023-07-04T17:23:48.077Z,redis-cart,cpu,1695622
2023-07-04T17:23:48.077Z,cartservice,cpu,9941533
2023-07-04T17:23:57.837Z,paymentservice,cpu,4085894
2023-07-04T17:23:57.837Z,adservice,cpu,5871706
2023-07-04T17:23:57.837Z,redis-cart,cpu,1355191
2023-07-04T17:23:57.837Z,shippingservice,cpu,4457137
2023-07-04T17:23:57.837Z,redis-cart,cpu,1682925
2023-07-04T17:23:57.837Z,redis-cart,cpu,1456069
2023-07-04T17:23:57.837Z,emailservice,cpu,6719709
2023-07-04T17:23:57.984Z,frontend,cpu,10400187
2023-07-04T17:23:57.984Z,productcatalogservice,cpu,8438184
2023-07-04T17:23:57.984Z,checkoutservice,cpu,4101940
2023-07-04T17:23:58.077Z,currencyservice,cpu,10999806
2023-07-04T17:23:58.077Z,redis-cart,cpu,1951841
2023-07-04T17:23:57.984Z,redis-cart,cpu,1885992
2023-07-04T17:23:57.984Z,redis-cart,cpu,1333438
2023-07-04T17:23:57.984Z,recommendationservice,cpu,9266259
2023-07-04T17:23:57.984Z,redis-cart,cpu,1347011
2023-07-04T17:23:58.077Z,redis-cart,cpu,1570040
2023-07-04T17:23:58.077Z,cartservice,cpu,9590199
2023-07-04T17:24:07.837Z,redis-cart,cpu,1562555
2023-07-04T17:24:07.837Z,emailservice,cpu,5871046
2023-07-04T17:24:07.837Z,shippingservice,cpu,4605419
2023-07-04T17:24:07.837Z,redis-cart,cpu,1520933
2023-07-04T17:24:07.837Z,redis-cart,cpu,1451689
2023-07-04T17:24:07.837Z,adservice,cpu,7339450
2023-07-04T17:24:07.837Z,paymentservice,cpu,2287996
2023-07-04T17:24:07.983Z,recommendationservice,cpu,8204615
2023-07-04T17:24:07.983Z,productcatalogservice,cpu,7498286
2023-07-04T17:24:07.983Z,redis-cart,cpu,1885992
2023-07-04T17:24:07.983Z,checkoutservice,cpu,4101940
2023-07-04T17:24:07.983Z,redis-cart,cpu,1333438
2023-07-04T17:24:07.983Z,redis-cart,cpu,1400340
2023-07-04T17:24:07.983Z,frontend,cpu,10149128
2023-07-04T17:24:08.078Z,redis-cart,cpu,1570040
2023-07-04T17:24:08.078Z,cartservice,cpu,9623598
2023-07-04T17:24:08.078Z,currencyservice,cpu,10999806
2023-07-04T17:24:08.078Z,redis-cart,cpu,1735143
2023-07-04T17:24:17.837Z,adservice,cpu,7339450
2023-07-04T17:24:17.837Z,redis-cart,cpu,1562555
2023-07-04T17:24:17.837Z,redis-cart,cpu,1520933
2023-07-04T17:24:17.837Z,redis-cart,cpu,1451689
2023-07-04T17:24:17.837Z,paymentservice,cpu,2287996
2023-07-04T17:24:17.837Z,shippingservice,cpu,4605419
2023-07-04T17:24:17.837Z,emailservice,cpu,5871046
2023-07-04T17:24:17.983Z,frontend,cpu,10149128
2023-07-04T17:24:18.078Z,redis-cart,cpu,1570040
2023-07-04T17:24:17.983Z,redis-cart,cpu,1885992
2023-07-04T17:24:18.078Z,cartservice,cpu,9623598
2023-07-04T17:24:18.078Z,redis-cart,cpu,1735143
2023-07-04T17:24:17.983Z,recommendationservice,cpu,8204615
2023-07-04T17:24:17.983Z,checkoutservice,cpu,4101940
2023-07-04T17:24:17.983Z,redis-cart,cpu,1333438
2023-07-04T17:24:17.983Z,redis-cart,cpu,1400340
2023-07-04T17:24:17.983Z,productcatalogservice,cpu,7498286
2023-07-04T17:24:18.078Z,currencyservice,cpu,10999806
2023-07-04T17:24:27.837Z,paymentservice,cpu,4519170
2023-07-04T17:24:27.837Z,adservice,cpu,7339450
2023-07-04T17:24:27.837Z,shippingservice,cpu,5368309
2023-07-04T17:24:27.837Z,redis-cart,cpu,1632112
2023-07-04T17:24:27.837Z,redis-cart,cpu,1412329
2023-07-04T17:24:27.837Z,redis-cart,cpu,1651951
2023-07-04T17:24:27.837Z,emailservice,cpu,5871046
2023-07-04T17:24:27.984Z,redis-cart,cpu,1453427
2023-07-04T17:24:27.984Z,redis-cart,cpu,1395600
2023-07-04T17:24:28.077Z,redis-cart,cpu,2004924
2023-07-04T17:24:28.077Z,redis-cart,cpu,1631819
2023-07-04T17:24:27.984Z,checkoutservice,cpu,1703502
2023-07-04T17:24:27.984Z,redis-cart,cpu,1728598
2023-07-04T17:24:28.077Z,currencyservice,cpu,7754938
2023-07-04T17:24:27.984Z,productcatalogservice,cpu,7102471
2023-07-04T17:24:28.077Z,cartservice,cpu,9241884
2023-07-04T17:24:27.984Z,frontend,cpu,10027750
2023-07-04T17:24:27.984Z,recommendationservice,cpu,10539885
2023-07-04T17:24:37.837Z,redis-cart,cpu,1511773
2023-07-04T17:24:37.837Z,emailservice,cpu,6016549
2023-07-04T17:24:37.837Z,shippingservice,cpu,5368309
2023-07-04T17:24:37.837Z,adservice,cpu,10168438
2023-07-04T17:24:37.837Z,paymentservice,cpu,2739948
2023-07-04T17:24:37.837Z,redis-cart,cpu,1550241
2023-07-04T17:24:37.837Z,redis-cart,cpu,1651951
2023-07-04T17:24:37.983Z,redis-cart,cpu,1542026
2023-07-04T17:24:38.078Z,redis-cart,cpu,1639565
2023-07-04T17:24:37.983Z,recommendationservice,cpu,10539885
2023-07-04T17:24:38.078Z,cartservice,cpu,9241884
2023-07-04T17:24:38.078Z,redis-cart,cpu,1607278
2023-07-04T17:24:37.983Z,checkoutservice,cpu,3733499
2023-07-04T17:24:37.983Z,productcatalogservice,cpu,7102471
2023-07-04T17:24:37.983Z,redis-cart,cpu,1632641
2023-07-04T17:24:37.983Z,redis-cart,cpu,1453427
2023-07-04T17:24:37.983Z,frontend,cpu,10027750
2023-07-04T17:24:38.078Z,currencyservice,cpu,9041241
2023-07-04T17:24:47.837Z,redis-cart,cpu,1430730
2023-07-04T17:24:47.837Z,adservice,cpu,28852391
2023-07-04T17:24:47.837Z,shippingservice,cpu,5356297
2023-07-04T17:24:47.837Z,redis-cart,cpu,1435523
2023-07-04T17:24:47.837Z,paymentservice,cpu,3267669
2023-07-04T17:24:47.837Z,redis-cart,cpu,1533838
2023-07-04T17:24:47.837Z,emailservice,cpu,7058186
2023-07-04T17:24:47.983Z,checkoutservice,cpu,3611830
2023-07-04T17:24:47.983Z,redis-cart,cpu,1953138
2023-07-04T17:24:47.983Z,frontend,cpu,11407375
2023-07-04T17:24:48.077Z,redis-cart,cpu,1639565
2023-07-04T17:24:47.983Z,redis-cart,cpu,1632641
2023-07-04T17:24:48.077Z,cartservice,cpu,9241884
2023-07-04T17:24:48.077Z,currencyservice,cpu,9041241
2023-07-04T17:24:47.983Z,redis-cart,cpu,1518617
2023-07-04T17:24:47.983Z,productcatalogservice,cpu,8739593
2023-07-04T17:24:47.983Z,recommendationservice,cpu,9726559
2023-07-04T17:24:48.077Z,redis-cart,cpu,1607278
2023-07-04T17:24:57.838Z,adservice,cpu,6841377
2023-07-04T17:24:57.838Z,redis-cart,cpu,1533838
2023-07-04T17:24:57.838Z,emailservice,cpu,6555573
2023-07-04T17:24:57.838Z,redis-cart,cpu,1592629
2023-07-04T17:24:57.838Z,redis-cart,cpu,1641101
2023-07-04T17:24:57.838Z,shippingservice,cpu,5356297
2023-07-04T17:24:57.838Z,paymentservice,cpu,2683440
2023-07-04T17:24:57.984Z,redis-cart,cpu,1278963
2023-07-04T17:24:57.984Z,redis-cart,cpu,1518617
2023-07-04T17:24:57.984Z,productcatalogservice,cpu,8739593
2023-07-04T17:24:57.984Z,redis-cart,cpu,1874846
2023-07-04T17:24:57.984Z,frontend,cpu,10160922
2023-07-04T17:24:57.984Z,recommendationservice,cpu,10683105
2023-07-04T17:24:57.984Z,checkoutservice,cpu,3611830
2023-07-04T17:24:58.077Z,redis-cart,cpu,1768374
2023-07-04T17:24:58.077Z,currencyservice,cpu,9452220
2023-07-04T17:24:58.077Z,redis-cart,cpu,1692526
2023-07-04T17:24:58.077Z,cartservice,cpu,10387451
2023-07-04T17:25:07.837Z,emailservice,cpu,6555573
2023-07-04T17:25:07.837Z,shippingservice,cpu,5356297
2023-07-04T17:25:07.837Z,redis-cart,cpu,1592629
2023-07-04T17:25:07.837Z,redis-cart,cpu,1533838
2023-07-04T17:25:07.837Z,adservice,cpu,6841377
2023-07-04T17:25:07.837Z,redis-cart,cpu,1641101
2023-07-04T17:25:07.837Z,paymentservice,cpu,2683440
2023-07-04T17:25:07.984Z,productcatalogservice,cpu,7679903
2023-07-04T17:25:07.984Z,frontend,cpu,10160922
2023-07-04T17:25:07.984Z,redis-cart,cpu,1445311
2023-07-04T17:25:07.984Z,recommendationservice,cpu,10683105
2023-07-04T17:25:07.984Z,redis-cart,cpu,1278963
2023-07-04T17:25:07.984Z,redis-cart,cpu,1874846
2023-07-04T17:25:07.984Z,checkoutservice,cpu,3406387
2023-07-04T17:25:08.078Z,cartservice,cpu,10387451
2023-07-04T17:25:08.078Z,redis-cart,cpu,1351117
2023-07-04T17:25:08.078Z,redis-cart,cpu,1670509
2023-07-04T17:25:08.078Z,currencyservice,cpu,9922054
2023-07-04T17:25:17.838Z,emailservice,cpu,6219139
2023-07-04T17:25:17.838Z,paymentservice,cpu,2403174
2023-07-04T17:25:17.838Z,redis-cart,cpu,1641101
2023-07-04T17:25:17.838Z,adservice,cpu,6841377
2023-07-04T17:25:17.838Z,redis-cart,cpu,1592629
2023-07-04T17:25:17.838Z,shippingservice,cpu,4734820
2023-07-04T17:25:17.838Z,redis-cart,cpu,1420189
2023-07-04T17:25:17.984Z,redis-cart,cpu,1874846
2023-07-04T17:25:17.984Z,productcatalogservice,cpu,7679903
2023-07-04T17:25:17.984Z,redis-cart,cpu,1278963
2023-07-04T17:25:17.984Z,checkoutservice,cpu,3406387
2023-07-04T17:25:17.984Z,frontend,cpu,10160922
2023-07-04T17:25:17.984Z,redis-cart,cpu,1445311
2023-07-04T17:25:17.984Z,recommendationservice,cpu,10683105
2023-07-04T17:25:18.078Z,currencyservice,cpu,9225752
2023-07-04T17:25:18.078Z,cartservice,cpu,10442982
2023-07-04T17:25:18.078Z,redis-cart,cpu,1811301
2023-07-04T17:25:18.078Z,redis-cart,cpu,1670509
2023-07-04T17:25:27.837Z,redis-cart,cpu,1553249
2023-07-04T17:25:27.837Z,adservice,cpu,8307830
2023-07-04T17:25:27.837Z,shippingservice,cpu,4597309
2023-07-04T17:25:27.837Z,emailservice,cpu,6691777
2023-07-04T17:25:27.837Z,redis-cart,cpu,1439132
2023-07-04T17:25:27.837Z,paymentservice,cpu,3986206
2023-07-04T17:25:27.837Z,redis-cart,cpu,1407522
2023-07-04T17:25:27.983Z,redis-cart,cpu,1617525
2023-07-04T17:25:27.983Z,frontend,cpu,12213956
2023-07-04T17:25:27.983Z,recommendationservice,cpu,10502855
2023-07-04T17:25:27.983Z,redis-cart,cpu,1229525
2023-07-04T17:25:27.983Z,checkoutservice,cpu,3481597
2023-07-04T17:25:27.983Z,redis-cart,cpu,2075450
2023-07-04T17:25:27.983Z,productcatalogservice,cpu,6924786
2023-07-04T17:25:28.078Z,redis-cart,cpu,1823031
2023-07-04T17:25:28.078Z,cartservice,cpu,10442982
2023-07-04T17:25:28.078Z,redis-cart,cpu,1811301
2023-07-04T17:25:28.078Z,currencyservice,cpu,9225752
2023-07-04T17:25:37.837Z,redis-cart,cpu,1439132
2023-07-04T17:25:37.837Z,adservice,cpu,8307830
2023-07-04T17:25:37.837Z,redis-cart,cpu,1407522
2023-07-04T17:25:37.837Z,shippingservice,cpu,4597309
2023-07-04T17:25:37.837Z,emailservice,cpu,6691777
2023-07-04T17:25:37.837Z,paymentservice,cpu,3986206
2023-07-04T17:25:37.837Z,redis-cart,cpu,1553249
2023-07-04T17:25:37.984Z,checkoutservice,cpu,2899406
2023-07-04T17:25:37.984Z,redis-cart,cpu,1377337
2023-07-04T17:25:37.984Z,redis-cart,cpu,1229525
2023-07-04T17:25:37.984Z,productcatalogservice,cpu,9454080
2023-07-04T17:25:37.984Z,redis-cart,cpu,1745702
2023-07-04T17:25:37.984Z,frontend,cpu,12213956
2023-07-04T17:25:37.984Z,recommendationservice,cpu,7773317
2023-07-04T17:25:38.077Z,redis-cart,cpu,1823031
2023-07-04T17:25:38.077Z,cartservice,cpu,10442982
2023-07-04T17:25:38.077Z,redis-cart,cpu,1811301
2023-07-04T17:25:38.077Z,currencyservice,cpu,9225752
2023-07-04T17:25:47.837Z,redis-cart,cpu,1563112
2023-07-04T17:25:47.837Z,shippingservice,cpu,4657453
2023-07-04T17:25:47.837Z,redis-cart,cpu,1553249
2023-07-04T17:25:47.837Z,adservice,cpu,7488925
2023-07-04T17:25:47.837Z,paymentservice,cpu,3986206
2023-07-04T17:25:47.837Z,redis-cart,cpu,1480933
2023-07-04T17:25:47.837Z,emailservice,cpu,6691777
2023-07-04T17:25:47.983Z,frontend,cpu,12213956
2023-07-04T17:25:47.983Z,recommendationservice,cpu,7773317
2023-07-04T17:25:47.983Z,productcatalogservice,cpu,9454080
2023-07-04T17:25:47.983Z,checkoutservice,cpu,2899406
2023-07-04T17:25:47.983Z,redis-cart,cpu,1377337
2023-07-04T17:25:47.983Z,redis-cart,cpu,1229525
2023-07-04T17:25:47.983Z,redis-cart,cpu,1745702
2023-07-04T17:25:48.078Z,redis-cart,cpu,1699118
2023-07-04T17:25:48.078Z,cartservice,cpu,8467536
2023-07-04T17:25:48.078Z,currencyservice,cpu,8482725
2023-07-04T17:25:48.078Z,redis-cart,cpu,1879425
2023-07-04T17:25:57.837Z,redis-cart,cpu,1560722
2023-07-04T17:25:57.837Z,emailservice,cpu,6460405
2023-07-04T17:25:57.837Z,redis-cart,cpu,1463678
2023-07-04T17:25:57.837Z,adservice,cpu,6803155
2023-07-04T17:25:57.837Z,paymentservice,cpu,3597035
2023-07-04T17:25:57.837Z,redis-cart,cpu,1493393
2023-07-04T17:25:57.837Z,shippingservice,cpu,3269362
2023-07-04T17:25:57.983Z,redis-cart,cpu,1492979
2023-07-04T17:25:57.983Z,checkoutservice,cpu,2169480
2023-07-04T17:25:57.983Z,redis-cart,cpu,1383574
2023-07-04T17:25:57.983Z,productcatalogservice,cpu,6063494
2023-07-04T17:25:57.983Z,redis-cart,cpu,1747136
2023-07-04T17:25:57.983Z,frontend,cpu,10165529
2023-07-04T17:25:57.983Z,recommendationservice,cpu,8643613
2023-07-04T17:25:58.078Z,redis-cart,cpu,1699118
2023-07-04T17:25:58.078Z,redis-cart,cpu,1879425
2023-07-04T17:25:58.078Z,cartservice,cpu,8467536
2023-07-04T17:25:58.078Z,currencyservice,cpu,10367199
2023-07-04T17:26:07.838Z,redis-cart,cpu,1492203
2023-07-04T17:26:07.838Z,adservice,cpu,8774040
2023-07-04T17:26:07.838Z,emailservice,cpu,6896762
2023-07-04T17:26:07.838Z,redis-cart,cpu,1551610
2023-07-04T17:26:07.838Z,shippingservice,cpu,5802305
2023-07-04T17:26:07.838Z,paymentservice,cpu,2849258
2023-07-04T17:26:07.838Z,redis-cart,cpu,1405691
2023-07-04T17:26:07.983Z,checkoutservice,cpu,3208741
2023-07-04T17:26:07.983Z,redis-cart,cpu,1383574
2023-07-04T17:26:07.983Z,frontend,cpu,9501700
2023-07-04T17:26:07.983Z,redis-cart,cpu,1525035
2023-07-04T17:26:07.983Z,recommendationservice,cpu,8827553
2023-07-04T17:26:07.983Z,redis-cart,cpu,1521840
2023-07-04T17:26:07.983Z,productcatalogservice,cpu,7544253
2023-07-04T17:26:08.078Z,cartservice,cpu,10129885
2023-07-04T17:26:08.078Z,currencyservice,cpu,10367199
2023-07-04T17:26:08.078Z,redis-cart,cpu,1716965
2023-07-04T17:26:08.078Z,redis-cart,cpu,1582325
2023-07-04T17:26:17.838Z,shippingservice,cpu,5802305
2023-07-04T17:26:17.838Z,emailservice,cpu,6896762
2023-07-04T17:26:17.838Z,redis-cart,cpu,1609544
2023-07-04T17:26:17.838Z,adservice,cpu,8774040
2023-07-04T17:26:17.838Z,redis-cart,cpu,1492203
2023-07-04T17:26:17.838Z,paymentservice,cpu,2488423
2023-07-04T17:26:17.838Z,redis-cart,cpu,1405691
2023-07-04T17:26:17.983Z,productcatalogservice,cpu,7544253
2023-07-04T17:26:17.983Z,redis-cart,cpu,1383574
2023-07-04T17:26:17.983Z,redis-cart,cpu,1521840
2023-07-04T17:26:17.983Z,frontend,cpu,9501700
2023-07-04T17:26:17.983Z,redis-cart,cpu,1525035
2023-07-04T17:26:17.983Z,recommendationservice,cpu,8827553
2023-07-04T17:26:17.983Z,checkoutservice,cpu,3208741
2023-07-04T17:26:18.078Z,cartservice,cpu,10129885
2023-07-04T17:26:18.078Z,currencyservice,cpu,10367199
2023-07-04T17:26:18.078Z,redis-cart,cpu,1716965
2023-07-04T17:26:18.078Z,redis-cart,cpu,1582325
2023-07-04T17:26:27.837Z,shippingservice,cpu,5802305
2023-07-04T17:26:27.837Z,adservice,cpu,8774040
2023-07-04T17:26:27.837Z,redis-cart,cpu,1492203
2023-07-04T17:26:27.837Z,emailservice,cpu,6896762
2023-07-04T17:26:27.837Z,paymentservice,cpu,2488423
2023-07-04T17:26:27.837Z,redis-cart,cpu,1405691
2023-07-04T17:26:27.837Z,redis-cart,cpu,1609544
2023-07-04T17:26:27.984Z,redis-cart,cpu,1372593
2023-07-04T17:26:27.984Z,checkoutservice,cpu,4666642
2023-07-04T17:26:27.984Z,redis-cart,cpu,1458210
2023-07-04T17:26:27.984Z,redis-cart,cpu,1831668
2023-07-04T17:26:27.984Z,frontend,cpu,11275689
2023-07-04T17:26:27.984Z,productcatalogservice,cpu,8933205
2023-07-04T17:26:27.984Z,recommendationservice,cpu,10429272
2023-07-04T17:26:28.078Z,cartservice,cpu,11024460
2023-07-04T17:26:28.078Z,redis-cart,cpu,1780551
2023-07-04T17:26:28.078Z,currencyservice,cpu,9618681
2023-07-04T17:26:28.078Z,redis-cart,cpu,1833222
2023-07-04T17:26:37.838Z,redis-cart,cpu,1529660
2023-07-04T17:26:37.838Z,paymentservice,cpu,3959705
2023-07-04T17:26:37.838Z,emailservice,cpu,6306014
2023-07-04T17:26:37.838Z,redis-cart,cpu,1510474
2023-07-04T17:26:37.838Z,shippingservice,cpu,5187782
2023-07-04T17:26:37.838Z,redis-cart,cpu,1499808
2023-07-04T17:26:37.838Z,adservice,cpu,10078367
2023-07-04T17:26:37.983Z,redis-cart,cpu,1966540
2023-07-04T17:26:37.983Z,frontend,cpu,12543409
2023-07-04T17:26:37.983Z,checkoutservice,cpu,4409925
2023-07-04T17:26:37.983Z,recommendationservice,cpu,11283858
2023-07-04T17:26:37.983Z,productcatalogservice,cpu,6396862
2023-07-04T17:26:37.983Z,redis-cart,cpu,1372593
2023-07-04T17:26:37.983Z,redis-cart,cpu,1508783
2023-07-04T17:26:38.078Z,cartservice,cpu,11024460
2023-07-04T17:26:38.078Z,redis-cart,cpu,1780551
2023-07-04T17:26:38.078Z,currencyservice,cpu,9618681
2023-07-04T17:26:38.078Z,redis-cart,cpu,1833222
2023-07-04T17:26:47.837Z,redis-cart,cpu,1529660
2023-07-04T17:26:47.837Z,redis-cart,cpu,1510474
2023-07-04T17:26:47.837Z,shippingservice,cpu,5187782
2023-07-04T17:26:47.837Z,redis-cart,cpu,1499808
2023-07-04T17:26:47.837Z,adservice,cpu,10078367
2023-07-04T17:26:47.837Z,paymentservice,cpu,3959705
2023-07-04T17:26:47.837Z,emailservice,cpu,6306014
2023-07-04T17:26:47.984Z,redis-cart,cpu,1544014
2023-07-04T17:26:47.984Z,productcatalogservice,cpu,7364639
2023-07-04T17:26:47.984Z,checkoutservice,cpu,2198305
2023-07-04T17:26:47.984Z,redis-cart,cpu,1925512
2023-07-04T17:26:47.984Z,frontend,cpu,9653826
2023-07-04T17:26:47.984Z,redis-cart,cpu,1508783
2023-07-04T17:26:47.984Z,recommendationservice,cpu,8440680
2023-07-04T17:26:48.078Z,currencyservice,cpu,9267035
2023-07-04T17:26:48.078Z,redis-cart,cpu,1574897
2023-07-04T17:26:48.078Z,cartservice,cpu,6707608
2023-07-04T17:26:48.078Z,redis-cart,cpu,1803367
2023-07-04T17:26:57.837Z,redis-cart,cpu,1661730
2023-07-04T17:26:57.837Z,redis-cart,cpu,1529660
2023-07-04T17:26:57.837Z,adservice,cpu,7728444
2023-07-04T17:26:57.837Z,paymentservice,cpu,3959705
2023-07-04T17:26:57.837Z,redis-cart,cpu,1499808
2023-07-04T17:26:57.837Z,shippingservice,cpu,4046540
2023-07-04T17:26:57.837Z,emailservice,cpu,6306014
2023-07-04T17:26:57.983Z,checkoutservice,cpu,2198305
2023-07-04T17:26:57.983Z,redis-cart,cpu,1925512
2023-07-04T17:26:57.983Z,redis-cart,cpu,1544014
2023-07-04T17:26:57.983Z,frontend,cpu,9653826
2023-07-04T17:26:57.983Z,productcatalogservice,cpu,7364639
2023-07-04T17:26:57.983Z,redis-cart,cpu,1508783
2023-07-04T17:26:57.983Z,recommendationservice,cpu,8440680
2023-07-04T17:26:58.078Z,currencyservice,cpu,9267035
2023-07-04T17:26:58.078Z,redis-cart,cpu,1574897
2023-07-04T17:26:58.078Z,cartservice,cpu,6707608
2023-07-04T17:26:58.078Z,redis-cart,cpu,1803367
2023-07-04T17:27:07.837Z,shippingservice,cpu,4395761
2023-07-04T17:27:07.837Z,paymentservice,cpu,1893270
2023-07-04T17:27:07.837Z,redis-cart,cpu,1465815
2023-07-04T17:27:07.837Z,redis-cart,cpu,1512417
2023-07-04T17:27:07.837Z,adservice,cpu,5957365
2023-07-04T17:27:07.837Z,emailservice,cpu,7942351
2023-07-04T17:27:07.837Z,redis-cart,cpu,1445602
2023-07-04T17:27:07.984Z,recommendationservice,cpu,9990351
2023-07-04T17:27:07.984Z,checkoutservice,cpu,4356872
2023-07-04T17:27:07.984Z,redis-cart,cpu,1410450
2023-07-04T17:27:07.984Z,frontend,cpu,8063009
2023-07-04T17:27:07.984Z,redis-cart,cpu,1746874
2023-07-04T17:27:08.077Z,redis-cart,cpu,1635417
2023-07-04T17:27:08.077Z,redis-cart,cpu,1598368
2023-07-04T17:27:08.077Z,cartservice,cpu,7778601
2023-07-04T17:27:08.077Z,currencyservice,cpu,7485585
2023-07-04T17:27:07.984Z,productcatalogservice,cpu,6009467
2023-07-04T17:27:07.984Z,redis-cart,cpu,1543369
2023-07-04T17:27:17.837Z,redis-cart,cpu,1445602
2023-07-04T17:27:17.837Z,emailservice,cpu,7942351
2023-07-04T17:27:17.837Z,paymentservice,cpu,5239002
2023-07-04T17:27:17.837Z,redis-cart,cpu,1512417
2023-07-04T17:27:17.837Z,shippingservice,cpu,4715345
2023-07-04T17:27:17.837Z,redis-cart,cpu,1467435
2023-07-04T17:27:17.837Z,adservice,cpu,11273503
2023-07-04T17:27:17.983Z,frontend,cpu,8063009
2023-07-04T17:27:17.983Z,checkoutservice,cpu,1837391
2023-07-04T17:27:17.983Z,productcatalogservice,cpu,6009467
2023-07-04T17:27:17.983Z,redis-cart,cpu,1746874
2023-07-04T17:27:17.983Z,recommendationservice,cpu,7782908
2023-07-04T17:27:17.983Z,redis-cart,cpu,1493149
2023-07-04T17:27:17.983Z,redis-cart,cpu,1543369
2023-07-04T17:27:18.078Z,redis-cart,cpu,1598368
2023-07-04T17:27:18.078Z,redis-cart,cpu,1689210
2023-07-04T17:27:18.078Z,cartservice,cpu,7209403
2023-07-04T17:27:18.078Z,currencyservice,cpu,6905556
2023-07-04T17:27:27.837Z,redis-cart,cpu,1467435
2023-07-04T17:27:27.837Z,shippingservice,cpu,4715345
2023-07-04T17:27:27.837Z,emailservice,cpu,7942351
2023-07-04T17:27:27.837Z,redis-cart,cpu,1445602
2023-07-04T17:27:27.837Z,paymentservice,cpu,5239002
2023-07-04T17:27:27.837Z,redis-cart,cpu,1512417
2023-07-04T17:27:27.837Z,adservice,cpu,11273503
2023-07-04T17:27:27.985Z,productcatalogservice,cpu,7965490
2023-07-04T17:27:27.985Z,redis-cart,cpu,1904245
2023-07-04T17:27:27.985Z,recommendationservice,cpu,7782908
2023-07-04T17:27:27.985Z,frontend,cpu,9359569
2023-07-04T17:27:27.985Z,redis-cart,cpu,1348342
2023-07-04T17:27:27.985Z,checkoutservice,cpu,1837391
2023-07-04T17:27:27.985Z,redis-cart,cpu,1493149
2023-07-04T17:27:28.077Z,redis-cart,cpu,1598368
2023-07-04T17:27:28.077Z,redis-cart,cpu,1689210
2023-07-04T17:27:28.077Z,cartservice,cpu,7209403
2023-07-04T17:27:28.077Z,currencyservice,cpu,6905556
2023-07-04T17:27:37.837Z,redis-cart,cpu,1654886
2023-07-04T17:27:37.837Z,redis-cart,cpu,1488691
2023-07-04T17:27:37.837Z,paymentservice,cpu,5239002
2023-07-04T17:27:37.837Z,emailservice,cpu,5961139
2023-07-04T17:27:37.837Z,shippingservice,cpu,4715345
2023-07-04T17:27:37.837Z,redis-cart,cpu,1553887
2023-07-04T17:27:37.837Z,adservice,cpu,7426444
2023-07-04T17:27:37.983Z,redis-cart,cpu,1348342
2023-07-04T17:27:37.983Z,productcatalogservice,cpu,7965490
2023-07-04T17:27:37.983Z,checkoutservice,cpu,1837391
2023-07-04T17:27:37.983Z,recommendationservice,cpu,7782908
2023-07-04T17:27:37.983Z,redis-cart,cpu,1904245
2023-07-04T17:27:37.983Z,frontend,cpu,9359569
2023-07-04T17:27:37.983Z,redis-cart,cpu,1493149
2023-07-04T17:27:38.077Z,redis-cart,cpu,1783645
2023-07-04T17:27:38.077Z,redis-cart,cpu,1689210
2023-07-04T17:27:38.077Z,cartservice,cpu,7209403
2023-07-04T17:27:38.077Z,currencyservice,cpu,6905556
