2023-07-04T17:52:42.141Z,blackbox-exporter,cpu,1569245
2023-07-04T17:52:42.144Z,redis-exporter-dev-team,cpu,2842087
2023-07-04T17:52:52.651Z,redis-exporter-dbops-team,cpu,3593968
2023-07-04T17:52:52.656Z,redis-exporter-dev-team,cpu,4193124
2023-07-04T17:52:52.651Z,blackbox-exporter,cpu,696378
2023-07-04T17:53:02.650Z,blackbox-exporter,cpu,696378
2023-07-04T17:53:02.650Z,redis-exporter-dbops-team,cpu,3593968
2023-07-04T17:53:02.656Z,redis-exporter-dev-team,cpu,4193124
2023-07-04T17:53:12.650Z,blackbox-exporter,cpu,2083403
2023-07-04T17:53:12.650Z,redis-exporter-dbops-team,cpu,3593968
2023-07-04T17:53:12.655Z,redis-exporter-dev-team,cpu,4193124
2023-07-04T17:53:22.651Z,blackbox-exporter,cpu,809216
2023-07-04T17:53:22.651Z,redis-exporter-dbops-team,cpu,3953361
2023-07-04T17:53:22.656Z,redis-exporter-dev-team,cpu,5031902
2023-07-04T17:53:32.650Z,redis-exporter-dbops-team,cpu,4494339
2023-07-04T17:53:32.650Z,blackbox-exporter,cpu,1177759
2023-07-04T17:53:32.656Z,redis-exporter-dev-team,cpu,5031902
2023-07-04T17:53:42.650Z,blackbox-exporter,cpu,1177759
2023-07-04T17:53:42.650Z,redis-exporter-dbops-team,cpu,4494339
2023-07-04T17:53:42.656Z,redis-exporter-dev-team,cpu,5031902
2023-07-04T17:53:52.651Z,redis-exporter-dbops-team,cpu,4494339
2023-07-04T17:53:52.651Z,blackbox-exporter,cpu,1177759
2023-07-04T17:53:52.657Z,redis-exporter-dev-team,cpu,3409535
2023-07-04T17:54:02.657Z,redis-exporter-dev-team,cpu,3450709
2023-07-04T17:54:02.651Z,blackbox-exporter,cpu,859996
2023-07-04T17:54:02.651Z,redis-exporter-dbops-team,cpu,4017231
2023-07-04T17:54:12.651Z,blackbox-exporter,cpu,802172
2023-07-04T17:54:12.656Z,redis-exporter-dev-team,cpu,3197275
2023-07-04T17:54:12.651Z,redis-exporter-dbops-team,cpu,3250776
2023-07-04T17:54:22.651Z,blackbox-exporter,cpu,802172
2023-07-04T17:54:22.656Z,redis-exporter-dev-team,cpu,5476930
2023-07-04T17:54:22.651Z,redis-exporter-dbops-team,cpu,3250776
2023-07-04T17:54:32.656Z,redis-exporter-dev-team,cpu,5476930
2023-07-04T17:54:32.651Z,blackbox-exporter,cpu,802172
2023-07-04T17:54:32.651Z,redis-exporter-dbops-team,cpu,3250776
2023-07-04T17:54:42.650Z,blackbox-exporter,cpu,1813399
2023-07-04T17:54:42.650Z,redis-exporter-dbops-team,cpu,4227218
2023-07-04T17:54:42.656Z,redis-exporter-dev-team,cpu,1734087
2023-07-04T17:54:52.650Z,blackbox-exporter,cpu,788358
2023-07-04T17:54:52.650Z,redis-exporter-dbops-team,cpu,4227218
2023-07-04T17:54:52.656Z,redis-exporter-dev-team,cpu,4352049
2023-07-04T17:55:02.651Z,redis-exporter-dbops-team,cpu,3013518
2023-07-04T17:55:02.651Z,blackbox-exporter,cpu,1662648
2023-07-04T17:55:02.656Z,redis-exporter-dev-team,cpu,4352049
2023-07-04T17:55:12.656Z,redis-exporter-dev-team,cpu,4352049
2023-07-04T17:55:12.651Z,redis-exporter-dbops-team,cpu,4390997
2023-07-04T17:55:12.651Z,blackbox-exporter,cpu,624945
2023-07-04T17:55:22.656Z,redis-exporter-dev-team,cpu,3864058
2023-07-04T17:55:22.651Z,redis-exporter-dbops-team,cpu,4390997
2023-07-04T17:55:22.651Z,blackbox-exporter,cpu,624945
2023-07-04T17:55:32.651Z,blackbox-exporter,cpu,1352439
2023-07-04T17:55:32.651Z,redis-exporter-dbops-team,cpu,3323442
2023-07-04T17:55:32.656Z,redis-exporter-dev-team,cpu,2183231
2023-07-04T17:55:42.656Z,redis-exporter-dev-team,cpu,2183231
2023-07-04T17:55:42.651Z,redis-exporter-dbops-team,cpu,4432957
2023-07-04T17:55:42.651Z,blackbox-exporter,cpu,1139020
2023-07-04T17:55:52.650Z,redis-exporter-dbops-team,cpu,4432957
2023-07-04T17:55:52.656Z,redis-exporter-dev-team,cpu,3534151
2023-07-04T17:55:52.650Z,blackbox-exporter,cpu,1139020
2023-07-04T17:56:02.651Z,redis-exporter-dbops-team,cpu,3650805
2023-07-04T17:56:02.651Z,blackbox-exporter,cpu,1139020
2023-07-04T17:56:02.655Z,redis-exporter-dev-team,cpu,3824345
2023-07-04T17:56:12.656Z,redis-exporter-dev-team,cpu,3335493
2023-07-04T17:56:12.651Z,redis-exporter-dbops-team,cpu,4046333
2023-07-04T17:56:12.651Z,blackbox-exporter,cpu,1762461
2023-07-04T17:56:22.651Z,redis-exporter-dbops-team,cpu,4044969
2023-07-04T17:56:22.651Z,blackbox-exporter,cpu,685561
2023-07-04T17:56:22.656Z,redis-exporter-dev-team,cpu,3335493
2023-07-04T17:56:32.650Z,redis-exporter-dbops-team,cpu,4044969
2023-07-04T17:56:32.656Z,redis-exporter-dev-team,cpu,3844872
2023-07-04T17:56:32.650Z,blackbox-exporter,cpu,685561
2023-07-04T17:56:42.651Z,blackbox-exporter,cpu,2172635
2023-07-04T17:56:42.651Z,redis-exporter-dbops-team,cpu,3124123
2023-07-04T17:56:42.656Z,redis-exporter-dev-team,cpu,3844872
2023-07-04T17:56:52.651Z,blackbox-exporter,cpu,714250
2023-07-04T17:56:52.656Z,redis-exporter-dev-team,cpu,3248346
2023-07-04T17:56:52.651Z,redis-exporter-dbops-team,cpu,3718171
2023-07-04T17:57:02.651Z,blackbox-exporter,cpu,1940463
2023-07-04T17:57:02.656Z,redis-exporter-dev-team,cpu,3248346
2023-07-04T17:57:02.651Z,redis-exporter-dbops-team,cpu,3732249
2023-07-04T17:57:12.651Z,blackbox-exporter,cpu,1940463
2023-07-04T17:57:12.656Z,redis-exporter-dev-team,cpu,3158520
2023-07-04T17:57:12.651Z,redis-exporter-dbops-team,cpu,3732249
2023-07-04T17:57:22.656Z,redis-exporter-dev-team,cpu,4856485
2023-07-04T17:57:22.651Z,redis-exporter-dbops-team,cpu,3732249
2023-07-04T17:57:22.651Z,blackbox-exporter,cpu,345195
2023-07-04T17:57:32.650Z,blackbox-exporter,cpu,1529349
2023-07-04T17:57:32.656Z,redis-exporter-dev-team,cpu,4856485
2023-07-04T17:57:32.650Z,redis-exporter-dbops-team,cpu,3791083
2023-07-04T17:57:42.650Z,redis-exporter-dbops-team,cpu,3791083
2023-07-04T17:57:42.650Z,blackbox-exporter,cpu,1529349
2023-07-04T17:57:42.656Z,redis-exporter-dev-team,cpu,4856485
2023-07-04T17:57:52.651Z,redis-exporter-dbops-team,cpu,4558872
2023-07-04T17:57:52.656Z,redis-exporter-dev-team,cpu,4522851
2023-07-04T17:57:52.651Z,blackbox-exporter,cpu,1529349
2023-07-04T17:58:02.651Z,blackbox-exporter,cpu,1520306
2023-07-04T17:58:02.651Z,redis-exporter-dbops-team,cpu,3697753
2023-07-04T17:58:02.656Z,redis-exporter-dev-team,cpu,4522851
2023-07-04T17:58:12.655Z,redis-exporter-dev-team,cpu,4522851
2023-07-04T17:58:12.650Z,blackbox-exporter,cpu,1520306
2023-07-04T17:58:12.650Z,redis-exporter-dbops-team,cpu,3697753
2023-07-04T17:58:22.651Z,blackbox-exporter,cpu,1517502
2023-07-04T17:58:22.651Z,redis-exporter-dbops-team,cpu,3320373
2023-07-04T17:58:22.656Z,redis-exporter-dev-team,cpu,2639483
2023-07-04T17:58:32.651Z,redis-exporter-dbops-team,cpu,3820633
2023-07-04T17:58:32.656Z,redis-exporter-dev-team,cpu,4661087
2023-07-04T17:58:32.651Z,blackbox-exporter,cpu,1667834
2023-07-04T17:58:42.656Z,redis-exporter-dev-team,cpu,3106416
2023-07-04T17:58:42.651Z,blackbox-exporter,cpu,895793
2023-07-04T17:58:42.651Z,redis-exporter-dbops-team,cpu,3820633
2023-07-04T17:58:52.650Z,blackbox-exporter,cpu,895793
2023-07-04T17:58:52.656Z,redis-exporter-dev-team,cpu,3106416
2023-07-04T17:58:52.650Z,redis-exporter-dbops-team,cpu,3820633
2023-07-04T17:59:02.656Z,redis-exporter-dev-team,cpu,4248909
2023-07-04T17:59:02.651Z,blackbox-exporter,cpu,1942092
2023-07-04T17:59:02.651Z,redis-exporter-dbops-team,cpu,2786807
2023-07-04T17:59:12.651Z,redis-exporter-dbops-team,cpu,4320683
2023-07-04T17:59:12.656Z,redis-exporter-dev-team,cpu,4248909
2023-07-04T17:59:12.651Z,blackbox-exporter,cpu,1137264
2023-07-04T17:59:22.650Z,redis-exporter-dbops-team,cpu,4320683
2023-07-04T17:59:22.650Z,blackbox-exporter,cpu,1137264
2023-07-04T17:59:22.656Z,redis-exporter-dev-team,cpu,4248909
2023-07-04T17:59:32.651Z,redis-exporter-dbops-team,cpu,2589851
2023-07-04T17:59:32.656Z,redis-exporter-dev-team,cpu,3935200
2023-07-04T17:59:32.651Z,blackbox-exporter,cpu,1137264
2023-07-04T17:59:42.656Z,redis-exporter-dev-team,cpu,3935200
2023-07-04T17:59:42.651Z,redis-exporter-dbops-team,cpu,4899374
2023-07-04T17:59:42.651Z,blackbox-exporter,cpu,1822249
2023-07-04T17:59:52.651Z,blackbox-exporter,cpu,1975085
2023-07-04T17:59:52.651Z,redis-exporter-dbops-team,cpu,3289890
2023-07-04T17:59:52.656Z,redis-exporter-dev-team,cpu,2523272
2023-07-04T18:00:02.656Z,redis-exporter-dev-team,cpu,2523272
2023-07-04T18:00:02.650Z,blackbox-exporter,cpu,1975085
2023-07-04T18:00:02.650Z,redis-exporter-dbops-team,cpu,3289890
2023-07-04T18:00:12.650Z,blackbox-exporter,cpu,1975085
2023-07-04T18:00:12.650Z,redis-exporter-dbops-team,cpu,4677882
2023-07-04T18:00:12.656Z,redis-exporter-dev-team,cpu,4159001
2023-07-04T18:00:22.656Z,redis-exporter-dev-team,cpu,3462363
2023-07-04T18:00:22.651Z,redis-exporter-dbops-team,cpu,4677882
2023-07-04T18:00:22.651Z,blackbox-exporter,cpu,808947
2023-07-04T18:00:32.651Z,redis-exporter-dbops-team,cpu,4655366
2023-07-04T18:00:32.655Z,redis-exporter-dev-team,cpu,4219614
2023-07-04T18:00:32.651Z,blackbox-exporter,cpu,1483670
2023-07-04T18:00:42.656Z,redis-exporter-dev-team,cpu,2552626
2023-07-04T18:00:42.651Z,redis-exporter-dbops-team,cpu,2288934
2023-07-04T18:00:42.651Z,blackbox-exporter,cpu,1391473
2023-07-04T18:00:52.651Z,redis-exporter-dbops-team,cpu,2288934
2023-07-04T18:00:52.651Z,blackbox-exporter,cpu,1391473
2023-07-04T18:00:52.656Z,redis-exporter-dev-team,cpu,2552626
2023-07-04T18:01:02.650Z,redis-exporter-dbops-team,cpu,4177369
2023-07-04T18:01:02.650Z,blackbox-exporter,cpu,2347960
2023-07-04T18:01:02.656Z,redis-exporter-dev-team,cpu,4144509
2023-07-04T18:01:12.650Z,redis-exporter-dbops-team,cpu,4177369
2023-07-04T18:01:12.656Z,redis-exporter-dev-team,cpu,4144509
2023-07-04T18:01:12.650Z,blackbox-exporter,cpu,2347960
2023-07-04T18:01:22.651Z,blackbox-exporter,cpu,568840
2023-07-04T18:01:22.656Z,redis-exporter-dev-team,cpu,4144509
2023-07-04T18:01:22.651Z,redis-exporter-dbops-team,cpu,4177369
2023-07-04T18:01:32.656Z,redis-exporter-dev-team,cpu,4044791
2023-07-04T18:01:32.651Z,blackbox-exporter,cpu,1794197
2023-07-04T18:01:32.651Z,redis-exporter-dbops-team,cpu,4173995
2023-07-04T18:01:42.656Z,redis-exporter-dev-team,cpu,2955824
2023-07-04T18:01:42.651Z,blackbox-exporter,cpu,1794197
2023-07-04T18:01:42.651Z,redis-exporter-dbops-team,cpu,4173995
2023-07-04T18:01:52.655Z,redis-exporter-dev-team,cpu,2955824
2023-07-04T18:01:52.650Z,redis-exporter-dbops-team,cpu,2797157
2023-07-04T18:01:52.650Z,blackbox-exporter,cpu,995277
2023-07-04T18:02:02.651Z,redis-exporter-dbops-team,cpu,2664783
2023-07-04T18:02:02.656Z,redis-exporter-dev-team,cpu,4389660
2023-07-04T18:02:02.651Z,blackbox-exporter,cpu,1481012
2023-07-04T18:02:12.656Z,redis-exporter-dev-team,cpu,2254479
2023-07-04T18:02:12.651Z,redis-exporter-dbops-team,cpu,4347819
2023-07-04T18:02:12.651Z,blackbox-exporter,cpu,1481012
2023-07-04T18:02:22.655Z,redis-exporter-dev-team,cpu,2254479
2023-07-04T18:02:22.651Z,redis-exporter-dbops-team,cpu,4347819
2023-07-04T18:02:22.651Z,blackbox-exporter,cpu,1481012
2023-07-04T18:02:32.651Z,redis-exporter-dbops-team,cpu,3654053
2023-07-04T18:02:32.651Z,blackbox-exporter,cpu,1581617
2023-07-04T18:02:32.656Z,redis-exporter-dev-team,cpu,4455977
2023-07-04T18:02:42.655Z,redis-exporter-dev-team,cpu,4455977
2023-07-04T18:02:42.650Z,redis-exporter-dbops-team,cpu,3654053
2023-07-04T18:02:42.650Z,blackbox-exporter,cpu,1581617
2023-07-04T18:02:52.657Z,redis-exporter-dev-team,cpu,3014021
2023-07-04T18:02:52.651Z,blackbox-exporter,cpu,1140901
2023-07-04T18:02:52.651Z,redis-exporter-dbops-team,cpu,3654053
2023-07-04T18:03:02.650Z,blackbox-exporter,cpu,1409452
2023-07-04T18:03:02.656Z,redis-exporter-dev-team,cpu,3606757
2023-07-04T18:03:02.650Z,redis-exporter-dbops-team,cpu,3087512
