2023-07-04T17:52:42.141Z,redis-cart,network_out,30834
2023-07-04T17:52:42.144Z,recommendationservice,network_out,25769
2023-07-04T17:52:42.141Z,paymentservice,network_out,4141
2023-07-04T17:52:42.144Z,redis-cart,network_out,30537
2023-07-04T17:52:42.141Z,redis-cart,network_out,58765
2023-07-04T17:52:42.141Z,cartservice,network_out,15010
2023-07-04T17:52:42.144Z,productcatalogservice,network_out,275589
2023-07-04T17:52:42.141Z,redis-cart,network_out,44790
2023-07-04T17:52:42.141Z,redis-cart,network_out,30827
2023-07-04T17:52:42.141Z,redis-cart,network_out,58774
2023-07-04T17:52:42.144Z,redis-cart,network_out,58165
2023-07-04T17:52:42.144Z,adservice,network_out,5938
2023-07-04T17:52:42.144Z,redis-cart,network_out,44106
2023-07-04T17:52:42.144Z,checkoutservice,network_out,24818
2023-07-04T17:52:42.141Z,currencyservice,network_out,81373
2023-07-04T17:52:42.144Z,frontend,network_out,885874
2023-07-04T17:52:42.141Z,shippingservice,network_out,9600
2023-07-04T17:52:42.144Z,emailservice,network_out,4687
2023-07-04T17:52:42.141Z,redis-cart,network_out,30569
2023-07-04T17:52:42.144Z,redis-cart,network_out,58605
2023-07-04T17:52:42.144Z,redis-cart,network_out,30257
2023-07-04T17:52:42.144Z,redis-cart,network_out,30257
2023-07-04T17:52:52.653Z,redis-cart,network_out,58624
2023-07-04T17:52:52.656Z,redis-cart,network_out,58979
2023-07-04T17:52:52.651Z,currencyservice,network_out,101352
2023-07-04T17:52:52.651Z,redis-cart,network_out,58774
2023-07-04T17:52:52.653Z,frontend,network_out,885874
2023-07-04T17:52:52.656Z,redis-cart,network_out,59089
2023-07-04T17:52:52.656Z,emailservice,network_out,4687
2023-07-04T17:52:52.656Z,redis-cart,network_out,58605
2023-07-04T17:52:52.651Z,redis-cart,network_out,30569
2023-07-04T17:52:52.656Z,redis-cart,network_out,44738
2023-07-04T17:52:52.651Z,shippingservice,network_out,12335
2023-07-04T17:52:52.651Z,redis-cart,network_out,44790
2023-07-04T17:52:52.653Z,redis-cart,network_out,46260
2023-07-04T17:52:52.656Z,adservice,network_out,13410
2023-07-04T17:52:52.651Z,redis-cart,network_out,58765
2023-07-04T17:52:52.653Z,productcatalogservice,network_out,275589
2023-07-04T17:52:52.653Z,redis-cart,network_out,59291
2023-07-04T17:52:52.653Z,redis-cart,network_out,58970
2023-07-04T17:52:52.656Z,redis-cart,network_out,30537
2023-07-04T17:52:52.653Z,recommendationservice,network_out,48636
2023-07-04T17:52:52.653Z,checkoutservice,network_out,33198
2023-07-04T17:52:52.653Z,redis-cart,network_out,59234
2023-07-04T17:52:52.651Z,redis-cart,network_out,59373
2023-07-04T17:52:52.651Z,paymentservice,network_out,4526
2023-07-04T17:52:52.651Z,cartservice,network_out,36754
2023-07-04T17:52:52.651Z,redis-cart,network_out,30827
2023-07-04T17:53:02.653Z,frontend,network_out,885874
2023-07-04T17:53:02.653Z,recommendationservice,network_out,48636
2023-07-04T17:53:02.656Z,redis-cart,network_out,59613
2023-07-04T17:53:02.653Z,redis-cart,network_out,58624
2023-07-04T17:53:02.650Z,redis-cart,network_out,58765
2023-07-04T17:53:02.650Z,redis-cart,network_out,59373
2023-07-04T17:53:02.650Z,cartservice,network_out,36754
2023-07-04T17:53:02.650Z,redis-cart,network_out,30827
2023-07-04T17:53:02.653Z,checkoutservice,network_out,33198
2023-07-04T17:53:02.653Z,redis-cart,network_out,59234
2023-07-04T17:53:02.653Z,productcatalogservice,network_out,275589
2023-07-04T17:53:02.653Z,redis-cart,network_out,59291
2023-07-04T17:53:02.653Z,redis-cart,network_out,58970
2023-07-04T17:53:02.656Z,adservice,network_out,13410
2023-07-04T17:53:02.650Z,currencyservice,network_out,101352
2023-07-04T17:53:02.650Z,redis-cart,network_out,58774
2023-07-04T17:53:02.656Z,redis-cart,network_out,87921
2023-07-04T17:53:02.656Z,redis-cart,network_out,73759
2023-07-04T17:53:02.656Z,emailservice,network_out,5720
2023-07-04T17:53:02.650Z,shippingservice,network_out,12335
2023-07-04T17:53:02.653Z,redis-cart,network_out,46260
2023-07-04T17:53:02.650Z,redis-cart,network_out,44790
2023-07-04T17:53:02.650Z,paymentservice,network_out,4526
2023-07-04T17:53:02.650Z,redis-cart,network_out,30569
2023-07-04T17:53:02.656Z,redis-cart,network_out,59609
2023-07-04T17:53:02.656Z,redis-cart,network_out,59376
2023-07-04T17:53:12.650Z,redis-cart,network_out,59697
2023-07-04T17:53:12.653Z,redis-cart,network_out,77456
2023-07-04T17:53:12.653Z,productcatalogservice,network_out,642445
2023-07-04T17:53:12.650Z,currencyservice,network_out,101352
2023-07-04T17:53:12.650Z,cartservice,network_out,48362
2023-07-04T17:53:12.650Z,redis-cart,network_out,73926
2023-07-04T17:53:12.650Z,shippingservice,network_out,14059
2023-07-04T17:53:12.655Z,redis-cart,network_out,59376
2023-07-04T17:53:12.655Z,emailservice,network_out,5720
2023-07-04T17:53:12.653Z,recommendationservice,network_out,75199
2023-07-04T17:53:12.650Z,redis-cart,network_out,73660
2023-07-04T17:53:12.655Z,redis-cart,network_out,59613
2023-07-04T17:53:12.655Z,redis-cart,network_out,87921
2023-07-04T17:53:12.655Z,redis-cart,network_out,73759
2023-07-04T17:53:12.655Z,adservice,network_out,13410
2023-07-04T17:53:12.653Z,redis-cart,network_out,61265
2023-07-04T17:53:12.653Z,redis-cart,network_out,73725
2023-07-04T17:53:12.653Z,frontend,network_out,1710956
2023-07-04T17:53:12.653Z,checkoutservice,network_out,47515
2023-07-04T17:53:12.650Z,redis-cart,network_out,59675
2023-07-04T17:53:12.650Z,redis-cart,network_out,59373
2023-07-04T17:53:12.650Z,redis-cart,network_out,59734
2023-07-04T17:53:12.650Z,paymentservice,network_out,5360
2023-07-04T17:53:12.655Z,redis-cart,network_out,59609
2023-07-04T17:53:12.653Z,redis-cart,network_out,73790
2023-07-04T17:53:12.653Z,redis-cart,network_out,60090
2023-07-04T17:53:22.651Z,redis-cart,network_out,60213
2023-07-04T17:53:22.656Z,emailservice,network_out,7873
2023-07-04T17:53:22.656Z,redis-cart,network_out,74394
2023-07-04T17:53:22.651Z,redis-cart,network_out,60257
2023-07-04T17:53:22.651Z,currencyservice,network_out,147538
2023-07-04T17:53:22.653Z,frontend,network_out,1970512
2023-07-04T17:53:22.656Z,redis-cart,network_out,74521
2023-07-04T17:53:22.651Z,paymentservice,network_out,6324
2023-07-04T17:53:22.651Z,cartservice,network_out,63898
2023-07-04T17:53:22.651Z,redis-cart,network_out,60294
2023-07-04T17:53:22.653Z,redis-cart,network_out,88591
2023-07-04T17:53:22.653Z,productcatalogservice,network_out,642445
2023-07-04T17:53:22.653Z,checkoutservice,network_out,47515
2023-07-04T17:53:22.653Z,redis-cart,network_out,74285
2023-07-04T17:53:22.656Z,redis-cart,network_out,74388
2023-07-04T17:53:22.656Z,redis-cart,network_out,88687
2023-07-04T17:53:22.656Z,adservice,network_out,27082
2023-07-04T17:53:22.651Z,redis-cart,network_out,59675
2023-07-04T17:53:22.651Z,shippingservice,network_out,14059
2023-07-04T17:53:22.651Z,redis-cart,network_out,88486
2023-07-04T17:53:22.651Z,redis-cart,network_out,73926
2023-07-04T17:53:22.653Z,redis-cart,network_out,116378
2023-07-04T17:53:22.653Z,redis-cart,network_out,76780
2023-07-04T17:53:22.653Z,redis-cart,network_out,88710
2023-07-04T17:53:22.653Z,recommendationservice,network_out,88207
2023-07-04T17:53:22.656Z,redis-cart,network_out,102807
2023-07-04T17:53:32.656Z,adservice,network_out,31417
2023-07-04T17:53:32.653Z,recommendationservice,network_out,108061
2023-07-04T17:53:32.653Z,redis-cart,network_out,92041
2023-07-04T17:53:32.650Z,redis-cart,network_out,89150
2023-07-04T17:53:32.653Z,redis-cart,network_out,103324
2023-07-04T17:53:32.656Z,redis-cart,network_out,89593
2023-07-04T17:53:32.650Z,currencyservice,network_out,183439
2023-07-04T17:53:32.650Z,paymentservice,network_out,7758
2023-07-04T17:53:32.650Z,redis-cart,network_out,103592
2023-07-04T17:53:32.650Z,redis-cart,network_out,88484
2023-07-04T17:53:32.653Z,productcatalogservice,network_out,836678
2023-07-04T17:53:32.650Z,redis-cart,network_out,89667
2023-07-04T17:53:32.650Z,cartservice,network_out,81213
2023-07-04T17:53:32.656Z,emailservice,network_out,7873
2023-07-04T17:53:32.656Z,redis-cart,network_out,117892
2023-07-04T17:53:32.656Z,redis-cart,network_out,89499
2023-07-04T17:53:32.650Z,redis-cart,network_out,89274
2023-07-04T17:53:32.650Z,shippingservice,network_out,19161
2023-07-04T17:53:32.653Z,redis-cart,network_out,116378
2023-07-04T17:53:32.653Z,frontend,network_out,2380287
2023-07-04T17:53:32.653Z,redis-cart,network_out,89431
2023-07-04T17:53:32.653Z,checkoutservice,network_out,57702
2023-07-04T17:53:32.653Z,redis-cart,network_out,103228
2023-07-04T17:53:32.656Z,redis-cart,network_out,89178
2023-07-04T17:53:32.656Z,redis-cart,network_out,102807
2023-07-04T17:53:32.650Z,redis-cart,network_out,103044
2023-07-04T17:53:42.650Z,paymentservice,network_out,7758
2023-07-04T17:53:42.650Z,redis-cart,network_out,88484
2023-07-04T17:53:42.650Z,shippingservice,network_out,19161
2023-07-04T17:53:42.654Z,recommendationservice,network_out,133869
2023-07-04T17:53:42.654Z,redis-cart,network_out,103324
2023-07-04T17:53:42.650Z,redis-cart,network_out,103592
2023-07-04T17:53:42.650Z,redis-cart,network_out,89274
2023-07-04T17:53:42.650Z,redis-cart,network_out,89667
2023-07-04T17:53:42.650Z,redis-cart,network_out,103044
2023-07-04T17:53:42.654Z,productcatalogservice,network_out,974911
2023-07-04T17:53:42.654Z,redis-cart,network_out,140116
2023-07-04T17:53:42.650Z,redis-cart,network_out,89150
2023-07-04T17:53:42.656Z,redis-cart,network_out,89178
2023-07-04T17:53:42.656Z,adservice,network_out,31417
2023-07-04T17:53:42.656Z,redis-cart,network_out,102807
2023-07-04T17:53:42.654Z,redis-cart,network_out,92041
2023-07-04T17:53:42.654Z,checkoutservice,network_out,57702
2023-07-04T17:53:42.654Z,frontend,network_out,2380287
2023-07-04T17:53:42.650Z,currencyservice,network_out,183439
2023-07-04T17:53:42.650Z,cartservice,network_out,81213
2023-07-04T17:53:42.656Z,emailservice,network_out,7873
2023-07-04T17:53:42.656Z,redis-cart,network_out,89593
2023-07-04T17:53:42.656Z,redis-cart,network_out,117892
2023-07-04T17:53:42.656Z,redis-cart,network_out,89499
2023-07-04T17:53:42.654Z,redis-cart,network_out,117988
2023-07-04T17:53:42.654Z,redis-cart,network_out,103228
2023-07-04T17:53:52.651Z,redis-cart,network_out,89274
2023-07-04T17:53:52.653Z,redis-cart,network_out,103228
2023-07-04T17:53:52.657Z,redis-cart,network_out,118584
2023-07-04T17:53:52.651Z,redis-cart,network_out,89667
2023-07-04T17:53:52.651Z,currencyservice,network_out,183439
2023-07-04T17:53:52.651Z,cartservice,network_out,95325
2023-07-04T17:53:52.651Z,paymentservice,network_out,7800
2023-07-04T17:53:52.651Z,redis-cart,network_out,90032
2023-07-04T17:53:52.651Z,redis-cart,network_out,104222
2023-07-04T17:53:52.653Z,redis-cart,network_out,92041
2023-07-04T17:53:52.653Z,redis-cart,network_out,117988
2023-07-04T17:53:52.651Z,shippingservice,network_out,24467
2023-07-04T17:53:52.653Z,redis-cart,network_out,140116
2023-07-04T17:53:52.653Z,redis-cart,network_out,103324
2023-07-04T17:53:52.657Z,redis-cart,network_out,89780
2023-07-04T17:53:52.657Z,redis-cart,network_out,104198
2023-07-04T17:53:52.657Z,redis-cart,network_out,132799
2023-07-04T17:53:52.651Z,redis-cart,network_out,118165
2023-07-04T17:53:52.651Z,redis-cart,network_out,89670
2023-07-04T17:53:52.653Z,recommendationservice,network_out,133869
2023-07-04T17:53:52.653Z,productcatalogservice,network_out,974911
2023-07-04T17:53:52.653Z,checkoutservice,network_out,57702
2023-07-04T17:53:52.653Z,frontend,network_out,2380287
2023-07-04T17:53:52.657Z,redis-cart,network_out,119144
2023-07-04T17:53:52.657Z,emailservice,network_out,9510
2023-07-04T17:53:52.657Z,adservice,network_out,44099
2023-07-04T17:54:02.651Z,cartservice,network_out,95325
2023-07-04T17:54:02.651Z,redis-cart,network_out,118576
2023-07-04T17:54:02.651Z,paymentservice,network_out,8223
2023-07-04T17:54:02.657Z,adservice,network_out,44099
2023-07-04T17:54:02.657Z,emailservice,network_out,9510
2023-07-04T17:54:02.657Z,redis-cart,network_out,119144
2023-07-04T17:54:02.657Z,redis-cart,network_out,118584
2023-07-04T17:54:02.651Z,redis-cart,network_out,118165
2023-07-04T17:54:02.651Z,redis-cart,network_out,104222
2023-07-04T17:54:02.654Z,redis-cart,network_out,133252
2023-07-04T17:54:02.654Z,redis-cart,network_out,119044
2023-07-04T17:54:02.657Z,redis-cart,network_out,119350
2023-07-04T17:54:02.657Z,redis-cart,network_out,132799
2023-07-04T17:54:02.651Z,redis-cart,network_out,104232
2023-07-04T17:54:02.654Z,checkoutservice,network_out,62451
2023-07-04T17:54:02.654Z,redis-cart,network_out,162077
2023-07-04T17:54:02.654Z,redis-cart,network_out,123314
2023-07-04T17:54:02.654Z,recommendationservice,network_out,158484
2023-07-04T17:54:02.654Z,frontend,network_out,3392554
2023-07-04T17:54:02.654Z,redis-cart,network_out,119178
2023-07-04T17:54:02.651Z,currencyservice,network_out,231847
2023-07-04T17:54:02.651Z,redis-cart,network_out,90507
2023-07-04T17:54:02.651Z,shippingservice,network_out,27813
2023-07-04T17:54:02.651Z,redis-cart,network_out,118698
2023-07-04T17:54:02.654Z,productcatalogservice,network_out,1125174
2023-07-04T17:54:02.657Z,redis-cart,network_out,118807
2023-07-04T17:54:12.653Z,productcatalogservice,network_out,1125174
2023-07-04T17:54:12.653Z,recommendationservice,network_out,158484
2023-07-04T17:54:12.653Z,redis-cart,network_out,119178
2023-07-04T17:54:12.656Z,redis-cart,network_out,119437
2023-07-04T17:54:12.656Z,redis-cart,network_out,148394
2023-07-04T17:54:12.656Z,emailservice,network_out,9791
2023-07-04T17:54:12.651Z,currencyservice,network_out,276959
2023-07-04T17:54:12.651Z,cartservice,network_out,118761
2023-07-04T17:54:12.653Z,redis-cart,network_out,133252
2023-07-04T17:54:12.656Z,adservice,network_out,52305
2023-07-04T17:54:12.656Z,redis-cart,network_out,147703
2023-07-04T17:54:12.656Z,redis-cart,network_out,119350
2023-07-04T17:54:12.651Z,redis-cart,network_out,148003
2023-07-04T17:54:12.651Z,redis-cart,network_out,133634
2023-07-04T17:54:12.653Z,checkoutservice,network_out,62451
2023-07-04T17:54:12.653Z,redis-cart,network_out,162077
2023-07-04T17:54:12.653Z,redis-cart,network_out,123314
2023-07-04T17:54:12.653Z,frontend,network_out,3392554
2023-07-04T17:54:12.651Z,paymentservice,network_out,10115
2023-07-04T17:54:12.651Z,shippingservice,network_out,29701
2023-07-04T17:54:12.651Z,redis-cart,network_out,119411
2023-07-04T17:54:12.653Z,redis-cart,network_out,119044
2023-07-04T17:54:12.656Z,redis-cart,network_out,119494
2023-07-04T17:54:12.651Z,redis-cart,network_out,119983
2023-07-04T17:54:12.651Z,redis-cart,network_out,119486
2023-07-04T17:54:12.651Z,redis-cart,network_out,120140
2023-07-04T17:54:22.653Z,redis-cart,network_out,133578
2023-07-04T17:54:22.653Z,frontend,network_out,3392554
2023-07-04T17:54:22.651Z,paymentservice,network_out,10115
2023-07-04T17:54:22.651Z,redis-cart,network_out,148575
2023-07-04T17:54:22.653Z,productcatalogservice,network_out,1332004
2023-07-04T17:54:22.653Z,checkoutservice,network_out,68747
2023-07-04T17:54:22.651Z,redis-cart,network_out,148832
2023-07-04T17:54:22.651Z,currencyservice,network_out,276959
2023-07-04T17:54:22.651Z,redis-cart,network_out,148506
2023-07-04T17:54:22.653Z,redis-cart,network_out,119178
2023-07-04T17:54:22.651Z,redis-cart,network_out,148394
2023-07-04T17:54:22.651Z,redis-cart,network_out,148003
2023-07-04T17:54:22.651Z,redis-cart,network_out,148631
2023-07-04T17:54:22.651Z,cartservice,network_out,150293
2023-07-04T17:54:22.656Z,emailservice,network_out,10551
2023-07-04T17:54:22.656Z,redis-cart,network_out,133953
2023-07-04T17:54:22.656Z,adservice,network_out,60936
2023-07-04T17:54:22.653Z,redis-cart,network_out,187651
2023-07-04T17:54:22.656Z,redis-cart,network_out,134155
2023-07-04T17:54:22.653Z,redis-cart,network_out,133252
2023-07-04T17:54:22.656Z,redis-cart,network_out,148394
2023-07-04T17:54:22.656Z,redis-cart,network_out,147703
2023-07-04T17:54:22.653Z,redis-cart,network_out,123314
2023-07-04T17:54:22.656Z,redis-cart,network_out,119494
2023-07-04T17:54:22.653Z,recommendationservice,network_out,158484
2023-07-04T17:54:22.651Z,shippingservice,network_out,35606
2023-07-04T17:54:32.651Z,redis-cart,network_out,148394
2023-07-04T17:54:32.656Z,redis-cart,network_out,134155
2023-07-04T17:54:32.656Z,redis-cart,network_out,147703
2023-07-04T17:54:32.653Z,recommendationservice,network_out,208652
2023-07-04T17:54:32.651Z,shippingservice,network_out,35606
2023-07-04T17:54:32.651Z,paymentservice,network_out,10115
2023-07-04T17:54:32.656Z,redis-cart,network_out,148394
2023-07-04T17:54:32.656Z,redis-cart,network_out,119494
2023-07-04T17:54:32.653Z,redis-cart,network_out,163110
2023-07-04T17:54:32.653Z,redis-cart,network_out,212484
2023-07-04T17:54:32.653Z,frontend,network_out,4375184
2023-07-04T17:54:32.651Z,redis-cart,network_out,148003
2023-07-04T17:54:32.651Z,redis-cart,network_out,148631
2023-07-04T17:54:32.653Z,redis-cart,network_out,139227
2023-07-04T17:54:32.653Z,redis-cart,network_out,148132
2023-07-04T17:54:32.653Z,productcatalogservice,network_out,1527635
2023-07-04T17:54:32.653Z,checkoutservice,network_out,79713
2023-07-04T17:54:32.651Z,redis-cart,network_out,148832
2023-07-04T17:54:32.651Z,redis-cart,network_out,148575
2023-07-04T17:54:32.651Z,currencyservice,network_out,276959
2023-07-04T17:54:32.651Z,cartservice,network_out,150293
2023-07-04T17:54:32.651Z,redis-cart,network_out,148506
2023-07-04T17:54:32.656Z,emailservice,network_out,10551
2023-07-04T17:54:32.656Z,redis-cart,network_out,133953
2023-07-04T17:54:32.656Z,adservice,network_out,60936
2023-07-04T17:54:32.653Z,redis-cart,network_out,148891
2023-07-04T17:54:42.650Z,currencyservice,network_out,337853
2023-07-04T17:54:42.650Z,redis-cart,network_out,148832
2023-07-04T17:54:42.656Z,adservice,network_out,64485
2023-07-04T17:54:42.650Z,shippingservice,network_out,35606
2023-07-04T17:54:42.650Z,redis-cart,network_out,163153
2023-07-04T17:54:42.650Z,redis-cart,network_out,149234
2023-07-04T17:54:42.653Z,redis-cart,network_out,163110
2023-07-04T17:54:42.656Z,redis-cart,network_out,148690
2023-07-04T17:54:42.650Z,paymentservice,network_out,11234
2023-07-04T17:54:42.650Z,redis-cart,network_out,148575
2023-07-04T17:54:42.656Z,redis-cart,network_out,177395
2023-07-04T17:54:42.656Z,emailservice,network_out,11771
2023-07-04T17:54:42.650Z,redis-cart,network_out,162888
2023-07-04T17:54:42.650Z,cartservice,network_out,170447
2023-07-04T17:54:42.650Z,redis-cart,network_out,148631
2023-07-04T17:54:42.653Z,frontend,network_out,4375184
2023-07-04T17:54:42.653Z,redis-cart,network_out,154471
2023-07-04T17:54:42.653Z,redis-cart,network_out,148891
2023-07-04T17:54:42.653Z,redis-cart,network_out,212484
2023-07-04T17:54:42.656Z,redis-cart,network_out,148802
2023-07-04T17:54:42.656Z,redis-cart,network_out,178322
2023-07-04T17:54:42.653Z,checkoutservice,network_out,85279
2023-07-04T17:54:42.656Z,redis-cart,network_out,163422
2023-07-04T17:54:42.653Z,redis-cart,network_out,163260
2023-07-04T17:54:42.653Z,recommendationservice,network_out,208652
2023-07-04T17:54:42.653Z,productcatalogservice,network_out,1620152
2023-07-04T17:54:52.650Z,cartservice,network_out,181311
2023-07-04T17:54:52.650Z,redis-cart,network_out,149234
2023-07-04T17:54:52.656Z,adservice,network_out,71143
2023-07-04T17:54:52.650Z,redis-cart,network_out,149457
2023-07-04T17:54:52.650Z,redis-cart,network_out,163713
2023-07-04T17:54:52.650Z,paymentservice,network_out,11234
2023-07-04T17:54:52.650Z,redis-cart,network_out,162888
2023-07-04T17:54:52.650Z,shippingservice,network_out,40291
2023-07-04T17:54:52.650Z,redis-cart,network_out,149952
2023-07-04T17:54:52.650Z,redis-cart,network_out,149471
2023-07-04T17:54:52.650Z,currencyservice,network_out,359899
2023-07-04T17:54:52.653Z,redis-cart,network_out,163110
2023-07-04T17:54:52.653Z,frontend,network_out,4375184
2023-07-04T17:54:52.656Z,redis-cart,network_out,163422
2023-07-04T17:54:52.653Z,redis-cart,network_out,154471
2023-07-04T17:54:52.656Z,redis-cart,network_out,163908
2023-07-04T17:54:52.653Z,redis-cart,network_out,148891
2023-07-04T17:54:52.653Z,redis-cart,network_out,212484
2023-07-04T17:54:52.656Z,emailservice,network_out,12883
2023-07-04T17:54:52.656Z,redis-cart,network_out,163566
2023-07-04T17:54:52.653Z,checkoutservice,network_out,85279
2023-07-04T17:54:52.656Z,redis-cart,network_out,177395
2023-07-04T17:54:52.653Z,redis-cart,network_out,163260
2023-07-04T17:54:52.656Z,redis-cart,network_out,178322
2023-07-04T17:54:52.653Z,recommendationservice,network_out,208652
2023-07-04T17:54:52.653Z,productcatalogservice,network_out,1620152
2023-07-04T17:55:02.651Z,redis-cart,network_out,178195
2023-07-04T17:55:02.653Z,redis-cart,network_out,177526
2023-07-04T17:55:02.656Z,redis-cart,network_out,207214
2023-07-04T17:55:02.653Z,redis-cart,network_out,169734
2023-07-04T17:55:02.653Z,frontend,network_out,4949207
2023-07-04T17:55:02.651Z,shippingservice,network_out,40291
2023-07-04T17:55:02.653Z,redis-cart,network_out,234964
2023-07-04T17:55:02.653Z,checkoutservice,network_out,85939
2023-07-04T17:55:02.656Z,redis-cart,network_out,192522
2023-07-04T17:55:02.651Z,redis-cart,network_out,178390
2023-07-04T17:55:02.656Z,redis-cart,network_out,163566
2023-07-04T17:55:02.656Z,redis-cart,network_out,178271
2023-07-04T17:55:02.656Z,adservice,network_out,76492
2023-07-04T17:55:02.653Z,redis-cart,network_out,177981
2023-07-04T17:55:02.651Z,redis-cart,network_out,178055
2023-07-04T17:55:02.653Z,productcatalogservice,network_out,1811607
2023-07-04T17:55:02.651Z,redis-cart,network_out,163713
2023-07-04T17:55:02.653Z,redis-cart,network_out,163260
2023-07-04T17:55:02.651Z,currencyservice,network_out,397934
2023-07-04T17:55:02.651Z,redis-cart,network_out,178415
2023-07-04T17:55:02.651Z,redis-cart,network_out,149952
2023-07-04T17:55:02.651Z,paymentservice,network_out,11384
2023-07-04T17:55:02.651Z,cartservice,network_out,181311
2023-07-04T17:55:02.656Z,redis-cart,network_out,163908
2023-07-04T17:55:02.656Z,emailservice,network_out,12883
2023-07-04T17:55:02.653Z,recommendationservice,network_out,224131
2023-07-04T17:55:12.653Z,redis-cart,network_out,193134
2023-07-04T17:55:12.653Z,checkoutservice,network_out,103070
2023-07-04T17:55:12.653Z,recommendationservice,network_out,265001
2023-07-04T17:55:12.651Z,redis-cart,network_out,193508
2023-07-04T17:55:12.656Z,redis-cart,network_out,163908
2023-07-04T17:55:12.656Z,emailservice,network_out,12883
2023-07-04T17:55:12.656Z,redis-cart,network_out,192522
2023-07-04T17:55:12.651Z,redis-cart,network_out,207817
2023-07-04T17:55:12.651Z,currencyservice,network_out,427406
2023-07-04T17:55:12.651Z,cartservice,network_out,210118
2023-07-04T17:55:12.651Z,redis-cart,network_out,179255
2023-07-04T17:55:12.656Z,redis-cart,network_out,163566
2023-07-04T17:55:12.653Z,frontend,network_out,5469374
2023-07-04T17:55:12.653Z,redis-cart,network_out,193245
2023-07-04T17:55:12.653Z,redis-cart,network_out,185557
2023-07-04T17:55:12.653Z,productcatalogservice,network_out,1974910
2023-07-04T17:55:12.653Z,redis-cart,network_out,259637
2023-07-04T17:55:12.651Z,redis-cart,network_out,179477
2023-07-04T17:55:12.651Z,paymentservice,network_out,13100
2023-07-04T17:55:12.651Z,shippingservice,network_out,51465
2023-07-04T17:55:12.656Z,redis-cart,network_out,178271
2023-07-04T17:55:12.656Z,adservice,network_out,76492
2023-07-04T17:55:12.656Z,redis-cart,network_out,207214
2023-07-04T17:55:12.653Z,redis-cart,network_out,178121
2023-07-04T17:55:12.651Z,redis-cart,network_out,179510
2023-07-04T17:55:12.651Z,redis-cart,network_out,207332
2023-07-04T17:55:22.651Z,redis-cart,network_out,207817
2023-07-04T17:55:22.653Z,redis-cart,network_out,193134
2023-07-04T17:55:22.653Z,redis-cart,network_out,178121
2023-07-04T17:55:22.656Z,redis-cart,network_out,208054
2023-07-04T17:55:22.656Z,adservice,network_out,81464
2023-07-04T17:55:22.651Z,redis-cart,network_out,179477
2023-07-04T17:55:22.651Z,redis-cart,network_out,179510
2023-07-04T17:55:22.653Z,redis-cart,network_out,193245
2023-07-04T17:55:22.653Z,checkoutservice,network_out,103070
2023-07-04T17:55:22.656Z,redis-cart,network_out,193121
2023-07-04T17:55:22.656Z,redis-cart,network_out,207619
2023-07-04T17:55:22.651Z,paymentservice,network_out,13100
2023-07-04T17:55:22.651Z,redis-cart,network_out,207332
2023-07-04T17:55:22.651Z,shippingservice,network_out,51465
2023-07-04T17:55:22.653Z,productcatalogservice,network_out,1974910
2023-07-04T17:55:22.653Z,redis-cart,network_out,259637
2023-07-04T17:55:22.653Z,recommendationservice,network_out,265001
2023-07-04T17:55:22.656Z,redis-cart,network_out,221963
2023-07-04T17:55:22.653Z,frontend,network_out,5469374
2023-07-04T17:55:22.651Z,redis-cart,network_out,193508
2023-07-04T17:55:22.651Z,currencyservice,network_out,427406
2023-07-04T17:55:22.651Z,cartservice,network_out,210118
2023-07-04T17:55:22.651Z,redis-cart,network_out,179255
2023-07-04T17:55:22.653Z,redis-cart,network_out,185557
2023-07-04T17:55:22.656Z,emailservice,network_out,13858
2023-07-04T17:55:22.656Z,redis-cart,network_out,178690
2023-07-04T17:55:32.651Z,redis-cart,network_out,207332
2023-07-04T17:55:32.651Z,redis-cart,network_out,179255
2023-07-04T17:55:32.656Z,redis-cart,network_out,208252
2023-07-04T17:55:32.656Z,redis-cart,network_out,221963
2023-07-04T17:55:32.653Z,redis-cart,network_out,304393
2023-07-04T17:55:32.653Z,checkoutservice,network_out,115687
2023-07-04T17:55:32.651Z,redis-cart,network_out,208129
2023-07-04T17:55:32.651Z,currencyservice,network_out,462401
2023-07-04T17:55:32.656Z,redis-cart,network_out,207821
2023-07-04T17:55:32.653Z,recommendationservice,network_out,283088
2023-07-04T17:55:32.651Z,shippingservice,network_out,51465
2023-07-04T17:55:32.651Z,paymentservice,network_out,13415
2023-07-04T17:55:32.651Z,redis-cart,network_out,179510
2023-07-04T17:55:32.656Z,adservice,network_out,89288
2023-07-04T17:55:32.656Z,redis-cart,network_out,208221
2023-07-04T17:55:32.656Z,emailservice,network_out,14863
2023-07-04T17:55:32.653Z,redis-cart,network_out,207844
2023-07-04T17:55:32.653Z,frontend,network_out,6206237
2023-07-04T17:55:32.653Z,productcatalogservice,network_out,2156180
2023-07-04T17:55:32.651Z,cartservice,network_out,224763
2023-07-04T17:55:32.651Z,redis-cart,network_out,193508
2023-07-04T17:55:32.651Z,redis-cart,network_out,207817
2023-07-04T17:55:32.656Z,redis-cart,network_out,208614
2023-07-04T17:55:32.653Z,redis-cart,network_out,201102
2023-07-04T17:55:32.653Z,redis-cart,network_out,207843
2023-07-04T17:55:32.653Z,redis-cart,network_out,208151
2023-07-04T17:55:42.656Z,redis-cart,network_out,207821
2023-07-04T17:55:42.653Z,redis-cart,network_out,216739
2023-07-04T17:55:42.653Z,productcatalogservice,network_out,2416791
2023-07-04T17:55:42.651Z,redis-cart,network_out,209083
2023-07-04T17:55:42.656Z,redis-cart,network_out,208614
2023-07-04T17:55:42.653Z,redis-cart,network_out,207843
2023-07-04T17:55:42.653Z,redis-cart,network_out,304393
2023-07-04T17:55:42.651Z,redis-cart,network_out,208937
2023-07-04T17:55:42.653Z,checkoutservice,network_out,115687
2023-07-04T17:55:42.656Z,redis-cart,network_out,208252
2023-07-04T17:55:42.656Z,redis-cart,network_out,221963
2023-07-04T17:55:42.653Z,frontend,network_out,6659436
2023-07-04T17:55:42.653Z,recommendationservice,network_out,312821
2023-07-04T17:55:42.651Z,redis-cart,network_out,209333
2023-07-04T17:55:42.651Z,cartservice,network_out,238205
2023-07-04T17:55:42.656Z,adservice,network_out,89288
2023-07-04T17:55:42.656Z,redis-cart,network_out,208221
2023-07-04T17:55:42.656Z,emailservice,network_out,14863
2023-07-04T17:55:42.651Z,redis-cart,network_out,223072
2023-07-04T17:55:42.653Z,redis-cart,network_out,223039
2023-07-04T17:55:42.651Z,redis-cart,network_out,209050
2023-07-04T17:55:42.651Z,paymentservice,network_out,15346
2023-07-04T17:55:42.653Z,redis-cart,network_out,208684
2023-07-04T17:55:42.651Z,redis-cart,network_out,237416
2023-07-04T17:55:42.651Z,currencyservice,network_out,504555
2023-07-04T17:55:42.651Z,shippingservice,network_out,59737
2023-07-04T17:55:52.650Z,redis-cart,network_out,223072
2023-07-04T17:55:52.650Z,redis-cart,network_out,209333
2023-07-04T17:55:52.650Z,paymentservice,network_out,15346
2023-07-04T17:55:52.656Z,emailservice,network_out,15838
2023-07-04T17:55:52.650Z,redis-cart,network_out,209083
2023-07-04T17:55:52.650Z,redis-cart,network_out,209050
2023-07-04T17:55:52.650Z,currencyservice,network_out,504555
2023-07-04T17:55:52.654Z,checkoutservice,network_out,126928
2023-07-04T17:55:52.656Z,redis-cart,network_out,237861
2023-07-04T17:55:52.650Z,redis-cart,network_out,208937
2023-07-04T17:55:52.650Z,redis-cart,network_out,237416
2023-07-04T17:55:52.654Z,redis-cart,network_out,247281
2023-07-04T17:55:52.654Z,redis-cart,network_out,208684
2023-07-04T17:55:52.656Z,redis-cart,network_out,223340
2023-07-04T17:55:52.656Z,redis-cart,network_out,222670
2023-07-04T17:55:52.650Z,cartservice,network_out,238205
2023-07-04T17:55:52.650Z,shippingservice,network_out,59737
2023-07-04T17:55:52.654Z,redis-cart,network_out,222987
2023-07-04T17:55:52.654Z,redis-cart,network_out,345671
2023-07-04T17:55:52.654Z,frontend,network_out,6659436
2023-07-04T17:55:52.654Z,productcatalogservice,network_out,2622192
2023-07-04T17:55:52.654Z,redis-cart,network_out,223039
2023-07-04T17:55:52.654Z,recommendationservice,network_out,312821
2023-07-04T17:55:52.656Z,adservice,network_out,98661
2023-07-04T17:55:52.656Z,redis-cart,network_out,251707
2023-07-04T17:55:52.656Z,redis-cart,network_out,237137
2023-07-04T17:56:02.651Z,redis-cart,network_out,238353
2023-07-04T17:56:02.651Z,redis-cart,network_out,237416
2023-07-04T17:56:02.655Z,redis-cart,network_out,223340
2023-07-04T17:56:02.653Z,productcatalogservice,network_out,2622192
2023-07-04T17:56:02.653Z,redis-cart,network_out,247281
2023-07-04T17:56:02.651Z,shippingservice,network_out,59737
2023-07-04T17:56:02.651Z,cartservice,network_out,265156
2023-07-04T17:56:02.653Z,redis-cart,network_out,222987
2023-07-04T17:56:02.651Z,currencyservice,network_out,539622
2023-07-04T17:56:02.655Z,redis-cart,network_out,237137
2023-07-04T17:56:02.653Z,frontend,network_out,6659436
2023-07-04T17:56:02.653Z,checkoutservice,network_out,126928
2023-07-04T17:56:02.653Z,redis-cart,network_out,223039
2023-07-04T17:56:02.655Z,adservice,network_out,98661
2023-07-04T17:56:02.655Z,redis-cart,network_out,237911
2023-07-04T17:56:02.653Z,redis-cart,network_out,208684
2023-07-04T17:56:02.651Z,redis-cart,network_out,238045
2023-07-04T17:56:02.651Z,paymentservice,network_out,15346
2023-07-04T17:56:02.651Z,redis-cart,network_out,238077
2023-07-04T17:56:02.651Z,redis-cart,network_out,223943
2023-07-04T17:56:02.651Z,redis-cart,network_out,237925
2023-07-04T17:56:02.653Z,redis-cart,network_out,345671
2023-07-04T17:56:02.655Z,redis-cart,network_out,266765
2023-07-04T17:56:02.655Z,emailservice,network_out,17152
2023-07-04T17:56:02.655Z,redis-cart,network_out,251707
2023-07-04T17:56:02.653Z,recommendationservice,network_out,312821
2023-07-04T17:56:12.656Z,adservice,network_out,104450
2023-07-04T17:56:12.656Z,redis-cart,network_out,267671
2023-07-04T17:56:12.653Z,frontend,network_out,7134387
2023-07-04T17:56:12.653Z,redis-cart,network_out,247841
2023-07-04T17:56:12.651Z,redis-cart,network_out,238637
2023-07-04T17:56:12.651Z,paymentservice,network_out,16454
2023-07-04T17:56:12.651Z,redis-cart,network_out,238353
2023-07-04T17:56:12.651Z,cartservice,network_out,265156
2023-07-04T17:56:12.653Z,redis-cart,network_out,368162
2023-07-04T17:56:12.651Z,redis-cart,network_out,238485
2023-07-04T17:56:12.656Z,redis-cart,network_out,266579
2023-07-04T17:56:12.656Z,emailservice,network_out,17714
2023-07-04T17:56:12.656Z,redis-cart,network_out,252480
2023-07-04T17:56:12.651Z,currencyservice,network_out,539622
2023-07-04T17:56:12.653Z,checkoutservice,network_out,136251
2023-07-04T17:56:12.653Z,redis-cart,network_out,238527
2023-07-04T17:56:12.653Z,redis-cart,network_out,252817
2023-07-04T17:56:12.651Z,shippingservice,network_out,62810
2023-07-04T17:56:12.651Z,redis-cart,network_out,238945
2023-07-04T17:56:12.651Z,redis-cart,network_out,252389
2023-07-04T17:56:12.651Z,redis-cart,network_out,252676
2023-07-04T17:56:12.656Z,redis-cart,network_out,238222
2023-07-04T17:56:12.656Z,redis-cart,network_out,238327
2023-07-04T17:56:12.653Z,productcatalogservice,network_out,2813698
2023-07-04T17:56:12.653Z,recommendationservice,network_out,357600
2023-07-04T17:56:12.653Z,redis-cart,network_out,252246
2023-07-04T17:56:22.656Z,emailservice,network_out,17714
2023-07-04T17:56:22.656Z,redis-cart,network_out,252480
2023-07-04T17:56:22.656Z,redis-cart,network_out,238222
2023-07-04T17:56:22.653Z,frontend,network_out,7781725
2023-07-04T17:56:22.653Z,redis-cart,network_out,263405
2023-07-04T17:56:22.653Z,redis-cart,network_out,238527
2023-07-04T17:56:22.653Z,productcatalogservice,network_out,2813698
2023-07-04T17:56:22.653Z,redis-cart,network_out,282113
2023-07-04T17:56:22.656Z,redis-cart,network_out,238327
2023-07-04T17:56:22.653Z,redis-cart,network_out,252806
2023-07-04T17:56:22.653Z,recommendationservice,network_out,357600
2023-07-04T17:56:22.651Z,redis-cart,network_out,253849
2023-07-04T17:56:22.651Z,redis-cart,network_out,239193
2023-07-04T17:56:22.651Z,redis-cart,network_out,239477
2023-07-04T17:56:22.651Z,redis-cart,network_out,267587
2023-07-04T17:56:22.651Z,shippingservice,network_out,67112
2023-07-04T17:56:22.653Z,checkoutservice,network_out,142467
2023-07-04T17:56:22.653Z,redis-cart,network_out,391429
2023-07-04T17:56:22.651Z,cartservice,network_out,316763
2023-07-04T17:56:22.651Z,currencyservice,network_out,642712
2023-07-04T17:56:22.651Z,redis-cart,network_out,268094
2023-07-04T17:56:22.651Z,redis-cart,network_out,267894
2023-07-04T17:56:22.656Z,redis-cart,network_out,266579
2023-07-04T17:56:22.656Z,adservice,network_out,104450
2023-07-04T17:56:22.656Z,redis-cart,network_out,267671
2023-07-04T17:56:22.651Z,paymentservice,network_out,16812
2023-07-04T17:56:32.650Z,redis-cart,network_out,253849
2023-07-04T17:56:32.650Z,redis-cart,network_out,267894
2023-07-04T17:56:32.653Z,redis-cart,network_out,282113
2023-07-04T17:56:32.656Z,emailservice,network_out,19281
2023-07-04T17:56:32.656Z,redis-cart,network_out,267609
2023-07-04T17:56:32.650Z,paymentservice,network_out,16812
2023-07-04T17:56:32.650Z,redis-cart,network_out,239477
2023-07-04T17:56:32.653Z,frontend,network_out,7781725
2023-07-04T17:56:32.656Z,redis-cart,network_out,267062
2023-07-04T17:56:32.656Z,redis-cart,network_out,267791
2023-07-04T17:56:32.650Z,redis-cart,network_out,239193
2023-07-04T17:56:32.650Z,currencyservice,network_out,642712
2023-07-04T17:56:32.650Z,redis-cart,network_out,268094
2023-07-04T17:56:32.653Z,redis-cart,network_out,263405
2023-07-04T17:56:32.653Z,recommendationservice,network_out,357600
2023-07-04T17:56:32.653Z,redis-cart,network_out,391429
2023-07-04T17:56:32.650Z,cartservice,network_out,316763
2023-07-04T17:56:32.653Z,checkoutservice,network_out,142467
2023-07-04T17:56:32.650Z,redis-cart,network_out,267587
2023-07-04T17:56:32.650Z,shippingservice,network_out,67112
2023-07-04T17:56:32.653Z,redis-cart,network_out,238527
2023-07-04T17:56:32.653Z,productcatalogservice,network_out,2813698
2023-07-04T17:56:32.653Z,redis-cart,network_out,252806
2023-07-04T17:56:32.656Z,adservice,network_out,115051
2023-07-04T17:56:32.656Z,redis-cart,network_out,297079
2023-07-04T17:56:32.656Z,redis-cart,network_out,267139
2023-07-04T17:56:42.656Z,redis-cart,network_out,282294
2023-07-04T17:56:42.656Z,redis-cart,network_out,296393
2023-07-04T17:56:42.653Z,frontend,network_out,8308303
2023-07-04T17:56:42.653Z,redis-cart,network_out,279060
2023-07-04T17:56:42.656Z,emailservice,network_out,19562
2023-07-04T17:56:42.656Z,redis-cart,network_out,267609
2023-07-04T17:56:42.656Z,redis-cart,network_out,282383
2023-07-04T17:56:42.656Z,redis-cart,network_out,297079
2023-07-04T17:56:42.653Z,redis-cart,network_out,415128
2023-07-04T17:56:42.653Z,redis-cart,network_out,282296
2023-07-04T17:56:42.653Z,productcatalogservice,network_out,3136754
2023-07-04T17:56:42.651Z,redis-cart,network_out,268724
2023-07-04T17:56:42.651Z,redis-cart,network_out,268485
2023-07-04T17:56:42.651Z,redis-cart,network_out,282540
2023-07-04T17:56:42.651Z,currencyservice,network_out,642712
2023-07-04T17:56:42.651Z,shippingservice,network_out,73835
2023-07-04T17:56:42.656Z,adservice,network_out,122192
2023-07-04T17:56:42.653Z,redis-cart,network_out,297294
2023-07-04T17:56:42.651Z,cartservice,network_out,330942
2023-07-04T17:56:42.651Z,redis-cart,network_out,267894
2023-07-04T17:56:42.651Z,redis-cart,network_out,268215
2023-07-04T17:56:42.651Z,redis-cart,network_out,268837
2023-07-04T17:56:42.651Z,paymentservice,network_out,18591
2023-07-04T17:56:42.653Z,checkoutservice,network_out,159462
2023-07-04T17:56:42.653Z,recommendationservice,network_out,383425
2023-07-04T17:56:42.653Z,redis-cart,network_out,282675
2023-07-04T17:56:52.656Z,redis-cart,network_out,282458
2023-07-04T17:56:52.656Z,redis-cart,network_out,297919
2023-07-04T17:56:52.651Z,redis-cart,network_out,298085
2023-07-04T17:56:52.651Z,shippingservice,network_out,78872
2023-07-04T17:56:52.653Z,redis-cart,network_out,415128
2023-07-04T17:56:52.653Z,redis-cart,network_out,282296
2023-07-04T17:56:52.653Z,productcatalogservice,network_out,3136754
2023-07-04T17:56:52.656Z,redis-cart,network_out,282383
2023-07-04T17:56:52.651Z,paymentservice,network_out,19018
2023-07-04T17:56:52.651Z,redis-cart,network_out,297700
2023-07-04T17:56:52.651Z,redis-cart,network_out,297792
2023-07-04T17:56:52.656Z,redis-cart,network_out,282294
2023-07-04T17:56:52.656Z,adservice,network_out,122192
2023-07-04T17:56:52.656Z,emailservice,network_out,20525
2023-07-04T17:56:52.656Z,redis-cart,network_out,296953
2023-07-04T17:56:52.651Z,redis-cart,network_out,311802
2023-07-04T17:56:52.651Z,cartservice,network_out,350681
2023-07-04T17:56:52.653Z,frontend,network_out,8308303
2023-07-04T17:56:52.653Z,checkoutservice,network_out,159462
2023-07-04T17:56:52.653Z,redis-cart,network_out,279060
2023-07-04T17:56:52.653Z,recommendationservice,network_out,383425
2023-07-04T17:56:52.653Z,redis-cart,network_out,282675
2023-07-04T17:56:52.653Z,redis-cart,network_out,297294
2023-07-04T17:56:52.651Z,currencyservice,network_out,705754
2023-07-04T17:56:52.651Z,redis-cart,network_out,269045
2023-07-04T17:56:52.651Z,redis-cart,network_out,298129
2023-07-04T17:57:02.656Z,adservice,network_out,122192
2023-07-04T17:57:02.656Z,redis-cart,network_out,296953
2023-07-04T17:57:02.656Z,redis-cart,network_out,282458
2023-07-04T17:57:02.656Z,redis-cart,network_out,297919
2023-07-04T17:57:02.653Z,frontend,network_out,9307662
2023-07-04T17:57:02.653Z,redis-cart,network_out,312195
2023-07-04T17:57:02.651Z,currencyservice,network_out,705754
2023-07-04T17:57:02.651Z,redis-cart,network_out,326386
2023-07-04T17:57:02.651Z,redis-cart,network_out,298309
2023-07-04T17:57:02.651Z,shippingservice,network_out,78872
2023-07-04T17:57:02.651Z,redis-cart,network_out,298085
2023-07-04T17:57:02.651Z,redis-cart,network_out,311802
2023-07-04T17:57:02.656Z,redis-cart,network_out,282294
2023-07-04T17:57:02.656Z,emailservice,network_out,20525
2023-07-04T17:57:02.651Z,redis-cart,network_out,298632
2023-07-04T17:57:02.651Z,paymentservice,network_out,19918
2023-07-04T17:57:02.653Z,recommendationservice,network_out,427413
2023-07-04T17:57:02.653Z,productcatalogservice,network_out,3328638
2023-07-04T17:57:02.651Z,redis-cart,network_out,298129
2023-07-04T17:57:02.653Z,redis-cart,network_out,437674
2023-07-04T17:57:02.653Z,checkoutservice,network_out,160122
2023-07-04T17:57:02.651Z,cartservice,network_out,350681
2023-07-04T17:57:02.656Z,redis-cart,network_out,282383
2023-07-04T17:57:02.653Z,redis-cart,network_out,310261
2023-07-04T17:57:02.653Z,redis-cart,network_out,297869
2023-07-04T17:57:02.653Z,redis-cart,network_out,297470
2023-07-04T17:57:12.651Z,redis-cart,network_out,298309
2023-07-04T17:57:12.651Z,redis-cart,network_out,298085
2023-07-04T17:57:12.651Z,redis-cart,network_out,298129
2023-07-04T17:57:12.651Z,redis-cart,network_out,311802
2023-07-04T17:57:12.656Z,redis-cart,network_out,312198
2023-07-04T17:57:12.651Z,redis-cart,network_out,298632
2023-07-04T17:57:12.653Z,redis-cart,network_out,312195
2023-07-04T17:57:12.653Z,checkoutservice,network_out,160122
2023-07-04T17:57:12.656Z,redis-cart,network_out,297736
2023-07-04T17:57:12.651Z,paymentservice,network_out,19918
2023-07-04T17:57:12.653Z,frontend,network_out,9307662
2023-07-04T17:57:12.653Z,redis-cart,network_out,310261
2023-07-04T17:57:12.653Z,redis-cart,network_out,297869
2023-07-04T17:57:12.653Z,redis-cart,network_out,297470
2023-07-04T17:57:12.653Z,recommendationservice,network_out,427413
2023-07-04T17:57:12.653Z,redis-cart,network_out,437674
2023-07-04T17:57:12.656Z,adservice,network_out,129276
2023-07-04T17:57:12.651Z,currencyservice,network_out,705754
2023-07-04T17:57:12.651Z,redis-cart,network_out,326386
2023-07-04T17:57:12.651Z,shippingservice,network_out,78872
2023-07-04T17:57:12.651Z,cartservice,network_out,350681
2023-07-04T17:57:12.653Z,productcatalogservice,network_out,3328638
2023-07-04T17:57:12.656Z,emailservice,network_out,20806
2023-07-04T17:57:12.656Z,redis-cart,network_out,326137
2023-07-04T17:57:12.656Z,redis-cart,network_out,297255
2023-07-04T17:57:12.656Z,redis-cart,network_out,327125
2023-07-04T17:57:22.656Z,redis-cart,network_out,341009
2023-07-04T17:57:22.656Z,redis-cart,network_out,312296
2023-07-04T17:57:22.656Z,redis-cart,network_out,312198
2023-07-04T17:57:22.656Z,emailservice,network_out,21195
2023-07-04T17:57:22.656Z,redis-cart,network_out,326441
2023-07-04T17:57:22.656Z,redis-cart,network_out,328031
2023-07-04T17:57:22.656Z,adservice,network_out,137352
2023-07-04T17:57:22.653Z,redis-cart,network_out,312076
2023-07-04T17:57:22.653Z,redis-cart,network_out,325547
2023-07-04T17:57:22.653Z,productcatalogservice,network_out,3531659
2023-07-04T17:57:22.651Z,currencyservice,network_out,749714
2023-07-04T17:57:22.651Z,redis-cart,network_out,298755
2023-07-04T17:57:22.651Z,redis-cart,network_out,298632
2023-07-04T17:57:22.651Z,redis-cart,network_out,312642
2023-07-04T17:57:22.653Z,checkoutservice,network_out,169178
2023-07-04T17:57:22.653Z,frontend,network_out,9851639
2023-07-04T17:57:22.651Z,redis-cart,network_out,298967
2023-07-04T17:57:22.651Z,redis-cart,network_out,326386
2023-07-04T17:57:22.651Z,shippingservice,network_out,83520
2023-07-04T17:57:22.651Z,paymentservice,network_out,20591
2023-07-04T17:57:22.651Z,redis-cart,network_out,298309
2023-07-04T17:57:22.651Z,cartservice,network_out,369692
2023-07-04T17:57:22.653Z,redis-cart,network_out,327387
2023-07-04T17:57:22.653Z,redis-cart,network_out,461003
2023-07-04T17:57:22.653Z,recommendationservice,network_out,450082
2023-07-04T17:57:22.653Z,redis-cart,network_out,326858
2023-07-04T17:57:32.656Z,redis-cart,network_out,327047
2023-07-04T17:57:32.656Z,emailservice,network_out,21195
2023-07-04T17:57:32.653Z,redis-cart,network_out,327418
2023-07-04T17:57:32.653Z,redis-cart,network_out,483086
2023-07-04T17:57:32.653Z,frontend,network_out,9851639
2023-07-04T17:57:32.656Z,redis-cart,network_out,328031
2023-07-04T17:57:32.653Z,redis-cart,network_out,341203
2023-07-04T17:57:32.650Z,redis-cart,network_out,327268
2023-07-04T17:57:32.650Z,shippingservice,network_out,86808
2023-07-04T17:57:32.650Z,paymentservice,network_out,20657
2023-07-04T17:57:32.650Z,redis-cart,network_out,328540
2023-07-04T17:57:32.656Z,redis-cart,network_out,327001
2023-07-04T17:57:32.653Z,checkoutservice,network_out,169838
2023-07-04T17:57:32.653Z,redis-cart,network_out,327387
2023-07-04T17:57:32.653Z,redis-cart,network_out,326962
2023-07-04T17:57:32.650Z,redis-cart,network_out,327814
2023-07-04T17:57:32.650Z,redis-cart,network_out,342226
2023-07-04T17:57:32.656Z,adservice,network_out,146245
2023-07-04T17:57:32.656Z,redis-cart,network_out,341009
2023-07-04T17:57:32.656Z,redis-cart,network_out,312296
2023-07-04T17:57:32.653Z,productcatalogservice,network_out,3746100
2023-07-04T17:57:32.653Z,recommendationservice,network_out,464133
2023-07-04T17:57:32.650Z,cartservice,network_out,394174
2023-07-04T17:57:32.650Z,currencyservice,network_out,780368
2023-07-04T17:57:32.650Z,redis-cart,network_out,328175
2023-07-04T17:57:32.650Z,redis-cart,network_out,327937
2023-07-04T17:57:42.650Z,cartservice,network_out,394174
2023-07-04T17:57:42.650Z,redis-cart,network_out,328175
2023-07-04T17:57:42.653Z,redis-cart,network_out,483086
2023-07-04T17:57:42.656Z,redis-cart,network_out,341009
2023-07-04T17:57:42.650Z,redis-cart,network_out,327814
2023-07-04T17:57:42.650Z,currencyservice,network_out,780368
2023-07-04T17:57:42.650Z,redis-cart,network_out,342226
2023-07-04T17:57:42.650Z,paymentservice,network_out,20657
2023-07-04T17:57:42.656Z,adservice,network_out,146245
2023-07-04T17:57:42.653Z,redis-cart,network_out,326962
2023-07-04T17:57:42.650Z,redis-cart,network_out,327268
2023-07-04T17:57:42.650Z,redis-cart,network_out,327937
2023-07-04T17:57:42.650Z,redis-cart,network_out,328540
2023-07-04T17:57:42.656Z,redis-cart,network_out,328031
2023-07-04T17:57:42.656Z,redis-cart,network_out,327001
2023-07-04T17:57:42.653Z,redis-cart,network_out,327387
2023-07-04T17:57:42.656Z,redis-cart,network_out,312296
2023-07-04T17:57:42.650Z,shippingservice,network_out,86808
2023-07-04T17:57:42.653Z,redis-cart,network_out,327418
2023-07-04T17:57:42.653Z,productcatalogservice,network_out,3746100
2023-07-04T17:57:42.653Z,recommendationservice,network_out,464133
2023-07-04T17:57:42.653Z,checkoutservice,network_out,169838
2023-07-04T17:57:42.656Z,redis-cart,network_out,327047
2023-07-04T17:57:42.653Z,frontend,network_out,9851639
2023-07-04T17:57:42.656Z,emailservice,network_out,21195
2023-07-04T17:57:42.653Z,redis-cart,network_out,341203
2023-07-04T17:57:52.651Z,redis-cart,network_out,356234
2023-07-04T17:57:52.651Z,currencyservice,network_out,819471
2023-07-04T17:57:52.654Z,checkoutservice,network_out,171292
2023-07-04T17:57:52.654Z,redis-cart,network_out,356688
2023-07-04T17:57:52.656Z,adservice,network_out,152878
2023-07-04T17:57:52.651Z,cartservice,network_out,411979
2023-07-04T17:57:52.651Z,redis-cart,network_out,342226
2023-07-04T17:57:52.654Z,productcatalogservice,network_out,3928920
2023-07-04T17:57:52.654Z,redis-cart,network_out,505027
2023-07-04T17:57:52.654Z,recommendationservice,network_out,481600
2023-07-04T17:57:52.656Z,redis-cart,network_out,341761
2023-07-04T17:57:52.651Z,redis-cart,network_out,328934
2023-07-04T17:57:52.651Z,redis-cart,network_out,328540
2023-07-04T17:57:52.654Z,frontend,network_out,10998117
2023-07-04T17:57:52.656Z,emailservice,network_out,23336
2023-07-04T17:57:52.656Z,redis-cart,network_out,357517
2023-07-04T17:57:52.651Z,shippingservice,network_out,88560
2023-07-04T17:57:52.651Z,paymentservice,network_out,21599
2023-07-04T17:57:52.651Z,redis-cart,network_out,328861
2023-07-04T17:57:52.651Z,redis-cart,network_out,328735
2023-07-04T17:57:52.654Z,redis-cart,network_out,357049
2023-07-04T17:57:52.654Z,redis-cart,network_out,357279
2023-07-04T17:57:52.654Z,redis-cart,network_out,342151
2023-07-04T17:57:52.656Z,redis-cart,network_out,370797
2023-07-04T17:57:52.656Z,redis-cart,network_out,341874
2023-07-04T17:57:52.656Z,redis-cart,network_out,342176
2023-07-04T17:58:02.656Z,emailservice,network_out,23336
2023-07-04T17:58:02.651Z,redis-cart,network_out,372048
2023-07-04T17:58:02.653Z,frontend,network_out,10998117
2023-07-04T17:58:02.651Z,redis-cart,network_out,358242
2023-07-04T17:58:02.651Z,shippingservice,network_out,92102
2023-07-04T17:58:02.651Z,cartservice,network_out,436527
2023-07-04T17:58:02.651Z,currencyservice,network_out,893073
2023-07-04T17:58:02.653Z,productcatalogservice,network_out,3928920
2023-07-04T17:58:02.653Z,checkoutservice,network_out,171292
2023-07-04T17:58:02.653Z,redis-cart,network_out,357279
2023-07-04T17:58:02.653Z,redis-cart,network_out,342151
2023-07-04T17:58:02.656Z,adservice,network_out,159540
2023-07-04T17:58:02.656Z,redis-cart,network_out,386443
2023-07-04T17:58:02.656Z,redis-cart,network_out,370797
2023-07-04T17:58:02.656Z,redis-cart,network_out,356944
2023-07-04T17:58:02.656Z,redis-cart,network_out,357036
2023-07-04T17:58:02.653Z,redis-cart,network_out,505027
2023-07-04T17:58:02.656Z,redis-cart,network_out,357027
2023-07-04T17:58:02.653Z,redis-cart,network_out,356688
2023-07-04T17:58:02.653Z,recommendationservice,network_out,481600
2023-07-04T17:58:02.651Z,redis-cart,network_out,357074
2023-07-04T17:58:02.651Z,redis-cart,network_out,358150
2023-07-04T17:58:02.651Z,redis-cart,network_out,358157
2023-07-04T17:58:02.653Z,redis-cart,network_out,357049
2023-07-04T17:58:02.651Z,paymentservice,network_out,22706
2023-07-04T17:58:02.651Z,redis-cart,network_out,358279
2023-07-04T17:58:12.650Z,paymentservice,network_out,22706
2023-07-04T17:58:12.655Z,adservice,network_out,159540
2023-07-04T17:58:12.655Z,redis-cart,network_out,370797
2023-07-04T17:58:12.655Z,redis-cart,network_out,356944
2023-07-04T17:58:12.653Z,redis-cart,network_out,371150
2023-07-04T17:58:12.653Z,frontend,network_out,11310670
2023-07-04T17:58:12.653Z,recommendationservice,network_out,501389
2023-07-04T17:58:12.650Z,redis-cart,network_out,358242
2023-07-04T17:58:12.650Z,redis-cart,network_out,357074
2023-07-04T17:58:12.655Z,redis-cart,network_out,386443
2023-07-04T17:58:12.655Z,redis-cart,network_out,357036
2023-07-04T17:58:12.650Z,redis-cart,network_out,358150
2023-07-04T17:58:12.650Z,redis-cart,network_out,358157
2023-07-04T17:58:12.653Z,redis-cart,network_out,357248
2023-07-04T17:58:12.653Z,redis-cart,network_out,387621
2023-07-04T17:58:12.653Z,redis-cart,network_out,550869
2023-07-04T17:58:12.650Z,redis-cart,network_out,372048
2023-07-04T17:58:12.650Z,shippingservice,network_out,92102
2023-07-04T17:58:12.650Z,cartservice,network_out,436527
2023-07-04T17:58:12.650Z,currencyservice,network_out,893073
2023-07-04T17:58:12.650Z,redis-cart,network_out,358279
2023-07-04T17:58:12.655Z,redis-cart,network_out,357027
2023-07-04T17:58:12.655Z,emailservice,network_out,23336
2023-07-04T17:58:12.653Z,productcatalogservice,network_out,4156840
2023-07-04T17:58:12.653Z,checkoutservice,network_out,189407
2023-07-04T17:58:12.653Z,redis-cart,network_out,372538
2023-07-04T17:58:22.651Z,shippingservice,network_out,97225
2023-07-04T17:58:22.653Z,productcatalogservice,network_out,4328677
2023-07-04T17:58:22.651Z,redis-cart,network_out,358717
2023-07-04T17:58:22.651Z,redis-cart,network_out,359148
2023-07-04T17:58:22.651Z,currencyservice,network_out,893073
2023-07-04T17:58:22.651Z,cartservice,network_out,436527
2023-07-04T17:58:22.653Z,frontend,network_out,11310670
2023-07-04T17:58:22.651Z,redis-cart,network_out,372048
2023-07-04T17:58:22.651Z,redis-cart,network_out,386041
2023-07-04T17:58:22.651Z,paymentservice,network_out,23421
2023-07-04T17:58:22.651Z,redis-cart,network_out,387290
2023-07-04T17:58:22.651Z,redis-cart,network_out,358279
2023-07-04T17:58:22.653Z,redis-cart,network_out,371990
2023-07-04T17:58:22.653Z,recommendationservice,network_out,529773
2023-07-04T17:58:22.653Z,redis-cart,network_out,573405
2023-07-04T17:58:22.653Z,redis-cart,network_out,387171
2023-07-04T17:58:22.653Z,redis-cart,network_out,386238
2023-07-04T17:58:22.653Z,checkoutservice,network_out,189407
2023-07-04T17:58:22.653Z,redis-cart,network_out,388613
2023-07-04T17:58:22.656Z,redis-cart,network_out,371620
2023-07-04T17:58:22.656Z,redis-cart,network_out,387349
2023-07-04T17:58:22.656Z,adservice,network_out,167468
2023-07-04T17:58:22.656Z,redis-cart,network_out,386197
2023-07-04T17:58:22.656Z,emailservice,network_out,24903
2023-07-04T17:58:22.656Z,redis-cart,network_out,371805
2023-07-04T17:58:22.656Z,redis-cart,network_out,385693
2023-07-04T17:58:32.653Z,redis-cart,network_out,371990
2023-07-04T17:58:32.656Z,redis-cart,network_out,386213
2023-07-04T17:58:32.656Z,redis-cart,network_out,400869
2023-07-04T17:58:32.656Z,redis-cart,network_out,386708
2023-07-04T17:58:32.656Z,emailservice,network_out,24903
2023-07-04T17:58:32.651Z,paymentservice,network_out,24279
2023-07-04T17:58:32.651Z,cartservice,network_out,479281
2023-07-04T17:58:32.651Z,redis-cart,network_out,401590
2023-07-04T17:58:32.651Z,currencyservice,network_out,929784
2023-07-04T17:58:32.653Z,frontend,network_out,11310670
2023-07-04T17:58:32.653Z,productcatalogservice,network_out,4328677
2023-07-04T17:58:32.653Z,redis-cart,network_out,573405
2023-07-04T17:58:32.653Z,redis-cart,network_out,387171
2023-07-04T17:58:32.653Z,redis-cart,network_out,386238
2023-07-04T17:58:32.653Z,redis-cart,network_out,388613
2023-07-04T17:58:32.651Z,redis-cart,network_out,387867
2023-07-04T17:58:32.651Z,redis-cart,network_out,387850
2023-07-04T17:58:32.651Z,shippingservice,network_out,101320
2023-07-04T17:58:32.653Z,recommendationservice,network_out,529773
2023-07-04T17:58:32.653Z,checkoutservice,network_out,189407
2023-07-04T17:58:32.651Z,redis-cart,network_out,388564
2023-07-04T17:58:32.656Z,adservice,network_out,167468
2023-07-04T17:58:32.656Z,redis-cart,network_out,386197
2023-07-04T17:58:32.656Z,redis-cart,network_out,416015
2023-07-04T17:58:32.651Z,redis-cart,network_out,415891
2023-07-04T17:58:32.651Z,redis-cart,network_out,387689
2023-07-04T17:58:42.656Z,redis-cart,network_out,416015
2023-07-04T17:58:42.656Z,redis-cart,network_out,386757
2023-07-04T17:58:42.651Z,shippingservice,network_out,107881
2023-07-04T17:58:42.654Z,redis-cart,network_out,419189
2023-07-04T17:58:42.654Z,redis-cart,network_out,600629
2023-07-04T17:58:42.654Z,redis-cart,network_out,402002
2023-07-04T17:58:42.654Z,productcatalogservice,network_out,4658908
2023-07-04T17:58:42.656Z,emailservice,network_out,25944
2023-07-04T17:58:42.651Z,cartservice,network_out,503118
2023-07-04T17:58:42.654Z,redis-cart,network_out,401550
2023-07-04T17:58:42.654Z,checkoutservice,network_out,204857
2023-07-04T17:58:42.656Z,adservice,network_out,177553
2023-07-04T17:58:42.656Z,redis-cart,network_out,415765
2023-07-04T17:58:42.651Z,redis-cart,network_out,387867
2023-07-04T17:58:42.651Z,redis-cart,network_out,416902
2023-07-04T17:58:42.651Z,redis-cart,network_out,415891
2023-07-04T17:58:42.651Z,paymentservice,network_out,25308
2023-07-04T17:58:42.654Z,frontend,network_out,12747344
2023-07-04T17:58:42.654Z,recommendationservice,network_out,553390
2023-07-04T17:58:42.656Z,redis-cart,network_out,386213
2023-07-04T17:58:42.656Z,redis-cart,network_out,386708
2023-07-04T17:58:42.651Z,redis-cart,network_out,403197
2023-07-04T17:58:42.651Z,redis-cart,network_out,402472
2023-07-04T17:58:42.651Z,currencyservice,network_out,985703
2023-07-04T17:58:42.651Z,redis-cart,network_out,388613
2023-07-04T17:58:42.654Z,redis-cart,network_out,402430
2023-07-04T17:58:52.650Z,redis-cart,network_out,387867
2023-07-04T17:58:52.653Z,redis-cart,network_out,401550
2023-07-04T17:58:52.653Z,redis-cart,network_out,419189
2023-07-04T17:58:52.650Z,shippingservice,network_out,107881
2023-07-04T17:58:52.650Z,cartservice,network_out,503118
2023-07-04T17:58:52.650Z,redis-cart,network_out,415891
2023-07-04T17:58:52.656Z,adservice,network_out,177553
2023-07-04T17:58:52.653Z,frontend,network_out,12747344
2023-07-04T17:58:52.656Z,redis-cart,network_out,416015
2023-07-04T17:58:52.653Z,redis-cart,network_out,600629
2023-07-04T17:58:52.656Z,redis-cart,network_out,386213
2023-07-04T17:58:52.656Z,redis-cart,network_out,386757
2023-07-04T17:58:52.653Z,checkoutservice,network_out,204857
2023-07-04T17:58:52.656Z,redis-cart,network_out,415765
2023-07-04T17:58:52.653Z,recommendationservice,network_out,553390
2023-07-04T17:58:52.656Z,emailservice,network_out,25944
2023-07-04T17:58:52.656Z,redis-cart,network_out,386708
2023-07-04T17:58:52.650Z,redis-cart,network_out,402472
2023-07-04T17:58:52.650Z,currencyservice,network_out,985703
2023-07-04T17:58:52.650Z,redis-cart,network_out,388613
2023-07-04T17:58:52.650Z,paymentservice,network_out,25308
2023-07-04T17:58:52.653Z,redis-cart,network_out,402430
2023-07-04T17:58:52.653Z,redis-cart,network_out,402002
2023-07-04T17:58:52.650Z,redis-cart,network_out,403197
2023-07-04T17:58:52.650Z,redis-cart,network_out,416902
2023-07-04T17:58:52.653Z,productcatalogservice,network_out,4658908
2023-07-04T17:59:02.651Z,redis-cart,network_out,403197
2023-07-04T17:59:02.651Z,paymentservice,network_out,25374
2023-07-04T17:59:02.656Z,emailservice,network_out,26973
2023-07-04T17:59:02.654Z,redis-cart,network_out,434755
2023-07-04T17:59:02.654Z,checkoutservice,network_out,211149
2023-07-04T17:59:02.651Z,shippingservice,network_out,107881
2023-07-04T17:59:02.651Z,redis-cart,network_out,402472
2023-07-04T17:59:02.651Z,redis-cart,network_out,416853
2023-07-04T17:59:02.651Z,redis-cart,network_out,416731
2023-07-04T17:59:02.656Z,adservice,network_out,192125
2023-07-04T17:59:02.656Z,redis-cart,network_out,415963
2023-07-04T17:59:02.654Z,redis-cart,network_out,624270
2023-07-04T17:59:02.654Z,redis-cart,network_out,416190
2023-07-04T17:59:02.654Z,redis-cart,network_out,416646
2023-07-04T17:59:02.651Z,currencyservice,network_out,1031923
2023-07-04T17:59:02.651Z,cartservice,network_out,503118
2023-07-04T17:59:02.654Z,redis-cart,network_out,431416
2023-07-04T17:59:02.654Z,frontend,network_out,13284828
2023-07-04T17:59:02.654Z,recommendationservice,network_out,594808
2023-07-04T17:59:02.651Z,redis-cart,network_out,417587
2023-07-04T17:59:02.651Z,redis-cart,network_out,417742
2023-07-04T17:59:02.656Z,redis-cart,network_out,417135
2023-07-04T17:59:02.656Z,redis-cart,network_out,401849
2023-07-04T17:59:02.656Z,redis-cart,network_out,416261
2023-07-04T17:59:02.656Z,redis-cart,network_out,430381
2023-07-04T17:59:02.654Z,productcatalogservice,network_out,4794339
2023-07-04T17:59:12.656Z,redis-cart,network_out,446094
2023-07-04T17:59:12.656Z,redis-cart,network_out,445599
2023-07-04T17:59:12.653Z,checkoutservice,network_out,211149
2023-07-04T17:59:12.656Z,emailservice,network_out,27296
2023-07-04T17:59:12.651Z,redis-cart,network_out,445699
2023-07-04T17:59:12.651Z,redis-cart,network_out,432338
2023-07-04T17:59:12.653Z,redis-cart,network_out,431416
2023-07-04T17:59:12.651Z,currencyservice,network_out,1066764
2023-07-04T17:59:12.651Z,shippingservice,network_out,113443
2023-07-04T17:59:12.653Z,redis-cart,network_out,624270
2023-07-04T17:59:12.653Z,redis-cart,network_out,416190
2023-07-04T17:59:12.653Z,frontend,network_out,13284828
2023-07-04T17:59:12.653Z,redis-cart,network_out,416646
2023-07-04T17:59:12.653Z,redis-cart,network_out,434755
2023-07-04T17:59:12.656Z,redis-cart,network_out,430825
2023-07-04T17:59:12.653Z,productcatalogservice,network_out,4794339
2023-07-04T17:59:12.656Z,redis-cart,network_out,416752
2023-07-04T17:59:12.653Z,recommendationservice,network_out,594808
2023-07-04T17:59:12.651Z,redis-cart,network_out,418111
2023-07-04T17:59:12.651Z,paymentservice,network_out,26565
2023-07-04T17:59:12.651Z,cartservice,network_out,534336
2023-07-04T17:59:12.656Z,redis-cart,network_out,416261
2023-07-04T17:59:12.656Z,adservice,network_out,192125
2023-07-04T17:59:12.651Z,redis-cart,network_out,417693
2023-07-04T17:59:12.651Z,redis-cart,network_out,446794
2023-07-04T17:59:12.651Z,redis-cart,network_out,418189
2023-07-04T17:59:22.656Z,redis-cart,network_out,446094
2023-07-04T17:59:22.656Z,redis-cart,network_out,445599
2023-07-04T17:59:22.653Z,redis-cart,network_out,445936
2023-07-04T17:59:22.650Z,redis-cart,network_out,417693
2023-07-04T17:59:22.650Z,currencyservice,network_out,1066764
2023-07-04T17:59:22.650Z,redis-cart,network_out,418189
2023-07-04T17:59:22.650Z,redis-cart,network_out,446794
2023-07-04T17:59:22.650Z,redis-cart,network_out,432338
2023-07-04T17:59:22.656Z,redis-cart,network_out,416261
2023-07-04T17:59:22.656Z,adservice,network_out,192125
2023-07-04T17:59:22.656Z,redis-cart,network_out,430825
2023-07-04T17:59:22.653Z,recommendationservice,network_out,612950
2023-07-04T17:59:22.653Z,redis-cart,network_out,645859
2023-07-04T17:59:22.653Z,frontend,network_out,13857098
2023-07-04T17:59:22.650Z,redis-cart,network_out,418111
2023-07-04T17:59:22.650Z,redis-cart,network_out,445699
2023-07-04T17:59:22.650Z,shippingservice,network_out,113443
2023-07-04T17:59:22.650Z,paymentservice,network_out,26565
2023-07-04T17:59:22.650Z,cartservice,network_out,534336
2023-07-04T17:59:22.656Z,redis-cart,network_out,416752
2023-07-04T17:59:22.656Z,emailservice,network_out,27296
2023-07-04T17:59:22.653Z,redis-cart,network_out,450968
2023-07-04T17:59:22.653Z,redis-cart,network_out,461310
2023-07-04T17:59:22.653Z,checkoutservice,network_out,211809
2023-07-04T17:59:22.653Z,productcatalogservice,network_out,5103089
2023-07-04T17:59:22.653Z,redis-cart,network_out,431110
2023-07-04T17:59:32.651Z,redis-cart,network_out,461042
2023-07-04T17:59:32.653Z,redis-cart,network_out,461310
2023-07-04T17:59:32.656Z,emailservice,network_out,28606
2023-07-04T17:59:32.656Z,redis-cart,network_out,446396
2023-07-04T17:59:32.651Z,currencyservice,network_out,1095773
2023-07-04T17:59:32.651Z,redis-cart,network_out,447379
2023-07-04T17:59:32.651Z,redis-cart,network_out,446343
2023-07-04T17:59:32.653Z,redis-cart,network_out,450968
2023-07-04T17:59:32.653Z,recommendationservice,network_out,612950
2023-07-04T17:59:32.656Z,redis-cart,network_out,445687
2023-07-04T17:59:32.656Z,redis-cart,network_out,460495
2023-07-04T17:59:32.656Z,redis-cart,network_out,431333
2023-07-04T17:59:32.651Z,paymentservice,network_out,26565
2023-07-04T17:59:32.651Z,shippingservice,network_out,117153
2023-07-04T17:59:32.651Z,redis-cart,network_out,447467
2023-07-04T17:59:32.653Z,checkoutservice,network_out,211809
2023-07-04T17:59:32.653Z,productcatalogservice,network_out,5103089
2023-07-04T17:59:32.653Z,frontend,network_out,13857098
2023-07-04T17:59:32.656Z,redis-cart,network_out,461559
2023-07-04T17:59:32.651Z,redis-cart,network_out,446794
2023-07-04T17:59:32.651Z,redis-cart,network_out,418533
2023-07-04T17:59:32.651Z,cartservice,network_out,534336
2023-07-04T17:59:32.653Z,redis-cart,network_out,645859
2023-07-04T17:59:32.653Z,redis-cart,network_out,431110
2023-07-04T17:59:32.653Z,redis-cart,network_out,445936
2023-07-04T17:59:32.656Z,adservice,network_out,205253
2023-07-04T17:59:42.651Z,redis-cart,network_out,447998
2023-07-04T17:59:42.656Z,redis-cart,network_out,446559
2023-07-04T17:59:42.656Z,redis-cart,network_out,446396
2023-07-04T17:59:42.656Z,emailservice,network_out,28606
2023-07-04T17:59:42.653Z,productcatalogservice,network_out,5286684
2023-07-04T17:59:42.651Z,redis-cart,network_out,447467
2023-07-04T17:59:42.651Z,currencyservice,network_out,1131094
2023-07-04T17:59:42.656Z,redis-cart,network_out,460549
2023-07-04T17:59:42.656Z,adservice,network_out,205253
2023-07-04T17:59:42.653Z,redis-cart,network_out,460670
2023-07-04T17:59:42.653Z,redis-cart,network_out,446776
2023-07-04T17:59:42.651Z,redis-cart,network_out,447305
2023-07-04T17:59:42.651Z,cartservice,network_out,550711
2023-07-04T17:59:42.651Z,redis-cart,network_out,461042
2023-07-04T17:59:42.653Z,redis-cart,network_out,462150
2023-07-04T17:59:42.653Z,redis-cart,network_out,481276
2023-07-04T17:59:42.653Z,recommendationservice,network_out,657583
2023-07-04T17:59:42.653Z,frontend,network_out,14478539
2023-07-04T17:59:42.651Z,paymentservice,network_out,27750
2023-07-04T17:59:42.651Z,redis-cart,network_out,447981
2023-07-04T17:59:42.651Z,shippingservice,network_out,120720
2023-07-04T17:59:42.651Z,redis-cart,network_out,475591
2023-07-04T17:59:42.656Z,redis-cart,network_out,475475
2023-07-04T17:59:42.656Z,redis-cart,network_out,476548
2023-07-04T17:59:42.653Z,checkoutservice,network_out,225097
2023-07-04T17:59:42.653Z,redis-cart,network_out,670491
2023-07-04T17:59:52.656Z,redis-cart,network_out,476548
2023-07-04T17:59:52.651Z,redis-cart,network_out,476473
2023-07-04T17:59:52.651Z,redis-cart,network_out,477249
2023-07-04T17:59:52.653Z,checkoutservice,network_out,229385
2023-07-04T17:59:52.653Z,redis-cart,network_out,475870
2023-07-04T17:59:52.656Z,adservice,network_out,212494
2023-07-04T17:59:52.656Z,redis-cart,network_out,490091
2023-07-04T17:59:52.656Z,redis-cart,network_out,461151
2023-07-04T17:59:52.651Z,redis-cart,network_out,447865
2023-07-04T17:59:52.651Z,paymentservice,network_out,28489
2023-07-04T17:59:52.651Z,cartservice,network_out,576218
2023-07-04T17:59:52.651Z,redis-cart,network_out,477431
2023-07-04T17:59:52.653Z,productcatalogservice,network_out,5473638
2023-07-04T17:59:52.653Z,redis-cart,network_out,482116
2023-07-04T17:59:52.656Z,redis-cart,network_out,461366
2023-07-04T17:59:52.656Z,redis-cart,network_out,475453
2023-07-04T17:59:52.651Z,shippingservice,network_out,125582
2023-07-04T17:59:52.651Z,redis-cart,network_out,491030
2023-07-04T17:59:52.651Z,currencyservice,network_out,1180682
2023-07-04T17:59:52.651Z,redis-cart,network_out,477134
2023-07-04T17:59:52.653Z,redis-cart,network_out,475788
2023-07-04T17:59:52.653Z,recommendationservice,network_out,670445
2023-07-04T17:59:52.656Z,emailservice,network_out,29276
2023-07-04T17:59:52.653Z,redis-cart,network_out,696496
2023-07-04T17:59:52.653Z,redis-cart,network_out,477064
2023-07-04T17:59:52.653Z,frontend,network_out,14945136
2023-07-04T18:00:02.650Z,redis-cart,network_out,447865
2023-07-04T18:00:02.650Z,redis-cart,network_out,491030
2023-07-04T18:00:02.650Z,redis-cart,network_out,476473
2023-07-04T18:00:02.653Z,checkoutservice,network_out,229385
2023-07-04T18:00:02.650Z,shippingservice,network_out,125582
2023-07-04T18:00:02.656Z,redis-cart,network_out,476548
2023-07-04T18:00:02.656Z,emailservice,network_out,29276
2023-07-04T18:00:02.656Z,redis-cart,network_out,490091
2023-07-04T18:00:02.656Z,redis-cart,network_out,461151
2023-07-04T18:00:02.650Z,currencyservice,network_out,1180682
2023-07-04T18:00:02.653Z,frontend,network_out,14945136
2023-07-04T18:00:02.653Z,redis-cart,network_out,482116
2023-07-04T18:00:02.653Z,redis-cart,network_out,475788
2023-07-04T18:00:02.653Z,recommendationservice,network_out,670445
2023-07-04T18:00:02.650Z,redis-cart,network_out,477249
2023-07-04T18:00:02.653Z,redis-cart,network_out,696496
2023-07-04T18:00:02.650Z,paymentservice,network_out,28489
2023-07-04T18:00:02.653Z,redis-cart,network_out,477064
2023-07-04T18:00:02.653Z,redis-cart,network_out,475870
2023-07-04T18:00:02.650Z,redis-cart,network_out,477134
2023-07-04T18:00:02.650Z,cartservice,network_out,576218
2023-07-04T18:00:02.650Z,redis-cart,network_out,477431
2023-07-04T18:00:02.653Z,productcatalogservice,network_out,5473638
2023-07-04T18:00:02.656Z,adservice,network_out,212494
2023-07-04T18:00:02.656Z,redis-cart,network_out,461366
2023-07-04T18:00:02.656Z,redis-cart,network_out,475453
2023-07-04T18:00:12.650Z,redis-cart,network_out,477974
2023-07-04T18:00:12.650Z,shippingservice,network_out,128594
2023-07-04T18:00:12.650Z,currencyservice,network_out,1205901
2023-07-04T18:00:12.650Z,cartservice,network_out,591900
2023-07-04T18:00:12.653Z,checkoutservice,network_out,229385
2023-07-04T18:00:12.656Z,redis-cart,network_out,476387
2023-07-04T18:00:12.656Z,redis-cart,network_out,506162
2023-07-04T18:00:12.650Z,redis-cart,network_out,491097
2023-07-04T18:00:12.653Z,redis-cart,network_out,477064
2023-07-04T18:00:12.656Z,redis-cart,network_out,490858
2023-07-04T18:00:12.650Z,paymentservice,network_out,28489
2023-07-04T18:00:12.653Z,frontend,network_out,14945136
2023-07-04T18:00:12.653Z,redis-cart,network_out,497415
2023-07-04T18:00:12.653Z,redis-cart,network_out,719040
2023-07-04T18:00:12.656Z,redis-cart,network_out,505071
2023-07-04T18:00:12.656Z,adservice,network_out,224106
2023-07-04T18:00:12.656Z,redis-cart,network_out,476083
2023-07-04T18:00:12.650Z,redis-cart,network_out,491030
2023-07-04T18:00:12.650Z,redis-cart,network_out,477157
2023-07-04T18:00:12.650Z,redis-cart,network_out,477431
2023-07-04T18:00:12.650Z,redis-cart,network_out,478089
2023-07-04T18:00:12.653Z,productcatalogservice,network_out,5473638
2023-07-04T18:00:12.653Z,recommendationservice,network_out,670445
2023-07-04T18:00:12.653Z,redis-cart,network_out,475870
2023-07-04T18:00:12.653Z,redis-cart,network_out,476348
2023-07-04T18:00:12.656Z,emailservice,network_out,30739
2023-07-04T18:00:22.651Z,redis-cart,network_out,491912
2023-07-04T18:00:22.651Z,redis-cart,network_out,507068
2023-07-04T18:00:22.656Z,redis-cart,network_out,490979
2023-07-04T18:00:22.653Z,checkoutservice,network_out,241763
2023-07-04T18:00:22.653Z,redis-cart,network_out,491070
2023-07-04T18:00:22.651Z,shippingservice,network_out,128594
2023-07-04T18:00:22.651Z,cartservice,network_out,591900
2023-07-04T18:00:22.651Z,redis-cart,network_out,477787
2023-07-04T18:00:22.651Z,paymentservice,network_out,29954
2023-07-04T18:00:22.651Z,currencyservice,network_out,1205901
2023-07-04T18:00:22.656Z,redis-cart,network_out,490987
2023-07-04T18:00:22.656Z,emailservice,network_out,31983
2023-07-04T18:00:22.656Z,adservice,network_out,224106
2023-07-04T18:00:22.653Z,redis-cart,network_out,491978
2023-07-04T18:00:22.653Z,redis-cart,network_out,740957
2023-07-04T18:00:22.651Z,redis-cart,network_out,491097
2023-07-04T18:00:22.656Z,redis-cart,network_out,506722
2023-07-04T18:00:22.653Z,redis-cart,network_out,505712
2023-07-04T18:00:22.653Z,frontend,network_out,15448544
2023-07-04T18:00:22.653Z,productcatalogservice,network_out,5843296
2023-07-04T18:00:22.653Z,redis-cart,network_out,512714
2023-07-04T18:00:22.651Z,redis-cart,network_out,478089
2023-07-04T18:00:22.651Z,redis-cart,network_out,478271
2023-07-04T18:00:22.656Z,redis-cart,network_out,490858
2023-07-04T18:00:22.656Z,redis-cart,network_out,505631
2023-07-04T18:00:22.653Z,recommendationservice,network_out,693103
2023-07-04T18:00:32.653Z,frontend,network_out,15448544
2023-07-04T18:00:32.653Z,checkoutservice,network_out,241763
2023-07-04T18:00:32.655Z,redis-cart,network_out,505631
2023-07-04T18:00:32.655Z,redis-cart,network_out,535414
2023-07-04T18:00:32.651Z,redis-cart,network_out,521339
2023-07-04T18:00:32.651Z,currencyservice,network_out,1282931
2023-07-04T18:00:32.651Z,redis-cart,network_out,507983
2023-07-04T18:00:32.655Z,emailservice,network_out,31983
2023-07-04T18:00:32.653Z,recommendationservice,network_out,693103
2023-07-04T18:00:32.653Z,redis-cart,network_out,512714
2023-07-04T18:00:32.653Z,redis-cart,network_out,491070
2023-07-04T18:00:32.651Z,paymentservice,network_out,31484
2023-07-04T18:00:32.651Z,shippingservice,network_out,135039
2023-07-04T18:00:32.655Z,adservice,network_out,235702
2023-07-04T18:00:32.655Z,redis-cart,network_out,505548
2023-07-04T18:00:32.655Z,redis-cart,network_out,505569
2023-07-04T18:00:32.653Z,productcatalogservice,network_out,5843296
2023-07-04T18:00:32.651Z,redis-cart,network_out,506799
2023-07-04T18:00:32.651Z,cartservice,network_out,616541
2023-07-04T18:00:32.651Z,redis-cart,network_out,506545
2023-07-04T18:00:32.653Z,redis-cart,network_out,505712
2023-07-04T18:00:32.655Z,redis-cart,network_out,490979
2023-07-04T18:00:32.653Z,redis-cart,network_out,491978
2023-07-04T18:00:32.653Z,redis-cart,network_out,740957
2023-07-04T18:00:32.651Z,redis-cart,network_out,507628
2023-07-04T18:00:32.651Z,redis-cart,network_out,507467
2023-07-04T18:00:42.656Z,emailservice,network_out,32868
2023-07-04T18:00:42.651Z,shippingservice,network_out,141181
2023-07-04T18:00:42.651Z,redis-cart,network_out,507983
2023-07-04T18:00:42.653Z,redis-cart,network_out,507112
2023-07-04T18:00:42.656Z,redis-cart,network_out,506215
2023-07-04T18:00:42.656Z,redis-cart,network_out,506178
2023-07-04T18:00:42.651Z,cartservice,network_out,644685
2023-07-04T18:00:42.651Z,redis-cart,network_out,507681
2023-07-04T18:00:42.651Z,redis-cart,network_out,537044
2023-07-04T18:00:42.653Z,redis-cart,network_out,520982
2023-07-04T18:00:42.653Z,productcatalogservice,network_out,5993835
2023-07-04T18:00:42.656Z,redis-cart,network_out,535414
2023-07-04T18:00:42.656Z,redis-cart,network_out,534947
2023-07-04T18:00:42.653Z,redis-cart,network_out,521246
2023-07-04T18:00:42.653Z,redis-cart,network_out,764043
2023-07-04T18:00:42.653Z,redis-cart,network_out,543965
2023-07-04T18:00:42.653Z,checkoutservice,network_out,266084
2023-07-04T18:00:42.653Z,recommendationservice,network_out,726718
2023-07-04T18:00:42.656Z,redis-cart,network_out,520473
2023-07-04T18:00:42.656Z,adservice,network_out,235702
2023-07-04T18:00:42.651Z,paymentservice,network_out,31484
2023-07-04T18:00:42.651Z,currencyservice,network_out,1313343
2023-07-04T18:00:42.651Z,redis-cart,network_out,521822
2023-07-04T18:00:42.651Z,redis-cart,network_out,536005
2023-07-04T18:00:42.651Z,redis-cart,network_out,508307
2023-07-04T18:00:42.653Z,frontend,network_out,16554386
2023-07-04T18:00:52.651Z,shippingservice,network_out,141181
2023-07-04T18:00:52.651Z,redis-cart,network_out,507681
2023-07-04T18:00:52.651Z,redis-cart,network_out,507983
2023-07-04T18:00:52.656Z,redis-cart,network_out,520473
2023-07-04T18:00:52.656Z,adservice,network_out,235702
2023-07-04T18:00:52.653Z,redis-cart,network_out,543965
2023-07-04T18:00:52.653Z,redis-cart,network_out,789636
2023-07-04T18:00:52.651Z,cartservice,network_out,644685
2023-07-04T18:00:52.651Z,redis-cart,network_out,537044
2023-07-04T18:00:52.651Z,redis-cart,network_out,508307
2023-07-04T18:00:52.656Z,emailservice,network_out,32868
2023-07-04T18:00:52.653Z,redis-cart,network_out,520982
2023-07-04T18:00:52.653Z,redis-cart,network_out,507112
2023-07-04T18:00:52.653Z,checkoutservice,network_out,266084
2023-07-04T18:00:52.651Z,currencyservice,network_out,1313343
2023-07-04T18:00:52.651Z,redis-cart,network_out,521822
2023-07-04T18:00:52.651Z,redis-cart,network_out,536005
2023-07-04T18:00:52.656Z,redis-cart,network_out,506215
2023-07-04T18:00:52.656Z,redis-cart,network_out,506178
2023-07-04T18:00:52.653Z,redis-cart,network_out,536638
2023-07-04T18:00:52.651Z,paymentservice,network_out,31484
2023-07-04T18:00:52.656Z,redis-cart,network_out,535414
2023-07-04T18:00:52.656Z,redis-cart,network_out,534947
2023-07-04T18:00:52.653Z,frontend,network_out,16554386
2023-07-04T18:00:52.653Z,recommendationservice,network_out,754405
2023-07-04T18:00:52.653Z,productcatalogservice,network_out,6170567
2023-07-04T18:01:02.653Z,redis-cart,network_out,507112
2023-07-04T18:01:02.653Z,redis-cart,network_out,789636
2023-07-04T18:01:02.656Z,redis-cart,network_out,550123
2023-07-04T18:01:02.656Z,emailservice,network_out,33765
2023-07-04T18:01:02.656Z,redis-cart,network_out,521148
2023-07-04T18:01:02.650Z,redis-cart,network_out,550909
2023-07-04T18:01:02.650Z,paymentservice,network_out,32114
2023-07-04T18:01:02.650Z,cartservice,network_out,684193
2023-07-04T18:01:02.653Z,redis-cart,network_out,536638
2023-07-04T18:01:02.653Z,checkoutservice,network_out,266084
2023-07-04T18:01:02.656Z,redis-cart,network_out,535763
2023-07-04T18:01:02.650Z,redis-cart,network_out,536975
2023-07-04T18:01:02.650Z,redis-cart,network_out,537588
2023-07-04T18:01:02.650Z,shippingservice,network_out,144175
2023-07-04T18:01:02.653Z,frontend,network_out,16554386
2023-07-04T18:01:02.653Z,redis-cart,network_out,543965
2023-07-04T18:01:02.653Z,productcatalogservice,network_out,6170567
2023-07-04T18:01:02.656Z,redis-cart,network_out,565678
2023-07-04T18:01:02.656Z,adservice,network_out,246248
2023-07-04T18:01:02.653Z,redis-cart,network_out,520982
2023-07-04T18:01:02.653Z,recommendationservice,network_out,754405
2023-07-04T18:01:02.656Z,redis-cart,network_out,535335
2023-07-04T18:01:02.650Z,redis-cart,network_out,536743
2023-07-04T18:01:02.650Z,redis-cart,network_out,537884
2023-07-04T18:01:02.650Z,redis-cart,network_out,537867
2023-07-04T18:01:02.650Z,currencyservice,network_out,1349271
2023-07-04T18:01:12.650Z,redis-cart,network_out,536743
2023-07-04T18:01:12.653Z,recommendationservice,network_out,772530
2023-07-04T18:01:12.653Z,checkoutservice,network_out,272441
2023-07-04T18:01:12.653Z,redis-cart,network_out,811936
2023-07-04T18:01:12.650Z,redis-cart,network_out,550909
2023-07-04T18:01:12.653Z,frontend,network_out,17146815
2023-07-04T18:01:12.653Z,redis-cart,network_out,536126
2023-07-04T18:01:12.653Z,redis-cart,network_out,551416
2023-07-04T18:01:12.650Z,redis-cart,network_out,536975
2023-07-04T18:01:12.650Z,redis-cart,network_out,537884
2023-07-04T18:01:12.653Z,redis-cart,network_out,550264
2023-07-04T18:01:12.650Z,redis-cart,network_out,537588
2023-07-04T18:01:12.653Z,productcatalogservice,network_out,6311366
2023-07-04T18:01:12.653Z,redis-cart,network_out,559546
2023-07-04T18:01:12.656Z,redis-cart,network_out,535763
2023-07-04T18:01:12.650Z,shippingservice,network_out,144175
2023-07-04T18:01:12.650Z,redis-cart,network_out,537867
2023-07-04T18:01:12.656Z,redis-cart,network_out,550240
2023-07-04T18:01:12.650Z,paymentservice,network_out,32114
2023-07-04T18:01:12.656Z,adservice,network_out,256574
2023-07-04T18:01:12.650Z,cartservice,network_out,684193
2023-07-04T18:01:12.656Z,redis-cart,network_out,564894
2023-07-04T18:01:12.650Z,currencyservice,network_out,1349271
2023-07-04T18:01:12.656Z,redis-cart,network_out,565678
2023-07-04T18:01:12.656Z,redis-cart,network_out,536314
2023-07-04T18:01:12.656Z,emailservice,network_out,34327
2023-07-04T18:01:22.651Z,redis-cart,network_out,566728
2023-07-04T18:01:22.651Z,redis-cart,network_out,551699
2023-07-04T18:01:22.656Z,redis-cart,network_out,535763
2023-07-04T18:01:22.651Z,redis-cart,network_out,550909
2023-07-04T18:01:22.656Z,redis-cart,network_out,565678
2023-07-04T18:01:22.656Z,emailservice,network_out,34327
2023-07-04T18:01:22.653Z,recommendationservice,network_out,796289
2023-07-04T18:01:22.653Z,redis-cart,network_out,536686
2023-07-04T18:01:22.653Z,productcatalogservice,network_out,6622081
2023-07-04T18:01:22.651Z,cartservice,network_out,684193
2023-07-04T18:01:22.651Z,currencyservice,network_out,1387139
2023-07-04T18:01:22.656Z,redis-cart,network_out,550240
2023-07-04T18:01:22.656Z,adservice,network_out,256574
2023-07-04T18:01:22.651Z,paymentservice,network_out,33764
2023-07-04T18:01:22.656Z,redis-cart,network_out,564894
2023-07-04T18:01:22.656Z,redis-cart,network_out,536314
2023-07-04T18:01:22.651Z,shippingservice,network_out,149089
2023-07-04T18:01:22.653Z,checkoutservice,network_out,291646
2023-07-04T18:01:22.653Z,redis-cart,network_out,836212
2023-07-04T18:01:22.651Z,redis-cart,network_out,537867
2023-07-04T18:01:22.651Z,redis-cart,network_out,537815
2023-07-04T18:01:22.653Z,redis-cart,network_out,575128
2023-07-04T18:01:22.653Z,redis-cart,network_out,551104
2023-07-04T18:01:22.653Z,redis-cart,network_out,566743
2023-07-04T18:01:22.651Z,redis-cart,network_out,538148
2023-07-04T18:01:22.653Z,frontend,network_out,17957831
2023-07-04T18:01:32.656Z,redis-cart,network_out,595646
2023-07-04T18:01:32.656Z,redis-cart,network_out,550705
2023-07-04T18:01:32.656Z,redis-cart,network_out,580071
2023-07-04T18:01:32.651Z,shippingservice,network_out,153347
2023-07-04T18:01:32.651Z,paymentservice,network_out,35649
2023-07-04T18:01:32.654Z,recommendationservice,network_out,796289
2023-07-04T18:01:32.656Z,adservice,network_out,266566
2023-07-04T18:01:32.656Z,redis-cart,network_out,565103
2023-07-04T18:01:32.651Z,cartservice,network_out,708160
2023-07-04T18:01:32.651Z,redis-cart,network_out,581333
2023-07-04T18:01:32.651Z,redis-cart,network_out,567610
2023-07-04T18:01:32.654Z,redis-cart,network_out,580107
2023-07-04T18:01:32.654Z,redis-cart,network_out,590870
2023-07-04T18:01:32.654Z,checkoutservice,network_out,291646
2023-07-04T18:01:32.654Z,redis-cart,network_out,581658
2023-07-04T18:01:32.656Z,emailservice,network_out,35476
2023-07-04T18:01:32.656Z,redis-cart,network_out,565890
2023-07-04T18:01:32.651Z,redis-cart,network_out,580804
2023-07-04T18:01:32.651Z,redis-cart,network_out,567899
2023-07-04T18:01:32.651Z,redis-cart,network_out,567171
2023-07-04T18:01:32.651Z,currencyservice,network_out,1446643
2023-07-04T18:01:32.651Z,redis-cart,network_out,567146
2023-07-04T18:01:32.654Z,frontend,network_out,17957831
2023-07-04T18:01:32.654Z,redis-cart,network_out,565981
2023-07-04T18:01:32.654Z,productcatalogservice,network_out,6622081
2023-07-04T18:01:32.654Z,redis-cart,network_out,858089
2023-07-04T18:01:42.651Z,shippingservice,network_out,153347
2023-07-04T18:01:42.651Z,redis-cart,network_out,567146
2023-07-04T18:01:42.653Z,recommendationservice,network_out,796289
2023-07-04T18:01:42.651Z,redis-cart,network_out,567899
2023-07-04T18:01:42.653Z,frontend,network_out,17957831
2023-07-04T18:01:42.653Z,redis-cart,network_out,590870
2023-07-04T18:01:42.653Z,productcatalogservice,network_out,6622081
2023-07-04T18:01:42.653Z,checkoutservice,network_out,291646
2023-07-04T18:01:42.656Z,redis-cart,network_out,595646
2023-07-04T18:01:42.653Z,redis-cart,network_out,581658
2023-07-04T18:01:42.651Z,cartservice,network_out,708160
2023-07-04T18:01:42.656Z,redis-cart,network_out,565661
2023-07-04T18:01:42.656Z,redis-cart,network_out,594773
2023-07-04T18:01:42.656Z,redis-cart,network_out,580497
2023-07-04T18:01:42.656Z,emailservice,network_out,36439
2023-07-04T18:01:42.653Z,redis-cart,network_out,858089
2023-07-04T18:01:42.651Z,redis-cart,network_out,580804
2023-07-04T18:01:42.651Z,redis-cart,network_out,581333
2023-07-04T18:01:42.651Z,redis-cart,network_out,567171
2023-07-04T18:01:42.651Z,paymentservice,network_out,35649
2023-07-04T18:01:42.651Z,currencyservice,network_out,1446643
2023-07-04T18:01:42.651Z,redis-cart,network_out,567610
2023-07-04T18:01:42.653Z,redis-cart,network_out,565981
2023-07-04T18:01:42.653Z,redis-cart,network_out,580107
2023-07-04T18:01:42.656Z,adservice,network_out,266566
2023-07-04T18:01:42.656Z,redis-cart,network_out,579696
2023-07-04T18:01:52.650Z,redis-cart,network_out,567731
2023-07-04T18:01:52.650Z,redis-cart,network_out,595795
2023-07-04T18:01:52.655Z,adservice,network_out,266566
2023-07-04T18:01:52.655Z,redis-cart,network_out,580497
2023-07-04T18:01:52.655Z,redis-cart,network_out,579696
2023-07-04T18:01:52.653Z,recommendationservice,network_out,849877
2023-07-04T18:01:52.650Z,redis-cart,network_out,581333
2023-07-04T18:01:52.650Z,redis-cart,network_out,567899
2023-07-04T18:01:52.653Z,productcatalogservice,network_out,6869050
2023-07-04T18:01:52.650Z,redis-cart,network_out,567790
2023-07-04T18:01:52.650Z,shippingservice,network_out,153347
2023-07-04T18:01:52.650Z,redis-cart,network_out,597030
2023-07-04T18:01:52.650Z,cartservice,network_out,725033
2023-07-04T18:01:52.653Z,redis-cart,network_out,596573
2023-07-04T18:01:52.653Z,frontend,network_out,19092192
2023-07-04T18:01:52.653Z,redis-cart,network_out,581189
2023-07-04T18:01:52.653Z,redis-cart,network_out,881820
2023-07-04T18:01:52.653Z,redis-cart,network_out,580947
2023-07-04T18:01:52.650Z,currencyservice,network_out,1480999
2023-07-04T18:01:52.650Z,paymentservice,network_out,36072
2023-07-04T18:01:52.655Z,redis-cart,network_out,565661
2023-07-04T18:01:52.655Z,redis-cart,network_out,594773
2023-07-04T18:01:52.655Z,redis-cart,network_out,595646
2023-07-04T18:01:52.655Z,emailservice,network_out,36439
2023-07-04T18:01:52.653Z,checkoutservice,network_out,293117
2023-07-04T18:01:52.653Z,redis-cart,network_out,606759
2023-07-04T18:02:02.656Z,adservice,network_out,284110
2023-07-04T18:02:02.651Z,paymentservice,network_out,37614
2023-07-04T18:02:02.656Z,redis-cart,network_out,594845
2023-07-04T18:02:02.653Z,frontend,network_out,19092192
2023-07-04T18:02:02.653Z,redis-cart,network_out,595589
2023-07-04T18:02:02.656Z,redis-cart,network_out,625462
2023-07-04T18:02:02.651Z,cartservice,network_out,749195
2023-07-04T18:02:02.651Z,redis-cart,network_out,597673
2023-07-04T18:02:02.651Z,shippingservice,network_out,161155
2023-07-04T18:02:02.651Z,redis-cart,network_out,625049
2023-07-04T18:02:02.651Z,redis-cart,network_out,597885
2023-07-04T18:02:02.656Z,redis-cart,network_out,609952
2023-07-04T18:02:02.656Z,emailservice,network_out,38221
2023-07-04T18:02:02.651Z,redis-cart,network_out,611165
2023-07-04T18:02:02.651Z,redis-cart,network_out,596766
2023-07-04T18:02:02.656Z,redis-cart,network_out,595468
2023-07-04T18:02:02.653Z,redis-cart,network_out,596117
2023-07-04T18:02:02.653Z,redis-cart,network_out,905712
2023-07-04T18:02:02.651Z,currencyservice,network_out,1535630
2023-07-04T18:02:02.651Z,redis-cart,network_out,597870
2023-07-04T18:02:02.656Z,redis-cart,network_out,594891
2023-07-04T18:02:02.653Z,productcatalogservice,network_out,7143482
2023-07-04T18:02:02.653Z,redis-cart,network_out,611209
2023-07-04T18:02:02.653Z,recommendationservice,network_out,849877
2023-07-04T18:02:02.653Z,checkoutservice,network_out,309364
2023-07-04T18:02:02.653Z,redis-cart,network_out,622089
2023-07-04T18:02:12.653Z,recommendationservice,network_out,849877
2023-07-04T18:02:12.653Z,checkoutservice,network_out,309364
2023-07-04T18:02:12.656Z,redis-cart,network_out,625462
2023-07-04T18:02:12.656Z,adservice,network_out,291477
2023-07-04T18:02:12.656Z,redis-cart,network_out,624655
2023-07-04T18:02:12.651Z,redis-cart,network_out,625049
2023-07-04T18:02:12.653Z,redis-cart,network_out,596117
2023-07-04T18:02:12.653Z,redis-cart,network_out,905712
2023-07-04T18:02:12.653Z,redis-cart,network_out,622089
2023-07-04T18:02:12.656Z,emailservice,network_out,38915
2023-07-04T18:02:12.651Z,redis-cart,network_out,611165
2023-07-04T18:02:12.651Z,currencyservice,network_out,1567865
2023-07-04T18:02:12.651Z,paymentservice,network_out,37614
2023-07-04T18:02:12.653Z,productcatalogservice,network_out,7143482
2023-07-04T18:02:12.653Z,redis-cart,network_out,611209
2023-07-04T18:02:12.656Z,redis-cart,network_out,596028
2023-07-04T18:02:12.656Z,redis-cart,network_out,594891
2023-07-04T18:02:12.651Z,redis-cart,network_out,597673
2023-07-04T18:02:12.651Z,redis-cart,network_out,597885
2023-07-04T18:02:12.653Z,frontend,network_out,19092192
2023-07-04T18:02:12.653Z,redis-cart,network_out,595589
2023-07-04T18:02:12.656Z,redis-cart,network_out,595769
2023-07-04T18:02:12.651Z,shippingservice,network_out,165430
2023-07-04T18:02:12.651Z,redis-cart,network_out,597606
2023-07-04T18:02:12.651Z,cartservice,network_out,771861
2023-07-04T18:02:12.651Z,redis-cart,network_out,626970
2023-07-04T18:02:22.651Z,cartservice,network_out,771861
2023-07-04T18:02:22.653Z,redis-cart,network_out,625416
2023-07-04T18:02:22.653Z,frontend,network_out,19533458
2023-07-04T18:02:22.651Z,currencyservice,network_out,1567865
2023-07-04T18:02:22.655Z,redis-cart,network_out,639555
2023-07-04T18:02:22.651Z,redis-cart,network_out,597885
2023-07-04T18:02:22.655Z,redis-cart,network_out,624692
2023-07-04T18:02:22.655Z,redis-cart,network_out,626506
2023-07-04T18:02:22.653Z,productcatalogservice,network_out,7273864
2023-07-04T18:02:22.651Z,redis-cart,network_out,625049
2023-07-04T18:02:22.651Z,redis-cart,network_out,597673
2023-07-04T18:02:22.655Z,emailservice,network_out,39878
2023-07-04T18:02:22.651Z,redis-cart,network_out,626970
2023-07-04T18:02:22.655Z,redis-cart,network_out,596028
2023-07-04T18:02:22.655Z,adservice,network_out,291477
2023-07-04T18:02:22.651Z,paymentservice,network_out,37614
2023-07-04T18:02:22.655Z,redis-cart,network_out,609818
2023-07-04T18:02:22.653Z,redis-cart,network_out,637700
2023-07-04T18:02:22.653Z,redis-cart,network_out,626406
2023-07-04T18:02:22.653Z,redis-cart,network_out,928494
2023-07-04T18:02:22.653Z,checkoutservice,network_out,321185
2023-07-04T18:02:22.651Z,shippingservice,network_out,165430
2023-07-04T18:02:22.651Z,redis-cart,network_out,597606
2023-07-04T18:02:22.651Z,redis-cart,network_out,611165
2023-07-04T18:02:22.653Z,redis-cart,network_out,624885
2023-07-04T18:02:22.653Z,recommendationservice,network_out,876768
2023-07-04T18:02:32.656Z,emailservice,network_out,39878
2023-07-04T18:02:32.656Z,redis-cart,network_out,624692
2023-07-04T18:02:32.651Z,redis-cart,network_out,641081
2023-07-04T18:02:32.653Z,redis-cart,network_out,952958
2023-07-04T18:02:32.653Z,redis-cart,network_out,641323
2023-07-04T18:02:32.656Z,redis-cart,network_out,624703
2023-07-04T18:02:32.651Z,shippingservice,network_out,169134
2023-07-04T18:02:32.651Z,redis-cart,network_out,627505
2023-07-04T18:02:32.651Z,redis-cart,network_out,627600
2023-07-04T18:02:32.653Z,redis-cart,network_out,626256
2023-07-04T18:02:32.653Z,checkoutservice,network_out,334625
2023-07-04T18:02:32.656Z,adservice,network_out,299873
2023-07-04T18:02:32.651Z,paymentservice,network_out,38286
2023-07-04T18:02:32.651Z,cartservice,network_out,783258
2023-07-04T18:02:32.653Z,frontend,network_out,20083964
2023-07-04T18:02:32.653Z,redis-cart,network_out,653684
2023-07-04T18:02:32.653Z,recommendationservice,network_out,896378
2023-07-04T18:02:32.653Z,redis-cart,network_out,624885
2023-07-04T18:02:32.653Z,productcatalogservice,network_out,7506477
2023-07-04T18:02:32.656Z,redis-cart,network_out,639555
2023-07-04T18:02:32.656Z,redis-cart,network_out,625327
2023-07-04T18:02:32.656Z,redis-cart,network_out,655570
2023-07-04T18:02:32.651Z,redis-cart,network_out,626687
2023-07-04T18:02:32.651Z,redis-cart,network_out,627810
2023-07-04T18:02:32.651Z,redis-cart,network_out,654933
2023-07-04T18:02:32.651Z,currencyservice,network_out,1609925
2023-07-04T18:02:42.653Z,redis-cart,network_out,952958
2023-07-04T18:02:42.653Z,redis-cart,network_out,653684
2023-07-04T18:02:42.655Z,emailservice,network_out,39878
2023-07-04T18:02:42.650Z,redis-cart,network_out,626687
2023-07-04T18:02:42.653Z,checkoutservice,network_out,334625
2023-07-04T18:02:42.650Z,shippingservice,network_out,169134
2023-07-04T18:02:42.653Z,redis-cart,network_out,626256
2023-07-04T18:02:42.653Z,frontend,network_out,20083964
2023-07-04T18:02:42.655Z,redis-cart,network_out,639555
2023-07-04T18:02:42.655Z,redis-cart,network_out,625327
2023-07-04T18:02:42.655Z,redis-cart,network_out,655570
2023-07-04T18:02:42.653Z,recommendationservice,network_out,896378
2023-07-04T18:02:42.655Z,redis-cart,network_out,624692
2023-07-04T18:02:42.653Z,redis-cart,network_out,641323
2023-07-04T18:02:42.653Z,productcatalogservice,network_out,7506477
2023-07-04T18:02:42.650Z,redis-cart,network_out,627810
2023-07-04T18:02:42.650Z,redis-cart,network_out,654933
2023-07-04T18:02:42.650Z,redis-cart,network_out,627505
2023-07-04T18:02:42.650Z,redis-cart,network_out,641081
2023-07-04T18:02:42.650Z,currencyservice,network_out,1609925
2023-07-04T18:02:42.650Z,redis-cart,network_out,627600
2023-07-04T18:02:42.650Z,paymentservice,network_out,38286
2023-07-04T18:02:42.650Z,cartservice,network_out,783258
2023-07-04T18:02:42.655Z,adservice,network_out,299873
2023-07-04T18:02:42.655Z,redis-cart,network_out,624703
2023-07-04T18:02:42.653Z,redis-cart,network_out,624885
2023-07-04T18:02:52.657Z,redis-cart,network_out,625887
2023-07-04T18:02:52.657Z,redis-cart,network_out,669442
2023-07-04T18:02:52.651Z,shippingservice,network_out,173649
2023-07-04T18:02:52.657Z,redis-cart,network_out,640219
2023-07-04T18:02:52.657Z,emailservice,network_out,41858
2023-07-04T18:02:52.653Z,redis-cart,network_out,656520
2023-07-04T18:02:52.651Z,redis-cart,network_out,627505
2023-07-04T18:02:52.651Z,redis-cart,network_out,627810
2023-07-04T18:02:52.651Z,paymentservice,network_out,39708
2023-07-04T18:02:52.651Z,redis-cart,network_out,641641
2023-07-04T18:02:52.657Z,adservice,network_out,313988
2023-07-04T18:02:52.653Z,recommendationservice,network_out,922572
2023-07-04T18:02:52.653Z,productcatalogservice,network_out,7672209
2023-07-04T18:02:52.653Z,frontend,network_out,20872830
2023-07-04T18:02:52.651Z,redis-cart,network_out,627247
2023-07-04T18:02:52.651Z,currencyservice,network_out,1631579
2023-07-04T18:02:52.651Z,redis-cart,network_out,627600
2023-07-04T18:02:52.651Z,cartservice,network_out,802633
2023-07-04T18:02:52.651Z,redis-cart,network_out,654933
2023-07-04T18:02:52.657Z,redis-cart,network_out,656196
2023-07-04T18:02:52.657Z,redis-cart,network_out,639631
2023-07-04T18:02:52.653Z,redis-cart,network_out,655031
2023-07-04T18:02:52.653Z,redis-cart,network_out,974190
2023-07-04T18:02:52.653Z,checkoutservice,network_out,343590
2023-07-04T18:02:52.653Z,redis-cart,network_out,669018
2023-07-04T18:02:52.653Z,redis-cart,network_out,655276
2023-07-04T18:03:02.656Z,adservice,network_out,313988
2023-07-04T18:03:02.656Z,redis-cart,network_out,685206
2023-07-04T18:03:02.650Z,currencyservice,network_out,1676519
2023-07-04T18:03:02.650Z,redis-cart,network_out,656567
2023-07-04T18:03:02.654Z,redis-cart,network_out,684914
2023-07-04T18:03:02.654Z,redis-cart,network_out,997446
2023-07-04T18:03:02.654Z,productcatalogservice,network_out,7672209
2023-07-04T18:03:02.650Z,redis-cart,network_out,657641
2023-07-04T18:03:02.650Z,redis-cart,network_out,657529
2023-07-04T18:03:02.650Z,paymentservice,network_out,40131
2023-07-04T18:03:02.656Z,emailservice,network_out,41858
2023-07-04T18:03:02.656Z,redis-cart,network_out,669442
2023-07-04T18:03:02.654Z,redis-cart,network_out,656116
2023-07-04T18:03:02.654Z,recommendationservice,network_out,943508
2023-07-04T18:03:02.654Z,checkoutservice,network_out,343590
2023-07-04T18:03:02.656Z,redis-cart,network_out,640219
2023-07-04T18:03:02.650Z,redis-cart,network_out,670642
2023-07-04T18:03:02.650Z,cartservice,network_out,824286
2023-07-04T18:03:02.650Z,shippingservice,network_out,175900
2023-07-04T18:03:02.650Z,redis-cart,network_out,657792
2023-07-04T18:03:02.656Z,redis-cart,network_out,654517
2023-07-04T18:03:02.656Z,redis-cart,network_out,654909
2023-07-04T18:03:02.650Z,redis-cart,network_out,684876
2023-07-04T18:03:02.654Z,redis-cart,network_out,656520
2023-07-04T18:03:02.654Z,frontend,network_out,21235181
2023-07-04T18:03:02.654Z,redis-cart,network_out,655031
