timestamp,key,run_id,resource,metric,value
2022-05-26T10:32:15.920Z,SHARED_SIDECAR_MULTI_PROBE-1-1-1,1,monitoring-unit-1,network_out,14.748302459716797
2022-05-26T10:44:09.406Z,SHARED_SIDECAR_MULTI_PROBE-1-1-1,2,monitoring-unit-1,network_out,0.6827077865600586
2022-05-26T10:55:54.907Z,SHARED_SIDECAR_MULTI_PROBE-1-1-1,3,monitoring-unit-1,network_out,0.6732177734375
2021-06-08T00:18:20.642Z,SHARED_SIDECAR_MULTI_PROBE-1-16-1,1,monitoring-unit-1,network_out,1.9503116607666016
2021-06-08T00:18:22.400Z,SHARED_SIDECAR_MULTI_PROBE-1-16-1,1,monitoring-unit-10,network_out,1.9690399169921875
2021-06-08T00:18:23.410Z,SHARED_SIDECAR_MULTI_PROBE-1-16-1,1,monitoring-unit-11,network_out,1.959904670715332
2021-06-08T00:18:23.317Z,SHARED_SIDECAR_MULTI_PROBE-1-16-1,1,monitoring-unit-12,network_out,1.972559928894043
2021-06-08T00:18:23.199Z,SHARED_SIDECAR_MULTI_PROBE-1-16-1,1,monitoring-unit-13,network_out,1.942117691040039
2021-06-08T00:18:23.558Z,SHARED_SIDECAR_MULTI_PROBE-1-16-1,1,monitoring-unit-14,network_out,1.9793224334716797
2021-06-08T00:18:23.543Z,SHARED_SIDECAR_MULTI_PROBE-1-16-1,1,monitoring-unit-15,network_out,1.9609184265136719
2021-06-08T00:18:24.594Z,SHARED_SIDECAR_MULTI_PROBE-1-16-1,1,monitoring-unit-16,network_out,1.9615812301635742
2021-06-08T00:18:20.657Z,SHARED_SIDECAR_MULTI_PROBE-1-16-1,1,monitoring-unit-2,network_out,1.9684677124023438
2021-06-08T00:18:21.222Z,SHARED_SIDECAR_MULTI_PROBE-1-16-1,1,monitoring-unit-3,network_out,1.995102882385254
2021-06-08T00:18:20.894Z,SHARED_SIDECAR_MULTI_PROBE-1-16-1,1,monitoring-unit-4,network_out,1.989431381225586
2021-06-08T00:18:20.844Z,SHARED_SIDECAR_MULTI_PROBE-1-16-1,1,monitoring-unit-5,network_out,1.9543256759643555
2021-06-08T00:18:21.995Z,SHARED_SIDECAR_MULTI_PROBE-1-16-1,1,monitoring-unit-6,network_out,1.9907894134521484
2021-06-08T00:18:21.875Z,SHARED_SIDECAR_MULTI_PROBE-1-16-1,1,monitoring-unit-7,network_out,1.994908332824707
2021-06-08T00:18:21.957Z,SHARED_SIDECAR_MULTI_PROBE-1-16-1,1,monitoring-unit-8,network_out,1.9769678115844727
2021-06-08T00:18:22.325Z,SHARED_SIDECAR_MULTI_PROBE-1-16-1,1,monitoring-unit-9,network_out,2.033946990966797
2021-06-08T00:35:29.234Z,SHARED_SIDECAR_MULTI_PROBE-1-16-1,2,monitoring-unit-1,network_out,1.9401960372924805
2021-06-08T00:35:30.805Z,SHARED_SIDECAR_MULTI_PROBE-1-16-1,2,monitoring-unit-10,network_out,1.974167823791504
2021-06-08T00:35:31.702Z,SHARED_SIDECAR_MULTI_PROBE-1-16-1,2,monitoring-unit-11,network_out,1.9578638076782227
2021-06-08T00:35:31.567Z,SHARED_SIDECAR_MULTI_PROBE-1-16-1,2,monitoring-unit-12,network_out,1.9556703567504883
2021-06-08T00:35:31.969Z,SHARED_SIDECAR_MULTI_PROBE-1-16-1,2,monitoring-unit-13,network_out,1.9631013870239258
2021-06-08T00:35:32.092Z,SHARED_SIDECAR_MULTI_PROBE-1-16-1,2,monitoring-unit-14,network_out,1.974557876586914
2021-06-08T00:35:32.102Z,SHARED_SIDECAR_MULTI_PROBE-1-16-1,2,monitoring-unit-15,network_out,1.9520015716552734
2021-06-08T00:35:32.799Z,SHARED_SIDECAR_MULTI_PROBE-1-16-1,2,monitoring-unit-16,network_out,1.9549598693847656
2021-06-08T00:35:29.296Z,SHARED_SIDECAR_MULTI_PROBE-1-16-1,2,monitoring-unit-2,network_out,1.9523868560791016
2021-06-08T00:35:29.594Z,SHARED_SIDECAR_MULTI_PROBE-1-16-1,2,monitoring-unit-3,network_out,1.9832372665405273
2021-06-08T00:35:29.462Z,SHARED_SIDECAR_MULTI_PROBE-1-16-1,2,monitoring-unit-4,network_out,1.9824228286743164
2021-06-08T00:35:29.467Z,SHARED_SIDECAR_MULTI_PROBE-1-16-1,2,monitoring-unit-5,network_out,1.964186668395996
2021-06-08T00:35:30.400Z,SHARED_SIDECAR_MULTI_PROBE-1-16-1,2,monitoring-unit-6,network_out,2.0013036727905273
2021-06-08T00:35:30.477Z,SHARED_SIDECAR_MULTI_PROBE-1-16-1,2,monitoring-unit-7,network_out,2.0174827575683594
2021-06-08T00:35:30.699Z,SHARED_SIDECAR_MULTI_PROBE-1-16-1,2,monitoring-unit-8,network_out,1.9818639755249023
2021-06-08T00:35:30.910Z,SHARED_SIDECAR_MULTI_PROBE-1-16-1,2,monitoring-unit-9,network_out,1.9675331115722656
2021-06-08T00:52:33.624Z,SHARED_SIDECAR_MULTI_PROBE-1-16-1,3,monitoring-unit-1,network_out,1.9500837326049805
2021-06-08T00:52:35.156Z,SHARED_SIDECAR_MULTI_PROBE-1-16-1,3,monitoring-unit-10,network_out,1.9324150085449219
2021-06-08T00:52:35.939Z,SHARED_SIDECAR_MULTI_PROBE-1-16-1,3,monitoring-unit-11,network_out,1.9370841979980469
2021-06-08T00:52:36.091Z,SHARED_SIDECAR_MULTI_PROBE-1-16-1,3,monitoring-unit-12,network_out,1.9367599487304688
2021-06-08T00:52:36.368Z,SHARED_SIDECAR_MULTI_PROBE-1-16-1,3,monitoring-unit-13,network_out,1.9419641494750977
2021-06-08T00:52:36.458Z,SHARED_SIDECAR_MULTI_PROBE-1-16-1,3,monitoring-unit-14,network_out,1.9747333526611328
2021-06-08T00:52:36.439Z,SHARED_SIDECAR_MULTI_PROBE-1-16-1,3,monitoring-unit-15,network_out,1.9523887634277344
2021-06-08T00:52:37.311Z,SHARED_SIDECAR_MULTI_PROBE-1-16-1,3,monitoring-unit-16,network_out,1.9518089294433594
2021-06-08T00:52:33.737Z,SHARED_SIDECAR_MULTI_PROBE-1-16-1,3,monitoring-unit-2,network_out,2.0048274993896484
2021-06-08T00:52:33.873Z,SHARED_SIDECAR_MULTI_PROBE-1-16-1,3,monitoring-unit-3,network_out,1.9831838607788086
2021-06-08T00:52:33.964Z,SHARED_SIDECAR_MULTI_PROBE-1-16-1,3,monitoring-unit-4,network_out,1.971329689025879
2021-06-08T00:52:33.884Z,SHARED_SIDECAR_MULTI_PROBE-1-16-1,3,monitoring-unit-5,network_out,1.961862564086914
2021-06-08T00:52:34.752Z,SHARED_SIDECAR_MULTI_PROBE-1-16-1,3,monitoring-unit-6,network_out,1.9779987335205078
2021-06-08T00:52:35.281Z,SHARED_SIDECAR_MULTI_PROBE-1-16-1,3,monitoring-unit-7,network_out,1.9715385437011719
2021-06-08T00:52:35.162Z,SHARED_SIDECAR_MULTI_PROBE-1-16-1,3,monitoring-unit-8,network_out,1.9945001602172852
2021-06-08T00:52:35.032Z,SHARED_SIDECAR_MULTI_PROBE-1-16-1,3,monitoring-unit-9,network_out,1.972468376159668
2021-06-07T22:20:10.766Z,SHARED_SIDECAR_MULTI_PROBE-1-2-1,1,monitoring-unit-1,network_out,1.1190671920776367
2021-06-07T22:20:10.677Z,SHARED_SIDECAR_MULTI_PROBE-1-2-1,1,monitoring-unit-2,network_out,1.133535385131836
2021-06-07T22:32:00.241Z,SHARED_SIDECAR_MULTI_PROBE-1-2-1,2,monitoring-unit-1,network_out,1.1329765319824219
2021-06-07T22:31:59.767Z,SHARED_SIDECAR_MULTI_PROBE-1-2-1,2,monitoring-unit-2,network_out,1.1339311599731445
2021-06-07T22:43:48.817Z,SHARED_SIDECAR_MULTI_PROBE-1-2-1,3,monitoring-unit-1,network_out,1.135451316833496
2021-06-07T22:43:48.248Z,SHARED_SIDECAR_MULTI_PROBE-1-2-1,3,monitoring-unit-2,network_out,1.1351184844970703
2021-06-07T22:55:58.306Z,SHARED_SIDECAR_MULTI_PROBE-1-4-1,1,monitoring-unit-1,network_out,1.2373294830322266
2021-06-07T22:55:58.062Z,SHARED_SIDECAR_MULTI_PROBE-1-4-1,1,monitoring-unit-2,network_out,1.2597742080688477
2021-06-07T22:55:58.790Z,SHARED_SIDECAR_MULTI_PROBE-1-4-1,1,monitoring-unit-3,network_out,1.3148870468139648
2021-06-07T22:55:49.036Z,SHARED_SIDECAR_MULTI_PROBE-1-4-1,1,monitoring-unit-4,network_out,1.3180913925170898
2021-06-07T23:08:08.729Z,SHARED_SIDECAR_MULTI_PROBE-1-4-1,2,monitoring-unit-1,network_out,1.3014116287231445
2021-06-07T23:08:08.652Z,SHARED_SIDECAR_MULTI_PROBE-1-4-1,2,monitoring-unit-2,network_out,1.280670166015625
2021-06-07T23:08:08.744Z,SHARED_SIDECAR_MULTI_PROBE-1-4-1,2,monitoring-unit-3,network_out,1.268829345703125
2021-06-07T23:08:08.976Z,SHARED_SIDECAR_MULTI_PROBE-1-4-1,2,monitoring-unit-4,network_out,1.289891242980957
2021-06-07T23:20:18.465Z,SHARED_SIDECAR_MULTI_PROBE-1-4-1,3,monitoring-unit-1,network_out,1.2932777404785156
2021-06-07T23:20:18.267Z,SHARED_SIDECAR_MULTI_PROBE-1-4-1,3,monitoring-unit-2,network_out,1.2572917938232422
2021-06-07T23:20:18.472Z,SHARED_SIDECAR_MULTI_PROBE-1-4-1,3,monitoring-unit-3,network_out,1.2687015533447266
2021-06-07T23:20:18.512Z,SHARED_SIDECAR_MULTI_PROBE-1-4-1,3,monitoring-unit-4,network_out,1.266326904296875
2021-06-07T23:33:58.512Z,SHARED_SIDECAR_MULTI_PROBE-1-8-1,1,monitoring-unit-1,network_out,1.5341815948486328
2021-06-07T23:33:58.339Z,SHARED_SIDECAR_MULTI_PROBE-1-8-1,1,monitoring-unit-2,network_out,1.4982213973999023
2021-06-07T23:33:58.676Z,SHARED_SIDECAR_MULTI_PROBE-1-8-1,1,monitoring-unit-3,network_out,1.5041847229003906
2021-06-07T23:33:58.654Z,SHARED_SIDECAR_MULTI_PROBE-1-8-1,1,monitoring-unit-4,network_out,1.5396699905395508
2021-06-07T23:33:59.186Z,SHARED_SIDECAR_MULTI_PROBE-1-8-1,1,monitoring-unit-5,network_out,1.5087337493896484
2021-06-07T23:33:59.958Z,SHARED_SIDECAR_MULTI_PROBE-1-8-1,1,monitoring-unit-6,network_out,1.537123680114746
2021-06-07T23:34:00.218Z,SHARED_SIDECAR_MULTI_PROBE-1-8-1,1,monitoring-unit-7,network_out,1.5178260803222656
2021-06-07T23:34:00.124Z,SHARED_SIDECAR_MULTI_PROBE-1-8-1,1,monitoring-unit-8,network_out,1.5333051681518555
2021-06-07T23:47:47.093Z,SHARED_SIDECAR_MULTI_PROBE-1-8-1,2,monitoring-unit-1,network_out,1.522353172302246
2021-06-07T23:47:47.133Z,SHARED_SIDECAR_MULTI_PROBE-1-8-1,2,monitoring-unit-2,network_out,1.4893407821655273
2021-06-07T23:47:47.295Z,SHARED_SIDECAR_MULTI_PROBE-1-8-1,2,monitoring-unit-3,network_out,1.8658485412597656
2021-06-07T23:47:47.421Z,SHARED_SIDECAR_MULTI_PROBE-1-8-1,2,monitoring-unit-4,network_out,1.5519514083862305
2021-06-07T23:47:47.370Z,SHARED_SIDECAR_MULTI_PROBE-1-8-1,2,monitoring-unit-5,network_out,1.846165657043457
2021-06-07T23:47:48.263Z,SHARED_SIDECAR_MULTI_PROBE-1-8-1,2,monitoring-unit-6,network_out,1.5379066467285156
2021-06-07T23:47:48.464Z,SHARED_SIDECAR_MULTI_PROBE-1-8-1,2,monitoring-unit-7,network_out,1.5441961288452148
2021-06-07T23:47:48.482Z,SHARED_SIDECAR_MULTI_PROBE-1-8-1,2,monitoring-unit-8,network_out,1.5794620513916016
2021-06-08T00:01:35.077Z,SHARED_SIDECAR_MULTI_PROBE-1-8-1,3,monitoring-unit-1,network_out,1.502614974975586
2021-06-08T00:01:35.128Z,SHARED_SIDECAR_MULTI_PROBE-1-8-1,3,monitoring-unit-2,network_out,1.489069938659668
2021-06-08T00:01:35.294Z,SHARED_SIDECAR_MULTI_PROBE-1-8-1,3,monitoring-unit-3,network_out,1.637476921081543
2021-06-08T00:01:35.236Z,SHARED_SIDECAR_MULTI_PROBE-1-8-1,3,monitoring-unit-4,network_out,1.5736780166625977
2021-06-08T00:01:35.297Z,SHARED_SIDECAR_MULTI_PROBE-1-8-1,3,monitoring-unit-5,network_out,1.6053533554077148
2021-06-08T00:01:36.177Z,SHARED_SIDECAR_MULTI_PROBE-1-8-1,3,monitoring-unit-6,network_out,1.5527315139770508
2021-06-08T00:01:36.357Z,SHARED_SIDECAR_MULTI_PROBE-1-8-1,3,monitoring-unit-7,network_out,1.5548324584960938
2021-06-08T00:01:36.675Z,SHARED_SIDECAR_MULTI_PROBE-1-8-1,3,monitoring-unit-8,network_out,1.5765905380249023
