timestamp,key,run_id,resource,metric,value
2022-03-31T11:43:57.983Z,FULLY_SHARED_SIDECAR_1-2-1-1,1,monitoring-unit-1,network_out,0.06489944458007812
2022-03-31T11:54:09.301Z,FULLY_SHARED_SIDECAR_1-2-1-1,2,monitoring-unit-1,network_out,0.06737327575683594
2022-03-31T12:04:21.442Z,FULLY_SHARED_SIDECAR_1-2-1-1,3,monitoring-unit-1,network_out,0.06730365753173828
2022-03-31T17:57:21.499Z,FULLY_SHARED_SIDECAR_1-2-16-1,1,monitoring-unit-1,network_out,0.3335714340209961
2022-03-31T17:57:21.471Z,FULLY_SHARED_SIDECAR_1-2-16-1,1,monitoring-unit-10,network_out,0.3541231155395508
2022-03-31T17:57:21.499Z,FULLY_SHARED_SIDECAR_1-2-16-1,1,monitoring-unit-11,network_out,0.3610668182373047
2022-03-31T17:57:21.471Z,FULLY_SHARED_SIDECAR_1-2-16-1,1,monitoring-unit-12,network_out,0.35509490966796875
2022-03-31T17:57:21.499Z,FULLY_SHARED_SIDECAR_1-2-16-1,1,monitoring-unit-13,network_out,0.32200145721435547
2022-03-31T17:57:21.499Z,FULLY_SHARED_SIDECAR_1-2-16-1,1,monitoring-unit-14,network_out,0.35674285888671875
2022-03-31T17:57:21.471Z,FULLY_SHARED_SIDECAR_1-2-16-1,1,monitoring-unit-15,network_out,0.35849761962890625
2022-03-31T17:57:21.499Z,FULLY_SHARED_SIDECAR_1-2-16-1,1,monitoring-unit-16,network_out,0.32248973846435547
2022-03-31T17:57:21.499Z,FULLY_SHARED_SIDECAR_1-2-16-1,1,monitoring-unit-2,network_out,0.3358469009399414
2022-03-31T17:57:21.471Z,FULLY_SHARED_SIDECAR_1-2-16-1,1,monitoring-unit-3,network_out,0.36015796661376953
2022-03-31T17:57:21.499Z,FULLY_SHARED_SIDECAR_1-2-16-1,1,monitoring-unit-4,network_out,0.34957218170166016
2022-03-31T17:57:21.499Z,FULLY_SHARED_SIDECAR_1-2-16-1,1,monitoring-unit-5,network_out,0.36550235748291016
2022-03-31T17:57:21.499Z,FULLY_SHARED_SIDECAR_1-2-16-1,1,monitoring-unit-6,network_out,0.3546791076660156
2022-03-31T17:57:21.471Z,FULLY_SHARED_SIDECAR_1-2-16-1,1,monitoring-unit-7,network_out,0.35434436798095703
2022-03-31T17:57:21.499Z,FULLY_SHARED_SIDECAR_1-2-16-1,1,monitoring-unit-8,network_out,0.3281841278076172
2022-03-31T17:57:21.499Z,FULLY_SHARED_SIDECAR_1-2-16-1,1,monitoring-unit-9,network_out,0.3585071563720703
2022-03-31T18:08:08.713Z,FULLY_SHARED_SIDECAR_1-2-16-1,2,monitoring-unit-1,network_out,0.33350467681884766
2022-03-31T18:08:08.763Z,FULLY_SHARED_SIDECAR_1-2-16-1,2,monitoring-unit-10,network_out,0.3601045608520508
2022-03-31T18:08:08.713Z,FULLY_SHARED_SIDECAR_1-2-16-1,2,monitoring-unit-11,network_out,0.36128997802734375
2022-03-31T18:08:08.809Z,FULLY_SHARED_SIDECAR_1-2-16-1,2,monitoring-unit-12,network_out,0.34677600860595703
2022-03-31T18:08:08.763Z,FULLY_SHARED_SIDECAR_1-2-16-1,2,monitoring-unit-13,network_out,0.3550682067871094
2022-03-31T18:08:08.713Z,FULLY_SHARED_SIDECAR_1-2-16-1,2,monitoring-unit-14,network_out,0.3610200881958008
2022-03-31T18:08:08.809Z,FULLY_SHARED_SIDECAR_1-2-16-1,2,monitoring-unit-15,network_out,0.34975337982177734
2022-03-31T18:08:08.763Z,FULLY_SHARED_SIDECAR_1-2-16-1,2,monitoring-unit-16,network_out,0.3528900146484375
2022-03-31T18:08:08.713Z,FULLY_SHARED_SIDECAR_1-2-16-1,2,monitoring-unit-2,network_out,0.36034107208251953
2022-03-31T18:08:08.763Z,FULLY_SHARED_SIDECAR_1-2-16-1,2,monitoring-unit-3,network_out,0.3659324645996094
2022-03-31T18:08:08.809Z,FULLY_SHARED_SIDECAR_1-2-16-1,2,monitoring-unit-4,network_out,0.35484886169433594
2022-03-31T18:08:08.713Z,FULLY_SHARED_SIDECAR_1-2-16-1,2,monitoring-unit-5,network_out,0.36672115325927734
2022-03-31T18:08:08.809Z,FULLY_SHARED_SIDECAR_1-2-16-1,2,monitoring-unit-6,network_out,0.36061763763427734
2022-03-31T18:08:08.763Z,FULLY_SHARED_SIDECAR_1-2-16-1,2,monitoring-unit-7,network_out,0.35993003845214844
2022-03-31T18:08:08.809Z,FULLY_SHARED_SIDECAR_1-2-16-1,2,monitoring-unit-8,network_out,0.32910728454589844
2022-03-31T18:08:08.713Z,FULLY_SHARED_SIDECAR_1-2-16-1,2,monitoring-unit-9,network_out,0.3607654571533203
2022-03-31T18:18:56.007Z,FULLY_SHARED_SIDECAR_1-2-16-1,3,monitoring-unit-1,network_out,0.35553932189941406
2022-03-31T18:18:56.031Z,FULLY_SHARED_SIDECAR_1-2-16-1,3,monitoring-unit-10,network_out,0.3494453430175781
2022-03-31T18:18:56.007Z,FULLY_SHARED_SIDECAR_1-2-16-1,3,monitoring-unit-11,network_out,0.3532848358154297
2022-03-31T18:18:56.098Z,FULLY_SHARED_SIDECAR_1-2-16-1,3,monitoring-unit-12,network_out,0.35512542724609375
2022-03-31T18:18:56.031Z,FULLY_SHARED_SIDECAR_1-2-16-1,3,monitoring-unit-13,network_out,0.3552684783935547
2022-03-31T18:18:56.098Z,FULLY_SHARED_SIDECAR_1-2-16-1,3,monitoring-unit-14,network_out,0.3542032241821289
2022-03-31T18:18:56.007Z,FULLY_SHARED_SIDECAR_1-2-16-1,3,monitoring-unit-15,network_out,0.35021495819091797
2022-03-31T18:18:56.031Z,FULLY_SHARED_SIDECAR_1-2-16-1,3,monitoring-unit-16,network_out,0.3427877426147461
2022-03-31T18:18:56.007Z,FULLY_SHARED_SIDECAR_1-2-16-1,3,monitoring-unit-2,network_out,0.34965038299560547
2022-03-31T18:18:56.031Z,FULLY_SHARED_SIDECAR_1-2-16-1,3,monitoring-unit-3,network_out,0.35544300079345703
2022-03-31T18:18:56.098Z,FULLY_SHARED_SIDECAR_1-2-16-1,3,monitoring-unit-4,network_out,0.36170387268066406
2022-03-31T18:18:56.007Z,FULLY_SHARED_SIDECAR_1-2-16-1,3,monitoring-unit-5,network_out,0.33039093017578125
2022-03-31T18:18:56.031Z,FULLY_SHARED_SIDECAR_1-2-16-1,3,monitoring-unit-6,network_out,0.3549003601074219
2022-03-31T18:18:56.098Z,FULLY_SHARED_SIDECAR_1-2-16-1,3,monitoring-unit-7,network_out,0.3557605743408203
2022-03-31T18:18:56.098Z,FULLY_SHARED_SIDECAR_1-2-16-1,3,monitoring-unit-8,network_out,0.3615255355834961
2022-03-31T18:18:56.007Z,FULLY_SHARED_SIDECAR_1-2-16-1,3,monitoring-unit-9,network_out,0.35462093353271484
2022-03-31T16:24:16.754Z,FULLY_SHARED_SIDECAR_1-2-2-1,1,monitoring-unit-1,network_out,0.076690673828125
2022-03-31T16:24:16.754Z,FULLY_SHARED_SIDECAR_1-2-2-1,1,monitoring-unit-2,network_out,0.0872354507446289
2022-03-31T16:34:35.097Z,FULLY_SHARED_SIDECAR_1-2-2-1,2,monitoring-unit-1,network_out,0.0868844985961914
2022-03-31T16:34:35.067Z,FULLY_SHARED_SIDECAR_1-2-2-1,2,monitoring-unit-2,network_out,0.08502864837646484
2022-03-31T16:44:45.576Z,FULLY_SHARED_SIDECAR_1-2-2-1,3,monitoring-unit-1,network_out,0.08879470825195312
2022-03-31T16:44:45.576Z,FULLY_SHARED_SIDECAR_1-2-2-1,3,monitoring-unit-2,network_out,0.0872201919555664
2022-03-31T16:54:55.095Z,FULLY_SHARED_SIDECAR_1-2-4-1,1,monitoring-unit-1,network_out,0.1272897720336914
2022-03-31T16:54:55.095Z,FULLY_SHARED_SIDECAR_1-2-4-1,1,monitoring-unit-2,network_out,0.1295318603515625
2022-03-31T16:54:55.118Z,FULLY_SHARED_SIDECAR_1-2-4-1,1,monitoring-unit-3,network_out,0.12268543243408203
2022-03-31T16:54:55.032Z,FULLY_SHARED_SIDECAR_1-2-4-1,1,monitoring-unit-4,network_out,0.12679576873779297
2022-03-31T17:05:12.308Z,FULLY_SHARED_SIDECAR_1-2-4-1,2,monitoring-unit-1,network_out,0.12752437591552734
2022-03-31T17:05:12.295Z,FULLY_SHARED_SIDECAR_1-2-4-1,2,monitoring-unit-2,network_out,0.1285696029663086
2022-03-31T17:05:12.295Z,FULLY_SHARED_SIDECAR_1-2-4-1,2,monitoring-unit-3,network_out,0.12673473358154297
2022-03-31T17:05:12.244Z,FULLY_SHARED_SIDECAR_1-2-4-1,2,monitoring-unit-4,network_out,0.12685871124267578
2022-03-31T17:15:28.119Z,FULLY_SHARED_SIDECAR_1-2-4-1,3,monitoring-unit-1,network_out,0.1269989013671875
2022-03-31T17:15:28.065Z,FULLY_SHARED_SIDECAR_1-2-4-1,3,monitoring-unit-2,network_out,0.1262044906616211
2022-03-31T17:15:28.098Z,FULLY_SHARED_SIDECAR_1-2-4-1,3,monitoring-unit-3,network_out,0.12514686584472656
2022-03-31T17:15:28.119Z,FULLY_SHARED_SIDECAR_1-2-4-1,3,monitoring-unit-4,network_out,0.12733840942382812
2022-03-31T17:25:54.054Z,FULLY_SHARED_SIDECAR_1-2-8-1,1,monitoring-unit-1,network_out,0.2078104019165039
2022-03-31T17:25:54.054Z,FULLY_SHARED_SIDECAR_1-2-8-1,1,monitoring-unit-2,network_out,0.20778942108154297
2022-03-31T17:25:54.080Z,FULLY_SHARED_SIDECAR_1-2-8-1,1,monitoring-unit-3,network_out,0.20371150970458984
2022-03-31T17:25:54.054Z,FULLY_SHARED_SIDECAR_1-2-8-1,1,monitoring-unit-4,network_out,0.19315814971923828
2022-03-31T17:25:54.080Z,FULLY_SHARED_SIDECAR_1-2-8-1,1,monitoring-unit-5,network_out,0.20715904235839844
2022-03-31T17:25:54.059Z,FULLY_SHARED_SIDECAR_1-2-8-1,1,monitoring-unit-6,network_out,0.2039813995361328
2022-03-31T17:25:54.059Z,FULLY_SHARED_SIDECAR_1-2-8-1,1,monitoring-unit-7,network_out,0.20389366149902344
2022-03-31T17:25:54.080Z,FULLY_SHARED_SIDECAR_1-2-8-1,1,monitoring-unit-8,network_out,0.18959331512451172
2022-03-31T17:36:19.257Z,FULLY_SHARED_SIDECAR_1-2-8-1,2,monitoring-unit-1,network_out,0.21074581146240234
2022-03-31T17:36:19.257Z,FULLY_SHARED_SIDECAR_1-2-8-1,2,monitoring-unit-2,network_out,0.20801734924316406
2022-03-31T17:36:18.870Z,FULLY_SHARED_SIDECAR_1-2-8-1,2,monitoring-unit-3,network_out,0.2035665512084961
2022-03-31T17:36:19.257Z,FULLY_SHARED_SIDECAR_1-2-8-1,2,monitoring-unit-4,network_out,0.20302581787109375
2022-03-31T17:36:18.934Z,FULLY_SHARED_SIDECAR_1-2-8-1,2,monitoring-unit-5,network_out,0.18949317932128906
2022-03-31T17:36:18.934Z,FULLY_SHARED_SIDECAR_1-2-8-1,2,monitoring-unit-6,network_out,0.18849468231201172
2022-03-31T17:36:18.870Z,FULLY_SHARED_SIDECAR_1-2-8-1,2,monitoring-unit-7,network_out,0.20396900177001953
2022-03-31T17:36:19.257Z,FULLY_SHARED_SIDECAR_1-2-8-1,2,monitoring-unit-8,network_out,0.2059793472290039
2022-03-31T17:46:46.396Z,FULLY_SHARED_SIDECAR_1-2-8-1,3,monitoring-unit-1,network_out,0.2082996368408203
2022-03-31T17:46:46.396Z,FULLY_SHARED_SIDECAR_1-2-8-1,3,monitoring-unit-2,network_out,0.20967674255371094
2022-03-31T17:46:46.410Z,FULLY_SHARED_SIDECAR_1-2-8-1,3,monitoring-unit-3,network_out,0.18952560424804688
2022-03-31T17:46:46.430Z,FULLY_SHARED_SIDECAR_1-2-8-1,3,monitoring-unit-4,network_out,0.2035083770751953
2022-03-31T17:46:46.396Z,FULLY_SHARED_SIDECAR_1-2-8-1,3,monitoring-unit-5,network_out,0.20572948455810547
2022-03-31T17:46:46.410Z,FULLY_SHARED_SIDECAR_1-2-8-1,3,monitoring-unit-6,network_out,0.20334243774414062
2022-03-31T17:46:46.430Z,FULLY_SHARED_SIDECAR_1-2-8-1,3,monitoring-unit-7,network_out,0.20028114318847656
2022-03-31T17:46:46.410Z,FULLY_SHARED_SIDECAR_1-2-8-1,3,monitoring-unit-8,network_out,0.20359420776367188
