2023-07-24T14:51:37.439Z,paymentservice-6,network_out,5729700
2023-07-24T14:51:37.732Z,recommendationservice,network_out,23187048
2023-07-24T14:51:38.194Z,checkoutservice,network_out,40031661
2023-07-24T14:51:39.690Z,shippingservice,network_out,37629548
2023-07-24T14:51:39.186Z,paymentservice-4,network_out,13555105
2023-07-24T14:51:39.642Z,productcatalogservice,network_out,38993488
2023-07-24T14:51:39.609Z,paymentservice-3,network_out,12871551
2023-07-24T14:51:41.038Z,currencyservice,network_out,44789487
2023-07-24T14:51:41.898Z,paymentservice-5,network_out,6073286
2023-07-24T14:51:42.927Z,paymentservice-2,network_out,19864831
2023-07-24T14:51:43.065Z,adservice,network_out,39429630
2023-07-24T14:51:45.045Z,paymentservice-1,network_out,26842041
2023-07-24T14:51:45.291Z,paymentservice-7,network_out,6166483
2023-07-24T14:51:45.403Z,cartservice,network_out,38998878
2023-07-24T14:51:45.825Z,emailservice,network_out,38471635
2023-07-24T14:51:46.697Z,probe-holder,network_out,643809551
2023-07-24T14:51:46.982Z,paymentservice-8,network_out,6079257
2023-07-24T14:51:47.440Z,paymentservice-6,network_out,5752977
2023-07-24T14:51:47.733Z,recommendationservice,network_out,23201964
2023-07-24T14:51:48.195Z,checkoutservice,network_out,40056558
2023-07-24T14:51:49.691Z,shippingservice,network_out,37653144
2023-07-24T14:51:49.187Z,paymentservice-4,network_out,13579248
2023-07-24T14:51:49.643Z,productcatalogservice,network_out,39008859
2023-07-24T14:51:49.609Z,paymentservice-3,network_out,12900393
2023-07-24T14:51:51.039Z,currencyservice,network_out,44813541
2023-07-24T14:51:51.899Z,paymentservice-5,network_out,6092040
2023-07-24T14:51:52.927Z,paymentservice-2,network_out,19885877
2023-07-24T14:51:53.065Z,adservice,network_out,39447857
2023-07-24T14:51:55.046Z,paymentservice-1,network_out,26868457
2023-07-24T14:51:55.292Z,paymentservice-7,network_out,6185220
2023-07-24T14:51:55.404Z,cartservice,network_out,39013840
2023-07-24T14:51:55.826Z,emailservice,network_out,38493484
2023-07-24T14:51:56.698Z,probe-holder,network_out,644646020
2023-07-24T14:51:56.982Z,paymentservice-8,network_out,6097984
2023-07-24T14:51:57.440Z,paymentservice-6,network_out,5776475
2023-07-24T14:51:57.733Z,recommendationservice,network_out,23224968
2023-07-24T14:51:58.195Z,checkoutservice,network_out,40078066
2023-07-24T14:51:59.691Z,shippingservice,network_out,37667850
2023-07-24T14:51:59.187Z,paymentservice-4,network_out,13606237
2023-07-24T14:51:59.642Z,productcatalogservice,network_out,39029480
2023-07-24T14:51:59.609Z,paymentservice-3,network_out,12923784
2023-07-24T14:52:01.039Z,currencyservice,network_out,44832436
2023-07-24T14:52:01.899Z,paymentservice-5,network_out,6116218
2023-07-24T14:52:02.927Z,paymentservice-2,network_out,19909288
2023-07-24T14:52:03.065Z,adservice,network_out,39472023
2023-07-24T14:52:05.045Z,paymentservice-1,network_out,26891958
2023-07-24T14:52:05.292Z,paymentservice-7,network_out,6208698
2023-07-24T14:52:05.406Z,cartservice,network_out,39034152
2023-07-24T14:52:05.826Z,emailservice,network_out,38514758
2023-07-24T14:52:06.698Z,probe-holder,network_out,645483180
2023-07-24T14:52:06.982Z,paymentservice-8,network_out,6122062
2023-07-24T14:52:07.440Z,paymentservice-6,network_out,5794697
2023-07-24T14:52:07.733Z,recommendationservice,network_out,23245118
2023-07-24T14:52:08.195Z,checkoutservice,network_out,40094297
2023-07-24T14:52:09.691Z,shippingservice,network_out,37687801
2023-07-24T14:52:09.187Z,paymentservice-4,network_out,13625150
2023-07-24T14:52:09.643Z,productcatalogservice,network_out,39050108
2023-07-24T14:52:09.610Z,paymentservice-3,network_out,12942627
2023-07-24T14:52:11.039Z,currencyservice,network_out,44856601
2023-07-24T14:52:11.899Z,paymentservice-5,network_out,6136288
2023-07-24T14:52:12.927Z,paymentservice-2,network_out,19932750
2023-07-24T14:52:13.065Z,adservice,network_out,39498409
2023-07-24T14:52:15.046Z,paymentservice-1,network_out,26910167
2023-07-24T14:52:15.292Z,paymentservice-7,network_out,6232115
2023-07-24T14:52:15.406Z,cartservice,network_out,39054485
2023-07-24T14:52:15.826Z,emailservice,network_out,38530753
2023-07-24T14:52:16.698Z,probe-holder,network_out,646317049
2023-07-24T14:52:16.982Z,paymentservice-8,network_out,6149096
2023-07-24T14:52:17.439Z,paymentservice-6,network_out,5819290
2023-07-24T14:52:17.732Z,recommendationservice,network_out,23259924
2023-07-24T14:52:18.195Z,checkoutservice,network_out,40115687
2023-07-24T14:52:19.691Z,shippingservice,network_out,37707782
2023-07-24T14:52:19.187Z,paymentservice-4,network_out,13650005
2023-07-24T14:52:19.642Z,productcatalogservice,network_out,39069059
2023-07-24T14:52:19.609Z,paymentservice-3,network_out,12966093
2023-07-24T14:52:21.039Z,currencyservice,network_out,44883705
2023-07-24T14:52:21.899Z,paymentservice-5,network_out,6159232
2023-07-24T14:52:22.927Z,paymentservice-2,network_out,19951667
2023-07-24T14:52:23.065Z,adservice,network_out,39516655
2023-07-24T14:52:25.045Z,paymentservice-1,network_out,26933670
2023-07-24T14:52:25.292Z,paymentservice-7,network_out,6250265
2023-07-24T14:52:25.404Z,cartservice,network_out,39072438
2023-07-24T14:52:25.826Z,emailservice,network_out,38551979
2023-07-24T14:52:26.698Z,probe-holder,network_out,647153248
2023-07-24T14:52:26.982Z,paymentservice-8,network_out,6168591
2023-07-24T14:52:27.440Z,paymentservice-6,network_out,5846002
2023-07-24T14:52:27.733Z,recommendationservice,network_out,23280098
2023-07-24T14:52:28.196Z,checkoutservice,network_out,40137227
2023-07-24T14:52:29.691Z,shippingservice,network_out,37750883
2023-07-24T14:52:29.187Z,paymentservice-4,network_out,13674088
2023-07-24T14:52:29.642Z,productcatalogservice,network_out,39089715
2023-07-24T14:52:29.609Z,paymentservice-3,network_out,12989511
2023-07-24T14:52:31.039Z,currencyservice,network_out,44902615
2023-07-24T14:52:31.899Z,paymentservice-5,network_out,6186258
2023-07-24T14:52:32.928Z,paymentservice-2,network_out,19975114
2023-07-24T14:52:33.065Z,adservice,network_out,39540039
2023-07-24T14:52:35.045Z,paymentservice-1,network_out,26957126
2023-07-24T14:52:35.292Z,paymentservice-7,network_out,6273636
2023-07-24T14:52:35.404Z,cartservice,network_out,39093522
2023-07-24T14:52:35.826Z,emailservice,network_out,38573256
2023-07-24T14:52:36.698Z,probe-holder,network_out,647989317
2023-07-24T14:52:36.982Z,paymentservice-8,network_out,6192640
2023-07-24T14:52:37.440Z,paymentservice-6,network_out,5865068
2023-07-24T14:52:37.733Z,recommendationservice,network_out,23301152
2023-07-24T14:52:38.195Z,checkoutservice,network_out,40153604
2023-07-24T14:52:39.691Z,shippingservice,network_out,37772002
2023-07-24T14:52:39.187Z,paymentservice-4,network_out,13693045
2023-07-24T14:52:39.643Z,productcatalogservice,network_out,39110400
2023-07-24T14:52:39.609Z,paymentservice-3,network_out,13007833
2023-07-24T14:52:41.039Z,currencyservice,network_out,44927586
2023-07-24T14:52:41.899Z,paymentservice-5,network_out,6206009
2023-07-24T14:52:42.927Z,paymentservice-2,network_out,19998637
2023-07-24T14:52:43.065Z,adservice,network_out,39563698
2023-07-24T14:52:45.045Z,paymentservice-1,network_out,26976183
2023-07-24T14:52:45.292Z,paymentservice-7,network_out,6300063
2023-07-24T14:52:45.404Z,cartservice,network_out,39114018
2023-07-24T14:52:45.826Z,emailservice,network_out,38592307
2023-07-24T14:52:46.698Z,probe-holder,network_out,648820637
2023-07-24T14:52:46.982Z,paymentservice-8,network_out,6216925
2023-07-24T14:52:47.440Z,paymentservice-6,network_out,5888509
2023-07-24T14:52:47.733Z,recommendationservice,network_out,23316108
2023-07-24T14:52:48.195Z,checkoutservice,network_out,40178578
2023-07-24T14:52:49.691Z,shippingservice,network_out,37796294
2023-07-24T14:52:49.187Z,paymentservice-4,network_out,13717135
2023-07-24T14:52:49.643Z,productcatalogservice,network_out,39125741
2023-07-24T14:52:49.610Z,paymentservice-3,network_out,13034089
2023-07-24T14:52:51.039Z,currencyservice,network_out,44951788
2023-07-24T14:52:51.899Z,paymentservice-5,network_out,6230161
2023-07-24T14:52:52.927Z,paymentservice-2,network_out,20019615
2023-07-24T14:52:53.065Z,adservice,network_out,39581911
2023-07-24T14:52:55.045Z,paymentservice-1,network_out,27002479
2023-07-24T14:52:55.292Z,paymentservice-7,network_out,6318937
2023-07-24T14:52:55.404Z,cartservice,network_out,39129085
2023-07-24T14:52:55.826Z,emailservice,network_out,38614261
2023-07-24T14:52:56.698Z,probe-holder,network_out,649649346
2023-07-24T14:52:56.982Z,paymentservice-8,network_out,6235690
2023-07-24T14:52:57.440Z,paymentservice-6,network_out,5911936
2023-07-24T14:52:57.733Z,recommendationservice,network_out,23339214
2023-07-24T14:52:58.195Z,checkoutservice,network_out,40200113
2023-07-24T14:52:59.187Z,paymentservice-4,network_out,13744095
2023-07-24T14:52:59.691Z,shippingservice,network_out,37811777
2023-07-24T14:52:59.643Z,productcatalogservice,network_out,39146317
2023-07-24T14:52:59.609Z,paymentservice-3,network_out,13057419
2023-07-24T14:53:01.039Z,currencyservice,network_out,44970651
2023-07-24T14:53:01.899Z,paymentservice-5,network_out,6254220
2023-07-24T14:53:02.927Z,paymentservice-2,network_out,20042990
2023-07-24T14:53:03.065Z,adservice,network_out,39606049
2023-07-24T14:53:05.045Z,paymentservice-1,network_out,27025872
2023-07-24T14:53:05.292Z,paymentservice-7,network_out,6342295
2023-07-24T14:53:05.406Z,cartservice,network_out,39149429
2023-07-24T14:53:05.826Z,emailservice,network_out,38635506
2023-07-24T14:53:06.698Z,probe-holder,network_out,650478136
2023-07-24T14:53:06.982Z,paymentservice-8,network_out,6259681
2023-07-24T14:53:07.439Z,paymentservice-6,network_out,5930102
2023-07-24T14:53:07.732Z,recommendationservice,network_out,23359392
2023-07-24T14:53:08.195Z,checkoutservice,network_out,40216323
2023-07-24T14:53:09.691Z,shippingservice,network_out,37835043
2023-07-24T14:53:09.187Z,paymentservice-4,network_out,13765409
2023-07-24T14:53:09.643Z,productcatalogservice,network_out,39166863
2023-07-24T14:53:09.609Z,paymentservice-3,network_out,13076230
2023-07-24T14:53:11.039Z,currencyservice,network_out,44994721
2023-07-24T14:53:11.899Z,paymentservice-5,network_out,6273099
2023-07-24T14:53:12.927Z,paymentservice-2,network_out,20066351
2023-07-24T14:53:13.065Z,adservice,network_out,39631513
2023-07-24T14:53:15.045Z,paymentservice-1,network_out,27043998
2023-07-24T14:53:15.292Z,paymentservice-7,network_out,6360404
2023-07-24T14:53:15.404Z,cartservice,network_out,39169789
2023-07-24T14:53:15.826Z,emailservice,network_out,38653012
2023-07-24T14:53:16.698Z,probe-holder,network_out,651303908
2023-07-24T14:53:16.982Z,paymentservice-8,network_out,6286653
2023-07-24T14:53:17.440Z,paymentservice-6,network_out,5953514
2023-07-24T14:53:17.733Z,recommendationservice,network_out,23374235
2023-07-24T14:53:18.195Z,checkoutservice,network_out,40237743
2023-07-24T14:53:19.691Z,shippingservice,network_out,37859303
2023-07-24T14:53:19.187Z,paymentservice-4,network_out,13790196
2023-07-24T14:53:19.643Z,productcatalogservice,network_out,39185759
2023-07-24T14:53:19.609Z,paymentservice-3,network_out,13099615
2023-07-24T14:53:21.039Z,currencyservice,network_out,45017701
2023-07-24T14:53:21.899Z,paymentservice-5,network_out,6297163
2023-07-24T14:53:22.927Z,paymentservice-2,network_out,20085171
2023-07-24T14:53:23.065Z,adservice,network_out,39650627
2023-07-24T14:53:25.046Z,paymentservice-1,network_out,27067382
2023-07-24T14:53:25.292Z,paymentservice-7,network_out,6383738
2023-07-24T14:53:25.404Z,cartservice,network_out,39187811
2023-07-24T14:53:25.826Z,emailservice,network_out,38674264
2023-07-24T14:53:26.698Z,probe-holder,network_out,652132092
2023-07-24T14:53:26.982Z,paymentservice-8,network_out,6306160
2023-07-24T14:53:27.439Z,paymentservice-6,network_out,5979785
2023-07-24T14:53:27.733Z,recommendationservice,network_out,23394378
2023-07-24T14:53:28.195Z,checkoutservice,network_out,40259218
2023-07-24T14:53:29.691Z,shippingservice,network_out,37875881
2023-07-24T14:53:29.187Z,paymentservice-4,network_out,13814253
2023-07-24T14:53:29.643Z,productcatalogservice,network_out,39206325
2023-07-24T14:53:29.609Z,paymentservice-3,network_out,13122998
2023-07-24T14:53:31.039Z,currencyservice,network_out,45040680
2023-07-24T14:53:31.899Z,paymentservice-5,network_out,6324223
2023-07-24T14:53:32.927Z,paymentservice-2,network_out,20108556
2023-07-24T14:53:33.065Z,adservice,network_out,39674000
2023-07-24T14:53:35.046Z,paymentservice-1,network_out,27090811
2023-07-24T14:53:35.292Z,paymentservice-7,network_out,6407193
2023-07-24T14:53:35.404Z,cartservice,network_out,39208851
2023-07-24T14:53:35.826Z,emailservice,network_out,38695537
2023-07-24T14:53:36.698Z,probe-holder,network_out,652960096
2023-07-24T14:53:36.982Z,paymentservice-8,network_out,6330201
2023-07-24T14:53:37.440Z,paymentservice-6,network_out,5998704
2023-07-24T14:53:37.733Z,recommendationservice,network_out,23415325
2023-07-24T14:53:38.195Z,checkoutservice,network_out,40275435
2023-07-24T14:53:39.690Z,shippingservice,network_out,37897670
2023-07-24T14:53:39.187Z,paymentservice-4,network_out,13833031
2023-07-24T14:53:39.642Z,productcatalogservice,network_out,39226903
2023-07-24T14:53:39.609Z,paymentservice-3,network_out,13141102
2023-07-24T14:53:41.039Z,currencyservice,network_out,45065493
2023-07-24T14:53:41.899Z,paymentservice-5,network_out,6344372
2023-07-24T14:53:42.927Z,paymentservice-2,network_out,20131940
2023-07-24T14:53:43.065Z,adservice,network_out,39697505
2023-07-24T14:53:45.046Z,paymentservice-1,network_out,27109676
2023-07-24T14:53:45.292Z,paymentservice-7,network_out,6428279
2023-07-24T14:53:45.406Z,cartservice,network_out,39229170
2023-07-24T14:53:45.826Z,emailservice,network_out,38714433
2023-07-24T14:53:46.698Z,probe-holder,network_out,653783071
2023-07-24T14:53:46.982Z,paymentservice-8,network_out,6354222
2023-07-24T14:53:47.440Z,paymentservice-6,network_out,6022122
2023-07-24T14:53:47.733Z,recommendationservice,network_out,23430251
2023-07-24T14:53:48.195Z,checkoutservice,network_out,40300409
2023-07-24T14:53:49.691Z,shippingservice,network_out,37921913
2023-07-24T14:53:49.187Z,paymentservice-4,network_out,13857119
2023-07-24T14:53:49.643Z,productcatalogservice,network_out,39242403
2023-07-24T14:53:49.609Z,paymentservice-3,network_out,13167365
2023-07-24T14:53:51.039Z,currencyservice,network_out,45084356
2023-07-24T14:53:51.899Z,paymentservice-5,network_out,6368457
2023-07-24T14:53:52.927Z,paymentservice-2,network_out,20152952
2023-07-24T14:53:53.065Z,adservice,network_out,39715692
2023-07-24T14:53:55.046Z,paymentservice-1,network_out,27136034
2023-07-24T14:53:55.292Z,paymentservice-7,network_out,6452363
2023-07-24T14:53:55.404Z,cartservice,network_out,39244244
2023-07-24T14:53:55.826Z,emailservice,network_out,38736383
2023-07-24T14:53:56.698Z,probe-holder,network_out,654610965
2023-07-24T14:53:56.982Z,paymentservice-8,network_out,6374577
2023-07-24T14:53:57.440Z,paymentservice-6,network_out,6045526
2023-07-24T14:53:57.733Z,recommendationservice,network_out,23453362
2023-07-24T14:53:58.195Z,checkoutservice,network_out,40321965
2023-07-24T14:53:59.690Z,shippingservice,network_out,37938481
2023-07-24T14:53:59.187Z,paymentservice-4,network_out,13884125
2023-07-24T14:53:59.643Z,productcatalogservice,network_out,39268895
2023-07-24T14:53:59.609Z,paymentservice-3,network_out,13190732
2023-07-24T14:54:01.039Z,currencyservice,network_out,45108443
2023-07-24T14:54:01.899Z,paymentservice-5,network_out,6392555
2023-07-24T14:54:02.927Z,paymentservice-2,network_out,20176316
2023-07-24T14:54:03.065Z,adservice,network_out,39739787
2023-07-24T14:54:05.046Z,paymentservice-1,network_out,27154177
2023-07-24T14:54:05.292Z,paymentservice-7,network_out,6475747
2023-07-24T14:54:05.404Z,cartservice,network_out,39264575
2023-07-24T14:54:05.826Z,emailservice,network_out,38757624
2023-07-24T14:54:06.698Z,probe-holder,network_out,655439618
2023-07-24T14:54:06.982Z,paymentservice-8,network_out,6398598
2023-07-24T14:54:07.440Z,paymentservice-6,network_out,6063694
2023-07-24T14:54:07.733Z,recommendationservice,network_out,23473550
2023-07-24T14:54:08.195Z,checkoutservice,network_out,40338216
2023-07-24T14:54:09.690Z,shippingservice,network_out,37959173
2023-07-24T14:54:09.187Z,paymentservice-4,network_out,13902929
2023-07-24T14:54:09.643Z,productcatalogservice,network_out,39290612
2023-07-24T14:54:09.609Z,paymentservice-3,network_out,13209497
2023-07-24T14:54:11.039Z,currencyservice,network_out,45132570
2023-07-24T14:54:11.899Z,paymentservice-5,network_out,6411361
2023-07-24T14:54:12.927Z,paymentservice-2,network_out,20194382
2023-07-24T14:54:13.065Z,adservice,network_out,39763256
2023-07-24T14:54:15.045Z,paymentservice-1,network_out,27177618
2023-07-24T14:54:15.292Z,paymentservice-7,network_out,6493836
2023-07-24T14:54:15.404Z,cartservice,network_out,39284923
2023-07-24T14:54:15.826Z,emailservice,network_out,38773645
2023-07-24T14:54:16.698Z,probe-holder,network_out,656265168
2023-07-24T14:54:16.982Z,paymentservice-8,network_out,6425556
2023-07-24T14:54:17.440Z,paymentservice-6,network_out,6087110
2023-07-24T14:54:17.733Z,recommendationservice,network_out,23488438
2023-07-24T14:54:18.195Z,checkoutservice,network_out,40359576
2023-07-24T14:54:19.691Z,shippingservice,network_out,37981397
2023-07-24T14:54:19.187Z,paymentservice-4,network_out,13927741
2023-07-24T14:54:19.643Z,productcatalogservice,network_out,39310666
2023-07-24T14:54:19.609Z,paymentservice-3,network_out,13232881
2023-07-24T14:54:21.039Z,currencyservice,network_out,45154337
2023-07-24T14:54:21.899Z,paymentservice-5,network_out,6435461
2023-07-24T14:54:22.927Z,paymentservice-2,network_out,20218515
2023-07-24T14:54:23.065Z,adservice,network_out,39784372
2023-07-24T14:54:25.045Z,paymentservice-1,network_out,27201058
2023-07-24T14:54:25.292Z,paymentservice-7,network_out,6517187
2023-07-24T14:54:25.406Z,cartservice,network_out,39302946
2023-07-24T14:54:25.826Z,emailservice,network_out,38794909
2023-07-24T14:54:26.698Z,probe-holder,network_out,657093185
2023-07-24T14:54:26.982Z,paymentservice-8,network_out,6445022
2023-07-24T14:54:27.439Z,paymentservice-6,network_out,6109771
2023-07-24T14:54:27.733Z,recommendationservice,network_out,23508582
2023-07-24T14:54:28.195Z,checkoutservice,network_out,40375793
2023-07-24T14:54:29.691Z,shippingservice,network_out,37996885
2023-07-24T14:54:29.187Z,paymentservice-4,network_out,13951841
2023-07-24T14:54:29.643Z,productcatalogservice,network_out,39333822
2023-07-24T14:54:29.609Z,paymentservice-3,network_out,13256248
2023-07-24T14:54:31.039Z,currencyservice,network_out,45178445
2023-07-24T14:54:31.899Z,paymentservice-5,network_out,6462444
2023-07-24T14:54:32.927Z,paymentservice-2,network_out,20241889
2023-07-24T14:54:33.065Z,adservice,network_out,39807831
2023-07-24T14:54:35.045Z,paymentservice-1,network_out,27219497
2023-07-24T14:54:35.292Z,paymentservice-7,network_out,6540556
2023-07-24T14:54:35.404Z,cartservice,network_out,39323982
2023-07-24T14:54:35.826Z,emailservice,network_out,38816431
2023-07-24T14:54:36.698Z,probe-holder,network_out,657918415
2023-07-24T14:54:36.982Z,paymentservice-8,network_out,6469038
2023-07-24T14:54:37.440Z,paymentservice-6,network_out,6138677
2023-07-24T14:54:37.732Z,recommendationservice,network_out,23529398
2023-07-24T14:54:38.195Z,checkoutservice,network_out,40397286
2023-07-24T14:54:39.691Z,shippingservice,network_out,38017625
2023-07-24T14:54:39.187Z,paymentservice-4,network_out,13970596
2023-07-24T14:54:39.643Z,productcatalogservice,network_out,39355651
2023-07-24T14:54:39.609Z,paymentservice-3,network_out,13274334
2023-07-24T14:54:41.039Z,currencyservice,network_out,45203295
2023-07-24T14:54:41.899Z,paymentservice-5,network_out,6481989
2023-07-24T14:54:42.927Z,paymentservice-2,network_out,20259984
2023-07-24T14:54:43.066Z,adservice,network_out,39926477
2023-07-24T14:54:45.045Z,paymentservice-1,network_out,27243619
2023-07-24T14:54:45.292Z,paymentservice-7,network_out,6561574
2023-07-24T14:54:45.404Z,cartservice,network_out,39344288
2023-07-24T14:54:45.826Z,emailservice,network_out,38841096
2023-07-24T14:54:46.698Z,probe-holder,network_out,658743914
2023-07-24T14:54:46.982Z,paymentservice-8,network_out,6493137
2023-07-24T14:54:47.440Z,paymentservice-6,network_out,6163281
2023-07-24T14:54:47.732Z,recommendationservice,network_out,23544272
2023-07-24T14:54:48.195Z,checkoutservice,network_out,40422268
2023-07-24T14:54:49.691Z,shippingservice,network_out,38041949
2023-07-24T14:54:49.187Z,paymentservice-4,network_out,13994641
2023-07-24T14:54:49.643Z,productcatalogservice,network_out,39376913
2023-07-24T14:54:49.610Z,paymentservice-3,network_out,13300601
2023-07-24T14:54:51.039Z,currencyservice,network_out,45222147
2023-07-24T14:54:51.899Z,paymentservice-5,network_out,6506032
2023-07-24T14:54:52.927Z,paymentservice-2,network_out,20286264
2023-07-24T14:54:53.065Z,adservice,network_out,39952422
2023-07-24T14:54:55.045Z,paymentservice-1,network_out,27270106
2023-07-24T14:54:55.292Z,paymentservice-7,network_out,6585733
2023-07-24T14:54:55.406Z,cartservice,network_out,39359371
2023-07-24T14:54:55.826Z,emailservice,network_out,38864210
2023-07-24T14:54:56.698Z,probe-holder,network_out,659571713
2023-07-24T14:54:56.982Z,paymentservice-8,network_out,6511891
2023-07-24T14:54:57.440Z,paymentservice-6,network_out,6182641
2023-07-24T14:54:57.733Z,recommendationservice,network_out,23567284
2023-07-24T14:54:58.195Z,checkoutservice,network_out,40438486
2023-07-24T14:54:59.691Z,shippingservice,network_out,38057450
2023-07-24T14:54:59.187Z,paymentservice-4,network_out,14016327
2023-07-24T14:54:59.643Z,productcatalogservice,network_out,39398679
2023-07-24T14:54:59.609Z,paymentservice-3,network_out,13323979
2023-07-24T14:55:01.039Z,currencyservice,network_out,45246215
2023-07-24T14:55:01.899Z,paymentservice-5,network_out,6530120
2023-07-24T14:55:02.927Z,paymentservice-2,network_out,20309620
2023-07-24T14:55:03.065Z,adservice,network_out,39976612
2023-07-24T14:55:05.045Z,paymentservice-1,network_out,27289766
2023-07-24T14:55:05.292Z,paymentservice-7,network_out,6605079
2023-07-24T14:55:05.404Z,cartservice,network_out,39379716
2023-07-24T14:55:05.826Z,emailservice,network_out,38886622
2023-07-24T14:55:06.698Z,probe-holder,network_out,660395106
2023-07-24T14:55:06.982Z,paymentservice-8,network_out,6535926
2023-07-24T14:55:07.439Z,paymentservice-6,network_out,6206040
2023-07-24T14:55:07.733Z,recommendationservice,network_out,23587406
2023-07-24T14:55:08.195Z,checkoutservice,network_out,40459979
2023-07-24T14:55:09.691Z,shippingservice,network_out,38078133
2023-07-24T14:55:09.187Z,paymentservice-4,network_out,14040393
2023-07-24T14:55:09.642Z,productcatalogservice,network_out,39420451
2023-07-24T14:55:09.610Z,paymentservice-3,network_out,13342829
2023-07-24T14:55:11.039Z,currencyservice,network_out,45270376
2023-07-24T14:55:11.899Z,paymentservice-5,network_out,6548946
2023-07-24T14:55:12.927Z,paymentservice-2,network_out,20327729
2023-07-24T14:55:13.065Z,adservice,network_out,40000028
2023-07-24T14:55:15.045Z,paymentservice-1,network_out,27313189
2023-07-24T14:55:15.292Z,paymentservice-7,network_out,6627232
2023-07-24T14:55:15.404Z,cartservice,network_out,39400071
2023-07-24T14:55:15.826Z,emailservice,network_out,38902685
2023-07-24T14:55:16.698Z,probe-holder,network_out,661226073
2023-07-24T14:55:16.982Z,paymentservice-8,network_out,6562869
2023-07-24T14:55:17.440Z,paymentservice-6,network_out,6230743
2023-07-24T14:55:17.733Z,recommendationservice,network_out,23602228
2023-07-24T14:55:18.195Z,checkoutservice,network_out,40481391
2023-07-24T14:55:19.691Z,shippingservice,network_out,38098796
2023-07-24T14:55:19.187Z,paymentservice-4,network_out,14065145
2023-07-24T14:55:19.643Z,productcatalogservice,network_out,39439409
2023-07-24T14:55:19.609Z,paymentservice-3,network_out,13366204
2023-07-24T14:55:21.039Z,currencyservice,network_out,45292145
2023-07-24T14:55:21.899Z,paymentservice-5,network_out,6573047
2023-07-24T14:55:22.927Z,paymentservice-2,network_out,20351868
2023-07-24T14:55:23.065Z,adservice,network_out,40021121
2023-07-24T14:55:25.045Z,paymentservice-1,network_out,27336617
2023-07-24T14:55:25.292Z,paymentservice-7,network_out,6650633
2023-07-24T14:55:25.406Z,cartservice,network_out,39418085
2023-07-24T14:55:25.826Z,emailservice,network_out,38923945
2023-07-24T14:55:26.699Z,probe-holder,network_out,662053904
2023-07-24T14:55:26.982Z,paymentservice-8,network_out,6582308
2023-07-24T14:55:27.440Z,paymentservice-6,network_out,6251730
2023-07-24T14:55:27.733Z,recommendationservice,network_out,23622342
2023-07-24T14:55:28.195Z,checkoutservice,network_out,40497670
2023-07-24T14:55:29.691Z,shippingservice,network_out,38114184
2023-07-24T14:55:29.187Z,paymentservice-4,network_out,14084008
2023-07-24T14:55:29.643Z,productcatalogservice,network_out,39462420
2023-07-24T14:55:29.609Z,paymentservice-3,network_out,13389582
2023-07-24T14:55:31.039Z,currencyservice,network_out,45316262
2023-07-24T14:55:31.899Z,paymentservice-5,network_out,6600048
2023-07-24T14:55:32.927Z,paymentservice-2,network_out,20375321
2023-07-24T14:55:33.065Z,adservice,network_out,40044571
2023-07-24T14:55:35.046Z,paymentservice-1,network_out,27356290
2023-07-24T14:55:35.292Z,paymentservice-7,network_out,6668733
2023-07-24T14:55:35.404Z,cartservice,network_out,39439117
2023-07-24T14:55:35.826Z,emailservice,network_out,38946363
2023-07-24T14:55:36.698Z,probe-holder,network_out,662876769
2023-07-24T14:55:36.982Z,paymentservice-8,network_out,6606394
2023-07-24T14:55:37.439Z,paymentservice-6,network_out,6275895
2023-07-24T14:55:37.733Z,recommendationservice,network_out,23643210
2023-07-24T14:55:38.195Z,checkoutservice,network_out,40519142
2023-07-24T14:55:39.691Z,shippingservice,network_out,38134862
2023-07-24T14:55:39.187Z,paymentservice-4,network_out,14108087
2023-07-24T14:55:39.643Z,productcatalogservice,network_out,39482984
2023-07-24T14:55:39.609Z,paymentservice-3,network_out,13407630
2023-07-24T14:55:41.039Z,currencyservice,network_out,45341155
2023-07-24T14:55:41.899Z,paymentservice-5,network_out,6619540
2023-07-24T14:55:42.927Z,paymentservice-2,network_out,20393452
2023-07-24T14:55:43.065Z,adservice,network_out,40068069
2023-07-24T14:55:45.046Z,paymentservice-1,network_out,27380464
2023-07-24T14:55:45.292Z,paymentservice-7,network_out,6695064
2023-07-24T14:55:45.404Z,cartservice,network_out,39459420
2023-07-24T14:55:45.826Z,emailservice,network_out,38965254
2023-07-24T14:55:46.698Z,probe-holder,network_out,663704864
2023-07-24T14:55:46.982Z,paymentservice-8,network_out,6630486
2023-07-24T14:55:47.440Z,paymentservice-6,network_out,6299324
2023-07-24T14:55:47.733Z,recommendationservice,network_out,23658058
2023-07-24T14:55:48.195Z,checkoutservice,network_out,40544141
2023-07-24T14:55:49.691Z,shippingservice,network_out,38159141
2023-07-24T14:55:49.187Z,paymentservice-4,network_out,14132162
2023-07-24T14:55:49.642Z,productcatalogservice,network_out,39498399
2023-07-24T14:55:49.609Z,paymentservice-3,network_out,13433853
2023-07-24T14:55:51.039Z,currencyservice,network_out,45360061
2023-07-24T14:55:51.899Z,paymentservice-5,network_out,6643633
2023-07-24T14:55:52.927Z,paymentservice-2,network_out,20419713
2023-07-24T14:55:53.065Z,adservice,network_out,40086224
2023-07-24T14:55:55.045Z,paymentservice-1,network_out,27408389
2023-07-24T14:55:55.292Z,paymentservice-7,network_out,6719216
2023-07-24T14:55:55.404Z,cartservice,network_out,39474481
2023-07-24T14:55:55.826Z,emailservice,network_out,38987208
2023-07-24T14:55:56.698Z,probe-holder,network_out,664532615
2023-07-24T14:55:56.982Z,paymentservice-8,network_out,6649246
2023-07-24T14:55:57.440Z,paymentservice-6,network_out,6317473
2023-07-24T14:55:57.733Z,recommendationservice,network_out,23681103
2023-07-24T14:55:58.195Z,checkoutservice,network_out,40560364
2023-07-24T14:55:59.691Z,shippingservice,network_out,38174524
2023-07-24T14:55:59.187Z,paymentservice-4,network_out,14153856
2023-07-24T14:55:59.643Z,productcatalogservice,network_out,39518983
2023-07-24T14:55:59.609Z,paymentservice-3,network_out,13457294
2023-07-24T14:56:01.039Z,currencyservice,network_out,45384143
2023-07-24T14:56:01.899Z,paymentservice-5,network_out,6667715
2023-07-24T14:56:02.927Z,paymentservice-2,network_out,20443107
2023-07-24T14:56:03.065Z,adservice,network_out,40110414
2023-07-24T14:56:05.045Z,paymentservice-1,network_out,27426531
2023-07-24T14:56:05.292Z,paymentservice-7,network_out,6737276
2023-07-24T14:56:05.404Z,cartservice,network_out,39494786
2023-07-24T14:56:05.826Z,emailservice,network_out,39008454
2023-07-24T14:56:06.698Z,probe-holder,network_out,665355885
2023-07-24T14:56:06.982Z,paymentservice-8,network_out,6673355
2023-07-24T14:56:07.439Z,paymentservice-6,network_out,6340944
2023-07-24T14:56:07.732Z,recommendationservice,network_out,23701224
2023-07-24T14:56:08.195Z,checkoutservice,network_out,40581856
2023-07-24T14:56:09.691Z,shippingservice,network_out,38195167
2023-07-24T14:56:09.187Z,paymentservice-4,network_out,14177898
2023-07-24T14:56:09.643Z,productcatalogservice,network_out,39539604
2023-07-24T14:56:09.610Z,paymentservice-3,network_out,13476117
2023-07-24T14:56:11.039Z,currencyservice,network_out,45408315
2023-07-24T14:56:11.899Z,paymentservice-5,network_out,6686505
2023-07-24T14:56:12.927Z,paymentservice-2,network_out,20461230
2023-07-24T14:56:13.065Z,adservice,network_out,40133850
2023-07-24T14:56:15.045Z,paymentservice-1,network_out,27449944
2023-07-24T14:56:15.292Z,paymentservice-7,network_out,6760630
2023-07-24T14:56:15.406Z,cartservice,network_out,39515125
2023-07-24T14:56:15.826Z,emailservice,network_out,39024460
2023-07-24T14:56:16.698Z,probe-holder,network_out,666187047
2023-07-24T14:56:16.982Z,paymentservice-8,network_out,6700306
2023-07-24T14:56:17.440Z,paymentservice-6,network_out,6364383
2023-07-24T14:56:17.733Z,recommendationservice,network_out,23716119
2023-07-24T14:56:18.195Z,checkoutservice,network_out,40603232
2023-07-24T14:56:19.691Z,shippingservice,network_out,38216094
2023-07-24T14:56:19.187Z,paymentservice-4,network_out,14202677
2023-07-24T14:56:19.643Z,productcatalogservice,network_out,39559596
2023-07-24T14:56:19.609Z,paymentservice-3,network_out,13499439
2023-07-24T14:56:21.039Z,currencyservice,network_out,45430105
2023-07-24T14:56:21.899Z,paymentservice-5,network_out,6710576
2023-07-24T14:56:22.927Z,paymentservice-2,network_out,20485314
2023-07-24T14:56:23.065Z,adservice,network_out,40154917
2023-07-24T14:56:25.045Z,paymentservice-1,network_out,27474910
2023-07-24T14:56:25.292Z,paymentservice-7,network_out,6784014
2023-07-24T14:56:25.406Z,cartservice,network_out,39533128
2023-07-24T14:56:25.826Z,emailservice,network_out,39045728
2023-07-24T14:56:26.698Z,probe-holder,network_out,667014774
2023-07-24T14:56:26.982Z,paymentservice-8,network_out,6719797
2023-07-24T14:56:27.440Z,paymentservice-6,network_out,6385786
2023-07-24T14:56:27.733Z,recommendationservice,network_out,23736250
2023-07-24T14:56:28.195Z,checkoutservice,network_out,40619512
2023-07-24T14:56:29.691Z,shippingservice,network_out,38231639
2023-07-24T14:56:29.187Z,paymentservice-4,network_out,14221453
2023-07-24T14:56:29.643Z,productcatalogservice,network_out,39580229
2023-07-24T14:56:29.609Z,paymentservice-3,network_out,13522778
2023-07-24T14:56:31.039Z,currencyservice,network_out,45454242
2023-07-24T14:56:31.899Z,paymentservice-5,network_out,6737591
2023-07-24T14:56:32.927Z,paymentservice-2,network_out,20508684
2023-07-24T14:56:33.065Z,adservice,network_out,40178386
2023-07-24T14:56:35.045Z,paymentservice-1,network_out,27493085
2023-07-24T14:56:35.292Z,paymentservice-7,network_out,6802151
2023-07-24T14:56:35.404Z,cartservice,network_out,39554158
2023-07-24T14:56:35.826Z,emailservice,network_out,39062921
2023-07-24T14:56:36.698Z,probe-holder,network_out,667837526
2023-07-24T14:56:36.982Z,paymentservice-8,network_out,6743830
2023-07-24T14:56:37.439Z,paymentservice-6,network_out,6409928
2023-07-24T14:56:37.732Z,recommendationservice,network_out,23757089
2023-07-24T14:56:38.195Z,checkoutservice,network_out,40641027
2023-07-24T14:56:39.690Z,shippingservice,network_out,38252357
2023-07-24T14:56:39.187Z,paymentservice-4,network_out,14245523
2023-07-24T14:56:39.642Z,productcatalogservice,network_out,39600767
2023-07-24T14:56:39.609Z,paymentservice-3,network_out,13540844
2023-07-24T14:56:41.039Z,currencyservice,network_out,45479161
2023-07-24T14:56:41.899Z,paymentservice-5,network_out,6757138
2023-07-24T14:56:42.927Z,paymentservice-2,network_out,20526801
2023-07-24T14:56:43.065Z,adservice,network_out,40201912
2023-07-24T14:56:45.045Z,paymentservice-1,network_out,27518731
2023-07-24T14:56:45.292Z,paymentservice-7,network_out,6828386
2023-07-24T14:56:45.404Z,cartservice,network_out,39574495
2023-07-24T14:56:45.826Z,emailservice,network_out,39085885
2023-07-24T14:56:46.698Z,probe-holder,network_out,668665388
2023-07-24T14:56:46.982Z,paymentservice-8,network_out,6767921
2023-07-24T14:56:47.440Z,paymentservice-6,network_out,6433320
2023-07-24T14:56:47.733Z,recommendationservice,network_out,23771947
2023-07-24T14:56:48.195Z,checkoutservice,network_out,40666036
2023-07-24T14:56:49.691Z,shippingservice,network_out,38276601
2023-07-24T14:56:49.187Z,paymentservice-4,network_out,14269573
2023-07-24T14:56:49.643Z,productcatalogservice,network_out,39616123
2023-07-24T14:56:49.609Z,paymentservice-3,network_out,13567147
2023-07-24T14:56:51.039Z,currencyservice,network_out,45498019
2023-07-24T14:56:51.899Z,paymentservice-5,network_out,6781227
2023-07-24T14:56:52.927Z,paymentservice-2,network_out,20553047
2023-07-24T14:56:53.065Z,adservice,network_out,40220035
2023-07-24T14:56:55.045Z,paymentservice-1,network_out,27545034
2023-07-24T14:56:55.292Z,paymentservice-7,network_out,6852509
2023-07-24T14:56:55.404Z,cartservice,network_out,39589562
2023-07-24T14:56:55.826Z,emailservice,network_out,39107897
2023-07-24T14:56:56.698Z,probe-holder,network_out,669493395
2023-07-24T14:56:56.982Z,paymentservice-8,network_out,6786728
2023-07-24T14:56:57.439Z,paymentservice-6,network_out,6451452
2023-07-24T14:56:57.733Z,recommendationservice,network_out,23794959
2023-07-24T14:56:58.195Z,checkoutservice,network_out,40682298
2023-07-24T14:56:59.691Z,shippingservice,network_out,38293995
2023-07-24T14:56:59.187Z,paymentservice-4,network_out,14291243
2023-07-24T14:56:59.642Z,productcatalogservice,network_out,39636749
2023-07-24T14:56:59.609Z,paymentservice-3,network_out,13590496
2023-07-24T14:57:01.039Z,currencyservice,network_out,45522114
2023-07-24T14:57:01.899Z,paymentservice-5,network_out,6805321
2023-07-24T14:57:02.927Z,paymentservice-2,network_out,20576392
2023-07-24T14:57:03.065Z,adservice,network_out,40244246
2023-07-24T14:57:05.046Z,paymentservice-1,network_out,27563168
2023-07-24T14:57:05.292Z,paymentservice-7,network_out,6870665
2023-07-24T14:57:05.404Z,cartservice,network_out,39609931
2023-07-24T14:57:05.826Z,emailservice,network_out,39123864
2023-07-24T14:57:06.698Z,probe-holder,network_out,670316804
2023-07-24T14:57:06.982Z,paymentservice-8,network_out,6810834
2023-07-24T14:57:07.440Z,paymentservice-6,network_out,6474858
2023-07-24T14:57:07.733Z,recommendationservice,network_out,23815083
2023-07-24T14:57:08.195Z,checkoutservice,network_out,40703656
2023-07-24T14:57:09.691Z,shippingservice,network_out,38315546
2023-07-24T14:57:09.187Z,paymentservice-4,network_out,14315311
2023-07-24T14:57:09.643Z,productcatalogservice,network_out,39657380
2023-07-24T14:57:09.609Z,paymentservice-3,network_out,13609245
2023-07-24T14:57:11.039Z,currencyservice,network_out,45546314
2023-07-24T14:57:11.899Z,paymentservice-5,network_out,6824129
2023-07-24T14:57:12.927Z,paymentservice-2,network_out,20594516
2023-07-24T14:57:13.065Z,adservice,network_out,40263613
2023-07-24T14:57:15.046Z,paymentservice-1,network_out,27588027
2023-07-24T14:57:15.292Z,paymentservice-7,network_out,6893984
2023-07-24T14:57:15.404Z,cartservice,network_out,39625051
2023-07-24T14:57:15.826Z,emailservice,network_out,39145136
2023-07-24T14:57:16.698Z,probe-holder,network_out,671147820
2023-07-24T14:57:16.982Z,paymentservice-8,network_out,6837805
2023-07-24T14:57:17.439Z,paymentservice-6,network_out,6498228
2023-07-24T14:57:17.733Z,recommendationservice,network_out,23829909
2023-07-24T14:57:18.195Z,checkoutservice,network_out,40725192
2023-07-24T14:57:19.691Z,shippingservice,network_out,38336202
2023-07-24T14:57:19.187Z,paymentservice-4,network_out,14340116
2023-07-24T14:57:19.643Z,productcatalogservice,network_out,39680006
2023-07-24T14:57:19.609Z,paymentservice-3,network_out,13632575
2023-07-24T14:57:21.039Z,currencyservice,network_out,45568084
2023-07-24T14:57:21.899Z,paymentservice-5,network_out,6848204
2023-07-24T14:57:22.927Z,paymentservice-2,network_out,20618585
2023-07-24T14:57:23.065Z,adservice,network_out,40288755
2023-07-24T14:57:25.045Z,paymentservice-1,network_out,27611435
2023-07-24T14:57:25.292Z,paymentservice-7,network_out,6917333
2023-07-24T14:57:25.406Z,cartservice,network_out,39648286
2023-07-24T14:57:25.827Z,emailservice,network_out,39172351
2023-07-24T14:57:26.698Z,probe-holder,network_out,671975814
2023-07-24T14:57:26.982Z,paymentservice-8,network_out,6857275
2023-07-24T14:57:27.440Z,paymentservice-6,network_out,6519310
2023-07-24T14:57:27.733Z,recommendationservice,network_out,23850039
2023-07-24T14:57:28.195Z,checkoutservice,network_out,40741482
2023-07-24T14:57:29.691Z,shippingservice,network_out,38351579
2023-07-24T14:57:29.187Z,paymentservice-4,network_out,14358934
2023-07-24T14:57:29.643Z,productcatalogservice,network_out,39704155
2023-07-24T14:57:29.610Z,paymentservice-3,network_out,13655862
2023-07-24T14:57:31.039Z,currencyservice,network_out,45592154
2023-07-24T14:57:31.899Z,paymentservice-5,network_out,6875147
2023-07-24T14:57:32.927Z,paymentservice-2,network_out,20641958
2023-07-24T14:57:33.065Z,adservice,network_out,40312235
2023-07-24T14:57:35.046Z,paymentservice-1,network_out,27631020
2023-07-24T14:57:35.292Z,paymentservice-7,network_out,6935439
2023-07-24T14:57:35.404Z,cartservice,network_out,39669336
2023-07-24T14:57:35.826Z,emailservice,network_out,39189496
2023-07-24T14:57:36.698Z,probe-holder,network_out,672798734
2023-07-24T14:57:36.982Z,paymentservice-8,network_out,6881365
2023-07-24T14:57:37.440Z,paymentservice-6,network_out,6543610
2023-07-24T14:57:37.732Z,recommendationservice,network_out,23870873
2023-07-24T14:57:38.195Z,checkoutservice,network_out,40762845
2023-07-24T14:57:39.691Z,shippingservice,network_out,38372236
2023-07-24T14:57:39.187Z,paymentservice-4,network_out,14383065
2023-07-24T14:57:39.643Z,productcatalogservice,network_out,39725920
2023-07-24T14:57:39.609Z,paymentservice-3,network_out,13673993
2023-07-24T14:57:41.039Z,currencyservice,network_out,45617039
2023-07-24T14:57:41.899Z,paymentservice-5,network_out,6894726
2023-07-24T14:57:42.927Z,paymentservice-2,network_out,20660064
2023-07-24T14:57:43.065Z,adservice,network_out,40330461
2023-07-24T14:57:45.046Z,paymentservice-1,network_out,27655155
2023-07-24T14:57:45.292Z,paymentservice-7,network_out,6961788
2023-07-24T14:57:45.406Z,cartservice,network_out,39684453
2023-07-24T14:57:45.826Z,emailservice,network_out,39214772
2023-07-24T14:57:46.698Z,probe-holder,network_out,673626751
2023-07-24T14:57:46.982Z,paymentservice-8,network_out,6905411
2023-07-24T14:57:47.439Z,paymentservice-6,network_out,6567232
2023-07-24T14:57:47.733Z,recommendationservice,network_out,23885707
2023-07-24T14:57:48.195Z,checkoutservice,network_out,40788018
2023-07-24T14:57:49.691Z,shippingservice,network_out,38390510
2023-07-24T14:57:49.187Z,paymentservice-4,network_out,14407145
2023-07-24T14:57:49.643Z,productcatalogservice,network_out,39741213
2023-07-24T14:57:49.609Z,paymentservice-3,network_out,13700244
2023-07-24T14:57:51.039Z,currencyservice,network_out,45635889
2023-07-24T14:57:51.899Z,paymentservice-5,network_out,6918827
2023-07-24T14:57:52.927Z,paymentservice-2,network_out,20686335
2023-07-24T14:57:53.065Z,adservice,network_out,40353796
2023-07-24T14:57:55.046Z,paymentservice-1,network_out,27681497
2023-07-24T14:57:55.292Z,paymentservice-7,network_out,6985886
2023-07-24T14:57:55.404Z,cartservice,network_out,39704780
2023-07-24T14:57:55.826Z,emailservice,network_out,39236733
2023-07-24T14:57:56.698Z,probe-holder,network_out,674455120
2023-07-24T14:57:56.982Z,paymentservice-8,network_out,6924232
2023-07-24T14:57:57.440Z,paymentservice-6,network_out,6585434
2023-07-24T14:57:57.733Z,recommendationservice,network_out,23908717
2023-07-24T14:57:58.195Z,checkoutservice,network_out,40804261
2023-07-24T14:57:59.691Z,shippingservice,network_out,38414475
2023-07-24T14:57:59.187Z,paymentservice-4,network_out,14428844
2023-07-24T14:57:59.642Z,productcatalogservice,network_out,39761746
2023-07-24T14:57:59.609Z,paymentservice-3,network_out,13723596
2023-07-24T14:58:01.039Z,currencyservice,network_out,45659955
2023-07-24T14:58:01.899Z,paymentservice-5,network_out,6942974
2023-07-24T14:58:02.927Z,paymentservice-2,network_out,20709725
2023-07-24T14:58:03.065Z,adservice,network_out,40378021
2023-07-24T14:58:05.045Z,paymentservice-1,network_out,27701206
2023-07-24T14:58:05.292Z,paymentservice-7,network_out,7003930
2023-07-24T14:58:05.406Z,cartservice,network_out,39725105
2023-07-24T14:58:05.826Z,emailservice,network_out,39253856
2023-07-24T14:58:06.698Z,probe-holder,network_out,675278767
2023-07-24T14:58:06.982Z,paymentservice-8,network_out,6948337
2023-07-24T14:58:07.442Z,paymentservice-6,network_out,6608844
2023-07-24T14:58:07.733Z,recommendationservice,network_out,23928816
2023-07-24T14:58:08.195Z,checkoutservice,network_out,40825608
2023-07-24T14:58:09.691Z,shippingservice,network_out,38436593
2023-07-24T14:58:09.187Z,paymentservice-4,network_out,14452907
2023-07-24T14:58:09.642Z,productcatalogservice,network_out,39783446
2023-07-24T14:58:09.609Z,paymentservice-3,network_out,13742348
2023-07-24T14:58:11.039Z,currencyservice,network_out,45684144
2023-07-24T14:58:11.899Z,paymentservice-5,network_out,6961834
2023-07-24T14:58:12.927Z,paymentservice-2,network_out,20727819
2023-07-24T14:58:13.066Z,adservice,network_out,40396226
2023-07-24T14:58:15.046Z,paymentservice-1,network_out,27724605
2023-07-24T14:58:15.292Z,paymentservice-7,network_out,7027348
2023-07-24T14:58:15.404Z,cartservice,network_out,39740197
2023-07-24T14:58:15.826Z,emailservice,network_out,39275097
2023-07-24T14:58:16.698Z,probe-holder,network_out,676109789
2023-07-24T14:58:16.982Z,paymentservice-8,network_out,6975289
2023-07-24T14:58:17.440Z,paymentservice-6,network_out,6632327
2023-07-24T14:58:17.733Z,recommendationservice,network_out,23943607
2023-07-24T14:58:18.195Z,checkoutservice,network_out,40847098
2023-07-24T14:58:19.690Z,shippingservice,network_out,38452081
2023-07-24T14:58:19.187Z,paymentservice-4,network_out,14477701
2023-07-24T14:58:19.642Z,productcatalogservice,network_out,39802433
2023-07-24T14:58:19.609Z,paymentservice-3,network_out,13765723
2023-07-24T14:58:21.039Z,currencyservice,network_out,45705924
2023-07-24T14:58:21.899Z,paymentservice-5,network_out,6985926
2023-07-24T14:58:22.927Z,paymentservice-2,network_out,20751928
2023-07-24T14:58:23.067Z,adservice,network_out,40422486
2023-07-24T14:58:25.045Z,paymentservice-1,network_out,27749603
2023-07-24T14:58:25.292Z,paymentservice-7,network_out,7050715
2023-07-24T14:58:25.404Z,cartservice,network_out,39763417
2023-07-24T14:58:25.826Z,emailservice,network_out,39296393
2023-07-24T14:58:26.698Z,probe-holder,network_out,676937847
2023-07-24T14:58:26.982Z,paymentservice-8,network_out,6994750
2023-07-24T14:58:27.440Z,paymentservice-6,network_out,6654993
2023-07-24T14:58:27.733Z,recommendationservice,network_out,23963670
2023-07-24T14:58:28.195Z,checkoutservice,network_out,40863348
2023-07-24T14:58:29.691Z,shippingservice,network_out,38472778
2023-07-24T14:58:29.187Z,paymentservice-4,network_out,14496498
2023-07-24T14:58:29.642Z,productcatalogservice,network_out,39823090
2023-07-24T14:58:29.609Z,paymentservice-3,network_out,13789044
2023-07-24T14:58:31.039Z,currencyservice,network_out,45730010
2023-07-24T14:58:31.899Z,paymentservice-5,network_out,7012952
2023-07-24T14:58:32.927Z,paymentservice-2,network_out,20775259
2023-07-24T14:58:33.065Z,adservice,network_out,40445942
2023-07-24T14:58:35.045Z,paymentservice-1,network_out,27767717
2023-07-24T14:58:35.292Z,paymentservice-7,network_out,7068791
2023-07-24T14:58:35.404Z,cartservice,network_out,39784460
2023-07-24T14:58:35.826Z,emailservice,network_out,39312458
2023-07-24T14:58:36.698Z,probe-holder,network_out,677760715
2023-07-24T14:58:36.982Z,paymentservice-8,network_out,7018775
2023-07-24T14:58:37.439Z,paymentservice-6,network_out,6680333
2023-07-24T14:58:37.733Z,recommendationservice,network_out,23984502
2023-07-24T14:58:38.195Z,checkoutservice,network_out,40884777
2023-07-24T14:58:39.690Z,shippingservice,network_out,38493412
2023-07-24T14:58:39.187Z,paymentservice-4,network_out,14520580
2023-07-24T14:58:39.643Z,productcatalogservice,network_out,39843724
2023-07-24T14:58:39.609Z,paymentservice-3,network_out,13807110
2023-07-24T14:58:41.039Z,currencyservice,network_out,45754904
2023-07-24T14:58:41.899Z,paymentservice-5,network_out,7032455
2023-07-24T14:58:42.928Z,paymentservice-2,network_out,20793400
2023-07-24T14:58:43.065Z,adservice,network_out,40464157
2023-07-24T14:58:45.046Z,paymentservice-1,network_out,27793408
2023-07-24T14:58:45.292Z,paymentservice-7,network_out,7095062
2023-07-24T14:58:45.404Z,cartservice,network_out,39799548
2023-07-24T14:58:45.826Z,emailservice,network_out,39336570
2023-07-24T14:58:46.698Z,probe-holder,network_out,678588755
2023-07-24T14:58:46.982Z,paymentservice-8,network_out,7042797
2023-07-24T14:58:47.440Z,paymentservice-6,network_out,6703750
2023-07-24T14:58:47.733Z,recommendationservice,network_out,23999322
2023-07-24T14:58:48.195Z,checkoutservice,network_out,40909942
2023-07-24T14:58:49.691Z,shippingservice,network_out,38511678
2023-07-24T14:58:49.187Z,paymentservice-4,network_out,14544626
2023-07-24T14:58:49.643Z,productcatalogservice,network_out,39860212
2023-07-24T14:58:49.609Z,paymentservice-3,network_out,13833458
2023-07-24T14:58:51.039Z,currencyservice,network_out,45773777
2023-07-24T14:58:51.899Z,paymentservice-5,network_out,7056549
2023-07-24T14:58:52.927Z,paymentservice-2,network_out,20819663
2023-07-24T14:58:53.065Z,adservice,network_out,40487565
2023-07-24T14:58:55.046Z,paymentservice-1,network_out,27819784
2023-07-24T14:58:55.292Z,paymentservice-7,network_out,7119163
2023-07-24T14:58:55.404Z,cartservice,network_out,39819882
2023-07-24T14:58:55.826Z,emailservice,network_out,39359697
2023-07-24T14:58:56.698Z,probe-holder,network_out,679416701
2023-07-24T14:58:56.982Z,paymentservice-8,network_out,7061560
2023-07-24T14:58:57.440Z,paymentservice-6,network_out,6721893
2023-07-24T14:58:57.733Z,recommendationservice,network_out,24022353
2023-07-24T14:58:58.195Z,checkoutservice,network_out,40926157
2023-07-24T14:58:59.690Z,shippingservice,network_out,38533054
2023-07-24T14:58:59.187Z,paymentservice-4,network_out,14566296
2023-07-24T14:58:59.643Z,productcatalogservice,network_out,39880825
2023-07-24T14:58:59.609Z,paymentservice-3,network_out,13856824
2023-07-24T14:59:01.039Z,currencyservice,network_out,45797856
2023-07-24T14:59:01.899Z,paymentservice-5,network_out,7080664
2023-07-24T14:59:02.927Z,paymentservice-2,network_out,20842986
2023-07-24T14:59:03.065Z,adservice,network_out,40511743
2023-07-24T14:59:05.045Z,paymentservice-1,network_out,27837925
2023-07-24T14:59:05.292Z,paymentservice-7,network_out,7137243
2023-07-24T14:59:05.404Z,cartservice,network_out,39840235
2023-07-24T14:59:05.826Z,emailservice,network_out,39375706
2023-07-24T14:59:06.698Z,probe-holder,network_out,680239961
2023-07-24T14:59:06.982Z,paymentservice-8,network_out,7085645
2023-07-24T14:59:07.440Z,paymentservice-6,network_out,6745273
2023-07-24T14:59:07.733Z,recommendationservice,network_out,24042528
2023-07-24T14:59:08.195Z,checkoutservice,network_out,40947519
2023-07-24T14:59:09.691Z,shippingservice,network_out,38553716
2023-07-24T14:59:09.187Z,paymentservice-4,network_out,14590352
2023-07-24T14:59:09.643Z,productcatalogservice,network_out,39901392
2023-07-24T14:59:09.609Z,paymentservice-3,network_out,13875614
2023-07-24T14:59:11.039Z,currencyservice,network_out,45822048
2023-07-24T14:59:11.899Z,paymentservice-5,network_out,7099499
2023-07-24T14:59:12.927Z,paymentservice-2,network_out,20861111
2023-07-24T14:59:13.065Z,adservice,network_out,40529947
2023-07-24T14:59:15.046Z,paymentservice-1,network_out,27862869
2023-07-24T14:59:15.292Z,paymentservice-7,network_out,7160590
2023-07-24T14:59:15.404Z,cartservice,network_out,39855325
2023-07-24T14:59:15.826Z,emailservice,network_out,39396948
2023-07-24T14:59:16.698Z,probe-holder,network_out,681070711
2023-07-24T14:59:16.982Z,paymentservice-8,network_out,7107292
2023-07-24T14:59:17.440Z,paymentservice-6,network_out,6768675
2023-07-24T14:59:17.732Z,recommendationservice,network_out,24057365
2023-07-24T14:59:18.195Z,checkoutservice,network_out,40969127
2023-07-24T14:59:19.691Z,shippingservice,network_out,38569108
2023-07-24T14:59:19.189Z,paymentservice-4,network_out,14615153
2023-07-24T14:59:19.643Z,productcatalogservice,network_out,39920357
2023-07-24T14:59:19.609Z,paymentservice-3,network_out,13898997
2023-07-24T14:59:21.039Z,currencyservice,network_out,45843855
2023-07-24T14:59:21.899Z,paymentservice-5,network_out,7123586
2023-07-24T14:59:22.927Z,paymentservice-2,network_out,20885212
2023-07-24T14:59:23.065Z,adservice,network_out,40556206
2023-07-24T14:59:25.045Z,paymentservice-1,network_out,27881103
2023-07-24T14:59:25.292Z,paymentservice-7,network_out,7183985
2023-07-24T14:59:25.406Z,cartservice,network_out,39878546
2023-07-24T14:59:25.826Z,emailservice,network_out,39418278
2023-07-24T14:59:26.698Z,probe-holder,network_out,681898660
2023-07-24T14:59:26.982Z,paymentservice-8,network_out,7132035
2023-07-24T14:59:27.440Z,paymentservice-6,network_out,6789713
2023-07-24T14:59:27.733Z,recommendationservice,network_out,24077494
2023-07-24T14:59:28.195Z,checkoutservice,network_out,40985372
2023-07-24T14:59:29.691Z,shippingservice,network_out,38589763
2023-07-24T14:59:29.187Z,paymentservice-4,network_out,14633937
2023-07-24T14:59:29.643Z,productcatalogservice,network_out,39940971
2023-07-24T14:59:29.609Z,paymentservice-3,network_out,13922334
2023-07-24T14:59:31.039Z,currencyservice,network_out,45867923
2023-07-24T14:59:31.899Z,paymentservice-5,network_out,7150574
2023-07-24T14:59:32.927Z,paymentservice-2,network_out,20908536
2023-07-24T14:59:33.065Z,adservice,network_out,40579654
2023-07-24T14:59:35.045Z,paymentservice-1,network_out,27906050
2023-07-24T14:59:35.292Z,paymentservice-7,network_out,7202089
2023-07-24T14:59:35.404Z,cartservice,network_out,39899577
2023-07-24T14:59:35.826Z,emailservice,network_out,39434274
2023-07-24T14:59:36.698Z,probe-holder,network_out,682721190
2023-07-24T14:59:36.982Z,paymentservice-8,network_out,7156053
2023-07-24T14:59:37.440Z,paymentservice-6,network_out,6813853
2023-07-24T14:59:37.733Z,recommendationservice,network_out,24098405
2023-07-24T14:59:38.195Z,checkoutservice,network_out,41006776
2023-07-24T14:59:39.691Z,shippingservice,network_out,38610437
2023-07-24T14:59:39.187Z,paymentservice-4,network_out,14658009
2023-07-24T14:59:39.643Z,productcatalogservice,network_out,39961500
2023-07-24T14:59:39.609Z,paymentservice-3,network_out,13940449
2023-07-24T14:59:41.040Z,currencyservice,network_out,45892801
2023-07-24T14:59:41.899Z,paymentservice-5,network_out,7170108
2023-07-24T14:59:42.927Z,paymentservice-2,network_out,20926637
2023-07-24T14:59:43.065Z,adservice,network_out,40597882
2023-07-24T14:59:45.045Z,paymentservice-1,network_out,27930202
2023-07-24T14:59:45.292Z,paymentservice-7,network_out,7228322
2023-07-24T14:59:45.404Z,cartservice,network_out,39914667
2023-07-24T14:59:45.826Z,emailservice,network_out,39458387
2023-07-24T14:59:46.698Z,probe-holder,network_out,683549159
2023-07-24T14:59:46.982Z,paymentservice-8,network_out,7174793
2023-07-24T14:59:47.440Z,paymentservice-6,network_out,6837245
2023-07-24T14:59:47.733Z,recommendationservice,network_out,24113227
2023-07-24T14:59:48.195Z,checkoutservice,network_out,41031874
2023-07-24T14:59:49.691Z,shippingservice,network_out,38628710
2023-07-24T14:59:49.187Z,paymentservice-4,network_out,14682096
2023-07-24T14:59:49.643Z,productcatalogservice,network_out,39976841
2023-07-24T14:59:49.610Z,paymentservice-3,network_out,13966681
2023-07-24T14:59:51.039Z,currencyservice,network_out,45911757
2023-07-24T14:59:51.899Z,paymentservice-5,network_out,7194165
2023-07-24T14:59:52.927Z,paymentservice-2,network_out,20952886
2023-07-24T14:59:53.065Z,adservice,network_out,40621321
2023-07-24T14:59:55.046Z,paymentservice-1,network_out,27951304
2023-07-24T14:59:55.292Z,paymentservice-7,network_out,7252439
2023-07-24T14:59:55.404Z,cartservice,network_out,39935014
2023-07-24T14:59:55.826Z,emailservice,network_out,39480369
2023-07-24T14:59:56.698Z,probe-holder,network_out,684377121
2023-07-24T14:59:56.982Z,paymentservice-8,network_out,7198839
2023-07-24T14:59:57.439Z,paymentservice-6,network_out,6855390
2023-07-24T14:59:57.733Z,recommendationservice,network_out,24136227
2023-07-24T14:59:58.195Z,checkoutservice,network_out,41048129
2023-07-24T14:59:59.691Z,shippingservice,network_out,38650114
2023-07-24T14:59:59.187Z,paymentservice-4,network_out,14703797
2023-07-24T14:59:59.643Z,productcatalogservice,network_out,39997476
2023-07-24T14:59:59.609Z,paymentservice-3,network_out,13990021
2023-07-24T15:00:01.039Z,currencyservice,network_out,45935915
2023-07-24T15:00:01.899Z,paymentservice-5,network_out,7218252
2023-07-24T15:00:02.927Z,paymentservice-2,network_out,20976286
2023-07-24T15:00:03.065Z,adservice,network_out,40645495
2023-07-24T15:00:05.045Z,paymentservice-1,network_out,27976330
2023-07-24T15:00:05.292Z,paymentservice-7,network_out,7270558
2023-07-24T15:00:05.404Z,cartservice,network_out,39956900
2023-07-24T15:00:05.826Z,emailservice,network_out,39496366
2023-07-24T15:00:06.699Z,probe-holder,network_out,685200470
2023-07-24T15:00:06.982Z,paymentservice-8,network_out,7222856
2023-07-24T15:00:07.439Z,paymentservice-6,network_out,6878814
2023-07-24T15:00:07.733Z,recommendationservice,network_out,24156382
2023-07-24T15:00:08.195Z,checkoutservice,network_out,41069541
2023-07-24T15:00:09.691Z,shippingservice,network_out,38670762
2023-07-24T15:00:09.187Z,paymentservice-4,network_out,14727816
2023-07-24T15:00:09.643Z,productcatalogservice,network_out,40018098
2023-07-24T15:00:09.610Z,paymentservice-3,network_out,14008806
2023-07-24T15:00:11.039Z,currencyservice,network_out,45960112
2023-07-24T15:00:11.899Z,paymentservice-5,network_out,7237064
2023-07-24T15:00:12.927Z,paymentservice-2,network_out,20994382
2023-07-24T15:00:13.065Z,adservice,network_out,40663693
2023-07-24T15:00:15.045Z,paymentservice-1,network_out,27999701
2023-07-24T15:00:15.292Z,paymentservice-7,network_out,7293989
2023-07-24T15:00:15.404Z,cartservice,network_out,39971988
2023-07-24T15:00:15.826Z,emailservice,network_out,39517630
2023-07-24T15:00:16.698Z,probe-holder,network_out,686031348
2023-07-24T15:00:16.982Z,paymentservice-8,network_out,7244593
2023-07-24T15:00:17.440Z,paymentservice-6,network_out,6902230
2023-07-24T15:00:17.733Z,recommendationservice,network_out,24171271
2023-07-24T15:00:18.195Z,checkoutservice,network_out,41091022
2023-07-24T15:00:19.691Z,shippingservice,network_out,38686184
2023-07-24T15:00:19.187Z,paymentservice-4,network_out,14752663
2023-07-24T15:00:19.643Z,productcatalogservice,network_out,40036948
2023-07-24T15:00:19.609Z,paymentservice-3,network_out,14032171
2023-07-24T15:00:21.039Z,currencyservice,network_out,45981893
2023-07-24T15:00:21.899Z,paymentservice-5,network_out,7261127
2023-07-24T15:00:22.927Z,paymentservice-2,network_out,21018442
2023-07-24T15:00:23.065Z,adservice,network_out,40689978
2023-07-24T15:00:25.045Z,paymentservice-1,network_out,28019380
2023-07-24T15:00:25.292Z,paymentservice-7,network_out,7317360
2023-07-24T15:00:25.404Z,cartservice,network_out,39995194
2023-07-24T15:00:25.826Z,emailservice,network_out,39538940
2023-07-24T15:00:26.698Z,probe-holder,network_out,686859434
2023-07-24T15:00:26.982Z,paymentservice-8,network_out,7269317
2023-07-24T15:00:27.439Z,paymentservice-6,network_out,6923245
2023-07-24T15:00:27.733Z,recommendationservice,network_out,24191419
2023-07-24T15:00:28.195Z,checkoutservice,network_out,41107304
2023-07-24T15:00:29.691Z,shippingservice,network_out,38706838
2023-07-24T15:00:29.187Z,paymentservice-4,network_out,14771461
2023-07-24T15:00:29.642Z,productcatalogservice,network_out,40057568
2023-07-24T15:00:29.610Z,paymentservice-3,network_out,14055492
2023-07-24T15:00:31.039Z,currencyservice,network_out,46006029
2023-07-24T15:00:31.899Z,paymentservice-5,network_out,7284008
2023-07-24T15:00:32.927Z,paymentservice-2,network_out,21041828
2023-07-24T15:00:33.065Z,adservice,network_out,40713535
2023-07-24T15:00:35.045Z,paymentservice-1,network_out,28042790
2023-07-24T15:00:35.292Z,paymentservice-7,network_out,7335543
2023-07-24T15:00:35.404Z,cartservice,network_out,40016259
2023-07-24T15:00:35.826Z,emailservice,network_out,39567207
2023-07-24T15:00:36.698Z,probe-holder,network_out,687682323
2023-07-24T15:00:36.982Z,paymentservice-8,network_out,7293316
2023-07-24T15:00:37.440Z,paymentservice-6,network_out,6947413
2023-07-24T15:00:37.733Z,recommendationservice,network_out,24206277
2023-07-24T15:00:38.195Z,checkoutservice,network_out,41128688
2023-07-24T15:00:39.691Z,shippingservice,network_out,38727486
2023-07-24T15:00:39.187Z,paymentservice-4,network_out,14795505
2023-07-24T15:00:39.644Z,productcatalogservice,network_out,40072871
2023-07-24T15:00:39.609Z,paymentservice-3,network_out,14073576
2023-07-24T15:00:41.039Z,currencyservice,network_out,46030895
2023-07-24T15:00:41.899Z,paymentservice-5,network_out,7307673
2023-07-24T15:00:42.927Z,paymentservice-2,network_out,21059923
2023-07-24T15:00:43.067Z,adservice,network_out,40731739
2023-07-24T15:00:45.045Z,paymentservice-1,network_out,28066998
2023-07-24T15:00:45.292Z,paymentservice-7,network_out,7361873
2023-07-24T15:00:45.404Z,cartservice,network_out,40031357
2023-07-24T15:00:45.826Z,emailservice,network_out,39607518
2023-07-24T15:00:46.698Z,probe-holder,network_out,688510311
2023-07-24T15:00:46.982Z,paymentservice-8,network_out,7312076
2023-07-24T15:00:47.440Z,paymentservice-6,network_out,6971033
2023-07-24T15:00:47.733Z,recommendationservice,network_out,24227107
2023-07-24T15:00:48.195Z,checkoutservice,network_out,41153860
2023-07-24T15:00:49.691Z,shippingservice,network_out,38745769
2023-07-24T15:00:49.187Z,paymentservice-4,network_out,14819544
2023-07-24T15:00:49.643Z,productcatalogservice,network_out,40093455
2023-07-24T15:00:49.609Z,paymentservice-3,network_out,14099825
2023-07-24T15:00:51.039Z,currencyservice,network_out,46049751
2023-07-24T15:00:51.899Z,paymentservice-5,network_out,7331788
2023-07-24T15:00:52.927Z,paymentservice-2,network_out,21086180
2023-07-24T15:00:53.065Z,adservice,network_out,40755136
2023-07-24T15:00:55.046Z,paymentservice-1,network_out,28089581
2023-07-24T15:00:55.292Z,paymentservice-7,network_out,7385958
2023-07-24T15:00:55.404Z,cartservice,network_out,40051694
2023-07-24T15:00:55.826Z,emailservice,network_out,39644703
2023-07-24T15:00:56.698Z,probe-holder,network_out,689338271
2023-07-24T15:00:56.982Z,paymentservice-8,network_out,7336082
2023-07-24T15:00:57.439Z,paymentservice-6,network_out,6989214
2023-07-24T15:00:57.732Z,recommendationservice,network_out,24250106
2023-07-24T15:00:58.195Z,checkoutservice,network_out,41170129
2023-07-24T15:00:59.691Z,shippingservice,network_out,38767126
2023-07-24T15:00:59.187Z,paymentservice-4,network_out,14841274
2023-07-24T15:00:59.643Z,productcatalogservice,network_out,40114037
2023-07-24T15:00:59.609Z,paymentservice-3,network_out,14117924
2023-07-24T15:01:01.039Z,currencyservice,network_out,46073855
2023-07-24T15:01:01.899Z,paymentservice-5,network_out,7350606
2023-07-24T15:01:02.928Z,paymentservice-2,network_out,21109576
2023-07-24T15:01:03.065Z,adservice,network_out,40779267
2023-07-24T15:01:05.045Z,paymentservice-1,network_out,28113004
2023-07-24T15:01:05.292Z,paymentservice-7,network_out,7404086
2023-07-24T15:01:05.404Z,cartservice,network_out,40072032
2023-07-24T15:01:05.826Z,emailservice,network_out,39675933
2023-07-24T15:01:06.698Z,probe-holder,network_out,690161801
2023-07-24T15:01:06.982Z,paymentservice-8,network_out,7360134
2023-07-24T15:01:07.439Z,paymentservice-6,network_out,7012645
2023-07-24T15:01:07.732Z,recommendationservice,network_out,24264962
2023-07-24T15:01:08.195Z,checkoutservice,network_out,41191504
2023-07-24T15:01:09.691Z,shippingservice,network_out,38787747
2023-07-24T15:01:09.187Z,paymentservice-4,network_out,14865352
2023-07-24T15:01:09.642Z,productcatalogservice,network_out,40129375
2023-07-24T15:01:09.609Z,paymentservice-3,network_out,14142000
2023-07-24T15:01:11.039Z,currencyservice,network_out,46098058
2023-07-24T15:01:11.900Z,paymentservice-5,network_out,7374775
2023-07-24T15:01:12.927Z,paymentservice-2,network_out,21127725
2023-07-24T15:01:13.065Z,adservice,network_out,40797493
2023-07-24T15:01:15.045Z,paymentservice-1,network_out,28137951
2023-07-24T15:01:15.292Z,paymentservice-7,network_out,7427436
2023-07-24T15:01:15.404Z,cartservice,network_out,40087161
2023-07-24T15:01:15.826Z,emailservice,network_out,39712230
2023-07-24T15:01:16.698Z,probe-holder,network_out,690992761
2023-07-24T15:01:16.982Z,paymentservice-8,network_out,7381898
2023-07-24T15:01:17.439Z,paymentservice-6,network_out,7036020
2023-07-24T15:01:17.733Z,recommendationservice,network_out,24285096
2023-07-24T15:01:18.195Z,checkoutservice,network_out,41213022
2023-07-24T15:01:19.691Z,shippingservice,network_out,38803127
2023-07-24T15:01:19.187Z,paymentservice-4,network_out,14890130
2023-07-24T15:01:19.643Z,productcatalogservice,network_out,40153612
2023-07-24T15:01:19.609Z,paymentservice-3,network_out,14165363
2023-07-24T15:01:21.039Z,currencyservice,network_out,46119809
2023-07-24T15:01:21.899Z,paymentservice-5,network_out,7398899
2023-07-24T15:01:22.927Z,paymentservice-2,network_out,21151810
2023-07-24T15:01:23.065Z,adservice,network_out,40823770
2023-07-24T15:01:25.046Z,paymentservice-1,network_out,28156199
2023-07-24T15:01:25.292Z,paymentservice-7,network_out,7450856
2023-07-24T15:01:25.404Z,cartservice,network_out,40110392
2023-07-24T15:01:25.826Z,emailservice,network_out,39748566
2023-07-24T15:01:26.698Z,probe-holder,network_out,691820810
2023-07-24T15:01:26.982Z,paymentservice-8,network_out,7406661
2023-07-24T15:01:27.440Z,paymentservice-6,network_out,7057085
2023-07-24T15:01:27.733Z,recommendationservice,network_out,24305239
2023-07-24T15:01:28.195Z,checkoutservice,network_out,41229273
2023-07-24T15:01:29.690Z,shippingservice,network_out,38823797
2023-07-24T15:01:29.187Z,paymentservice-4,network_out,14908916
2023-07-24T15:01:29.643Z,productcatalogservice,network_out,40174246
2023-07-24T15:01:29.609Z,paymentservice-3,network_out,14183485
2023-07-24T15:01:31.039Z,currencyservice,network_out,46143893
2023-07-24T15:01:31.899Z,paymentservice-5,network_out,7420591
2023-07-24T15:01:32.927Z,paymentservice-2,network_out,21175212
2023-07-24T15:01:33.065Z,adservice,network_out,40847193
2023-07-24T15:01:35.045Z,paymentservice-1,network_out,28181210
2023-07-24T15:01:35.292Z,paymentservice-7,network_out,7469022
2023-07-24T15:01:35.404Z,cartservice,network_out,40131441
2023-07-24T15:01:35.826Z,emailservice,network_out,39772675
2023-07-24T15:01:36.699Z,probe-holder,network_out,692643461
2023-07-24T15:01:36.982Z,paymentservice-8,network_out,7430700
2023-07-24T15:01:37.440Z,paymentservice-6,network_out,7081175
2023-07-24T15:01:37.732Z,recommendationservice,network_out,24320110
2023-07-24T15:01:38.195Z,checkoutservice,network_out,41250669
2023-07-24T15:01:39.691Z,shippingservice,network_out,38844462
2023-07-24T15:01:39.187Z,paymentservice-4,network_out,14932957
2023-07-24T15:01:39.643Z,productcatalogservice,network_out,40189486
2023-07-24T15:01:39.609Z,paymentservice-3,network_out,14206822
2023-07-24T15:01:41.039Z,currencyservice,network_out,46168737
2023-07-24T15:01:41.899Z,paymentservice-5,network_out,7445392
2023-07-24T15:01:42.927Z,paymentservice-2,network_out,21193333
2023-07-24T15:01:43.065Z,adservice,network_out,40865387
2023-07-24T15:01:45.045Z,paymentservice-1,network_out,28205357
2023-07-24T15:01:45.292Z,paymentservice-7,network_out,7495319
2023-07-24T15:01:45.406Z,cartservice,network_out,40146554
2023-07-24T15:01:45.826Z,emailservice,network_out,39796827
2023-07-24T15:01:46.698Z,probe-holder,network_out,693471337
2023-07-24T15:01:46.982Z,paymentservice-8,network_out,7449453
2023-07-24T15:01:47.440Z,paymentservice-6,network_out,7104602
2023-07-24T15:01:47.733Z,recommendationservice,network_out,24340995
2023-07-24T15:01:48.195Z,checkoutservice,network_out,41275772
2023-07-24T15:01:49.691Z,shippingservice,network_out,38862746
2023-07-24T15:01:49.187Z,paymentservice-4,network_out,14957110
2023-07-24T15:01:49.643Z,productcatalogservice,network_out,40209995
2023-07-24T15:01:49.609Z,paymentservice-3,network_out,14233079
2023-07-24T15:01:51.039Z,currencyservice,network_out,46187656
2023-07-24T15:01:51.899Z,paymentservice-5,network_out,7469461
2023-07-24T15:01:52.927Z,paymentservice-2,network_out,21219573
2023-07-24T15:01:53.066Z,adservice,network_out,40892168
2023-07-24T15:01:55.045Z,paymentservice-1,network_out,28230496
2023-07-24T15:01:55.292Z,paymentservice-7,network_out,7519395
2023-07-24T15:01:55.404Z,cartservice,network_out,40184089
2023-07-24T15:01:55.826Z,emailservice,network_out,39836179
2023-07-24T15:01:56.698Z,probe-holder,network_out,694299321
2023-07-24T15:01:56.982Z,paymentservice-8,network_out,7482965
2023-07-24T15:01:57.440Z,paymentservice-6,network_out,7140097
2023-07-24T15:01:57.733Z,recommendationservice,network_out,24381085
2023-07-24T15:01:58.195Z,checkoutservice,network_out,41309345
2023-07-24T15:01:59.691Z,shippingservice,network_out,38901194
2023-07-24T15:01:59.187Z,paymentservice-4,network_out,14995995
2023-07-24T15:01:59.643Z,productcatalogservice,network_out,40247866
