2023-07-04T15:19:15.730Z,blackbox-exporter,cpu,1851078
2023-07-04T15:19:15.730Z,redis-exporter-dev-team,cpu,699363
2023-07-04T15:19:12.952Z,redis-exporter-dbops-team,cpu,6482
2023-07-04T15:19:23.310Z,redis-exporter-dbops-team,cpu,1312104
2023-07-04T15:19:26.094Z,redis-exporter-dev-team,cpu,2147
2023-07-04T15:19:26.094Z,blackbox-exporter,cpu,1851078
2023-07-04T15:19:33.310Z,redis-exporter-dbops-team,cpu,1312104
2023-07-04T15:19:36.094Z,blackbox-exporter,cpu,1851078
2023-07-04T15:19:36.094Z,redis-exporter-dev-team,cpu,2147
2023-07-04T15:19:43.310Z,redis-exporter-dbops-team,cpu,0
2023-07-04T15:19:46.094Z,redis-exporter-dev-team,cpu,2147
2023-07-04T15:19:46.094Z,blackbox-exporter,cpu,1059556
2023-07-04T15:19:53.310Z,redis-exporter-dbops-team,cpu,462381
2023-07-04T15:19:56.094Z,redis-exporter-dev-team,cpu,575447
2023-07-04T15:19:56.094Z,blackbox-exporter,cpu,1059556
2023-07-04T15:20:03.310Z,redis-exporter-dbops-team,cpu,462381
2023-07-04T15:20:06.094Z,redis-exporter-dev-team,cpu,0
2023-07-04T15:20:06.094Z,blackbox-exporter,cpu,1499022
2023-07-04T15:20:13.311Z,redis-exporter-dbops-team,cpu,0
2023-07-04T15:20:16.094Z,blackbox-exporter,cpu,1072485
2023-07-04T15:20:16.094Z,redis-exporter-dev-team,cpu,0
2023-07-04T15:20:23.311Z,redis-exporter-dbops-team,cpu,0
2023-07-04T15:20:26.094Z,blackbox-exporter,cpu,1072485
2023-07-04T15:20:26.094Z,redis-exporter-dev-team,cpu,0
2023-07-04T15:20:33.310Z,redis-exporter-dbops-team,cpu,0
2023-07-04T15:20:36.094Z,redis-exporter-dev-team,cpu,476032
2023-07-04T15:20:36.094Z,blackbox-exporter,cpu,1603318
2023-07-04T15:20:43.311Z,redis-exporter-dbops-team,cpu,363430
2023-07-04T15:20:46.094Z,redis-exporter-dev-team,cpu,737422
2023-07-04T15:20:46.094Z,blackbox-exporter,cpu,1487662
2023-07-04T15:20:53.311Z,redis-exporter-dbops-team,cpu,1113524
2023-07-04T15:20:56.094Z,redis-exporter-dev-team,cpu,737422
2023-07-04T15:20:56.094Z,blackbox-exporter,cpu,1487662
2023-07-04T15:21:03.310Z,redis-exporter-dbops-team,cpu,1113524
2023-07-04T15:21:06.093Z,blackbox-exporter,cpu,1467912
2023-07-04T15:21:06.093Z,redis-exporter-dev-team,cpu,0
2023-07-04T15:21:13.310Z,redis-exporter-dbops-team,cpu,0
2023-07-04T15:21:16.094Z,blackbox-exporter,cpu,1075439
2023-07-04T15:21:16.094Z,redis-exporter-dev-team,cpu,437807
2023-07-04T15:21:23.310Z,redis-exporter-dbops-team,cpu,3035
2023-07-04T15:21:26.093Z,blackbox-exporter,cpu,1075439
2023-07-04T15:21:26.093Z,redis-exporter-dev-team,cpu,437807
2023-07-04T15:21:33.310Z,redis-exporter-dbops-team,cpu,475864
2023-07-04T15:21:36.093Z,redis-exporter-dev-team,cpu,437807
2023-07-04T15:21:36.093Z,blackbox-exporter,cpu,1077690
2023-07-04T15:21:43.310Z,redis-exporter-dbops-team,cpu,475864
2023-07-04T15:21:46.094Z,blackbox-exporter,cpu,1283415
2023-07-04T15:21:46.094Z,redis-exporter-dev-team,cpu,886310
2023-07-04T15:21:53.311Z,redis-exporter-dbops-team,cpu,3409
2023-07-04T15:21:56.093Z,blackbox-exporter,cpu,1283415
2023-07-04T15:21:56.093Z,redis-exporter-dev-team,cpu,886310
2023-07-04T15:22:03.310Z,redis-exporter-dbops-team,cpu,521955
2023-07-04T15:22:06.094Z,blackbox-exporter,cpu,1194542
2023-07-04T15:22:06.094Z,redis-exporter-dev-team,cpu,14039
2023-07-04T15:22:13.311Z,redis-exporter-dbops-team,cpu,521955
2023-07-04T15:22:16.094Z,redis-exporter-dev-team,cpu,773585
2023-07-04T15:22:16.094Z,blackbox-exporter,cpu,1194542
2023-07-04T15:22:23.310Z,redis-exporter-dbops-team,cpu,521955
2023-07-04T15:22:26.094Z,redis-exporter-dev-team,cpu,773585
2023-07-04T15:22:26.094Z,blackbox-exporter,cpu,1137933
2023-07-04T15:22:33.310Z,redis-exporter-dbops-team,cpu,576991
2023-07-04T15:22:36.093Z,blackbox-exporter,cpu,1137933
2023-07-04T15:22:36.093Z,redis-exporter-dev-team,cpu,0
2023-07-04T15:22:43.311Z,redis-exporter-dbops-team,cpu,0
2023-07-04T15:22:46.093Z,blackbox-exporter,cpu,872076
2023-07-04T15:22:46.093Z,redis-exporter-dev-team,cpu,357365
2023-07-04T15:22:53.310Z,redis-exporter-dbops-team,cpu,0
2023-07-04T15:22:56.094Z,blackbox-exporter,cpu,1326763
2023-07-04T15:22:56.094Z,redis-exporter-dev-team,cpu,357365
2023-07-04T15:23:03.310Z,redis-exporter-dbops-team,cpu,545494
2023-07-04T15:23:06.094Z,redis-exporter-dev-team,cpu,357365
2023-07-04T15:23:06.094Z,blackbox-exporter,cpu,1326763
2023-07-04T15:23:13.311Z,redis-exporter-dbops-team,cpu,0
2023-07-04T15:23:16.094Z,blackbox-exporter,cpu,904901
2023-07-04T15:23:16.094Z,redis-exporter-dev-team,cpu,24265
2023-07-04T15:23:23.310Z,redis-exporter-dbops-team,cpu,484066
2023-07-04T15:23:26.094Z,blackbox-exporter,cpu,1144176
2023-07-04T15:23:26.094Z,redis-exporter-dev-team,cpu,677679
2023-07-04T15:23:33.311Z,redis-exporter-dbops-team,cpu,2820
2023-07-04T15:23:36.093Z,blackbox-exporter,cpu,1144176
2023-07-04T15:23:36.093Z,redis-exporter-dev-team,cpu,677679
2023-07-04T15:23:43.311Z,redis-exporter-dbops-team,cpu,2820
2023-07-04T15:23:46.094Z,blackbox-exporter,cpu,949878
2023-07-04T15:23:46.094Z,redis-exporter-dev-team,cpu,2204
2023-07-04T15:23:53.311Z,redis-exporter-dbops-team,cpu,2820
2023-07-04T15:23:56.094Z,blackbox-exporter,cpu,947659
2023-07-04T15:23:56.094Z,redis-exporter-dev-team,cpu,1092345
2023-07-04T15:24:03.310Z,redis-exporter-dbops-team,cpu,575348
2023-07-04T15:24:06.094Z,redis-exporter-dev-team,cpu,1351
2023-07-04T15:24:06.094Z,blackbox-exporter,cpu,1223604
2023-07-04T15:24:13.311Z,redis-exporter-dbops-team,cpu,5528
2023-07-04T15:24:16.095Z,redis-exporter-dev-team,cpu,1351
2023-07-04T15:24:16.095Z,blackbox-exporter,cpu,1227089
2023-07-04T15:24:23.310Z,redis-exporter-dbops-team,cpu,531728
2023-07-04T15:24:26.094Z,blackbox-exporter,cpu,1124614
2023-07-04T15:24:26.094Z,redis-exporter-dev-team,cpu,0
2023-07-04T15:24:33.310Z,redis-exporter-dbops-team,cpu,531728
2023-07-04T15:24:36.094Z,blackbox-exporter,cpu,1124614
2023-07-04T15:24:36.094Z,redis-exporter-dev-team,cpu,0
2023-07-04T15:24:43.310Z,redis-exporter-dbops-team,cpu,531728
2023-07-04T15:24:46.094Z,blackbox-exporter,cpu,1124614
2023-07-04T15:24:46.094Z,redis-exporter-dev-team,cpu,0
2023-07-04T15:24:53.310Z,redis-exporter-dbops-team,cpu,2264
2023-07-04T15:24:56.093Z,redis-exporter-dev-team,cpu,357429
2023-07-04T15:24:56.093Z,blackbox-exporter,cpu,897622
2023-07-04T15:25:03.310Z,redis-exporter-dbops-team,cpu,9351
2023-07-04T15:25:06.093Z,redis-exporter-dev-team,cpu,693214
2023-07-04T15:25:06.093Z,blackbox-exporter,cpu,1150837
2023-07-04T15:25:13.310Z,redis-exporter-dbops-team,cpu,9351
2023-07-04T15:25:16.093Z,blackbox-exporter,cpu,1150837
2023-07-04T15:25:16.093Z,redis-exporter-dev-team,cpu,693214
2023-07-04T15:25:23.310Z,redis-exporter-dbops-team,cpu,9351
2023-07-04T15:25:26.093Z,redis-exporter-dev-team,cpu,693214
2023-07-04T15:25:26.093Z,blackbox-exporter,cpu,1150837
2023-07-04T15:25:33.310Z,redis-exporter-dbops-team,cpu,11964
2023-07-04T15:25:36.094Z,blackbox-exporter,cpu,920899
2023-07-04T15:25:36.094Z,redis-exporter-dev-team,cpu,3993
2023-07-04T15:25:43.310Z,redis-exporter-dbops-team,cpu,11964
2023-07-04T15:25:46.093Z,redis-exporter-dev-team,cpu,3993
2023-07-04T15:25:46.093Z,blackbox-exporter,cpu,920899
2023-07-04T15:25:53.310Z,redis-exporter-dbops-team,cpu,11964
2023-07-04T15:25:56.093Z,blackbox-exporter,cpu,1108217
2023-07-04T15:25:56.093Z,redis-exporter-dev-team,cpu,626355
2023-07-04T15:26:03.310Z,redis-exporter-dbops-team,cpu,532727
2023-07-04T15:26:06.093Z,blackbox-exporter,cpu,773526
2023-07-04T15:26:06.093Z,redis-exporter-dev-team,cpu,0
2023-07-04T15:26:13.311Z,redis-exporter-dbops-team,cpu,24928
2023-07-04T15:26:16.094Z,redis-exporter-dev-team,cpu,416461
2023-07-04T15:26:16.094Z,blackbox-exporter,cpu,1076748
2023-07-04T15:26:23.311Z,redis-exporter-dbops-team,cpu,887968
2023-07-04T15:26:26.093Z,redis-exporter-dev-team,cpu,416461
2023-07-04T15:26:26.093Z,blackbox-exporter,cpu,1076748
2023-07-04T15:26:33.311Z,redis-exporter-dbops-team,cpu,887968
2023-07-04T15:26:36.094Z,redis-exporter-dev-team,cpu,34088
2023-07-04T15:26:36.094Z,blackbox-exporter,cpu,1073859
2023-07-04T15:26:43.310Z,redis-exporter-dbops-team,cpu,887968
2023-07-04T15:26:46.093Z,blackbox-exporter,cpu,832107
2023-07-04T15:26:46.093Z,redis-exporter-dev-team,cpu,34088
2023-07-04T15:26:53.310Z,redis-exporter-dbops-team,cpu,31691
2023-07-04T15:26:56.094Z,blackbox-exporter,cpu,885230
2023-07-04T15:26:56.094Z,redis-exporter-dev-team,cpu,638546
2023-07-04T15:27:03.310Z,redis-exporter-dbops-team,cpu,31691
2023-07-04T15:27:06.094Z,blackbox-exporter,cpu,885230
2023-07-04T15:27:06.094Z,redis-exporter-dev-team,cpu,638546
2023-07-04T15:27:13.311Z,redis-exporter-dbops-team,cpu,2106
2023-07-04T15:27:16.094Z,redis-exporter-dev-team,cpu,13416
2023-07-04T15:27:16.094Z,blackbox-exporter,cpu,885230
2023-07-04T15:27:23.311Z,redis-exporter-dbops-team,cpu,790521
2023-07-04T15:27:26.094Z,blackbox-exporter,cpu,1194222
2023-07-04T15:27:26.094Z,redis-exporter-dev-team,cpu,504994
2023-07-04T15:27:33.310Z,redis-exporter-dbops-team,cpu,790521
2023-07-04T15:27:36.094Z,redis-exporter-dev-team,cpu,504994
2023-07-04T15:27:36.094Z,blackbox-exporter,cpu,1194222
2023-07-04T15:27:43.311Z,redis-exporter-dbops-team,cpu,790521
2023-07-04T15:27:46.093Z,blackbox-exporter,cpu,1191800
2023-07-04T15:27:46.093Z,redis-exporter-dev-team,cpu,27029
2023-07-04T15:27:53.310Z,redis-exporter-dbops-team,cpu,2013
2023-07-04T15:27:56.094Z,blackbox-exporter,cpu,930789
2023-07-04T15:27:56.094Z,redis-exporter-dev-team,cpu,15130
2023-07-04T15:28:03.310Z,redis-exporter-dbops-team,cpu,2013
2023-07-04T15:28:06.093Z,blackbox-exporter,cpu,930789
2023-07-04T15:28:06.093Z,redis-exporter-dev-team,cpu,15130
2023-07-04T15:28:13.310Z,redis-exporter-dbops-team,cpu,707602
2023-07-04T15:28:16.094Z,redis-exporter-dev-team,cpu,805521
2023-07-04T15:28:16.094Z,blackbox-exporter,cpu,1335106
2023-07-04T15:28:23.310Z,redis-exporter-dbops-team,cpu,586639
2023-07-04T15:28:26.093Z,blackbox-exporter,cpu,1641326
2023-07-04T15:28:26.093Z,redis-exporter-dev-team,cpu,0
2023-07-04T15:28:33.310Z,redis-exporter-dbops-team,cpu,0
2023-07-04T15:28:36.094Z,blackbox-exporter,cpu,1638551
2023-07-04T15:28:36.094Z,redis-exporter-dev-team,cpu,0
2023-07-04T15:28:43.310Z,redis-exporter-dbops-team,cpu,0
2023-07-04T15:28:46.093Z,redis-exporter-dev-team,cpu,0
2023-07-04T15:28:46.093Z,blackbox-exporter,cpu,1638551
2023-07-04T15:28:53.310Z,redis-exporter-dbops-team,cpu,0
2023-07-04T15:28:56.093Z,blackbox-exporter,cpu,1421311
2023-07-04T15:28:56.093Z,redis-exporter-dev-team,cpu,0
2023-07-04T15:29:03.310Z,redis-exporter-dbops-team,cpu,372130
2023-07-04T15:29:06.094Z,redis-exporter-dev-team,cpu,854210
2023-07-04T15:29:06.094Z,blackbox-exporter,cpu,1083091
2023-07-04T15:29:13.311Z,redis-exporter-dbops-team,cpu,372130
2023-07-04T15:29:16.094Z,blackbox-exporter,cpu,1083091
2023-07-04T15:29:16.094Z,redis-exporter-dev-team,cpu,854210
2023-07-04T15:29:23.310Z,redis-exporter-dbops-team,cpu,456599
2023-07-04T15:29:26.094Z,redis-exporter-dev-team,cpu,854210
2023-07-04T15:29:26.094Z,blackbox-exporter,cpu,1083091
