2023-07-04T15:19:15.730Z,adservice,memory,75128832
2023-07-04T15:19:22.238Z,productcatalogservice,memory,8720384
2023-07-04T15:19:22.238Z,frontend,memory,14086144
2023-07-04T15:19:22.238Z,checkoutservice,memory,10502144
2023-07-04T15:19:11.875Z,recommendationservice,memory,42008576
2023-07-04T15:19:22.238Z,recommendationservice,memory,42008576
2023-07-04T15:19:23.310Z,redis-cart,memory,8138752
2023-07-04T15:19:23.310Z,currencyservice,memory,23818240
2023-07-04T15:19:12.952Z,shippingservice,memory,8679424
2023-07-04T15:19:12.952Z,paymentservice,memory,19283968
2023-07-04T15:19:12.952Z,redis-cart,memory,8138752
2023-07-04T15:19:23.310Z,shippingservice,memory,8679424
2023-07-04T15:19:23.310Z,paymentservice,memory,19283968
2023-07-04T15:19:12.952Z,emailservice,memory,45568000
2023-07-04T15:19:12.952Z,cartservice,memory,28729344
2023-07-04T15:19:23.310Z,emailservice,memory,45568000
2023-07-04T15:19:23.310Z,cartservice,memory,28745728
2023-07-04T15:19:26.094Z,adservice,memory,74297344
2023-07-04T15:19:32.238Z,recommendationservice,memory,42008576
2023-07-04T15:19:32.238Z,frontend,memory,14086144
2023-07-04T15:19:32.238Z,productcatalogservice,memory,8720384
2023-07-04T15:19:32.238Z,checkoutservice,memory,10502144
2023-07-04T15:19:33.310Z,shippingservice,memory,8679424
2023-07-04T15:19:33.310Z,redis-cart,memory,8138752
2023-07-04T15:19:33.310Z,currencyservice,memory,23818240
2023-07-04T15:19:33.310Z,cartservice,memory,28745728
2023-07-04T15:19:33.310Z,emailservice,memory,45568000
2023-07-04T15:19:33.310Z,paymentservice,memory,19283968
2023-07-04T15:19:36.094Z,adservice,memory,74297344
2023-07-04T15:19:42.238Z,frontend,memory,14180352
2023-07-04T15:19:42.238Z,productcatalogservice,memory,8720384
2023-07-04T15:19:42.238Z,recommendationservice,memory,42020864
2023-07-04T15:19:42.238Z,checkoutservice,memory,10719232
2023-07-04T15:19:43.310Z,shippingservice,memory,8704000
2023-07-04T15:19:43.310Z,emailservice,memory,45568000
2023-07-04T15:19:43.310Z,redis-cart,memory,8142848
2023-07-04T15:19:43.310Z,paymentservice,memory,19566592
2023-07-04T15:19:43.310Z,cartservice,memory,28745728
2023-07-04T15:19:43.310Z,currencyservice,memory,22786048
2023-07-04T15:19:46.094Z,adservice,memory,76259328
2023-07-04T15:19:52.238Z,frontend,memory,14675968
2023-07-04T15:19:52.238Z,productcatalogservice,memory,8613888
2023-07-04T15:19:52.238Z,recommendationservice,memory,42020864
2023-07-04T15:19:52.238Z,checkoutservice,memory,11014144
2023-07-04T15:19:53.310Z,currencyservice,memory,22548480
2023-07-04T15:19:53.310Z,shippingservice,memory,8728576
2023-07-04T15:19:53.310Z,paymentservice,memory,19886080
2023-07-04T15:19:53.310Z,cartservice,memory,29245440
2023-07-04T15:19:53.310Z,emailservice,memory,45568000
2023-07-04T15:19:53.310Z,redis-cart,memory,8155136
2023-07-04T15:19:56.094Z,adservice,memory,76259328
2023-07-04T15:20:02.239Z,recommendationservice,memory,42041344
2023-07-04T15:20:02.239Z,checkoutservice,memory,11124736
2023-07-04T15:20:02.239Z,frontend,memory,14446592
2023-07-04T15:20:02.239Z,productcatalogservice,memory,8638464
2023-07-04T15:20:03.310Z,paymentservice,memory,19529728
2023-07-04T15:20:03.310Z,cartservice,memory,29986816
2023-07-04T15:20:03.310Z,emailservice,memory,45572096
2023-07-04T15:20:03.310Z,currencyservice,memory,22990848
2023-07-04T15:20:03.310Z,shippingservice,memory,8822784
2023-07-04T15:20:03.310Z,redis-cart,memory,8290304
2023-07-04T15:20:06.094Z,adservice,memory,75886592
2023-07-04T15:20:12.239Z,frontend,memory,14446592
2023-07-04T15:20:12.239Z,productcatalogservice,memory,8638464
2023-07-04T15:20:12.239Z,checkoutservice,memory,11124736
2023-07-04T15:20:12.239Z,recommendationservice,memory,42041344
2023-07-04T15:20:13.311Z,currencyservice,memory,23326720
2023-07-04T15:20:13.311Z,shippingservice,memory,8822784
2023-07-04T15:20:13.311Z,paymentservice,memory,19632128
2023-07-04T15:20:13.311Z,emailservice,memory,45572096
2023-07-04T15:20:13.311Z,redis-cart,memory,8290304
2023-07-04T15:20:13.311Z,cartservice,memory,30117888
2023-07-04T15:20:16.094Z,adservice,memory,76234752
2023-07-04T15:20:22.239Z,productcatalogservice,memory,9129984
2023-07-04T15:20:22.239Z,checkoutservice,memory,11186176
2023-07-04T15:20:22.239Z,recommendationservice,memory,42041344
2023-07-04T15:20:22.239Z,frontend,memory,14458880
2023-07-04T15:20:23.311Z,cartservice,memory,30117888
2023-07-04T15:20:23.311Z,paymentservice,memory,19910656
2023-07-04T15:20:23.311Z,emailservice,memory,45576192
2023-07-04T15:20:23.311Z,redis-cart,memory,8290304
2023-07-04T15:20:23.311Z,shippingservice,memory,8822784
2023-07-04T15:20:23.311Z,currencyservice,memory,23326720
2023-07-04T15:20:26.094Z,adservice,memory,76234752
2023-07-04T15:20:32.238Z,productcatalogservice,memory,9502720
2023-07-04T15:20:32.238Z,recommendationservice,memory,42061824
2023-07-04T15:20:32.238Z,frontend,memory,14725120
2023-07-04T15:20:32.238Z,checkoutservice,memory,11186176
2023-07-04T15:20:33.310Z,emailservice,memory,45576192
2023-07-04T15:20:33.310Z,cartservice,memory,30117888
2023-07-04T15:20:33.310Z,redis-cart,memory,8290304
2023-07-04T15:20:33.310Z,currencyservice,memory,23326720
2023-07-04T15:20:33.310Z,shippingservice,memory,8822784
2023-07-04T15:20:33.310Z,paymentservice,memory,19910656
2023-07-04T15:20:36.094Z,adservice,memory,76234752
2023-07-04T15:20:42.238Z,frontend,memory,14725120
2023-07-04T15:20:42.238Z,checkoutservice,memory,11186176
2023-07-04T15:20:42.238Z,productcatalogservice,memory,9502720
2023-07-04T15:20:42.238Z,recommendationservice,memory,42061824
2023-07-04T15:20:43.311Z,shippingservice,memory,8855552
2023-07-04T15:20:43.311Z,cartservice,memory,31068160
2023-07-04T15:20:43.311Z,paymentservice,memory,19910656
2023-07-04T15:20:43.311Z,redis-cart,memory,8286208
2023-07-04T15:20:43.311Z,emailservice,memory,45576192
2023-07-04T15:20:43.311Z,currencyservice,memory,24018944
2023-07-04T15:20:46.094Z,adservice,memory,76980224
2023-07-04T15:20:52.239Z,recommendationservice,memory,42061824
2023-07-04T15:20:52.239Z,productcatalogservice,memory,9175040
2023-07-04T15:20:52.239Z,frontend,memory,14761984
2023-07-04T15:20:52.239Z,checkoutservice,memory,11186176
2023-07-04T15:20:53.311Z,redis-cart,memory,8159232
2023-07-04T15:20:53.311Z,cartservice,memory,31444992
2023-07-04T15:20:53.311Z,shippingservice,memory,8867840
2023-07-04T15:20:53.311Z,currencyservice,memory,23592960
2023-07-04T15:20:53.311Z,paymentservice,memory,20258816
2023-07-04T15:20:53.311Z,emailservice,memory,45576192
2023-07-04T15:20:56.094Z,adservice,memory,76980224
2023-07-04T15:21:02.239Z,productcatalogservice,memory,9175040
2023-07-04T15:21:02.239Z,recommendationservice,memory,42061824
2023-07-04T15:21:02.239Z,checkoutservice,memory,11284480
2023-07-04T15:21:02.239Z,frontend,memory,14913536
2023-07-04T15:21:03.310Z,currencyservice,memory,23592960
2023-07-04T15:21:03.310Z,cartservice,memory,31444992
2023-07-04T15:21:03.310Z,emailservice,memory,45576192
2023-07-04T15:21:03.310Z,redis-cart,memory,8159232
2023-07-04T15:21:03.310Z,shippingservice,memory,8867840
2023-07-04T15:21:03.310Z,paymentservice,memory,20258816
2023-07-04T15:21:06.093Z,adservice,memory,76980224
2023-07-04T15:21:12.239Z,frontend,memory,14913536
2023-07-04T15:21:12.239Z,checkoutservice,memory,11284480
2023-07-04T15:21:12.239Z,recommendationservice,memory,42074112
2023-07-04T15:21:12.239Z,productcatalogservice,memory,9310208
2023-07-04T15:21:13.310Z,emailservice,memory,45584384
2023-07-04T15:21:13.310Z,currencyservice,memory,23891968
2023-07-04T15:21:13.310Z,shippingservice,memory,9093120
2023-07-04T15:21:13.310Z,redis-cart,memory,8163328
2023-07-04T15:21:13.310Z,cartservice,memory,31780864
2023-07-04T15:21:13.310Z,paymentservice,memory,20258816
2023-07-04T15:21:16.094Z,adservice,memory,77672448
2023-07-04T15:21:22.238Z,productcatalogservice,memory,9011200
2023-07-04T15:21:22.238Z,recommendationservice,memory,42074112
2023-07-04T15:21:22.238Z,checkoutservice,memory,11288576
2023-07-04T15:21:22.238Z,frontend,memory,14413824
2023-07-04T15:21:23.310Z,cartservice,memory,31780864
2023-07-04T15:21:23.310Z,currencyservice,memory,23891968
2023-07-04T15:21:23.310Z,paymentservice,memory,19636224
2023-07-04T15:21:23.310Z,redis-cart,memory,8159232
2023-07-04T15:21:23.310Z,shippingservice,memory,8921088
2023-07-04T15:21:23.310Z,emailservice,memory,45584384
2023-07-04T15:21:26.093Z,adservice,memory,77672448
2023-07-04T15:21:32.238Z,productcatalogservice,memory,9261056
2023-07-04T15:21:32.238Z,frontend,memory,14635008
2023-07-04T15:21:32.238Z,recommendationservice,memory,42078208
2023-07-04T15:21:32.238Z,checkoutservice,memory,11354112
2023-07-04T15:21:33.310Z,cartservice,memory,32288768
2023-07-04T15:21:33.310Z,shippingservice,memory,9052160
2023-07-04T15:21:33.310Z,currencyservice,memory,24846336
2023-07-04T15:21:33.310Z,paymentservice,memory,20000768
2023-07-04T15:21:33.310Z,redis-cart,memory,8159232
2023-07-04T15:21:33.310Z,emailservice,memory,45584384
2023-07-04T15:21:36.093Z,adservice,memory,77803520
2023-07-04T15:21:42.238Z,productcatalogservice,memory,9371648
2023-07-04T15:21:42.238Z,checkoutservice,memory,11546624
2023-07-04T15:21:42.238Z,frontend,memory,14553088
2023-07-04T15:21:42.238Z,recommendationservice,memory,42078208
2023-07-04T15:21:43.310Z,cartservice,memory,32288768
2023-07-04T15:21:43.310Z,shippingservice,memory,9052160
2023-07-04T15:21:43.310Z,emailservice,memory,45584384
2023-07-04T15:21:43.310Z,redis-cart,memory,8159232
2023-07-04T15:21:43.310Z,paymentservice,memory,20000768
2023-07-04T15:21:43.310Z,currencyservice,memory,24846336
2023-07-04T15:21:46.094Z,adservice,memory,77987840
2023-07-04T15:21:52.239Z,recommendationservice,memory,42156032
2023-07-04T15:21:52.239Z,checkoutservice,memory,11546624
2023-07-04T15:21:52.239Z,productcatalogservice,memory,9031680
2023-07-04T15:21:52.239Z,frontend,memory,14733312
2023-07-04T15:21:53.311Z,redis-cart,memory,8155136
2023-07-04T15:21:53.311Z,paymentservice,memory,20168704
2023-07-04T15:21:53.311Z,cartservice,memory,32743424
2023-07-04T15:21:53.311Z,currencyservice,memory,24846336
2023-07-04T15:21:53.311Z,shippingservice,memory,9052160
2023-07-04T15:21:53.311Z,emailservice,memory,45588480
2023-07-04T15:21:56.093Z,adservice,memory,77987840
2023-07-04T15:22:02.238Z,productcatalogservice,memory,9031680
2023-07-04T15:22:02.238Z,checkoutservice,memory,11546624
2023-07-04T15:22:02.238Z,recommendationservice,memory,42156032
2023-07-04T15:22:02.238Z,frontend,memory,14733312
2023-07-04T15:22:03.310Z,currencyservice,memory,25403392
2023-07-04T15:22:03.310Z,paymentservice,memory,20492288
2023-07-04T15:22:03.310Z,shippingservice,memory,8978432
2023-07-04T15:22:03.310Z,cartservice,memory,33243136
2023-07-04T15:22:03.310Z,redis-cart,memory,8146944
2023-07-04T15:22:03.310Z,emailservice,memory,45588480
2023-07-04T15:22:06.094Z,adservice,memory,78499840
2023-07-04T15:22:12.238Z,productcatalogservice,memory,9031680
2023-07-04T15:22:12.238Z,frontend,memory,14733312
2023-07-04T15:22:12.238Z,recommendationservice,memory,42090496
2023-07-04T15:22:12.238Z,checkoutservice,memory,11571200
2023-07-04T15:22:13.311Z,currencyservice,memory,25403392
2023-07-04T15:22:13.311Z,cartservice,memory,33243136
2023-07-04T15:22:13.311Z,paymentservice,memory,19816448
2023-07-04T15:22:13.311Z,emailservice,memory,45588480
2023-07-04T15:22:13.311Z,shippingservice,memory,8978432
2023-07-04T15:22:13.311Z,redis-cart,memory,8151040
2023-07-04T15:22:16.094Z,adservice,memory,78499840
2023-07-04T15:22:22.239Z,frontend,memory,15130624
2023-07-04T15:22:22.239Z,recommendationservice,memory,42098688
2023-07-04T15:22:22.239Z,checkoutservice,memory,11579392
2023-07-04T15:22:22.239Z,productcatalogservice,memory,9420800
2023-07-04T15:22:23.310Z,currencyservice,memory,25403392
2023-07-04T15:22:23.310Z,cartservice,memory,33243136
2023-07-04T15:22:23.310Z,paymentservice,memory,19816448
2023-07-04T15:22:23.310Z,redis-cart,memory,8151040
2023-07-04T15:22:23.310Z,emailservice,memory,45588480
2023-07-04T15:22:23.310Z,shippingservice,memory,8978432
2023-07-04T15:22:26.094Z,adservice,memory,79302656
2023-07-04T15:22:32.239Z,recommendationservice,memory,42098688
2023-07-04T15:22:32.239Z,productcatalogservice,memory,9420800
2023-07-04T15:22:32.239Z,checkoutservice,memory,11587584
2023-07-04T15:22:32.239Z,frontend,memory,14700544
2023-07-04T15:22:33.310Z,currencyservice,memory,26365952
2023-07-04T15:22:33.310Z,redis-cart,memory,8151040
2023-07-04T15:22:33.310Z,shippingservice,memory,8978432
2023-07-04T15:22:33.310Z,emailservice,memory,45588480
2023-07-04T15:22:33.310Z,cartservice,memory,33980416
2023-07-04T15:22:33.310Z,paymentservice,memory,19992576
2023-07-04T15:22:36.093Z,adservice,memory,79355904
2023-07-04T15:22:42.239Z,frontend,memory,14725120
2023-07-04T15:22:42.239Z,recommendationservice,memory,42094592
2023-07-04T15:22:42.239Z,checkoutservice,memory,11587584
2023-07-04T15:22:42.239Z,productcatalogservice,memory,9318400
2023-07-04T15:22:43.311Z,shippingservice,memory,8982528
2023-07-04T15:22:43.311Z,currencyservice,memory,27525120
2023-07-04T15:22:43.311Z,redis-cart,memory,8290304
2023-07-04T15:22:43.311Z,paymentservice,memory,20316160
2023-07-04T15:22:43.311Z,cartservice,memory,34435072
2023-07-04T15:22:43.311Z,emailservice,memory,45588480
2023-07-04T15:22:46.093Z,adservice,memory,79245312
2023-07-04T15:22:52.239Z,checkoutservice,memory,11587584
2023-07-04T15:22:52.239Z,frontend,memory,14725120
2023-07-04T15:22:52.239Z,recommendationservice,memory,42094592
2023-07-04T15:22:52.239Z,productcatalogservice,memory,9318400
2023-07-04T15:22:53.310Z,shippingservice,memory,8982528
2023-07-04T15:22:53.310Z,currencyservice,memory,27525120
2023-07-04T15:22:53.310Z,redis-cart,memory,8290304
2023-07-04T15:22:53.310Z,paymentservice,memory,20316160
2023-07-04T15:22:53.310Z,cartservice,memory,34435072
2023-07-04T15:22:53.310Z,emailservice,memory,45588480
2023-07-04T15:22:56.094Z,adservice,memory,79245312
2023-07-04T15:23:02.239Z,frontend,memory,14725120
2023-07-04T15:23:02.239Z,recommendationservice,memory,42098688
2023-07-04T15:23:02.239Z,checkoutservice,memory,11587584
2023-07-04T15:23:02.239Z,productcatalogservice,memory,9318400
2023-07-04T15:23:03.310Z,emailservice,memory,45592576
2023-07-04T15:23:03.310Z,currencyservice,memory,27709440
2023-07-04T15:23:03.310Z,shippingservice,memory,8982528
2023-07-04T15:23:03.310Z,paymentservice,memory,20316160
2023-07-04T15:23:03.310Z,cartservice,memory,36679680
2023-07-04T15:23:03.310Z,redis-cart,memory,8282112
2023-07-04T15:23:06.094Z,adservice,memory,79245312
2023-07-04T15:23:12.238Z,frontend,memory,14802944
2023-07-04T15:23:12.238Z,checkoutservice,memory,11591680
2023-07-04T15:23:12.238Z,productcatalogservice,memory,9342976
2023-07-04T15:23:12.238Z,recommendationservice,memory,42094592
2023-07-04T15:23:13.311Z,cartservice,memory,36679680
2023-07-04T15:23:13.311Z,emailservice,memory,45592576
2023-07-04T15:23:13.311Z,currencyservice,memory,27709440
2023-07-04T15:23:13.311Z,shippingservice,memory,8982528
2023-07-04T15:23:13.311Z,paymentservice,memory,19791872
2023-07-04T15:23:13.311Z,redis-cart,memory,8286208
2023-07-04T15:23:16.094Z,adservice,memory,79450112
2023-07-04T15:23:22.238Z,frontend,memory,14802944
2023-07-04T15:23:22.238Z,productcatalogservice,memory,9342976
2023-07-04T15:23:22.238Z,checkoutservice,memory,11591680
2023-07-04T15:23:22.238Z,recommendationservice,memory,42094592
2023-07-04T15:23:23.310Z,shippingservice,memory,9084928
2023-07-04T15:23:23.310Z,cartservice,memory,37236736
2023-07-04T15:23:23.310Z,paymentservice,memory,19886080
2023-07-04T15:23:23.310Z,emailservice,memory,45588480
2023-07-04T15:23:23.310Z,currencyservice,memory,27815936
2023-07-04T15:23:23.310Z,redis-cart,memory,8589312
2023-07-04T15:23:26.094Z,adservice,memory,79630336
2023-07-04T15:23:32.238Z,frontend,memory,15110144
2023-07-04T15:23:32.238Z,productcatalogservice,memory,9195520
2023-07-04T15:23:32.238Z,checkoutservice,memory,11599872
2023-07-04T15:23:32.238Z,recommendationservice,memory,42110976
2023-07-04T15:23:33.311Z,paymentservice,memory,20209664
2023-07-04T15:23:33.311Z,emailservice,memory,45588480
2023-07-04T15:23:33.311Z,redis-cart,memory,8593408
2023-07-04T15:23:33.311Z,cartservice,memory,37797888
2023-07-04T15:23:33.311Z,currencyservice,memory,28667904
2023-07-04T15:23:33.311Z,shippingservice,memory,8994816
2023-07-04T15:23:36.093Z,adservice,memory,79630336
2023-07-04T15:23:42.238Z,frontend,memory,15110144
2023-07-04T15:23:42.238Z,checkoutservice,memory,11599872
2023-07-04T15:23:42.238Z,productcatalogservice,memory,9375744
2023-07-04T15:23:42.238Z,recommendationservice,memory,42110976
2023-07-04T15:23:43.311Z,redis-cart,memory,8593408
2023-07-04T15:23:43.311Z,emailservice,memory,45617152
2023-07-04T15:23:43.311Z,shippingservice,memory,8994816
2023-07-04T15:23:43.311Z,currencyservice,memory,28667904
2023-07-04T15:23:43.311Z,paymentservice,memory,20361216
2023-07-04T15:23:43.311Z,cartservice,memory,37797888
2023-07-04T15:23:46.094Z,adservice,memory,80052224
2023-07-04T15:23:52.238Z,recommendationservice,memory,42119168
2023-07-04T15:23:52.238Z,productcatalogservice,memory,9392128
2023-07-04T15:23:52.238Z,frontend,memory,15208448
2023-07-04T15:23:52.238Z,checkoutservice,memory,11599872
2023-07-04T15:23:53.311Z,currencyservice,memory,28667904
2023-07-04T15:23:53.311Z,paymentservice,memory,20361216
2023-07-04T15:23:53.311Z,cartservice,memory,37797888
2023-07-04T15:23:53.311Z,redis-cart,memory,8593408
2023-07-04T15:23:53.311Z,shippingservice,memory,8994816
2023-07-04T15:23:53.311Z,emailservice,memory,45617152
2023-07-04T15:23:56.094Z,adservice,memory,80052224
2023-07-04T15:24:02.239Z,checkoutservice,memory,11489280
2023-07-04T15:24:02.239Z,productcatalogservice,memory,9170944
2023-07-04T15:24:02.239Z,recommendationservice,memory,42131456
2023-07-04T15:24:02.239Z,frontend,memory,15208448
2023-07-04T15:24:03.310Z,cartservice,memory,39100416
2023-07-04T15:24:03.310Z,emailservice,memory,45617152
2023-07-04T15:24:03.310Z,currencyservice,memory,28635136
2023-07-04T15:24:03.310Z,shippingservice,memory,8994816
2023-07-04T15:24:03.310Z,redis-cart,memory,8613888
2023-07-04T15:24:03.310Z,paymentservice,memory,20705280
2023-07-04T15:24:06.094Z,adservice,memory,80650240
2023-07-04T15:24:12.238Z,checkoutservice,memory,11489280
2023-07-04T15:24:12.238Z,productcatalogservice,memory,9170944
2023-07-04T15:24:12.238Z,recommendationservice,memory,42131456
2023-07-04T15:24:12.238Z,frontend,memory,15208448
2023-07-04T15:24:13.311Z,shippingservice,memory,9056256
2023-07-04T15:24:13.311Z,paymentservice,memory,20705280
2023-07-04T15:24:13.311Z,emailservice,memory,45617152
2023-07-04T15:24:13.311Z,cartservice,memory,39092224
2023-07-04T15:24:13.311Z,redis-cart,memory,8617984
2023-07-04T15:24:13.311Z,currencyservice,memory,28979200
2023-07-04T15:24:16.095Z,adservice,memory,80650240
2023-07-04T15:24:22.238Z,recommendationservice,memory,42131456
2023-07-04T15:24:22.238Z,productcatalogservice,memory,9355264
2023-07-04T15:24:22.238Z,frontend,memory,14974976
2023-07-04T15:24:22.238Z,checkoutservice,memory,11497472
2023-07-04T15:24:23.310Z,redis-cart,memory,8617984
2023-07-04T15:24:23.310Z,emailservice,memory,45621248
2023-07-04T15:24:23.310Z,shippingservice,memory,9019392
2023-07-04T15:24:23.310Z,currencyservice,memory,29335552
2023-07-04T15:24:23.310Z,paymentservice,memory,20258816
2023-07-04T15:24:23.310Z,cartservice,memory,39219200
2023-07-04T15:24:26.094Z,adservice,memory,80379904
2023-07-04T15:24:32.238Z,productcatalogservice,memory,9097216
2023-07-04T15:24:32.238Z,frontend,memory,15093760
2023-07-04T15:24:32.238Z,recommendationservice,memory,42147840
2023-07-04T15:24:32.238Z,checkoutservice,memory,11534336
2023-07-04T15:24:33.310Z,emailservice,memory,47366144
2023-07-04T15:24:33.310Z,cartservice,memory,39235584
2023-07-04T15:24:33.310Z,paymentservice,memory,20258816
2023-07-04T15:24:33.310Z,shippingservice,memory,9019392
2023-07-04T15:24:33.310Z,currencyservice,memory,29736960
2023-07-04T15:24:33.310Z,redis-cart,memory,8753152
2023-07-04T15:24:36.094Z,adservice,memory,82640896
2023-07-04T15:24:42.238Z,recommendationservice,memory,42147840
2023-07-04T15:24:42.238Z,frontend,memory,15093760
2023-07-04T15:24:42.238Z,productcatalogservice,memory,9097216
2023-07-04T15:24:42.238Z,checkoutservice,memory,11534336
2023-07-04T15:24:43.310Z,cartservice,memory,39235584
2023-07-04T15:24:43.310Z,currencyservice,memory,29736960
2023-07-04T15:24:43.310Z,shippingservice,memory,9019392
2023-07-04T15:24:43.310Z,redis-cart,memory,8753152
2023-07-04T15:24:43.310Z,emailservice,memory,47366144
2023-07-04T15:24:43.310Z,paymentservice,memory,20258816
2023-07-04T15:24:46.094Z,adservice,memory,82640896
2023-07-04T15:24:52.239Z,checkoutservice,memory,11644928
2023-07-04T15:24:52.239Z,productcatalogservice,memory,9211904
2023-07-04T15:24:52.239Z,frontend,memory,15118336
2023-07-04T15:24:52.239Z,recommendationservice,memory,42147840
2023-07-04T15:24:53.310Z,emailservice,memory,47366144
2023-07-04T15:24:53.310Z,paymentservice,memory,20537344
2023-07-04T15:24:53.310Z,redis-cart,memory,8753152
2023-07-04T15:24:53.310Z,cartservice,memory,39251968
2023-07-04T15:24:53.310Z,currencyservice,memory,29736960
2023-07-04T15:24:53.310Z,shippingservice,memory,9023488
2023-07-04T15:24:56.093Z,adservice,memory,80699392
2023-07-04T15:25:02.239Z,checkoutservice,memory,11644928
2023-07-04T15:25:02.239Z,frontend,memory,15478784
2023-07-04T15:25:02.239Z,productcatalogservice,memory,9232384
2023-07-04T15:25:02.239Z,recommendationservice,memory,42147840
2023-07-04T15:25:03.310Z,paymentservice,memory,20754432
2023-07-04T15:25:03.310Z,emailservice,memory,47366144
2023-07-04T15:25:03.310Z,redis-cart,memory,8749056
2023-07-04T15:25:03.310Z,shippingservice,memory,9072640
2023-07-04T15:25:03.310Z,cartservice,memory,39223296
2023-07-04T15:25:03.310Z,currencyservice,memory,30294016
2023-07-04T15:25:06.093Z,adservice,memory,80699392
2023-07-04T15:25:12.239Z,productcatalogservice,memory,9228288
2023-07-04T15:25:12.239Z,frontend,memory,15536128
2023-07-04T15:25:12.239Z,recommendationservice,memory,42164224
2023-07-04T15:25:12.239Z,checkoutservice,memory,11698176
2023-07-04T15:25:13.310Z,shippingservice,memory,9072640
2023-07-04T15:25:13.310Z,cartservice,memory,39223296
2023-07-04T15:25:13.310Z,emailservice,memory,47366144
2023-07-04T15:25:13.310Z,currencyservice,memory,30294016
2023-07-04T15:25:13.310Z,paymentservice,memory,20754432
2023-07-04T15:25:13.310Z,redis-cart,memory,8749056
2023-07-04T15:25:16.093Z,adservice,memory,80699392
2023-07-04T15:25:22.239Z,checkoutservice,memory,11804672
2023-07-04T15:25:22.239Z,recommendationservice,memory,42164224
2023-07-04T15:25:22.239Z,frontend,memory,15134720
2023-07-04T15:25:22.239Z,productcatalogservice,memory,9240576
2023-07-04T15:25:23.310Z,emailservice,memory,47370240
2023-07-04T15:25:23.310Z,cartservice,memory,39223296
2023-07-04T15:25:23.310Z,paymentservice,memory,20045824
2023-07-04T15:25:23.310Z,shippingservice,memory,9027584
2023-07-04T15:25:23.310Z,redis-cart,memory,8749056
2023-07-04T15:25:23.310Z,currencyservice,memory,30040064
2023-07-04T15:25:26.093Z,adservice,memory,80912384
2023-07-04T15:25:32.239Z,recommendationservice,memory,42164224
2023-07-04T15:25:32.239Z,checkoutservice,memory,11804672
2023-07-04T15:25:32.239Z,frontend,memory,15134720
2023-07-04T15:25:32.239Z,productcatalogservice,memory,9240576
2023-07-04T15:25:33.310Z,cartservice,memory,39219200
2023-07-04T15:25:33.310Z,emailservice,memory,47366144
2023-07-04T15:25:33.310Z,paymentservice,memory,20348928
2023-07-04T15:25:33.310Z,redis-cart,memory,8622080
2023-07-04T15:25:33.310Z,currencyservice,memory,30269440
2023-07-04T15:25:33.310Z,shippingservice,memory,9031680
2023-07-04T15:25:36.094Z,adservice,memory,80928768
2023-07-04T15:25:42.238Z,frontend,memory,15134720
2023-07-04T15:25:42.238Z,checkoutservice,memory,11804672
2023-07-04T15:25:42.238Z,productcatalogservice,memory,9240576
2023-07-04T15:25:42.238Z,recommendationservice,memory,42156032
2023-07-04T15:25:43.310Z,emailservice,memory,47366144
2023-07-04T15:25:43.310Z,cartservice,memory,39219200
2023-07-04T15:25:43.310Z,paymentservice,memory,20348928
2023-07-04T15:25:43.310Z,redis-cart,memory,8622080
2023-07-04T15:25:43.310Z,currencyservice,memory,30269440
2023-07-04T15:25:43.310Z,shippingservice,memory,9031680
2023-07-04T15:25:46.093Z,adservice,memory,80928768
2023-07-04T15:25:52.239Z,checkoutservice,memory,11808768
2023-07-04T15:25:52.239Z,frontend,memory,15228928
2023-07-04T15:25:52.239Z,productcatalogservice,memory,9326592
2023-07-04T15:25:52.239Z,recommendationservice,memory,42164224
2023-07-04T15:25:53.310Z,redis-cart,memory,8626176
2023-07-04T15:25:53.310Z,currencyservice,memory,30269440
2023-07-04T15:25:53.310Z,shippingservice,memory,9072640
2023-07-04T15:25:53.310Z,emailservice,memory,47370240
2023-07-04T15:25:53.310Z,cartservice,memory,39219200
2023-07-04T15:25:53.310Z,paymentservice,memory,20488192
2023-07-04T15:25:56.093Z,adservice,memory,82223104
2023-07-04T15:26:02.238Z,productcatalogservice,memory,9326592
2023-07-04T15:26:02.238Z,checkoutservice,memory,11808768
2023-07-04T15:26:02.238Z,recommendationservice,memory,42164224
2023-07-04T15:26:02.238Z,frontend,memory,15228928
2023-07-04T15:26:03.310Z,redis-cart,memory,8617984
2023-07-04T15:26:03.310Z,paymentservice,memory,20488192
2023-07-04T15:26:03.310Z,emailservice,memory,47370240
2023-07-04T15:26:03.310Z,cartservice,memory,39272448
2023-07-04T15:26:03.310Z,currencyservice,memory,30498816
2023-07-04T15:26:03.310Z,shippingservice,memory,9039872
2023-07-04T15:26:06.093Z,adservice,memory,82464768
2023-07-04T15:26:12.239Z,frontend,memory,15605760
2023-07-04T15:26:12.239Z,productcatalogservice,memory,9326592
2023-07-04T15:26:12.239Z,checkoutservice,memory,11808768
2023-07-04T15:26:12.239Z,recommendationservice,memory,42168320
2023-07-04T15:26:13.311Z,redis-cart,memory,8753152
2023-07-04T15:26:13.311Z,cartservice,memory,39157760
2023-07-04T15:26:13.311Z,shippingservice,memory,9039872
2023-07-04T15:26:13.311Z,paymentservice,memory,20852736
2023-07-04T15:26:13.311Z,currencyservice,memory,31129600
2023-07-04T15:26:13.311Z,emailservice,memory,47366144
2023-07-04T15:26:16.094Z,adservice,memory,83623936
2023-07-04T15:26:22.239Z,productcatalogservice,memory,9355264
2023-07-04T15:26:22.239Z,recommendationservice,memory,42168320
2023-07-04T15:26:22.239Z,checkoutservice,memory,11804672
2023-07-04T15:26:22.239Z,frontend,memory,15605760
2023-07-04T15:26:23.311Z,redis-cart,memory,8753152
2023-07-04T15:26:23.311Z,currencyservice,memory,31539200
2023-07-04T15:26:23.311Z,shippingservice,memory,9039872
2023-07-04T15:26:23.311Z,emailservice,memory,47366144
2023-07-04T15:26:23.311Z,paymentservice,memory,21696512
2023-07-04T15:26:23.311Z,cartservice,memory,39157760
2023-07-04T15:26:26.093Z,adservice,memory,83623936
2023-07-04T15:26:32.239Z,productcatalogservice,memory,9355264
2023-07-04T15:26:32.239Z,recommendationservice,memory,42168320
2023-07-04T15:26:32.239Z,checkoutservice,memory,11804672
2023-07-04T15:26:32.239Z,frontend,memory,15425536
2023-07-04T15:26:33.311Z,paymentservice,memory,21696512
2023-07-04T15:26:33.311Z,redis-cart,memory,8753152
2023-07-04T15:26:33.311Z,currencyservice,memory,31539200
2023-07-04T15:26:33.311Z,shippingservice,memory,9039872
2023-07-04T15:26:33.311Z,emailservice,memory,47366144
2023-07-04T15:26:33.311Z,cartservice,memory,39157760
2023-07-04T15:26:36.094Z,adservice,memory,83623936
2023-07-04T15:26:42.238Z,productcatalogservice,memory,9220096
2023-07-04T15:26:42.238Z,frontend,memory,15409152
2023-07-04T15:26:42.238Z,checkoutservice,memory,14770176
2023-07-04T15:26:42.238Z,recommendationservice,memory,42176512
2023-07-04T15:26:43.310Z,cartservice,memory,39194624
2023-07-04T15:26:43.310Z,paymentservice,memory,21929984
2023-07-04T15:26:43.310Z,emailservice,memory,47366144
2023-07-04T15:26:43.310Z,redis-cart,memory,8617984
2023-07-04T15:26:43.310Z,shippingservice,memory,9039872
2023-07-04T15:26:43.310Z,currencyservice,memory,31703040
2023-07-04T15:26:46.093Z,adservice,memory,84672512
2023-07-04T15:26:52.239Z,frontend,memory,15044608
2023-07-04T15:26:52.239Z,checkoutservice,memory,11804672
2023-07-04T15:26:52.239Z,productcatalogservice,memory,9510912
2023-07-04T15:26:52.239Z,recommendationservice,memory,42176512
2023-07-04T15:26:53.310Z,shippingservice,memory,9039872
2023-07-04T15:26:53.310Z,paymentservice,memory,21929984
2023-07-04T15:26:53.310Z,redis-cart,memory,8617984
2023-07-04T15:26:53.310Z,currencyservice,memory,31703040
2023-07-04T15:26:53.310Z,emailservice,memory,47366144
2023-07-04T15:26:53.310Z,cartservice,memory,39194624
2023-07-04T15:26:56.094Z,adservice,memory,82898944
2023-07-04T15:27:02.238Z,recommendationservice,memory,42176512
2023-07-04T15:27:02.238Z,checkoutservice,memory,11804672
2023-07-04T15:27:02.238Z,frontend,memory,15044608
2023-07-04T15:27:02.238Z,productcatalogservice,memory,9510912
2023-07-04T15:27:03.310Z,redis-cart,memory,8617984
2023-07-04T15:27:03.310Z,currencyservice,memory,31313920
2023-07-04T15:27:03.310Z,shippingservice,memory,9048064
2023-07-04T15:27:03.310Z,emailservice,memory,47366144
2023-07-04T15:27:03.310Z,paymentservice,memory,22196224
2023-07-04T15:27:03.310Z,cartservice,memory,39124992
2023-07-04T15:27:06.094Z,adservice,memory,82898944
2023-07-04T15:27:12.238Z,checkoutservice,memory,11816960
2023-07-04T15:27:12.238Z,frontend,memory,15425536
2023-07-04T15:27:12.238Z,productcatalogservice,memory,9510912
2023-07-04T15:27:12.238Z,recommendationservice,memory,42180608
2023-07-04T15:27:13.311Z,currencyservice,memory,32489472
2023-07-04T15:27:13.311Z,paymentservice,memory,22441984
2023-07-04T15:27:13.311Z,cartservice,memory,39161856
2023-07-04T15:27:13.311Z,redis-cart,memory,8880128
2023-07-04T15:27:13.311Z,emailservice,memory,47366144
2023-07-04T15:27:13.311Z,shippingservice,memory,15224832
2023-07-04T15:27:16.094Z,adservice,memory,83001344
2023-07-04T15:27:22.239Z,checkoutservice,memory,11816960
2023-07-04T15:27:22.239Z,productcatalogservice,memory,9179136
2023-07-04T15:27:22.239Z,frontend,memory,15425536
2023-07-04T15:27:22.239Z,recommendationservice,memory,42180608
2023-07-04T15:27:23.311Z,redis-cart,memory,8880128
2023-07-04T15:27:23.311Z,currencyservice,memory,32489472
2023-07-04T15:27:23.311Z,emailservice,memory,47366144
2023-07-04T15:27:23.311Z,cartservice,memory,39153664
2023-07-04T15:27:23.311Z,paymentservice,memory,21778432
2023-07-04T15:27:23.311Z,shippingservice,memory,15224832
2023-07-04T15:27:26.094Z,adservice,memory,83128320
2023-07-04T15:27:32.238Z,checkoutservice,memory,11825152
2023-07-04T15:27:32.238Z,productcatalogservice,memory,9523200
2023-07-04T15:27:32.238Z,frontend,memory,15450112
2023-07-04T15:27:32.238Z,recommendationservice,memory,42201088
2023-07-04T15:27:33.310Z,cartservice,memory,39153664
2023-07-04T15:27:33.310Z,emailservice,memory,47366144
2023-07-04T15:27:33.310Z,currencyservice,memory,32489472
2023-07-04T15:27:33.310Z,redis-cart,memory,8880128
2023-07-04T15:27:33.310Z,paymentservice,memory,21778432
2023-07-04T15:27:33.310Z,shippingservice,memory,15224832
2023-07-04T15:27:36.094Z,adservice,memory,83128320
2023-07-04T15:27:42.239Z,productcatalogservice,memory,9523200
2023-07-04T15:27:42.239Z,frontend,memory,15343616
2023-07-04T15:27:42.239Z,recommendationservice,memory,42196992
2023-07-04T15:27:42.239Z,checkoutservice,memory,11829248
2023-07-04T15:27:43.311Z,paymentservice,memory,21897216
2023-07-04T15:27:43.311Z,redis-cart,memory,8617984
2023-07-04T15:27:43.311Z,cartservice,memory,39161856
2023-07-04T15:27:43.311Z,currencyservice,memory,32219136
2023-07-04T15:27:43.311Z,emailservice,memory,47366144
2023-07-04T15:27:43.311Z,shippingservice,memory,15228928
2023-07-04T15:27:46.093Z,adservice,memory,83525632
2023-07-04T15:27:52.239Z,productcatalogservice,memory,9154560
2023-07-04T15:27:52.239Z,recommendationservice,memory,42196992
2023-07-04T15:27:52.239Z,frontend,memory,15343616
2023-07-04T15:27:52.239Z,checkoutservice,memory,11829248
2023-07-04T15:27:53.310Z,currencyservice,memory,32157696
2023-07-04T15:27:53.310Z,emailservice,memory,47366144
2023-07-04T15:27:53.310Z,shippingservice,memory,15237120
2023-07-04T15:27:53.310Z,cartservice,memory,39161856
2023-07-04T15:27:53.310Z,paymentservice,memory,22032384
2023-07-04T15:27:53.310Z,redis-cart,memory,8622080
2023-07-04T15:27:56.094Z,adservice,memory,83271680
2023-07-04T15:28:02.239Z,frontend,memory,15343616
2023-07-04T15:28:02.239Z,recommendationservice,memory,42196992
2023-07-04T15:28:02.239Z,productcatalogservice,memory,9154560
2023-07-04T15:28:02.239Z,checkoutservice,memory,11829248
2023-07-04T15:28:03.310Z,shippingservice,memory,15237120
2023-07-04T15:28:03.310Z,redis-cart,memory,8622080
2023-07-04T15:28:03.310Z,paymentservice,memory,22032384
2023-07-04T15:28:03.310Z,cartservice,memory,39161856
2023-07-04T15:28:03.310Z,emailservice,memory,47366144
2023-07-04T15:28:03.310Z,currencyservice,memory,32157696
2023-07-04T15:28:06.093Z,adservice,memory,83271680
2023-07-04T15:28:12.239Z,frontend,memory,15515648
2023-07-04T15:28:12.239Z,checkoutservice,memory,11857920
2023-07-04T15:28:12.239Z,productcatalogservice,memory,9383936
2023-07-04T15:28:12.239Z,recommendationservice,memory,42201088
2023-07-04T15:28:13.310Z,cartservice,memory,39153664
2023-07-04T15:28:13.310Z,currencyservice,memory,32514048
2023-07-04T15:28:13.310Z,redis-cart,memory,8617984
2023-07-04T15:28:13.310Z,emailservice,memory,47366144
2023-07-04T15:28:13.310Z,paymentservice,memory,22343680
2023-07-04T15:28:13.310Z,shippingservice,memory,15302656
2023-07-04T15:28:16.094Z,adservice,memory,83271680
2023-07-04T15:28:22.239Z,recommendationservice,memory,42205184
2023-07-04T15:28:22.239Z,checkoutservice,memory,11857920
2023-07-04T15:28:22.239Z,productcatalogservice,memory,9371648
2023-07-04T15:28:22.239Z,frontend,memory,15826944
2023-07-04T15:28:23.310Z,shippingservice,memory,15241216
2023-07-04T15:28:23.310Z,paymentservice,memory,22708224
2023-07-04T15:28:23.310Z,cartservice,memory,39227392
2023-07-04T15:28:23.310Z,currencyservice,memory,32907264
2023-07-04T15:28:23.310Z,emailservice,memory,47366144
2023-07-04T15:28:23.310Z,redis-cart,memory,8617984
2023-07-04T15:28:26.093Z,adservice,memory,83460096
2023-07-04T15:28:32.238Z,checkoutservice,memory,11911168
2023-07-04T15:28:32.238Z,productcatalogservice,memory,9371648
2023-07-04T15:28:32.238Z,frontend,memory,15605760
2023-07-04T15:28:32.238Z,recommendationservice,memory,42205184
2023-07-04T15:28:33.310Z,shippingservice,memory,15241216
2023-07-04T15:28:33.310Z,emailservice,memory,47366144
2023-07-04T15:28:33.310Z,paymentservice,memory,22708224
2023-07-04T15:28:33.310Z,cartservice,memory,39157760
2023-07-04T15:28:33.310Z,redis-cart,memory,8622080
2023-07-04T15:28:33.310Z,currencyservice,memory,33427456
2023-07-04T15:28:36.094Z,adservice,memory,83460096
2023-07-04T15:28:42.238Z,checkoutservice,memory,11866112
2023-07-04T15:28:42.238Z,productcatalogservice,memory,9371648
2023-07-04T15:28:42.238Z,recommendationservice,memory,42348544
2023-07-04T15:28:42.238Z,frontend,memory,15265792
2023-07-04T15:28:43.310Z,emailservice,memory,47366144
2023-07-04T15:28:43.310Z,redis-cart,memory,8622080
2023-07-04T15:28:43.310Z,shippingservice,memory,15241216
2023-07-04T15:28:43.310Z,paymentservice,memory,21999616
2023-07-04T15:28:43.310Z,currencyservice,memory,33357824
2023-07-04T15:28:43.310Z,cartservice,memory,39243776
2023-07-04T15:28:46.093Z,adservice,memory,83460096
2023-07-04T15:28:52.239Z,recommendationservice,memory,42217472
2023-07-04T15:28:52.239Z,productcatalogservice,memory,9371648
2023-07-04T15:28:52.239Z,checkoutservice,memory,11866112
2023-07-04T15:28:52.239Z,frontend,memory,15265792
2023-07-04T15:28:53.310Z,currencyservice,memory,33357824
2023-07-04T15:28:53.310Z,paymentservice,memory,21999616
2023-07-04T15:28:53.310Z,shippingservice,memory,15241216
2023-07-04T15:28:53.310Z,emailservice,memory,47366144
2023-07-04T15:28:53.310Z,cartservice,memory,39243776
2023-07-04T15:28:53.310Z,redis-cart,memory,8622080
2023-07-04T15:28:56.093Z,adservice,memory,83390464
2023-07-04T15:29:02.238Z,recommendationservice,memory,42217472
2023-07-04T15:29:02.238Z,checkoutservice,memory,11866112
2023-07-04T15:29:02.238Z,productcatalogservice,memory,9371648
2023-07-04T15:29:02.238Z,frontend,memory,15265792
2023-07-04T15:29:03.310Z,redis-cart,memory,8634368
2023-07-04T15:29:03.310Z,cartservice,memory,39243776
2023-07-04T15:29:03.310Z,emailservice,memory,47366144
2023-07-04T15:29:03.310Z,paymentservice,memory,21999616
2023-07-04T15:29:03.310Z,currencyservice,memory,33243136
2023-07-04T15:29:03.310Z,shippingservice,memory,15245312
2023-07-04T15:29:06.094Z,adservice,memory,83415040
2023-07-04T15:29:12.239Z,checkoutservice,memory,11866112
2023-07-04T15:29:12.239Z,frontend,memory,15265792
2023-07-04T15:29:12.239Z,recommendationservice,memory,42217472
2023-07-04T15:29:12.239Z,productcatalogservice,memory,9170944
2023-07-04T15:29:13.311Z,paymentservice,memory,22224896
2023-07-04T15:29:13.311Z,redis-cart,memory,8634368
2023-07-04T15:29:13.311Z,emailservice,memory,47366144
2023-07-04T15:29:13.311Z,cartservice,memory,39198720
2023-07-04T15:29:13.311Z,shippingservice,memory,15245312
2023-07-04T15:29:13.311Z,currencyservice,memory,33243136
2023-07-04T15:29:16.094Z,adservice,memory,83415040
2023-07-04T15:29:22.239Z,recommendationservice,memory,42221568
2023-07-04T15:29:22.239Z,frontend,memory,15544320
2023-07-04T15:29:22.239Z,checkoutservice,memory,11866112
2023-07-04T15:29:22.239Z,productcatalogservice,memory,9342976
2023-07-04T15:29:23.310Z,emailservice,memory,47407104
2023-07-04T15:29:23.310Z,shippingservice,memory,15245312
2023-07-04T15:29:23.310Z,currencyservice,memory,34091008
2023-07-04T15:29:23.310Z,cartservice,memory,39243776
2023-07-04T15:29:23.310Z,redis-cart,memory,8634368
2023-07-04T15:29:23.310Z,paymentservice,memory,22470656
2023-07-04T15:29:26.094Z,adservice,memory,86618112
2023-07-04T15:29:32.238Z,productcatalogservice,memory,9342976
2023-07-04T15:29:32.238Z,checkoutservice,memory,11866112
2023-07-04T15:29:32.238Z,recommendationservice,memory,42221568
2023-07-04T15:29:32.238Z,frontend,memory,15544320
