2023-07-04T20:26:23.440Z,cartservice,memory,20418560
2023-07-04T20:26:23.454Z,cartservice,memory,21475328
2023-07-04T20:26:23.440Z,cartservice,memory,23695360
2023-07-04T20:26:23.440Z,checkoutservice,memory,10518528
2023-07-04T20:26:23.454Z,cartservice,memory,29569024
2023-07-04T20:26:23.440Z,shippingservice,memory,8224768
2023-07-04T20:26:23.440Z,redis-cart,memory,8101888
2023-07-04T20:26:23.440Z,paymentservice,memory,19763200
2023-07-04T20:26:23.454Z,currencyservice,memory,23396352
2023-07-04T20:26:23.440Z,emailservice,memory,40865792
2023-07-04T20:26:23.440Z,adservice,memory,72048640
2023-07-04T20:26:23.454Z,recommendationservice,memory,44425216
2023-07-04T20:26:23.440Z,frontend,memory,11677696
2023-07-04T20:26:23.454Z,productcatalogservice,memory,10788864
2023-07-04T20:26:23.440Z,cartservice,memory,20574208
2023-07-04T20:26:23.440Z,cartservice,memory,21258240
2023-07-04T20:26:33.800Z,recommendationservice,memory,44425216
2023-07-04T20:26:33.800Z,productcatalogservice,memory,10715136
2023-07-04T20:26:33.797Z,emailservice,memory,40861696
2023-07-04T20:26:33.800Z,currencyservice,memory,23916544
2023-07-04T20:26:33.797Z,cartservice,memory,24092672
2023-07-04T20:26:33.800Z,cartservice,memory,29569024
2023-07-04T20:26:33.800Z,cartservice,memory,27852800
2023-07-04T20:26:33.797Z,cartservice,memory,23724032
2023-07-04T20:26:33.797Z,adservice,memory,74874880
2023-07-04T20:26:33.800Z,cartservice,memory,23744512
2023-07-04T20:26:33.950Z,paymentservice,memory,19386368
2023-07-04T20:26:33.950Z,checkoutservice,memory,10518528
2023-07-04T20:26:33.950Z,redis-cart,memory,7970816
2023-07-04T20:26:33.950Z,shippingservice,memory,10756096
2023-07-04T20:26:33.950Z,cartservice,memory,23973888
2023-07-04T20:26:33.950Z,cartservice,memory,23715840
2023-07-04T20:26:33.950Z,cartservice,memory,24092672
2023-07-04T20:26:33.950Z,frontend,memory,11968512
2023-07-04T20:26:43.797Z,adservice,memory,75223040
2023-07-04T20:26:43.800Z,recommendationservice,memory,41463808
2023-07-04T20:26:43.800Z,currencyservice,memory,22847488
2023-07-04T20:26:43.800Z,cartservice,memory,28114944
2023-07-04T20:26:43.797Z,cartservice,memory,24264704
2023-07-04T20:26:43.797Z,cartservice,memory,23834624
2023-07-04T20:26:43.797Z,emailservice,memory,40861696
2023-07-04T20:26:43.800Z,cartservice,memory,28499968
2023-07-04T20:26:43.800Z,productcatalogservice,memory,10715136
2023-07-04T20:26:43.800Z,cartservice,memory,24154112
2023-07-04T20:26:43.950Z,paymentservice,memory,19386368
2023-07-04T20:26:43.950Z,checkoutservice,memory,10518528
2023-07-04T20:26:43.950Z,cartservice,memory,24092672
2023-07-04T20:26:43.950Z,redis-cart,memory,7970816
2023-07-04T20:26:43.950Z,shippingservice,memory,10756096
2023-07-04T20:26:43.950Z,cartservice,memory,23973888
2023-07-04T20:26:43.950Z,cartservice,memory,23715840
2023-07-04T20:26:43.950Z,frontend,memory,11968512
2023-07-04T20:26:53.801Z,cartservice,memory,28897280
2023-07-04T20:26:53.801Z,cartservice,memory,27672576
2023-07-04T20:26:53.797Z,adservice,memory,75223040
2023-07-04T20:26:53.801Z,productcatalogservice,memory,10870784
2023-07-04T20:26:53.797Z,cartservice,memory,23834624
2023-07-04T20:26:53.797Z,emailservice,memory,40861696
2023-07-04T20:26:53.801Z,currencyservice,memory,22339584
2023-07-04T20:26:53.801Z,cartservice,memory,24244224
2023-07-04T20:26:53.797Z,cartservice,memory,24264704
2023-07-04T20:26:53.801Z,recommendationservice,memory,41455616
2023-07-04T20:26:53.950Z,cartservice,memory,23851008
2023-07-04T20:26:53.950Z,paymentservice,memory,19386368
2023-07-04T20:26:53.950Z,cartservice,memory,24264704
2023-07-04T20:26:53.950Z,redis-cart,memory,7983104
2023-07-04T20:26:53.950Z,shippingservice,memory,10756096
2023-07-04T20:26:53.950Z,cartservice,memory,23973888
2023-07-04T20:26:53.950Z,frontend,memory,11968512
2023-07-04T20:26:53.950Z,checkoutservice,memory,10588160
2023-07-04T20:27:03.800Z,cartservice,memory,24244224
2023-07-04T20:27:03.800Z,cartservice,memory,28897280
2023-07-04T20:27:03.800Z,recommendationservice,memory,41455616
2023-07-04T20:27:03.797Z,cartservice,memory,22315008
2023-07-04T20:27:03.797Z,emailservice,memory,40865792
2023-07-04T20:27:03.800Z,productcatalogservice,memory,10870784
2023-07-04T20:27:03.797Z,cartservice,memory,22265856
2023-07-04T20:27:03.800Z,currencyservice,memory,22339584
2023-07-04T20:27:03.800Z,cartservice,memory,27672576
2023-07-04T20:27:03.797Z,adservice,memory,76230656
2023-07-04T20:27:03.950Z,paymentservice,memory,19759104
2023-07-04T20:27:03.950Z,cartservice,memory,23035904
2023-07-04T20:27:03.950Z,cartservice,memory,21323776
2023-07-04T20:27:03.950Z,checkoutservice,memory,10690560
2023-07-04T20:27:03.950Z,cartservice,memory,22216704
2023-07-04T20:27:03.950Z,redis-cart,memory,8126464
2023-07-04T20:27:03.950Z,shippingservice,memory,10821632
2023-07-04T20:27:03.950Z,frontend,memory,14819328
2023-07-04T20:27:13.801Z,productcatalogservice,memory,10846208
2023-07-04T20:27:13.801Z,cartservice,memory,24244224
2023-07-04T20:27:13.797Z,adservice,memory,76275712
2023-07-04T20:27:13.801Z,currencyservice,memory,22339584
2023-07-04T20:27:13.797Z,emailservice,memory,40865792
2023-07-04T20:27:13.801Z,cartservice,memory,27914240
2023-07-04T20:27:13.801Z,cartservice,memory,28962816
2023-07-04T20:27:13.801Z,recommendationservice,memory,41455616
2023-07-04T20:27:13.797Z,cartservice,memory,22265856
2023-07-04T20:27:13.797Z,cartservice,memory,22302720
2023-07-04T20:27:13.950Z,cartservice,memory,22347776
2023-07-04T20:27:13.950Z,redis-cart,memory,8126464
2023-07-04T20:27:13.950Z,frontend,memory,15241216
2023-07-04T20:27:13.950Z,cartservice,memory,22441984
2023-07-04T20:27:13.950Z,cartservice,memory,22216704
2023-07-04T20:27:13.950Z,shippingservice,memory,10821632
2023-07-04T20:27:13.950Z,paymentservice,memory,19316736
2023-07-04T20:27:13.950Z,checkoutservice,memory,10989568
2023-07-04T20:27:23.797Z,emailservice,memory,40865792
2023-07-04T20:27:23.800Z,cartservice,memory,23449600
2023-07-04T20:27:23.800Z,cartservice,memory,29151232
2023-07-04T20:27:23.797Z,cartservice,memory,22302720
2023-07-04T20:27:23.797Z,adservice,memory,76275712
2023-07-04T20:27:23.800Z,recommendationservice,memory,41463808
2023-07-04T20:27:23.800Z,cartservice,memory,28225536
2023-07-04T20:27:23.797Z,cartservice,memory,22487040
2023-07-04T20:27:23.800Z,currencyservice,memory,22081536
2023-07-04T20:27:23.800Z,productcatalogservice,memory,11198464
2023-07-04T20:27:23.951Z,frontend,memory,15241216
2023-07-04T20:27:23.951Z,cartservice,memory,22413312
2023-07-04T20:27:23.951Z,shippingservice,memory,10977280
2023-07-04T20:27:23.951Z,checkoutservice,memory,11067392
2023-07-04T20:27:23.951Z,redis-cart,memory,8130560
2023-07-04T20:27:23.951Z,cartservice,memory,21946368
2023-07-04T20:27:23.951Z,cartservice,memory,22552576
2023-07-04T20:27:23.951Z,paymentservice,memory,19460096
2023-07-04T20:27:33.801Z,recommendationservice,memory,41463808
2023-07-04T20:27:33.801Z,cartservice,memory,30023680
2023-07-04T20:27:33.797Z,emailservice,memory,40865792
2023-07-04T20:27:33.797Z,adservice,memory,76992512
2023-07-04T20:27:33.797Z,cartservice,memory,21635072
2023-07-04T20:27:33.801Z,cartservice,memory,28225536
2023-07-04T20:27:33.797Z,cartservice,memory,22487040
2023-07-04T20:27:33.801Z,productcatalogservice,memory,11198464
2023-07-04T20:27:33.801Z,cartservice,memory,22466560
2023-07-04T20:27:33.801Z,currencyservice,memory,23068672
2023-07-04T20:27:33.950Z,frontend,memory,15241216
2023-07-04T20:27:33.950Z,redis-cart,memory,8130560
2023-07-04T20:27:33.950Z,cartservice,memory,22413312
2023-07-04T20:27:33.950Z,cartservice,memory,21946368
2023-07-04T20:27:33.950Z,shippingservice,memory,10977280
2023-07-04T20:27:33.950Z,checkoutservice,memory,11067392
2023-07-04T20:27:33.950Z,cartservice,memory,22552576
2023-07-04T20:27:33.950Z,paymentservice,memory,19460096
2023-07-04T20:27:43.797Z,cartservice,memory,22568960
2023-07-04T20:27:43.797Z,emailservice,memory,40865792
2023-07-04T20:27:43.800Z,productcatalogservice,memory,11198464
2023-07-04T20:27:43.797Z,cartservice,memory,22818816
2023-07-04T20:27:43.797Z,adservice,memory,77144064
2023-07-04T20:27:43.800Z,cartservice,memory,22466560
2023-07-04T20:27:43.800Z,recommendationservice,memory,41463808
2023-07-04T20:27:43.800Z,currencyservice,memory,23068672
2023-07-04T20:27:43.800Z,cartservice,memory,30023680
2023-07-04T20:27:43.800Z,cartservice,memory,28225536
2023-07-04T20:27:43.951Z,shippingservice,memory,10903552
2023-07-04T20:27:43.951Z,cartservice,memory,21622784
2023-07-04T20:27:43.951Z,cartservice,memory,22634496
2023-07-04T20:27:43.951Z,frontend,memory,15138816
2023-07-04T20:27:43.951Z,redis-cart,memory,8138752
2023-07-04T20:27:43.951Z,cartservice,memory,21569536
2023-07-04T20:27:43.951Z,checkoutservice,memory,11075584
2023-07-04T20:27:43.951Z,paymentservice,memory,19607552
2023-07-04T20:27:53.801Z,recommendationservice,memory,41472000
2023-07-04T20:27:53.801Z,productcatalogservice,memory,11038720
2023-07-04T20:27:53.801Z,cartservice,memory,28442624
2023-07-04T20:27:53.797Z,adservice,memory,77144064
2023-07-04T20:27:53.801Z,cartservice,memory,30023680
2023-07-04T20:27:53.801Z,currencyservice,memory,23068672
2023-07-04T20:27:53.797Z,emailservice,memory,40869888
2023-07-04T20:27:53.801Z,cartservice,memory,22466560
2023-07-04T20:27:53.797Z,cartservice,memory,22814720
2023-07-04T20:27:53.797Z,cartservice,memory,22818816
2023-07-04T20:27:53.951Z,frontend,memory,15138816
2023-07-04T20:27:53.951Z,shippingservice,memory,10903552
2023-07-04T20:27:53.951Z,checkoutservice,memory,11075584
2023-07-04T20:27:53.951Z,redis-cart,memory,8138752
2023-07-04T20:27:53.951Z,cartservice,memory,21569536
2023-07-04T20:27:53.951Z,cartservice,memory,22634496
2023-07-04T20:27:53.951Z,cartservice,memory,21622784
2023-07-04T20:27:53.951Z,paymentservice,memory,19607552
2023-07-04T20:28:03.801Z,cartservice,memory,28430336
2023-07-04T20:28:03.797Z,emailservice,memory,40869888
2023-07-04T20:28:03.801Z,recommendationservice,memory,41463808
2023-07-04T20:28:03.797Z,adservice,memory,77144064
2023-07-04T20:28:03.797Z,cartservice,memory,22814720
2023-07-04T20:28:03.797Z,cartservice,memory,22818816
2023-07-04T20:28:03.801Z,cartservice,memory,30924800
2023-07-04T20:28:03.801Z,productcatalogservice,memory,10866688
2023-07-04T20:28:03.801Z,cartservice,memory,22216704
2023-07-04T20:28:03.801Z,currencyservice,memory,23478272
2023-07-04T20:28:03.950Z,shippingservice,memory,10915840
2023-07-04T20:28:03.950Z,cartservice,memory,24145920
2023-07-04T20:28:03.950Z,checkoutservice,memory,11087872
2023-07-04T20:28:03.950Z,paymentservice,memory,20086784
2023-07-04T20:28:03.950Z,cartservice,memory,24145920
2023-07-04T20:28:03.950Z,frontend,memory,14929920
2023-07-04T20:28:03.950Z,cartservice,memory,22339584
2023-07-04T20:28:03.950Z,redis-cart,memory,8007680
2023-07-04T20:28:13.800Z,recommendationservice,memory,41463808
2023-07-04T20:28:13.797Z,cartservice,memory,24047616
2023-07-04T20:28:13.797Z,adservice,memory,77385728
2023-07-04T20:28:13.800Z,cartservice,memory,28430336
2023-07-04T20:28:13.800Z,cartservice,memory,22216704
2023-07-04T20:28:13.800Z,productcatalogservice,memory,10866688
2023-07-04T20:28:13.800Z,cartservice,memory,30924800
2023-07-04T20:28:13.800Z,currencyservice,memory,23478272
2023-07-04T20:28:13.797Z,emailservice,memory,40898560
2023-07-04T20:28:13.797Z,cartservice,memory,23896064
2023-07-04T20:28:13.950Z,frontend,memory,14929920
2023-07-04T20:28:13.950Z,cartservice,memory,22339584
2023-07-04T20:28:13.950Z,cartservice,memory,24145920
2023-07-04T20:28:13.950Z,paymentservice,memory,20086784
2023-07-04T20:28:13.950Z,shippingservice,memory,10915840
2023-07-04T20:28:13.950Z,cartservice,memory,24145920
2023-07-04T20:28:13.950Z,redis-cart,memory,8007680
2023-07-04T20:28:13.950Z,checkoutservice,memory,11087872
2023-07-04T20:28:23.797Z,emailservice,memory,41029632
2023-07-04T20:28:23.801Z,cartservice,memory,30871552
2023-07-04T20:28:23.801Z,currencyservice,memory,23650304
2023-07-04T20:28:23.801Z,recommendationservice,memory,41603072
2023-07-04T20:28:23.801Z,cartservice,memory,24190976
2023-07-04T20:28:23.801Z,productcatalogservice,memory,11124736
2023-07-04T20:28:23.801Z,cartservice,memory,31846400
2023-07-04T20:28:23.797Z,cartservice,memory,24371200
2023-07-04T20:28:23.797Z,cartservice,memory,23412736
2023-07-04T20:28:23.797Z,adservice,memory,77684736
2023-07-04T20:28:23.950Z,redis-cart,memory,8007680
2023-07-04T20:28:23.950Z,cartservice,memory,24305664
2023-07-04T20:28:23.950Z,frontend,memory,14929920
2023-07-04T20:28:23.950Z,checkoutservice,memory,11337728
2023-07-04T20:28:23.950Z,cartservice,memory,24244224
2023-07-04T20:28:23.950Z,cartservice,memory,24145920
2023-07-04T20:28:23.950Z,shippingservice,memory,10977280
2023-07-04T20:28:23.950Z,paymentservice,memory,19480576
2023-07-04T20:28:33.797Z,cartservice,memory,24371200
2023-07-04T20:28:33.801Z,recommendationservice,memory,41480192
2023-07-04T20:28:33.801Z,cartservice,memory,31948800
2023-07-04T20:28:33.801Z,cartservice,memory,24338432
2023-07-04T20:28:33.801Z,productcatalogservice,memory,10842112
2023-07-04T20:28:33.801Z,currencyservice,memory,24727552
2023-07-04T20:28:33.801Z,cartservice,memory,29507584
2023-07-04T20:28:33.797Z,emailservice,memory,41029632
2023-07-04T20:28:33.797Z,cartservice,memory,23412736
2023-07-04T20:28:33.797Z,adservice,memory,77684736
2023-07-04T20:28:33.951Z,paymentservice,memory,19791872
2023-07-04T20:28:33.951Z,cartservice,memory,24436736
2023-07-04T20:28:33.951Z,redis-cart,memory,8003584
2023-07-04T20:28:33.951Z,checkoutservice,memory,11370496
2023-07-04T20:28:33.951Z,cartservice,memory,24461312
2023-07-04T20:28:33.951Z,cartservice,memory,23756800
2023-07-04T20:28:33.951Z,shippingservice,memory,10981376
2023-07-04T20:28:33.951Z,frontend,memory,15413248
2023-07-04T20:28:43.800Z,recommendationservice,memory,41480192
2023-07-04T20:28:43.800Z,cartservice,memory,31948800
2023-07-04T20:28:43.800Z,cartservice,memory,24338432
2023-07-04T20:28:43.797Z,cartservice,memory,23429120
2023-07-04T20:28:43.800Z,productcatalogservice,memory,10842112
2023-07-04T20:28:43.800Z,currencyservice,memory,24727552
2023-07-04T20:28:43.800Z,cartservice,memory,29507584
2023-07-04T20:28:43.797Z,cartservice,memory,22999040
2023-07-04T20:28:43.797Z,adservice,memory,78467072
2023-07-04T20:28:43.797Z,emailservice,memory,40898560
2023-07-04T20:28:43.950Z,checkoutservice,memory,11370496
2023-07-04T20:28:43.950Z,frontend,memory,15413248
2023-07-04T20:28:43.950Z,cartservice,memory,24461312
2023-07-04T20:28:43.950Z,cartservice,memory,23756800
2023-07-04T20:28:43.950Z,shippingservice,memory,10981376
2023-07-04T20:28:43.950Z,paymentservice,memory,19791872
2023-07-04T20:28:43.950Z,cartservice,memory,24436736
2023-07-04T20:28:43.950Z,redis-cart,memory,8003584
2023-07-04T20:28:53.797Z,cartservice,memory,23199744
2023-07-04T20:28:53.797Z,cartservice,memory,23429120
2023-07-04T20:28:53.800Z,recommendationservice,memory,41480192
2023-07-04T20:28:53.800Z,cartservice,memory,23564288
2023-07-04T20:28:53.800Z,productcatalogservice,memory,11145216
2023-07-04T20:28:53.800Z,cartservice,memory,28852224
2023-07-04T20:28:53.797Z,adservice,memory,78467072
2023-07-04T20:28:53.797Z,emailservice,memory,40898560
2023-07-04T20:28:53.800Z,cartservice,memory,32206848
2023-07-04T20:28:53.800Z,currencyservice,memory,24727552
2023-07-04T20:28:53.950Z,frontend,memory,15245312
2023-07-04T20:28:53.950Z,cartservice,memory,24600576
2023-07-04T20:28:53.950Z,checkoutservice,memory,11370496
2023-07-04T20:28:53.950Z,shippingservice,memory,10985472
2023-07-04T20:28:53.950Z,cartservice,memory,23629824
2023-07-04T20:28:53.950Z,cartservice,memory,23867392
2023-07-04T20:28:53.950Z,redis-cart,memory,8130560
2023-07-04T20:28:53.950Z,paymentservice,memory,19886080
2023-07-04T20:29:03.797Z,cartservice,memory,24125440
2023-07-04T20:29:03.801Z,productcatalogservice,memory,10883072
2023-07-04T20:29:03.797Z,adservice,memory,78692352
2023-07-04T20:29:03.797Z,emailservice,memory,42774528
2023-07-04T20:29:03.797Z,cartservice,memory,23310336
2023-07-04T20:29:03.801Z,cartservice,memory,28721152
2023-07-04T20:29:03.801Z,currencyservice,memory,25276416
2023-07-04T20:29:03.801Z,recommendationservice,memory,41472000
2023-07-04T20:29:03.801Z,cartservice,memory,32206848
2023-07-04T20:29:03.801Z,cartservice,memory,23564288
2023-07-04T20:29:03.950Z,redis-cart,memory,8003584
2023-07-04T20:29:03.950Z,cartservice,memory,23617536
2023-07-04T20:29:03.950Z,frontend,memory,15429632
2023-07-04T20:29:03.950Z,shippingservice,memory,11051008
2023-07-04T20:29:03.950Z,cartservice,memory,23552000
2023-07-04T20:29:03.950Z,paymentservice,memory,20156416
2023-07-04T20:29:03.950Z,checkoutservice,memory,11460608
2023-07-04T20:29:03.950Z,cartservice,memory,23498752
2023-07-04T20:29:13.801Z,cartservice,memory,23416832
2023-07-04T20:29:13.797Z,cartservice,memory,24125440
2023-07-04T20:29:13.801Z,currencyservice,memory,25497600
2023-07-04T20:29:13.801Z,recommendationservice,memory,41484288
2023-07-04T20:29:13.797Z,adservice,memory,78692352
2023-07-04T20:29:13.801Z,productcatalogservice,memory,11276288
2023-07-04T20:29:13.797Z,emailservice,memory,42774528
2023-07-04T20:29:13.797Z,cartservice,memory,23310336
2023-07-04T20:29:13.801Z,cartservice,memory,29659136
2023-07-04T20:29:13.801Z,cartservice,memory,32296960
2023-07-04T20:29:13.950Z,frontend,memory,15233024
2023-07-04T20:29:13.950Z,redis-cart,memory,8011776
2023-07-04T20:29:13.950Z,checkoutservice,memory,11460608
2023-07-04T20:29:13.950Z,cartservice,memory,23351296
2023-07-04T20:29:13.950Z,cartservice,memory,23498752
2023-07-04T20:29:13.950Z,shippingservice,memory,11051008
2023-07-04T20:29:13.950Z,cartservice,memory,23724032
2023-07-04T20:29:13.950Z,paymentservice,memory,19550208
2023-07-04T20:29:23.800Z,currencyservice,memory,25497600
2023-07-04T20:29:23.797Z,cartservice,memory,23564288
2023-07-04T20:29:23.800Z,cartservice,memory,29659136
2023-07-04T20:29:23.797Z,emailservice,memory,42717184
2023-07-04T20:29:23.800Z,cartservice,memory,23416832
2023-07-04T20:29:23.797Z,adservice,memory,78880768
2023-07-04T20:29:23.797Z,cartservice,memory,23650304
2023-07-04T20:29:23.800Z,productcatalogservice,memory,11276288
2023-07-04T20:29:23.800Z,recommendationservice,memory,41484288
2023-07-04T20:29:23.800Z,cartservice,memory,32296960
2023-07-04T20:29:23.950Z,cartservice,memory,23724032
2023-07-04T20:29:23.950Z,redis-cart,memory,8011776
2023-07-04T20:29:23.950Z,checkoutservice,memory,11460608
2023-07-04T20:29:23.950Z,shippingservice,memory,11051008
2023-07-04T20:29:23.950Z,cartservice,memory,23498752
2023-07-04T20:29:23.950Z,paymentservice,memory,19550208
2023-07-04T20:29:23.950Z,cartservice,memory,23351296
2023-07-04T20:29:23.950Z,frontend,memory,15233024
2023-07-04T20:29:33.801Z,productcatalogservice,memory,11624448
2023-07-04T20:29:33.801Z,recommendationservice,memory,41484288
2023-07-04T20:29:33.801Z,currencyservice,memory,25649152
2023-07-04T20:29:33.797Z,emailservice,memory,42717184
2023-07-04T20:29:33.797Z,adservice,memory,79863808
2023-07-04T20:29:33.801Z,cartservice,memory,23416832
2023-07-04T20:29:33.801Z,cartservice,memory,32825344
2023-07-04T20:29:33.797Z,cartservice,memory,23650304
2023-07-04T20:29:33.797Z,cartservice,memory,23568384
2023-07-04T20:29:33.801Z,cartservice,memory,29777920
2023-07-04T20:29:33.950Z,cartservice,memory,23777280
2023-07-04T20:29:33.950Z,checkoutservice,memory,11505664
2023-07-04T20:29:33.950Z,frontend,memory,15491072
2023-07-04T20:29:33.950Z,redis-cart,memory,8007680
2023-07-04T20:29:33.950Z,paymentservice,memory,19791872
2023-07-04T20:29:33.950Z,cartservice,memory,23715840
2023-07-04T20:29:33.950Z,cartservice,memory,23826432
2023-07-04T20:29:33.950Z,shippingservice,memory,11055104
2023-07-04T20:29:43.797Z,emailservice,memory,42713088
2023-07-04T20:29:43.797Z,adservice,memory,79863808
2023-07-04T20:29:43.801Z,currencyservice,memory,26177536
2023-07-04T20:29:43.801Z,cartservice,memory,23764992
2023-07-04T20:29:43.797Z,cartservice,memory,23994368
2023-07-04T20:29:43.797Z,cartservice,memory,23568384
2023-07-04T20:29:43.801Z,cartservice,memory,29978624
2023-07-04T20:29:43.801Z,recommendationservice,memory,41676800
2023-07-04T20:29:43.801Z,cartservice,memory,33161216
2023-07-04T20:29:43.801Z,productcatalogservice,memory,11010048
2023-07-04T20:29:43.951Z,frontend,memory,15532032
2023-07-04T20:29:43.951Z,shippingservice,memory,11055104
2023-07-04T20:29:43.951Z,paymentservice,memory,19963904
2023-07-04T20:29:43.951Z,redis-cart,memory,8011776
2023-07-04T20:29:43.951Z,cartservice,memory,23937024
2023-07-04T20:29:43.951Z,checkoutservice,memory,11505664
2023-07-04T20:29:43.951Z,cartservice,memory,23777280
2023-07-04T20:29:43.951Z,cartservice,memory,23826432
2023-07-04T20:29:53.797Z,cartservice,memory,24788992
2023-07-04T20:29:53.800Z,cartservice,memory,23764992
2023-07-04T20:29:53.800Z,currencyservice,memory,26177536
2023-07-04T20:29:53.800Z,cartservice,memory,29978624
2023-07-04T20:29:53.800Z,recommendationservice,memory,41676800
2023-07-04T20:29:53.800Z,productcatalogservice,memory,11010048
2023-07-04T20:29:53.797Z,emailservice,memory,42713088
2023-07-04T20:29:53.797Z,cartservice,memory,23994368
2023-07-04T20:29:53.800Z,cartservice,memory,33161216
2023-07-04T20:29:53.797Z,adservice,memory,79446016
2023-07-04T20:29:53.950Z,shippingservice,memory,11055104
2023-07-04T20:29:53.950Z,redis-cart,memory,8011776
2023-07-04T20:29:53.950Z,cartservice,memory,23937024
2023-07-04T20:29:53.950Z,paymentservice,memory,19963904
2023-07-04T20:29:53.950Z,frontend,memory,15532032
2023-07-04T20:29:53.950Z,checkoutservice,memory,11505664
2023-07-04T20:29:53.950Z,cartservice,memory,23777280
2023-07-04T20:29:53.950Z,cartservice,memory,23826432
2023-07-04T20:30:03.800Z,cartservice,memory,33411072
2023-07-04T20:30:03.797Z,adservice,memory,79446016
2023-07-04T20:30:03.800Z,currencyservice,memory,26177536
2023-07-04T20:30:03.797Z,emailservice,memory,42717184
2023-07-04T20:30:03.800Z,productcatalogservice,memory,11010048
2023-07-04T20:30:03.800Z,cartservice,memory,23764992
2023-07-04T20:30:03.797Z,cartservice,memory,24051712
2023-07-04T20:30:03.797Z,cartservice,memory,24903680
2023-07-04T20:30:03.800Z,recommendationservice,memory,41676800
2023-07-04T20:30:03.800Z,cartservice,memory,29679616
2023-07-04T20:30:03.951Z,cartservice,memory,24973312
2023-07-04T20:30:03.951Z,redis-cart,memory,8011776
2023-07-04T20:30:03.951Z,cartservice,memory,24870912
2023-07-04T20:30:03.951Z,checkoutservice,memory,11472896
2023-07-04T20:30:03.951Z,cartservice,memory,24158208
2023-07-04T20:30:03.951Z,shippingservice,memory,11124736
2023-07-04T20:30:03.951Z,frontend,memory,15630336
2023-07-04T20:30:03.951Z,paymentservice,memory,20295680
2023-07-04T20:30:13.797Z,cartservice,memory,24903680
2023-07-04T20:30:13.801Z,cartservice,memory,34037760
2023-07-04T20:30:13.801Z,recommendationservice,memory,42684416
2023-07-04T20:30:13.797Z,emailservice,memory,42713088
2023-07-04T20:30:13.801Z,productcatalogservice,memory,10969088
2023-07-04T20:30:13.801Z,cartservice,memory,24141824
2023-07-04T20:30:13.797Z,cartservice,memory,25214976
2023-07-04T20:30:13.801Z,cartservice,memory,29855744
2023-07-04T20:30:13.797Z,adservice,memory,79736832
2023-07-04T20:30:13.801Z,currencyservice,memory,26959872
2023-07-04T20:30:13.950Z,cartservice,memory,24973312
2023-07-04T20:30:13.950Z,redis-cart,memory,8011776
2023-07-04T20:30:13.950Z,checkoutservice,memory,11472896
2023-07-04T20:30:13.950Z,paymentservice,memory,20295680
2023-07-04T20:30:13.950Z,shippingservice,memory,11124736
2023-07-04T20:30:13.950Z,frontend,memory,15630336
2023-07-04T20:30:13.950Z,cartservice,memory,24870912
2023-07-04T20:30:13.950Z,cartservice,memory,24158208
2023-07-04T20:30:23.797Z,cartservice,memory,24485888
2023-07-04T20:30:23.797Z,emailservice,memory,42713088
2023-07-04T20:30:23.797Z,adservice,memory,79736832
2023-07-04T20:30:23.800Z,productcatalogservice,memory,10969088
2023-07-04T20:30:23.800Z,currencyservice,memory,26959872
2023-07-04T20:30:23.800Z,cartservice,memory,24141824
2023-07-04T20:30:23.800Z,cartservice,memory,29855744
2023-07-04T20:30:23.797Z,cartservice,memory,24252416
2023-07-04T20:30:23.800Z,cartservice,memory,34037760
2023-07-04T20:30:23.800Z,recommendationservice,memory,42684416
2023-07-04T20:30:23.950Z,paymentservice,memory,20451328
2023-07-04T20:30:23.950Z,shippingservice,memory,11132928
2023-07-04T20:30:23.950Z,redis-cart,memory,8007680
2023-07-04T20:30:23.950Z,cartservice,memory,24211456
2023-07-04T20:30:23.950Z,cartservice,memory,24510464
2023-07-04T20:30:23.950Z,frontend,memory,15699968
2023-07-04T20:30:23.950Z,cartservice,memory,24350720
2023-07-04T20:30:23.950Z,checkoutservice,memory,11497472
2023-07-04T20:30:33.801Z,cartservice,memory,24195072
2023-07-04T20:30:33.801Z,recommendationservice,memory,42840064
2023-07-04T20:30:33.801Z,productcatalogservice,memory,11341824
2023-07-04T20:30:33.801Z,cartservice,memory,30826496
2023-07-04T20:30:33.797Z,cartservice,memory,24252416
2023-07-04T20:30:33.801Z,currencyservice,memory,32333824
2023-07-04T20:30:33.797Z,cartservice,memory,24485888
2023-07-04T20:30:33.797Z,emailservice,memory,42713088
2023-07-04T20:30:33.797Z,adservice,memory,79736832
2023-07-04T20:30:33.801Z,cartservice,memory,34340864
2023-07-04T20:30:33.950Z,cartservice,memory,24510464
2023-07-04T20:30:33.950Z,frontend,memory,15810560
2023-07-04T20:30:33.950Z,cartservice,memory,24211456
2023-07-04T20:30:33.950Z,redis-cart,memory,8007680
2023-07-04T20:30:33.950Z,cartservice,memory,24506368
2023-07-04T20:30:33.950Z,paymentservice,memory,19795968
2023-07-04T20:30:33.950Z,checkoutservice,memory,11497472
2023-07-04T20:30:33.950Z,shippingservice,memory,11132928
2023-07-04T20:30:43.797Z,emailservice,memory,42713088
2023-07-04T20:30:43.801Z,cartservice,memory,24457216
2023-07-04T20:30:43.797Z,cartservice,memory,24489984
2023-07-04T20:30:43.797Z,adservice,memory,80072704
2023-07-04T20:30:43.801Z,cartservice,memory,30179328
2023-07-04T20:30:43.801Z,currencyservice,memory,27860992
2023-07-04T20:30:43.801Z,recommendationservice,memory,42840064
2023-07-04T20:30:43.797Z,cartservice,memory,24399872
2023-07-04T20:30:43.801Z,productcatalogservice,memory,10993664
2023-07-04T20:30:43.801Z,cartservice,memory,34766848
2023-07-04T20:30:43.951Z,cartservice,memory,24735744
2023-07-04T20:30:43.951Z,paymentservice,memory,19795968
2023-07-04T20:30:43.951Z,frontend,memory,15687680
2023-07-04T20:30:43.951Z,cartservice,memory,24383488
2023-07-04T20:30:43.951Z,cartservice,memory,24506368
2023-07-04T20:30:43.951Z,redis-cart,memory,8589312
2023-07-04T20:30:43.951Z,checkoutservice,memory,11587584
2023-07-04T20:30:43.951Z,shippingservice,memory,11141120
2023-07-04T20:30:53.800Z,cartservice,memory,30179328
2023-07-04T20:30:53.797Z,cartservice,memory,24399872
2023-07-04T20:30:53.800Z,cartservice,memory,24457216
2023-07-04T20:30:53.797Z,emailservice,memory,42713088
2023-07-04T20:30:53.800Z,currencyservice,memory,27860992
2023-07-04T20:30:53.800Z,recommendationservice,memory,42840064
2023-07-04T20:30:53.800Z,productcatalogservice,memory,10993664
2023-07-04T20:30:53.800Z,cartservice,memory,34766848
2023-07-04T20:30:53.797Z,cartservice,memory,24489984
2023-07-04T20:30:53.797Z,adservice,memory,80060416
2023-07-04T20:30:53.951Z,cartservice,memory,24383488
2023-07-04T20:30:53.951Z,shippingservice,memory,11141120
2023-07-04T20:30:53.951Z,redis-cart,memory,8589312
2023-07-04T20:30:53.951Z,cartservice,memory,24735744
2023-07-04T20:30:53.951Z,frontend,memory,15687680
2023-07-04T20:30:53.951Z,cartservice,memory,24506368
2023-07-04T20:30:53.951Z,paymentservice,memory,19795968
2023-07-04T20:30:53.951Z,checkoutservice,memory,11587584
2023-07-04T20:31:03.800Z,cartservice,memory,25591808
2023-07-04T20:31:03.800Z,recommendationservice,memory,42840064
2023-07-04T20:31:03.800Z,currencyservice,memory,27860992
2023-07-04T20:31:03.797Z,cartservice,memory,25026560
2023-07-04T20:31:03.800Z,productcatalogservice,memory,11534336
2023-07-04T20:31:03.797Z,adservice,memory,80531456
2023-07-04T20:31:03.800Z,cartservice,memory,30531584
2023-07-04T20:31:03.800Z,cartservice,memory,34766848
2023-07-04T20:31:03.797Z,cartservice,memory,25124864
2023-07-04T20:31:03.797Z,emailservice,memory,42713088
2023-07-04T20:31:03.950Z,frontend,memory,15687680
2023-07-04T20:31:03.950Z,cartservice,memory,24899584
2023-07-04T20:31:03.950Z,cartservice,memory,24690688
2023-07-04T20:31:03.950Z,paymentservice,memory,20000768
2023-07-04T20:31:03.950Z,checkoutservice,memory,11587584
2023-07-04T20:31:03.950Z,redis-cart,memory,8593408
2023-07-04T20:31:03.950Z,cartservice,memory,25006080
2023-07-04T20:31:03.950Z,shippingservice,memory,11141120
2023-07-04T20:31:13.800Z,cartservice,memory,25763840
2023-07-04T20:31:13.800Z,productcatalogservice,memory,11534336
2023-07-04T20:31:13.797Z,cartservice,memory,25083904
2023-07-04T20:31:13.800Z,recommendationservice,memory,42942464
2023-07-04T20:31:13.797Z,cartservice,memory,25194496
2023-07-04T20:31:13.800Z,cartservice,memory,30531584
2023-07-04T20:31:13.797Z,adservice,memory,81252352
2023-07-04T20:31:13.800Z,currencyservice,memory,27430912
2023-07-04T20:31:13.800Z,cartservice,memory,35233792
2023-07-04T20:31:13.797Z,emailservice,memory,42713088
2023-07-04T20:31:13.950Z,shippingservice,memory,11141120
2023-07-04T20:31:13.950Z,cartservice,memory,25018368
2023-07-04T20:31:13.950Z,redis-cart,memory,8499200
2023-07-04T20:31:13.950Z,checkoutservice,memory,11657216
2023-07-04T20:31:13.950Z,cartservice,memory,25194496
2023-07-04T20:31:13.950Z,frontend,memory,15732736
2023-07-04T20:31:13.950Z,cartservice,memory,25223168
2023-07-04T20:31:13.950Z,paymentservice,memory,20361216
2023-07-04T20:31:23.797Z,adservice,memory,81252352
2023-07-04T20:31:23.797Z,cartservice,memory,25194496
2023-07-04T20:31:23.801Z,currencyservice,memory,28119040
2023-07-04T20:31:23.797Z,cartservice,memory,25313280
2023-07-04T20:31:23.801Z,cartservice,memory,30593024
2023-07-04T20:31:23.801Z,recommendationservice,memory,42954752
2023-07-04T20:31:23.801Z,cartservice,memory,25763840
2023-07-04T20:31:23.797Z,emailservice,memory,42733568
2023-07-04T20:31:23.801Z,productcatalogservice,memory,12894208
2023-07-04T20:31:23.801Z,cartservice,memory,35549184
2023-07-04T20:31:23.951Z,paymentservice,memory,20361216
2023-07-04T20:31:23.951Z,shippingservice,memory,11141120
2023-07-04T20:31:23.951Z,frontend,memory,15732736
2023-07-04T20:31:23.951Z,redis-cart,memory,8503296
2023-07-04T20:31:23.951Z,cartservice,memory,25223168
2023-07-04T20:31:23.951Z,cartservice,memory,25194496
2023-07-04T20:31:23.951Z,checkoutservice,memory,11718656
2023-07-04T20:31:23.951Z,cartservice,memory,25169920
2023-07-04T20:31:33.797Z,emailservice,memory,42733568
2023-07-04T20:31:33.797Z,adservice,memory,81252352
2023-07-04T20:31:33.797Z,cartservice,memory,25194496
2023-07-04T20:31:33.797Z,cartservice,memory,25313280
2023-07-04T20:31:33.950Z,cartservice,memory,25194496
2023-07-04T20:31:33.950Z,checkoutservice,memory,11718656
2023-07-04T20:31:33.950Z,paymentservice,memory,20361216
2023-07-04T20:31:33.950Z,redis-cart,memory,8503296
2023-07-04T20:31:33.950Z,frontend,memory,15732736
2023-07-04T20:31:33.800Z,recommendationservice,memory,42958848
2023-07-04T20:31:33.800Z,cartservice,memory,26091520
2023-07-04T20:31:33.800Z,cartservice,memory,37093376
2023-07-04T20:31:33.800Z,cartservice,memory,30842880
2023-07-04T20:31:33.800Z,currencyservice,memory,28012544
2023-07-04T20:31:33.800Z,productcatalogservice,memory,15392768
2023-07-04T20:31:33.950Z,shippingservice,memory,11141120
2023-07-04T20:31:33.950Z,cartservice,memory,25169920
2023-07-04T20:31:33.950Z,cartservice,memory,25223168
2023-07-04T20:31:43.798Z,cartservice,memory,25448448
2023-07-04T20:31:43.798Z,emailservice,memory,42717184
2023-07-04T20:31:43.800Z,recommendationservice,memory,42971136
2023-07-04T20:31:43.800Z,cartservice,memory,37093376
2023-07-04T20:31:43.800Z,cartservice,memory,32239616
2023-07-04T20:31:43.800Z,currencyservice,memory,28012544
2023-07-04T20:31:43.800Z,productcatalogservice,memory,15024128
2023-07-04T20:31:43.798Z,adservice,memory,81178624
2023-07-04T20:31:43.798Z,cartservice,memory,25358336
2023-07-04T20:31:43.800Z,cartservice,memory,25268224
2023-07-04T20:31:43.950Z,paymentservice,memory,19746816
2023-07-04T20:31:43.950Z,frontend,memory,15642624
2023-07-04T20:31:43.950Z,shippingservice,memory,11141120
2023-07-04T20:31:43.950Z,cartservice,memory,25325568
2023-07-04T20:31:43.950Z,redis-cart,memory,8634368
2023-07-04T20:31:43.950Z,cartservice,memory,25329664
2023-07-04T20:31:43.950Z,cartservice,memory,25391104
2023-07-04T20:31:43.950Z,checkoutservice,memory,11804672
2023-07-04T20:31:53.798Z,cartservice,memory,25751552
2023-07-04T20:31:53.801Z,cartservice,memory,32415744
2023-07-04T20:31:53.801Z,cartservice,memory,36966400
2023-07-04T20:31:53.801Z,cartservice,memory,25436160
2023-07-04T20:31:53.798Z,adservice,memory,81178624
2023-07-04T20:31:53.798Z,cartservice,memory,26333184
2023-07-04T20:31:53.798Z,emailservice,memory,42717184
2023-07-04T20:31:53.801Z,recommendationservice,memory,42971136
2023-07-04T20:31:53.801Z,currencyservice,memory,28667904
2023-07-04T20:31:53.801Z,productcatalogservice,memory,15237120
2023-07-04T20:31:53.950Z,frontend,memory,15642624
2023-07-04T20:31:53.950Z,shippingservice,memory,11141120
2023-07-04T20:31:53.950Z,cartservice,memory,25391104
2023-07-04T20:31:53.950Z,checkoutservice,memory,11816960
2023-07-04T20:31:53.950Z,cartservice,memory,25518080
2023-07-04T20:31:53.950Z,cartservice,memory,25325568
2023-07-04T20:31:53.950Z,paymentservice,memory,20115456
2023-07-04T20:31:53.950Z,redis-cart,memory,8634368
2023-07-04T20:32:03.800Z,cartservice,memory,32415744
2023-07-04T20:32:03.797Z,adservice,memory,83222528
2023-07-04T20:32:03.800Z,cartservice,memory,36966400
2023-07-04T20:32:03.797Z,emailservice,memory,42717184
2023-07-04T20:32:03.800Z,currencyservice,memory,28667904
2023-07-04T20:32:03.800Z,recommendationservice,memory,42971136
2023-07-04T20:32:03.800Z,cartservice,memory,25436160
2023-07-04T20:32:03.797Z,cartservice,memory,25845760
2023-07-04T20:32:03.797Z,cartservice,memory,26333184
2023-07-04T20:32:03.800Z,productcatalogservice,memory,15237120
2023-07-04T20:32:03.950Z,cartservice,memory,25518080
2023-07-04T20:32:03.950Z,cartservice,memory,25325568
2023-07-04T20:32:03.950Z,shippingservice,memory,11141120
2023-07-04T20:32:03.950Z,paymentservice,memory,20115456
2023-07-04T20:32:03.950Z,cartservice,memory,25391104
2023-07-04T20:32:03.950Z,redis-cart,memory,8634368
2023-07-04T20:32:03.950Z,frontend,memory,15642624
2023-07-04T20:32:03.950Z,checkoutservice,memory,11816960
2023-07-04T20:32:13.797Z,cartservice,memory,25530368
2023-07-04T20:32:13.797Z,emailservice,memory,42721280
2023-07-04T20:32:13.801Z,cartservice,memory,32415744
2023-07-04T20:32:13.797Z,adservice,memory,83222528
2023-07-04T20:32:13.801Z,cartservice,memory,25436160
2023-07-04T20:32:13.801Z,productcatalogservice,memory,15237120
2023-07-04T20:32:13.801Z,currencyservice,memory,29134848
2023-07-04T20:32:13.801Z,cartservice,memory,36978688
2023-07-04T20:32:13.797Z,cartservice,memory,25845760
2023-07-04T20:32:13.801Z,recommendationservice,memory,42979328
2023-07-04T20:32:13.950Z,checkoutservice,memory,11841536
2023-07-04T20:32:13.950Z,cartservice,memory,25600000
2023-07-04T20:32:13.950Z,frontend,memory,15609856
2023-07-04T20:32:13.950Z,cartservice,memory,25694208
2023-07-04T20:32:13.950Z,paymentservice,memory,20525056
2023-07-04T20:32:13.950Z,shippingservice,memory,11141120
2023-07-04T20:32:13.950Z,cartservice,memory,26226688
2023-07-04T20:32:13.950Z,redis-cart,memory,8634368
2023-07-04T20:32:23.800Z,cartservice,memory,36900864
2023-07-04T20:32:23.800Z,productcatalogservice,memory,15040512
2023-07-04T20:32:23.797Z,cartservice,memory,25530368
2023-07-04T20:32:23.797Z,emailservice,memory,42721280
2023-07-04T20:32:23.797Z,adservice,memory,83222528
2023-07-04T20:32:23.800Z,currencyservice,memory,29122560
2023-07-04T20:32:23.800Z,recommendationservice,memory,42991616
2023-07-04T20:32:23.800Z,cartservice,memory,32206848
2023-07-04T20:32:23.800Z,cartservice,memory,26005504
2023-07-04T20:32:23.797Z,cartservice,memory,25845760
2023-07-04T20:32:23.950Z,shippingservice,memory,11145216
2023-07-04T20:32:23.950Z,frontend,memory,15609856
2023-07-04T20:32:23.950Z,cartservice,memory,25600000
2023-07-04T20:32:23.950Z,cartservice,memory,25804800
2023-07-04T20:32:23.950Z,checkoutservice,memory,11841536
2023-07-04T20:32:23.950Z,paymentservice,memory,20688896
2023-07-04T20:32:23.950Z,cartservice,memory,26226688
2023-07-04T20:32:23.950Z,redis-cart,memory,8499200
2023-07-04T20:32:33.797Z,cartservice,memory,26005504
2023-07-04T20:32:33.801Z,recommendationservice,memory,42991616
2023-07-04T20:32:33.801Z,cartservice,memory,32206848
2023-07-04T20:32:33.797Z,adservice,memory,81350656
2023-07-04T20:32:33.801Z,currencyservice,memory,29122560
2023-07-04T20:32:33.801Z,productcatalogservice,memory,15187968
2023-07-04T20:32:33.797Z,emailservice,memory,42717184
2023-07-04T20:32:33.801Z,cartservice,memory,36900864
2023-07-04T20:32:33.797Z,cartservice,memory,25812992
2023-07-04T20:32:33.801Z,cartservice,memory,26132480
2023-07-04T20:32:33.951Z,cartservice,memory,25804800
2023-07-04T20:32:33.951Z,frontend,memory,15646720
2023-07-04T20:32:33.951Z,cartservice,memory,26996736
2023-07-04T20:32:33.951Z,paymentservice,memory,20131840
2023-07-04T20:32:33.951Z,checkoutservice,memory,11345920
2023-07-04T20:32:33.951Z,redis-cart,memory,8499200
2023-07-04T20:32:33.951Z,shippingservice,memory,11145216
2023-07-04T20:32:33.951Z,cartservice,memory,26161152
2023-07-04T20:32:43.797Z,emailservice,memory,42721280
2023-07-04T20:32:43.800Z,currencyservice,memory,29122560
2023-07-04T20:32:43.800Z,productcatalogservice,memory,15187968
2023-07-04T20:32:43.800Z,cartservice,memory,36900864
2023-07-04T20:32:43.797Z,cartservice,memory,26005504
2023-07-04T20:32:43.797Z,cartservice,memory,25915392
2023-07-04T20:32:43.800Z,recommendationservice,memory,42991616
2023-07-04T20:32:43.797Z,adservice,memory,81948672
2023-07-04T20:32:43.800Z,cartservice,memory,26132480
2023-07-04T20:32:43.800Z,cartservice,memory,32206848
2023-07-04T20:32:43.950Z,cartservice,memory,26161152
2023-07-04T20:32:43.950Z,paymentservice,memory,20131840
2023-07-04T20:32:43.950Z,redis-cart,memory,8499200
2023-07-04T20:32:43.950Z,shippingservice,memory,11145216
2023-07-04T20:32:43.950Z,cartservice,memory,25804800
2023-07-04T20:32:43.950Z,frontend,memory,15646720
2023-07-04T20:32:43.950Z,checkoutservice,memory,11345920
2023-07-04T20:32:43.950Z,cartservice,memory,26996736
2023-07-04T20:32:53.797Z,emailservice,memory,42721280
2023-07-04T20:32:53.800Z,currencyservice,memory,29736960
2023-07-04T20:32:53.800Z,cartservice,memory,32169984
2023-07-04T20:32:53.800Z,recommendationservice,memory,42991616
2023-07-04T20:32:53.797Z,cartservice,memory,26107904
2023-07-04T20:32:53.797Z,cartservice,memory,26169344
2023-07-04T20:32:53.800Z,productcatalogservice,memory,15187968
2023-07-04T20:32:53.800Z,cartservice,memory,26132480
2023-07-04T20:32:53.800Z,cartservice,memory,36864000
2023-07-04T20:32:53.797Z,adservice,memory,81510400
2023-07-04T20:32:53.950Z,redis-cart,memory,8630272
2023-07-04T20:32:53.950Z,frontend,memory,15503360
2023-07-04T20:32:53.950Z,cartservice,memory,26271744
2023-07-04T20:32:53.950Z,paymentservice,memory,20254720
2023-07-04T20:32:53.950Z,shippingservice,memory,11149312
2023-07-04T20:32:53.950Z,cartservice,memory,26238976
2023-07-04T20:32:53.950Z,checkoutservice,memory,11366400
2023-07-04T20:32:53.950Z,cartservice,memory,27009024
2023-07-04T20:33:03.800Z,currencyservice,memory,29720576
2023-07-04T20:33:03.800Z,cartservice,memory,37031936
2023-07-04T20:33:03.797Z,adservice,memory,81833984
2023-07-04T20:33:03.797Z,emailservice,memory,42721280
2023-07-04T20:33:03.800Z,productcatalogservice,memory,15028224
2023-07-04T20:33:03.800Z,cartservice,memory,26402816
2023-07-04T20:33:03.797Z,cartservice,memory,26169344
2023-07-04T20:33:03.797Z,cartservice,memory,26566656
2023-07-04T20:33:03.800Z,recommendationservice,memory,42995712
2023-07-04T20:33:03.800Z,cartservice,memory,32346112
2023-07-04T20:33:03.950Z,cartservice,memory,26271744
2023-07-04T20:33:03.950Z,paymentservice,memory,20254720
2023-07-04T20:33:03.950Z,redis-cart,memory,8630272
2023-07-04T20:33:03.950Z,frontend,memory,15503360
2023-07-04T20:33:03.950Z,shippingservice,memory,11149312
2023-07-04T20:33:03.950Z,checkoutservice,memory,11366400
2023-07-04T20:33:03.950Z,cartservice,memory,27009024
2023-07-04T20:33:03.950Z,cartservice,memory,26238976
2023-07-04T20:33:13.801Z,cartservice,memory,37031936
2023-07-04T20:33:13.797Z,cartservice,memory,26169344
2023-07-04T20:33:13.801Z,productcatalogservice,memory,15253504
2023-07-04T20:33:13.801Z,currencyservice,memory,30203904
2023-07-04T20:33:13.797Z,cartservice,memory,26566656
2023-07-04T20:33:13.801Z,cartservice,memory,26402816
2023-07-04T20:33:13.797Z,adservice,memory,81833984
2023-07-04T20:33:13.797Z,emailservice,memory,42721280
2023-07-04T20:33:13.801Z,recommendationservice,memory,42995712
2023-07-04T20:33:13.801Z,cartservice,memory,32567296
2023-07-04T20:33:13.950Z,shippingservice,memory,11145216
2023-07-04T20:33:13.950Z,cartservice,memory,26439680
2023-07-04T20:33:13.950Z,redis-cart,memory,8499200
2023-07-04T20:33:13.950Z,cartservice,memory,26468352
2023-07-04T20:33:13.950Z,paymentservice,memory,20525056
2023-07-04T20:33:13.950Z,frontend,memory,15966208
2023-07-04T20:33:13.950Z,cartservice,memory,26546176
2023-07-04T20:33:13.950Z,checkoutservice,memory,11620352
2023-07-04T20:33:23.798Z,adservice,memory,81854464
2023-07-04T20:33:23.798Z,emailservice,memory,42721280
2023-07-04T20:33:23.800Z,recommendationservice,memory,43016192
2023-07-04T20:33:23.800Z,cartservice,memory,32694272
2023-07-04T20:33:23.800Z,cartservice,memory,26783744
2023-07-04T20:33:23.800Z,cartservice,memory,36958208
2023-07-04T20:33:23.800Z,productcatalogservice,memory,15335424
2023-07-04T20:33:23.798Z,cartservice,memory,26628096
2023-07-04T20:33:23.798Z,cartservice,memory,26656768
2023-07-04T20:33:23.800Z,currencyservice,memory,29908992
2023-07-04T20:33:23.950Z,paymentservice,memory,20525056
2023-07-04T20:33:23.950Z,frontend,memory,15966208
2023-07-04T20:33:23.950Z,redis-cart,memory,8499200
2023-07-04T20:33:23.950Z,cartservice,memory,26468352
2023-07-04T20:33:23.950Z,checkoutservice,memory,11620352
2023-07-04T20:33:23.950Z,shippingservice,memory,11145216
2023-07-04T20:33:23.950Z,cartservice,memory,26439680
2023-07-04T20:33:23.950Z,cartservice,memory,26546176
2023-07-04T20:33:33.800Z,cartservice,memory,32694272
2023-07-04T20:33:33.797Z,cartservice,memory,26656768
2023-07-04T20:33:33.800Z,currencyservice,memory,29908992
2023-07-04T20:33:33.797Z,cartservice,memory,27332608
2023-07-04T20:33:33.800Z,recommendationservice,memory,43016192
2023-07-04T20:33:33.800Z,cartservice,memory,26783744
2023-07-04T20:33:33.800Z,cartservice,memory,36958208
2023-07-04T20:33:33.797Z,adservice,memory,81854464
2023-07-04T20:33:33.797Z,emailservice,memory,42721280
2023-07-04T20:33:33.800Z,productcatalogservice,memory,15335424
2023-07-04T20:33:33.950Z,frontend,memory,15704064
2023-07-04T20:33:33.950Z,cartservice,memory,26783744
2023-07-04T20:33:33.950Z,checkoutservice,memory,11624448
2023-07-04T20:33:33.950Z,paymentservice,memory,20721664
2023-07-04T20:33:33.950Z,redis-cart,memory,8503296
2023-07-04T20:33:33.950Z,cartservice,memory,26877952
2023-07-04T20:33:33.950Z,cartservice,memory,26611712
2023-07-04T20:33:33.950Z,shippingservice,memory,11145216
2023-07-04T20:33:43.801Z,currencyservice,memory,30498816
2023-07-04T20:33:43.801Z,recommendationservice,memory,43008000
2023-07-04T20:33:43.797Z,emailservice,memory,42729472
2023-07-04T20:33:43.801Z,cartservice,memory,26910720
2023-07-04T20:33:43.797Z,adservice,memory,82018304
2023-07-04T20:33:43.797Z,cartservice,memory,27332608
2023-07-04T20:33:43.801Z,cartservice,memory,36958208
2023-07-04T20:33:43.797Z,cartservice,memory,27041792
2023-07-04T20:33:43.801Z,cartservice,memory,33144832
2023-07-04T20:33:43.801Z,productcatalogservice,memory,15036416
2023-07-04T20:33:43.950Z,cartservice,memory,26783744
2023-07-04T20:33:43.950Z,frontend,memory,15704064
2023-07-04T20:33:43.950Z,shippingservice,memory,11145216
2023-07-04T20:33:43.950Z,paymentservice,memory,20721664
2023-07-04T20:33:43.950Z,redis-cart,memory,8503296
2023-07-04T20:33:43.950Z,cartservice,memory,26611712
2023-07-04T20:33:43.950Z,checkoutservice,memory,11624448
2023-07-04T20:33:43.950Z,cartservice,memory,26877952
2023-07-04T20:33:53.801Z,cartservice,memory,33406976
2023-07-04T20:33:53.801Z,productcatalogservice,memory,15261696
2023-07-04T20:33:53.797Z,emailservice,memory,42729472
2023-07-04T20:33:53.797Z,adservice,memory,83185664
2023-07-04T20:33:53.801Z,recommendationservice,memory,43008000
2023-07-04T20:33:53.801Z,currencyservice,memory,30978048
2023-07-04T20:33:53.797Z,cartservice,memory,27041792
2023-07-04T20:33:53.797Z,cartservice,memory,27369472
2023-07-04T20:33:53.801Z,cartservice,memory,27127808
2023-07-04T20:33:53.801Z,cartservice,memory,36990976
2023-07-04T20:33:53.950Z,cartservice,memory,26886144
2023-07-04T20:33:53.950Z,shippingservice,memory,11145216
2023-07-04T20:33:53.950Z,frontend,memory,15958016
2023-07-04T20:33:53.950Z,paymentservice,memory,20074496
2023-07-04T20:33:53.950Z,checkoutservice,memory,11739136
2023-07-04T20:33:53.950Z,cartservice,memory,26976256
2023-07-04T20:33:53.950Z,redis-cart,memory,8630272
2023-07-04T20:33:53.950Z,cartservice,memory,26849280
2023-07-04T20:34:03.800Z,cartservice,memory,27127808
2023-07-04T20:34:03.800Z,cartservice,memory,36990976
2023-07-04T20:34:03.797Z,emailservice,memory,42729472
2023-07-04T20:34:03.797Z,cartservice,memory,27193344
2023-07-04T20:34:03.800Z,cartservice,memory,33406976
2023-07-04T20:34:03.800Z,productcatalogservice,memory,15261696
2023-07-04T20:34:03.797Z,adservice,memory,83185664
2023-07-04T20:34:03.797Z,cartservice,memory,27545600
2023-07-04T20:34:03.800Z,recommendationservice,memory,43008000
2023-07-04T20:34:03.800Z,currencyservice,memory,30978048
2023-07-04T20:34:03.950Z,redis-cart,memory,8499200
2023-07-04T20:34:03.950Z,cartservice,memory,27041792
2023-07-04T20:34:03.950Z,cartservice,memory,27402240
2023-07-04T20:34:03.950Z,checkoutservice,memory,11739136
2023-07-04T20:34:03.950Z,paymentservice,memory,20377600
2023-07-04T20:34:03.950Z,cartservice,memory,27062272
2023-07-04T20:34:03.950Z,shippingservice,memory,11145216
2023-07-04T20:34:03.950Z,frontend,memory,15958016
2023-07-04T20:34:13.797Z,emailservice,memory,42729472
2023-07-04T20:34:13.800Z,recommendationservice,memory,43012096
2023-07-04T20:34:13.800Z,cartservice,memory,36990976
2023-07-04T20:34:13.800Z,cartservice,memory,33406976
2023-07-04T20:34:13.797Z,cartservice,memory,27439104
2023-07-04T20:34:13.797Z,adservice,memory,83247104
2023-07-04T20:34:13.797Z,cartservice,memory,27406336
2023-07-04T20:34:13.800Z,cartservice,memory,27246592
2023-07-04T20:34:13.800Z,currencyservice,memory,30601216
2023-07-04T20:34:13.800Z,productcatalogservice,memory,15499264
2023-07-04T20:34:13.951Z,cartservice,memory,27529216
2023-07-04T20:34:13.951Z,cartservice,memory,27545600
2023-07-04T20:34:13.951Z,cartservice,memory,27062272
2023-07-04T20:34:13.951Z,checkoutservice,memory,12009472
2023-07-04T20:34:13.951Z,redis-cart,memory,8499200
2023-07-04T20:34:13.951Z,paymentservice,memory,20529152
2023-07-04T20:34:13.951Z,shippingservice,memory,11149312
2023-07-04T20:34:13.951Z,frontend,memory,15917056
2023-07-04T20:34:23.797Z,emailservice,memory,42729472
2023-07-04T20:34:23.801Z,cartservice,memory,36925440
2023-07-04T20:34:23.801Z,productcatalogservice,memory,15499264
2023-07-04T20:34:23.797Z,cartservice,memory,27406336
2023-07-04T20:34:23.801Z,currencyservice,memory,30601216
2023-07-04T20:34:23.801Z,cartservice,memory,33640448
2023-07-04T20:34:23.797Z,cartservice,memory,27439104
2023-07-04T20:34:23.797Z,adservice,memory,83247104
2023-07-04T20:34:23.801Z,cartservice,memory,27246592
2023-07-04T20:34:23.801Z,recommendationservice,memory,43020288
2023-07-04T20:34:23.950Z,cartservice,memory,27529216
2023-07-04T20:34:23.950Z,cartservice,memory,27545600
2023-07-04T20:34:23.950Z,cartservice,memory,27062272
2023-07-04T20:34:23.950Z,checkoutservice,memory,12009472
2023-07-04T20:34:23.950Z,paymentservice,memory,20529152
2023-07-04T20:34:23.950Z,redis-cart,memory,8499200
2023-07-04T20:34:23.950Z,shippingservice,memory,11149312
2023-07-04T20:34:23.950Z,frontend,memory,15917056
2023-07-04T20:34:33.798Z,cartservice,memory,27627520
2023-07-04T20:34:33.798Z,adservice,memory,83480576
2023-07-04T20:34:33.798Z,cartservice,memory,27459584
2023-07-04T20:34:33.798Z,emailservice,memory,42729472
2023-07-04T20:34:33.801Z,cartservice,memory,27426816
2023-07-04T20:34:33.801Z,recommendationservice,memory,43024384
2023-07-04T20:34:33.801Z,currencyservice,memory,31154176
2023-07-04T20:34:33.801Z,cartservice,memory,36978688
2023-07-04T20:34:33.801Z,cartservice,memory,33734656
2023-07-04T20:34:33.801Z,productcatalogservice,memory,15101952
2023-07-04T20:34:33.951Z,cartservice,memory,27340800
2023-07-04T20:34:33.951Z,cartservice,memory,27598848
2023-07-04T20:34:33.951Z,cartservice,memory,27594752
2023-07-04T20:34:33.951Z,checkoutservice,memory,12152832
2023-07-04T20:34:33.951Z,shippingservice,memory,11145216
2023-07-04T20:34:33.951Z,redis-cart,memory,8507392
2023-07-04T20:34:33.951Z,paymentservice,memory,20815872
2023-07-04T20:34:33.951Z,frontend,memory,15732736
2023-07-04T20:34:43.797Z,emailservice,memory,42729472
2023-07-04T20:34:43.797Z,cartservice,memory,27697152
2023-07-04T20:34:43.801Z,recommendationservice,memory,43032576
2023-07-04T20:34:43.801Z,cartservice,memory,27590656
2023-07-04T20:34:43.801Z,currencyservice,memory,31272960
2023-07-04T20:34:43.801Z,cartservice,memory,33873920
2023-07-04T20:34:43.801Z,productcatalogservice,memory,15327232
2023-07-04T20:34:43.797Z,cartservice,memory,27684864
2023-07-04T20:34:43.797Z,adservice,memory,83492864
2023-07-04T20:34:43.801Z,cartservice,memory,37036032
2023-07-04T20:34:43.950Z,cartservice,memory,27340800
2023-07-04T20:34:43.950Z,cartservice,memory,27598848
2023-07-04T20:34:43.950Z,redis-cart,memory,8507392
2023-07-04T20:34:43.950Z,checkoutservice,memory,12152832
2023-07-04T20:34:43.950Z,frontend,memory,15732736
2023-07-04T20:34:43.950Z,shippingservice,memory,11145216
2023-07-04T20:34:43.950Z,cartservice,memory,27594752
2023-07-04T20:34:43.950Z,paymentservice,memory,20815872
2023-07-04T20:34:53.800Z,cartservice,memory,27590656
2023-07-04T20:34:53.798Z,adservice,memory,82554880
2023-07-04T20:34:53.798Z,emailservice,memory,42729472
2023-07-04T20:34:53.798Z,cartservice,memory,27697152
2023-07-04T20:34:53.800Z,recommendationservice,memory,43032576
2023-07-04T20:34:53.800Z,currencyservice,memory,31272960
2023-07-04T20:34:53.800Z,cartservice,memory,37036032
2023-07-04T20:34:53.800Z,cartservice,memory,33873920
2023-07-04T20:34:53.800Z,productcatalogservice,memory,15327232
2023-07-04T20:34:53.798Z,cartservice,memory,27799552
2023-07-04T20:34:53.950Z,shippingservice,memory,11145216
2023-07-04T20:34:53.950Z,checkoutservice,memory,12181504
2023-07-04T20:34:53.950Z,redis-cart,memory,8499200
2023-07-04T20:34:53.950Z,cartservice,memory,27701248
2023-07-04T20:34:53.950Z,cartservice,memory,27787264
2023-07-04T20:34:53.950Z,paymentservice,memory,19996672
2023-07-04T20:34:53.950Z,cartservice,memory,27742208
2023-07-04T20:34:53.950Z,frontend,memory,15806464
2023-07-04T20:35:03.797Z,adservice,memory,82575360
2023-07-04T20:35:03.800Z,cartservice,memory,28340224
2023-07-04T20:35:03.797Z,emailservice,memory,42729472
2023-07-04T20:35:03.800Z,cartservice,memory,33943552
2023-07-04T20:35:03.800Z,recommendationservice,memory,43032576
2023-07-04T20:35:03.797Z,cartservice,memory,27971584
2023-07-04T20:35:03.797Z,cartservice,memory,27799552
2023-07-04T20:35:03.800Z,currencyservice,memory,31137792
2023-07-04T20:35:03.800Z,cartservice,memory,37163008
2023-07-04T20:35:03.800Z,productcatalogservice,memory,15327232
2023-07-04T20:35:03.950Z,shippingservice,memory,11145216
2023-07-04T20:35:03.950Z,checkoutservice,memory,12181504
2023-07-04T20:35:03.950Z,redis-cart,memory,8499200
2023-07-04T20:35:03.950Z,cartservice,memory,27701248
2023-07-04T20:35:03.950Z,cartservice,memory,27787264
2023-07-04T20:35:03.950Z,paymentservice,memory,19996672
2023-07-04T20:35:03.950Z,cartservice,memory,27742208
2023-07-04T20:35:03.950Z,frontend,memory,15806464
2023-07-04T20:35:13.797Z,cartservice,memory,28590080
2023-07-04T20:35:13.801Z,cartservice,memory,28340224
2023-07-04T20:35:13.801Z,cartservice,memory,34103296
2023-07-04T20:35:13.797Z,emailservice,memory,42729472
2023-07-04T20:35:13.797Z,cartservice,memory,27971584
2023-07-04T20:35:13.801Z,recommendationservice,memory,43032576
2023-07-04T20:35:13.797Z,adservice,memory,82644992
2023-07-04T20:35:13.801Z,currencyservice,memory,31137792
2023-07-04T20:35:13.801Z,productcatalogservice,memory,15380480
2023-07-04T20:35:13.801Z,cartservice,memory,37163008
2023-07-04T20:35:13.950Z,redis-cart,memory,8503296
2023-07-04T20:35:13.950Z,cartservice,memory,27701248
2023-07-04T20:35:13.950Z,paymentservice,memory,20267008
2023-07-04T20:35:13.950Z,cartservice,memory,27815936
2023-07-04T20:35:13.950Z,checkoutservice,memory,11726848
2023-07-04T20:35:13.950Z,cartservice,memory,28221440
2023-07-04T20:35:13.950Z,frontend,memory,16306176
2023-07-04T20:35:13.950Z,shippingservice,memory,11145216
2023-07-04T20:35:23.797Z,cartservice,memory,28794880
2023-07-04T20:35:23.801Z,productcatalogservice,memory,15085568
2023-07-04T20:35:23.801Z,cartservice,memory,37076992
2023-07-04T20:35:23.801Z,cartservice,memory,28635136
2023-07-04T20:35:23.797Z,adservice,memory,82644992
2023-07-04T20:35:23.801Z,currencyservice,memory,31916032
2023-07-04T20:35:23.801Z,cartservice,memory,34373632
2023-07-04T20:35:23.797Z,emailservice,memory,42729472
2023-07-04T20:35:23.797Z,cartservice,memory,28471296
2023-07-04T20:35:23.801Z,recommendationservice,memory,43048960
2023-07-04T20:35:23.950Z,cartservice,memory,27815936
2023-07-04T20:35:23.950Z,redis-cart,memory,8503296
2023-07-04T20:35:23.950Z,cartservice,memory,28188672
2023-07-04T20:35:23.950Z,shippingservice,memory,11149312
2023-07-04T20:35:23.950Z,checkoutservice,memory,11735040
2023-07-04T20:35:23.950Z,frontend,memory,16306176
2023-07-04T20:35:23.950Z,paymentservice,memory,20398080
2023-07-04T20:35:23.950Z,cartservice,memory,28291072
2023-07-04T20:35:33.800Z,recommendationservice,memory,43048960
2023-07-04T20:35:33.797Z,adservice,memory,82677760
2023-07-04T20:35:33.800Z,cartservice,memory,37076992
2023-07-04T20:35:33.800Z,cartservice,memory,28635136
2023-07-04T20:35:33.797Z,emailservice,memory,42729472
2023-07-04T20:35:33.797Z,cartservice,memory,28385280
2023-07-04T20:35:33.800Z,productcatalogservice,memory,15085568
2023-07-04T20:35:33.797Z,cartservice,memory,28794880
2023-07-04T20:35:33.800Z,cartservice,memory,34373632
2023-07-04T20:35:33.800Z,currencyservice,memory,31916032
2023-07-04T20:35:33.950Z,paymentservice,memory,20398080
2023-07-04T20:35:33.950Z,shippingservice,memory,11153408
2023-07-04T20:35:33.950Z,redis-cart,memory,8499200
2023-07-04T20:35:33.950Z,frontend,memory,16183296
2023-07-04T20:35:33.950Z,checkoutservice,memory,11735040
2023-07-04T20:35:33.950Z,cartservice,memory,28291072
2023-07-04T20:35:33.950Z,cartservice,memory,28090368
2023-07-04T20:35:33.950Z,cartservice,memory,28147712
2023-07-04T20:35:43.801Z,cartservice,memory,37081088
2023-07-04T20:35:43.801Z,productcatalogservice,memory,15126528
2023-07-04T20:35:43.801Z,recommendationservice,memory,43048960
2023-07-04T20:35:43.797Z,adservice,memory,82677760
2023-07-04T20:35:43.797Z,cartservice,memory,28794880
2023-07-04T20:35:43.801Z,cartservice,memory,34525184
2023-07-04T20:35:43.801Z,cartservice,memory,28250112
2023-07-04T20:35:43.797Z,emailservice,memory,42729472
2023-07-04T20:35:43.797Z,cartservice,memory,28385280
2023-07-04T20:35:43.801Z,currencyservice,memory,31916032
2023-07-04T20:35:43.950Z,paymentservice,memory,20852736
2023-07-04T20:35:43.950Z,cartservice,memory,29417472
2023-07-04T20:35:43.950Z,redis-cart,memory,8503296
2023-07-04T20:35:43.950Z,frontend,memory,16293888
2023-07-04T20:35:43.950Z,cartservice,memory,28930048
2023-07-04T20:35:43.950Z,checkoutservice,memory,11767808
2023-07-04T20:35:43.950Z,shippingservice,memory,11149312
2023-07-04T20:35:43.950Z,cartservice,memory,28536832
2023-07-04T20:35:53.800Z,cartservice,memory,34643968
2023-07-04T20:35:53.797Z,emailservice,memory,42766336
2023-07-04T20:35:53.800Z,cartservice,memory,28475392
2023-07-04T20:35:53.800Z,currencyservice,memory,32395264
2023-07-04T20:35:53.800Z,cartservice,memory,37031936
2023-07-04T20:35:53.800Z,productcatalogservice,memory,15249408
2023-07-04T20:35:53.797Z,cartservice,memory,28647424
2023-07-04T20:35:53.800Z,recommendationservice,memory,43048960
2023-07-04T20:35:53.797Z,adservice,memory,82849792
2023-07-04T20:35:53.797Z,cartservice,memory,29093888
2023-07-04T20:35:53.950Z,redis-cart,memory,8503296
2023-07-04T20:35:53.950Z,cartservice,memory,28930048
2023-07-04T20:35:53.950Z,frontend,memory,16293888
2023-07-04T20:35:53.950Z,paymentservice,memory,20852736
2023-07-04T20:35:53.950Z,cartservice,memory,28536832
2023-07-04T20:35:53.950Z,cartservice,memory,29417472
2023-07-04T20:35:53.950Z,checkoutservice,memory,11767808
2023-07-04T20:35:53.950Z,shippingservice,memory,11149312
2023-07-04T20:36:03.800Z,cartservice,memory,28475392
2023-07-04T20:36:03.800Z,cartservice,memory,34643968
2023-07-04T20:36:03.800Z,productcatalogservice,memory,15249408
2023-07-04T20:36:03.800Z,currencyservice,memory,32395264
2023-07-04T20:36:03.797Z,adservice,memory,83062784
2023-07-04T20:36:03.797Z,emailservice,memory,42766336
2023-07-04T20:36:03.797Z,cartservice,memory,29093888
2023-07-04T20:36:03.800Z,cartservice,memory,37031936
2023-07-04T20:36:03.800Z,recommendationservice,memory,43048960
2023-07-04T20:36:03.797Z,cartservice,memory,28647424
2023-07-04T20:36:03.950Z,shippingservice,memory,11153408
2023-07-04T20:36:03.950Z,redis-cart,memory,8503296
2023-07-04T20:36:03.950Z,checkoutservice,memory,11767808
2023-07-04T20:36:03.950Z,cartservice,memory,28536832
2023-07-04T20:36:03.950Z,cartservice,memory,28577792
2023-07-04T20:36:03.950Z,frontend,memory,16293888
2023-07-04T20:36:03.950Z,paymentservice,memory,20082688
2023-07-04T20:36:03.950Z,cartservice,memory,29417472
2023-07-04T20:36:13.797Z,adservice,memory,83062784
2023-07-04T20:36:13.801Z,recommendationservice,memory,43184128
2023-07-04T20:36:13.801Z,cartservice,memory,37031936
2023-07-04T20:36:13.797Z,cartservice,memory,28774400
2023-07-04T20:36:13.801Z,productcatalogservice,memory,15249408
2023-07-04T20:36:13.801Z,currencyservice,memory,32239616
2023-07-04T20:36:13.797Z,emailservice,memory,42729472
2023-07-04T20:36:13.801Z,cartservice,memory,28475392
2023-07-04T20:36:13.801Z,cartservice,memory,35901440
2023-07-04T20:36:13.797Z,cartservice,memory,28815360
2023-07-04T20:36:13.951Z,cartservice,memory,28897280
2023-07-04T20:36:13.951Z,redis-cart,memory,8511488
2023-07-04T20:36:13.951Z,cartservice,memory,29560832
2023-07-04T20:36:13.951Z,shippingservice,memory,11149312
2023-07-04T20:36:13.951Z,paymentservice,memory,20303872
2023-07-04T20:36:13.951Z,checkoutservice,memory,11812864
2023-07-04T20:36:13.951Z,cartservice,memory,28905472
2023-07-04T20:36:13.951Z,frontend,memory,15855616
2023-07-04T20:36:23.801Z,currencyservice,memory,32526336
2023-07-04T20:36:23.801Z,cartservice,memory,37048320
2023-07-04T20:36:23.797Z,emailservice,memory,42729472
2023-07-04T20:36:23.797Z,cartservice,memory,28815360
2023-07-04T20:36:23.797Z,cartservice,memory,28774400
2023-07-04T20:36:23.801Z,recommendationservice,memory,43057152
2023-07-04T20:36:23.801Z,cartservice,memory,28782592
2023-07-04T20:36:23.801Z,cartservice,memory,35831808
2023-07-04T20:36:23.797Z,adservice,memory,83087360
2023-07-04T20:36:23.801Z,productcatalogservice,memory,15179776
2023-07-04T20:36:23.951Z,checkoutservice,memory,11812864
2023-07-04T20:36:23.951Z,cartservice,memory,28897280
2023-07-04T20:36:23.951Z,paymentservice,memory,20303872
2023-07-04T20:36:23.951Z,cartservice,memory,29560832
2023-07-04T20:36:23.951Z,redis-cart,memory,8511488
2023-07-04T20:36:23.951Z,shippingservice,memory,11149312
2023-07-04T20:36:23.951Z,cartservice,memory,28905472
2023-07-04T20:36:23.951Z,frontend,memory,15855616
2023-07-04T20:36:33.801Z,cartservice,memory,37048320
2023-07-04T20:36:33.801Z,cartservice,memory,29229056
2023-07-04T20:36:33.797Z,cartservice,memory,28774400
2023-07-04T20:36:33.801Z,recommendationservice,memory,43057152
2023-07-04T20:36:33.801Z,currencyservice,memory,33382400
2023-07-04T20:36:33.797Z,emailservice,memory,42729472
2023-07-04T20:36:33.797Z,cartservice,memory,28815360
2023-07-04T20:36:33.801Z,productcatalogservice,memory,15179776
2023-07-04T20:36:33.797Z,adservice,memory,83087360
2023-07-04T20:36:33.801Z,cartservice,memory,35864576
2023-07-04T20:36:33.950Z,cartservice,memory,29077504
2023-07-04T20:36:33.950Z,cartservice,memory,28946432
2023-07-04T20:36:33.950Z,frontend,memory,16322560
2023-07-04T20:36:33.950Z,cartservice,memory,28930048
2023-07-04T20:36:33.950Z,paymentservice,memory,20779008
2023-07-04T20:36:33.950Z,checkoutservice,memory,11812864
2023-07-04T20:36:33.950Z,redis-cart,memory,8638464
2023-07-04T20:36:33.950Z,shippingservice,memory,11149312
2023-07-04T20:36:43.800Z,cartservice,memory,35864576
2023-07-04T20:36:43.800Z,cartservice,memory,37048320
2023-07-04T20:36:43.800Z,cartservice,memory,29229056
2023-07-04T20:36:43.800Z,recommendationservice,memory,43057152
2023-07-04T20:36:43.798Z,cartservice,memory,29433856
2023-07-04T20:36:43.798Z,emailservice,memory,42729472
2023-07-04T20:36:43.800Z,currencyservice,memory,33382400
2023-07-04T20:36:43.798Z,cartservice,memory,29433856
2023-07-04T20:36:43.800Z,productcatalogservice,memory,15179776
2023-07-04T20:36:43.798Z,adservice,memory,84361216
2023-07-04T20:36:43.950Z,cartservice,memory,28930048
2023-07-04T20:36:43.950Z,cartservice,memory,29077504
2023-07-04T20:36:43.950Z,redis-cart,memory,8638464
2023-07-04T20:36:43.950Z,cartservice,memory,28946432
2023-07-04T20:36:43.950Z,paymentservice,memory,20779008
2023-07-04T20:36:43.950Z,checkoutservice,memory,11812864
2023-07-04T20:36:43.950Z,shippingservice,memory,11149312
2023-07-04T20:36:43.950Z,frontend,memory,16322560
