2023-07-04T20:49:59.141Z,cartservice,network_in,5742
2023-07-04T20:49:59.141Z,shippingservice,network_in,18848
2023-07-04T20:49:59.166Z,cartservice,network_in,6126
2023-07-04T20:49:59.166Z,adservice,network_in,20626
2023-07-04T20:49:59.166Z,cartservice,network_in,7620
2023-07-04T20:49:59.155Z,cartservice,network_in,4566
2023-07-04T20:49:59.155Z,productcatalogservice,network_in,111615
2023-07-04T20:49:59.155Z,currencyservice,network_in,80914
2023-07-04T20:49:59.141Z,cartservice,network_in,7082
2023-07-04T20:49:59.166Z,cartservice,network_in,7842
2023-07-04T20:49:59.166Z,cartservice,network_in,5566
2023-07-04T20:49:59.155Z,cartservice,network_in,6890
2023-07-04T20:49:59.166Z,cartservice,network_in,8164
2023-07-04T20:49:59.141Z,paymentservice,network_in,9986
2023-07-04T20:49:59.141Z,checkoutservice,network_in,29814
2023-07-04T20:50:09.528Z,cartservice,network_in,14168
2023-07-04T20:50:09.530Z,cartservice,network_in,6126
2023-07-04T20:50:09.530Z,adservice,network_in,28931
2023-07-04T20:50:09.528Z,cartservice,network_in,7446
2023-07-04T20:50:09.528Z,cartservice,network_in,7042
2023-07-04T20:50:09.528Z,paymentservice,network_in,11072
2023-07-04T20:50:09.528Z,frontend,network_in,532206
2023-07-04T20:50:09.530Z,cartservice,network_in,8250
2023-07-04T20:50:09.530Z,redis-cart,network_in,35630
2023-07-04T20:50:09.528Z,shippingservice,network_in,25428
2023-07-04T20:50:09.528Z,cartservice,network_in,8078
2023-07-04T20:50:09.530Z,emailservice,network_in,11702
2023-07-04T20:50:09.530Z,cartservice,network_in,8906
2023-07-04T20:50:09.506Z,cartservice,network_in,6900
2023-07-04T20:50:09.506Z,recommendationservice,network_in,146490
2023-07-04T20:50:09.506Z,cartservice,network_in,6890
2023-07-04T20:50:09.506Z,currencyservice,network_in,114318
2023-07-04T20:50:09.506Z,cartservice,network_in,5120
2023-07-04T20:50:09.506Z,cartservice,network_in,10498
2023-07-04T20:50:09.506Z,cartservice,network_in,6022
2023-07-04T20:50:09.506Z,productcatalogservice,network_in,179477
2023-07-04T20:50:09.528Z,cartservice,network_in,69044
2023-07-04T20:50:09.530Z,cartservice,network_in,5566
2023-07-04T20:50:09.530Z,cartservice,network_in,7842
2023-07-04T20:50:09.530Z,cartservice,network_in,6454
2023-07-04T20:50:09.528Z,checkoutservice,network_in,38246
2023-07-04T20:50:19.528Z,cartservice,network_in,14168
2023-07-04T20:50:19.530Z,cartservice,network_in,8906
2023-07-04T20:50:19.506Z,recommendationservice,network_in,146490
2023-07-04T20:50:19.506Z,productcatalogservice,network_in,179477
2023-07-04T20:50:19.528Z,cartservice,network_in,7042
2023-07-04T20:50:19.528Z,paymentservice,network_in,11072
2023-07-04T20:50:19.528Z,frontend,network_in,532206
2023-07-04T20:50:19.528Z,cartservice,network_in,8078
2023-07-04T20:50:19.528Z,checkoutservice,network_in,38246
2023-07-04T20:50:19.530Z,cartservice,network_in,7160
2023-07-04T20:50:19.506Z,cartservice,network_in,6900
2023-07-04T20:50:19.506Z,currencyservice,network_in,114318
2023-07-04T20:50:19.506Z,cartservice,network_in,10498
2023-07-04T20:50:19.506Z,cartservice,network_in,6022
2023-07-04T20:50:19.528Z,cartservice,network_in,69044
2023-07-04T20:50:19.530Z,cartservice,network_in,7856
2023-07-04T20:50:19.530Z,cartservice,network_in,9228
2023-07-04T20:50:19.530Z,emailservice,network_in,13303
2023-07-04T20:50:19.506Z,cartservice,network_in,6890
2023-07-04T20:50:19.506Z,cartservice,network_in,5120
2023-07-04T20:50:19.528Z,shippingservice,network_in,25428
2023-07-04T20:50:19.528Z,cartservice,network_in,7446
2023-07-04T20:50:19.530Z,adservice,network_in,35128
2023-07-04T20:50:19.530Z,cartservice,network_in,9328
2023-07-04T20:50:19.530Z,redis-cart,network_in,49524
2023-07-04T20:50:19.530Z,cartservice,network_in,6454
2023-07-04T20:50:29.530Z,cartservice,network_in,9328
2023-07-04T20:50:29.530Z,emailservice,network_in,13303
2023-07-04T20:50:29.505Z,cartservice,network_in,11406
2023-07-04T20:50:29.505Z,recommendationservice,network_in,251365
2023-07-04T20:50:29.505Z,cartservice,network_in,6970
2023-07-04T20:50:29.531Z,cartservice,network_in,7224
2023-07-04T20:50:29.530Z,redis-cart,network_in,62605
2023-07-04T20:50:29.530Z,cartservice,network_in,7926
2023-07-04T20:50:29.530Z,cartservice,network_in,8976
2023-07-04T20:50:29.530Z,adservice,network_in,45784
2023-07-04T20:50:29.505Z,productcatalogservice,network_in,287871
2023-07-04T20:50:29.505Z,cartservice,network_in,6456
2023-07-04T20:50:29.530Z,cartservice,network_in,9228
2023-07-04T20:50:29.505Z,currencyservice,network_in,152560
2023-07-04T20:50:29.531Z,shippingservice,network_in,39994
2023-07-04T20:50:29.530Z,cartservice,network_in,7160
2023-07-04T20:50:29.530Z,cartservice,network_in,7712
2023-07-04T20:50:29.505Z,cartservice,network_in,6092
2023-07-04T20:50:29.505Z,cartservice,network_in,8194
2023-07-04T20:50:29.531Z,cartservice,network_in,107577
2023-07-04T20:50:29.531Z,paymentservice,network_in,11554
2023-07-04T20:50:29.531Z,cartservice,network_in,7726
2023-07-04T20:50:29.531Z,frontend,network_in,780726
2023-07-04T20:50:29.531Z,checkoutservice,network_in,40389
2023-07-04T20:50:29.531Z,cartservice,network_in,14720
2023-07-04T20:50:29.531Z,cartservice,network_in,8078
2023-07-04T20:50:39.529Z,cartservice,network_in,8976
2023-07-04T20:50:39.505Z,cartservice,network_in,8194
2023-07-04T20:50:39.505Z,cartservice,network_in,11406
2023-07-04T20:50:39.528Z,shippingservice,network_in,39994
2023-07-04T20:50:39.528Z,frontend,network_in,780726
2023-07-04T20:50:39.528Z,cartservice,network_in,8078
2023-07-04T20:50:39.505Z,cartservice,network_in,7730
2023-07-04T20:50:39.529Z,redis-cart,network_in,62605
2023-07-04T20:50:39.505Z,cartservice,network_in,6996
2023-07-04T20:50:39.505Z,currencyservice,network_in,152560
2023-07-04T20:50:39.505Z,recommendationservice,network_in,251365
2023-07-04T20:50:39.505Z,cartservice,network_in,6456
2023-07-04T20:50:39.528Z,cartservice,network_in,7224
2023-07-04T20:50:39.529Z,cartservice,network_in,7160
2023-07-04T20:50:39.528Z,cartservice,network_in,107577
2023-07-04T20:50:39.529Z,cartservice,network_in,7926
2023-07-04T20:50:39.528Z,paymentservice,network_in,11554
2023-07-04T20:50:39.529Z,cartservice,network_in,9228
2023-07-04T20:50:39.529Z,cartservice,network_in,7712
2023-07-04T20:50:39.528Z,cartservice,network_in,7726
2023-07-04T20:50:39.529Z,cartservice,network_in,9328
2023-07-04T20:50:39.529Z,adservice,network_in,45784
2023-07-04T20:50:39.505Z,productcatalogservice,network_in,287871
2023-07-04T20:50:39.528Z,checkoutservice,network_in,40389
2023-07-04T20:50:39.529Z,emailservice,network_in,13303
2023-07-04T20:50:39.528Z,cartservice,network_in,14720
2023-07-04T20:50:49.529Z,adservice,network_in,45784
2023-07-04T20:50:49.505Z,currencyservice,network_in,188999
2023-07-04T20:50:49.528Z,frontend,network_in,975928
2023-07-04T20:50:49.528Z,shippingservice,network_in,50950
2023-07-04T20:50:49.529Z,cartservice,network_in,9880
2023-07-04T20:50:49.529Z,cartservice,network_in,7926
2023-07-04T20:50:49.529Z,cartservice,network_in,9228
2023-07-04T20:50:49.529Z,redis-cart,network_in,72412
2023-07-04T20:50:49.505Z,cartservice,network_in,11406
2023-07-04T20:50:49.528Z,checkoutservice,network_in,52397
2023-07-04T20:50:49.528Z,cartservice,network_in,8078
2023-07-04T20:50:49.529Z,emailservice,network_in,14048
2023-07-04T20:50:49.529Z,cartservice,network_in,9328
2023-07-04T20:50:49.529Z,cartservice,network_in,7712
2023-07-04T20:50:49.505Z,productcatalogservice,network_in,362917
2023-07-04T20:50:49.505Z,cartservice,network_in,7814
2023-07-04T20:50:49.505Z,cartservice,network_in,6996
2023-07-04T20:50:49.505Z,cartservice,network_in,7270
2023-07-04T20:50:49.528Z,cartservice,network_in,155330
2023-07-04T20:50:49.528Z,paymentservice,network_in,15068
2023-07-04T20:50:49.529Z,cartservice,network_in,7160
2023-07-04T20:50:49.505Z,recommendationservice,network_in,309172
2023-07-04T20:50:49.505Z,cartservice,network_in,8194
2023-07-04T20:50:49.528Z,cartservice,network_in,18991
2023-07-04T20:50:49.528Z,cartservice,network_in,8672
2023-07-04T20:50:49.528Z,cartservice,network_in,8128
2023-07-04T20:50:59.528Z,cartservice,network_in,155330
2023-07-04T20:50:59.528Z,paymentservice,network_in,15068
2023-07-04T20:50:59.505Z,recommendationservice,network_in,309172
2023-07-04T20:50:59.505Z,cartservice,network_in,7108
2023-07-04T20:50:59.528Z,checkoutservice,network_in,52397
2023-07-04T20:50:59.528Z,cartservice,network_in,8078
2023-07-04T20:50:59.505Z,cartservice,network_in,11406
2023-07-04T20:50:59.529Z,cartservice,network_in,9880
2023-07-04T20:50:59.529Z,cartservice,network_in,10426
2023-07-04T20:50:59.528Z,cartservice,network_in,18991
2023-07-04T20:50:59.528Z,cartservice,network_in,8672
2023-07-04T20:50:59.528Z,shippingservice,network_in,50950
2023-07-04T20:50:59.505Z,cartservice,network_in,7270
2023-07-04T20:50:59.505Z,cartservice,network_in,9038
2023-07-04T20:50:59.529Z,cartservice,network_in,8680
2023-07-04T20:50:59.529Z,adservice,network_in,59062
2023-07-04T20:50:59.529Z,cartservice,network_in,8764
2023-07-04T20:50:59.529Z,cartservice,network_in,10250
2023-07-04T20:50:59.529Z,emailservice,network_in,15746
2023-07-04T20:50:59.528Z,frontend,network_in,975928
2023-07-04T20:50:59.528Z,cartservice,network_in,8128
2023-07-04T20:50:59.505Z,productcatalogservice,network_in,362917
2023-07-04T20:50:59.505Z,currencyservice,network_in,220321
2023-07-04T20:50:59.505Z,cartservice,network_in,7814
2023-07-04T20:50:59.529Z,redis-cart,network_in,85673
2023-07-04T20:50:59.529Z,cartservice,network_in,7932
2023-07-04T20:51:09.528Z,cartservice,network_in,18991
2023-07-04T20:51:09.528Z,cartservice,network_in,8986
2023-07-04T20:51:09.528Z,checkoutservice,network_in,53426
2023-07-04T20:51:09.530Z,cartservice,network_in,8890
2023-07-04T20:51:09.528Z,frontend,network_in,975928
2023-07-04T20:51:09.528Z,cartservice,network_in,8672
2023-07-04T20:51:09.530Z,cartservice,network_in,11040
2023-07-04T20:51:09.530Z,cartservice,network_in,10460
2023-07-04T20:51:09.530Z,adservice,network_in,59062
2023-07-04T20:51:09.505Z,productcatalogservice,network_in,362917
2023-07-04T20:51:09.505Z,currencyservice,network_in,220321
2023-07-04T20:51:09.505Z,cartservice,network_in,7814
2023-07-04T20:51:09.505Z,recommendationservice,network_in,309172
2023-07-04T20:51:09.505Z,cartservice,network_in,7108
2023-07-04T20:51:09.505Z,cartservice,network_in,9038
2023-07-04T20:51:09.528Z,cartservice,network_in,8128
2023-07-04T20:51:09.530Z,emailservice,network_in,16134
2023-07-04T20:51:09.530Z,cartservice,network_in,9050
2023-07-04T20:51:09.505Z,cartservice,network_in,11406
2023-07-04T20:51:09.505Z,cartservice,network_in,7270
2023-07-04T20:51:09.528Z,cartservice,network_in,182019
2023-07-04T20:51:09.528Z,shippingservice,network_in,59900
2023-07-04T20:51:09.528Z,paymentservice,network_in,15068
2023-07-04T20:51:09.530Z,cartservice,network_in,9920
2023-07-04T20:51:09.530Z,redis-cart,network_in,85673
2023-07-04T20:51:09.530Z,cartservice,network_in,10426
2023-07-04T20:51:19.506Z,cartservice,network_in,9318
2023-07-04T20:51:19.528Z,cartservice,network_in,182019
2023-07-04T20:51:19.528Z,frontend,network_in,1124324
2023-07-04T20:51:19.506Z,cartservice,network_in,12698
2023-07-04T20:51:19.528Z,cartservice,network_in,20171
2023-07-04T20:51:19.530Z,cartservice,network_in,8890
2023-07-04T20:51:19.530Z,cartservice,network_in,11040
2023-07-04T20:51:19.528Z,checkoutservice,network_in,54498
2023-07-04T20:51:19.528Z,cartservice,network_in,8128
2023-07-04T20:51:19.528Z,cartservice,network_in,10006
2023-07-04T20:51:19.528Z,shippingservice,network_in,59900
2023-07-04T20:51:19.530Z,redis-cart,network_in,85673
2023-07-04T20:51:19.530Z,emailservice,network_in,16134
2023-07-04T20:51:19.528Z,cartservice,network_in,8672
2023-07-04T20:51:19.528Z,paymentservice,network_in,15340
2023-07-04T20:51:19.530Z,cartservice,network_in,9050
2023-07-04T20:51:19.506Z,currencyservice,network_in,220321
2023-07-04T20:51:19.506Z,cartservice,network_in,8866
2023-07-04T20:51:19.506Z,cartservice,network_in,8252
2023-07-04T20:51:19.506Z,cartservice,network_in,8066
2023-07-04T20:51:19.506Z,productcatalogservice,network_in,444529
2023-07-04T20:51:19.506Z,recommendationservice,network_in,381579
2023-07-04T20:51:19.530Z,cartservice,network_in,9920
2023-07-04T20:51:19.530Z,cartservice,network_in,10426
2023-07-04T20:51:19.530Z,cartservice,network_in,10460
2023-07-04T20:51:19.530Z,adservice,network_in,59062
2023-07-04T20:51:29.505Z,currencyservice,network_in,279652
2023-07-04T20:51:29.530Z,adservice,network_in,68689
2023-07-04T20:51:29.530Z,emailservice,network_in,18143
2023-07-04T20:51:29.505Z,productcatalogservice,network_in,542162
2023-07-04T20:51:29.529Z,shippingservice,network_in,72214
2023-07-04T20:51:29.529Z,cartservice,network_in,9396
2023-07-04T20:51:29.505Z,cartservice,network_in,8416
2023-07-04T20:51:29.529Z,paymentservice,network_in,16496
2023-07-04T20:51:29.529Z,frontend,network_in,1303572
2023-07-04T20:51:29.529Z,cartservice,network_in,208145
2023-07-04T20:51:29.505Z,cartservice,network_in,9300
2023-07-04T20:51:29.529Z,cartservice,network_in,9944
2023-07-04T20:51:29.529Z,checkoutservice,network_in,62282
2023-07-04T20:51:29.529Z,cartservice,network_in,10006
2023-07-04T20:51:29.505Z,cartservice,network_in,8714
2023-07-04T20:51:29.505Z,cartservice,network_in,10552
2023-07-04T20:51:29.529Z,cartservice,network_in,20171
2023-07-04T20:51:29.505Z,cartservice,network_in,13742
2023-07-04T20:51:29.505Z,recommendationservice,network_in,472406
2023-07-04T20:51:29.530Z,cartservice,network_in,9512
2023-07-04T20:51:29.530Z,cartservice,network_in,11932
2023-07-04T20:51:29.530Z,cartservice,network_in,10132
2023-07-04T20:51:29.530Z,cartservice,network_in,11250
2023-07-04T20:51:29.530Z,cartservice,network_in,11984
2023-07-04T20:51:29.530Z,cartservice,network_in,10452
2023-07-04T20:51:29.530Z,redis-cart,network_in,112655
2023-07-04T20:51:39.506Z,cartservice,network_in,13854
2023-07-04T20:51:39.506Z,recommendationservice,network_in,472406
2023-07-04T20:51:39.506Z,cartservice,network_in,10552
2023-07-04T20:51:39.529Z,paymentservice,network_in,19839
2023-07-04T20:51:39.530Z,emailservice,network_in,18143
2023-07-04T20:51:39.530Z,cartservice,network_in,10132
2023-07-04T20:51:39.530Z,adservice,network_in,68689
2023-07-04T20:51:39.529Z,cartservice,network_in,11100
2023-07-04T20:51:39.529Z,frontend,network_in,1505176
2023-07-04T20:51:39.529Z,shippingservice,network_in,86506
2023-07-04T20:51:39.530Z,redis-cart,network_in,112655
2023-07-04T20:51:39.530Z,cartservice,network_in,11984
2023-07-04T20:51:39.506Z,cartservice,network_in,9366
2023-07-04T20:51:39.506Z,cartservice,network_in,9300
2023-07-04T20:51:39.506Z,currencyservice,network_in,279652
2023-07-04T20:51:39.529Z,checkoutservice,network_in,69381
2023-07-04T20:51:39.529Z,cartservice,network_in,27759
2023-07-04T20:51:39.530Z,cartservice,network_in,10452
2023-07-04T20:51:39.530Z,cartservice,network_in,9512
2023-07-04T20:51:39.530Z,cartservice,network_in,11932
2023-07-04T20:51:39.530Z,cartservice,network_in,11250
2023-07-04T20:51:39.506Z,cartservice,network_in,9718
2023-07-04T20:51:39.506Z,productcatalogservice,network_in,638776
2023-07-04T20:51:39.529Z,cartservice,network_in,10622
2023-07-04T20:51:39.529Z,cartservice,network_in,267235
2023-07-04T20:51:39.529Z,cartservice,network_in,11194
2023-07-04T20:51:49.528Z,paymentservice,network_in,19839
2023-07-04T20:51:49.506Z,cartservice,network_in,9366
2023-07-04T20:51:49.530Z,adservice,network_in,89639
2023-07-04T20:51:49.530Z,cartservice,network_in,10462
2023-07-04T20:51:49.530Z,emailservice,network_in,21341
2023-07-04T20:51:49.530Z,cartservice,network_in,11932
2023-07-04T20:51:49.530Z,cartservice,network_in,12434
2023-07-04T20:51:49.528Z,checkoutservice,network_in,69381
2023-07-04T20:51:49.528Z,cartservice,network_in,27759
2023-07-04T20:51:49.506Z,cartservice,network_in,14626
2023-07-04T20:51:49.506Z,recommendationservice,network_in,551792
2023-07-04T20:51:49.530Z,cartservice,network_in,11152
2023-07-04T20:51:49.528Z,cartservice,network_in,10622
2023-07-04T20:51:49.528Z,cartservice,network_in,267235
2023-07-04T20:51:49.528Z,cartservice,network_in,11194
2023-07-04T20:51:49.506Z,currencyservice,network_in,339493
2023-07-04T20:51:49.506Z,productcatalogservice,network_in,683493
2023-07-04T20:51:49.506Z,cartservice,network_in,11462
2023-07-04T20:51:49.528Z,cartservice,network_in,11100
2023-07-04T20:51:49.528Z,frontend,network_in,1505176
2023-07-04T20:51:49.528Z,shippingservice,network_in,86506
2023-07-04T20:51:49.506Z,cartservice,network_in,9718
2023-07-04T20:51:49.506Z,cartservice,network_in,10226
2023-07-04T20:51:49.530Z,cartservice,network_in,12906
2023-07-04T20:51:49.530Z,cartservice,network_in,11402
2023-07-04T20:51:49.530Z,redis-cart,network_in,130208
2023-07-04T20:51:59.506Z,cartservice,network_in,9718
2023-07-04T20:51:59.528Z,cartservice,network_in,10622
2023-07-04T20:51:59.528Z,cartservice,network_in,11194
2023-07-04T20:51:59.530Z,cartservice,network_in,11152
2023-07-04T20:51:59.506Z,cartservice,network_in,9366
2023-07-04T20:51:59.506Z,productcatalogservice,network_in,683493
2023-07-04T20:51:59.506Z,cartservice,network_in,14626
2023-07-04T20:51:59.506Z,cartservice,network_in,11462
2023-07-04T20:51:59.528Z,shippingservice,network_in,96834
2023-07-04T20:51:59.528Z,frontend,network_in,1712001
2023-07-04T20:51:59.528Z,checkoutservice,network_in,79435
2023-07-04T20:51:59.530Z,cartservice,network_in,12906
2023-07-04T20:51:59.530Z,adservice,network_in,89639
2023-07-04T20:51:59.506Z,currencyservice,network_in,339493
2023-07-04T20:51:59.506Z,recommendationservice,network_in,551792
2023-07-04T20:51:59.528Z,cartservice,network_in,27759
2023-07-04T20:51:59.530Z,cartservice,network_in,11402
2023-07-04T20:51:59.530Z,cartservice,network_in,11932
2023-07-04T20:51:59.530Z,cartservice,network_in,10462
2023-07-04T20:51:59.506Z,cartservice,network_in,10226
2023-07-04T20:51:59.528Z,paymentservice,network_in,19839
2023-07-04T20:51:59.528Z,cartservice,network_in,287559
2023-07-04T20:51:59.528Z,cartservice,network_in,11980
2023-07-04T20:51:59.530Z,redis-cart,network_in,130208
2023-07-04T20:51:59.530Z,cartservice,network_in,12434
2023-07-04T20:51:59.530Z,emailservice,network_in,21341
2023-07-04T20:52:09.529Z,redis-cart,network_in,130208
2023-07-04T20:52:09.529Z,cartservice,network_in,12434
2023-07-04T20:52:09.505Z,cartservice,network_in,9366
2023-07-04T20:52:09.505Z,cartservice,network_in,11462
2023-07-04T20:52:09.505Z,cartservice,network_in,14626
2023-07-04T20:52:09.505Z,cartservice,network_in,10226
2023-07-04T20:52:09.505Z,cartservice,network_in,9718
2023-07-04T20:52:09.528Z,cartservice,network_in,11194
2023-07-04T20:52:09.529Z,cartservice,network_in,11152
2023-07-04T20:52:09.505Z,productcatalogservice,network_in,683493
2023-07-04T20:52:09.505Z,recommendationservice,network_in,617104
2023-07-04T20:52:09.505Z,currencyservice,network_in,339493
2023-07-04T20:52:09.528Z,frontend,network_in,1712001
2023-07-04T20:52:09.529Z,cartservice,network_in,11402
2023-07-04T20:52:09.528Z,shippingservice,network_in,96834
2023-07-04T20:52:09.529Z,emailservice,network_in,21341
2023-07-04T20:52:09.528Z,checkoutservice,network_in,80227
2023-07-04T20:52:09.528Z,cartservice,network_in,10622
2023-07-04T20:52:09.529Z,cartservice,network_in,11932
2023-07-04T20:52:09.528Z,cartservice,network_in,287559
2023-07-04T20:52:09.529Z,cartservice,network_in,12906
2023-07-04T20:52:09.528Z,cartservice,network_in,28729
2023-07-04T20:52:09.529Z,cartservice,network_in,10462
2023-07-04T20:52:09.528Z,paymentservice,network_in,20984
2023-07-04T20:52:09.529Z,adservice,network_in,89639
2023-07-04T20:52:09.528Z,cartservice,network_in,11980
2023-07-04T20:52:19.529Z,cartservice,network_in,11236
2023-07-04T20:52:19.529Z,cartservice,network_in,13720
2023-07-04T20:52:19.505Z,cartservice,network_in,14668
2023-07-04T20:52:19.505Z,recommendationservice,network_in,701478
2023-07-04T20:52:19.530Z,shippingservice,network_in,103240
2023-07-04T20:52:19.530Z,cartservice,network_in,335958
2023-07-04T20:52:19.530Z,cartservice,network_in,12008
2023-07-04T20:52:19.529Z,emailservice,network_in,21407
2023-07-04T20:52:19.505Z,currencyservice,network_in,402244
2023-07-04T20:52:19.529Z,cartservice,network_in,12854
2023-07-04T20:52:19.505Z,cartservice,network_in,11070
2023-07-04T20:52:19.505Z,productcatalogservice,network_in,782715
2023-07-04T20:52:19.505Z,cartservice,network_in,11462
2023-07-04T20:52:19.529Z,cartservice,network_in,11402
2023-07-04T20:52:19.505Z,cartservice,network_in,10598
2023-07-04T20:52:19.529Z,redis-cart,network_in,141820
2023-07-04T20:52:19.530Z,paymentservice,network_in,21116
2023-07-04T20:52:19.530Z,frontend,network_in,2000547
2023-07-04T20:52:19.530Z,checkoutservice,network_in,81916
2023-07-04T20:52:19.529Z,cartservice,network_in,13290
2023-07-04T20:52:19.529Z,adservice,network_in,99481
2023-07-04T20:52:19.505Z,cartservice,network_in,10180
2023-07-04T20:52:19.529Z,cartservice,network_in,10462
2023-07-04T20:52:19.530Z,cartservice,network_in,28903
2023-07-04T20:52:19.530Z,cartservice,network_in,12968
2023-07-04T20:52:19.530Z,cartservice,network_in,11502
2023-07-04T20:52:29.528Z,shippingservice,network_in,103240
2023-07-04T20:52:29.530Z,redis-cart,network_in,152687
2023-07-04T20:52:29.528Z,cartservice,network_in,12008
2023-07-04T20:52:29.528Z,cartservice,network_in,12968
2023-07-04T20:52:29.528Z,checkoutservice,network_in,81916
2023-07-04T20:52:29.530Z,emailservice,network_in,23820
2023-07-04T20:52:29.530Z,cartservice,network_in,14194
2023-07-04T20:52:29.530Z,cartservice,network_in,12282
2023-07-04T20:52:29.528Z,paymentservice,network_in,21116
2023-07-04T20:52:29.528Z,cartservice,network_in,335958
2023-07-04T20:52:29.528Z,frontend,network_in,2000547
2023-07-04T20:52:29.530Z,cartservice,network_in,13758
2023-07-04T20:52:29.530Z,cartservice,network_in,12074
2023-07-04T20:52:29.530Z,adservice,network_in,109566
2023-07-04T20:52:29.505Z,currencyservice,network_in,402244
2023-07-04T20:52:29.505Z,cartservice,network_in,11070
2023-07-04T20:52:29.505Z,productcatalogservice,network_in,782715
2023-07-04T20:52:29.505Z,cartservice,network_in,11462
2023-07-04T20:52:29.505Z,cartservice,network_in,14668
2023-07-04T20:52:29.505Z,cartservice,network_in,10180
2023-07-04T20:52:29.505Z,cartservice,network_in,10598
2023-07-04T20:52:29.505Z,recommendationservice,network_in,701478
2023-07-04T20:52:29.528Z,cartservice,network_in,28903
2023-07-04T20:52:29.528Z,cartservice,network_in,11502
2023-07-04T20:52:29.530Z,cartservice,network_in,11384
2023-07-04T20:52:29.530Z,cartservice,network_in,13804
2023-07-04T20:52:39.506Z,productcatalogservice,network_in,859479
2023-07-04T20:52:39.528Z,cartservice,network_in,32649
2023-07-04T20:52:39.528Z,frontend,network_in,2000547
2023-07-04T20:52:39.528Z,cartservice,network_in,335958
2023-07-04T20:52:39.528Z,paymentservice,network_in,23793
2023-07-04T20:52:39.506Z,recommendationservice,network_in,736094
2023-07-04T20:52:39.506Z,cartservice,network_in,12276
2023-07-04T20:52:39.506Z,cartservice,network_in,10180
2023-07-04T20:52:39.506Z,cartservice,network_in,10598
2023-07-04T20:52:39.506Z,cartservice,network_in,11070
2023-07-04T20:52:39.528Z,cartservice,network_in,12968
2023-07-04T20:52:39.528Z,cartservice,network_in,11502
2023-07-04T20:52:39.530Z,cartservice,network_in,14576
2023-07-04T20:52:39.530Z,cartservice,network_in,13096
2023-07-04T20:52:39.530Z,cartservice,network_in,12074
2023-07-04T20:52:39.530Z,redis-cart,network_in,164903
2023-07-04T20:52:39.530Z,cartservice,network_in,12156
2023-07-04T20:52:39.506Z,cartservice,network_in,15548
2023-07-04T20:52:39.530Z,emailservice,network_in,25650
2023-07-04T20:52:39.530Z,cartservice,network_in,13758
2023-07-04T20:52:39.530Z,adservice,network_in,118458
2023-07-04T20:52:39.530Z,cartservice,network_in,14194
2023-07-04T20:52:39.506Z,currencyservice,network_in,440473
2023-07-04T20:52:39.528Z,cartservice,network_in,12008
2023-07-04T20:52:39.528Z,checkoutservice,network_in,92835
2023-07-04T20:52:39.528Z,shippingservice,network_in,116394
2023-07-04T20:52:49.529Z,cartservice,network_in,12074
2023-07-04T20:52:49.506Z,productcatalogservice,network_in,940779
2023-07-04T20:52:49.528Z,cartservice,network_in,394072
2023-07-04T20:52:49.529Z,cartservice,network_in,13758
2023-07-04T20:52:49.529Z,cartservice,network_in,14194
2023-07-04T20:52:49.506Z,cartservice,network_in,11548
2023-07-04T20:52:49.506Z,cartservice,network_in,13114
2023-07-04T20:52:49.506Z,recommendationservice,network_in,785110
2023-07-04T20:52:49.528Z,cartservice,network_in,11502
2023-07-04T20:52:49.528Z,shippingservice,network_in,135326
2023-07-04T20:52:49.529Z,emailservice,network_in,25650
2023-07-04T20:52:49.529Z,adservice,network_in,118458
2023-07-04T20:52:49.506Z,currencyservice,network_in,477988
2023-07-04T20:52:49.506Z,cartservice,network_in,15548
2023-07-04T20:52:49.528Z,checkoutservice,network_in,106723
2023-07-04T20:52:49.528Z,cartservice,network_in,13010
2023-07-04T20:52:49.528Z,paymentservice,network_in,26498
2023-07-04T20:52:49.529Z,cartservice,network_in,14576
2023-07-04T20:52:49.529Z,cartservice,network_in,13096
2023-07-04T20:52:49.529Z,redis-cart,network_in,164903
2023-07-04T20:52:49.529Z,cartservice,network_in,12156
2023-07-04T20:52:49.506Z,cartservice,network_in,11992
2023-07-04T20:52:49.506Z,cartservice,network_in,11126
2023-07-04T20:52:49.528Z,cartservice,network_in,12958
2023-07-04T20:52:49.528Z,cartservice,network_in,34760
2023-07-04T20:52:49.528Z,frontend,network_in,2220260
2023-07-04T20:52:59.528Z,cartservice,network_in,34760
2023-07-04T20:52:59.529Z,cartservice,network_in,14194
2023-07-04T20:52:59.528Z,checkoutservice,network_in,106723
2023-07-04T20:52:59.528Z,cartservice,network_in,13010
2023-07-04T20:52:59.528Z,cartservice,network_in,12958
2023-07-04T20:52:59.528Z,cartservice,network_in,11502
2023-07-04T20:52:59.528Z,cartservice,network_in,394072
2023-07-04T20:52:59.529Z,cartservice,network_in,12226
2023-07-04T20:52:59.506Z,cartservice,network_in,11548
2023-07-04T20:52:59.506Z,currencyservice,network_in,477988
2023-07-04T20:52:59.506Z,cartservice,network_in,13114
2023-07-04T20:52:59.506Z,cartservice,network_in,15548
2023-07-04T20:52:59.506Z,cartservice,network_in,11992
2023-07-04T20:52:59.506Z,productcatalogservice,network_in,940779
2023-07-04T20:52:59.506Z,recommendationservice,network_in,785110
2023-07-04T20:52:59.506Z,cartservice,network_in,11126
2023-07-04T20:52:59.529Z,cartservice,network_in,12074
2023-07-04T20:52:59.529Z,adservice,network_in,118458
2023-07-04T20:52:59.528Z,paymentservice,network_in,26498
2023-07-04T20:52:59.528Z,frontend,network_in,2220260
2023-07-04T20:52:59.528Z,shippingservice,network_in,135326
2023-07-04T20:52:59.529Z,redis-cart,network_in,164903
2023-07-04T20:52:59.529Z,cartservice,network_in,14688
2023-07-04T20:52:59.529Z,emailservice,network_in,25650
2023-07-04T20:52:59.529Z,cartservice,network_in,13096
2023-07-04T20:52:59.529Z,cartservice,network_in,13758
2023-07-04T20:53:09.528Z,cartservice,network_in,394072
2023-07-04T20:53:09.528Z,cartservice,network_in,39948
2023-07-04T20:53:09.528Z,paymentservice,network_in,26498
2023-07-04T20:53:09.505Z,recommendationservice,network_in,880011
2023-07-04T20:53:09.505Z,currencyservice,network_in,512804
2023-07-04T20:53:09.528Z,checkoutservice,network_in,106723
2023-07-04T20:53:09.528Z,frontend,network_in,2457943
2023-07-04T20:53:09.528Z,shippingservice,network_in,135326
2023-07-04T20:53:09.505Z,cartservice,network_in,11688
2023-07-04T20:53:09.529Z,adservice,network_in,135953
2023-07-04T20:53:09.529Z,emailservice,network_in,27847
2023-07-04T20:53:09.528Z,cartservice,network_in,12410
2023-07-04T20:53:09.528Z,cartservice,network_in,13010
2023-07-04T20:53:09.505Z,cartservice,network_in,13110
2023-07-04T20:53:09.505Z,cartservice,network_in,13338
2023-07-04T20:53:09.529Z,redis-cart,network_in,191279
2023-07-04T20:53:09.529Z,cartservice,network_in,14758
2023-07-04T20:53:09.528Z,cartservice,network_in,12958
2023-07-04T20:53:09.505Z,cartservice,network_in,11266
2023-07-04T20:53:09.505Z,productcatalogservice,network_in,1016465
2023-07-04T20:53:09.505Z,cartservice,network_in,16642
2023-07-04T20:53:09.529Z,cartservice,network_in,15326
2023-07-04T20:53:09.529Z,cartservice,network_in,13306
2023-07-04T20:53:09.529Z,cartservice,network_in,13292
2023-07-04T20:53:09.529Z,cartservice,network_in,13136
2023-07-04T20:53:09.529Z,cartservice,network_in,14956
2023-07-04T20:53:19.505Z,recommendationservice,network_in,880011
2023-07-04T20:53:19.529Z,cartservice,network_in,15864
2023-07-04T20:53:19.529Z,cartservice,network_in,13292
2023-07-04T20:53:19.528Z,paymentservice,network_in,28052
2023-07-04T20:53:19.528Z,cartservice,network_in,435378
2023-07-04T20:53:19.528Z,shippingservice,network_in,143914
2023-07-04T20:53:19.505Z,cartservice,network_in,13338
2023-07-04T20:53:19.505Z,cartservice,network_in,16642
2023-07-04T20:53:19.529Z,cartservice,network_in,15396
2023-07-04T20:53:19.528Z,cartservice,network_in,15092
2023-07-04T20:53:19.528Z,frontend,network_in,2645635
2023-07-04T20:53:19.505Z,cartservice,network_in,11266
2023-07-04T20:53:19.505Z,productcatalogservice,network_in,1016465
2023-07-04T20:53:19.529Z,redis-cart,network_in,191279
2023-07-04T20:53:19.529Z,emailservice,network_in,29012
2023-07-04T20:53:19.528Z,cartservice,network_in,13388
2023-07-04T20:53:19.528Z,cartservice,network_in,14020
2023-07-04T20:53:19.528Z,checkoutservice,network_in,125358
2023-07-04T20:53:19.505Z,cartservice,network_in,11688
2023-07-04T20:53:19.505Z,cartservice,network_in,13110
2023-07-04T20:53:19.505Z,currencyservice,network_in,512804
2023-07-04T20:53:19.529Z,cartservice,network_in,15684
2023-07-04T20:53:19.529Z,cartservice,network_in,14228
2023-07-04T20:53:19.529Z,adservice,network_in,135953
2023-07-04T20:53:19.529Z,cartservice,network_in,13978
2023-07-04T20:53:19.528Z,cartservice,network_in,40220
2023-07-04T20:53:29.506Z,cartservice,network_in,14184
2023-07-04T20:53:29.528Z,cartservice,network_in,40220
2023-07-04T20:53:29.530Z,redis-cart,network_in,204749
2023-07-04T20:53:29.528Z,paymentservice,network_in,28052
2023-07-04T20:53:29.528Z,cartservice,network_in,435378
2023-07-04T20:53:29.528Z,shippingservice,network_in,143914
2023-07-04T20:53:29.530Z,cartservice,network_in,15396
2023-07-04T20:53:29.530Z,cartservice,network_in,15864
2023-07-04T20:53:29.506Z,cartservice,network_in,12286
2023-07-04T20:53:29.528Z,cartservice,network_in,15092
2023-07-04T20:53:29.528Z,frontend,network_in,2645635
2023-07-04T20:53:29.530Z,emailservice,network_in,29658
2023-07-04T20:53:29.530Z,cartservice,network_in,14118
2023-07-04T20:53:29.530Z,cartservice,network_in,14368
2023-07-04T20:53:29.530Z,cartservice,network_in,15684
2023-07-04T20:53:29.506Z,currencyservice,network_in,552320
2023-07-04T20:53:29.506Z,cartservice,network_in,12568
2023-07-04T20:53:29.506Z,cartservice,network_in,13194
2023-07-04T20:53:29.506Z,productcatalogservice,network_in,1054552
2023-07-04T20:53:29.506Z,cartservice,network_in,16642
2023-07-04T20:53:29.506Z,recommendationservice,network_in,930594
2023-07-04T20:53:29.528Z,cartservice,network_in,13388
2023-07-04T20:53:29.528Z,cartservice,network_in,14020
2023-07-04T20:53:29.528Z,checkoutservice,network_in,125358
2023-07-04T20:53:29.530Z,cartservice,network_in,13292
2023-07-04T20:53:29.530Z,adservice,network_in,141927
2023-07-04T20:53:39.505Z,cartservice,network_in,12566
2023-07-04T20:53:39.505Z,cartservice,network_in,14576
2023-07-04T20:53:39.529Z,cartservice,network_in,14368
2023-07-04T20:53:39.529Z,redis-cart,network_in,204749
2023-07-04T20:53:39.528Z,cartservice,network_in,43088
2023-07-04T20:53:39.505Z,recommendationservice,network_in,930594
2023-07-04T20:53:39.505Z,cartservice,network_in,12568
2023-07-04T20:53:39.529Z,cartservice,network_in,15864
2023-07-04T20:53:39.529Z,cartservice,network_in,13292
2023-07-04T20:53:39.529Z,adservice,network_in,141927
2023-07-04T20:53:39.528Z,cartservice,network_in,15092
2023-07-04T20:53:39.528Z,paymentservice,network_in,30081
2023-07-04T20:53:39.528Z,cartservice,network_in,467409
2023-07-04T20:53:39.505Z,productcatalogservice,network_in,1091874
2023-07-04T20:53:39.505Z,cartservice,network_in,17468
2023-07-04T20:53:39.529Z,emailservice,network_in,29658
2023-07-04T20:53:39.529Z,cartservice,network_in,14118
2023-07-04T20:53:39.529Z,cartservice,network_in,15396
2023-07-04T20:53:39.528Z,frontend,network_in,2758742
2023-07-04T20:53:39.528Z,cartservice,network_in,13570
2023-07-04T20:53:39.505Z,cartservice,network_in,13194
2023-07-04T20:53:39.505Z,currencyservice,network_in,569952
2023-07-04T20:53:39.528Z,cartservice,network_in,14020
2023-07-04T20:53:39.528Z,checkoutservice,network_in,125358
2023-07-04T20:53:39.528Z,shippingservice,network_in,155436
2023-07-04T20:53:39.529Z,cartservice,network_in,15684
2023-07-04T20:53:49.531Z,cartservice,network_in,16350
2023-07-04T20:53:49.531Z,emailservice,network_in,32311
2023-07-04T20:53:49.531Z,cartservice,network_in,15486
2023-07-04T20:53:49.505Z,cartservice,network_in,13868
2023-07-04T20:53:49.505Z,cartservice,network_in,13384
2023-07-04T20:53:49.505Z,currencyservice,network_in,601967
2023-07-04T20:53:49.531Z,cartservice,network_in,16662
2023-07-04T20:53:49.531Z,cartservice,network_in,17040
2023-07-04T20:53:49.531Z,cartservice,network_in,15170
2023-07-04T20:53:49.531Z,cartservice,network_in,13292
2023-07-04T20:53:49.528Z,shippingservice,network_in,162968
2023-07-04T20:53:49.528Z,cartservice,network_in,14408
2023-07-04T20:53:49.528Z,cartservice,network_in,15138
2023-07-04T20:53:49.505Z,recommendationservice,network_in,1040597
2023-07-04T20:53:49.505Z,cartservice,network_in,15484
2023-07-04T20:53:49.505Z,cartservice,network_in,18632
2023-07-04T20:53:49.505Z,cartservice,network_in,14532
2023-07-04T20:53:49.531Z,redis-cart,network_in,219627
2023-07-04T20:53:49.531Z,adservice,network_in,151443
2023-07-04T20:53:49.528Z,paymentservice,network_in,30825
2023-07-04T20:53:49.528Z,frontend,network_in,2907294
2023-07-04T20:53:49.528Z,cartservice,network_in,15344
2023-07-04T20:53:49.505Z,productcatalogservice,network_in,1166636
2023-07-04T20:53:49.528Z,cartservice,network_in,46070
2023-07-04T20:53:49.528Z,cartservice,network_in,498356
2023-07-04T20:53:49.528Z,checkoutservice,network_in,137248
2023-07-04T20:53:59.527Z,paymentservice,network_in,30825
2023-07-04T20:53:59.527Z,frontend,network_in,2907294
2023-07-04T20:53:59.527Z,cartservice,network_in,15344
2023-07-04T20:53:59.527Z,cartservice,network_in,498356
2023-07-04T20:53:59.527Z,cartservice,network_in,14408
2023-07-04T20:53:59.530Z,redis-cart,network_in,219627
2023-07-04T20:53:59.530Z,emailservice,network_in,32311
2023-07-04T20:53:59.530Z,cartservice,network_in,17040
2023-07-04T20:53:59.527Z,cartservice,network_in,46070
2023-07-04T20:53:59.527Z,shippingservice,network_in,162968
2023-07-04T20:53:59.530Z,cartservice,network_in,16662
2023-07-04T20:53:59.527Z,checkoutservice,network_in,137248
2023-07-04T20:53:59.530Z,cartservice,network_in,15486
2023-07-04T20:53:59.530Z,adservice,network_in,151443
2023-07-04T20:53:59.506Z,cartservice,network_in,15568
2023-07-04T20:53:59.506Z,cartservice,network_in,14532
2023-07-04T20:53:59.506Z,recommendationservice,network_in,1040597
2023-07-04T20:53:59.506Z,cartservice,network_in,13868
2023-07-04T20:53:59.506Z,cartservice,network_in,18632
2023-07-04T20:53:59.530Z,cartservice,network_in,16350
2023-07-04T20:53:59.527Z,cartservice,network_in,15138
2023-07-04T20:53:59.530Z,cartservice,network_in,15170
2023-07-04T20:53:59.530Z,cartservice,network_in,13292
2023-07-04T20:53:59.506Z,productcatalogservice,network_in,1255268
2023-07-04T20:53:59.506Z,cartservice,network_in,13384
2023-07-04T20:53:59.506Z,currencyservice,network_in,634013
2023-07-04T20:54:09.528Z,shippingservice,network_in,175484
2023-07-04T20:54:09.530Z,cartservice,network_in,16984
2023-07-04T20:54:09.530Z,emailservice,network_in,32311
2023-07-04T20:54:09.530Z,cartservice,network_in,14662
2023-07-04T20:54:09.530Z,cartservice,network_in,15626
2023-07-04T20:54:09.528Z,cartservice,network_in,46070
2023-07-04T20:54:09.528Z,paymentservice,network_in,32658
2023-07-04T20:54:09.528Z,cartservice,network_in,16336
2023-07-04T20:54:09.530Z,adservice,network_in,162371
2023-07-04T20:54:09.530Z,redis-cart,network_in,232898
2023-07-04T20:54:09.528Z,cartservice,network_in,14548
2023-07-04T20:54:09.528Z,cartservice,network_in,498356
2023-07-04T20:54:09.528Z,cartservice,network_in,15138
2023-07-04T20:54:09.530Z,cartservice,network_in,17622
2023-07-04T20:54:09.530Z,cartservice,network_in,15394
2023-07-04T20:54:09.530Z,cartservice,network_in,17222
2023-07-04T20:54:09.505Z,productcatalogservice,network_in,1255268
2023-07-04T20:54:09.505Z,cartservice,network_in,13384
2023-07-04T20:54:09.505Z,currencyservice,network_in,634013
2023-07-04T20:54:09.505Z,cartservice,network_in,15568
2023-07-04T20:54:09.505Z,cartservice,network_in,14532
2023-07-04T20:54:09.505Z,recommendationservice,network_in,1040597
2023-07-04T20:54:09.505Z,cartservice,network_in,13868
2023-07-04T20:54:09.505Z,cartservice,network_in,18632
2023-07-04T20:54:09.528Z,frontend,network_in,3112629
2023-07-04T20:54:09.528Z,checkoutservice,network_in,137248
2023-07-04T20:54:19.529Z,cartservice,network_in,17622
2023-07-04T20:54:19.527Z,cartservice,network_in,16336
2023-07-04T20:54:19.529Z,cartservice,network_in,16984
2023-07-04T20:54:19.527Z,cartservice,network_in,47110
2023-07-04T20:54:19.527Z,cartservice,network_in,530822
2023-07-04T20:54:19.527Z,cartservice,network_in,16022
2023-07-04T20:54:19.529Z,emailservice,network_in,32311
2023-07-04T20:54:19.527Z,paymentservice,network_in,32658
2023-07-04T20:54:19.527Z,checkoutservice,network_in,139069
2023-07-04T20:54:19.529Z,cartservice,network_in,14662
2023-07-04T20:54:19.527Z,frontend,network_in,3112629
2023-07-04T20:54:19.529Z,cartservice,network_in,17222
2023-07-04T20:54:19.529Z,redis-cart,network_in,232898
2023-07-04T20:54:19.529Z,cartservice,network_in,15626
2023-07-04T20:54:19.505Z,currencyservice,network_in,659370
2023-07-04T20:54:19.505Z,cartservice,network_in,13384
2023-07-04T20:54:19.505Z,cartservice,network_in,15568
2023-07-04T20:54:19.505Z,cartservice,network_in,13868
2023-07-04T20:54:19.505Z,cartservice,network_in,18674
2023-07-04T20:54:19.505Z,recommendationservice,network_in,1113145
2023-07-04T20:54:19.505Z,cartservice,network_in,14532
2023-07-04T20:54:19.505Z,productcatalogservice,network_in,1255268
2023-07-04T20:54:19.529Z,cartservice,network_in,15394
2023-07-04T20:54:19.529Z,adservice,network_in,162371
2023-07-04T20:54:19.527Z,shippingservice,network_in,187098
2023-07-04T20:54:19.527Z,cartservice,network_in,15498
2023-07-04T20:54:29.528Z,cartservice,network_in,51423
2023-07-04T20:54:29.529Z,cartservice,network_in,17622
2023-07-04T20:54:29.528Z,shippingservice,network_in,187098
2023-07-04T20:54:29.528Z,paymentservice,network_in,35020
2023-07-04T20:54:29.528Z,cartservice,network_in,566009
2023-07-04T20:54:29.529Z,redis-cart,network_in,247203
2023-07-04T20:54:29.529Z,emailservice,network_in,36839
2023-07-04T20:54:29.529Z,cartservice,network_in,16614
2023-07-04T20:54:29.529Z,adservice,network_in,177529
2023-07-04T20:54:29.528Z,checkoutservice,network_in,139069
2023-07-04T20:54:29.528Z,cartservice,network_in,15498
2023-07-04T20:54:29.528Z,cartservice,network_in,16336
2023-07-04T20:54:29.529Z,cartservice,network_in,16274
2023-07-04T20:54:29.529Z,cartservice,network_in,15584
2023-07-04T20:54:29.529Z,cartservice,network_in,18060
2023-07-04T20:54:29.529Z,cartservice,network_in,18088
2023-07-04T20:54:29.505Z,cartservice,network_in,13868
2023-07-04T20:54:29.505Z,cartservice,network_in,14268
2023-07-04T20:54:29.505Z,productcatalogservice,network_in,1338267
2023-07-04T20:54:29.505Z,currencyservice,network_in,659370
2023-07-04T20:54:29.505Z,cartservice,network_in,15568
2023-07-04T20:54:29.505Z,recommendationservice,network_in,1113145
2023-07-04T20:54:29.505Z,cartservice,network_in,19582
2023-07-04T20:54:29.505Z,cartservice,network_in,15524
2023-07-04T20:54:29.528Z,frontend,network_in,3352089
2023-07-04T20:54:29.528Z,cartservice,network_in,16106
2023-07-04T20:54:39.505Z,cartservice,network_in,19582
2023-07-04T20:54:39.505Z,cartservice,network_in,14884
2023-07-04T20:54:39.528Z,paymentservice,network_in,35020
2023-07-04T20:54:39.530Z,cartservice,network_in,17560
2023-07-04T20:54:39.530Z,cartservice,network_in,18060
2023-07-04T20:54:39.530Z,emailservice,network_in,36839
2023-07-04T20:54:39.505Z,currencyservice,network_in,712867
2023-07-04T20:54:39.528Z,shippingservice,network_in,203716
2023-07-04T20:54:39.528Z,cartservice,network_in,51423
2023-07-04T20:54:39.528Z,cartservice,network_in,566009
2023-07-04T20:54:39.530Z,cartservice,network_in,18088
2023-07-04T20:54:39.528Z,frontend,network_in,3352089
2023-07-04T20:54:39.528Z,cartservice,network_in,15582
2023-07-04T20:54:39.528Z,cartservice,network_in,16106
2023-07-04T20:54:39.530Z,redis-cart,network_in,264300
2023-07-04T20:54:39.530Z,cartservice,network_in,16274
2023-07-04T20:54:39.530Z,cartservice,network_in,15584
2023-07-04T20:54:39.505Z,productcatalogservice,network_in,1407109
2023-07-04T20:54:39.505Z,cartservice,network_in,15524
2023-07-04T20:54:39.505Z,recommendationservice,network_in,1190174
2023-07-04T20:54:39.505Z,cartservice,network_in,14268
2023-07-04T20:54:39.505Z,cartservice,network_in,15568
2023-07-04T20:54:39.528Z,cartservice,network_in,16336
2023-07-04T20:54:39.528Z,checkoutservice,network_in,167308
2023-07-04T20:54:39.530Z,cartservice,network_in,18502
2023-07-04T20:54:39.530Z,adservice,network_in,183705
2023-07-04T20:54:49.528Z,cartservice,network_in,590527
2023-07-04T20:54:49.528Z,cartservice,network_in,15582
2023-07-04T20:54:49.528Z,cartservice,network_in,55704
2023-07-04T20:54:49.530Z,cartservice,network_in,18060
2023-07-04T20:54:49.528Z,frontend,network_in,3543694
2023-07-04T20:54:49.530Z,cartservice,network_in,17088
2023-07-04T20:54:49.530Z,cartservice,network_in,16464
2023-07-04T20:54:49.530Z,cartservice,network_in,18502
2023-07-04T20:54:49.505Z,productcatalogservice,network_in,1407109
2023-07-04T20:54:49.505Z,cartservice,network_in,15148
2023-07-04T20:54:49.505Z,currencyservice,network_in,743071
2023-07-04T20:54:49.505Z,cartservice,network_in,14884
2023-07-04T20:54:49.505Z,cartservice,network_in,19624
2023-07-04T20:54:49.505Z,cartservice,network_in,15524
2023-07-04T20:54:49.505Z,recommendationservice,network_in,1234840
2023-07-04T20:54:49.505Z,cartservice,network_in,16448
2023-07-04T20:54:49.528Z,cartservice,network_in,17258
2023-07-04T20:54:49.528Z,paymentservice,network_in,37497
2023-07-04T20:54:49.528Z,shippingservice,network_in,209260
2023-07-04T20:54:49.530Z,cartservice,network_in,18968
2023-07-04T20:54:49.530Z,cartservice,network_in,17560
2023-07-04T20:54:49.530Z,redis-cart,network_in,273404
2023-07-04T20:54:49.530Z,adservice,network_in,183705
2023-07-04T20:54:49.528Z,cartservice,network_in,17070
2023-07-04T20:54:49.528Z,checkoutservice,network_in,169129
2023-07-04T20:54:49.530Z,emailservice,network_in,38613
2023-07-04T20:54:59.530Z,cartservice,network_in,17560
2023-07-04T20:54:59.530Z,cartservice,network_in,18502
2023-07-04T20:54:59.530Z,cartservice,network_in,17088
2023-07-04T20:54:59.506Z,cartservice,network_in,15148
2023-07-04T20:54:59.530Z,emailservice,network_in,38613
2023-07-04T20:54:59.530Z,cartservice,network_in,16464
2023-07-04T20:54:59.528Z,cartservice,network_in,17070
2023-07-04T20:54:59.530Z,redis-cart,network_in,273404
2023-07-04T20:54:59.528Z,paymentservice,network_in,39384
2023-07-04T20:54:59.528Z,frontend,network_in,3683557
2023-07-04T20:54:59.528Z,cartservice,network_in,618665
2023-07-04T20:54:59.528Z,cartservice,network_in,18204
2023-07-04T20:54:59.528Z,checkoutservice,network_in,169129
2023-07-04T20:54:59.528Z,cartservice,network_in,55836
2023-07-04T20:54:59.528Z,cartservice,network_in,15582
2023-07-04T20:54:59.528Z,shippingservice,network_in,209260
2023-07-04T20:54:59.506Z,cartservice,network_in,17358
2023-07-04T20:54:59.506Z,cartservice,network_in,20450
2023-07-04T20:54:59.506Z,productcatalogservice,network_in,1536604
2023-07-04T20:54:59.506Z,recommendationservice,network_in,1310648
2023-07-04T20:54:59.506Z,currencyservice,network_in,766065
2023-07-04T20:54:59.506Z,cartservice,network_in,15698
2023-07-04T20:54:59.506Z,cartservice,network_in,16446
2023-07-04T20:54:59.530Z,adservice,network_in,192620
2023-07-04T20:54:59.530Z,cartservice,network_in,18968
2023-07-04T20:54:59.530Z,cartservice,network_in,18060
2023-07-04T20:55:09.505Z,currencyservice,network_in,766065
2023-07-04T20:55:09.529Z,cartservice,network_in,18502
2023-07-04T20:55:09.529Z,redis-cart,network_in,273404
2023-07-04T20:55:09.529Z,cartservice,network_in,17088
2023-07-04T20:55:09.529Z,cartservice,network_in,18060
2023-07-04T20:55:09.505Z,recommendationservice,network_in,1310648
2023-07-04T20:55:09.505Z,cartservice,network_in,16446
2023-07-04T20:55:09.529Z,emailservice,network_in,38613
2023-07-04T20:55:09.529Z,cartservice,network_in,18968
2023-07-04T20:55:09.528Z,cartservice,network_in,17070
2023-07-04T20:55:09.528Z,frontend,network_in,3960458
2023-07-04T20:55:09.505Z,cartservice,network_in,15698
2023-07-04T20:55:09.529Z,cartservice,network_in,17560
2023-07-04T20:55:09.529Z,adservice,network_in,192620
2023-07-04T20:55:09.528Z,paymentservice,network_in,40302
2023-07-04T20:55:09.528Z,cartservice,network_in,638429
2023-07-04T20:55:09.528Z,shippingservice,network_in,219820
2023-07-04T20:55:09.505Z,cartservice,network_in,15148
2023-07-04T20:55:09.505Z,cartservice,network_in,17358
2023-07-04T20:55:09.505Z,cartservice,network_in,20450
2023-07-04T20:55:09.505Z,productcatalogservice,network_in,1536604
2023-07-04T20:55:09.529Z,cartservice,network_in,16464
2023-07-04T20:55:09.528Z,cartservice,network_in,16546
2023-07-04T20:55:09.528Z,cartservice,network_in,18246
2023-07-04T20:55:09.528Z,checkoutservice,network_in,174445
2023-07-04T20:55:09.528Z,cartservice,network_in,59756
2023-07-04T20:55:19.506Z,productcatalogservice,network_in,1536604
2023-07-04T20:55:19.506Z,cartservice,network_in,15148
2023-07-04T20:55:19.506Z,cartservice,network_in,15698
2023-07-04T20:55:19.506Z,recommendationservice,network_in,1310648
2023-07-04T20:55:19.527Z,cartservice,network_in,18246
2023-07-04T20:55:19.527Z,cartservice,network_in,638429
2023-07-04T20:55:19.529Z,cartservice,network_in,18916
2023-07-04T20:55:19.529Z,cartservice,network_in,19424
2023-07-04T20:55:19.506Z,cartservice,network_in,20492
2023-07-04T20:55:19.506Z,currencyservice,network_in,799244
2023-07-04T20:55:19.527Z,cartservice,network_in,16546
2023-07-04T20:55:19.527Z,cartservice,network_in,17070
2023-07-04T20:55:19.527Z,shippingservice,network_in,219820
2023-07-04T20:55:19.529Z,cartservice,network_in,18482
2023-07-04T20:55:19.529Z,redis-cart,network_in,284001
2023-07-04T20:55:19.529Z,adservice,network_in,205651
2023-07-04T20:55:19.529Z,cartservice,network_in,19956
2023-07-04T20:55:19.527Z,paymentservice,network_in,40302
2023-07-04T20:55:19.527Z,checkoutservice,network_in,174445
2023-07-04T20:55:19.527Z,cartservice,network_in,59756
2023-07-04T20:55:19.529Z,cartservice,network_in,18010
2023-07-04T20:55:19.529Z,emailservice,network_in,41786
2023-07-04T20:55:19.506Z,cartservice,network_in,17272
2023-07-04T20:55:19.506Z,cartservice,network_in,17358
2023-07-04T20:55:19.527Z,frontend,network_in,3960458
2023-07-04T20:55:19.529Z,cartservice,network_in,17386
2023-07-04T20:55:29.527Z,paymentservice,network_in,42059
2023-07-04T20:55:29.527Z,checkoutservice,network_in,187107
2023-07-04T20:55:29.529Z,cartservice,network_in,19956
2023-07-04T20:55:29.527Z,shippingservice,network_in,236276
2023-07-04T20:55:29.527Z,cartservice,network_in,17576
2023-07-04T20:55:29.527Z,frontend,network_in,3960458
2023-07-04T20:55:29.527Z,cartservice,network_in,61177
2023-07-04T20:55:29.527Z,cartservice,network_in,17070
2023-07-04T20:55:29.505Z,cartservice,network_in,17356
2023-07-04T20:55:29.529Z,cartservice,network_in,19796
2023-07-04T20:55:29.529Z,cartservice,network_in,17386
2023-07-04T20:55:29.527Z,cartservice,network_in,18246
2023-07-04T20:55:29.527Z,cartservice,network_in,667805
2023-07-04T20:55:29.505Z,cartservice,network_in,16512
2023-07-04T20:55:29.505Z,cartservice,network_in,16028
2023-07-04T20:55:29.505Z,cartservice,network_in,21330
2023-07-04T20:55:29.505Z,productcatalogservice,network_in,1633467
2023-07-04T20:55:29.505Z,recommendationservice,network_in,1425878
2023-07-04T20:55:29.505Z,currencyservice,network_in,834801
2023-07-04T20:55:29.505Z,cartservice,network_in,18172
2023-07-04T20:55:29.529Z,redis-cart,network_in,302650
2023-07-04T20:55:29.529Z,cartservice,network_in,18010
2023-07-04T20:55:29.529Z,cartservice,network_in,18482
2023-07-04T20:55:29.529Z,cartservice,network_in,19424
2023-07-04T20:55:29.529Z,emailservice,network_in,41786
2023-07-04T20:55:29.529Z,adservice,network_in,205651
2023-07-04T20:55:39.529Z,cartservice,network_in,19796
2023-07-04T20:55:39.506Z,productcatalogservice,network_in,1671433
2023-07-04T20:55:39.527Z,checkoutservice,network_in,197052
2023-07-04T20:55:39.527Z,frontend,network_in,4202118
2023-07-04T20:55:39.529Z,cartservice,network_in,18010
2023-07-04T20:55:39.529Z,cartservice,network_in,19956
2023-07-04T20:55:39.527Z,cartservice,network_in,694137
2023-07-04T20:55:39.527Z,cartservice,network_in,19114
2023-07-04T20:55:39.529Z,redis-cart,network_in,302650
2023-07-04T20:55:39.529Z,cartservice,network_in,18482
2023-07-04T20:55:39.529Z,cartservice,network_in,19424
2023-07-04T20:55:39.529Z,adservice,network_in,205651
2023-07-04T20:55:39.529Z,cartservice,network_in,17386
2023-07-04T20:55:39.506Z,cartservice,network_in,18172
2023-07-04T20:55:39.506Z,currencyservice,network_in,877123
2023-07-04T20:55:39.506Z,cartservice,network_in,17356
2023-07-04T20:55:39.506Z,cartservice,network_in,16028
2023-07-04T20:55:39.506Z,cartservice,network_in,16512
2023-07-04T20:55:39.527Z,cartservice,network_in,17576
2023-07-04T20:55:39.527Z,cartservice,network_in,18902
2023-07-04T20:55:39.527Z,shippingservice,network_in,242040
2023-07-04T20:55:39.529Z,emailservice,network_in,41786
2023-07-04T20:55:39.506Z,cartservice,network_in,21372
2023-07-04T20:55:39.506Z,recommendationservice,network_in,1425878
2023-07-04T20:55:39.527Z,paymentservice,network_in,42843
2023-07-04T20:55:39.527Z,cartservice,network_in,64266
2023-07-04T20:55:49.530Z,cartservice,network_in,17386
2023-07-04T20:55:49.530Z,cartservice,network_in,19254
2023-07-04T20:55:49.506Z,cartservice,network_in,22264
2023-07-04T20:55:49.506Z,cartservice,network_in,18172
2023-07-04T20:55:49.528Z,cartservice,network_in,711202
2023-07-04T20:55:49.528Z,cartservice,network_in,19886
2023-07-04T20:55:49.530Z,cartservice,network_in,19956
2023-07-04T20:55:49.530Z,emailservice,network_in,41894
2023-07-04T20:55:49.530Z,adservice,network_in,215825
2023-07-04T20:55:49.530Z,cartservice,network_in,19796
2023-07-04T20:55:49.506Z,cartservice,network_in,18200
2023-07-04T20:55:49.506Z,currencyservice,network_in,910362
2023-07-04T20:55:49.530Z,cartservice,network_in,18010
2023-07-04T20:55:49.530Z,cartservice,network_in,20238
2023-07-04T20:55:49.506Z,productcatalogservice,network_in,1775374
2023-07-04T20:55:49.506Z,recommendationservice,network_in,1489882
2023-07-04T20:55:49.528Z,cartservice,network_in,17576
2023-07-04T20:55:49.528Z,shippingservice,network_in,257684
2023-07-04T20:55:49.528Z,frontend,network_in,4404141
2023-07-04T20:55:49.528Z,paymentservice,network_in,42843
2023-07-04T20:55:49.528Z,checkoutservice,network_in,202564
2023-07-04T20:55:49.530Z,redis-cart,network_in,311373
2023-07-04T20:55:49.506Z,cartservice,network_in,17392
2023-07-04T20:55:49.506Z,cartservice,network_in,16884
2023-07-04T20:55:49.528Z,cartservice,network_in,18986
2023-07-04T20:55:49.528Z,cartservice,network_in,67956
2023-07-04T20:55:59.527Z,cartservice,network_in,17576
2023-07-04T20:55:59.527Z,cartservice,network_in,711202
2023-07-04T20:55:59.530Z,cartservice,network_in,18266
2023-07-04T20:55:59.527Z,cartservice,network_in,19886
2023-07-04T20:55:59.527Z,cartservice,network_in,18986
2023-07-04T20:55:59.527Z,cartservice,network_in,67956
2023-07-04T20:55:59.530Z,emailservice,network_in,44133
2023-07-04T20:55:59.530Z,cartservice,network_in,20836
2023-07-04T20:55:59.530Z,redis-cart,network_in,326322
2023-07-04T20:55:59.506Z,cartservice,network_in,18200
2023-07-04T20:55:59.506Z,cartservice,network_in,22264
2023-07-04T20:55:59.506Z,cartservice,network_in,18172
2023-07-04T20:55:59.506Z,cartservice,network_in,17392
2023-07-04T20:55:59.506Z,productcatalogservice,network_in,1775374
2023-07-04T20:55:59.506Z,cartservice,network_in,16884
2023-07-04T20:55:59.506Z,recommendationservice,network_in,1489882
2023-07-04T20:55:59.506Z,currencyservice,network_in,910362
2023-07-04T20:55:59.527Z,shippingservice,network_in,257684
2023-07-04T20:55:59.527Z,frontend,network_in,4404141
2023-07-04T20:55:59.527Z,checkoutservice,network_in,202564
2023-07-04T20:55:59.530Z,cartservice,network_in,19254
2023-07-04T20:55:59.530Z,cartservice,network_in,21076
2023-07-04T20:55:59.527Z,paymentservice,network_in,42843
2023-07-04T20:55:59.530Z,cartservice,network_in,20676
2023-07-04T20:55:59.530Z,cartservice,network_in,18866
2023-07-04T20:55:59.530Z,adservice,network_in,234529
2023-07-04T20:56:09.506Z,cartservice,network_in,18200
2023-07-04T20:56:09.506Z,cartservice,network_in,19016
2023-07-04T20:56:09.528Z,shippingservice,network_in,257684
2023-07-04T20:56:09.528Z,paymentservice,network_in,45328
2023-07-04T20:56:09.528Z,cartservice,network_in,749434
2023-07-04T20:56:09.530Z,cartservice,network_in,20836
2023-07-04T20:56:09.530Z,cartservice,network_in,18266
2023-07-04T20:56:09.506Z,recommendationservice,network_in,1541608
2023-07-04T20:56:09.506Z,cartservice,network_in,22306
2023-07-04T20:56:09.528Z,cartservice,network_in,19928
2023-07-04T20:56:09.528Z,checkoutservice,network_in,208169
2023-07-04T20:56:09.528Z,cartservice,network_in,67956
2023-07-04T20:56:09.530Z,cartservice,network_in,19254
2023-07-04T20:56:09.528Z,frontend,network_in,4404141
2023-07-04T20:56:09.530Z,cartservice,network_in,18866
2023-07-04T20:56:09.530Z,cartservice,network_in,21076
2023-07-04T20:56:09.506Z,productcatalogservice,network_in,1775374
2023-07-04T20:56:09.506Z,currencyservice,network_in,910362
2023-07-04T20:56:09.528Z,cartservice,network_in,18540
2023-07-04T20:56:09.530Z,redis-cart,network_in,326322
2023-07-04T20:56:09.530Z,adservice,network_in,234529
2023-07-04T20:56:09.506Z,cartservice,network_in,17656
2023-07-04T20:56:09.506Z,cartservice,network_in,17392
2023-07-04T20:56:09.530Z,emailservice,network_in,44133
2023-07-04T20:56:09.528Z,cartservice,network_in,18986
2023-07-04T20:56:09.530Z,cartservice,network_in,20676
2023-07-04T20:56:19.528Z,paymentservice,network_in,46204
2023-07-04T20:56:19.528Z,checkoutservice,network_in,214861
2023-07-04T20:56:19.528Z,shippingservice,network_in,265668
2023-07-04T20:56:19.528Z,cartservice,network_in,19800
2023-07-04T20:56:19.506Z,cartservice,network_in,17740
2023-07-04T20:56:19.506Z,cartservice,network_in,19788
2023-07-04T20:56:19.506Z,cartservice,network_in,18140
2023-07-04T20:56:19.530Z,emailservice,network_in,45908
2023-07-04T20:56:19.528Z,cartservice,network_in,19928
2023-07-04T20:56:19.528Z,cartservice,network_in,69410
2023-07-04T20:56:19.506Z,recommendationservice,network_in,1612586
2023-07-04T20:56:19.530Z,cartservice,network_in,20676
2023-07-04T20:56:19.530Z,adservice,network_in,241597
2023-07-04T20:56:19.528Z,frontend,network_in,4537351
2023-07-04T20:56:19.506Z,cartservice,network_in,22306
2023-07-04T20:56:19.530Z,cartservice,network_in,20176
2023-07-04T20:56:19.530Z,cartservice,network_in,19080
2023-07-04T20:56:19.530Z,cartservice,network_in,21854
2023-07-04T20:56:19.528Z,cartservice,network_in,749434
2023-07-04T20:56:19.528Z,cartservice,network_in,19378
2023-07-04T20:56:19.506Z,currencyservice,network_in,944648
2023-07-04T20:56:19.506Z,productcatalogservice,network_in,1873814
2023-07-04T20:56:19.506Z,cartservice,network_in,19038
2023-07-04T20:56:19.530Z,cartservice,network_in,19746
2023-07-04T20:56:19.530Z,redis-cart,network_in,337270
2023-07-04T20:56:19.530Z,cartservice,network_in,21160
2023-07-04T20:56:29.506Z,cartservice,network_in,22306
2023-07-04T20:56:29.527Z,cartservice,network_in,19928
2023-07-04T20:56:29.527Z,cartservice,network_in,19884
2023-07-04T20:56:29.530Z,cartservice,network_in,19746
2023-07-04T20:56:29.527Z,checkoutservice,network_in,215653
2023-07-04T20:56:29.527Z,cartservice,network_in,19378
2023-07-04T20:56:29.527Z,frontend,network_in,4638113
2023-07-04T20:56:29.530Z,redis-cart,network_in,348033
2023-07-04T20:56:29.527Z,cartservice,network_in,771997
2023-07-04T20:56:29.530Z,cartservice,network_in,19122
2023-07-04T20:56:29.530Z,cartservice,network_in,21854
2023-07-04T20:56:29.506Z,cartservice,network_in,17740
2023-07-04T20:56:29.506Z,currencyservice,network_in,944648
2023-07-04T20:56:29.506Z,cartservice,network_in,19788
2023-07-04T20:56:29.506Z,productcatalogservice,network_in,1873814
2023-07-04T20:56:29.506Z,recommendationservice,network_in,1612586
2023-07-04T20:56:29.506Z,cartservice,network_in,19038
2023-07-04T20:56:29.506Z,cartservice,network_in,18140
2023-07-04T20:56:29.527Z,cartservice,network_in,69410
2023-07-04T20:56:29.527Z,paymentservice,network_in,46204
2023-07-04T20:56:29.527Z,shippingservice,network_in,271816
2023-07-04T20:56:29.530Z,cartservice,network_in,20176
2023-07-04T20:56:29.530Z,cartservice,network_in,21556
2023-07-04T20:56:29.530Z,emailservice,network_in,45974
2023-07-04T20:56:29.530Z,adservice,network_in,251693
2023-07-04T20:56:29.530Z,cartservice,network_in,21160
2023-07-04T20:56:39.528Z,frontend,network_in,4805864
2023-07-04T20:56:39.528Z,cartservice,network_in,19462
2023-07-04T20:56:39.528Z,checkoutservice,network_in,216682
2023-07-04T20:56:39.528Z,paymentservice,network_in,47283
2023-07-04T20:56:39.506Z,cartservice,network_in,18978
2023-07-04T20:56:39.528Z,cartservice,network_in,19884
2023-07-04T20:56:39.528Z,cartservice,network_in,69410
2023-07-04T20:56:39.529Z,cartservice,network_in,20176
2023-07-04T20:56:39.529Z,cartservice,network_in,21556
2023-07-04T20:56:39.529Z,emailservice,network_in,45974
2023-07-04T20:56:39.529Z,cartservice,network_in,19122
2023-07-04T20:56:39.529Z,cartservice,network_in,21854
2023-07-04T20:56:39.529Z,adservice,network_in,251693
2023-07-04T20:56:39.529Z,redis-cart,network_in,348033
2023-07-04T20:56:39.529Z,cartservice,network_in,19746
2023-07-04T20:56:39.529Z,cartservice,network_in,21160
2023-07-04T20:56:39.506Z,cartservice,network_in,19876
2023-07-04T20:56:39.506Z,recommendationservice,network_in,1645085
2023-07-04T20:56:39.506Z,currencyservice,network_in,1022373
2023-07-04T20:56:39.506Z,productcatalogservice,network_in,1944288
2023-07-04T20:56:39.506Z,cartservice,network_in,23252
2023-07-04T20:56:39.506Z,cartservice,network_in,18446
2023-07-04T20:56:39.506Z,cartservice,network_in,19872
2023-07-04T20:56:39.528Z,cartservice,network_in,20784
2023-07-04T20:56:39.528Z,cartservice,network_in,791314
2023-07-04T20:56:39.528Z,shippingservice,network_in,281700
2023-07-04T20:56:49.527Z,frontend,network_in,4805864
2023-07-04T20:56:49.527Z,cartservice,network_in,19884
2023-07-04T20:56:49.527Z,cartservice,network_in,69410
2023-07-04T20:56:49.527Z,cartservice,network_in,19462
2023-07-04T20:56:49.527Z,cartservice,network_in,791314
2023-07-04T20:56:49.529Z,cartservice,network_in,21556
2023-07-04T20:56:49.527Z,checkoutservice,network_in,216682
2023-07-04T20:56:49.527Z,paymentservice,network_in,47283
2023-07-04T20:56:49.527Z,shippingservice,network_in,281700
2023-07-04T20:56:49.506Z,cartservice,network_in,23252
2023-07-04T20:56:49.506Z,cartservice,network_in,20030
2023-07-04T20:56:49.506Z,cartservice,network_in,19872
2023-07-04T20:56:49.506Z,recommendationservice,network_in,1696229
2023-07-04T20:56:49.506Z,cartservice,network_in,18600
2023-07-04T20:56:49.506Z,currencyservice,network_in,1022373
2023-07-04T20:56:49.506Z,productcatalogservice,network_in,2017086
2023-07-04T20:56:49.506Z,cartservice,network_in,19090
2023-07-04T20:56:49.527Z,cartservice,network_in,20784
2023-07-04T20:56:49.529Z,cartservice,network_in,19960
2023-07-04T20:56:49.529Z,adservice,network_in,251693
2023-07-04T20:56:49.529Z,cartservice,network_in,22064
2023-07-04T20:56:49.529Z,emailservice,network_in,46678
2023-07-04T20:56:49.529Z,redis-cart,network_in,359552
2023-07-04T20:56:49.529Z,cartservice,network_in,22668
2023-07-04T20:56:49.529Z,cartservice,network_in,21056
2023-07-04T20:56:49.529Z,cartservice,network_in,19746
2023-07-04T20:56:59.528Z,cartservice,network_in,19462
2023-07-04T20:56:59.528Z,paymentservice,network_in,48271
2023-07-04T20:56:59.528Z,cartservice,network_in,20918
2023-07-04T20:56:59.530Z,adservice,network_in,260966
2023-07-04T20:56:59.530Z,cartservice,network_in,21556
2023-07-04T20:56:59.528Z,frontend,network_in,4988761
2023-07-04T20:56:59.530Z,cartservice,network_in,22668
2023-07-04T20:56:59.530Z,cartservice,network_in,21266
2023-07-04T20:56:59.530Z,redis-cart,network_in,359552
2023-07-04T20:56:59.530Z,cartservice,network_in,22274
2023-07-04T20:56:59.530Z,cartservice,network_in,19960
2023-07-04T20:56:59.505Z,cartservice,network_in,23252
2023-07-04T20:56:59.505Z,cartservice,network_in,20030
2023-07-04T20:56:59.505Z,cartservice,network_in,19872
2023-07-04T20:56:59.505Z,recommendationservice,network_in,1696229
2023-07-04T20:56:59.505Z,cartservice,network_in,18600
2023-07-04T20:56:59.505Z,currencyservice,network_in,1022373
2023-07-04T20:56:59.505Z,productcatalogservice,network_in,2017086
2023-07-04T20:56:59.505Z,cartservice,network_in,19090
2023-07-04T20:56:59.528Z,cartservice,network_in,823505
2023-07-04T20:56:59.528Z,checkoutservice,network_in,222911
2023-07-04T20:56:59.528Z,cartservice,network_in,20784
2023-07-04T20:56:59.528Z,cartservice,network_in,72704
2023-07-04T20:56:59.528Z,shippingservice,network_in,289778
2023-07-04T20:56:59.530Z,cartservice,network_in,20862
2023-07-04T20:56:59.530Z,emailservice,network_in,46678
2023-07-04T20:57:09.505Z,cartservice,network_in,19090
2023-07-04T20:57:09.529Z,cartservice,network_in,21266
2023-07-04T20:57:09.505Z,cartservice,network_in,19508
2023-07-04T20:57:09.505Z,cartservice,network_in,24094
2023-07-04T20:57:09.505Z,cartservice,network_in,20786
2023-07-04T20:57:09.505Z,currencyservice,network_in,1067106
2023-07-04T20:57:09.505Z,productcatalogservice,network_in,2017086
2023-07-04T20:57:09.527Z,checkoutservice,network_in,224670
2023-07-04T20:57:09.527Z,shippingservice,network_in,297904
2023-07-04T20:57:09.529Z,cartservice,network_in,23196
2023-07-04T20:57:09.505Z,recommendationservice,network_in,1756762
2023-07-04T20:57:09.527Z,frontend,network_in,5178210
2023-07-04T20:57:09.527Z,paymentservice,network_in,50200
2023-07-04T20:57:09.527Z,cartservice,network_in,21800
2023-07-04T20:57:09.527Z,cartservice,network_in,878836
2023-07-04T20:57:09.529Z,cartservice,network_in,20862
2023-07-04T20:57:09.529Z,cartservice,network_in,22688
2023-07-04T20:57:09.505Z,cartservice,network_in,20030
2023-07-04T20:57:09.527Z,cartservice,network_in,21952
2023-07-04T20:57:09.527Z,cartservice,network_in,73720
2023-07-04T20:57:09.527Z,cartservice,network_in,20524
2023-07-04T20:57:09.529Z,redis-cart,network_in,373872
2023-07-04T20:57:09.529Z,cartservice,network_in,23688
2023-07-04T20:57:09.529Z,emailservice,network_in,48001
2023-07-04T20:57:09.529Z,cartservice,network_in,20170
2023-07-04T20:57:09.529Z,adservice,network_in,273127
2023-07-04T20:57:19.529Z,cartservice,network_in,23196
2023-07-04T20:57:19.529Z,cartservice,network_in,23842
2023-07-04T20:57:19.528Z,frontend,network_in,5385879
2023-07-04T20:57:19.528Z,cartservice,network_in,21952
2023-07-04T20:57:19.529Z,emailservice,network_in,52148
2023-07-04T20:57:19.529Z,cartservice,network_in,22688
2023-07-04T20:57:19.505Z,currencyservice,network_in,1088539
2023-07-04T20:57:19.529Z,cartservice,network_in,20862
2023-07-04T20:57:19.529Z,cartservice,network_in,21054
2023-07-04T20:57:19.528Z,cartservice,network_in,20524
2023-07-04T20:57:19.528Z,paymentservice,network_in,50200
2023-07-04T20:57:19.528Z,cartservice,network_in,878836
2023-07-04T20:57:19.528Z,cartservice,network_in,78267
2023-07-04T20:57:19.528Z,checkoutservice,network_in,261216
2023-07-04T20:57:19.505Z,cartservice,network_in,20938
2023-07-04T20:57:19.505Z,cartservice,network_in,19592
2023-07-04T20:57:19.505Z,cartservice,network_in,24206
2023-07-04T20:57:19.505Z,cartservice,network_in,19160
2023-07-04T20:57:19.505Z,productcatalogservice,network_in,2069731
2023-07-04T20:57:19.505Z,recommendationservice,network_in,1756762
2023-07-04T20:57:19.505Z,cartservice,network_in,20856
2023-07-04T20:57:19.529Z,cartservice,network_in,22254
2023-07-04T20:57:19.529Z,redis-cart,network_in,391557
2023-07-04T20:57:19.529Z,adservice,network_in,279153
2023-07-04T20:57:19.528Z,shippingservice,network_in,319192
2023-07-04T20:57:19.528Z,cartservice,network_in,22684
2023-07-04T20:57:29.529Z,redis-cart,network_in,391557
2023-07-04T20:57:29.529Z,cartservice,network_in,20862
2023-07-04T20:57:29.529Z,cartservice,network_in,23842
2023-07-04T20:57:29.529Z,cartservice,network_in,23662
2023-07-04T20:57:29.506Z,cartservice,network_in,19592
2023-07-04T20:57:29.506Z,cartservice,network_in,20044
2023-07-04T20:57:29.506Z,recommendationservice,network_in,1841639
2023-07-04T20:57:29.506Z,currencyservice,network_in,1088539
2023-07-04T20:57:29.506Z,cartservice,network_in,21984
2023-07-04T20:57:29.506Z,cartservice,network_in,21162
2023-07-04T20:57:29.506Z,cartservice,network_in,24206
2023-07-04T20:57:29.506Z,productcatalogservice,network_in,2164765
2023-07-04T20:57:29.529Z,adservice,network_in,286680
2023-07-04T20:57:29.529Z,cartservice,network_in,21054
2023-07-04T20:57:29.529Z,cartservice,network_in,22254
2023-07-04T20:57:29.529Z,cartservice,network_in,23266
2023-07-04T20:57:29.529Z,emailservice,network_in,52148
2023-07-04T20:57:29.528Z,frontend,network_in,5385879
2023-07-04T20:57:29.528Z,shippingservice,network_in,319192
2023-07-04T20:57:29.528Z,cartservice,network_in,21952
2023-07-04T20:57:29.528Z,cartservice,network_in,20524
2023-07-04T20:57:29.528Z,paymentservice,network_in,50200
2023-07-04T20:57:29.528Z,cartservice,network_in,878836
2023-07-04T20:57:29.528Z,cartservice,network_in,78267
2023-07-04T20:57:29.528Z,checkoutservice,network_in,261216
2023-07-04T20:57:29.528Z,cartservice,network_in,22684
2023-07-04T20:57:39.528Z,paymentservice,network_in,55517
2023-07-04T20:57:39.530Z,redis-cart,network_in,406705
2023-07-04T20:57:39.530Z,cartservice,network_in,24680
2023-07-04T20:57:39.528Z,cartservice,network_in,22684
2023-07-04T20:57:39.530Z,emailservice,network_in,53422
2023-07-04T20:57:39.530Z,cartservice,network_in,23662
2023-07-04T20:57:39.530Z,adservice,network_in,286680
2023-07-04T20:57:39.530Z,cartservice,network_in,22254
2023-07-04T20:57:39.505Z,productcatalogservice,network_in,2221294
2023-07-04T20:57:39.505Z,cartservice,network_in,19732
2023-07-04T20:57:39.505Z,cartservice,network_in,21162
2023-07-04T20:57:39.505Z,currencyservice,network_in,1167081
2023-07-04T20:57:39.505Z,cartservice,network_in,21984
2023-07-04T20:57:39.505Z,cartservice,network_in,25226
2023-07-04T20:57:39.505Z,recommendationservice,network_in,1915519
2023-07-04T20:57:39.505Z,cartservice,network_in,20816
2023-07-04T20:57:39.530Z,cartservice,network_in,24146
2023-07-04T20:57:39.528Z,cartservice,network_in,21952
2023-07-04T20:57:39.528Z,frontend,network_in,5385879
2023-07-04T20:57:39.528Z,shippingservice,network_in,319192
2023-07-04T20:57:39.528Z,cartservice,network_in,904899
2023-07-04T20:57:39.528Z,cartservice,network_in,21492
2023-07-04T20:57:39.528Z,checkoutservice,network_in,261216
2023-07-04T20:57:39.528Z,cartservice,network_in,78267
2023-07-04T20:57:39.530Z,cartservice,network_in,21054
2023-07-04T20:57:39.530Z,cartservice,network_in,21812
2023-07-04T20:57:49.528Z,cartservice,network_in,22986
2023-07-04T20:57:49.528Z,cartservice,network_in,22796
2023-07-04T20:57:49.529Z,cartservice,network_in,21054
2023-07-04T20:57:49.528Z,cartservice,network_in,925076
2023-07-04T20:57:49.528Z,shippingservice,network_in,329378
2023-07-04T20:57:49.529Z,redis-cart,network_in,406705
2023-07-04T20:57:49.528Z,frontend,network_in,5572329
2023-07-04T20:57:49.528Z,checkoutservice,network_in,267254
2023-07-04T20:57:49.528Z,cartservice,network_in,85127
2023-07-04T20:57:49.529Z,cartservice,network_in,24680
2023-07-04T20:57:49.529Z,emailservice,network_in,53422
2023-07-04T20:57:49.528Z,cartservice,network_in,22508
2023-07-04T20:57:49.529Z,cartservice,network_in,23662
2023-07-04T20:57:49.529Z,cartservice,network_in,21812
2023-07-04T20:57:49.529Z,adservice,network_in,286680
2023-07-04T20:57:49.529Z,cartservice,network_in,24146
2023-07-04T20:57:49.529Z,cartservice,network_in,22254
2023-07-04T20:57:49.528Z,paymentservice,network_in,55719
2023-07-04T20:57:49.506Z,currencyservice,network_in,1198322
2023-07-04T20:57:49.506Z,cartservice,network_in,22282
2023-07-04T20:57:49.506Z,cartservice,network_in,20654
2023-07-04T20:57:49.506Z,productcatalogservice,network_in,2279312
2023-07-04T20:57:49.506Z,recommendationservice,network_in,1951901
2023-07-04T20:57:49.506Z,cartservice,network_in,21984
2023-07-04T20:57:49.506Z,cartservice,network_in,25226
2023-07-04T20:57:49.506Z,cartservice,network_in,20816
2023-07-04T20:57:59.529Z,cartservice,network_in,23274
2023-07-04T20:57:59.529Z,cartservice,network_in,22004
2023-07-04T20:57:59.527Z,cartservice,network_in,944223
2023-07-04T20:57:59.529Z,cartservice,network_in,24820
2023-07-04T20:57:59.529Z,adservice,network_in,298486
2023-07-04T20:57:59.527Z,cartservice,network_in,87708
2023-07-04T20:57:59.527Z,cartservice,network_in,22662
2023-07-04T20:57:59.506Z,recommendationservice,network_in,2012015
2023-07-04T20:57:59.506Z,cartservice,network_in,20654
2023-07-04T20:57:59.506Z,cartservice,network_in,25226
2023-07-04T20:57:59.506Z,cartservice,network_in,23050
2023-07-04T20:57:59.506Z,productcatalogservice,network_in,2279312
2023-07-04T20:57:59.506Z,currencyservice,network_in,1198322
2023-07-04T20:57:59.506Z,cartservice,network_in,21068
2023-07-04T20:57:59.506Z,cartservice,network_in,22282
2023-07-04T20:57:59.529Z,emailservice,network_in,55164
2023-07-04T20:57:59.529Z,cartservice,network_in,23662
2023-07-04T20:57:59.529Z,cartservice,network_in,24286
2023-07-04T20:57:59.529Z,cartservice,network_in,22874
2023-07-04T20:57:59.529Z,redis-cart,network_in,421094
2023-07-04T20:57:59.527Z,cartservice,network_in,23816
2023-07-04T20:57:59.527Z,checkoutservice,network_in,272826
2023-07-04T20:57:59.527Z,shippingservice,network_in,341244
2023-07-04T20:57:59.527Z,cartservice,network_in,23126
2023-07-04T20:57:59.527Z,paymentservice,network_in,58316
2023-07-04T20:57:59.527Z,frontend,network_in,5736968
2023-07-04T20:58:09.531Z,cartservice,network_in,22874
2023-07-04T20:58:09.531Z,cartservice,network_in,23274
2023-07-04T20:58:09.531Z,cartservice,network_in,24820
2023-07-04T20:58:09.528Z,cartservice,network_in,23956
2023-07-04T20:58:09.528Z,cartservice,network_in,92170
2023-07-04T20:58:09.528Z,frontend,network_in,5911025
2023-07-04T20:58:09.531Z,emailservice,network_in,55164
2023-07-04T20:58:09.528Z,checkoutservice,network_in,290739
2023-07-04T20:58:09.528Z,cartservice,network_in,22662
2023-07-04T20:58:09.528Z,paymentservice,network_in,58316
2023-07-04T20:58:09.531Z,cartservice,network_in,23662
2023-07-04T20:58:09.531Z,adservice,network_in,307510
2023-07-04T20:58:09.531Z,cartservice,network_in,24286
2023-07-04T20:58:09.531Z,cartservice,network_in,22004
2023-07-04T20:58:09.505Z,recommendationservice,network_in,2012015
2023-07-04T20:58:09.505Z,cartservice,network_in,20654
2023-07-04T20:58:09.505Z,cartservice,network_in,25226
2023-07-04T20:58:09.505Z,cartservice,network_in,23050
2023-07-04T20:58:09.505Z,productcatalogservice,network_in,2279312
2023-07-04T20:58:09.505Z,currencyservice,network_in,1198322
2023-07-04T20:58:09.505Z,cartservice,network_in,21068
2023-07-04T20:58:09.505Z,cartservice,network_in,22282
2023-07-04T20:58:09.531Z,redis-cart,network_in,421094
2023-07-04T20:58:09.528Z,cartservice,network_in,987554
2023-07-04T20:58:09.528Z,cartservice,network_in,24122
2023-07-04T20:58:09.528Z,shippingservice,network_in,354364
2023-07-04T20:58:19.528Z,cartservice,network_in,23956
2023-07-04T20:58:19.528Z,frontend,network_in,5911025
2023-07-04T20:58:19.528Z,cartservice,network_in,22662
2023-07-04T20:58:19.529Z,cartservice,network_in,24864
2023-07-04T20:58:19.529Z,cartservice,network_in,22004
2023-07-04T20:58:19.529Z,emailservice,network_in,59024
2023-07-04T20:58:19.529Z,adservice,network_in,318100
2023-07-04T20:58:19.529Z,cartservice,network_in,25320
2023-07-04T20:58:19.528Z,shippingservice,network_in,354364
2023-07-04T20:58:19.528Z,cartservice,network_in,987554
2023-07-04T20:58:19.528Z,cartservice,network_in,24122
2023-07-04T20:58:19.529Z,cartservice,network_in,24336
2023-07-04T20:58:19.505Z,currencyservice,network_in,1244731
2023-07-04T20:58:19.505Z,cartservice,network_in,26254
2023-07-04T20:58:19.505Z,recommendationservice,network_in,2012015
2023-07-04T20:58:19.505Z,cartservice,network_in,21910
2023-07-04T20:58:19.505Z,productcatalogservice,network_in,2388109
2023-07-04T20:58:19.505Z,cartservice,network_in,23190
2023-07-04T20:58:19.505Z,cartservice,network_in,21068
2023-07-04T20:58:19.505Z,cartservice,network_in,22282
2023-07-04T20:58:19.528Z,cartservice,network_in,92170
2023-07-04T20:58:19.528Z,checkoutservice,network_in,290739
2023-07-04T20:58:19.528Z,paymentservice,network_in,58316
2023-07-04T20:58:19.529Z,redis-cart,network_in,437356
2023-07-04T20:58:19.529Z,cartservice,network_in,25774
2023-07-04T20:58:19.529Z,cartservice,network_in,23014
2023-07-04T20:58:29.528Z,cartservice,network_in,24122
2023-07-04T20:58:29.528Z,checkoutservice,network_in,290879
2023-07-04T20:58:29.528Z,cartservice,network_in,1021913
2023-07-04T20:58:29.528Z,paymentservice,network_in,60078
2023-07-04T20:58:29.505Z,currencyservice,network_in,1283984
2023-07-04T20:58:29.505Z,cartservice,network_in,23278
2023-07-04T20:58:29.505Z,cartservice,network_in,26254
2023-07-04T20:58:29.528Z,cartservice,network_in,96094
2023-07-04T20:58:29.528Z,cartservice,network_in,23832
2023-07-04T20:58:29.505Z,cartservice,network_in,22158
2023-07-04T20:58:29.505Z,cartservice,network_in,21980
2023-07-04T20:58:29.530Z,cartservice,network_in,26162
2023-07-04T20:58:29.530Z,redis-cart,network_in,455324
2023-07-04T20:58:29.530Z,cartservice,network_in,23910
2023-07-04T20:58:29.530Z,adservice,network_in,323962
2023-07-04T20:58:29.530Z,cartservice,network_in,23136
2023-07-04T20:58:29.530Z,cartservice,network_in,25810
2023-07-04T20:58:29.530Z,cartservice,network_in,25928
2023-07-04T20:58:29.528Z,cartservice,network_in,23956
2023-07-04T20:58:29.505Z,recommendationservice,network_in,2139566
2023-07-04T20:58:29.505Z,productcatalogservice,network_in,2465548
2023-07-04T20:58:29.530Z,emailservice,network_in,59024
2023-07-04T20:58:29.530Z,cartservice,network_in,24336
2023-07-04T20:58:29.528Z,frontend,network_in,6116615
2023-07-04T20:58:29.528Z,shippingservice,network_in,365142
2023-07-04T20:58:29.505Z,cartservice,network_in,24182
2023-07-04T20:58:39.505Z,recommendationservice,network_in,2139566
2023-07-04T20:58:39.505Z,currencyservice,network_in,1283984
2023-07-04T20:58:39.505Z,cartservice,network_in,23278
2023-07-04T20:58:39.505Z,cartservice,network_in,26254
2023-07-04T20:58:39.505Z,cartservice,network_in,24182
2023-07-04T20:58:39.505Z,cartservice,network_in,22158
2023-07-04T20:58:39.505Z,productcatalogservice,network_in,2465548
2023-07-04T20:58:39.505Z,cartservice,network_in,21980
2023-07-04T20:58:39.528Z,checkoutservice,network_in,316462
2023-07-04T20:58:39.530Z,cartservice,network_in,26162
2023-07-04T20:58:39.528Z,cartservice,network_in,1047581
2023-07-04T20:58:39.528Z,cartservice,network_in,96094
2023-07-04T20:58:39.528Z,shippingservice,network_in,374860
2023-07-04T20:58:39.530Z,redis-cart,network_in,455324
2023-07-04T20:58:39.528Z,frontend,network_in,6116615
2023-07-04T20:58:39.530Z,cartservice,network_in,23910
2023-07-04T20:58:39.530Z,adservice,network_in,323962
2023-07-04T20:58:39.528Z,cartservice,network_in,23902
2023-07-04T20:58:39.530Z,cartservice,network_in,23136
2023-07-04T20:58:39.528Z,cartservice,network_in,24192
2023-07-04T20:58:39.528Z,paymentservice,network_in,64111
2023-07-04T20:58:39.528Z,cartservice,network_in,23956
2023-07-04T20:58:39.530Z,cartservice,network_in,25810
2023-07-04T20:58:39.530Z,cartservice,network_in,25928
2023-07-04T20:58:39.530Z,emailservice,network_in,59024
2023-07-04T20:58:39.530Z,cartservice,network_in,24336
2023-07-04T20:58:49.528Z,cartservice,network_in,24882
2023-07-04T20:58:49.528Z,cartservice,network_in,100948
2023-07-04T20:58:49.528Z,checkoutservice,network_in,333058
2023-07-04T20:58:49.530Z,cartservice,network_in,24114
2023-07-04T20:58:49.528Z,cartservice,network_in,1068634
2023-07-04T20:58:49.530Z,cartservice,network_in,25950
2023-07-04T20:58:49.528Z,paymentservice,network_in,65595
2023-07-04T20:58:49.528Z,frontend,network_in,6351209
2023-07-04T20:58:49.528Z,shippingservice,network_in,390008
2023-07-04T20:58:49.528Z,cartservice,network_in,24758
2023-07-04T20:58:49.528Z,cartservice,network_in,25156
2023-07-04T20:58:49.530Z,emailservice,network_in,63595
2023-07-04T20:58:49.530Z,cartservice,network_in,25244
2023-07-04T20:58:49.530Z,cartservice,network_in,25928
2023-07-04T20:58:49.530Z,cartservice,network_in,24972
2023-07-04T20:58:49.530Z,cartservice,network_in,26302
2023-07-04T20:58:49.505Z,currencyservice,network_in,1322051
2023-07-04T20:58:49.505Z,cartservice,network_in,24248
2023-07-04T20:58:49.505Z,cartservice,network_in,24182
2023-07-04T20:58:49.505Z,cartservice,network_in,22158
2023-07-04T20:58:49.505Z,productcatalogservice,network_in,2539240
2023-07-04T20:58:49.505Z,cartservice,network_in,22818
2023-07-04T20:58:49.505Z,recommendationservice,network_in,2205669
2023-07-04T20:58:49.505Z,cartservice,network_in,27138
2023-07-04T20:58:49.530Z,redis-cart,network_in,477031
2023-07-04T20:58:49.530Z,adservice,network_in,332790
2023-07-04T20:58:59.530Z,redis-cart,network_in,477031
2023-07-04T20:58:59.530Z,adservice,network_in,340248
2023-07-04T20:58:59.528Z,paymentservice,network_in,67290
2023-07-04T20:58:59.506Z,cartservice,network_in,27976
2023-07-04T20:58:59.506Z,productcatalogservice,network_in,2599427
2023-07-04T20:58:59.506Z,currencyservice,network_in,1347331
2023-07-04T20:58:59.506Z,recommendationservice,network_in,2205669
2023-07-04T20:58:59.506Z,cartservice,network_in,22902
2023-07-04T20:58:59.506Z,cartservice,network_in,23038
2023-07-04T20:58:59.506Z,cartservice,network_in,25104
2023-07-04T20:58:59.506Z,cartservice,network_in,24332
2023-07-04T20:58:59.530Z,cartservice,network_in,26948
2023-07-04T20:58:59.530Z,emailservice,network_in,64299
2023-07-04T20:58:59.530Z,cartservice,network_in,24972
2023-07-04T20:58:59.530Z,cartservice,network_in,25384
2023-07-04T20:58:59.530Z,cartservice,network_in,24114
2023-07-04T20:58:59.528Z,cartservice,network_in,24828
2023-07-04T20:58:59.528Z,cartservice,network_in,104724
2023-07-04T20:58:59.530Z,cartservice,network_in,27248
2023-07-04T20:58:59.528Z,frontend,network_in,6504039
2023-07-04T20:58:59.528Z,checkoutservice,network_in,333058
2023-07-04T20:58:59.528Z,cartservice,network_in,25156
2023-07-04T20:58:59.528Z,shippingservice,network_in,390008
2023-07-04T20:58:59.530Z,cartservice,network_in,26806
2023-07-04T20:58:59.528Z,cartservice,network_in,1068634
2023-07-04T20:58:59.528Z,cartservice,network_in,25874
2023-07-04T20:59:09.530Z,emailservice,network_in,64299
2023-07-04T20:59:09.530Z,cartservice,network_in,26198
2023-07-04T20:59:09.530Z,cartservice,network_in,26806
2023-07-04T20:59:09.530Z,adservice,network_in,349294
2023-07-04T20:59:09.528Z,cartservice,network_in,104724
2023-07-04T20:59:09.505Z,cartservice,network_in,24332
2023-07-04T20:59:09.505Z,cartservice,network_in,28018
2023-07-04T20:59:09.505Z,recommendationservice,network_in,2312323
2023-07-04T20:59:09.528Z,paymentservice,network_in,67290
2023-07-04T20:59:09.528Z,cartservice,network_in,1068634
2023-07-04T20:59:09.530Z,cartservice,network_in,26948
2023-07-04T20:59:09.528Z,cartservice,network_in,25874
2023-07-04T20:59:09.530Z,cartservice,network_in,27248
2023-07-04T20:59:09.505Z,cartservice,network_in,23038
2023-07-04T20:59:09.505Z,productcatalogservice,network_in,2691828
2023-07-04T20:59:09.528Z,cartservice,network_in,24828
2023-07-04T20:59:09.528Z,frontend,network_in,6504039
2023-07-04T20:59:09.528Z,checkoutservice,network_in,333058
2023-07-04T20:59:09.530Z,cartservice,network_in,24972
2023-07-04T20:59:09.530Z,redis-cart,network_in,493763
2023-07-04T20:59:09.530Z,cartservice,network_in,24114
2023-07-04T20:59:09.528Z,cartservice,network_in,25156
2023-07-04T20:59:09.505Z,cartservice,network_in,23692
2023-07-04T20:59:09.528Z,shippingservice,network_in,390008
2023-07-04T20:59:09.505Z,cartservice,network_in,25104
2023-07-04T20:59:09.505Z,currencyservice,network_in,1389595
2023-07-04T20:59:19.528Z,cartservice,network_in,25874
2023-07-04T20:59:19.528Z,cartservice,network_in,104856
2023-07-04T20:59:19.505Z,cartservice,network_in,23038
2023-07-04T20:59:19.530Z,cartservice,network_in,27982
2023-07-04T20:59:19.528Z,cartservice,network_in,24828
2023-07-04T20:59:19.528Z,cartservice,network_in,26106
2023-07-04T20:59:19.505Z,currencyservice,network_in,1389595
2023-07-04T20:59:19.505Z,recommendationservice,network_in,2360407
2023-07-04T20:59:19.505Z,cartservice,network_in,23692
2023-07-04T20:59:19.530Z,cartservice,network_in,25094
2023-07-04T20:59:19.530Z,emailservice,network_in,65506
2023-07-04T20:59:19.530Z,cartservice,network_in,26806
2023-07-04T20:59:19.528Z,shippingservice,network_in,398786
2023-07-04T20:59:19.528Z,checkoutservice,network_in,335028
2023-07-04T20:59:19.528Z,paymentservice,network_in,67422
2023-07-04T20:59:19.505Z,cartservice,network_in,25104
2023-07-04T20:59:19.505Z,productcatalogservice,network_in,2742320
2023-07-04T20:59:19.530Z,cartservice,network_in,26198
2023-07-04T20:59:19.530Z,cartservice,network_in,27402
2023-07-04T20:59:19.530Z,redis-cart,network_in,498986
2023-07-04T20:59:19.528Z,cartservice,network_in,1107575
2023-07-04T20:59:19.528Z,frontend,network_in,6631692
2023-07-04T20:59:19.505Z,cartservice,network_in,28018
2023-07-04T20:59:19.505Z,cartservice,network_in,25122
2023-07-04T20:59:19.530Z,cartservice,network_in,24972
2023-07-04T20:59:19.530Z,adservice,network_in,349294
2023-07-04T20:59:29.506Z,productcatalogservice,network_in,2742320
2023-07-04T20:59:29.506Z,cartservice,network_in,23918
2023-07-04T20:59:29.506Z,cartservice,network_in,25104
2023-07-04T20:59:29.506Z,cartservice,network_in,25122
2023-07-04T20:59:29.506Z,recommendationservice,network_in,2360407
2023-07-04T20:59:29.506Z,cartservice,network_in,24530
2023-07-04T20:59:29.528Z,paymentservice,network_in,67422
2023-07-04T20:59:29.528Z,cartservice,network_in,1128586
2023-07-04T20:59:29.528Z,cartservice,network_in,104856
2023-07-04T20:59:29.528Z,shippingservice,network_in,408772
2023-07-04T20:59:29.528Z,cartservice,network_in,26106
2023-07-04T20:59:29.528Z,cartservice,network_in,25750
2023-07-04T20:59:29.528Z,frontend,network_in,6753414
2023-07-04T20:59:29.528Z,cartservice,network_in,25874
2023-07-04T20:59:29.528Z,checkoutservice,network_in,335820
2023-07-04T20:59:29.530Z,cartservice,network_in,26198
2023-07-04T20:59:29.530Z,cartservice,network_in,24972
2023-07-04T20:59:29.530Z,cartservice,network_in,27982
2023-07-04T20:59:29.530Z,cartservice,network_in,25094
2023-07-04T20:59:29.530Z,cartservice,network_in,27402
2023-07-04T20:59:29.530Z,emailservice,network_in,65506
2023-07-04T20:59:29.530Z,cartservice,network_in,26806
2023-07-04T20:59:29.530Z,redis-cart,network_in,498986
2023-07-04T20:59:29.530Z,adservice,network_in,349294
2023-07-04T20:59:29.506Z,cartservice,network_in,28832
2023-07-04T20:59:29.506Z,currencyservice,network_in,1430610
2023-07-04T20:59:39.505Z,recommendationservice,network_in,2360407
2023-07-04T20:59:39.530Z,cartservice,network_in,26310
2023-07-04T20:59:39.530Z,cartservice,network_in,27982
2023-07-04T20:59:39.528Z,cartservice,network_in,1164357
2023-07-04T20:59:39.528Z,cartservice,network_in,27136
2023-07-04T20:59:39.505Z,cartservice,network_in,25104
2023-07-04T20:59:39.505Z,cartservice,network_in,25122
2023-07-04T20:59:39.505Z,currencyservice,network_in,1430610
2023-07-04T20:59:39.505Z,cartservice,network_in,23918
2023-07-04T20:59:39.505Z,cartservice,network_in,24530
2023-07-04T20:59:39.530Z,cartservice,network_in,28240
2023-07-04T20:59:39.528Z,cartservice,network_in,26730
2023-07-04T20:59:39.505Z,productcatalogservice,network_in,2742320
2023-07-04T20:59:39.530Z,emailservice,network_in,66217
2023-07-04T20:59:39.530Z,cartservice,network_in,27822
2023-07-04T20:59:39.528Z,cartservice,network_in,25750
2023-07-04T20:59:39.528Z,paymentservice,network_in,70731
2023-07-04T20:59:39.528Z,frontend,network_in,6969836
2023-07-04T20:59:39.528Z,checkoutservice,network_in,349116
2023-07-04T20:59:39.505Z,cartservice,network_in,28832
2023-07-04T20:59:39.530Z,cartservice,network_in,25988
2023-07-04T20:59:39.530Z,redis-cart,network_in,511471
2023-07-04T20:59:39.530Z,cartservice,network_in,25094
2023-07-04T20:59:39.530Z,adservice,network_in,365388
2023-07-04T20:59:39.528Z,cartservice,network_in,109209
2023-07-04T20:59:39.528Z,shippingservice,network_in,420088
2023-07-04T20:59:49.527Z,cartservice,network_in,109209
2023-07-04T20:59:49.527Z,cartservice,network_in,27136
2023-07-04T20:59:49.527Z,cartservice,network_in,26730
2023-07-04T20:59:49.529Z,emailservice,network_in,66217
2023-07-04T20:59:49.529Z,cartservice,network_in,26310
2023-07-04T20:59:49.529Z,cartservice,network_in,27822
2023-07-04T20:59:49.529Z,cartservice,network_in,28240
2023-07-04T20:59:49.527Z,paymentservice,network_in,70731
2023-07-04T20:59:49.527Z,shippingservice,network_in,420088
2023-07-04T20:59:49.527Z,checkoutservice,network_in,349116
2023-07-04T20:59:49.506Z,productcatalogservice,network_in,2831416
2023-07-04T20:59:49.506Z,currencyservice,network_in,1430610
2023-07-04T20:59:49.506Z,cartservice,network_in,25122
2023-07-04T20:59:49.506Z,cartservice,network_in,26014
2023-07-04T20:59:49.506Z,cartservice,network_in,28902
2023-07-04T20:59:49.506Z,recommendationservice,network_in,2421724
2023-07-04T20:59:49.506Z,cartservice,network_in,24530
2023-07-04T20:59:49.506Z,cartservice,network_in,24720
2023-07-04T20:59:49.527Z,cartservice,network_in,1164357
2023-07-04T20:59:49.527Z,frontend,network_in,6969836
2023-07-04T20:59:49.529Z,cartservice,network_in,25988
2023-07-04T20:59:49.529Z,redis-cart,network_in,511471
2023-07-04T20:59:49.527Z,cartservice,network_in,25750
2023-07-04T20:59:49.529Z,cartservice,network_in,25094
2023-07-04T20:59:49.529Z,adservice,network_in,365388
2023-07-04T20:59:49.529Z,cartservice,network_in,27982
2023-07-04T20:59:59.528Z,shippingservice,network_in,426272
2023-07-04T20:59:59.528Z,cartservice,network_in,1185908
2023-07-04T20:59:59.505Z,cartservice,network_in,24684
2023-07-04T20:59:59.505Z,cartservice,network_in,24790
2023-07-04T20:59:59.529Z,cartservice,network_in,28636
2023-07-04T20:59:59.529Z,cartservice,network_in,26040
2023-07-04T20:59:59.529Z,adservice,network_in,374207
2023-07-04T20:59:59.529Z,cartservice,network_in,27190
2023-07-04T20:59:59.528Z,paymentservice,network_in,70731
2023-07-04T20:59:59.528Z,frontend,network_in,7088478
2023-07-04T20:59:59.528Z,cartservice,network_in,25750
2023-07-04T20:59:59.505Z,productcatalogservice,network_in,2882880
2023-07-04T20:59:59.505Z,cartservice,network_in,26870
2023-07-04T20:59:59.529Z,cartservice,network_in,26910
2023-07-04T20:59:59.529Z,emailservice,network_in,68566
2023-07-04T20:59:59.528Z,checkoutservice,network_in,354484
2023-07-04T20:59:59.528Z,cartservice,network_in,27136
2023-07-04T20:59:59.528Z,cartservice,network_in,112823
2023-07-04T20:59:59.528Z,cartservice,network_in,26730
2023-07-04T20:59:59.505Z,currencyservice,network_in,1494448
2023-07-04T20:59:59.505Z,cartservice,network_in,29806
2023-07-04T20:59:59.505Z,recommendationservice,network_in,2524632
2023-07-04T20:59:59.505Z,cartservice,network_in,26048
2023-07-04T20:59:59.529Z,cartservice,network_in,28928
2023-07-04T20:59:59.529Z,cartservice,network_in,28240
2023-07-04T20:59:59.529Z,redis-cart,network_in,528689
2023-07-04T21:00:09.505Z,cartservice,network_in,24684
2023-07-04T21:00:09.505Z,cartservice,network_in,24790
2023-07-04T21:00:09.528Z,shippingservice,network_in,426272
2023-07-04T21:00:09.528Z,cartservice,network_in,112823
2023-07-04T21:00:09.529Z,redis-cart,network_in,528689
2023-07-04T21:00:09.505Z,cartservice,network_in,26870
2023-07-04T21:00:09.505Z,cartservice,network_in,29806
2023-07-04T21:00:09.529Z,cartservice,network_in,28636
2023-07-04T21:00:09.528Z,paymentservice,network_in,72420
2023-07-04T21:00:09.528Z,frontend,network_in,7088478
2023-07-04T21:00:09.529Z,cartservice,network_in,28928
2023-07-04T21:00:09.529Z,cartservice,network_in,28240
2023-07-04T21:00:09.505Z,cartservice,network_in,26048
2023-07-04T21:00:09.528Z,cartservice,network_in,26564
2023-07-04T21:00:09.528Z,cartservice,network_in,1185908
2023-07-04T21:00:09.528Z,cartservice,network_in,26730
2023-07-04T21:00:09.529Z,adservice,network_in,374207
2023-07-04T21:00:09.529Z,cartservice,network_in,27190
2023-07-04T21:00:09.505Z,productcatalogservice,network_in,2882880
2023-07-04T21:00:09.505Z,currencyservice,network_in,1494448
2023-07-04T21:00:09.505Z,recommendationservice,network_in,2524632
2023-07-04T21:00:09.528Z,cartservice,network_in,27136
2023-07-04T21:00:09.529Z,cartservice,network_in,26910
2023-07-04T21:00:09.529Z,cartservice,network_in,26040
2023-07-04T21:00:09.529Z,emailservice,network_in,68566
2023-07-04T21:00:09.528Z,checkoutservice,network_in,354484
2023-07-04T21:00:19.528Z,cartservice,network_in,112823
2023-07-04T21:00:19.528Z,paymentservice,network_in,72552
2023-07-04T21:00:19.528Z,cartservice,network_in,1217737
2023-07-04T21:00:19.530Z,cartservice,network_in,29892
2023-07-04T21:00:19.528Z,shippingservice,network_in,435084
2023-07-04T21:00:19.528Z,checkoutservice,network_in,361567
2023-07-04T21:00:19.506Z,productcatalogservice,network_in,2962728
2023-07-04T21:00:19.530Z,cartservice,network_in,28636
2023-07-04T21:00:19.530Z,cartservice,network_in,26040
2023-07-04T21:00:19.530Z,emailservice,network_in,69312
2023-07-04T21:00:19.530Z,cartservice,network_in,27190
2023-07-04T21:00:19.528Z,frontend,network_in,7266151
2023-07-04T21:00:19.528Z,cartservice,network_in,27444
2023-07-04T21:00:19.528Z,cartservice,network_in,28152
2023-07-04T21:00:19.506Z,cartservice,network_in,26862
2023-07-04T21:00:19.506Z,cartservice,network_in,25562
2023-07-04T21:00:19.506Z,cartservice,network_in,24684
2023-07-04T21:00:19.506Z,cartservice,network_in,29848
2023-07-04T21:00:19.506Z,recommendationservice,network_in,2524632
2023-07-04T21:00:19.506Z,currencyservice,network_in,1533836
2023-07-04T21:00:19.506Z,cartservice,network_in,26870
2023-07-04T21:00:19.530Z,redis-cart,network_in,537589
2023-07-04T21:00:19.530Z,cartservice,network_in,26910
2023-07-04T21:00:19.530Z,cartservice,network_in,29162
2023-07-04T21:00:19.530Z,adservice,network_in,388860
2023-07-04T21:00:19.528Z,cartservice,network_in,27748
