2023-07-04T17:40:52.180Z,blackbox-exporter,network_in,44463
2023-07-04T17:40:52.180Z,redis-exporter-dev-team,network_in,323605
2023-07-04T17:41:02.607Z,redis-exporter-dbops-team,network_in,475161
2023-07-04T17:41:02.693Z,redis-exporter-dev-team,network_in,425043
2023-07-04T17:41:02.693Z,blackbox-exporter,network_in,55712
2023-07-04T17:41:12.693Z,redis-exporter-dev-team,network_in,557643
2023-07-04T17:41:12.693Z,blackbox-exporter,network_in,70662
2023-07-04T17:41:12.607Z,redis-exporter-dbops-team,network_in,475161
2023-07-04T17:41:22.693Z,blackbox-exporter,network_in,75695
2023-07-04T17:41:22.693Z,redis-exporter-dev-team,network_in,557643
2023-07-04T17:41:22.607Z,redis-exporter-dbops-team,network_in,596827
2023-07-04T17:41:32.606Z,redis-exporter-dbops-team,network_in,596827
2023-07-04T17:41:32.693Z,blackbox-exporter,network_in,75695
2023-07-04T17:41:32.693Z,redis-exporter-dev-team,network_in,557643
2023-07-04T17:41:42.693Z,blackbox-exporter,network_in,81577
2023-07-04T17:41:42.607Z,redis-exporter-dbops-team,network_in,730771
2023-07-04T17:41:42.693Z,redis-exporter-dev-team,network_in,791371
2023-07-04T17:41:52.694Z,blackbox-exporter,network_in,99844
2023-07-04T17:41:52.694Z,redis-exporter-dev-team,network_in,791371
2023-07-04T17:41:52.607Z,redis-exporter-dbops-team,network_in,882741
2023-07-04T17:42:02.693Z,redis-exporter-dev-team,network_in,921640
2023-07-04T17:42:02.693Z,blackbox-exporter,network_in,107526
2023-07-04T17:42:02.607Z,redis-exporter-dbops-team,network_in,882741
2023-07-04T17:42:12.693Z,blackbox-exporter,network_in,123758
2023-07-04T17:42:12.693Z,redis-exporter-dev-team,network_in,921640
2023-07-04T17:42:12.607Z,redis-exporter-dbops-team,network_in,972468
2023-07-04T17:42:22.694Z,redis-exporter-dev-team,network_in,1040486
2023-07-04T17:42:22.694Z,blackbox-exporter,network_in,123758
2023-07-04T17:42:22.607Z,redis-exporter-dbops-team,network_in,1094678
2023-07-04T17:42:32.693Z,redis-exporter-dev-team,network_in,1040486
2023-07-04T17:42:32.693Z,blackbox-exporter,network_in,123758
2023-07-04T17:42:32.606Z,redis-exporter-dbops-team,network_in,1094678
2023-07-04T17:42:42.694Z,blackbox-exporter,network_in,148607
2023-07-04T17:42:42.694Z,redis-exporter-dev-team,network_in,1229379
2023-07-04T17:42:42.606Z,redis-exporter-dbops-team,network_in,1214035
2023-07-04T17:42:52.606Z,redis-exporter-dbops-team,network_in,1214035
2023-07-04T17:42:52.693Z,redis-exporter-dev-team,network_in,1229379
2023-07-04T17:42:52.693Z,blackbox-exporter,network_in,156073
2023-07-04T17:43:02.693Z,blackbox-exporter,network_in,156073
2023-07-04T17:43:02.607Z,redis-exporter-dbops-team,network_in,1410990
2023-07-04T17:43:02.693Z,redis-exporter-dev-team,network_in,1229379
2023-07-04T17:43:12.607Z,redis-exporter-dbops-team,network_in,1563268
2023-07-04T17:43:12.694Z,redis-exporter-dev-team,network_in,1495060
2023-07-04T17:43:12.694Z,blackbox-exporter,network_in,160825
2023-07-04T17:43:22.693Z,redis-exporter-dev-team,network_in,1495060
2023-07-04T17:43:22.693Z,blackbox-exporter,network_in,176853
2023-07-04T17:43:22.606Z,redis-exporter-dbops-team,network_in,1563268
2023-07-04T17:43:32.693Z,blackbox-exporter,network_in,185566
2023-07-04T17:43:32.607Z,redis-exporter-dbops-team,network_in,1563268
2023-07-04T17:43:32.693Z,redis-exporter-dev-team,network_in,1596576
2023-07-04T17:43:42.693Z,blackbox-exporter,network_in,185566
2023-07-04T17:43:42.607Z,redis-exporter-dbops-team,network_in,1682989
2023-07-04T17:43:42.693Z,redis-exporter-dev-team,network_in,1596576
2023-07-04T17:43:52.694Z,redis-exporter-dev-team,network_in,1773681
2023-07-04T17:43:52.694Z,blackbox-exporter,network_in,202974
2023-07-04T17:43:52.607Z,redis-exporter-dbops-team,network_in,1805660
2023-07-04T17:44:02.693Z,redis-exporter-dev-team,network_in,1773681
2023-07-04T17:44:02.693Z,blackbox-exporter,network_in,202974
2023-07-04T17:44:02.607Z,redis-exporter-dbops-team,network_in,1805660
2023-07-04T17:44:12.693Z,blackbox-exporter,network_in,214691
2023-07-04T17:44:12.607Z,redis-exporter-dbops-team,network_in,2033601
2023-07-04T17:44:12.693Z,redis-exporter-dev-team,network_in,1904922
2023-07-04T17:44:22.695Z,redis-exporter-dev-team,network_in,1904922
2023-07-04T17:44:22.695Z,blackbox-exporter,network_in,214691
2023-07-04T17:44:22.607Z,redis-exporter-dbops-team,network_in,2033601
2023-07-04T17:44:32.693Z,redis-exporter-dev-team,network_in,1904922
2023-07-04T17:44:32.606Z,redis-exporter-dbops-team,network_in,2033601
2023-07-04T17:44:32.693Z,blackbox-exporter,network_in,214691
2023-07-04T17:44:42.606Z,redis-exporter-dbops-team,network_in,2183652
2023-07-04T17:44:42.693Z,redis-exporter-dev-team,network_in,2154979
2023-07-04T17:44:42.693Z,blackbox-exporter,network_in,252480
2023-07-04T17:44:52.607Z,redis-exporter-dbops-team,network_in,2306456
2023-07-04T17:44:52.693Z,blackbox-exporter,network_in,258981
2023-07-04T17:44:52.693Z,redis-exporter-dev-team,network_in,2229950
2023-07-04T17:45:02.607Z,redis-exporter-dbops-team,network_in,2426612
2023-07-04T17:45:02.694Z,redis-exporter-dev-team,network_in,2229950
2023-07-04T17:45:02.694Z,blackbox-exporter,network_in,258981
2023-07-04T17:45:12.607Z,redis-exporter-dbops-team,network_in,2426612
2023-07-04T17:45:12.693Z,redis-exporter-dev-team,network_in,2361294
2023-07-04T17:45:12.693Z,blackbox-exporter,network_in,279216
2023-07-04T17:45:22.693Z,redis-exporter-dev-team,network_in,2465438
2023-07-04T17:45:22.693Z,blackbox-exporter,network_in,285476
2023-07-04T17:45:22.607Z,redis-exporter-dbops-team,network_in,2549422
2023-07-04T17:45:32.693Z,redis-exporter-dev-team,network_in,2465438
2023-07-04T17:45:32.606Z,redis-exporter-dbops-team,network_in,2549422
2023-07-04T17:45:32.693Z,blackbox-exporter,network_in,285476
2023-07-04T17:45:42.693Z,redis-exporter-dev-team,network_in,2625965
2023-07-04T17:45:42.693Z,blackbox-exporter,network_in,306597
2023-07-04T17:45:42.607Z,redis-exporter-dbops-team,network_in,2669623
2023-07-04T17:45:52.693Z,blackbox-exporter,network_in,306597
2023-07-04T17:45:52.607Z,redis-exporter-dbops-team,network_in,2777466
2023-07-04T17:45:52.693Z,redis-exporter-dev-team,network_in,2625965
2023-07-04T17:46:02.693Z,blackbox-exporter,network_in,306597
2023-07-04T17:46:02.693Z,redis-exporter-dev-team,network_in,2625965
2023-07-04T17:46:02.607Z,redis-exporter-dbops-team,network_in,2912640
2023-07-04T17:46:12.693Z,redis-exporter-dev-team,network_in,2861430
2023-07-04T17:46:12.693Z,blackbox-exporter,network_in,334240
2023-07-04T17:46:12.607Z,redis-exporter-dbops-team,network_in,2912640
2023-07-04T17:46:22.693Z,blackbox-exporter,network_in,334240
2023-07-04T17:46:22.693Z,redis-exporter-dev-team,network_in,2950923
2023-07-04T17:46:22.607Z,redis-exporter-dbops-team,network_in,2912640
2023-07-04T17:46:32.693Z,blackbox-exporter,network_in,344564
2023-07-04T17:46:32.693Z,redis-exporter-dev-team,network_in,2950923
2023-07-04T17:46:32.607Z,redis-exporter-dbops-team,network_in,3065494
2023-07-04T17:46:42.693Z,blackbox-exporter,network_in,361992
2023-07-04T17:46:42.693Z,redis-exporter-dev-team,network_in,3096942
2023-07-04T17:46:42.606Z,redis-exporter-dbops-team,network_in,3065494
2023-07-04T17:46:52.693Z,redis-exporter-dev-team,network_in,3096942
2023-07-04T17:46:52.693Z,blackbox-exporter,network_in,361992
2023-07-04T17:46:52.607Z,redis-exporter-dbops-team,network_in,3200986
2023-07-04T17:47:02.693Z,redis-exporter-dev-team,network_in,3244717
2023-07-04T17:47:02.606Z,redis-exporter-dbops-team,network_in,3278925
2023-07-04T17:47:02.693Z,blackbox-exporter,network_in,369658
2023-07-04T17:47:12.693Z,redis-exporter-dev-team,network_in,3244717
2023-07-04T17:47:12.607Z,redis-exporter-dbops-team,network_in,3429449
2023-07-04T17:47:12.693Z,blackbox-exporter,network_in,384838
2023-07-04T17:47:22.693Z,blackbox-exporter,network_in,391203
2023-07-04T17:47:22.693Z,redis-exporter-dev-team,network_in,3378453
2023-07-04T17:47:22.607Z,redis-exporter-dbops-team,network_in,3552787
2023-07-04T17:47:32.693Z,blackbox-exporter,network_in,391203
2023-07-04T17:47:32.693Z,redis-exporter-dev-team,network_in,3378453
2023-07-04T17:47:32.607Z,redis-exporter-dbops-team,network_in,3643126
2023-07-04T17:47:42.693Z,blackbox-exporter,network_in,397564
2023-07-04T17:47:42.693Z,redis-exporter-dev-team,network_in,3480427
2023-07-04T17:47:42.607Z,redis-exporter-dbops-team,network_in,3643126
2023-07-04T17:47:52.693Z,blackbox-exporter,network_in,417823
2023-07-04T17:47:52.693Z,redis-exporter-dev-team,network_in,3628888
2023-07-04T17:47:52.607Z,redis-exporter-dbops-team,network_in,3643126
2023-07-04T17:48:02.693Z,blackbox-exporter,network_in,425087
2023-07-04T17:48:02.693Z,redis-exporter-dev-team,network_in,3760414
2023-07-04T17:48:02.607Z,redis-exporter-dbops-team,network_in,3886987
2023-07-04T17:48:12.693Z,blackbox-exporter,network_in,425087
2023-07-04T17:48:12.693Z,redis-exporter-dev-team,network_in,3850004
2023-07-04T17:48:12.607Z,redis-exporter-dbops-team,network_in,3886987
2023-07-04T17:48:22.693Z,redis-exporter-dev-team,network_in,3850004
2023-07-04T17:48:22.693Z,blackbox-exporter,network_in,425087
2023-07-04T17:48:22.607Z,redis-exporter-dbops-team,network_in,3994926
2023-07-04T17:48:32.693Z,redis-exporter-dev-team,network_in,3908439
2023-07-04T17:48:32.693Z,blackbox-exporter,network_in,444227
2023-07-04T17:48:32.607Z,redis-exporter-dbops-team,network_in,3994926
2023-07-04T17:48:42.693Z,blackbox-exporter,network_in,453285
2023-07-04T17:48:42.607Z,redis-exporter-dbops-team,network_in,4130814
2023-07-04T17:48:42.693Z,redis-exporter-dev-team,network_in,4040036
2023-07-04T17:48:52.693Z,blackbox-exporter,network_in,453285
2023-07-04T17:48:52.693Z,redis-exporter-dev-team,network_in,4040036
2023-07-04T17:48:52.607Z,redis-exporter-dbops-team,network_in,4238823
2023-07-04T17:49:02.606Z,redis-exporter-dbops-team,network_in,4238823
2023-07-04T17:49:02.693Z,blackbox-exporter,network_in,474881
2023-07-04T17:49:02.693Z,redis-exporter-dev-team,network_in,4144139
2023-07-04T17:49:12.693Z,redis-exporter-dev-team,network_in,4321460
2023-07-04T17:49:12.693Z,blackbox-exporter,network_in,491296
2023-07-04T17:49:12.607Z,redis-exporter-dbops-team,network_in,4344256
2023-07-04T17:49:22.693Z,redis-exporter-dev-team,network_in,4321460
2023-07-04T17:49:22.606Z,redis-exporter-dbops-team,network_in,4482494
2023-07-04T17:49:22.693Z,blackbox-exporter,network_in,497855
2023-07-04T17:49:32.693Z,redis-exporter-dev-team,network_in,4394421
2023-07-04T17:49:32.607Z,redis-exporter-dbops-team,network_in,4618366
2023-07-04T17:49:32.693Z,blackbox-exporter,network_in,497855
2023-07-04T17:49:42.693Z,redis-exporter-dev-team,network_in,4394421
2023-07-04T17:49:42.607Z,redis-exporter-dbops-team,network_in,4618366
2023-07-04T17:49:42.693Z,blackbox-exporter,network_in,497855
2023-07-04T17:49:52.693Z,blackbox-exporter,network_in,524517
2023-07-04T17:49:52.693Z,redis-exporter-dev-team,network_in,4571921
2023-07-04T17:49:52.607Z,redis-exporter-dbops-team,network_in,4618366
2023-07-04T17:50:02.693Z,redis-exporter-dev-team,network_in,4659446
2023-07-04T17:50:02.693Z,blackbox-exporter,network_in,533230
2023-07-04T17:50:02.607Z,redis-exporter-dbops-team,network_in,4726536
2023-07-04T17:50:12.694Z,redis-exporter-dev-team,network_in,4659446
2023-07-04T17:50:12.607Z,redis-exporter-dbops-team,network_in,4877283
2023-07-04T17:50:12.694Z,blackbox-exporter,network_in,533230
2023-07-04T17:50:22.693Z,blackbox-exporter,network_in,533230
2023-07-04T17:50:22.693Z,redis-exporter-dev-team,network_in,4659446
2023-07-04T17:50:22.607Z,redis-exporter-dbops-team,network_in,4877283
2023-07-04T17:50:32.607Z,redis-exporter-dbops-team,network_in,4985728
2023-07-04T17:50:32.693Z,blackbox-exporter,network_in,550960
2023-07-04T17:50:32.693Z,redis-exporter-dev-team,network_in,4895436
2023-07-04T17:50:42.693Z,redis-exporter-dev-team,network_in,5014804
2023-07-04T17:50:42.607Z,redis-exporter-dbops-team,network_in,5106567
2023-07-04T17:50:42.693Z,blackbox-exporter,network_in,559784
2023-07-04T17:50:52.694Z,redis-exporter-dev-team,network_in,5014804
2023-07-04T17:50:52.694Z,blackbox-exporter,network_in,576095
2023-07-04T17:50:52.607Z,redis-exporter-dbops-team,network_in,5106567
2023-07-04T17:51:02.607Z,redis-exporter-dbops-team,network_in,5350592
2023-07-04T17:51:02.694Z,redis-exporter-dev-team,network_in,5014804
2023-07-04T17:51:02.694Z,blackbox-exporter,network_in,576095
2023-07-04T17:51:12.693Z,redis-exporter-dev-team,network_in,5160204
2023-07-04T17:51:12.693Z,blackbox-exporter,network_in,586220
2023-07-04T17:51:12.607Z,redis-exporter-dbops-team,network_in,5350592
