2023-07-20T16:33:25.086Z,recommendationservice-10,memory,542285824
2023-07-20T16:33:26.226Z,recommendationservice-7,memory,522076160
2023-07-20T16:33:26.446Z,cartservice,memory,509943808
2023-07-20T16:33:26.533Z,recommendationservice-12,memory,525246464
2023-07-20T16:33:26.774Z,currencyservice,memory,477507584
2023-07-20T16:33:26.813Z,paymentservice,memory,484155392
2023-07-20T16:33:27.448Z,emailservice,memory,531681280
2023-07-20T16:33:27.660Z,checkoutservice,memory,512266240
2023-07-20T16:33:31.224Z,recommendationservice-16,memory,532430848
2023-07-20T16:33:31.306Z,adservice,memory,812351488
2023-07-20T16:33:31.425Z,recommendationservice-3,memory,534831104
2023-07-20T16:33:31.448Z,productcatalogservice,memory,504090624
2023-07-20T16:33:32.247Z,recommendationservice-8,memory,533762048
2023-07-20T16:33:32.424Z,recommendationservice-1,memory,534212608
2023-07-20T16:33:33.329Z,recommendationservice-2,memory,535097344
2023-07-20T16:33:33.472Z,recommendationservice-11,memory,530489344
2023-07-20T16:33:33.564Z,recommendationservice-14,memory,528007168
2023-07-20T16:33:33.675Z,recommendationservice-13,memory,532385792
2023-07-20T16:33:33.697Z,recommendationservice-5,memory,528097280
2023-07-20T16:33:34.004Z,recommendationservice-9,memory,534761472
2023-07-20T16:33:34.633Z,probe-holder,memory,520843264
2023-07-20T16:33:34.955Z,recommendationservice-6,memory,522514432
2023-07-20T16:33:35.117Z,recommendationservice-15,memory,522711040
2023-07-20T16:33:35.087Z,recommendationservice-10,memory,542261248
2023-07-20T16:33:36.023Z,shippingservice,memory,506048512
2023-07-20T16:33:35.828Z,recommendationservice-4,memory,523948032
2023-07-20T16:33:36.226Z,recommendationservice-7,memory,522063872
2023-07-20T16:33:36.446Z,cartservice,memory,509923328
2023-07-20T16:33:36.534Z,recommendationservice-12,memory,525221888
2023-07-20T16:33:36.776Z,currencyservice,memory,477487104
2023-07-20T16:33:36.813Z,paymentservice,memory,484130816
2023-07-20T16:33:37.449Z,emailservice,memory,531660800
2023-07-20T16:33:37.661Z,checkoutservice,memory,512241664
2023-07-20T16:33:41.225Z,recommendationservice-16,memory,536616960
2023-07-20T16:33:41.308Z,adservice,memory,812335104
2023-07-20T16:33:41.425Z,recommendationservice-3,memory,534794240
2023-07-20T16:33:41.449Z,productcatalogservice,memory,504070144
2023-07-20T16:33:42.247Z,recommendationservice-8,memory,533741568
2023-07-20T16:33:42.425Z,recommendationservice-1,memory,534196224
2023-07-20T16:33:43.329Z,recommendationservice-2,memory,535089152
2023-07-20T16:33:43.473Z,recommendationservice-11,memory,530468864
2023-07-20T16:33:43.565Z,recommendationservice-14,memory,527970304
2023-07-20T16:33:43.675Z,recommendationservice-13,memory,536543232
2023-07-20T16:33:43.697Z,recommendationservice-5,memory,528089088
2023-07-20T16:33:44.005Z,recommendationservice-9,memory,534753280
2023-07-20T16:33:44.633Z,probe-holder,memory,520826880
2023-07-20T16:33:44.956Z,recommendationservice-6,memory,526630912
2023-07-20T16:33:45.118Z,recommendationservice-15,memory,526893056
2023-07-20T16:33:45.087Z,recommendationservice-10,memory,542244864
2023-07-20T16:33:46.025Z,shippingservice,memory,506032128
2023-07-20T16:33:45.828Z,recommendationservice-4,memory,523800576
2023-07-20T16:33:46.226Z,recommendationservice-7,memory,522047488
2023-07-20T16:33:46.446Z,cartservice,memory,509915136
2023-07-20T16:33:46.534Z,recommendationservice-12,memory,525213696
2023-07-20T16:33:46.775Z,currencyservice,memory,477470720
2023-07-20T16:33:46.813Z,paymentservice,memory,484114432
2023-07-20T16:33:47.449Z,emailservice,memory,535846912
2023-07-20T16:33:47.661Z,checkoutservice,memory,516419584
2023-07-20T16:33:51.225Z,recommendationservice-16,memory,536600576
2023-07-20T16:33:51.307Z,adservice,memory,812322816
2023-07-20T16:33:51.449Z,productcatalogservice,memory,508248064
2023-07-20T16:33:51.426Z,recommendationservice-3,memory,534777856
2023-07-20T16:33:52.247Z,recommendationservice-8,memory,537927680
2023-07-20T16:33:52.425Z,recommendationservice-1,memory,534183936
2023-07-20T16:33:53.330Z,recommendationservice-2,memory,535072768
2023-07-20T16:33:53.473Z,recommendationservice-11,memory,534646784
2023-07-20T16:33:53.564Z,recommendationservice-14,memory,527962112
2023-07-20T16:33:53.675Z,recommendationservice-13,memory,536526848
2023-07-20T16:33:53.697Z,recommendationservice-5,memory,528064512
2023-07-20T16:33:54.005Z,recommendationservice-9,memory,534736896
2023-07-20T16:33:54.633Z,probe-holder,memory,525017088
2023-07-20T16:33:54.956Z,recommendationservice-6,memory,526622720
2023-07-20T16:33:55.118Z,recommendationservice-15,memory,526876672
2023-07-20T16:33:55.087Z,recommendationservice-10,memory,542228480
2023-07-20T16:33:56.025Z,shippingservice,memory,510205952
2023-07-20T16:33:55.828Z,recommendationservice-4,memory,527851520
2023-07-20T16:33:56.227Z,recommendationservice-7,memory,526475264
2023-07-20T16:33:56.446Z,cartservice,memory,509890560
2023-07-20T16:33:56.534Z,recommendationservice-12,memory,525197312
2023-07-20T16:33:56.775Z,currencyservice,memory,477454336
2023-07-20T16:33:56.813Z,paymentservice,memory,484106240
2023-07-20T16:33:57.449Z,emailservice,memory,536076288
2023-07-20T16:33:57.661Z,checkoutservice,memory,516661248
2023-07-20T16:34:01.225Z,recommendationservice-16,memory,540774400
2023-07-20T16:34:01.306Z,adservice,memory,812302336
2023-07-20T16:34:01.449Z,productcatalogservice,memory,508239872
2023-07-20T16:34:01.425Z,recommendationservice-3,memory,534765568
2023-07-20T16:34:02.247Z,recommendationservice-8,memory,509370368
2023-07-20T16:34:02.425Z,recommendationservice-1,memory,534167552
2023-07-20T16:34:03.330Z,recommendationservice-2,memory,535011328
2023-07-20T16:34:03.473Z,recommendationservice-11,memory,534634496
2023-07-20T16:34:03.564Z,recommendationservice-14,memory,527941632
2023-07-20T16:34:03.675Z,recommendationservice-13,memory,536498176
2023-07-20T16:34:03.697Z,recommendationservice-5,memory,528048128
2023-07-20T16:34:04.005Z,recommendationservice-9,memory,534716416
2023-07-20T16:34:04.633Z,probe-holder,memory,524996608
2023-07-20T16:34:04.956Z,recommendationservice-6,memory,526606336
2023-07-20T16:34:05.118Z,recommendationservice-15,memory,526819328
2023-07-20T16:34:05.086Z,recommendationservice-10,memory,542216192
2023-07-20T16:34:06.024Z,shippingservice,memory,510193664
2023-07-20T16:34:05.828Z,recommendationservice-4,memory,527826944
2023-07-20T16:34:06.227Z,recommendationservice-7,memory,526458880
2023-07-20T16:34:06.446Z,cartservice,memory,509878272
2023-07-20T16:34:06.534Z,recommendationservice-12,memory,525176832
2023-07-20T16:34:06.775Z,currencyservice,memory,477437952
2023-07-20T16:34:06.813Z,paymentservice,memory,484089856
2023-07-20T16:34:07.449Z,emailservice,memory,536059904
2023-07-20T16:34:07.661Z,checkoutservice,memory,516517888
2023-07-20T16:34:11.225Z,recommendationservice-16,memory,540762112
2023-07-20T16:34:11.308Z,adservice,memory,812281856
2023-07-20T16:34:11.425Z,recommendationservice-3,memory,534749184
2023-07-20T16:34:11.449Z,productcatalogservice,memory,512417792
2023-07-20T16:34:12.247Z,recommendationservice-8,memory,509345792
2023-07-20T16:34:12.425Z,recommendationservice-1,memory,534151168
2023-07-20T16:34:13.330Z,recommendationservice-2,memory,534994944
2023-07-20T16:34:13.473Z,recommendationservice-11,memory,534618112
2023-07-20T16:34:13.564Z,recommendationservice-14,memory,527921152
2023-07-20T16:34:13.675Z,recommendationservice-13,memory,536489984
2023-07-20T16:34:13.697Z,recommendationservice-5,memory,528027648
2023-07-20T16:34:14.005Z,recommendationservice-9,memory,534708224
2023-07-20T16:34:14.633Z,probe-holder,memory,524980224
2023-07-20T16:34:14.956Z,recommendationservice-6,memory,526589952
2023-07-20T16:34:15.118Z,recommendationservice-15,memory,526811136
2023-07-20T16:34:15.087Z,recommendationservice-10,memory,542199808
2023-07-20T16:34:16.025Z,shippingservice,memory,510177280
2023-07-20T16:34:15.828Z,recommendationservice-4,memory,527814656
2023-07-20T16:34:16.226Z,recommendationservice-7,memory,526442496
2023-07-20T16:34:16.446Z,cartservice,memory,509853696
2023-07-20T16:34:16.534Z,recommendationservice-12,memory,525164544
2023-07-20T16:34:16.775Z,currencyservice,memory,477421568
2023-07-20T16:34:16.813Z,paymentservice,memory,484073472
2023-07-20T16:34:17.449Z,emailservice,memory,536051712
2023-07-20T16:34:17.661Z,checkoutservice,memory,516493312
2023-07-20T16:34:21.225Z,recommendationservice-16,memory,544940032
2023-07-20T16:34:21.307Z,adservice,memory,812273664
2023-07-20T16:34:21.425Z,recommendationservice-3,memory,534732800
2023-07-20T16:34:21.449Z,productcatalogservice,memory,516595712
2023-07-20T16:34:22.247Z,recommendationservice-8,memory,509337600
2023-07-20T16:34:22.425Z,recommendationservice-1,memory,534036480
2023-07-20T16:34:23.330Z,recommendationservice-2,memory,539168768
2023-07-20T16:34:23.473Z,recommendationservice-11,memory,534601728
2023-07-20T16:34:23.564Z,recommendationservice-14,memory,527912960
2023-07-20T16:34:23.675Z,recommendationservice-13,memory,536473600
2023-07-20T16:34:23.697Z,recommendationservice-5,memory,532434944
2023-07-20T16:34:24.005Z,recommendationservice-9,memory,534691840
2023-07-20T16:34:24.633Z,probe-holder,memory,529170432
2023-07-20T16:34:24.956Z,recommendationservice-6,memory,526577664
2023-07-20T16:34:25.118Z,recommendationservice-15,memory,526794752
2023-07-20T16:34:25.087Z,recommendationservice-10,memory,542183424
2023-07-20T16:34:26.024Z,shippingservice,memory,510160896
2023-07-20T16:34:25.828Z,recommendationservice-4,memory,527798272
2023-07-20T16:34:26.227Z,recommendationservice-7,memory,530604032
2023-07-20T16:34:26.446Z,cartservice,memory,509804544
2023-07-20T16:34:26.534Z,recommendationservice-12,memory,525144064
2023-07-20T16:34:26.775Z,currencyservice,memory,477409280
2023-07-20T16:34:26.813Z,paymentservice,memory,484065280
2023-07-20T16:34:27.449Z,emailservice,memory,536031232
2023-07-20T16:34:27.661Z,checkoutservice,memory,516476928
2023-07-20T16:34:31.308Z,adservice,memory,812175360
2023-07-20T16:34:31.225Z,recommendationservice-16,memory,549117952
2023-07-20T16:34:31.449Z,productcatalogservice,memory,521027584
2023-07-20T16:34:31.426Z,recommendationservice-3,memory,534716416
2023-07-20T16:34:32.247Z,recommendationservice-8,memory,513359872
2023-07-20T16:34:32.425Z,recommendationservice-1,memory,534011904
2023-07-20T16:34:33.330Z,recommendationservice-2,memory,539152384
2023-07-20T16:34:33.473Z,recommendationservice-11,memory,542969856
2023-07-20T16:34:33.564Z,recommendationservice-14,memory,527888384
2023-07-20T16:34:33.675Z,recommendationservice-13,memory,540889088
2023-07-20T16:34:33.697Z,recommendationservice-5,memory,532418560
2023-07-20T16:34:34.005Z,recommendationservice-9,memory,534671360
2023-07-20T16:34:34.633Z,probe-holder,memory,529022976
2023-07-20T16:34:34.956Z,recommendationservice-6,memory,526561280
2023-07-20T16:34:35.118Z,recommendationservice-15,memory,526778368
2023-07-20T16:34:35.088Z,recommendationservice-10,memory,546369536
2023-07-20T16:34:36.025Z,shippingservice,memory,510394368
2023-07-20T16:34:35.828Z,recommendationservice-4,memory,527777792
2023-07-20T16:34:36.226Z,recommendationservice-7,memory,530837504
2023-07-20T16:34:36.446Z,cartservice,memory,509587456
2023-07-20T16:34:36.534Z,recommendationservice-12,memory,525135872
2023-07-20T16:34:36.775Z,currencyservice,memory,477286400
2023-07-20T16:34:36.813Z,paymentservice,memory,484016128
2023-07-20T16:34:37.449Z,emailservice,memory,535883776
2023-07-20T16:34:37.661Z,checkoutservice,memory,516329472
2023-07-20T16:34:41.225Z,recommendationservice-16,memory,550207488
2023-07-20T16:34:41.308Z,adservice,memory,812158976
2023-07-20T16:34:41.426Z,recommendationservice-3,memory,534675456
2023-07-20T16:34:41.449Z,productcatalogservice,memory,520970240
2023-07-20T16:34:42.247Z,recommendationservice-8,memory,513560576
2023-07-20T16:34:42.425Z,recommendationservice-1,memory,533995520
2023-07-20T16:34:43.330Z,recommendationservice-2,memory,543199232
2023-07-20T16:34:43.473Z,recommendationservice-11,memory,542945280
2023-07-20T16:34:43.564Z,recommendationservice-14,memory,528121856
2023-07-20T16:34:43.675Z,recommendationservice-13,memory,540872704
2023-07-20T16:34:43.697Z,recommendationservice-5,memory,532406272
2023-07-20T16:34:44.005Z,recommendationservice-9,memory,534908928
2023-07-20T16:34:44.633Z,probe-holder,memory,533204992
2023-07-20T16:34:44.956Z,recommendationservice-6,memory,526774272
2023-07-20T16:34:45.118Z,recommendationservice-15,memory,526602240
2023-07-20T16:34:45.087Z,recommendationservice-10,memory,550526976
2023-07-20T16:34:46.025Z,shippingservice,memory,510386176
2023-07-20T16:34:45.828Z,recommendationservice-4,memory,531951616
2023-07-20T16:34:46.226Z,recommendationservice-7,memory,535011328
2023-07-20T16:34:46.446Z,cartservice,memory,509435904
2023-07-20T16:34:46.534Z,recommendationservice-12,memory,529321984
2023-07-20T16:34:46.775Z,currencyservice,memory,477270016
2023-07-20T16:34:46.813Z,paymentservice,memory,483999744
2023-07-20T16:34:47.449Z,emailservice,memory,535875584
2023-07-20T16:34:47.661Z,checkoutservice,memory,516313088
2023-07-20T16:34:51.225Z,recommendationservice-16,memory,549691392
2023-07-20T16:34:51.306Z,adservice,memory,812146688
2023-07-20T16:34:51.449Z,productcatalogservice,memory,520953856
2023-07-20T16:34:51.426Z,recommendationservice-3,memory,534667264
2023-07-20T16:34:52.247Z,recommendationservice-8,memory,513552384
2023-07-20T16:34:52.425Z,recommendationservice-1,memory,533893120
2023-07-20T16:34:53.329Z,recommendationservice-2,memory,547373056
2023-07-20T16:34:53.473Z,recommendationservice-11,memory,547123200
2023-07-20T16:34:53.564Z,recommendationservice-14,memory,528113664
2023-07-20T16:34:53.675Z,recommendationservice-13,memory,545050624
2023-07-20T16:34:53.697Z,recommendationservice-5,memory,532385792
2023-07-20T16:34:54.005Z,recommendationservice-9,memory,534892544
2023-07-20T16:34:54.633Z,probe-holder,memory,533200896
2023-07-20T16:34:54.956Z,recommendationservice-6,memory,526757888
2023-07-20T16:34:55.118Z,recommendationservice-15,memory,526585856
2023-07-20T16:34:55.087Z,recommendationservice-10,memory,550510592
2023-07-20T16:34:56.024Z,shippingservice,memory,510369792
2023-07-20T16:34:55.828Z,recommendationservice-4,memory,531935232
2023-07-20T16:34:56.226Z,recommendationservice-7,memory,539193344
2023-07-20T16:34:56.446Z,cartservice,memory,509419520
2023-07-20T16:34:56.534Z,recommendationservice-12,memory,533499904
2023-07-20T16:34:56.775Z,currencyservice,memory,477261824
2023-07-20T16:34:56.813Z,paymentservice,memory,483991552
2023-07-20T16:34:57.449Z,emailservice,memory,535855104
2023-07-20T16:34:57.661Z,checkoutservice,memory,520499200
2023-07-20T16:35:01.225Z,recommendationservice-16,memory,549593088
2023-07-20T16:35:01.306Z,adservice,memory,812130304
2023-07-20T16:35:01.449Z,productcatalogservice,memory,520945664
2023-07-20T16:35:01.425Z,recommendationservice-3,memory,534650880
2023-07-20T16:35:02.248Z,recommendationservice-8,memory,517730304
2023-07-20T16:35:02.425Z,recommendationservice-1,memory,533884928
2023-07-20T16:35:03.329Z,recommendationservice-2,memory,551493632
2023-07-20T16:35:03.473Z,recommendationservice-11,memory,547115008
2023-07-20T16:35:03.564Z,recommendationservice-14,memory,528097280
2023-07-20T16:35:03.675Z,recommendationservice-13,memory,549228544
2023-07-20T16:35:03.697Z,recommendationservice-5,memory,532377600
2023-07-20T16:35:04.005Z,recommendationservice-9,memory,534872064
2023-07-20T16:35:04.633Z,probe-holder,memory,533188608
2023-07-20T16:35:04.956Z,recommendationservice-6,memory,526749696
2023-07-20T16:35:05.118Z,recommendationservice-15,memory,530767872
2023-07-20T16:35:05.087Z,recommendationservice-10,memory,554696704
2023-07-20T16:35:06.025Z,shippingservice,memory,510357504
2023-07-20T16:35:05.828Z,recommendationservice-4,memory,536117248
2023-07-20T16:35:06.226Z,recommendationservice-7,memory,539533312
2023-07-20T16:35:06.446Z,cartservice,memory,509411328
2023-07-20T16:35:06.534Z,recommendationservice-12,memory,537673728
2023-07-20T16:35:06.775Z,currencyservice,memory,477245440
2023-07-20T16:35:06.813Z,paymentservice,memory,483975168
2023-07-20T16:35:07.449Z,emailservice,memory,535838720
2023-07-20T16:35:07.661Z,checkoutservice,memory,520482816
2023-07-20T16:35:11.225Z,recommendationservice-16,memory,508579840
2023-07-20T16:35:11.306Z,adservice,memory,812109824
2023-07-20T16:35:11.449Z,productcatalogservice,memory,520929280
2023-07-20T16:35:11.426Z,recommendationservice-3,memory,534634496
2023-07-20T16:35:12.247Z,recommendationservice-8,memory,543662080
2023-07-20T16:35:12.426Z,recommendationservice-1,memory,533868544
2023-07-20T16:35:13.330Z,recommendationservice-2,memory,551477248
2023-07-20T16:35:13.473Z,recommendationservice-11,memory,547098624
2023-07-20T16:35:13.566Z,recommendationservice-14,memory,528076800
2023-07-20T16:35:13.675Z,recommendationservice-13,memory,566272000
2023-07-20T16:35:13.697Z,recommendationservice-5,memory,532361216
2023-07-20T16:35:14.005Z,recommendationservice-9,memory,534863872
2023-07-20T16:35:14.633Z,probe-holder,memory,533184512
2023-07-20T16:35:14.956Z,recommendationservice-6,memory,526733312
2023-07-20T16:35:15.118Z,recommendationservice-15,memory,534953984
2023-07-20T16:35:15.087Z,recommendationservice-10,memory,558874624
2023-07-20T16:35:16.024Z,shippingservice,memory,510341120
2023-07-20T16:35:15.828Z,recommendationservice-4,memory,536096768
2023-07-20T16:35:16.226Z,recommendationservice-7,memory,539533312
2023-07-20T16:35:16.446Z,cartservice,memory,509394944
2023-07-20T16:35:16.534Z,recommendationservice-12,memory,541859840
2023-07-20T16:35:16.775Z,currencyservice,memory,477237248
2023-07-20T16:35:16.813Z,paymentservice,memory,483958784
2023-07-20T16:35:17.449Z,emailservice,memory,535830528
2023-07-20T16:35:17.661Z,checkoutservice,memory,524660736
2023-07-20T16:35:21.225Z,recommendationservice-16,memory,509341696
2023-07-20T16:35:21.306Z,adservice,memory,812101632
2023-07-20T16:35:21.425Z,recommendationservice-3,memory,534618112
2023-07-20T16:35:21.449Z,productcatalogservice,memory,520912896
2023-07-20T16:35:22.247Z,recommendationservice-8,memory,551374848
2023-07-20T16:35:22.425Z,recommendationservice-1,memory,542248960
2023-07-20T16:35:23.329Z,recommendationservice-2,memory,551456768
2023-07-20T16:35:23.473Z,recommendationservice-11,memory,547082240
2023-07-20T16:35:23.564Z,recommendationservice-14,memory,528068608
2023-07-20T16:35:23.675Z,recommendationservice-13,memory,566255616
2023-07-20T16:35:23.697Z,recommendationservice-5,memory,532226048
2023-07-20T16:35:24.005Z,recommendationservice-9,memory,534851584
2023-07-20T16:35:24.633Z,probe-holder,memory,533176320
2023-07-20T16:35:24.956Z,recommendationservice-6,memory,535048192
2023-07-20T16:35:25.118Z,recommendationservice-15,memory,534937600
2023-07-20T16:35:25.087Z,recommendationservice-10,memory,558858240
2023-07-20T16:35:26.025Z,shippingservice,memory,510332928
2023-07-20T16:35:25.828Z,recommendationservice-4,memory,540274688
2023-07-20T16:35:26.227Z,recommendationservice-7,memory,540053504
2023-07-20T16:35:26.446Z,cartservice,memory,509374464
2023-07-20T16:35:26.534Z,recommendationservice-12,memory,541843456
2023-07-20T16:35:26.775Z,currencyservice,memory,477220864
2023-07-20T16:35:26.813Z,paymentservice,memory,488144896
2023-07-20T16:35:27.449Z,emailservice,memory,535814144
2023-07-20T16:35:27.661Z,checkoutservice,memory,528842752
2023-07-20T16:35:31.225Z,recommendationservice-16,memory,509325312
2023-07-20T16:35:31.306Z,adservice,memory,812081152
2023-07-20T16:35:31.449Z,productcatalogservice,memory,520900608
2023-07-20T16:35:31.426Z,recommendationservice-3,memory,534605824
2023-07-20T16:35:32.247Z,recommendationservice-8,memory,512249856
2023-07-20T16:35:32.425Z,recommendationservice-1,memory,542232576
2023-07-20T16:35:33.329Z,recommendationservice-2,memory,551444480
2023-07-20T16:35:33.473Z,recommendationservice-11,memory,547069952
2023-07-20T16:35:33.564Z,recommendationservice-14,memory,528056320
2023-07-20T16:35:33.675Z,recommendationservice-13,memory,566235136
2023-07-20T16:35:33.697Z,recommendationservice-5,memory,532217856
2023-07-20T16:35:34.005Z,recommendationservice-9,memory,534839296
2023-07-20T16:35:34.633Z,probe-holder,memory,533159936
2023-07-20T16:35:34.956Z,recommendationservice-6,memory,534990848
2023-07-20T16:35:35.118Z,recommendationservice-15,memory,534917120
2023-07-20T16:35:35.087Z,recommendationservice-10,memory,558845952
2023-07-20T16:35:36.024Z,shippingservice,memory,510316544
2023-07-20T16:35:35.828Z,recommendationservice-4,memory,540266496
2023-07-20T16:35:36.226Z,recommendationservice-7,memory,540033024
2023-07-20T16:35:36.446Z,cartservice,memory,509353984
2023-07-20T16:35:36.534Z,recommendationservice-12,memory,541802496
2023-07-20T16:35:36.775Z,currencyservice,memory,477200384
2023-07-20T16:35:36.813Z,paymentservice,memory,488124416
2023-07-20T16:35:37.449Z,emailservice,memory,535797760
2023-07-20T16:35:37.661Z,checkoutservice,memory,528826368
2023-07-20T16:35:41.225Z,recommendationservice-16,memory,509779968
2023-07-20T16:35:41.306Z,adservice,memory,812060672
2023-07-20T16:35:41.449Z,productcatalogservice,memory,520884224
2023-07-20T16:35:41.425Z,recommendationservice-3,memory,534589440
2023-07-20T16:35:42.247Z,recommendationservice-8,memory,512233472
2023-07-20T16:35:42.425Z,recommendationservice-1,memory,542224384
2023-07-20T16:35:43.329Z,recommendationservice-2,memory,551428096
2023-07-20T16:35:43.473Z,recommendationservice-11,memory,547061760
2023-07-20T16:35:43.564Z,recommendationservice-14,memory,528039936
2023-07-20T16:35:43.675Z,recommendationservice-13,memory,566444032
2023-07-20T16:35:43.697Z,recommendationservice-5,memory,532201472
2023-07-20T16:35:44.005Z,recommendationservice-9,memory,534831104
2023-07-20T16:35:44.633Z,probe-holder,memory,533155840
2023-07-20T16:35:44.956Z,recommendationservice-6,memory,534974464
2023-07-20T16:35:45.118Z,recommendationservice-15,memory,539103232
2023-07-20T16:35:45.087Z,recommendationservice-10,memory,558829568
2023-07-20T16:35:46.025Z,shippingservice,memory,514494464
2023-07-20T16:35:45.828Z,recommendationservice-4,memory,540250112
2023-07-20T16:35:46.227Z,recommendationservice-7,memory,539541504
2023-07-20T16:35:46.446Z,cartservice,memory,509345792
2023-07-20T16:35:46.534Z,recommendationservice-12,memory,541794304
2023-07-20T16:35:46.775Z,currencyservice,memory,477192192
2023-07-20T16:35:46.813Z,paymentservice,memory,492302336
2023-07-20T16:35:47.449Z,emailservice,memory,535789568
2023-07-20T16:35:47.661Z,checkoutservice,memory,528809984
2023-07-20T16:35:51.225Z,recommendationservice-16,memory,509759488
2023-07-20T16:35:51.306Z,adservice,memory,812052480
2023-07-20T16:35:51.449Z,productcatalogservice,memory,520867840
2023-07-20T16:35:51.426Z,recommendationservice-3,memory,534573056
2023-07-20T16:35:52.247Z,recommendationservice-8,memory,516415488
2023-07-20T16:35:52.425Z,recommendationservice-1,memory,546402304
2023-07-20T16:35:53.330Z,recommendationservice-2,memory,551411712
2023-07-20T16:35:53.473Z,recommendationservice-11,memory,547053568
2023-07-20T16:35:53.564Z,recommendationservice-14,memory,528031744
2023-07-20T16:35:53.675Z,recommendationservice-13,memory,566415360
2023-07-20T16:35:53.697Z,recommendationservice-5,memory,536248320
2023-07-20T16:35:54.005Z,recommendationservice-9,memory,534814720
2023-07-20T16:35:54.633Z,probe-holder,memory,533147648
2023-07-20T16:35:54.956Z,recommendationservice-6,memory,534966272
2023-07-20T16:35:55.118Z,recommendationservice-15,memory,539086848
2023-07-20T16:35:55.087Z,recommendationservice-10,memory,558813184
2023-07-20T16:35:56.024Z,shippingservice,memory,518676480
2023-07-20T16:35:55.828Z,recommendationservice-4,memory,540233728
2023-07-20T16:35:56.227Z,recommendationservice-7,memory,539521024
2023-07-20T16:35:56.446Z,cartservice,memory,509329408
2023-07-20T16:35:56.534Z,recommendationservice-12,memory,541769728
2023-07-20T16:35:56.775Z,currencyservice,memory,477175808
2023-07-20T16:35:56.813Z,paymentservice,memory,496488448
2023-07-20T16:35:57.449Z,emailservice,memory,535769088
2023-07-20T16:35:57.661Z,checkoutservice,memory,528801792
2023-07-20T16:36:01.225Z,recommendationservice-16,memory,509739008
2023-07-20T16:36:01.307Z,adservice,memory,812027904
2023-07-20T16:36:01.449Z,productcatalogservice,memory,520859648
2023-07-20T16:36:01.425Z,recommendationservice-3,memory,534564864
2023-07-20T16:36:02.247Z,recommendationservice-8,memory,516653056
2023-07-20T16:36:02.425Z,recommendationservice-1,memory,546369536
2023-07-20T16:36:03.332Z,recommendationservice-2,memory,551399424
2023-07-20T16:36:03.473Z,recommendationservice-11,memory,547037184
2023-07-20T16:36:03.564Z,recommendationservice-14,memory,528015360
2023-07-20T16:36:03.675Z,recommendationservice-13,memory,566398976
2023-07-20T16:36:03.697Z,recommendationservice-5,memory,536240128
2023-07-20T16:36:04.005Z,recommendationservice-9,memory,534794240
2023-07-20T16:36:04.633Z,probe-holder,memory,533139456
2023-07-20T16:36:04.956Z,recommendationservice-6,memory,534949888
2023-07-20T16:36:05.118Z,recommendationservice-15,memory,539078656
2023-07-20T16:36:05.087Z,recommendationservice-10,memory,558804992
2023-07-20T16:36:06.025Z,shippingservice,memory,518660096
2023-07-20T16:36:05.828Z,recommendationservice-4,memory,540221440
2023-07-20T16:36:06.226Z,recommendationservice-7,memory,539504640
2023-07-20T16:36:06.446Z,cartservice,memory,509157376
2023-07-20T16:36:06.534Z,recommendationservice-12,memory,541761536
2023-07-20T16:36:06.775Z,currencyservice,memory,481353728
2023-07-20T16:36:06.813Z,paymentservice,memory,496472064
2023-07-20T16:36:07.449Z,emailservice,memory,535752704
2023-07-20T16:36:07.661Z,checkoutservice,memory,528781312
2023-07-20T16:36:11.225Z,recommendationservice-16,memory,509726720
2023-07-20T16:36:11.306Z,adservice,memory,816189440
2023-07-20T16:36:11.449Z,productcatalogservice,memory,520839168
2023-07-20T16:36:11.425Z,recommendationservice-3,memory,534548480
2023-07-20T16:36:12.247Z,recommendationservice-8,memory,516505600
2023-07-20T16:36:12.425Z,recommendationservice-1,memory,546353152
2023-07-20T16:36:13.329Z,recommendationservice-2,memory,551378944
2023-07-20T16:36:13.473Z,recommendationservice-11,memory,547061760
2023-07-20T16:36:13.566Z,recommendationservice-14,memory,527994880
2023-07-20T16:36:13.675Z,recommendationservice-13,memory,566734848
2023-07-20T16:36:13.697Z,recommendationservice-5,memory,544612352
2023-07-20T16:36:14.005Z,recommendationservice-9,memory,534663168
2023-07-20T16:36:14.633Z,probe-holder,memory,533135360
2023-07-20T16:36:14.956Z,recommendationservice-6,memory,534933504
2023-07-20T16:36:15.118Z,recommendationservice-15,memory,539062272
2023-07-20T16:36:15.087Z,recommendationservice-10,memory,558784512
2023-07-20T16:36:16.024Z,shippingservice,memory,518643712
2023-07-20T16:36:15.828Z,recommendationservice-4,memory,540094464
2023-07-20T16:36:16.226Z,recommendationservice-7,memory,539488256
2023-07-20T16:36:16.446Z,cartservice,memory,513343488
2023-07-20T16:36:16.534Z,recommendationservice-12,memory,541753344
2023-07-20T16:36:16.775Z,currencyservice,memory,485539840
2023-07-20T16:36:16.813Z,paymentservice,memory,498561024
2023-07-20T16:36:17.449Z,emailservice,memory,535744512
2023-07-20T16:36:17.661Z,checkoutservice,memory,528764928
2023-07-20T16:36:21.226Z,recommendationservice-16,memory,507707392
2023-07-20T16:36:21.306Z,adservice,memory,815935488
2023-07-20T16:36:21.449Z,productcatalogservice,memory,520822784
2023-07-20T16:36:21.425Z,recommendationservice-3,memory,534540288
2023-07-20T16:36:22.247Z,recommendationservice-8,memory,516489216
2023-07-20T16:36:22.425Z,recommendationservice-1,memory,546344960
2023-07-20T16:36:23.330Z,recommendationservice-2,memory,551362560
2023-07-20T16:36:23.473Z,recommendationservice-11,memory,547053568
2023-07-20T16:36:23.564Z,recommendationservice-14,memory,527986688
2023-07-20T16:36:23.675Z,recommendationservice-13,memory,566718464
2023-07-20T16:36:23.697Z,recommendationservice-5,memory,548798464
2023-07-20T16:36:24.005Z,recommendationservice-9,memory,534646784
2023-07-20T16:36:24.633Z,probe-holder,memory,533131264
2023-07-20T16:36:24.956Z,recommendationservice-6,memory,534921216
2023-07-20T16:36:25.118Z,recommendationservice-15,memory,539049984
2023-07-20T16:36:25.087Z,recommendationservice-10,memory,558768128
2023-07-20T16:36:26.024Z,shippingservice,memory,518627328
2023-07-20T16:36:25.828Z,recommendationservice-4,memory,540078080
2023-07-20T16:36:26.227Z,recommendationservice-7,memory,539766784
2023-07-20T16:36:26.446Z,cartservice,memory,517521408
2023-07-20T16:36:26.534Z,recommendationservice-12,memory,541736960
2023-07-20T16:36:26.775Z,currencyservice,memory,485523456
2023-07-20T16:36:26.813Z,paymentservice,memory,498544640
2023-07-20T16:36:27.449Z,emailservice,memory,535728128
2023-07-20T16:36:27.661Z,checkoutservice,memory,528756736
2023-07-20T16:36:31.225Z,recommendationservice-16,memory,507691008
2023-07-20T16:36:31.308Z,adservice,memory,815640576
2023-07-20T16:36:32.247Z,recommendationservice-8,memory,516476928
2023-07-20T16:36:31.425Z,recommendationservice-3,memory,534519808
2023-07-20T16:36:31.449Z,productcatalogservice,memory,520814592
2023-07-20T16:36:32.425Z,recommendationservice-1,memory,546324480
2023-07-20T16:36:33.329Z,recommendationservice-2,memory,551354368
2023-07-20T16:36:33.473Z,recommendationservice-11,memory,547037184
2023-07-20T16:36:33.564Z,recommendationservice-14,memory,527970304
2023-07-20T16:36:33.675Z,recommendationservice-13,memory,566702080
2023-07-20T16:36:33.697Z,recommendationservice-5,memory,548777984
2023-07-20T16:36:34.005Z,recommendationservice-9,memory,534630400
2023-07-20T16:36:34.633Z,probe-holder,memory,533118976
2023-07-20T16:36:34.956Z,recommendationservice-6,memory,534904832
2023-07-20T16:36:35.118Z,recommendationservice-15,memory,539029504
2023-07-20T16:36:35.087Z,recommendationservice-10,memory,558751744
2023-07-20T16:36:36.024Z,shippingservice,memory,518615040
2023-07-20T16:36:35.828Z,recommendationservice-4,memory,540069888
2023-07-20T16:36:36.226Z,recommendationservice-7,memory,540897280
2023-07-20T16:36:36.446Z,cartservice,memory,521707520
2023-07-20T16:36:36.534Z,recommendationservice-12,memory,541720576
2023-07-20T16:36:36.775Z,currencyservice,memory,485507072
2023-07-20T16:36:36.813Z,paymentservice,memory,498528256
2023-07-20T16:36:37.449Z,emailservice,memory,535707648
2023-07-20T16:36:37.661Z,checkoutservice,memory,528740352
2023-07-20T16:36:41.225Z,recommendationservice-16,memory,509485056
2023-07-20T16:36:41.306Z,adservice,memory,821911552
2023-07-20T16:36:41.425Z,recommendationservice-3,memory,534503424
2023-07-20T16:36:41.449Z,productcatalogservice,memory,520798208
2023-07-20T16:36:42.248Z,recommendationservice-8,memory,516460544
2023-07-20T16:36:42.425Z,recommendationservice-1,memory,546316288
2023-07-20T16:36:43.330Z,recommendationservice-2,memory,551337984
2023-07-20T16:36:43.473Z,recommendationservice-11,memory,547192832
2023-07-20T16:36:43.564Z,recommendationservice-14,memory,527953920
2023-07-20T16:36:43.675Z,recommendationservice-13,memory,566456320
2023-07-20T16:36:43.697Z,recommendationservice-5,memory,548761600
2023-07-20T16:36:44.006Z,recommendationservice-9,memory,534618112
2023-07-20T16:36:44.633Z,probe-holder,memory,532967424
2023-07-20T16:36:44.956Z,recommendationservice-6,memory,534888448
2023-07-20T16:36:45.118Z,recommendationservice-15,memory,539021312
2023-07-20T16:36:45.087Z,recommendationservice-10,memory,558743552
2023-07-20T16:36:46.024Z,shippingservice,memory,518598656
2023-07-20T16:36:45.828Z,recommendationservice-4,memory,540053504
2023-07-20T16:36:46.226Z,recommendationservice-7,memory,540897280
2023-07-20T16:36:46.446Z,cartservice,memory,521826304
2023-07-20T16:36:46.534Z,recommendationservice-12,memory,541716480
2023-07-20T16:36:46.775Z,currencyservice,memory,489693184
2023-07-20T16:36:46.813Z,paymentservice,memory,498520064
2023-07-20T16:36:47.449Z,emailservice,memory,535699456
2023-07-20T16:36:47.661Z,checkoutservice,memory,528723968
2023-07-20T16:36:51.225Z,recommendationservice-16,memory,509997056
2023-07-20T16:36:51.306Z,adservice,memory,821903360
2023-07-20T16:36:51.449Z,productcatalogservice,memory,520781824
2023-07-20T16:36:51.425Z,recommendationservice-3,memory,534495232
2023-07-20T16:36:52.247Z,recommendationservice-8,memory,516452352
2023-07-20T16:36:52.425Z,recommendationservice-1,memory,546299904
2023-07-20T16:36:53.330Z,recommendationservice-2,memory,551321600
2023-07-20T16:36:53.473Z,recommendationservice-11,memory,547176448
2023-07-20T16:36:53.564Z,recommendationservice-14,memory,527945728
2023-07-20T16:36:53.675Z,recommendationservice-13,memory,566439936
2023-07-20T16:36:53.697Z,recommendationservice-5,memory,548737024
2023-07-20T16:36:54.005Z,recommendationservice-9,memory,534601728
2023-07-20T16:36:54.633Z,probe-holder,memory,532963328
2023-07-20T16:36:54.956Z,recommendationservice-6,memory,534880256
2023-07-20T16:36:55.118Z,recommendationservice-15,memory,539004928
2023-07-20T16:36:55.086Z,recommendationservice-10,memory,558727168
2023-07-20T16:36:56.024Z,shippingservice,memory,518590464
2023-07-20T16:36:55.828Z,recommendationservice-4,memory,540037120
2023-07-20T16:36:56.227Z,recommendationservice-7,memory,541421568
2023-07-20T16:36:56.446Z,cartservice,memory,522760192
2023-07-20T16:36:56.534Z,recommendationservice-12,memory,541700096
2023-07-20T16:36:56.775Z,currencyservice,memory,489656320
2023-07-20T16:36:56.813Z,paymentservice,memory,498503680
2023-07-20T16:36:57.449Z,emailservice,memory,539877376
2023-07-20T16:36:57.661Z,checkoutservice,memory,528711680
2023-07-20T16:37:01.307Z,adservice,memory,821981184
2023-07-20T16:37:01.225Z,recommendationservice-16,memory,509980672
2023-07-20T16:37:01.449Z,productcatalogservice,memory,520658944
2023-07-20T16:37:01.426Z,recommendationservice-3,memory,534478848
2023-07-20T16:37:02.247Z,recommendationservice-8,memory,516435968
2023-07-20T16:37:02.425Z,recommendationservice-1,memory,546283520
2023-07-20T16:37:03.329Z,recommendationservice-2,memory,551309312
2023-07-20T16:37:03.473Z,recommendationservice-11,memory,547168256
2023-07-20T16:37:03.564Z,recommendationservice-14,memory,532119552
2023-07-20T16:37:03.675Z,recommendationservice-13,memory,566423552
2023-07-20T16:37:03.697Z,recommendationservice-5,memory,548728832
2023-07-20T16:37:04.005Z,recommendationservice-9,memory,534585344
2023-07-20T16:37:04.633Z,probe-holder,memory,532951040
2023-07-20T16:37:04.956Z,recommendationservice-6,memory,534859776
2023-07-20T16:37:05.118Z,recommendationservice-15,memory,538935296
2023-07-20T16:37:05.087Z,recommendationservice-10,memory,558714880
2023-07-20T16:37:06.024Z,shippingservice,memory,518574080
2023-07-20T16:37:05.828Z,recommendationservice-4,memory,540024832
2023-07-20T16:37:06.227Z,recommendationservice-7,memory,541405184
2023-07-20T16:37:06.446Z,cartservice,memory,522772480
2023-07-20T16:37:06.534Z,recommendationservice-12,memory,541679616
2023-07-20T16:37:06.775Z,currencyservice,memory,489639936
2023-07-20T16:37:06.813Z,paymentservice,memory,498487296
2023-07-20T16:37:07.449Z,emailservice,memory,539860992
2023-07-20T16:37:07.661Z,checkoutservice,memory,528695296
2023-07-20T16:37:11.226Z,recommendationservice-16,memory,509968384
2023-07-20T16:37:11.308Z,adservice,memory,821972992
2023-07-20T16:37:11.449Z,productcatalogservice,memory,520638464
2023-07-20T16:37:11.426Z,recommendationservice-3,memory,534458368
2023-07-20T16:37:12.247Z,recommendationservice-8,memory,516419584
2023-07-20T16:37:12.425Z,recommendationservice-1,memory,546275328
2023-07-20T16:37:13.330Z,recommendationservice-2,memory,551288832
2023-07-20T16:37:13.473Z,recommendationservice-11,memory,547192832
2023-07-20T16:37:13.564Z,recommendationservice-14,memory,532103168
2023-07-20T16:37:13.675Z,recommendationservice-13,memory,566620160
2023-07-20T16:37:13.697Z,recommendationservice-5,memory,548712448
2023-07-20T16:37:14.005Z,recommendationservice-9,memory,534585344
2023-07-20T16:37:14.633Z,probe-holder,memory,532938752
2023-07-20T16:37:14.956Z,recommendationservice-6,memory,534843392
2023-07-20T16:37:15.118Z,recommendationservice-15,memory,538910720
2023-07-20T16:37:15.087Z,recommendationservice-10,memory,558698496
2023-07-20T16:37:16.024Z,shippingservice,memory,518557696
2023-07-20T16:37:15.828Z,recommendationservice-4,memory,540008448
2023-07-20T16:37:16.227Z,recommendationservice-7,memory,539713536
2023-07-20T16:37:16.446Z,cartservice,memory,522043392
2023-07-20T16:37:16.534Z,recommendationservice-12,memory,541671424
2023-07-20T16:37:16.775Z,currencyservice,memory,489631744
2023-07-20T16:37:16.813Z,paymentservice,memory,498479104
2023-07-20T16:37:17.449Z,emailservice,memory,548241408
2023-07-20T16:37:17.661Z,checkoutservice,memory,528678912
2023-07-20T16:37:21.225Z,recommendationservice-16,memory,509960192
2023-07-20T16:37:21.307Z,adservice,memory,821952512
2023-07-20T16:37:21.449Z,productcatalogservice,memory,520622080
2023-07-20T16:37:21.425Z,recommendationservice-3,memory,534450176
2023-07-20T16:37:22.247Z,recommendationservice-8,memory,516411392
2023-07-20T16:37:22.425Z,recommendationservice-1,memory,546254848
2023-07-20T16:37:23.330Z,recommendationservice-2,memory,551256064
2023-07-20T16:37:23.473Z,recommendationservice-11,memory,547176448
2023-07-20T16:37:23.564Z,recommendationservice-14,memory,540483584
2023-07-20T16:37:23.675Z,recommendationservice-13,memory,520581120
2023-07-20T16:37:23.697Z,recommendationservice-5,memory,548700160
2023-07-20T16:37:24.005Z,recommendationservice-9,memory,534568960
2023-07-20T16:37:24.633Z,probe-holder,memory,532934656
2023-07-20T16:37:24.956Z,recommendationservice-6,memory,534835200
2023-07-20T16:37:25.118Z,recommendationservice-15,memory,538894336
2023-07-20T16:37:25.087Z,recommendationservice-10,memory,558682112
2023-07-20T16:37:26.024Z,shippingservice,memory,518537216
2023-07-20T16:37:25.828Z,recommendationservice-4,memory,540000256
2023-07-20T16:37:26.227Z,recommendationservice-7,memory,539144192
2023-07-20T16:37:26.446Z,cartservice,memory,522027008
2023-07-20T16:37:26.534Z,recommendationservice-12,memory,541655040
2023-07-20T16:37:26.775Z,currencyservice,memory,489615360
2023-07-20T16:37:26.813Z,paymentservice,memory,498462720
2023-07-20T16:37:27.449Z,emailservice,memory,548220928
2023-07-20T16:37:27.661Z,checkoutservice,memory,528670720
2023-07-20T16:37:31.225Z,recommendationservice-16,memory,509943808
2023-07-20T16:37:31.306Z,adservice,memory,821972992
2023-07-20T16:37:31.449Z,productcatalogservice,memory,520613888
2023-07-20T16:37:31.425Z,recommendationservice-3,memory,534433792
2023-07-20T16:37:32.247Z,recommendationservice-8,memory,516390912
2023-07-20T16:37:32.425Z,recommendationservice-1,memory,546238464
2023-07-20T16:37:33.330Z,recommendationservice-2,memory,551239680
2023-07-20T16:37:33.473Z,recommendationservice-11,memory,547061760
2023-07-20T16:37:33.564Z,recommendationservice-14,memory,544665600
2023-07-20T16:37:33.675Z,recommendationservice-13,memory,520822784
2023-07-20T16:37:33.697Z,recommendationservice-5,memory,548683776
2023-07-20T16:37:34.005Z,recommendationservice-9,memory,534556672
2023-07-20T16:37:34.633Z,probe-holder,memory,532918272
2023-07-20T16:37:34.956Z,recommendationservice-6,memory,534818816
2023-07-20T16:37:35.118Z,recommendationservice-15,memory,538886144
2023-07-20T16:37:35.087Z,recommendationservice-10,memory,558673920
2023-07-20T16:37:36.025Z,shippingservice,memory,518529024
2023-07-20T16:37:35.828Z,recommendationservice-4,memory,539983872
2023-07-20T16:37:36.226Z,recommendationservice-7,memory,539238400
2023-07-20T16:37:36.446Z,cartservice,memory,523640832
2023-07-20T16:37:36.534Z,recommendationservice-12,memory,541634560
2023-07-20T16:37:36.775Z,currencyservice,memory,489598976
2023-07-20T16:37:36.813Z,paymentservice,memory,498442240
2023-07-20T16:37:37.449Z,emailservice,memory,548204544
2023-07-20T16:37:37.661Z,checkoutservice,memory,528633856
2023-07-20T16:37:41.225Z,recommendationservice-16,memory,509927424
2023-07-20T16:37:41.306Z,adservice,memory,822378496
2023-07-20T16:37:41.449Z,productcatalogservice,memory,520597504
2023-07-20T16:37:41.425Z,recommendationservice-3,memory,538611712
2023-07-20T16:37:42.247Z,recommendationservice-8,memory,516374528
2023-07-20T16:37:42.425Z,recommendationservice-1,memory,546230272
2023-07-20T16:37:43.330Z,recommendationservice-2,memory,551223296
2023-07-20T16:37:43.473Z,recommendationservice-11,memory,547573760
2023-07-20T16:37:43.564Z,recommendationservice-14,memory,544645120
2023-07-20T16:37:43.675Z,recommendationservice-13,memory,521584640
2023-07-20T16:37:43.697Z,recommendationservice-5,memory,548667392
2023-07-20T16:37:44.005Z,recommendationservice-9,memory,534540288
2023-07-20T16:37:44.633Z,probe-holder,memory,532783104
2023-07-20T16:37:44.956Z,recommendationservice-6,memory,534802432
2023-07-20T16:37:45.118Z,recommendationservice-15,memory,538869760
2023-07-20T16:37:45.087Z,recommendationservice-10,memory,558657536
2023-07-20T16:37:46.025Z,shippingservice,memory,518512640
2023-07-20T16:37:45.828Z,recommendationservice-4,memory,539963392
2023-07-20T16:37:46.226Z,recommendationservice-7,memory,539222016
2023-07-20T16:37:46.446Z,cartservice,memory,524226560
2023-07-20T16:37:46.534Z,recommendationservice-12,memory,541626368
2023-07-20T16:37:46.775Z,currencyservice,memory,489590784
2023-07-20T16:37:46.813Z,paymentservice,memory,498425856
2023-07-20T16:37:47.449Z,emailservice,memory,548114432
2023-07-20T16:37:47.661Z,checkoutservice,memory,528494592
2023-07-20T16:37:51.226Z,recommendationservice-16,memory,510177280
2023-07-20T16:37:51.307Z,adservice,memory,822702080
2023-07-20T16:37:51.449Z,productcatalogservice,memory,520581120
2023-07-20T16:37:51.425Z,recommendationservice-3,memory,538603520
2023-07-20T16:37:52.247Z,recommendationservice-8,memory,516366336
2023-07-20T16:37:52.425Z,recommendationservice-1,memory,546213888
2023-07-20T16:37:53.330Z,recommendationservice-2,memory,551202816
2023-07-20T16:37:53.473Z,recommendationservice-11,memory,547557376
2023-07-20T16:37:53.564Z,recommendationservice-14,memory,544563200
2023-07-20T16:37:53.675Z,recommendationservice-13,memory,521568256
2023-07-20T16:37:53.697Z,recommendationservice-5,memory,548651008
2023-07-20T16:37:54.005Z,recommendationservice-9,memory,534523904
2023-07-20T16:37:54.633Z,probe-holder,memory,532774912
2023-07-20T16:37:54.956Z,recommendationservice-6,memory,534790144
2023-07-20T16:37:55.118Z,recommendationservice-15,memory,538853376
2023-07-20T16:37:55.087Z,recommendationservice-10,memory,558641152
2023-07-20T16:37:56.024Z,shippingservice,memory,518504448
2023-07-20T16:37:55.828Z,recommendationservice-4,memory,539955200
2023-07-20T16:37:56.227Z,recommendationservice-7,memory,539770880
2023-07-20T16:37:56.446Z,cartservice,memory,509014016
2023-07-20T16:37:56.534Z,recommendationservice-12,memory,541609984
2023-07-20T16:37:56.775Z,currencyservice,memory,489574400
2023-07-20T16:37:56.813Z,paymentservice,memory,498417664
2023-07-20T16:37:57.449Z,emailservice,memory,548098048
2023-07-20T16:37:57.661Z,checkoutservice,memory,528478208
2023-07-20T16:38:01.225Z,recommendationservice-16,memory,510160896
2023-07-20T16:38:01.306Z,adservice,memory,822874112
2023-07-20T16:38:01.425Z,recommendationservice-3,memory,542736384
2023-07-20T16:38:02.247Z,recommendationservice-8,memory,516579328
2023-07-20T16:38:01.449Z,productcatalogservice,memory,520568832
2023-07-20T16:38:02.425Z,recommendationservice-1,memory,546136064
2023-07-20T16:38:03.329Z,recommendationservice-2,memory,551190528
2023-07-20T16:38:03.473Z,recommendationservice-11,memory,547545088
2023-07-20T16:38:03.564Z,recommendationservice-14,memory,544546816
2023-07-20T16:38:03.675Z,recommendationservice-13,memory,521547776
2023-07-20T16:38:03.697Z,recommendationservice-5,memory,548642816
2023-07-20T16:38:04.005Z,recommendationservice-9,memory,538710016
2023-07-20T16:38:04.633Z,probe-holder,memory,532766720
2023-07-20T16:38:04.956Z,recommendationservice-6,memory,534773760
2023-07-20T16:38:05.118Z,recommendationservice-15,memory,538841088
2023-07-20T16:38:05.087Z,recommendationservice-10,memory,558628864
2023-07-20T16:38:06.024Z,shippingservice,memory,518488064
2023-07-20T16:38:05.828Z,recommendationservice-4,memory,539938816
2023-07-20T16:38:06.226Z,recommendationservice-7,memory,539570176
2023-07-20T16:38:06.446Z,cartservice,memory,509005824
2023-07-20T16:38:06.534Z,recommendationservice-12,memory,541593600
2023-07-20T16:38:06.775Z,currencyservice,memory,489558016
2023-07-20T16:38:06.813Z,paymentservice,memory,498401280
2023-07-20T16:38:07.449Z,emailservice,memory,548077568
2023-07-20T16:38:07.661Z,checkoutservice,memory,528461824
2023-07-20T16:38:11.226Z,recommendationservice-16,memory,510144512
2023-07-20T16:38:11.306Z,adservice,memory,822857728
2023-07-20T16:38:11.449Z,productcatalogservice,memory,520552448
2023-07-20T16:38:11.425Z,recommendationservice-3,memory,546914304
2023-07-20T16:38:12.247Z,recommendationservice-8,memory,516562944
2023-07-20T16:38:12.425Z,recommendationservice-1,memory,546127872
2023-07-20T16:38:13.330Z,recommendationservice-2,memory,551174144
2023-07-20T16:38:13.473Z,recommendationservice-11,memory,547848192
2023-07-20T16:38:13.564Z,recommendationservice-14,memory,544534528
2023-07-20T16:38:13.675Z,recommendationservice-13,memory,521539584
2023-07-20T16:38:13.697Z,recommendationservice-5,memory,548626432
2023-07-20T16:38:14.005Z,recommendationservice-9,memory,542883840
2023-07-20T16:38:14.633Z,probe-holder,memory,532758528
2023-07-20T16:38:14.956Z,recommendationservice-6,memory,534757376
2023-07-20T16:38:15.118Z,recommendationservice-15,memory,538824704
2023-07-20T16:38:15.086Z,recommendationservice-10,memory,558616576
2023-07-20T16:38:16.025Z,shippingservice,memory,518471680
2023-07-20T16:38:15.828Z,recommendationservice-4,memory,539922432
2023-07-20T16:38:16.226Z,recommendationservice-7,memory,539553792
2023-07-20T16:38:16.446Z,cartservice,memory,506261504
2023-07-20T16:38:16.534Z,recommendationservice-12,memory,541585408
2023-07-20T16:38:16.775Z,currencyservice,memory,489549824
2023-07-20T16:38:16.813Z,paymentservice,memory,498393088
2023-07-20T16:38:17.449Z,emailservice,memory,548069376
2023-07-20T16:38:17.661Z,checkoutservice,memory,528445440
2023-07-20T16:38:21.225Z,recommendationservice-16,memory,510144512
2023-07-20T16:38:21.307Z,adservice,memory,822845440
2023-07-20T16:38:21.449Z,productcatalogservice,memory,520536064
2023-07-20T16:38:21.425Z,recommendationservice-3,memory,546775040
2023-07-20T16:38:22.247Z,recommendationservice-8,memory,516550656
2023-07-20T16:38:22.425Z,recommendationservice-1,memory,546111488
2023-07-20T16:38:23.329Z,recommendationservice-2,memory,551157760
2023-07-20T16:38:23.473Z,recommendationservice-11,memory,547840000
2023-07-20T16:38:23.564Z,recommendationservice-14,memory,544526336
2023-07-20T16:38:23.675Z,recommendationservice-13,memory,521523200
2023-07-20T16:38:23.697Z,recommendationservice-5,memory,548614144
2023-07-20T16:38:24.005Z,recommendationservice-9,memory,542867456
2023-07-20T16:38:24.633Z,probe-holder,memory,532746240
2023-07-20T16:38:24.956Z,recommendationservice-6,memory,534749184
2023-07-20T16:38:25.118Z,recommendationservice-15,memory,538808320
2023-07-20T16:38:25.086Z,recommendationservice-10,memory,558600192
2023-07-20T16:38:26.025Z,shippingservice,memory,518459392
2023-07-20T16:38:25.828Z,recommendationservice-4,memory,539918336
2023-07-20T16:38:26.226Z,recommendationservice-7,memory,540823552
2023-07-20T16:38:26.446Z,cartservice,memory,506245120
2023-07-20T16:38:26.534Z,recommendationservice-12,memory,541569024
2023-07-20T16:38:26.775Z,currencyservice,memory,489533440
2023-07-20T16:38:26.813Z,paymentservice,memory,498376704
2023-07-20T16:38:27.449Z,emailservice,memory,548052992
2023-07-20T16:38:27.661Z,checkoutservice,memory,528437248
2023-07-20T16:38:31.225Z,recommendationservice-16,memory,510124032
2023-07-20T16:38:31.308Z,adservice,memory,823328768
2023-07-20T16:38:31.449Z,productcatalogservice,memory,520527872
2023-07-20T16:38:31.426Z,recommendationservice-3,memory,546758656
2023-07-20T16:38:32.247Z,recommendationservice-8,memory,516534272
2023-07-20T16:38:32.425Z,recommendationservice-1,memory,546086912
2023-07-20T16:38:33.330Z,recommendationservice-2,memory,551145472
2023-07-20T16:38:33.473Z,recommendationservice-11,memory,547479552
2023-07-20T16:38:33.566Z,recommendationservice-14,memory,544509952
2023-07-20T16:38:33.675Z,recommendationservice-13,memory,520470528
2023-07-20T16:38:33.697Z,recommendationservice-5,memory,548597760
2023-07-20T16:38:34.005Z,recommendationservice-9,memory,547053568
2023-07-20T16:38:34.633Z,probe-holder,memory,532725760
2023-07-20T16:38:34.956Z,recommendationservice-6,memory,534728704
2023-07-20T16:38:35.118Z,recommendationservice-15,memory,538800128
2023-07-20T16:38:35.087Z,recommendationservice-10,memory,558587904
2023-07-20T16:38:36.025Z,shippingservice,memory,518443008
2023-07-20T16:38:35.828Z,recommendationservice-4,memory,539897856
2023-07-20T16:38:36.226Z,recommendationservice-7,memory,540807168
2023-07-20T16:38:36.446Z,cartservice,memory,506228736
2023-07-20T16:38:36.534Z,recommendationservice-12,memory,541552640
2023-07-20T16:38:36.775Z,currencyservice,memory,489517056
2023-07-20T16:38:36.813Z,paymentservice,memory,498360320
2023-07-20T16:38:37.449Z,emailservice,memory,548036608
2023-07-20T16:38:37.661Z,checkoutservice,memory,528416768
2023-07-20T16:38:41.225Z,recommendationservice-16,memory,510062592
2023-07-20T16:38:41.306Z,adservice,memory,823971840
2023-07-20T16:38:41.449Z,productcatalogservice,memory,520503296
2023-07-20T16:38:41.425Z,recommendationservice-3,memory,546729984
2023-07-20T16:38:42.247Z,recommendationservice-8,memory,516517888
2023-07-20T16:38:42.425Z,recommendationservice-1,memory,546070528
2023-07-20T16:38:43.329Z,recommendationservice-2,memory,551124992
2023-07-20T16:38:43.473Z,recommendationservice-11,memory,547475456
2023-07-20T16:38:43.567Z,recommendationservice-14,memory,544489472
2023-07-20T16:38:43.675Z,recommendationservice-13,memory,520720384
2023-07-20T16:38:43.697Z,recommendationservice-5,memory,548581376
2023-07-20T16:38:44.005Z,recommendationservice-9,memory,546942976
2023-07-20T16:38:44.633Z,probe-holder,memory,532717568
2023-07-20T16:38:44.956Z,recommendationservice-6,memory,534712320
2023-07-20T16:38:45.118Z,recommendationservice-15,memory,538783744
2023-07-20T16:38:45.087Z,recommendationservice-10,memory,558571520
2023-07-20T16:38:46.024Z,shippingservice,memory,518426624
2023-07-20T16:38:45.828Z,recommendationservice-4,memory,539881472
2023-07-20T16:38:46.227Z,recommendationservice-7,memory,540790784
2023-07-20T16:38:46.446Z,cartservice,memory,506212352
2023-07-20T16:38:46.534Z,recommendationservice-12,memory,541544448
2023-07-20T16:38:46.775Z,currencyservice,memory,489508864
2023-07-20T16:38:46.813Z,paymentservice,memory,498343936
2023-07-20T16:38:47.449Z,emailservice,memory,548028416
2023-07-20T16:38:47.661Z,checkoutservice,memory,528400384
2023-07-20T16:38:51.226Z,recommendationservice-16,memory,510054400
2023-07-20T16:38:51.306Z,adservice,memory,823963648
2023-07-20T16:38:51.425Z,recommendationservice-3,memory,546721792
2023-07-20T16:38:52.247Z,recommendationservice-8,memory,516509696
2023-07-20T16:38:51.449Z,productcatalogservice,memory,520486912
2023-07-20T16:38:52.425Z,recommendationservice-1,memory,546062336
2023-07-20T16:38:53.329Z,recommendationservice-2,memory,551116800
2023-07-20T16:38:53.473Z,recommendationservice-11,memory,548585472
2023-07-20T16:38:53.564Z,recommendationservice-14,memory,544481280
2023-07-20T16:38:53.675Z,recommendationservice-13,memory,521736192
2023-07-20T16:38:53.697Z,recommendationservice-5,memory,548573184
2023-07-20T16:38:54.005Z,recommendationservice-9,memory,546930688
2023-07-20T16:38:54.633Z,probe-holder,memory,532705280
2023-07-20T16:38:54.956Z,recommendationservice-6,memory,534704128
2023-07-20T16:38:55.118Z,recommendationservice-15,memory,538767360
2023-07-20T16:38:55.086Z,recommendationservice-10,memory,558555136
2023-07-20T16:38:56.024Z,shippingservice,memory,518402048
2023-07-20T16:38:55.828Z,recommendationservice-4,memory,539873280
2023-07-20T16:38:56.226Z,recommendationservice-7,memory,540958720
2023-07-20T16:38:56.446Z,cartservice,memory,506195968
2023-07-20T16:38:56.534Z,recommendationservice-12,memory,541532160
2023-07-20T16:38:56.775Z,currencyservice,memory,489488384
2023-07-20T16:38:56.813Z,paymentservice,memory,498335744
2023-07-20T16:38:57.449Z,emailservice,memory,548012032
2023-07-20T16:38:57.661Z,checkoutservice,memory,528392192
2023-07-20T16:39:01.225Z,recommendationservice-16,memory,510038016
2023-07-20T16:39:01.306Z,adservice,memory,823930880
2023-07-20T16:39:01.426Z,recommendationservice-3,memory,546705408
2023-07-20T16:39:02.247Z,recommendationservice-8,memory,516747264
2023-07-20T16:39:01.449Z,productcatalogservice,memory,520478720
2023-07-20T16:39:02.425Z,recommendationservice-1,memory,546041856
2023-07-20T16:39:03.329Z,recommendationservice-2,memory,551100416
2023-07-20T16:39:03.473Z,recommendationservice-11,memory,548601856
2023-07-20T16:39:03.564Z,recommendationservice-14,memory,544440320
2023-07-20T16:39:03.675Z,recommendationservice-13,memory,522985472
2023-07-20T16:39:03.697Z,recommendationservice-5,memory,548552704
2023-07-20T16:39:04.005Z,recommendationservice-9,memory,546922496
2023-07-20T16:39:04.633Z,probe-holder,memory,532688896
2023-07-20T16:39:04.956Z,recommendationservice-6,memory,534687744
2023-07-20T16:39:05.118Z,recommendationservice-15,memory,536862720
2023-07-20T16:39:05.087Z,recommendationservice-10,memory,558546944
2023-07-20T16:39:06.024Z,shippingservice,memory,518373376
2023-07-20T16:39:05.828Z,recommendationservice-4,memory,539832320
2023-07-20T16:39:06.226Z,recommendationservice-7,memory,540172288
2023-07-20T16:39:06.446Z,cartservice,memory,506187776
2023-07-20T16:39:06.534Z,recommendationservice-12,memory,541511680
2023-07-20T16:39:06.775Z,currencyservice,memory,489472000
2023-07-20T16:39:06.815Z,paymentservice,memory,498315264
2023-07-20T16:39:07.449Z,emailservice,memory,547991552
2023-07-20T16:39:07.661Z,checkoutservice,memory,528375808
2023-07-20T16:39:11.225Z,recommendationservice-16,memory,510017536
2023-07-20T16:39:11.306Z,adservice,memory,823922688
2023-07-20T16:39:11.449Z,productcatalogservice,memory,520462336
2023-07-20T16:39:11.425Z,recommendationservice-3,memory,546689024
2023-07-20T16:39:12.248Z,recommendationservice-8,memory,516739072
2023-07-20T16:39:12.425Z,recommendationservice-1,memory,546033664
2023-07-20T16:39:13.330Z,recommendationservice-2,memory,551084032
2023-07-20T16:39:13.473Z,recommendationservice-11,memory,549109760
2023-07-20T16:39:13.564Z,recommendationservice-14,memory,544423936
2023-07-20T16:39:13.675Z,recommendationservice-13,memory,523493376
2023-07-20T16:39:13.697Z,recommendationservice-5,memory,548536320
2023-07-20T16:39:14.005Z,recommendationservice-9,memory,546902016
2023-07-20T16:39:14.633Z,probe-holder,memory,532680704
2023-07-20T16:39:14.956Z,recommendationservice-6,memory,534679552
2023-07-20T16:39:15.118Z,recommendationservice-15,memory,536846336
2023-07-20T16:39:15.087Z,recommendationservice-10,memory,558530560
2023-07-20T16:39:16.024Z,shippingservice,memory,518356992
2023-07-20T16:39:15.828Z,recommendationservice-4,memory,539811840
2023-07-20T16:39:16.226Z,recommendationservice-7,memory,540164096
2023-07-20T16:39:16.446Z,cartservice,memory,506400768
2023-07-20T16:39:16.534Z,recommendationservice-12,memory,541503488
2023-07-20T16:39:16.775Z,currencyservice,memory,489459712
2023-07-20T16:39:16.813Z,paymentservice,memory,498298880
2023-07-20T16:39:17.449Z,emailservice,memory,547983360
2023-07-20T16:39:17.661Z,checkoutservice,memory,528359424
2023-07-20T16:39:21.225Z,recommendationservice-16,memory,510009344
2023-07-20T16:39:21.306Z,adservice,memory,823902208
2023-07-20T16:39:21.449Z,productcatalogservice,memory,520445952
2023-07-20T16:39:21.426Z,recommendationservice-3,memory,546680832
2023-07-20T16:39:22.247Z,recommendationservice-8,memory,516722688
2023-07-20T16:39:22.425Z,recommendationservice-1,memory,546017280
2023-07-20T16:39:23.330Z,recommendationservice-2,memory,551075840
2023-07-20T16:39:23.473Z,recommendationservice-11,memory,549101568
2023-07-20T16:39:23.564Z,recommendationservice-14,memory,544415744
2023-07-20T16:39:23.675Z,recommendationservice-13,memory,523476992
2023-07-20T16:39:23.697Z,recommendationservice-5,memory,548524032
2023-07-20T16:39:24.005Z,recommendationservice-9,memory,546885632
2023-07-20T16:39:24.633Z,probe-holder,memory,532668416
2023-07-20T16:39:24.956Z,recommendationservice-6,memory,534663168
2023-07-20T16:39:25.118Z,recommendationservice-15,memory,536829952
2023-07-20T16:39:25.087Z,recommendationservice-10,memory,558514176
2023-07-20T16:39:26.024Z,shippingservice,memory,518348800
2023-07-20T16:39:25.828Z,recommendationservice-4,memory,539807744
2023-07-20T16:39:26.227Z,recommendationservice-7,memory,540536832
2023-07-20T16:39:26.446Z,cartservice,memory,506388480
2023-07-20T16:39:26.534Z,recommendationservice-12,memory,541487104
2023-07-20T16:39:26.775Z,currencyservice,memory,489443328
2023-07-20T16:39:26.813Z,paymentservice,memory,498290688
2023-07-20T16:39:27.449Z,emailservice,memory,547962880
2023-07-20T16:39:27.661Z,checkoutservice,memory,528351232
2023-07-20T16:39:31.225Z,recommendationservice-16,memory,509992960
2023-07-20T16:39:31.307Z,adservice,memory,823894016
2023-07-20T16:39:31.449Z,productcatalogservice,memory,520437760
2023-07-20T16:39:31.425Z,recommendationservice-3,memory,546652160
2023-07-20T16:39:32.247Z,recommendationservice-8,memory,516706304
2023-07-20T16:39:32.425Z,recommendationservice-1,memory,546000896
2023-07-20T16:39:33.330Z,recommendationservice-2,memory,551055360
2023-07-20T16:39:33.473Z,recommendationservice-11,memory,549081088
2023-07-20T16:39:33.564Z,recommendationservice-14,memory,544395264
2023-07-20T16:39:33.675Z,recommendationservice-13,memory,523329536
2023-07-20T16:39:33.697Z,recommendationservice-5,memory,548507648
2023-07-20T16:39:34.005Z,recommendationservice-9,memory,546869248
2023-07-20T16:39:34.633Z,probe-holder,memory,532660224
2023-07-20T16:39:34.956Z,recommendationservice-6,memory,534642688
2023-07-20T16:39:35.118Z,recommendationservice-15,memory,536821760
2023-07-20T16:39:35.087Z,recommendationservice-10,memory,558501888
2023-07-20T16:39:36.024Z,shippingservice,memory,518332416
2023-07-20T16:39:35.828Z,recommendationservice-4,memory,539787264
2023-07-20T16:39:36.226Z,recommendationservice-7,memory,540520448
2023-07-20T16:39:36.446Z,cartservice,memory,506122240
2023-07-20T16:39:36.534Z,recommendationservice-12,memory,541470720
2023-07-20T16:39:36.775Z,currencyservice,memory,489426944
2023-07-20T16:39:36.813Z,paymentservice,memory,498274304
2023-07-20T16:39:37.449Z,emailservice,memory,547946496
2023-07-20T16:39:37.661Z,checkoutservice,memory,528330752
2023-07-20T16:39:41.225Z,recommendationservice-16,memory,509980672
2023-07-20T16:39:41.307Z,adservice,memory,823857152
2023-07-20T16:39:41.449Z,productcatalogservice,memory,520409088
2023-07-20T16:39:41.425Z,recommendationservice-3,memory,546635776
2023-07-20T16:39:42.247Z,recommendationservice-8,memory,516698112
2023-07-20T16:39:42.425Z,recommendationservice-1,memory,545992704
2023-07-20T16:39:43.330Z,recommendationservice-2,memory,551034880
2023-07-20T16:39:43.473Z,recommendationservice-11,memory,549122048
2023-07-20T16:39:43.564Z,recommendationservice-14,memory,544387072
2023-07-20T16:39:43.675Z,recommendationservice-13,memory,523841536
2023-07-20T16:39:43.697Z,recommendationservice-5,memory,548491264
2023-07-20T16:39:44.005Z,recommendationservice-9,memory,546861056
2023-07-20T16:39:44.633Z,probe-holder,memory,532647936
2023-07-20T16:39:44.956Z,recommendationservice-6,memory,534618112
2023-07-20T16:39:45.118Z,recommendationservice-15,memory,536793088
2023-07-20T16:39:45.087Z,recommendationservice-10,memory,558485504
2023-07-20T16:39:46.024Z,shippingservice,memory,518316032
2023-07-20T16:39:45.828Z,recommendationservice-4,memory,539770880
2023-07-20T16:39:46.226Z,recommendationservice-7,memory,540565504
2023-07-20T16:39:46.446Z,cartservice,memory,506105856
2023-07-20T16:39:46.534Z,recommendationservice-12,memory,541462528
2023-07-20T16:39:46.775Z,currencyservice,memory,489418752
2023-07-20T16:39:46.813Z,paymentservice,memory,498266112
2023-07-20T16:39:47.449Z,emailservice,memory,547938304
2023-07-20T16:39:47.661Z,checkoutservice,memory,528314368
2023-07-20T16:39:51.226Z,recommendationservice-16,memory,510488576
2023-07-20T16:39:51.308Z,adservice,memory,823848960
2023-07-20T16:39:51.449Z,productcatalogservice,memory,520392704
2023-07-20T16:39:51.425Z,recommendationservice-3,memory,546627584
2023-07-20T16:39:52.247Z,recommendationservice-8,memory,516677632
2023-07-20T16:39:52.425Z,recommendationservice-1,memory,545955840
2023-07-20T16:39:53.329Z,recommendationservice-2,memory,551026688
2023-07-20T16:39:53.473Z,recommendationservice-11,memory,549113856
2023-07-20T16:39:53.566Z,recommendationservice-14,memory,544370688
2023-07-20T16:39:53.675Z,recommendationservice-13,memory,524537856
2023-07-20T16:39:53.697Z,recommendationservice-5,memory,548478976
2023-07-20T16:39:54.005Z,recommendationservice-9,memory,546844672
2023-07-20T16:39:54.633Z,probe-holder,memory,532631552
2023-07-20T16:39:54.956Z,recommendationservice-6,memory,534605824
2023-07-20T16:39:55.119Z,recommendationservice-15,memory,536776704
2023-07-20T16:39:55.087Z,recommendationservice-10,memory,558469120
2023-07-20T16:39:56.025Z,shippingservice,memory,518303744
2023-07-20T16:39:55.828Z,recommendationservice-4,memory,539762688
2023-07-20T16:39:56.227Z,recommendationservice-7,memory,541085696
2023-07-20T16:39:56.446Z,cartservice,memory,506097664
2023-07-20T16:39:56.534Z,recommendationservice-12,memory,541433856
2023-07-20T16:39:56.775Z,currencyservice,memory,489238528
2023-07-20T16:39:56.813Z,paymentservice,memory,498249728
2023-07-20T16:39:57.449Z,emailservice,memory,547917824
2023-07-20T16:39:57.661Z,checkoutservice,memory,528306176
2023-07-20T16:40:01.225Z,recommendationservice-16,memory,510472192
2023-07-20T16:40:01.306Z,adservice,memory,824573952
2023-07-20T16:40:01.449Z,productcatalogservice,memory,520384512
2023-07-20T16:40:01.426Z,recommendationservice-3,memory,546611200
2023-07-20T16:40:02.247Z,recommendationservice-8,memory,516661248
2023-07-20T16:40:02.425Z,recommendationservice-1,memory,545939456
2023-07-20T16:40:03.329Z,recommendationservice-2,memory,551010304
2023-07-20T16:40:03.473Z,recommendationservice-11,memory,549101568
2023-07-20T16:40:03.564Z,recommendationservice-14,memory,544354304
2023-07-20T16:40:03.675Z,recommendationservice-13,memory,524517376
2023-07-20T16:40:03.697Z,recommendationservice-5,memory,548462592
2023-07-20T16:40:04.005Z,recommendationservice-9,memory,546832384
2023-07-20T16:40:04.633Z,probe-holder,memory,532619264
2023-07-20T16:40:04.956Z,recommendationservice-6,memory,534593536
2023-07-20T16:40:05.118Z,recommendationservice-15,memory,536760320
2023-07-20T16:40:05.087Z,recommendationservice-10,memory,558460928
2023-07-20T16:40:06.024Z,shippingservice,memory,518287360
2023-07-20T16:40:05.828Z,recommendationservice-4,memory,539729920
2023-07-20T16:40:06.227Z,recommendationservice-7,memory,540954624
2023-07-20T16:40:06.446Z,cartservice,memory,506077184
2023-07-20T16:40:06.534Z,recommendationservice-12,memory,541425664
2023-07-20T16:40:06.775Z,currencyservice,memory,489222144
2023-07-20T16:40:06.813Z,paymentservice,memory,498233344
2023-07-20T16:40:07.449Z,emailservice,memory,547901440
2023-07-20T16:40:07.661Z,checkoutservice,memory,528285696
2023-07-20T16:40:11.225Z,recommendationservice-16,memory,510451712
2023-07-20T16:40:11.306Z,adservice,memory,824201216
2023-07-20T16:40:11.449Z,productcatalogservice,memory,520368128
2023-07-20T16:40:11.425Z,recommendationservice-3,memory,546598912
2023-07-20T16:40:12.247Z,recommendationservice-8,memory,516653056
2023-07-20T16:40:12.425Z,recommendationservice-1,memory,545931264
2023-07-20T16:40:13.330Z,recommendationservice-2,memory,550993920
2023-07-20T16:40:13.473Z,recommendationservice-11,memory,549163008
2023-07-20T16:40:13.564Z,recommendationservice-14,memory,544342016
2023-07-20T16:40:13.675Z,recommendationservice-13,memory,525025280
2023-07-20T16:40:13.697Z,recommendationservice-5,memory,548446208
2023-07-20T16:40:14.005Z,recommendationservice-9,memory,546816000
2023-07-20T16:40:14.633Z,probe-holder,memory,532611072
2023-07-20T16:40:14.956Z,recommendationservice-6,memory,534585344
2023-07-20T16:40:15.118Z,recommendationservice-15,memory,536752128
2023-07-20T16:40:15.087Z,recommendationservice-10,memory,558440448
2023-07-20T16:40:16.024Z,shippingservice,memory,518270976
2023-07-20T16:40:15.828Z,recommendationservice-4,memory,539639808
2023-07-20T16:40:16.226Z,recommendationservice-7,memory,540938240
2023-07-20T16:40:16.446Z,cartservice,memory,506056704
2023-07-20T16:40:16.534Z,recommendationservice-12,memory,541405184
2023-07-20T16:40:16.775Z,currencyservice,memory,489213952
2023-07-20T16:40:16.813Z,paymentservice,memory,498225152
2023-07-20T16:40:17.449Z,emailservice,memory,547893248
2023-07-20T16:40:17.661Z,checkoutservice,memory,528277504
2023-07-20T16:40:21.225Z,recommendationservice-16,memory,510447616
2023-07-20T16:40:21.308Z,adservice,memory,824188928
2023-07-20T16:40:21.449Z,productcatalogservice,memory,520351744
2023-07-20T16:40:21.425Z,recommendationservice-3,memory,546590720
2023-07-20T16:40:22.247Z,recommendationservice-8,memory,516636672
2023-07-20T16:40:22.425Z,recommendationservice-1,memory,545914880
2023-07-20T16:40:23.329Z,recommendationservice-2,memory,550981632
2023-07-20T16:40:23.473Z,recommendationservice-11,memory,549154816
2023-07-20T16:40:23.564Z,recommendationservice-14,memory,544325632
2023-07-20T16:40:23.675Z,recommendationservice-13,memory,525008896
2023-07-20T16:40:23.697Z,recommendationservice-5,memory,548438016
2023-07-20T16:40:24.005Z,recommendationservice-9,memory,546799616
2023-07-20T16:40:24.633Z,probe-holder,memory,532602880
2023-07-20T16:40:24.956Z,recommendationservice-6,memory,534564864
2023-07-20T16:40:25.118Z,recommendationservice-15,memory,536735744
2023-07-20T16:40:25.087Z,recommendationservice-10,memory,558424064
2023-07-20T16:40:26.025Z,shippingservice,memory,518262784
2023-07-20T16:40:25.828Z,recommendationservice-4,memory,539607040
2023-07-20T16:40:26.227Z,recommendationservice-7,memory,540958720
2023-07-20T16:40:26.446Z,cartservice,memory,506048512
2023-07-20T16:40:26.534Z,recommendationservice-12,memory,541388800
2023-07-20T16:40:26.775Z,currencyservice,memory,489197568
2023-07-20T16:40:26.813Z,paymentservice,memory,498204672
2023-07-20T16:40:27.449Z,emailservice,memory,547831808
2023-07-20T16:40:27.661Z,checkoutservice,memory,528261120
2023-07-20T16:40:31.225Z,recommendationservice-16,memory,510431232
2023-07-20T16:40:31.308Z,adservice,memory,805318656
2023-07-20T16:40:31.449Z,productcatalogservice,memory,520253440
2023-07-20T16:40:31.425Z,recommendationservice-3,memory,546570240
2023-07-20T16:40:32.247Z,recommendationservice-8,memory,516620288
2023-07-20T16:40:32.425Z,recommendationservice-1,memory,545894400
2023-07-20T16:40:33.329Z,recommendationservice-2,memory,550961152
2023-07-20T16:40:33.473Z,recommendationservice-11,memory,546598912
2023-07-20T16:40:33.564Z,recommendationservice-14,memory,544309248
2023-07-20T16:40:33.675Z,recommendationservice-13,memory,524996608
2023-07-20T16:40:33.697Z,recommendationservice-5,memory,548417536
2023-07-20T16:40:34.005Z,recommendationservice-9,memory,546791424
2023-07-20T16:40:34.633Z,probe-holder,memory,532586496
2023-07-20T16:40:34.956Z,recommendationservice-6,memory,534548480
2023-07-20T16:40:35.118Z,recommendationservice-15,memory,536723456
2023-07-20T16:40:35.087Z,recommendationservice-10,memory,558415872
2023-07-20T16:40:36.025Z,shippingservice,memory,518246400
2023-07-20T16:40:35.831Z,recommendationservice-4,memory,539590656
2023-07-20T16:40:36.226Z,recommendationservice-7,memory,540999680
2023-07-20T16:40:36.446Z,cartservice,memory,506032128
2023-07-20T16:40:36.534Z,recommendationservice-12,memory,541380608
2023-07-20T16:40:36.775Z,currencyservice,memory,489177088
2023-07-20T16:40:36.813Z,paymentservice,memory,498188288
2023-07-20T16:40:37.449Z,emailservice,memory,547811328
2023-07-20T16:40:37.661Z,checkoutservice,memory,528244736
2023-07-20T16:40:41.225Z,recommendationservice-16,memory,510414848
2023-07-20T16:40:41.307Z,adservice,memory,805298176
2023-07-20T16:40:41.449Z,productcatalogservice,memory,520237056
2023-07-20T16:40:41.425Z,recommendationservice-3,memory,546512896
2023-07-20T16:40:42.247Z,recommendationservice-8,memory,516603904
2023-07-20T16:40:42.425Z,recommendationservice-1,memory,545886208
2023-07-20T16:40:43.329Z,recommendationservice-2,memory,550944768
2023-07-20T16:40:43.473Z,recommendationservice-11,memory,547250176
2023-07-20T16:40:43.564Z,recommendationservice-14,memory,544296960
2023-07-20T16:40:43.675Z,recommendationservice-13,memory,526757888
2023-07-20T16:40:43.697Z,recommendationservice-5,memory,548401152
2023-07-20T16:40:44.005Z,recommendationservice-9,memory,546770944
2023-07-20T16:40:44.633Z,probe-holder,memory,532578304
2023-07-20T16:40:44.956Z,recommendationservice-6,memory,534540288
2023-07-20T16:40:45.118Z,recommendationservice-15,memory,536707072
2023-07-20T16:40:45.087Z,recommendationservice-10,memory,558399488
2023-07-20T16:40:46.024Z,shippingservice,memory,518238208
2023-07-20T16:40:45.828Z,recommendationservice-4,memory,539574272
2023-07-20T16:40:46.226Z,recommendationservice-7,memory,540983296
2023-07-20T16:40:46.446Z,cartservice,memory,506015744
2023-07-20T16:40:46.534Z,recommendationservice-12,memory,541364224
2023-07-20T16:40:46.775Z,currencyservice,memory,489168896
2023-07-20T16:40:46.813Z,paymentservice,memory,498180096
2023-07-20T16:40:47.449Z,emailservice,memory,547803136
2023-07-20T16:40:47.661Z,checkoutservice,memory,528236544
2023-07-20T16:40:51.225Z,recommendationservice-16,memory,510406656
2023-07-20T16:40:51.307Z,adservice,memory,805289984
2023-07-20T16:40:51.449Z,productcatalogservice,memory,520228864
2023-07-20T16:40:51.426Z,recommendationservice-3,memory,546504704
2023-07-20T16:40:52.247Z,recommendationservice-8,memory,516460544
2023-07-20T16:40:52.425Z,recommendationservice-1,memory,545869824
2023-07-20T16:40:53.330Z,recommendationservice-2,memory,550936576
2023-07-20T16:40:53.473Z,recommendationservice-11,memory,548384768
2023-07-20T16:40:53.564Z,recommendationservice-14,memory,544280576
2023-07-20T16:40:53.675Z,recommendationservice-13,memory,526733312
2023-07-20T16:40:53.697Z,recommendationservice-5,memory,548392960
2023-07-20T16:40:54.005Z,recommendationservice-9,memory,546754560
2023-07-20T16:40:54.633Z,probe-holder,memory,532561920
2023-07-20T16:40:54.956Z,recommendationservice-6,memory,534523904
2023-07-20T16:40:55.118Z,recommendationservice-15,memory,536690688
2023-07-20T16:40:55.087Z,recommendationservice-10,memory,558391296
2023-07-20T16:40:56.025Z,shippingservice,memory,518217728
2023-07-20T16:40:55.828Z,recommendationservice-4,memory,539566080
2023-07-20T16:40:56.227Z,recommendationservice-7,memory,541507584
2023-07-20T16:40:56.446Z,cartservice,memory,506003456
2023-07-20T16:40:56.534Z,recommendationservice-12,memory,541347840
2023-07-20T16:40:56.775Z,currencyservice,memory,489152512
2023-07-20T16:40:56.813Z,paymentservice,memory,498163712
2023-07-20T16:40:57.449Z,emailservice,memory,547786752
2023-07-20T16:40:57.661Z,checkoutservice,memory,528220160
2023-07-20T16:41:01.226Z,recommendationservice-16,memory,510386176
2023-07-20T16:41:01.306Z,adservice,memory,805269504
2023-07-20T16:41:01.449Z,productcatalogservice,memory,520212480
2023-07-20T16:41:02.247Z,recommendationservice-8,memory,516444160
2023-07-20T16:41:01.426Z,recommendationservice-3,memory,546488320
2023-07-20T16:41:02.425Z,recommendationservice-1,memory,545816576
2023-07-20T16:41:03.329Z,recommendationservice-2,memory,550916096
2023-07-20T16:41:03.473Z,recommendationservice-11,memory,549777408
2023-07-20T16:41:03.564Z,recommendationservice-14,memory,544260096
2023-07-20T16:41:03.675Z,recommendationservice-13,memory,526647296
2023-07-20T16:41:03.697Z,recommendationservice-5,memory,548376576
2023-07-20T16:41:04.005Z,recommendationservice-9,memory,546746368
2023-07-20T16:41:04.633Z,probe-holder,memory,532549632
2023-07-20T16:41:04.956Z,recommendationservice-6,memory,534437888
2023-07-20T16:41:05.118Z,recommendationservice-15,memory,536682496
2023-07-20T16:41:05.087Z,recommendationservice-10,memory,558370816
2023-07-20T16:41:06.025Z,shippingservice,memory,518201344
2023-07-20T16:41:05.828Z,recommendationservice-4,memory,539549696
2023-07-20T16:41:06.226Z,recommendationservice-7,memory,541491200
2023-07-20T16:41:06.446Z,cartservice,memory,505982976
2023-07-20T16:41:06.534Z,recommendationservice-12,memory,541327360
2023-07-20T16:41:06.775Z,currencyservice,memory,489054208
2023-07-20T16:41:06.813Z,paymentservice,memory,498147328
2023-07-20T16:41:07.449Z,emailservice,memory,547770368
2023-07-20T16:41:07.661Z,checkoutservice,memory,528199680
2023-07-20T16:41:11.225Z,recommendationservice-16,memory,510369792
2023-07-20T16:41:11.308Z,adservice,memory,805261312
2023-07-20T16:41:11.449Z,productcatalogservice,memory,520167424
2023-07-20T16:41:11.426Z,recommendationservice-3,memory,546467840
2023-07-20T16:41:12.247Z,recommendationservice-8,memory,516435968
2023-07-20T16:41:12.425Z,recommendationservice-1,memory,545804288
2023-07-20T16:41:13.329Z,recommendationservice-2,memory,550895616
2023-07-20T16:41:13.473Z,recommendationservice-11,memory,550301696
2023-07-20T16:41:13.566Z,recommendationservice-14,memory,544243712
2023-07-20T16:41:13.675Z,recommendationservice-13,memory,526897152
2023-07-20T16:41:13.698Z,recommendationservice-5,memory,548360192
2023-07-20T16:41:14.005Z,recommendationservice-9,memory,546729984
2023-07-20T16:41:14.633Z,probe-holder,memory,532537344
2023-07-20T16:41:14.956Z,recommendationservice-6,memory,534429696
2023-07-20T16:41:15.118Z,recommendationservice-15,memory,536662016
2023-07-20T16:41:15.087Z,recommendationservice-10,memory,558354432
2023-07-20T16:41:16.024Z,shippingservice,memory,518193152
2023-07-20T16:41:15.828Z,recommendationservice-4,memory,539533312
2023-07-20T16:41:16.226Z,recommendationservice-7,memory,541474816
2023-07-20T16:41:16.446Z,cartservice,memory,505966592
2023-07-20T16:41:16.534Z,recommendationservice-12,memory,541319168
2023-07-20T16:41:16.775Z,currencyservice,memory,489046016
2023-07-20T16:41:16.813Z,paymentservice,memory,498139136
2023-07-20T16:41:17.449Z,emailservice,memory,547762176
2023-07-20T16:41:17.661Z,checkoutservice,memory,528191488
2023-07-20T16:41:21.226Z,recommendationservice-16,memory,510361600
2023-07-20T16:41:21.306Z,adservice,memory,805240832
2023-07-20T16:41:21.449Z,productcatalogservice,memory,520159232
2023-07-20T16:41:21.426Z,recommendationservice-3,memory,546459648
2023-07-20T16:41:22.247Z,recommendationservice-8,memory,516411392
2023-07-20T16:41:22.425Z,recommendationservice-1,memory,545726464
2023-07-20T16:41:23.329Z,recommendationservice-2,memory,550887424
2023-07-20T16:41:23.473Z,recommendationservice-11,memory,550293504
2023-07-20T16:41:23.564Z,recommendationservice-14,memory,544235520
2023-07-20T16:41:23.675Z,recommendationservice-13,memory,526880768
2023-07-20T16:41:23.697Z,recommendationservice-5,memory,548352000
2023-07-20T16:41:24.005Z,recommendationservice-9,memory,546713600
2023-07-20T16:41:24.633Z,probe-holder,memory,532525056
2023-07-20T16:41:24.956Z,recommendationservice-6,memory,534413312
2023-07-20T16:41:25.118Z,recommendationservice-15,memory,536645632
2023-07-20T16:41:25.087Z,recommendationservice-10,memory,558346240
2023-07-20T16:41:26.025Z,shippingservice,memory,518176768
2023-07-20T16:41:25.828Z,recommendationservice-4,memory,539525120
2023-07-20T16:41:26.227Z,recommendationservice-7,memory,541847552
2023-07-20T16:41:26.446Z,cartservice,memory,506200064
2023-07-20T16:41:26.534Z,recommendationservice-12,memory,541302784
2023-07-20T16:41:26.775Z,currencyservice,memory,489029632
2023-07-20T16:41:26.813Z,paymentservice,memory,498122752
2023-07-20T16:41:27.449Z,emailservice,memory,547745792
2023-07-20T16:41:27.661Z,checkoutservice,memory,528117760
2023-07-20T16:41:31.225Z,recommendationservice-16,memory,510345216
2023-07-20T16:41:31.307Z,adservice,memory,805224448
2023-07-20T16:41:31.449Z,productcatalogservice,memory,520142848
2023-07-20T16:41:31.425Z,recommendationservice-3,memory,546443264
2023-07-20T16:41:32.247Z,recommendationservice-8,memory,516390912
2023-07-20T16:41:32.425Z,recommendationservice-1,memory,545677312
2023-07-20T16:41:33.330Z,recommendationservice-2,memory,550871040
2023-07-20T16:41:33.473Z,recommendationservice-11,memory,550240256
2023-07-20T16:41:33.566Z,recommendationservice-14,memory,544219136
2023-07-20T16:41:33.675Z,recommendationservice-13,memory,526876672
2023-07-20T16:41:33.697Z,recommendationservice-5,memory,548331520
2023-07-20T16:41:34.005Z,recommendationservice-9,memory,546697216
2023-07-20T16:41:34.633Z,probe-holder,memory,532291584
2023-07-20T16:41:34.956Z,recommendationservice-6,memory,534396928
2023-07-20T16:41:35.118Z,recommendationservice-15,memory,536637440
2023-07-20T16:41:35.087Z,recommendationservice-10,memory,558313472
2023-07-20T16:41:36.025Z,shippingservice,memory,518156288
2023-07-20T16:41:35.828Z,recommendationservice-4,memory,539508736
2023-07-20T16:41:36.226Z,recommendationservice-7,memory,541831168
2023-07-20T16:41:36.446Z,cartservice,memory,506183680
2023-07-20T16:41:36.534Z,recommendationservice-12,memory,541282304
2023-07-20T16:41:36.775Z,currencyservice,memory,489013248
2023-07-20T16:41:36.813Z,paymentservice,memory,498106368
2023-07-20T16:41:37.449Z,emailservice,memory,547725312
2023-07-20T16:41:37.661Z,checkoutservice,memory,528101376
2023-07-20T16:41:41.225Z,recommendationservice-16,memory,510324736
2023-07-20T16:41:41.306Z,adservice,memory,803196928
2023-07-20T16:41:41.449Z,productcatalogservice,memory,520126464
2023-07-20T16:41:41.425Z,recommendationservice-3,memory,546426880
2023-07-20T16:41:42.247Z,recommendationservice-8,memory,516382720
2023-07-20T16:41:42.425Z,recommendationservice-1,memory,545669120
2023-07-20T16:41:43.330Z,recommendationservice-2,memory,550854656
2023-07-20T16:41:43.473Z,recommendationservice-11,memory,509923328
2023-07-20T16:41:43.564Z,recommendationservice-14,memory,544210944
2023-07-20T16:41:43.676Z,recommendationservice-13,memory,526860288
2023-07-20T16:41:43.697Z,recommendationservice-5,memory,548315136
2023-07-20T16:41:44.005Z,recommendationservice-9,memory,546676736
2023-07-20T16:41:44.633Z,probe-holder,memory,532271104
2023-07-20T16:41:44.956Z,recommendationservice-6,memory,534388736
2023-07-20T16:41:45.118Z,recommendationservice-15,memory,536621056
2023-07-20T16:41:45.087Z,recommendationservice-10,memory,558305280
2023-07-20T16:41:46.024Z,shippingservice,memory,518148096
2023-07-20T16:41:45.828Z,recommendationservice-4,memory,539488256
2023-07-20T16:41:46.226Z,recommendationservice-7,memory,540372992
2023-07-20T16:41:46.446Z,cartservice,memory,506175488
2023-07-20T16:41:46.534Z,recommendationservice-12,memory,541274112
2023-07-20T16:41:46.775Z,currencyservice,memory,489005056
2023-07-20T16:41:46.813Z,paymentservice,memory,498098176
2023-07-20T16:41:47.449Z,emailservice,memory,547717120
2023-07-20T16:41:47.661Z,checkoutservice,memory,528093184
2023-07-20T16:41:51.225Z,recommendationservice-16,memory,510574592
2023-07-20T16:41:51.306Z,adservice,memory,803434496
2023-07-20T16:41:51.449Z,productcatalogservice,memory,520118272
2023-07-20T16:41:51.425Z,recommendationservice-3,memory,546418688
2023-07-20T16:41:52.247Z,recommendationservice-8,memory,516366336
2023-07-20T16:41:52.425Z,recommendationservice-1,memory,545652736
2023-07-20T16:41:53.330Z,recommendationservice-2,memory,550846464
2023-07-20T16:41:53.473Z,recommendationservice-11,memory,509915136
2023-07-20T16:41:53.566Z,recommendationservice-14,memory,544129024
2023-07-20T16:41:53.675Z,recommendationservice-13,memory,526843904
2023-07-20T16:41:53.697Z,recommendationservice-5,memory,548290560
2023-07-20T16:41:54.005Z,recommendationservice-9,memory,546660352
2023-07-20T16:41:54.633Z,probe-holder,memory,532258816
2023-07-20T16:41:54.956Z,recommendationservice-6,memory,534372352
2023-07-20T16:41:55.118Z,recommendationservice-15,memory,536514560
2023-07-20T16:41:55.086Z,recommendationservice-10,memory,558284800
2023-07-20T16:41:56.024Z,shippingservice,memory,518131712
2023-07-20T16:41:55.828Z,recommendationservice-4,memory,539480064
2023-07-20T16:41:56.227Z,recommendationservice-7,memory,540356608
2023-07-20T16:41:56.446Z,cartservice,memory,506159104
2023-07-20T16:41:56.534Z,recommendationservice-12,memory,541196288
2023-07-20T16:41:56.775Z,currencyservice,memory,488968192
2023-07-20T16:41:56.813Z,paymentservice,memory,498081792
2023-07-20T16:41:57.449Z,emailservice,memory,547700736
2023-07-20T16:41:57.661Z,checkoutservice,memory,528076800
2023-07-20T16:42:01.225Z,recommendationservice-16,memory,510558208
2023-07-20T16:42:01.307Z,adservice,memory,804966400
2023-07-20T16:42:01.425Z,recommendationservice-3,memory,546398208
2023-07-20T16:42:01.449Z,productcatalogservice,memory,520097792
2023-07-20T16:42:02.247Z,recommendationservice-8,memory,516349952
2023-07-20T16:42:02.425Z,recommendationservice-1,memory,545636352
2023-07-20T16:42:03.329Z,recommendationservice-2,memory,550690816
2023-07-20T16:42:03.473Z,recommendationservice-11,memory,509894656
2023-07-20T16:42:03.564Z,recommendationservice-14,memory,544108544
2023-07-20T16:42:03.675Z,recommendationservice-13,memory,526831616
2023-07-20T16:42:03.697Z,recommendationservice-5,memory,548274176
2023-07-20T16:42:04.005Z,recommendationservice-9,memory,546652160
2023-07-20T16:42:04.633Z,probe-holder,memory,532242432
2023-07-20T16:42:04.956Z,recommendationservice-6,memory,534351872
2023-07-20T16:42:05.118Z,recommendationservice-15,memory,536502272
2023-07-20T16:42:05.087Z,recommendationservice-10,memory,558276608
2023-07-20T16:42:06.024Z,shippingservice,memory,518115328
2023-07-20T16:42:05.828Z,recommendationservice-4,memory,539463680
2023-07-20T16:42:06.226Z,recommendationservice-7,memory,540336128
2023-07-20T16:42:06.446Z,cartservice,memory,506138624
2023-07-20T16:42:06.534Z,recommendationservice-12,memory,541151232
2023-07-20T16:42:06.775Z,currencyservice,memory,488951808
2023-07-20T16:42:06.813Z,paymentservice,memory,498065408
2023-07-20T16:42:07.449Z,emailservice,memory,547684352
2023-07-20T16:42:07.661Z,checkoutservice,memory,528039936
2023-07-20T16:42:11.225Z,recommendationservice-16,memory,510550016
2023-07-20T16:42:11.307Z,adservice,memory,806477824
2023-07-20T16:42:11.449Z,productcatalogservice,memory,520081408
2023-07-20T16:42:11.425Z,recommendationservice-3,memory,546381824
2023-07-20T16:42:12.247Z,recommendationservice-8,memory,516341760
2023-07-20T16:42:12.425Z,recommendationservice-1,memory,545628160
2023-07-20T16:42:13.330Z,recommendationservice-2,memory,550674432
2023-07-20T16:42:13.473Z,recommendationservice-11,memory,510648320
2023-07-20T16:42:13.564Z,recommendationservice-14,memory,544100352
2023-07-20T16:42:13.675Z,recommendationservice-13,memory,526815232
2023-07-20T16:42:13.697Z,recommendationservice-5,memory,548265984
2023-07-20T16:42:14.005Z,recommendationservice-9,memory,546635776
2023-07-20T16:42:14.633Z,probe-holder,memory,532234240
2023-07-20T16:42:14.956Z,recommendationservice-6,memory,534343680
2023-07-20T16:42:15.118Z,recommendationservice-15,memory,536309760
2023-07-20T16:42:15.087Z,recommendationservice-10,memory,558260224
2023-07-20T16:42:16.024Z,shippingservice,memory,518107136
2023-07-20T16:42:15.828Z,recommendationservice-4,memory,539447296
2023-07-20T16:42:16.227Z,recommendationservice-7,memory,540884992
2023-07-20T16:42:16.446Z,cartservice,memory,506122240
2023-07-20T16:42:16.534Z,recommendationservice-12,memory,541143040
2023-07-20T16:42:16.776Z,currencyservice,memory,488943616
2023-07-20T16:42:16.813Z,paymentservice,memory,498053120
2023-07-20T16:42:17.449Z,emailservice,memory,547676160
2023-07-20T16:42:17.661Z,checkoutservice,memory,528035840
2023-07-20T16:42:21.225Z,recommendationservice-16,memory,510533632
2023-07-20T16:42:21.307Z,adservice,memory,806948864
2023-07-20T16:42:21.449Z,productcatalogservice,memory,520073216
2023-07-20T16:42:21.425Z,recommendationservice-3,memory,546373632
2023-07-20T16:42:22.247Z,recommendationservice-8,memory,516321280
2023-07-20T16:42:22.425Z,recommendationservice-1,memory,545538048
2023-07-20T16:42:23.330Z,recommendationservice-2,memory,550666240
2023-07-20T16:42:23.473Z,recommendationservice-11,memory,510640128
2023-07-20T16:42:23.564Z,recommendationservice-14,memory,544083968
2023-07-20T16:42:23.675Z,recommendationservice-13,memory,526807040
2023-07-20T16:42:23.697Z,recommendationservice-5,memory,548245504
2023-07-20T16:42:24.005Z,recommendationservice-9,memory,546619392
2023-07-20T16:42:24.633Z,probe-holder,memory,532217856
2023-07-20T16:42:24.956Z,recommendationservice-6,memory,534327296
2023-07-20T16:42:25.118Z,recommendationservice-15,memory,536301568
2023-07-20T16:42:25.087Z,recommendationservice-10,memory,558252032
2023-07-20T16:42:26.024Z,shippingservice,memory,518086656
2023-07-20T16:42:25.828Z,recommendationservice-4,memory,539439104
2023-07-20T16:42:26.227Z,recommendationservice-7,memory,541143040
2023-07-20T16:42:26.446Z,cartservice,memory,506105856
2023-07-20T16:42:26.534Z,recommendationservice-12,memory,541122560
2023-07-20T16:42:26.775Z,currencyservice,memory,488919040
2023-07-20T16:42:26.813Z,paymentservice,memory,497909760
2023-07-20T16:42:27.449Z,emailservice,memory,547655680
2023-07-20T16:42:27.661Z,checkoutservice,memory,528019456
2023-07-20T16:42:31.226Z,recommendationservice-16,memory,510513152
2023-07-20T16:42:31.306Z,adservice,memory,806821888
2023-07-20T16:42:31.425Z,recommendationservice-3,memory,546357248
2023-07-20T16:42:32.247Z,recommendationservice-8,memory,516304896
2023-07-20T16:42:31.449Z,productcatalogservice,memory,520056832
2023-07-20T16:42:32.425Z,recommendationservice-1,memory,545390592
2023-07-20T16:42:33.330Z,recommendationservice-2,memory,550641664
2023-07-20T16:42:33.473Z,recommendationservice-11,memory,509575168
2023-07-20T16:42:33.566Z,recommendationservice-14,memory,544067584
2023-07-20T16:42:33.675Z,recommendationservice-13,memory,526798848
2023-07-20T16:42:33.697Z,recommendationservice-5,memory,548229120
2023-07-20T16:42:34.005Z,recommendationservice-9,memory,546607104
2023-07-20T16:42:34.633Z,probe-holder,memory,532201472
2023-07-20T16:42:34.956Z,recommendationservice-6,memory,534310912
2023-07-20T16:42:35.118Z,recommendationservice-15,memory,536285184
2023-07-20T16:42:35.087Z,recommendationservice-10,memory,558231552
2023-07-20T16:42:36.024Z,shippingservice,memory,518070272
2023-07-20T16:42:35.828Z,recommendationservice-4,memory,539377664
2023-07-20T16:42:36.226Z,recommendationservice-7,memory,541126656
2023-07-20T16:42:36.446Z,cartservice,memory,506089472
2023-07-20T16:42:36.534Z,recommendationservice-12,memory,541114368
2023-07-20T16:42:36.775Z,currencyservice,memory,488902656
2023-07-20T16:42:36.813Z,paymentservice,memory,497889280
2023-07-20T16:42:37.449Z,emailservice,memory,547639296
2023-07-20T16:42:37.661Z,checkoutservice,memory,527998976
2023-07-20T16:42:41.225Z,recommendationservice-16,memory,510377984
2023-07-20T16:42:41.306Z,adservice,memory,806813696
2023-07-20T16:42:41.449Z,productcatalogservice,memory,520040448
2023-07-20T16:42:41.425Z,recommendationservice-3,memory,546336768
2023-07-20T16:42:42.247Z,recommendationservice-8,memory,516296704
2023-07-20T16:42:42.425Z,recommendationservice-1,memory,545382400
2023-07-20T16:42:43.330Z,recommendationservice-2,memory,550625280
2023-07-20T16:42:43.473Z,recommendationservice-11,memory,509558784
2023-07-20T16:42:43.564Z,recommendationservice-14,memory,544055296
2023-07-20T16:42:43.675Z,recommendationservice-13,memory,526778368
2023-07-20T16:42:43.697Z,recommendationservice-5,memory,548220928
2023-07-20T16:42:44.005Z,recommendationservice-9,memory,546590720
2023-07-20T16:42:44.633Z,probe-holder,memory,532193280
2023-07-20T16:42:44.956Z,recommendationservice-6,memory,534302720
2023-07-20T16:42:45.118Z,recommendationservice-15,memory,536268800
2023-07-20T16:42:45.087Z,recommendationservice-10,memory,558149632
2023-07-20T16:42:46.025Z,shippingservice,memory,517939200
2023-07-20T16:42:45.828Z,recommendationservice-4,memory,539361280
2023-07-20T16:42:46.226Z,recommendationservice-7,memory,541118464
2023-07-20T16:42:46.446Z,cartservice,memory,506077184
2023-07-20T16:42:46.534Z,recommendationservice-12,memory,541097984
2023-07-20T16:42:46.775Z,currencyservice,memory,488890368
2023-07-20T16:42:46.813Z,paymentservice,memory,497881088
2023-07-20T16:42:47.449Z,emailservice,memory,547631104
2023-07-20T16:42:47.661Z,checkoutservice,memory,527990784
2023-07-20T16:42:51.225Z,recommendationservice-16,memory,510357504
2023-07-20T16:42:51.308Z,adservice,memory,806793216
2023-07-20T16:42:51.449Z,productcatalogservice,memory,520032256
2023-07-20T16:42:51.425Z,recommendationservice-3,memory,546328576
2023-07-20T16:42:52.247Z,recommendationservice-8,memory,516280320
2023-07-20T16:42:52.425Z,recommendationservice-1,memory,545366016
2023-07-20T16:42:53.330Z,recommendationservice-2,memory,550604800
2023-07-20T16:42:53.473Z,recommendationservice-11,memory,509550592
2023-07-20T16:42:53.564Z,recommendationservice-14,memory,544038912
2023-07-20T16:42:53.675Z,recommendationservice-13,memory,526761984
2023-07-20T16:42:53.697Z,recommendationservice-5,memory,548204544
2023-07-20T16:42:54.005Z,recommendationservice-9,memory,546574336
2023-07-20T16:42:54.633Z,probe-holder,memory,532176896
2023-07-20T16:42:54.956Z,recommendationservice-6,memory,534282240
2023-07-20T16:42:55.118Z,recommendationservice-15,memory,536252416
2023-07-20T16:42:55.087Z,recommendationservice-10,memory,558141440
2023-07-20T16:42:56.025Z,shippingservice,memory,517918720
2023-07-20T16:42:55.828Z,recommendationservice-4,memory,539353088
2023-07-20T16:42:56.227Z,recommendationservice-7,memory,541302784
2023-07-20T16:42:56.446Z,cartservice,memory,506068992
2023-07-20T16:42:56.534Z,recommendationservice-12,memory,541081600
2023-07-20T16:42:56.775Z,currencyservice,memory,488873984
2023-07-20T16:42:56.813Z,paymentservice,memory,497864704
2023-07-20T16:42:57.449Z,emailservice,memory,547614720
2023-07-20T16:42:57.661Z,checkoutservice,memory,527958016
2023-07-20T16:43:01.225Z,recommendationservice-16,memory,510341120
2023-07-20T16:43:01.307Z,adservice,memory,806776832
2023-07-20T16:43:01.449Z,productcatalogservice,memory,520011776
2023-07-20T16:43:01.425Z,recommendationservice-3,memory,546312192
2023-07-20T16:43:02.247Z,recommendationservice-8,memory,518066176
2023-07-20T16:43:02.425Z,recommendationservice-1,memory,545345536
2023-07-20T16:43:03.329Z,recommendationservice-2,memory,550584320
2023-07-20T16:43:03.473Z,recommendationservice-11,memory,511078400
2023-07-20T16:43:03.564Z,recommendationservice-14,memory,544022528
2023-07-20T16:43:03.675Z,recommendationservice-13,memory,526753792
2023-07-20T16:43:03.697Z,recommendationservice-5,memory,548184064
2023-07-20T16:43:04.006Z,recommendationservice-9,memory,546566144
2023-07-20T16:43:04.633Z,probe-holder,memory,532156416
2023-07-20T16:43:04.956Z,recommendationservice-6,memory,534265856
2023-07-20T16:43:05.118Z,recommendationservice-15,memory,536240128
2023-07-20T16:43:05.087Z,recommendationservice-10,memory,558125056
2023-07-20T16:43:06.025Z,shippingservice,memory,517898240
2023-07-20T16:43:05.828Z,recommendationservice-4,memory,539336704
2023-07-20T16:43:06.226Z,recommendationservice-7,memory,542310400
2023-07-20T16:43:06.446Z,cartservice,memory,505987072
2023-07-20T16:43:06.534Z,recommendationservice-12,memory,541073408
2023-07-20T16:43:06.775Z,currencyservice,memory,488857600
2023-07-20T16:43:06.813Z,paymentservice,memory,497848320
2023-07-20T16:43:07.449Z,emailservice,memory,547602432
2023-07-20T16:43:07.661Z,checkoutservice,memory,527933440
2023-07-20T16:43:11.225Z,recommendationservice-16,memory,510324736
2023-07-20T16:43:11.307Z,adservice,memory,806764544
2023-07-20T16:43:11.449Z,productcatalogservice,memory,519995392
2023-07-20T16:43:11.425Z,recommendationservice-3,memory,546172928
2023-07-20T16:43:12.247Z,recommendationservice-8,memory,518057984
2023-07-20T16:43:12.425Z,recommendationservice-1,memory,545337344
2023-07-20T16:43:13.329Z,recommendationservice-2,memory,550567936
2023-07-20T16:43:13.473Z,recommendationservice-11,memory,512049152
2023-07-20T16:43:13.564Z,recommendationservice-14,memory,544014336
2023-07-20T16:43:13.675Z,recommendationservice-13,memory,526737408
2023-07-20T16:43:13.697Z,recommendationservice-5,memory,548175872
2023-07-20T16:43:14.005Z,recommendationservice-9,memory,546545664
2023-07-20T16:43:14.633Z,probe-holder,memory,532152320
2023-07-20T16:43:14.956Z,recommendationservice-6,memory,534257664
2023-07-20T16:43:15.118Z,recommendationservice-15,memory,536223744
2023-07-20T16:43:15.087Z,recommendationservice-10,memory,558108672
2023-07-20T16:43:16.025Z,shippingservice,memory,517890048
2023-07-20T16:43:15.828Z,recommendationservice-4,memory,539320320
2023-07-20T16:43:16.226Z,recommendationservice-7,memory,507281408
2023-07-20T16:43:16.446Z,cartservice,memory,505970688
2023-07-20T16:43:16.534Z,recommendationservice-12,memory,541061120
2023-07-20T16:43:16.775Z,currencyservice,memory,488849408
2023-07-20T16:43:16.813Z,paymentservice,memory,497840128
2023-07-20T16:43:17.449Z,emailservice,memory,547586048
2023-07-20T16:43:17.661Z,checkoutservice,memory,527925248
2023-07-20T16:43:21.225Z,recommendationservice-16,memory,510316544
2023-07-20T16:43:21.306Z,adservice,memory,806289408
2023-07-20T16:43:21.449Z,productcatalogservice,memory,519987200
2023-07-20T16:43:21.425Z,recommendationservice-3,memory,546156544
2023-07-20T16:43:22.247Z,recommendationservice-8,memory,518041600
2023-07-20T16:43:22.425Z,recommendationservice-1,memory,545320960
2023-07-20T16:43:23.329Z,recommendationservice-2,memory,550461440
2023-07-20T16:43:23.473Z,recommendationservice-11,memory,511074304
2023-07-20T16:43:23.564Z,recommendationservice-14,memory,543997952
2023-07-20T16:43:23.675Z,recommendationservice-13,memory,526721024
2023-07-20T16:43:23.697Z,recommendationservice-5,memory,548159488
2023-07-20T16:43:24.005Z,recommendationservice-9,memory,546529280
2023-07-20T16:43:24.633Z,probe-holder,memory,532140032
2023-07-20T16:43:24.956Z,recommendationservice-6,memory,534241280
2023-07-20T16:43:25.118Z,recommendationservice-15,memory,536207360
2023-07-20T16:43:25.087Z,recommendationservice-10,memory,558100480
2023-07-20T16:43:26.025Z,shippingservice,memory,517873664
2023-07-20T16:43:25.828Z,recommendationservice-4,memory,539312128
2023-07-20T16:43:26.226Z,recommendationservice-7,memory,507523072
2023-07-20T16:43:26.446Z,cartservice,memory,505962496
2023-07-20T16:43:26.534Z,recommendationservice-12,memory,541044736
2023-07-20T16:43:26.775Z,currencyservice,memory,488833024
2023-07-20T16:43:26.813Z,paymentservice,memory,497807360
2023-07-20T16:43:27.449Z,emailservice,memory,547569664
2023-07-20T16:43:27.663Z,checkoutservice,memory,527900672
2023-07-20T16:43:31.226Z,recommendationservice-16,memory,510296064
2023-07-20T16:43:31.306Z,adservice,memory,806526976
2023-07-20T16:43:31.449Z,productcatalogservice,memory,519970816
2023-07-20T16:43:31.426Z,recommendationservice-3,memory,546140160
2023-07-20T16:43:32.247Z,recommendationservice-8,memory,518025216
2023-07-20T16:43:32.425Z,recommendationservice-1,memory,545304576
2023-07-20T16:43:33.329Z,recommendationservice-2,memory,550436864
2023-07-20T16:43:33.473Z,recommendationservice-11,memory,511057920
2023-07-20T16:43:33.564Z,recommendationservice-14,memory,543977472
2023-07-20T16:43:33.675Z,recommendationservice-13,memory,526708736
2023-07-20T16:43:33.697Z,recommendationservice-5,memory,548143104
2023-07-20T16:43:34.005Z,recommendationservice-9,memory,546521088
2023-07-20T16:43:34.633Z,probe-holder,memory,532127744
2023-07-20T16:43:34.956Z,recommendationservice-6,memory,534220800
2023-07-20T16:43:35.118Z,recommendationservice-15,memory,536195072
2023-07-20T16:43:35.087Z,recommendationservice-10,memory,558080000
2023-07-20T16:43:36.025Z,shippingservice,memory,517857280
2023-07-20T16:43:35.828Z,recommendationservice-4,memory,539291648
2023-07-20T16:43:36.226Z,recommendationservice-7,memory,507506688
2023-07-20T16:43:36.446Z,cartservice,memory,505937920
2023-07-20T16:43:36.534Z,recommendationservice-12,memory,541032448
2023-07-20T16:43:36.775Z,currencyservice,memory,488816640
2023-07-20T16:43:36.813Z,paymentservice,memory,497790976
2023-07-20T16:43:37.449Z,emailservice,memory,547561472
2023-07-20T16:43:37.661Z,checkoutservice,memory,527884288
2023-07-20T16:43:41.225Z,recommendationservice-16,memory,510279680
2023-07-20T16:43:41.307Z,adservice,memory,806518784
2023-07-20T16:43:41.449Z,productcatalogservice,memory,519950336
2023-07-20T16:43:41.426Z,recommendationservice-3,memory,546004992
2023-07-20T16:43:42.247Z,recommendationservice-8,memory,518017024
2023-07-20T16:43:42.425Z,recommendationservice-1,memory,545296384
2023-07-20T16:43:43.329Z,recommendationservice-2,memory,550416384
2023-07-20T16:43:43.473Z,recommendationservice-11,memory,511045632
2023-07-20T16:43:43.564Z,recommendationservice-14,memory,543969280
2023-07-20T16:43:43.675Z,recommendationservice-13,memory,526692352
2023-07-20T16:43:43.697Z,recommendationservice-5,memory,548122624
2023-07-20T16:43:44.005Z,recommendationservice-9,memory,546504704
2023-07-20T16:43:44.633Z,probe-holder,memory,532115456
2023-07-20T16:43:44.956Z,recommendationservice-6,memory,534212608
2023-07-20T16:43:45.119Z,recommendationservice-15,memory,536068096
2023-07-20T16:43:45.087Z,recommendationservice-10,memory,557547520
2023-07-20T16:43:46.024Z,shippingservice,memory,517849088
2023-07-20T16:43:45.828Z,recommendationservice-4,memory,539275264
2023-07-20T16:43:46.227Z,recommendationservice-7,memory,506466304
2023-07-20T16:43:46.446Z,cartservice,memory,522285056
2023-07-20T16:43:46.534Z,recommendationservice-12,memory,538562560
2023-07-20T16:43:46.775Z,currencyservice,memory,486989824
2023-07-20T16:43:46.813Z,paymentservice,memory,494501888
2023-07-20T16:43:47.449Z,emailservice,memory,545357824
2023-07-20T16:43:47.661Z,checkoutservice,memory,531062784
