2023-07-04T16:30:02.362Z,emailservice,network_out,3431
2023-07-04T16:30:02.319Z,frontend,network_out,1095177
2023-07-04T16:30:02.319Z,redis-cart,network_out,70463
2023-07-04T16:30:02.364Z,redis-cart,network_out,30842
2023-07-04T16:30:02.362Z,redis-cart,network_out,58763
2023-07-04T16:30:02.319Z,productcatalogservice,network_out,294636
2023-07-04T16:30:02.319Z,shippingservice,network_out,10177
2023-07-04T16:30:02.362Z,adservice,network_out,7999
2023-07-04T16:30:02.364Z,recommendationservice,network_out,27112
2023-07-04T16:30:02.364Z,currencyservice,network_out,58923
2023-07-04T16:30:02.364Z,cartservice,network_out,25529
2023-07-04T16:30:02.364Z,paymentservice,network_out,2470
2023-07-04T16:30:12.679Z,frontend,network_out,1095177
2023-07-04T16:30:12.679Z,redis-cart,network_out,44666
2023-07-04T16:30:12.679Z,redis-cart,network_out,73848
2023-07-04T16:30:12.679Z,checkoutservice,network_out,19138
2023-07-04T16:30:12.717Z,adservice,network_out,16724
2023-07-04T16:30:12.752Z,currencyservice,network_out,88746
2023-07-04T16:30:12.752Z,cartservice,network_out,40635
2023-07-04T16:30:12.679Z,shippingservice,network_out,10177
2023-07-04T16:30:12.752Z,paymentservice,network_out,2470
2023-07-04T16:30:12.752Z,redis-cart,network_out,30842
2023-07-04T16:30:12.679Z,productcatalogservice,network_out,294636
2023-07-04T16:30:12.717Z,emailservice,network_out,3431
2023-07-04T16:30:12.717Z,redis-cart,network_out,59781
2023-07-04T16:30:12.752Z,recommendationservice,network_out,44887
2023-07-04T16:30:22.752Z,currencyservice,network_out,88746
2023-07-04T16:30:22.679Z,productcatalogservice,network_out,508078
2023-07-04T16:30:22.679Z,frontend,network_out,1593382
2023-07-04T16:30:22.679Z,checkoutservice,network_out,29038
2023-07-04T16:30:22.752Z,recommendationservice,network_out,44887
2023-07-04T16:30:22.752Z,redis-cart,network_out,30842
2023-07-04T16:30:22.718Z,redis-cart,network_out,59781
2023-07-04T16:30:22.679Z,shippingservice,network_out,17575
2023-07-04T16:30:22.679Z,redis-cart,network_out,73740
2023-07-04T16:30:22.679Z,redis-cart,network_out,73848
2023-07-04T16:30:22.752Z,paymentservice,network_out,2470
2023-07-04T16:30:22.718Z,adservice,network_out,22878
2023-07-04T16:30:22.752Z,cartservice,network_out,40635
2023-07-04T16:30:22.718Z,emailservice,network_out,5092
2023-07-04T16:30:32.679Z,productcatalogservice,network_out,638529
2023-07-04T16:30:32.679Z,frontend,network_out,2081371
2023-07-04T16:30:32.679Z,checkoutservice,network_out,29038
2023-07-04T16:30:32.679Z,redis-cart,network_out,74300
2023-07-04T16:30:32.679Z,redis-cart,network_out,79914
2023-07-04T16:30:32.718Z,emailservice,network_out,5200
2023-07-04T16:30:32.718Z,adservice,network_out,29345
2023-07-04T16:30:32.679Z,shippingservice,network_out,22800
2023-07-04T16:30:32.718Z,redis-cart,network_out,88556
2023-07-04T16:30:32.752Z,redis-cart,network_out,59718
2023-07-04T16:30:32.752Z,recommendationservice,network_out,59597
2023-07-04T16:30:32.752Z,currencyservice,network_out,131633
2023-07-04T16:30:32.752Z,cartservice,network_out,55256
2023-07-04T16:30:32.752Z,paymentservice,network_out,4004
2023-07-04T16:30:42.679Z,checkoutservice,network_out,29038
2023-07-04T16:30:42.752Z,redis-cart,network_out,88770
2023-07-04T16:30:42.752Z,cartservice,network_out,79250
2023-07-04T16:30:42.679Z,shippingservice,network_out,22800
2023-07-04T16:30:42.679Z,redis-cart,network_out,79914
2023-07-04T16:30:42.717Z,emailservice,network_out,5200
2023-07-04T16:30:42.717Z,adservice,network_out,29345
2023-07-04T16:30:42.752Z,currencyservice,network_out,174766
2023-07-04T16:30:42.752Z,paymentservice,network_out,4112
2023-07-04T16:30:42.679Z,productcatalogservice,network_out,638529
2023-07-04T16:30:42.679Z,frontend,network_out,2081371
2023-07-04T16:30:42.679Z,redis-cart,network_out,74300
2023-07-04T16:30:42.717Z,redis-cart,network_out,88556
2023-07-04T16:30:42.752Z,recommendationservice,network_out,77523
2023-07-04T16:30:52.717Z,redis-cart,network_out,89396
2023-07-04T16:30:52.752Z,currencyservice,network_out,202369
2023-07-04T16:30:52.679Z,productcatalogservice,network_out,813629
2023-07-04T16:30:52.752Z,cartservice,network_out,79250
2023-07-04T16:30:52.679Z,redis-cart,network_out,103037
2023-07-04T16:30:52.679Z,shippingservice,network_out,27563
2023-07-04T16:30:52.717Z,emailservice,network_out,5200
2023-07-04T16:30:52.679Z,checkoutservice,network_out,34665
2023-07-04T16:30:52.752Z,redis-cart,network_out,89414
2023-07-04T16:30:52.679Z,redis-cart,network_out,124357
2023-07-04T16:30:52.717Z,adservice,network_out,34154
2023-07-04T16:30:52.679Z,frontend,network_out,2604261
2023-07-04T16:30:52.752Z,paymentservice,network_out,5552
2023-07-04T16:30:52.752Z,recommendationservice,network_out,89428
2023-07-04T16:31:02.679Z,productcatalogservice,network_out,954017
2023-07-04T16:31:02.679Z,checkoutservice,network_out,50662
2023-07-04T16:31:02.679Z,redis-cart,network_out,103037
2023-07-04T16:31:02.679Z,redis-cart,network_out,160287
2023-07-04T16:31:02.718Z,adservice,network_out,42885
2023-07-04T16:31:02.752Z,cartservice,network_out,79250
2023-07-04T16:31:02.679Z,frontend,network_out,2903095
2023-07-04T16:31:02.679Z,shippingservice,network_out,35917
2023-07-04T16:31:02.752Z,paymentservice,network_out,5552
2023-07-04T16:31:02.752Z,currencyservice,network_out,202369
2023-07-04T16:31:02.752Z,redis-cart,network_out,89414
2023-07-04T16:31:02.718Z,redis-cart,network_out,118506
2023-07-04T16:31:02.752Z,recommendationservice,network_out,89428
2023-07-04T16:31:02.718Z,emailservice,network_out,7353
2023-07-04T16:31:12.679Z,productcatalogservice,network_out,954017
2023-07-04T16:31:12.679Z,checkoutservice,network_out,50662
2023-07-04T16:31:12.717Z,emailservice,network_out,7353
2023-07-04T16:31:12.752Z,redis-cart,network_out,90254
2023-07-04T16:31:12.752Z,currencyservice,network_out,229923
2023-07-04T16:31:12.752Z,paymentservice,network_out,5552
2023-07-04T16:31:12.679Z,frontend,network_out,2903095
2023-07-04T16:31:12.679Z,shippingservice,network_out,35917
2023-07-04T16:31:12.752Z,cartservice,network_out,103461
2023-07-04T16:31:12.679Z,redis-cart,network_out,103037
2023-07-04T16:31:12.679Z,redis-cart,network_out,160287
2023-07-04T16:31:12.717Z,adservice,network_out,42885
2023-07-04T16:31:12.717Z,redis-cart,network_out,118506
2023-07-04T16:31:12.752Z,recommendationservice,network_out,101827
2023-07-04T16:31:22.679Z,checkoutservice,network_out,60641
2023-07-04T16:31:22.679Z,shippingservice,network_out,44067
2023-07-04T16:31:22.752Z,paymentservice,network_out,7801
2023-07-04T16:31:22.752Z,redis-cart,network_out,119175
2023-07-04T16:31:22.717Z,adservice,network_out,48053
2023-07-04T16:31:22.717Z,emailservice,network_out,7419
2023-07-04T16:31:22.717Z,redis-cart,network_out,118506
2023-07-04T16:31:22.752Z,currencyservice,network_out,289277
2023-07-04T16:31:22.752Z,cartservice,network_out,125681
2023-07-04T16:31:22.679Z,productcatalogservice,network_out,1237217
2023-07-04T16:31:22.679Z,frontend,network_out,3473692
2023-07-04T16:31:22.679Z,redis-cart,network_out,167933
2023-07-04T16:31:22.679Z,redis-cart,network_out,132718
2023-07-04T16:31:22.752Z,recommendationservice,network_out,125206
2023-07-04T16:31:32.680Z,redis-cart,network_out,133278
2023-07-04T16:31:32.718Z,adservice,network_out,53214
2023-07-04T16:31:32.751Z,cartservice,network_out,125681
2023-07-04T16:31:32.680Z,productcatalogservice,network_out,1237217
2023-07-04T16:31:32.680Z,checkoutservice,network_out,60641
2023-07-04T16:31:32.680Z,redis-cart,network_out,167933
2023-07-04T16:31:32.751Z,currencyservice,network_out,289277
2023-07-04T16:31:32.751Z,redis-cart,network_out,119175
2023-07-04T16:31:32.680Z,frontend,network_out,3845561
2023-07-04T16:31:32.680Z,shippingservice,network_out,47089
2023-07-04T16:31:32.718Z,redis-cart,network_out,133625
2023-07-04T16:31:32.718Z,emailservice,network_out,7419
2023-07-04T16:31:32.751Z,paymentservice,network_out,7801
2023-07-04T16:31:32.751Z,recommendationservice,network_out,125206
2023-07-04T16:31:42.717Z,redis-cart,network_out,133625
2023-07-04T16:31:42.752Z,paymentservice,network_out,7867
2023-07-04T16:31:42.679Z,checkoutservice,network_out,61963
2023-07-04T16:31:42.679Z,shippingservice,network_out,47089
2023-07-04T16:31:42.679Z,redis-cart,network_out,148100
2023-07-04T16:31:42.717Z,adservice,network_out,53214
2023-07-04T16:31:42.679Z,frontend,network_out,3845561
2023-07-04T16:31:42.752Z,currencyservice,network_out,289277
2023-07-04T16:31:42.717Z,emailservice,network_out,9122
2023-07-04T16:31:42.679Z,redis-cart,network_out,205317
2023-07-04T16:31:42.679Z,productcatalogservice,network_out,1426863
2023-07-04T16:31:42.752Z,recommendationservice,network_out,138900
2023-07-04T16:31:42.752Z,redis-cart,network_out,120085
2023-07-04T16:31:42.752Z,cartservice,network_out,140718
2023-07-04T16:31:52.679Z,productcatalogservice,network_out,1426863
2023-07-04T16:31:52.679Z,frontend,network_out,4336979
2023-07-04T16:31:52.718Z,redis-cart,network_out,148552
2023-07-04T16:31:52.679Z,checkoutservice,network_out,66759
2023-07-04T16:31:52.679Z,redis-cart,network_out,205317
2023-07-04T16:31:52.752Z,redis-cart,network_out,148746
2023-07-04T16:31:52.752Z,cartservice,network_out,158983
2023-07-04T16:31:52.679Z,shippingservice,network_out,52394
2023-07-04T16:31:52.679Z,redis-cart,network_out,162654
2023-07-04T16:31:52.752Z,currencyservice,network_out,321632
2023-07-04T16:31:52.752Z,recommendationservice,network_out,157309
2023-07-04T16:31:52.718Z,adservice,network_out,65419
2023-07-04T16:31:52.718Z,emailservice,network_out,9188
2023-07-04T16:31:52.752Z,paymentservice,network_out,9058
2023-07-04T16:32:02.679Z,shippingservice,network_out,52394
2023-07-04T16:32:02.679Z,redis-cart,network_out,213955
2023-07-04T16:32:02.752Z,recommendationservice,network_out,169301
2023-07-04T16:32:02.679Z,checkoutservice,network_out,68230
2023-07-04T16:32:02.679Z,productcatalogservice,network_out,1605907
2023-07-04T16:32:02.752Z,paymentservice,network_out,9058
2023-07-04T16:32:02.679Z,redis-cart,network_out,162654
2023-07-04T16:32:02.717Z,adservice,network_out,65419
2023-07-04T16:32:02.717Z,emailservice,network_out,9188
2023-07-04T16:32:02.752Z,cartservice,network_out,158983
2023-07-04T16:32:02.679Z,frontend,network_out,4336979
2023-07-04T16:32:02.717Z,redis-cart,network_out,148552
2023-07-04T16:32:02.752Z,redis-cart,network_out,149586
2023-07-04T16:32:02.752Z,currencyservice,network_out,362514
2023-07-04T16:32:12.680Z,redis-cart,network_out,257001
2023-07-04T16:32:12.718Z,adservice,network_out,71998
2023-07-04T16:32:12.680Z,productcatalogservice,network_out,1867364
2023-07-04T16:32:12.680Z,checkoutservice,network_out,68230
2023-07-04T16:32:12.718Z,redis-cart,network_out,177733
2023-07-04T16:32:12.752Z,paymentservice,network_out,9058
2023-07-04T16:32:12.752Z,recommendationservice,network_out,169301
2023-07-04T16:32:12.680Z,frontend,network_out,5045948
2023-07-04T16:32:12.680Z,redis-cart,network_out,163494
2023-07-04T16:32:12.680Z,shippingservice,network_out,63180
2023-07-04T16:32:12.752Z,redis-cart,network_out,149586
2023-07-04T16:32:12.752Z,cartservice,network_out,158983
2023-07-04T16:32:12.718Z,emailservice,network_out,10540
2023-07-04T16:32:12.752Z,currencyservice,network_out,362514
2023-07-04T16:32:22.679Z,redis-cart,network_out,257001
2023-07-04T16:32:22.717Z,adservice,network_out,81161
2023-07-04T16:32:22.752Z,redis-cart,network_out,178210
2023-07-04T16:32:22.752Z,cartservice,network_out,187472
2023-07-04T16:32:22.679Z,productcatalogservice,network_out,1867364
2023-07-04T16:32:22.679Z,checkoutservice,network_out,68230
2023-07-04T16:32:22.717Z,redis-cart,network_out,193274
2023-07-04T16:32:22.717Z,emailservice,network_out,12322
2023-07-04T16:32:22.752Z,paymentservice,network_out,9166
2023-07-04T16:32:22.679Z,frontend,network_out,5045948
2023-07-04T16:32:22.679Z,redis-cart,network_out,163494
2023-07-04T16:32:22.679Z,shippingservice,network_out,63180
2023-07-04T16:32:22.752Z,recommendationservice,network_out,169301
2023-07-04T16:32:22.752Z,currencyservice,network_out,395836
2023-07-04T16:32:32.717Z,adservice,network_out,81161
2023-07-04T16:32:32.752Z,redis-cart,network_out,179414
2023-07-04T16:32:32.679Z,checkoutservice,network_out,85620
2023-07-04T16:32:32.717Z,redis-cart,network_out,193274
2023-07-04T16:32:32.752Z,paymentservice,network_out,10921
2023-07-04T16:32:32.679Z,shippingservice,network_out,73534
2023-07-04T16:32:32.752Z,recommendationservice,network_out,208306
2023-07-04T16:32:32.752Z,cartservice,network_out,209246
2023-07-04T16:32:32.679Z,productcatalogservice,network_out,2049548
2023-07-04T16:32:32.679Z,redis-cart,network_out,297169
2023-07-04T16:32:32.679Z,frontend,network_out,5533322
2023-07-04T16:32:32.679Z,redis-cart,network_out,192327
2023-07-04T16:32:32.717Z,emailservice,network_out,12322
2023-07-04T16:32:32.752Z,currencyservice,network_out,451882
2023-07-04T16:32:42.679Z,redis-cart,network_out,207444
2023-07-04T16:32:42.753Z,cartservice,network_out,220846
2023-07-04T16:32:42.679Z,productcatalogservice,network_out,2049548
2023-07-04T16:32:42.679Z,shippingservice,network_out,76316
2023-07-04T16:32:42.753Z,currencyservice,network_out,490330
2023-07-04T16:32:42.753Z,paymentservice,network_out,10987
2023-07-04T16:32:42.679Z,frontend,network_out,6091624
2023-07-04T16:32:42.679Z,redis-cart,network_out,297169
2023-07-04T16:32:42.717Z,emailservice,network_out,13285
2023-07-04T16:32:42.753Z,recommendationservice,network_out,208306
2023-07-04T16:32:42.679Z,checkoutservice,network_out,85620
2023-07-04T16:32:42.717Z,redis-cart,network_out,208147
2023-07-04T16:32:42.717Z,adservice,network_out,89701
2023-07-04T16:32:42.753Z,redis-cart,network_out,208054
2023-07-04T16:32:52.752Z,currencyservice,network_out,490330
2023-07-04T16:32:52.679Z,productcatalogservice,network_out,2222256
2023-07-04T16:32:52.679Z,shippingservice,network_out,82415
2023-07-04T16:32:52.717Z,emailservice,network_out,13285
2023-07-04T16:32:52.717Z,adservice,network_out,89701
2023-07-04T16:32:52.679Z,checkoutservice,network_out,86350
2023-07-04T16:32:52.679Z,frontend,network_out,6571214
2023-07-04T16:32:52.752Z,cartservice,network_out,220846
2023-07-04T16:32:52.752Z,recommendationservice,network_out,208306
2023-07-04T16:32:52.679Z,redis-cart,network_out,222004
2023-07-04T16:32:52.679Z,redis-cart,network_out,306371
2023-07-04T16:32:52.717Z,redis-cart,network_out,208147
2023-07-04T16:32:52.752Z,redis-cart,network_out,208054
2023-07-04T16:32:52.752Z,paymentservice,network_out,10987
2023-07-04T16:33:02.717Z,redis-cart,network_out,222744
2023-07-04T16:33:02.751Z,redis-cart,network_out,223581
2023-07-04T16:33:02.751Z,cartservice,network_out,246853
2023-07-04T16:33:02.679Z,productcatalogservice,network_out,2222256
2023-07-04T16:33:02.679Z,shippingservice,network_out,82415
2023-07-04T16:33:02.679Z,redis-cart,network_out,222004
2023-07-04T16:33:02.679Z,redis-cart,network_out,306371
2023-07-04T16:33:02.717Z,emailservice,network_out,13285
2023-07-04T16:33:02.717Z,adservice,network_out,95321
2023-07-04T16:33:02.751Z,recommendationservice,network_out,244241
2023-07-04T16:33:02.679Z,checkoutservice,network_out,86350
2023-07-04T16:33:02.679Z,frontend,network_out,6571214
2023-07-04T16:33:02.751Z,paymentservice,network_out,12244
2023-07-04T16:33:02.751Z,currencyservice,network_out,530772
2023-07-04T16:33:12.679Z,redis-cart,network_out,346092
2023-07-04T16:33:12.752Z,recommendationservice,network_out,244241
2023-07-04T16:33:12.679Z,productcatalogservice,network_out,2402493
2023-07-04T16:33:12.718Z,redis-cart,network_out,237663
2023-07-04T16:33:12.752Z,redis-cart,network_out,223581
2023-07-04T16:33:12.679Z,shippingservice,network_out,86125
2023-07-04T16:33:12.718Z,adservice,network_out,102761
2023-07-04T16:33:12.752Z,paymentservice,network_out,12310
2023-07-04T16:33:12.679Z,checkoutservice,network_out,93413
2023-07-04T16:33:12.679Z,frontend,network_out,7104954
2023-07-04T16:33:12.679Z,redis-cart,network_out,236844
2023-07-04T16:33:12.718Z,emailservice,network_out,13674
2023-07-04T16:33:12.752Z,currencyservice,network_out,530772
2023-07-04T16:33:12.752Z,cartservice,network_out,261584
2023-07-04T16:33:22.679Z,productcatalogservice,network_out,2586511
2023-07-04T16:33:22.679Z,redis-cart,network_out,353627
2023-07-04T16:33:22.679Z,checkoutservice,network_out,101017
2023-07-04T16:33:22.679Z,frontend,network_out,7453158
2023-07-04T16:33:22.679Z,shippingservice,network_out,92466
2023-07-04T16:33:22.751Z,recommendationservice,network_out,244241
2023-07-04T16:33:22.717Z,adservice,network_out,102761
2023-07-04T16:33:22.717Z,emailservice,network_out,13674
2023-07-04T16:33:22.717Z,redis-cart,network_out,237663
2023-07-04T16:33:22.751Z,currencyservice,network_out,530772
2023-07-04T16:33:22.679Z,redis-cart,network_out,251684
2023-07-04T16:33:22.751Z,paymentservice,network_out,12310
2023-07-04T16:33:22.751Z,cartservice,network_out,261584
2023-07-04T16:33:22.751Z,redis-cart,network_out,223581
2023-07-04T16:33:32.679Z,shippingservice,network_out,95467
2023-07-04T16:33:32.717Z,emailservice,network_out,14984
2023-07-04T16:33:32.679Z,redis-cart,network_out,251684
2023-07-04T16:33:32.679Z,productcatalogservice,network_out,2701819
2023-07-04T16:33:32.717Z,adservice,network_out,102761
2023-07-04T16:33:32.751Z,paymentservice,network_out,12310
2023-07-04T16:33:32.679Z,checkoutservice,network_out,101828
2023-07-04T16:33:32.679Z,redis-cart,network_out,353627
2023-07-04T16:33:32.717Z,redis-cart,network_out,252820
2023-07-04T16:33:32.751Z,currencyservice,network_out,578747
2023-07-04T16:33:32.751Z,cartservice,network_out,281853
2023-07-04T16:33:32.679Z,frontend,network_out,7453158
2023-07-04T16:33:32.751Z,recommendationservice,network_out,266877
2023-07-04T16:33:32.751Z,redis-cart,network_out,238786
2023-07-04T16:33:42.679Z,frontend,network_out,7453158
2023-07-04T16:33:42.752Z,cartservice,network_out,296708
2023-07-04T16:33:42.679Z,shippingservice,network_out,95467
2023-07-04T16:33:42.717Z,adservice,network_out,110556
2023-07-04T16:33:42.752Z,currencyservice,network_out,632858
2023-07-04T16:33:42.679Z,checkoutservice,network_out,101828
2023-07-04T16:33:42.679Z,redis-cart,network_out,353627
2023-07-04T16:33:42.717Z,emailservice,network_out,14984
2023-07-04T16:33:42.717Z,redis-cart,network_out,252820
2023-07-04T16:33:42.752Z,paymentservice,network_out,13571
2023-07-04T16:33:42.679Z,redis-cart,network_out,251684
2023-07-04T16:33:42.679Z,productcatalogservice,network_out,2701819
2023-07-04T16:33:42.752Z,recommendationservice,network_out,277365
2023-07-04T16:33:42.752Z,redis-cart,network_out,268126
2023-07-04T16:33:52.679Z,redis-cart,network_out,394909
2023-07-04T16:33:52.679Z,frontend,network_out,7990684
2023-07-04T16:33:52.752Z,recommendationservice,network_out,277365
2023-07-04T16:33:52.717Z,adservice,network_out,114890
2023-07-04T16:33:52.717Z,redis-cart,network_out,267697
2023-07-04T16:33:52.679Z,shippingservice,network_out,99839
2023-07-04T16:33:52.752Z,cartservice,network_out,296708
2023-07-04T16:33:52.679Z,checkoutservice,network_out,102488
2023-07-04T16:33:52.752Z,currencyservice,network_out,632858
2023-07-04T16:33:52.717Z,emailservice,network_out,14984
2023-07-04T16:33:52.679Z,productcatalogservice,network_out,2933963
2023-07-04T16:33:52.679Z,redis-cart,network_out,281445
2023-07-04T16:33:52.752Z,redis-cart,network_out,268126
2023-07-04T16:33:52.752Z,paymentservice,network_out,14429
2023-07-04T16:34:02.751Z,cartservice,network_out,296708
2023-07-04T16:34:02.679Z,frontend,network_out,8400617
2023-07-04T16:34:02.679Z,redis-cart,network_out,281445
2023-07-04T16:34:02.751Z,recommendationservice,network_out,277365
2023-07-04T16:34:02.679Z,checkoutservice,network_out,110282
2023-07-04T16:34:02.717Z,emailservice,network_out,15989
2023-07-04T16:34:02.751Z,redis-cart,network_out,268126
2023-07-04T16:34:02.751Z,paymentservice,network_out,14429
2023-07-04T16:34:02.679Z,productcatalogservice,network_out,2933963
2023-07-04T16:34:02.679Z,shippingservice,network_out,99839
2023-07-04T16:34:02.679Z,redis-cart,network_out,400300
2023-07-04T16:34:02.717Z,adservice,network_out,127561
2023-07-04T16:34:02.717Z,redis-cart,network_out,296958
2023-07-04T16:34:02.751Z,currencyservice,network_out,632858
2023-07-04T16:34:12.679Z,redis-cart,network_out,282285
2023-07-04T16:34:12.679Z,frontend,network_out,8400617
2023-07-04T16:34:12.717Z,redis-cart,network_out,298018
2023-07-04T16:34:12.679Z,checkoutservice,network_out,121259
2023-07-04T16:34:12.753Z,currencyservice,network_out,660644
2023-07-04T16:34:12.679Z,shippingservice,network_out,107008
2023-07-04T16:34:12.679Z,productcatalogservice,network_out,3147514
2023-07-04T16:34:12.753Z,recommendationservice,network_out,294887
2023-07-04T16:34:12.753Z,paymentservice,network_out,14895
2023-07-04T16:34:12.679Z,redis-cart,network_out,400300
2023-07-04T16:34:12.717Z,adservice,network_out,132703
2023-07-04T16:34:12.717Z,emailservice,network_out,16663
2023-07-04T16:34:12.753Z,cartservice,network_out,313786
2023-07-04T16:34:12.753Z,redis-cart,network_out,269246
2023-07-04T16:34:22.679Z,redis-cart,network_out,282285
2023-07-04T16:34:22.752Z,currencyservice,network_out,700589
2023-07-04T16:34:22.752Z,paymentservice,network_out,16359
2023-07-04T16:34:22.679Z,checkoutservice,network_out,121259
2023-07-04T16:34:22.717Z,emailservice,network_out,16663
2023-07-04T16:34:22.752Z,cartservice,network_out,337447
2023-07-04T16:34:22.752Z,redis-cart,network_out,298236
2023-07-04T16:34:22.679Z,productcatalogservice,network_out,3147514
2023-07-04T16:34:22.679Z,shippingservice,network_out,110711
2023-07-04T16:34:22.752Z,recommendationservice,network_out,328468
2023-07-04T16:34:22.679Z,redis-cart,network_out,441570
2023-07-04T16:34:22.679Z,frontend,network_out,8958853
2023-07-04T16:34:22.717Z,adservice,network_out,132703
2023-07-04T16:34:22.717Z,redis-cart,network_out,298018
2023-07-04T16:34:32.679Z,redis-cart,network_out,441570
2023-07-04T16:34:32.679Z,shippingservice,network_out,110711
2023-07-04T16:34:32.718Z,redis-cart,network_out,327256
2023-07-04T16:34:32.752Z,currencyservice,network_out,700589
2023-07-04T16:34:32.752Z,paymentservice,network_out,16359
2023-07-04T16:34:32.679Z,redis-cart,network_out,311145
2023-07-04T16:34:32.718Z,adservice,network_out,143093
2023-07-04T16:34:32.718Z,emailservice,network_out,17883
2023-07-04T16:34:32.752Z,cartservice,network_out,337447
2023-07-04T16:34:32.752Z,redis-cart,network_out,298236
2023-07-04T16:34:32.679Z,frontend,network_out,9318014
2023-07-04T16:34:32.679Z,checkoutservice,network_out,122713
2023-07-04T16:34:32.679Z,productcatalogservice,network_out,3376095
2023-07-04T16:34:32.752Z,recommendationservice,network_out,328468
2023-07-04T16:34:42.679Z,productcatalogservice,network_out,3376095
2023-07-04T16:34:42.679Z,shippingservice,network_out,117262
2023-07-04T16:34:42.679Z,frontend,network_out,9881686
2023-07-04T16:34:42.679Z,checkoutservice,network_out,122713
2023-07-04T16:34:42.717Z,emailservice,network_out,17883
2023-07-04T16:34:42.752Z,recommendationservice,network_out,339794
2023-07-04T16:34:42.752Z,redis-cart,network_out,299076
2023-07-04T16:34:42.752Z,cartservice,network_out,362350
2023-07-04T16:34:42.679Z,redis-cart,network_out,326275
2023-07-04T16:34:42.679Z,redis-cart,network_out,484021
2023-07-04T16:34:42.717Z,adservice,network_out,143093
2023-07-04T16:34:42.717Z,redis-cart,network_out,327256
2023-07-04T16:34:42.752Z,paymentservice,network_out,16467
2023-07-04T16:34:42.752Z,currencyservice,network_out,741464
2023-07-04T16:34:52.679Z,redis-cart,network_out,492112
2023-07-04T16:34:52.679Z,productcatalogservice,network_out,3653898
2023-07-04T16:34:52.718Z,adservice,network_out,147646
2023-07-04T16:34:52.752Z,paymentservice,network_out,16467
2023-07-04T16:34:52.679Z,shippingservice,network_out,127545
2023-07-04T16:34:52.679Z,checkoutservice,network_out,142181
2023-07-04T16:34:52.718Z,emailservice,network_out,18230
2023-07-04T16:34:52.752Z,currencyservice,network_out,781305
2023-07-04T16:34:52.752Z,recommendationservice,network_out,339794
2023-07-04T16:34:52.679Z,redis-cart,network_out,340846
2023-07-04T16:34:52.679Z,frontend,network_out,9881686
2023-07-04T16:34:52.718Z,redis-cart,network_out,327882
2023-07-04T16:34:52.752Z,cartservice,network_out,362350
2023-07-04T16:34:52.752Z,redis-cart,network_out,299076
2023-07-04T16:35:02.679Z,redis-cart,network_out,340846
2023-07-04T16:35:02.679Z,frontend,network_out,9881686
2023-07-04T16:35:02.751Z,paymentservice,network_out,18647
2023-07-04T16:35:02.718Z,adservice,network_out,147646
2023-07-04T16:35:02.751Z,cartservice,network_out,404019
2023-07-04T16:35:02.751Z,currencyservice,network_out,821124
2023-07-04T16:35:02.679Z,redis-cart,network_out,492112
2023-07-04T16:35:02.679Z,productcatalogservice,network_out,3653898
2023-07-04T16:35:02.718Z,redis-cart,network_out,327882
2023-07-04T16:35:02.718Z,emailservice,network_out,19689
2023-07-04T16:35:02.751Z,recommendationservice,network_out,379179
2023-07-04T16:35:02.679Z,shippingservice,network_out,127545
2023-07-04T16:35:02.679Z,checkoutservice,network_out,142181
2023-07-04T16:35:02.751Z,redis-cart,network_out,342968
2023-07-04T16:35:12.679Z,redis-cart,network_out,355697
2023-07-04T16:35:12.679Z,redis-cart,network_out,532979
2023-07-04T16:35:12.679Z,productcatalogservice,network_out,3890653
2023-07-04T16:35:12.679Z,frontend,network_out,10937165
2023-07-04T16:35:12.679Z,checkoutservice,network_out,152819
2023-07-04T16:35:12.752Z,paymentservice,network_out,18962
2023-07-04T16:35:12.718Z,emailservice,network_out,19689
2023-07-04T16:35:12.718Z,redis-cart,network_out,356798
2023-07-04T16:35:12.718Z,adservice,network_out,157439
2023-07-04T16:35:12.752Z,recommendationservice,network_out,379179
2023-07-04T16:35:12.679Z,shippingservice,network_out,133053
2023-07-04T16:35:12.752Z,currencyservice,network_out,863836
2023-07-04T16:35:12.752Z,redis-cart,network_out,342968
2023-07-04T16:35:12.752Z,cartservice,network_out,404019
2023-07-04T16:35:22.679Z,frontend,network_out,10937165
2023-07-04T16:35:22.717Z,emailservice,network_out,20293
2023-07-04T16:35:22.679Z,checkoutservice,network_out,152819
2023-07-04T16:35:22.679Z,productcatalogservice,network_out,4090750
2023-07-04T16:35:22.679Z,shippingservice,network_out,133053
2023-07-04T16:35:22.752Z,cartservice,network_out,404019
2023-07-04T16:35:22.752Z,recommendationservice,network_out,379179
2023-07-04T16:35:22.679Z,redis-cart,network_out,370268
2023-07-04T16:35:22.717Z,adservice,network_out,167220
2023-07-04T16:35:22.717Z,redis-cart,network_out,372476
2023-07-04T16:35:22.752Z,redis-cart,network_out,342968
2023-07-04T16:35:22.679Z,redis-cart,network_out,538914
2023-07-04T16:35:22.752Z,currencyservice,network_out,863836
2023-07-04T16:35:22.752Z,paymentservice,network_out,18962
2023-07-04T16:35:32.752Z,cartservice,network_out,426659
2023-07-04T16:35:32.752Z,currencyservice,network_out,863836
2023-07-04T16:35:32.679Z,productcatalogservice,network_out,4221508
2023-07-04T16:35:32.679Z,checkoutservice,network_out,165981
2023-07-04T16:35:32.679Z,redis-cart,network_out,370268
2023-07-04T16:35:32.679Z,frontend,network_out,11520317
2023-07-04T16:35:32.717Z,redis-cart,network_out,387158
2023-07-04T16:35:32.717Z,emailservice,network_out,21818
2023-07-04T16:35:32.717Z,adservice,network_out,176889
2023-07-04T16:35:32.752Z,paymentservice,network_out,18962
2023-07-04T16:35:32.679Z,shippingservice,network_out,141453
2023-07-04T16:35:32.679Z,redis-cart,network_out,579164
2023-07-04T16:35:32.752Z,recommendationservice,network_out,393908
2023-07-04T16:35:32.752Z,redis-cart,network_out,357917
2023-07-04T16:35:42.752Z,currencyservice,network_out,948676
2023-07-04T16:35:42.679Z,productcatalogservice,network_out,4221508
2023-07-04T16:35:42.679Z,redis-cart,network_out,370268
2023-07-04T16:35:42.679Z,checkoutservice,network_out,165981
2023-07-04T16:35:42.752Z,recommendationservice,network_out,413370
2023-07-04T16:35:42.679Z,frontend,network_out,11520317
2023-07-04T16:35:42.718Z,redis-cart,network_out,387158
2023-07-04T16:35:42.718Z,adservice,network_out,176889
2023-07-04T16:35:42.752Z,redis-cart,network_out,387171
2023-07-04T16:35:42.679Z,shippingservice,network_out,141453
2023-07-04T16:35:42.679Z,redis-cart,network_out,579164
2023-07-04T16:35:42.718Z,emailservice,network_out,21818
2023-07-04T16:35:42.752Z,paymentservice,network_out,20783
2023-07-04T16:35:42.752Z,cartservice,network_out,446214
2023-07-04T16:35:52.751Z,paymentservice,network_out,20783
2023-07-04T16:35:52.751Z,cartservice,network_out,446214
2023-07-04T16:35:52.751Z,redis-cart,network_out,387171
2023-07-04T16:35:52.679Z,frontend,network_out,12079485
2023-07-04T16:35:52.751Z,currencyservice,network_out,948676
2023-07-04T16:35:52.751Z,recommendationservice,network_out,413370
2023-07-04T16:35:52.717Z,emailservice,network_out,21818
2023-07-04T16:35:52.717Z,adservice,network_out,176889
2023-07-04T16:35:52.679Z,redis-cart,network_out,588098
2023-07-04T16:35:52.679Z,shippingservice,network_out,150051
2023-07-04T16:35:52.717Z,redis-cart,network_out,387158
2023-07-04T16:35:52.679Z,redis-cart,network_out,400250
2023-07-04T16:35:52.679Z,productcatalogservice,network_out,4451058
2023-07-04T16:35:52.679Z,checkoutservice,network_out,170135
2023-07-04T16:36:02.679Z,frontend,network_out,12615193
2023-07-04T16:36:02.752Z,paymentservice,network_out,20783
2023-07-04T16:36:02.679Z,shippingservice,network_out,150051
2023-07-04T16:36:02.718Z,adservice,network_out,184639
2023-07-04T16:36:02.752Z,currencyservice,network_out,976037
2023-07-04T16:36:02.679Z,redis-cart,network_out,626065
2023-07-04T16:36:02.679Z,redis-cart,network_out,400250
2023-07-04T16:36:02.718Z,redis-cart,network_out,387784
2023-07-04T16:36:02.752Z,recommendationservice,network_out,435394
2023-07-04T16:36:02.679Z,checkoutservice,network_out,175902
2023-07-04T16:36:02.679Z,productcatalogservice,network_out,4451058
2023-07-04T16:36:02.718Z,emailservice,network_out,23451
2023-07-04T16:36:02.752Z,redis-cart,network_out,388053
2023-07-04T16:36:02.752Z,cartservice,network_out,469782
2023-07-04T16:36:12.679Z,redis-cart,network_out,626065
2023-07-04T16:36:12.679Z,redis-cart,network_out,415101
2023-07-04T16:36:12.679Z,frontend,network_out,12615193
2023-07-04T16:36:12.679Z,shippingservice,network_out,157342
2023-07-04T16:36:12.752Z,recommendationservice,network_out,459269
2023-07-04T16:36:12.679Z,productcatalogservice,network_out,4639818
2023-07-04T16:36:12.679Z,checkoutservice,network_out,176632
2023-07-04T16:36:12.717Z,emailservice,network_out,23451
2023-07-04T16:36:12.752Z,paymentservice,network_out,21975
2023-07-04T16:36:12.752Z,redis-cart,network_out,417044
2023-07-04T16:36:12.752Z,currencyservice,network_out,1016763
2023-07-04T16:36:12.717Z,redis-cart,network_out,417024
2023-07-04T16:36:12.717Z,adservice,network_out,192426
2023-07-04T16:36:12.752Z,cartservice,network_out,499362
2023-07-04T16:36:22.679Z,productcatalogservice,network_out,4781955
2023-07-04T16:36:22.679Z,redis-cart,network_out,415101
2023-07-04T16:36:22.717Z,adservice,network_out,200979
2023-07-04T16:36:22.717Z,redis-cart,network_out,431903
2023-07-04T16:36:22.679Z,redis-cart,network_out,631899
2023-07-04T16:36:22.717Z,emailservice,network_out,24546
2023-07-04T16:36:22.752Z,paymentservice,network_out,21975
2023-07-04T16:36:22.752Z,recommendationservice,network_out,459269
2023-07-04T16:36:22.679Z,shippingservice,network_out,157342
2023-07-04T16:36:22.679Z,checkoutservice,network_out,176632
2023-07-04T16:36:22.679Z,frontend,network_out,13027048
2023-07-04T16:36:22.752Z,redis-cart,network_out,417044
2023-07-04T16:36:22.752Z,cartservice,network_out,499362
2023-07-04T16:36:22.752Z,currencyservice,network_out,1016763
2023-07-04T16:36:32.679Z,checkoutservice,network_out,176632
2023-07-04T16:36:32.679Z,frontend,network_out,13027048
2023-07-04T16:36:32.752Z,currencyservice,network_out,1056343
2023-07-04T16:36:32.717Z,redis-cart,network_out,431903
2023-07-04T16:36:32.752Z,cartservice,network_out,511769
2023-07-04T16:36:32.679Z,productcatalogservice,network_out,4781955
2023-07-04T16:36:32.679Z,redis-cart,network_out,415101
2023-07-04T16:36:32.752Z,recommendationservice,network_out,459269
2023-07-04T16:36:32.752Z,redis-cart,network_out,417646
2023-07-04T16:36:32.679Z,shippingservice,network_out,157342
2023-07-04T16:36:32.679Z,redis-cart,network_out,631899
2023-07-04T16:36:32.717Z,emailservice,network_out,24546
2023-07-04T16:36:32.717Z,adservice,network_out,200979
2023-07-04T16:36:32.752Z,paymentservice,network_out,23190
2023-07-04T16:36:42.717Z,adservice,network_out,207859
2023-07-04T16:36:42.679Z,redis-cart,network_out,430792
2023-07-04T16:36:42.751Z,currencyservice,network_out,1056343
2023-07-04T16:36:42.717Z,redis-cart,network_out,446502
2023-07-04T16:36:42.679Z,productcatalogservice,network_out,4929204
2023-07-04T16:36:42.679Z,checkoutservice,network_out,181581
2023-07-04T16:36:42.751Z,paymentservice,network_out,23190
2023-07-04T16:36:42.717Z,emailservice,network_out,24546
2023-07-04T16:36:42.679Z,frontend,network_out,13753735
2023-07-04T16:36:42.679Z,redis-cart,network_out,672560
2023-07-04T16:36:42.751Z,cartservice,network_out,511769
2023-07-04T16:36:42.679Z,shippingservice,network_out,167884
2023-07-04T16:36:42.751Z,recommendationservice,network_out,473292
2023-07-04T16:36:42.751Z,redis-cart,network_out,418486
2023-07-04T16:36:52.752Z,cartservice,network_out,553950
2023-07-04T16:36:52.752Z,currencyservice,network_out,1137660
2023-07-04T16:36:52.679Z,productcatalogservice,network_out,4929204
2023-07-04T16:36:52.752Z,redis-cart,network_out,447811
2023-07-04T16:36:52.679Z,redis-cart,network_out,459654
2023-07-04T16:36:52.679Z,shippingservice,network_out,167884
2023-07-04T16:36:52.679Z,checkoutservice,network_out,183160
2023-07-04T16:36:52.717Z,adservice,network_out,217199
2023-07-04T16:36:52.717Z,emailservice,network_out,24869
2023-07-04T16:36:52.679Z,redis-cart,network_out,678862
2023-07-04T16:36:52.679Z,frontend,network_out,13753735
2023-07-04T16:36:52.717Z,redis-cart,network_out,447582
2023-07-04T16:36:52.752Z,recommendationservice,network_out,485969
2023-07-04T16:36:52.752Z,paymentservice,network_out,23298
2023-07-04T16:37:02.679Z,redis-cart,network_out,459654
2023-07-04T16:37:02.717Z,redis-cart,network_out,447582
2023-07-04T16:37:02.679Z,checkoutservice,network_out,200697
2023-07-04T16:37:02.717Z,emailservice,network_out,24869
2023-07-04T16:37:02.752Z,redis-cart,network_out,447811
2023-07-04T16:37:02.752Z,recommendationservice,network_out,505337
2023-07-04T16:37:02.679Z,productcatalogservice,network_out,5202855
2023-07-04T16:37:02.679Z,redis-cart,network_out,718396
2023-07-04T16:37:02.717Z,adservice,network_out,217199
2023-07-04T16:37:02.752Z,currencyservice,network_out,1137660
2023-07-04T16:37:02.679Z,frontend,network_out,14337708
2023-07-04T16:37:02.679Z,shippingservice,network_out,178365
2023-07-04T16:37:02.752Z,paymentservice,network_out,25121
2023-07-04T16:37:02.752Z,cartservice,network_out,569097
2023-07-04T16:37:12.679Z,redis-cart,network_out,460494
2023-07-04T16:37:12.679Z,shippingservice,network_out,184183
2023-07-04T16:37:12.751Z,redis-cart,network_out,447811
2023-07-04T16:37:12.679Z,frontend,network_out,14747204
2023-07-04T16:37:12.679Z,productcatalogservice,network_out,5393866
2023-07-04T16:37:12.717Z,adservice,network_out,217199
2023-07-04T16:37:12.751Z,recommendationservice,network_out,505337
2023-07-04T16:37:12.679Z,checkoutservice,network_out,200697
2023-07-04T16:37:12.717Z,redis-cart,network_out,476571
2023-07-04T16:37:12.717Z,emailservice,network_out,26807
2023-07-04T16:37:12.751Z,paymentservice,network_out,25121
2023-07-04T16:37:12.751Z,currencyservice,network_out,1137660
2023-07-04T16:37:12.679Z,redis-cart,network_out,718396
2023-07-04T16:37:12.751Z,cartservice,network_out,569097
2023-07-04T16:37:22.679Z,checkoutservice,network_out,200697
2023-07-04T16:37:22.718Z,redis-cart,network_out,476571
2023-07-04T16:37:22.751Z,currencyservice,network_out,1197748
2023-07-04T16:37:22.751Z,redis-cart,network_out,477145
2023-07-04T16:37:22.679Z,redis-cart,network_out,460494
2023-07-04T16:37:22.679Z,shippingservice,network_out,184183
2023-07-04T16:37:22.718Z,adservice,network_out,227346
2023-07-04T16:37:22.679Z,frontend,network_out,14747204
2023-07-04T16:37:22.679Z,productcatalogservice,network_out,5393866
2023-07-04T16:37:22.718Z,emailservice,network_out,26807
2023-07-04T16:37:22.751Z,recommendationservice,network_out,520230
2023-07-04T16:37:22.751Z,paymentservice,network_out,25121
2023-07-04T16:37:22.679Z,redis-cart,network_out,718396
2023-07-04T16:37:22.751Z,cartservice,network_out,569097
2023-07-04T16:37:32.717Z,emailservice,network_out,27812
2023-07-04T16:37:32.752Z,currencyservice,network_out,1260436
2023-07-04T16:37:32.679Z,redis-cart,network_out,767852
2023-07-04T16:37:32.679Z,checkoutservice,network_out,201357
2023-07-04T16:37:32.752Z,paymentservice,network_out,26985
2023-07-04T16:37:32.717Z,redis-cart,network_out,477775
2023-07-04T16:37:32.679Z,productcatalogservice,network_out,5610836
2023-07-04T16:37:32.752Z,cartservice,network_out,594497
2023-07-04T16:37:32.752Z,recommendationservice,network_out,539401
2023-07-04T16:37:32.717Z,adservice,network_out,227346
2023-07-04T16:37:32.679Z,redis-cart,network_out,489359
2023-07-04T16:37:32.679Z,shippingservice,network_out,189288
2023-07-04T16:37:32.679Z,frontend,network_out,15565455
2023-07-04T16:37:32.752Z,redis-cart,network_out,477705
2023-07-04T16:37:42.717Z,redis-cart,network_out,507017
2023-07-04T16:37:42.752Z,recommendationservice,network_out,539401
2023-07-04T16:37:42.679Z,shippingservice,network_out,199124
2023-07-04T16:37:42.717Z,adservice,network_out,246632
2023-07-04T16:37:42.752Z,paymentservice,network_out,26985
2023-07-04T16:37:42.679Z,redis-cart,network_out,774075
2023-07-04T16:37:42.679Z,productcatalogservice,network_out,5753640
2023-07-04T16:37:42.679Z,checkoutservice,network_out,225837
2023-07-04T16:37:42.717Z,emailservice,network_out,30312
2023-07-04T16:37:42.679Z,redis-cart,network_out,504212
2023-07-04T16:37:42.679Z,frontend,network_out,15565455
2023-07-04T16:37:42.752Z,cartservice,network_out,594497
2023-07-04T16:37:42.752Z,redis-cart,network_out,477705
2023-07-04T16:37:42.752Z,currencyservice,network_out,1260436
2023-07-04T16:37:52.679Z,shippingservice,network_out,199124
2023-07-04T16:37:52.718Z,redis-cart,network_out,521629
2023-07-04T16:37:52.679Z,redis-cart,network_out,504212
2023-07-04T16:37:52.679Z,frontend,network_out,15565455
2023-07-04T16:37:52.752Z,recommendationservice,network_out,550871
2023-07-04T16:37:52.718Z,emailservice,network_out,30312
2023-07-04T16:37:52.752Z,cartservice,network_out,618089
2023-07-04T16:37:52.752Z,redis-cart,network_out,507039
2023-07-04T16:37:52.679Z,redis-cart,network_out,774075
2023-07-04T16:37:52.679Z,productcatalogservice,network_out,5753640
2023-07-04T16:37:52.679Z,checkoutservice,network_out,225837
2023-07-04T16:37:52.718Z,adservice,network_out,246632
2023-07-04T16:37:52.752Z,currencyservice,network_out,1304951
2023-07-04T16:37:52.752Z,paymentservice,network_out,27300
2023-07-04T16:38:02.717Z,adservice,network_out,246632
2023-07-04T16:38:02.679Z,redis-cart,network_out,519065
2023-07-04T16:38:02.679Z,redis-cart,network_out,813873
2023-07-04T16:38:02.679Z,shippingservice,network_out,204776
2023-07-04T16:38:02.752Z,cartservice,network_out,633329
2023-07-04T16:38:02.717Z,emailservice,network_out,30312
2023-07-04T16:38:02.717Z,redis-cart,network_out,521629
2023-07-04T16:38:02.679Z,checkoutservice,network_out,230792
2023-07-04T16:38:02.752Z,currencyservice,network_out,1304951
2023-07-04T16:38:02.752Z,redis-cart,network_out,507879
2023-07-04T16:38:02.679Z,productcatalogservice,network_out,5878908
2023-07-04T16:38:02.679Z,frontend,network_out,16376356
2023-07-04T16:38:02.752Z,recommendationservice,network_out,568200
2023-07-04T16:38:02.752Z,paymentservice,network_out,28561
2023-07-04T16:38:12.717Z,emailservice,network_out,30312
2023-07-04T16:38:12.679Z,redis-cart,network_out,817622
2023-07-04T16:38:12.679Z,redis-cart,network_out,533918
2023-07-04T16:38:12.752Z,recommendationservice,network_out,583136
2023-07-04T16:38:12.717Z,redis-cart,network_out,536563
2023-07-04T16:38:12.679Z,checkoutservice,network_out,237820
2023-07-04T16:38:12.679Z,productcatalogservice,network_out,6076843
2023-07-04T16:38:12.679Z,frontend,network_out,16962747
2023-07-04T16:38:12.752Z,redis-cart,network_out,536891
2023-07-04T16:38:12.752Z,cartservice,network_out,648164
2023-07-04T16:38:12.717Z,adservice,network_out,253357
2023-07-04T16:38:12.679Z,shippingservice,network_out,209460
2023-07-04T16:38:12.752Z,currencyservice,network_out,1343491
2023-07-04T16:38:12.752Z,paymentservice,network_out,29603
2023-07-04T16:38:22.679Z,productcatalogservice,network_out,6076843
2023-07-04T16:38:22.752Z,currencyservice,network_out,1343491
2023-07-04T16:38:22.752Z,paymentservice,network_out,29603
2023-07-04T16:38:22.717Z,emailservice,network_out,30312
2023-07-04T16:38:22.752Z,recommendationservice,network_out,583136
2023-07-04T16:38:22.717Z,adservice,network_out,253357
2023-07-04T16:38:22.679Z,shippingservice,network_out,209460
2023-07-04T16:38:22.752Z,redis-cart,network_out,536891
2023-07-04T16:38:22.752Z,cartservice,network_out,648164
2023-07-04T16:38:22.717Z,redis-cart,network_out,536563
2023-07-04T16:38:22.679Z,checkoutservice,network_out,237820
2023-07-04T16:38:22.679Z,redis-cart,network_out,533918
2023-07-04T16:38:22.679Z,frontend,network_out,16962747
2023-07-04T16:38:22.679Z,redis-cart,network_out,817622
2023-07-04T16:38:32.679Z,redis-cart,network_out,857843
2023-07-04T16:38:32.679Z,productcatalogservice,network_out,6290482
2023-07-04T16:38:32.718Z,emailservice,network_out,32226
2023-07-04T16:38:32.718Z,adservice,network_out,268926
2023-07-04T16:38:32.752Z,cartservice,network_out,648164
2023-07-04T16:38:32.752Z,currencyservice,network_out,1378085
2023-07-04T16:38:32.679Z,redis-cart,network_out,549121
2023-07-04T16:38:32.679Z,frontend,network_out,17382028
2023-07-04T16:38:32.679Z,shippingservice,network_out,219404
2023-07-04T16:38:32.718Z,redis-cart,network_out,566067
2023-07-04T16:38:32.752Z,paymentservice,network_out,29603
2023-07-04T16:38:32.752Z,recommendationservice,network_out,583136
2023-07-04T16:38:32.752Z,redis-cart,network_out,536891
2023-07-04T16:38:32.679Z,checkoutservice,network_out,254349
2023-07-04T16:38:42.679Z,checkoutservice,network_out,254349
2023-07-04T16:38:42.751Z,paymentservice,network_out,30680
2023-07-04T16:38:42.679Z,productcatalogservice,network_out,6290482
2023-07-04T16:38:42.751Z,recommendationservice,network_out,617628
2023-07-04T16:38:42.751Z,currencyservice,network_out,1416322
2023-07-04T16:38:42.679Z,redis-cart,network_out,549121
2023-07-04T16:38:42.679Z,frontend,network_out,17382028
2023-07-04T16:38:42.679Z,shippingservice,network_out,219404
2023-07-04T16:38:42.718Z,adservice,network_out,277153
2023-07-04T16:38:42.718Z,redis-cart,network_out,566627
2023-07-04T16:38:42.679Z,redis-cart,network_out,857843
2023-07-04T16:38:42.718Z,emailservice,network_out,32639
2023-07-04T16:38:42.751Z,redis-cart,network_out,537801
2023-07-04T16:38:42.751Z,cartservice,network_out,686875
2023-07-04T16:38:52.717Z,emailservice,network_out,32639
2023-07-04T16:38:52.679Z,checkoutservice,network_out,255094
2023-07-04T16:38:52.752Z,redis-cart,network_out,567100
2023-07-04T16:38:52.679Z,shippingservice,network_out,226734
2023-07-04T16:38:52.679Z,redis-cart,network_out,866211
2023-07-04T16:38:52.752Z,currencyservice,network_out,1444686
2023-07-04T16:38:52.752Z,paymentservice,network_out,31580
2023-07-04T16:38:52.717Z,adservice,network_out,277153
2023-07-04T16:38:52.717Z,redis-cart,network_out,566627
2023-07-04T16:38:52.679Z,frontend,network_out,17889344
2023-07-04T16:38:52.679Z,redis-cart,network_out,563974
2023-07-04T16:38:52.679Z,productcatalogservice,network_out,6507963
2023-07-04T16:38:52.752Z,recommendationservice,network_out,617628
2023-07-04T16:38:52.752Z,cartservice,network_out,705797
2023-07-04T16:39:02.679Z,productcatalogservice,network_out,6745667
2023-07-04T16:39:02.752Z,redis-cart,network_out,567100
2023-07-04T16:39:02.752Z,cartservice,network_out,705797
2023-07-04T16:39:02.679Z,redis-cart,network_out,907023
2023-07-04T16:39:02.679Z,checkoutservice,network_out,263293
2023-07-04T16:39:02.752Z,currencyservice,network_out,1444686
2023-07-04T16:39:02.679Z,redis-cart,network_out,578547
2023-07-04T16:39:02.752Z,paymentservice,network_out,31580
2023-07-04T16:39:02.679Z,shippingservice,network_out,226734
2023-07-04T16:39:02.679Z,frontend,network_out,18529072
2023-07-04T16:39:02.718Z,emailservice,network_out,32639
2023-07-04T16:39:02.718Z,adservice,network_out,277153
2023-07-04T16:39:02.718Z,redis-cart,network_out,566627
2023-07-04T16:39:02.752Z,recommendationservice,network_out,617628
2023-07-04T16:39:12.679Z,redis-cart,network_out,578547
2023-07-04T16:39:12.679Z,frontend,network_out,18529072
2023-07-04T16:39:12.717Z,adservice,network_out,287699
2023-07-04T16:39:12.679Z,shippingservice,network_out,226734
2023-07-04T16:39:12.679Z,checkoutservice,network_out,263293
2023-07-04T16:39:12.679Z,redis-cart,network_out,907023
2023-07-04T16:39:12.679Z,productcatalogservice,network_out,6745667
2023-07-04T16:39:12.717Z,emailservice,network_out,34061
2023-07-04T16:39:12.717Z,redis-cart,network_out,595923
2023-07-04T16:39:12.752Z,redis-cart,network_out,596727
2023-07-04T16:39:12.752Z,recommendationservice,network_out,641062
2023-07-04T16:39:12.752Z,cartservice,network_out,719437
2023-07-04T16:39:12.752Z,paymentservice,network_out,31961
2023-07-04T16:39:12.752Z,currencyservice,network_out,1500685
2023-07-04T16:39:22.679Z,checkoutservice,network_out,269584
2023-07-04T16:39:22.752Z,currencyservice,network_out,1500685
2023-07-04T16:39:22.679Z,shippingservice,network_out,240974
2023-07-04T16:39:22.679Z,redis-cart,network_out,593400
2023-07-04T16:39:22.679Z,frontend,network_out,18961263
2023-07-04T16:39:22.679Z,productcatalogservice,network_out,6881651
2023-07-04T16:39:22.679Z,redis-cart,network_out,912971
2023-07-04T16:39:22.717Z,redis-cart,network_out,596763
2023-07-04T16:39:22.717Z,adservice,network_out,293852
2023-07-04T16:39:22.717Z,emailservice,network_out,34061
2023-07-04T16:39:22.752Z,recommendationservice,network_out,659439
2023-07-04T16:39:22.752Z,paymentservice,network_out,31961
2023-07-04T16:39:22.752Z,redis-cart,network_out,596727
2023-07-04T16:39:22.752Z,cartservice,network_out,734530
2023-07-04T16:39:32.679Z,frontend,network_out,19436022
2023-07-04T16:39:32.679Z,productcatalogservice,network_out,7015168
2023-07-04T16:39:32.718Z,redis-cart,network_out,625991
2023-07-04T16:39:32.752Z,recommendationservice,network_out,659439
2023-07-04T16:39:32.752Z,cartservice,network_out,734530
2023-07-04T16:39:32.679Z,redis-cart,network_out,608533
2023-07-04T16:39:32.679Z,shippingservice,network_out,240974
2023-07-04T16:39:32.679Z,checkoutservice,network_out,276738
2023-07-04T16:39:32.752Z,currencyservice,network_out,1500685
2023-07-04T16:39:32.752Z,redis-cart,network_out,596727
2023-07-04T16:39:32.679Z,redis-cart,network_out,950576
2023-07-04T16:39:32.718Z,adservice,network_out,300410
2023-07-04T16:39:32.718Z,emailservice,network_out,34061
2023-07-04T16:39:32.752Z,paymentservice,network_out,31961
2023-07-04T16:39:42.717Z,emailservice,network_out,34061
2023-07-04T16:39:42.752Z,paymentservice,network_out,34598
2023-07-04T16:39:42.752Z,recommendationservice,network_out,677687
2023-07-04T16:39:42.752Z,cartservice,network_out,750895
2023-07-04T16:39:42.679Z,redis-cart,network_out,955358
2023-07-04T16:39:42.679Z,checkoutservice,network_out,276738
2023-07-04T16:39:42.717Z,redis-cart,network_out,625991
2023-07-04T16:39:42.752Z,redis-cart,network_out,626321
2023-07-04T16:39:42.679Z,frontend,network_out,19436022
2023-07-04T16:39:42.679Z,shippingservice,network_out,248536
2023-07-04T16:39:42.679Z,productcatalogservice,network_out,7128363
2023-07-04T16:39:42.679Z,redis-cart,network_out,608533
2023-07-04T16:39:42.717Z,adservice,network_out,300410
2023-07-04T16:39:42.752Z,currencyservice,network_out,1557325
2023-07-04T16:39:52.751Z,redis-cart,network_out,626321
2023-07-04T16:39:52.751Z,cartservice,network_out,750895
2023-07-04T16:39:52.717Z,redis-cart,network_out,626749
2023-07-04T16:39:52.717Z,emailservice,network_out,35892
2023-07-04T16:39:52.751Z,paymentservice,network_out,34598
2023-07-04T16:39:52.751Z,currencyservice,network_out,1557325
2023-07-04T16:39:52.679Z,frontend,network_out,19436022
2023-07-04T16:39:52.679Z,shippingservice,network_out,248536
2023-07-04T16:39:52.679Z,productcatalogservice,network_out,7128363
2023-07-04T16:39:52.679Z,redis-cart,network_out,608533
2023-07-04T16:39:52.717Z,adservice,network_out,305417
2023-07-04T16:39:52.751Z,recommendationservice,network_out,677687
2023-07-04T16:39:52.679Z,redis-cart,network_out,955358
2023-07-04T16:39:52.679Z,checkoutservice,network_out,276738
2023-07-04T16:40:02.718Z,redis-cart,network_out,655997
2023-07-04T16:40:02.752Z,redis-cart,network_out,626321
2023-07-04T16:40:02.752Z,recommendationservice,network_out,690255
2023-07-04T16:40:02.679Z,redis-cart,network_out,961563
2023-07-04T16:40:02.679Z,shippingservice,network_out,251599
2023-07-04T16:40:02.718Z,adservice,network_out,314210
2023-07-04T16:40:02.718Z,emailservice,network_out,36938
2023-07-04T16:40:02.752Z,cartservice,network_out,773579
2023-07-04T16:40:02.752Z,paymentservice,network_out,34598
2023-07-04T16:40:02.679Z,productcatalogservice,network_out,7297537
2023-07-04T16:40:02.752Z,currencyservice,network_out,1591288
2023-07-04T16:40:02.679Z,frontend,network_out,19910318
2023-07-04T16:40:02.679Z,checkoutservice,network_out,283094
2023-07-04T16:40:02.679Z,redis-cart,network_out,638519
2023-07-04T16:40:12.679Z,checkoutservice,network_out,293511
2023-07-04T16:40:12.718Z,adservice,network_out,314210
2023-07-04T16:40:12.752Z,recommendationservice,network_out,702445
2023-07-04T16:40:12.679Z,redis-cart,network_out,961563
2023-07-04T16:40:12.679Z,redis-cart,network_out,638519
2023-07-04T16:40:12.718Z,emailservice,network_out,37351
2023-07-04T16:40:12.679Z,frontend,network_out,20582191
2023-07-04T16:40:12.679Z,productcatalogservice,network_out,7426233
2023-07-04T16:40:12.752Z,redis-cart,network_out,627441
2023-07-04T16:40:12.679Z,shippingservice,network_out,260209
2023-07-04T16:40:12.718Z,redis-cart,network_out,655997
2023-07-04T16:40:12.752Z,cartservice,network_out,802518
2023-07-04T16:40:12.752Z,paymentservice,network_out,36152
2023-07-04T16:40:12.752Z,currencyservice,network_out,1638727
2023-07-04T16:40:22.752Z,paymentservice,network_out,36152
2023-07-04T16:40:22.752Z,currencyservice,network_out,1638727
2023-07-04T16:40:22.718Z,redis-cart,network_out,655997
2023-07-04T16:40:22.752Z,recommendationservice,network_out,729114
2023-07-04T16:40:22.679Z,checkoutservice,network_out,316036
2023-07-04T16:40:22.679Z,redis-cart,network_out,667680
2023-07-04T16:40:22.679Z,productcatalogservice,network_out,7426233
2023-07-04T16:40:22.679Z,frontend,network_out,20582191
2023-07-04T16:40:22.718Z,emailservice,network_out,37351
2023-07-04T16:40:22.718Z,adservice,network_out,314210
2023-07-04T16:40:22.679Z,redis-cart,network_out,1003029
2023-07-04T16:40:22.679Z,shippingservice,network_out,267830
2023-07-04T16:40:22.752Z,redis-cart,network_out,656758
2023-07-04T16:40:22.752Z,cartservice,network_out,802518
