timestamp,key,run_id,resource,metric,value
2021-06-07T17:14:55.017Z,SHARED_SIDECAR_MULTI_PROBE-2-1-1,1,target-1,network_out,1.0039434432983398
2021-06-07T17:26:40.176Z,SHARED_SIDECAR_MULTI_PROBE-2-1-1,2,target-1,network_out,0.9894485473632812
2021-06-07T17:38:23.647Z,SHARED_SIDECAR_MULTI_PROBE-2-1-1,3,target-1,network_out,0.9920721054077148
2021-06-07T19:48:42.116Z,SHARED_SIDECAR_MULTI_PROBE-2-1-16,1,target-1,network_out,1.3348474502563477
2021-06-07T20:04:46.617Z,SHARED_SIDECAR_MULTI_PROBE-2-1-16,2,target-1,network_out,1.2803354263305664
2021-06-07T20:21:05.842Z,SHARED_SIDECAR_MULTI_PROBE-2-1-16,3,target-1,network_out,1.278029441833496
2021-06-07T17:50:26.981Z,SHARED_SIDECAR_MULTI_PROBE-2-1-2,1,target-1,network_out,1.0126523971557617
2021-06-07T18:02:19.237Z,SHARED_SIDECAR_MULTI_PROBE-2-1-2,2,target-1,network_out,1.0127840042114258
2021-06-07T18:14:18.405Z,SHARED_SIDECAR_MULTI_PROBE-2-1-2,3,target-1,network_out,1.015366554260254
2021-06-07T18:26:57.021Z,SHARED_SIDECAR_MULTI_PROBE-2-1-4,1,target-1,network_out,1.049025535583496
2021-06-07T18:39:31.549Z,SHARED_SIDECAR_MULTI_PROBE-2-1-4,2,target-1,network_out,1.0515766143798828
2021-06-07T18:52:11.320Z,SHARED_SIDECAR_MULTI_PROBE-2-1-4,3,target-1,network_out,1.0440292358398438
2021-06-07T19:05:40.620Z,SHARED_SIDECAR_MULTI_PROBE-2-1-8,1,target-1,network_out,1.119527816772461
2021-06-07T19:19:30.156Z,SHARED_SIDECAR_MULTI_PROBE-2-1-8,2,target-1,network_out,1.1169519424438477
2021-06-07T19:33:15.255Z,SHARED_SIDECAR_MULTI_PROBE-2-1-8,3,target-1,network_out,1.1228303909301758
