2023-07-24T13:34:20.789Z,adservice,memory,791777280
2023-07-24T13:34:22.412Z,cartservice,memory,486002688
2023-07-24T13:34:21.476Z,paymentservice-4,memory,480473088
2023-07-24T13:34:24.525Z,productcatalogservice,memory,486014976
2023-07-24T13:34:26.231Z,checkoutservice,memory,534896640
2023-07-24T13:34:27.775Z,shippingservice,memory,471724032
2023-07-24T13:34:27.594Z,paymentservice-2,memory,483401728
2023-07-24T13:34:27.408Z,recommendationservice,memory,534384640
2023-07-24T13:34:27.928Z,paymentservice-3,memory,486326272
2023-07-24T13:34:27.875Z,currencyservice,memory,469131264
2023-07-24T13:34:29.574Z,emailservice,memory,519573504
2023-07-24T13:34:30.791Z,adservice,memory,791957504
2023-07-24T13:34:31.218Z,paymentservice-1,memory,487092224
2023-07-24T13:34:32.413Z,cartservice,memory,486219776
2023-07-24T13:34:31.477Z,paymentservice-4,memory,480464896
2023-07-24T13:34:33.994Z,probe-holder,memory,490029056
2023-07-24T13:34:34.526Z,productcatalogservice,memory,485994496
2023-07-24T13:34:36.233Z,checkoutservice,memory,534888448
2023-07-24T13:34:37.775Z,shippingservice,memory,476082176
2023-07-24T13:34:37.409Z,recommendationservice,memory,559603712
2023-07-24T13:34:37.594Z,paymentservice-2,memory,483385344
2023-07-24T13:34:37.930Z,paymentservice-3,memory,486313984
2023-07-24T13:34:37.875Z,currencyservice,memory,480157696
2023-07-24T13:34:39.574Z,emailservice,memory,523825152
2023-07-24T13:34:40.791Z,adservice,memory,792698880
2023-07-24T13:34:41.219Z,paymentservice-1,memory,487116800
2023-07-24T13:34:42.413Z,cartservice,memory,486211584
2023-07-24T13:34:41.477Z,paymentservice-4,memory,480448512
2023-07-24T13:34:43.995Z,probe-holder,memory,490012672
2023-07-24T13:34:44.526Z,productcatalogservice,memory,485961728
2023-07-24T13:34:46.232Z,checkoutservice,memory,535330816
2023-07-24T13:34:47.775Z,shippingservice,memory,477102080
2023-07-24T13:34:47.595Z,paymentservice-2,memory,483368960
2023-07-24T13:34:47.409Z,recommendationservice,memory,508542976
2023-07-24T13:34:47.930Z,paymentservice-3,memory,486297600
2023-07-24T13:34:47.875Z,currencyservice,memory,480157696
2023-07-24T13:34:49.574Z,emailservice,memory,524337152
2023-07-24T13:34:50.791Z,adservice,memory,792936448
2023-07-24T13:34:51.219Z,paymentservice-1,memory,487739392
2023-07-24T13:34:52.413Z,cartservice,memory,486690816
2023-07-24T13:34:51.477Z,paymentservice-4,memory,484634624
2023-07-24T13:34:53.995Z,probe-holder,memory,494190592
2023-07-24T13:34:54.526Z,productcatalogservice,memory,490377216
2023-07-24T13:34:56.232Z,checkoutservice,memory,535310336
2023-07-24T13:34:57.775Z,shippingservice,memory,481214464
2023-07-24T13:34:57.595Z,paymentservice-2,memory,483356672
2023-07-24T13:34:57.409Z,recommendationservice,memory,564916224
2023-07-24T13:34:57.930Z,paymentservice-3,memory,486273024
2023-07-24T13:34:57.875Z,currencyservice,memory,480149504
2023-07-24T13:34:59.574Z,emailservice,memory,524328960
2023-07-24T13:35:00.790Z,adservice,memory,792604672
2023-07-24T13:35:01.219Z,paymentservice-1,memory,487890944
2023-07-24T13:35:02.412Z,cartservice,memory,486674432
2023-07-24T13:35:01.477Z,paymentservice-4,memory,484610048
2023-07-24T13:35:03.995Z,probe-holder,memory,494182400
2023-07-24T13:35:04.526Z,productcatalogservice,memory,490356736
2023-07-24T13:35:06.233Z,checkoutservice,memory,535293952
2023-07-24T13:35:07.776Z,shippingservice,memory,481206272
2023-07-24T13:35:07.595Z,paymentservice-2,memory,483336192
2023-07-24T13:35:07.409Z,recommendationservice,memory,512004096
2023-07-24T13:35:07.930Z,paymentservice-3,memory,486264832
2023-07-24T13:35:07.875Z,currencyservice,memory,481718272
2023-07-24T13:35:09.578Z,emailservice,memory,524320768
2023-07-24T13:35:10.791Z,adservice,memory,793112576
2023-07-24T13:35:11.219Z,paymentservice-1,memory,488554496
2023-07-24T13:35:12.412Z,cartservice,memory,486666240
2023-07-24T13:35:11.477Z,paymentservice-4,memory,484593664
2023-07-24T13:35:13.995Z,probe-holder,memory,494166016
2023-07-24T13:35:14.526Z,productcatalogservice,memory,490602496
2023-07-24T13:35:16.232Z,checkoutservice,memory,535277568
2023-07-24T13:35:17.776Z,shippingservice,memory,481452032
2023-07-24T13:35:17.409Z,recommendationservice,memory,516411392
2023-07-24T13:35:17.595Z,paymentservice-2,memory,483328000
2023-07-24T13:35:17.930Z,paymentservice-3,memory,486248448
2023-07-24T13:35:17.875Z,currencyservice,memory,481714176
2023-07-24T13:35:19.574Z,emailservice,memory,524361728
2023-07-24T13:35:20.790Z,adservice,memory,792907776
2023-07-24T13:35:21.219Z,paymentservice-1,memory,488538112
2023-07-24T13:35:22.412Z,cartservice,memory,486567936
2023-07-24T13:35:21.477Z,paymentservice-4,memory,484585472
2023-07-24T13:35:23.995Z,probe-holder,memory,494149632
2023-07-24T13:35:24.526Z,productcatalogservice,memory,490569728
2023-07-24T13:35:26.232Z,checkoutservice,memory,535494656
2023-07-24T13:35:27.775Z,shippingservice,memory,476770304
2023-07-24T13:35:27.595Z,paymentservice-2,memory,483303424
2023-07-24T13:35:27.409Z,recommendationservice,memory,521093120
2023-07-24T13:35:27.930Z,paymentservice-3,memory,489750528
2023-07-24T13:35:27.875Z,currencyservice,memory,486064128
2023-07-24T13:35:29.574Z,emailservice,memory,523988992
2023-07-24T13:35:30.790Z,adservice,memory,792875008
2023-07-24T13:35:31.219Z,paymentservice-1,memory,488525824
2023-07-24T13:35:32.413Z,cartservice,memory,486457344
2023-07-24T13:35:31.477Z,paymentservice-4,memory,484425728
2023-07-24T13:35:33.995Z,probe-holder,memory,494116864
2023-07-24T13:35:34.526Z,productcatalogservice,memory,490487808
2023-07-24T13:35:36.232Z,checkoutservice,memory,533962752
2023-07-24T13:35:37.776Z,shippingservice,memory,482213888
2023-07-24T13:35:37.594Z,paymentservice-2,memory,483540992
2023-07-24T13:35:37.409Z,recommendationservice,memory,520949760
2023-07-24T13:35:37.930Z,paymentservice-3,memory,489730048
2023-07-24T13:35:37.875Z,currencyservice,memory,454209536
2023-07-24T13:35:39.574Z,emailservice,memory,524824576
2023-07-24T13:35:40.790Z,adservice,memory,792854528
2023-07-24T13:35:41.219Z,paymentservice-1,memory,489328640
2023-07-24T13:35:42.413Z,cartservice,memory,486449152
2023-07-24T13:35:41.477Z,paymentservice-4,memory,484405248
2023-07-24T13:35:43.995Z,probe-holder,memory,494247936
2023-07-24T13:35:44.526Z,productcatalogservice,memory,490479616
2023-07-24T13:35:46.232Z,checkoutservice,memory,534769664
2023-07-24T13:35:47.775Z,shippingservice,memory,482205696
2023-07-24T13:35:47.595Z,paymentservice-2,memory,452395008
2023-07-24T13:35:47.409Z,recommendationservice,memory,520933376
2023-07-24T13:35:47.930Z,paymentservice-3,memory,509263872
2023-07-24T13:35:47.875Z,currencyservice,memory,454455296
2023-07-24T13:35:49.574Z,emailservice,memory,524836864
2023-07-24T13:35:50.791Z,adservice,memory,792846336
2023-07-24T13:35:51.219Z,paymentservice-1,memory,447746048
2023-07-24T13:35:52.413Z,cartservice,memory,486428672
2023-07-24T13:35:51.477Z,paymentservice-4,memory,484397056
2023-07-24T13:35:53.995Z,probe-holder,memory,494231552
2023-07-24T13:35:54.526Z,productcatalogservice,memory,490463232
2023-07-24T13:35:56.233Z,checkoutservice,memory,536842240
2023-07-24T13:35:57.776Z,shippingservice,memory,482185216
2023-07-24T13:35:57.595Z,paymentservice-2,memory,454950912
2023-07-24T13:35:57.409Z,recommendationservice,memory,520925184
2023-07-24T13:35:57.930Z,paymentservice-3,memory,513658880
2023-07-24T13:35:57.875Z,currencyservice,memory,454438912
2023-07-24T13:35:59.574Z,emailservice,memory,524820480
2023-07-24T13:36:00.791Z,adservice,memory,792825856
2023-07-24T13:36:01.219Z,paymentservice-1,memory,451923968
2023-07-24T13:36:02.412Z,cartservice,memory,486408192
2023-07-24T13:36:01.477Z,paymentservice-4,memory,483696640
2023-07-24T13:36:03.995Z,probe-holder,memory,498302976
2023-07-24T13:36:04.526Z,productcatalogservice,memory,490442752
2023-07-24T13:36:06.233Z,checkoutservice,memory,538611712
2023-07-24T13:36:07.775Z,shippingservice,memory,482168832
2023-07-24T13:36:07.409Z,recommendationservice,memory,520904704
2023-07-24T13:36:07.595Z,paymentservice-2,memory,459128832
2023-07-24T13:36:07.930Z,paymentservice-3,memory,513904640
2023-07-24T13:36:07.875Z,currencyservice,memory,454430720
2023-07-24T13:36:09.574Z,emailservice,memory,524812288
2023-07-24T13:36:10.791Z,adservice,memory,792809472
2023-07-24T13:36:11.219Z,paymentservice-1,memory,450859008
2023-07-24T13:36:12.413Z,cartservice,memory,486400000
2023-07-24T13:36:11.477Z,paymentservice-4,memory,483676160
2023-07-24T13:36:13.995Z,probe-holder,memory,498286592
2023-07-24T13:36:14.526Z,productcatalogservice,memory,490434560
2023-07-24T13:36:16.233Z,checkoutservice,memory,540766208
2023-07-24T13:36:17.775Z,shippingservice,memory,487403520
2023-07-24T13:36:17.409Z,recommendationservice,memory,520896512
2023-07-24T13:36:17.594Z,paymentservice-2,memory,463826944
2023-07-24T13:36:17.930Z,paymentservice-3,memory,513888256
2023-07-24T13:36:17.875Z,currencyservice,memory,454930432
2023-07-24T13:36:19.574Z,emailservice,memory,524800000
2023-07-24T13:36:20.791Z,adservice,memory,792797184
2023-07-24T13:36:21.219Z,paymentservice-1,memory,451104768
2023-07-24T13:36:22.413Z,cartservice,memory,486383616
2023-07-24T13:36:21.477Z,paymentservice-4,memory,483659776
2023-07-24T13:36:23.995Z,probe-holder,memory,502464512
2023-07-24T13:36:24.526Z,productcatalogservice,memory,490418176
2023-07-24T13:36:26.232Z,checkoutservice,memory,542842880
2023-07-24T13:36:27.776Z,shippingservice,memory,499589120
2023-07-24T13:36:27.595Z,paymentservice-2,memory,463810560
2023-07-24T13:36:27.409Z,recommendationservice,memory,520876032
2023-07-24T13:36:27.929Z,paymentservice-3,memory,513875968
2023-07-24T13:36:27.875Z,currencyservice,memory,454914048
2023-07-24T13:36:29.574Z,emailservice,memory,524779520
2023-07-24T13:36:30.790Z,adservice,memory,796975104
2023-07-24T13:36:31.219Z,paymentservice-1,memory,455282688
2023-07-24T13:36:32.413Z,cartservice,memory,486367232
2023-07-24T13:36:31.477Z,paymentservice-4,memory,483643392
2023-07-24T13:36:33.995Z,probe-holder,memory,506646528
2023-07-24T13:36:34.526Z,productcatalogservice,memory,511516672
2023-07-24T13:36:36.233Z,checkoutservice,memory,544919552
2023-07-24T13:36:37.776Z,shippingservice,memory,531517440
2023-07-24T13:36:37.595Z,paymentservice-2,memory,464023552
2023-07-24T13:36:37.409Z,recommendationservice,memory,520843264
2023-07-24T13:36:37.930Z,paymentservice-3,memory,513867776
2023-07-24T13:36:37.875Z,currencyservice,memory,454905856
2023-07-24T13:36:39.574Z,emailservice,memory,524771328
2023-07-24T13:36:40.790Z,adservice,memory,794009600
2023-07-24T13:36:41.219Z,paymentservice-1,memory,459468800
2023-07-24T13:36:42.413Z,cartservice,memory,486359040
2023-07-24T13:36:41.477Z,paymentservice-4,memory,483590144
2023-07-24T13:36:43.995Z,probe-holder,memory,506630144
2023-07-24T13:36:44.526Z,productcatalogservice,memory,481619968
2023-07-24T13:36:46.232Z,checkoutservice,memory,545394688
2023-07-24T13:36:47.775Z,shippingservice,memory,531689472
2023-07-24T13:36:47.595Z,paymentservice-2,memory,464015360
2023-07-24T13:36:47.409Z,recommendationservice,memory,520835072
2023-07-24T13:36:47.929Z,paymentservice-3,memory,513851392
2023-07-24T13:36:47.875Z,currencyservice,memory,455147520
2023-07-24T13:36:49.574Z,emailservice,memory,501387264
2023-07-24T13:36:50.791Z,adservice,memory,794259456
2023-07-24T13:36:51.219Z,paymentservice-1,memory,459452416
2023-07-24T13:36:52.412Z,cartservice,memory,486338560
2023-07-24T13:36:51.478Z,paymentservice-4,memory,483573760
2023-07-24T13:36:53.995Z,probe-holder,memory,506613760
2023-07-24T13:36:54.526Z,productcatalogservice,memory,481599488
2023-07-24T13:36:56.233Z,checkoutservice,memory,545374208
2023-07-24T13:36:57.775Z,shippingservice,memory,524709888
2023-07-24T13:36:57.594Z,paymentservice-2,memory,463998976
2023-07-24T13:36:57.409Z,recommendationservice,memory,520814592
2023-07-24T13:36:57.930Z,paymentservice-3,memory,513835008
2023-07-24T13:36:57.875Z,currencyservice,memory,455131136
2023-07-24T13:36:59.574Z,emailservice,memory,500862976
2023-07-24T13:37:00.790Z,adservice,memory,797851648
2023-07-24T13:37:01.219Z,paymentservice-1,memory,459661312
2023-07-24T13:37:02.413Z,cartservice,memory,486322176
2023-07-24T13:37:01.477Z,paymentservice-4,memory,483561472
2023-07-24T13:37:03.995Z,probe-holder,memory,506605568
2023-07-24T13:37:04.526Z,productcatalogservice,memory,489971712
2023-07-24T13:37:06.233Z,checkoutservice,memory,545357824
2023-07-24T13:37:07.776Z,shippingservice,memory,535568384
2023-07-24T13:37:07.595Z,paymentservice-2,memory,463982592
2023-07-24T13:37:07.409Z,recommendationservice,memory,520798208
2023-07-24T13:37:07.930Z,paymentservice-3,memory,514056192
2023-07-24T13:37:07.875Z,currencyservice,memory,455352320
2023-07-24T13:37:09.574Z,emailservice,memory,500854784
2023-07-24T13:37:10.791Z,adservice,memory,802480128
2023-07-24T13:37:11.219Z,paymentservice-1,memory,459653120
2023-07-24T13:37:12.412Z,cartservice,memory,486313984
2023-07-24T13:37:11.477Z,paymentservice-4,memory,483545088
2023-07-24T13:37:13.995Z,probe-holder,memory,506589184
2023-07-24T13:37:14.526Z,productcatalogservice,memory,489963520
2023-07-24T13:37:16.233Z,checkoutservice,memory,545349632
2023-07-24T13:37:17.775Z,shippingservice,memory,535678976
2023-07-24T13:37:17.595Z,paymentservice-2,memory,463974400
2023-07-24T13:37:17.409Z,recommendationservice,memory,520781824
2023-07-24T13:37:17.930Z,paymentservice-3,memory,514039808
2023-07-24T13:37:17.875Z,currencyservice,memory,455335936
2023-07-24T13:37:19.574Z,emailservice,memory,501837824
2023-07-24T13:37:20.791Z,adservice,memory,802402304
2023-07-24T13:37:21.219Z,paymentservice-1,memory,459636736
2023-07-24T13:37:22.413Z,cartservice,memory,486289408
2023-07-24T13:37:21.477Z,paymentservice-4,memory,483536896
2023-07-24T13:37:23.995Z,probe-holder,memory,506572800
2023-07-24T13:37:24.526Z,productcatalogservice,memory,489861120
2023-07-24T13:37:26.233Z,checkoutservice,memory,545333248
2023-07-24T13:37:27.776Z,shippingservice,memory,535576576
2023-07-24T13:37:27.594Z,paymentservice-2,memory,463953920
2023-07-24T13:37:27.409Z,recommendationservice,memory,520732672
2023-07-24T13:37:27.929Z,paymentservice-3,memory,514023424
2023-07-24T13:37:27.875Z,currencyservice,memory,455315456
2023-07-24T13:37:29.574Z,emailservice,memory,503623680
2023-07-24T13:37:30.790Z,adservice,memory,802344960
2023-07-24T13:37:31.219Z,paymentservice-1,memory,459620352
2023-07-24T13:37:32.412Z,cartservice,memory,490467328
2023-07-24T13:37:31.477Z,paymentservice-4,memory,483516416
2023-07-24T13:37:33.995Z,probe-holder,memory,506429440
2023-07-24T13:37:34.526Z,productcatalogservice,memory,490106880
2023-07-24T13:37:36.233Z,checkoutservice,memory,545316864
2023-07-24T13:37:37.775Z,shippingservice,memory,535629824
2023-07-24T13:37:37.594Z,paymentservice-2,memory,463937536
2023-07-24T13:37:37.409Z,recommendationservice,memory,520626176
2023-07-24T13:37:37.930Z,paymentservice-3,memory,514015232
2023-07-24T13:37:37.875Z,currencyservice,memory,459501568
2023-07-24T13:37:39.574Z,emailservice,memory,503615488
2023-07-24T13:37:40.791Z,adservice,memory,802328576
2023-07-24T13:37:41.219Z,paymentservice-1,memory,459862016
2023-07-24T13:37:42.413Z,cartservice,memory,494653440
2023-07-24T13:37:41.477Z,paymentservice-4,memory,483500032
2023-07-24T13:37:43.995Z,probe-holder,memory,506413056
2023-07-24T13:37:44.526Z,productcatalogservice,memory,490090496
2023-07-24T13:37:46.233Z,checkoutservice,memory,545304576
2023-07-24T13:37:47.776Z,shippingservice,memory,535642112
2023-07-24T13:37:47.594Z,paymentservice-2,memory,464179200
2023-07-24T13:37:47.409Z,recommendationservice,memory,520609792
2023-07-24T13:37:47.930Z,paymentservice-3,memory,513998848
2023-07-24T13:37:47.875Z,currencyservice,memory,459485184
2023-07-24T13:37:49.575Z,emailservice,memory,503590912
2023-07-24T13:37:50.791Z,adservice,memory,802316288
2023-07-24T13:37:51.219Z,paymentservice-1,memory,459853824
2023-07-24T13:37:52.413Z,cartservice,memory,494632960
2023-07-24T13:37:51.477Z,paymentservice-4,memory,483491840
2023-07-24T13:37:53.995Z,probe-holder,memory,506396672
2023-07-24T13:37:54.526Z,productcatalogservice,memory,490074112
2023-07-24T13:37:56.232Z,checkoutservice,memory,545288192
2023-07-24T13:37:57.775Z,shippingservice,memory,535625728
2023-07-24T13:37:57.595Z,paymentservice-2,memory,464171008
2023-07-24T13:37:57.409Z,recommendationservice,memory,520597504
2023-07-24T13:37:57.929Z,paymentservice-3,memory,513986560
2023-07-24T13:37:57.875Z,currencyservice,memory,463663104
2023-07-24T13:37:59.576Z,emailservice,memory,507764736
2023-07-24T13:38:00.791Z,adservice,memory,802299904
2023-07-24T13:38:01.219Z,paymentservice-1,memory,459837440
2023-07-24T13:38:02.413Z,cartservice,memory,494616576
2023-07-24T13:38:01.478Z,paymentservice-4,memory,483475456
2023-07-24T13:38:03.995Z,probe-holder,memory,506388480
2023-07-24T13:38:04.526Z,productcatalogservice,memory,489947136
2023-07-24T13:38:06.232Z,checkoutservice,memory,545271808
2023-07-24T13:38:07.775Z,shippingservice,memory,535609344
2023-07-24T13:38:07.595Z,paymentservice-2,memory,464154624
2023-07-24T13:38:07.410Z,recommendationservice,memory,520581120
2023-07-24T13:38:07.930Z,paymentservice-3,memory,513970176
2023-07-24T13:38:07.875Z,currencyservice,memory,463654912
2023-07-24T13:38:09.574Z,emailservice,memory,529498112
2023-07-24T13:38:10.790Z,adservice,memory,802545664
2023-07-24T13:38:11.219Z,paymentservice-1,memory,459821056
2023-07-24T13:38:12.412Z,cartservice,memory,494608384
2023-07-24T13:38:11.478Z,paymentservice-4,memory,483459072
2023-07-24T13:38:13.995Z,probe-holder,memory,506372096
2023-07-24T13:38:14.526Z,productcatalogservice,memory,490418176
2023-07-24T13:38:16.232Z,checkoutservice,memory,545263616
2023-07-24T13:38:17.776Z,shippingservice,memory,535773184
2023-07-24T13:38:17.594Z,paymentservice-2,memory,464146432
2023-07-24T13:38:17.409Z,recommendationservice,memory,520572928
2023-07-24T13:38:17.930Z,paymentservice-3,memory,513953792
2023-07-24T13:38:17.875Z,currencyservice,memory,462114816
2023-07-24T13:38:19.574Z,emailservice,memory,564629504
2023-07-24T13:38:20.791Z,adservice,memory,802529280
2023-07-24T13:38:21.219Z,paymentservice-1,memory,458846208
2023-07-24T13:38:22.413Z,cartservice,memory,494583808
2023-07-24T13:38:21.477Z,paymentservice-4,memory,483450880
2023-07-24T13:38:23.995Z,probe-holder,memory,506355712
2023-07-24T13:38:24.526Z,productcatalogservice,memory,490659840
2023-07-24T13:38:26.233Z,checkoutservice,memory,544980992
2023-07-24T13:38:27.777Z,shippingservice,memory,535752704
2023-07-24T13:38:27.595Z,paymentservice-2,memory,464130048
2023-07-24T13:38:27.409Z,recommendationservice,memory,520556544
2023-07-24T13:38:27.929Z,paymentservice-3,memory,513937408
2023-07-24T13:38:27.875Z,currencyservice,memory,462614528
2023-07-24T13:38:29.574Z,emailservice,memory,511336448
2023-07-24T13:38:30.790Z,adservice,memory,802480128
2023-07-24T13:38:31.219Z,paymentservice-1,memory,458825728
2023-07-24T13:38:32.413Z,cartservice,memory,494567424
2023-07-24T13:38:31.477Z,paymentservice-4,memory,483434496
2023-07-24T13:38:33.995Z,probe-holder,memory,506212352
2023-07-24T13:38:34.526Z,productcatalogservice,memory,490647552
2023-07-24T13:38:36.232Z,checkoutservice,memory,544964608
2023-07-24T13:38:37.775Z,shippingservice,memory,506011648
2023-07-24T13:38:37.595Z,paymentservice-2,memory,464113664
2023-07-24T13:38:37.409Z,recommendationservice,memory,520536064
2023-07-24T13:38:37.930Z,paymentservice-3,memory,513929216
2023-07-24T13:38:37.875Z,currencyservice,memory,462606336
2023-07-24T13:38:39.574Z,emailservice,memory,512262144
2023-07-24T13:38:40.791Z,adservice,memory,802471936
2023-07-24T13:38:41.219Z,paymentservice-1,memory,458817536
2023-07-24T13:38:42.413Z,cartservice,memory,494559232
2023-07-24T13:38:41.477Z,paymentservice-4,memory,491814912
2023-07-24T13:38:43.995Z,probe-holder,memory,506195968
2023-07-24T13:38:44.526Z,productcatalogservice,memory,490631168
2023-07-24T13:38:46.233Z,checkoutservice,memory,544956416
2023-07-24T13:38:47.776Z,shippingservice,memory,506257408
2023-07-24T13:38:47.595Z,paymentservice-2,memory,464621568
2023-07-24T13:38:47.409Z,recommendationservice,memory,520527872
2023-07-24T13:38:47.929Z,paymentservice-3,memory,513912832
2023-07-24T13:38:47.875Z,currencyservice,memory,463101952
2023-07-24T13:38:49.574Z,emailservice,memory,512438272
2023-07-24T13:38:50.790Z,adservice,memory,802451456
2023-07-24T13:38:51.219Z,paymentservice-1,memory,458801152
2023-07-24T13:38:52.412Z,cartservice,memory,494473216
2023-07-24T13:38:51.477Z,paymentservice-4,memory,491687936
2023-07-24T13:38:53.995Z,probe-holder,memory,506179584
2023-07-24T13:38:54.526Z,productcatalogservice,memory,490614784
2023-07-24T13:38:56.232Z,checkoutservice,memory,544940032
2023-07-24T13:38:57.775Z,shippingservice,memory,506163200
2023-07-24T13:38:57.595Z,paymentservice-2,memory,464601088
2023-07-24T13:38:57.409Z,recommendationservice,memory,520511488
2023-07-24T13:38:57.930Z,paymentservice-3,memory,513896448
2023-07-24T13:38:57.875Z,currencyservice,memory,465375232
2023-07-24T13:38:59.574Z,emailservice,memory,512417792
2023-07-24T13:39:00.791Z,adservice,memory,802435072
2023-07-24T13:39:01.220Z,paymentservice-1,memory,458784768
2023-07-24T13:39:02.413Z,cartservice,memory,494383104
2023-07-24T13:39:01.477Z,paymentservice-4,memory,491646976
2023-07-24T13:39:03.995Z,probe-holder,memory,506044416
2023-07-24T13:39:04.526Z,productcatalogservice,memory,490606592
2023-07-24T13:39:06.232Z,checkoutservice,memory,544923648
2023-07-24T13:39:07.775Z,shippingservice,memory,506146816
2023-07-24T13:39:07.594Z,paymentservice-2,memory,466386944
2023-07-24T13:39:07.409Z,recommendationservice,memory,520495104
2023-07-24T13:39:07.930Z,paymentservice-3,memory,513888256
2023-07-24T13:39:07.875Z,currencyservice,memory,465833984
2023-07-24T13:39:09.574Z,emailservice,memory,512196608
2023-07-24T13:39:10.791Z,adservice,memory,802598912
2023-07-24T13:39:11.219Z,paymentservice-1,memory,458776576
2023-07-24T13:39:12.412Z,cartservice,memory,494374912
2023-07-24T13:39:11.477Z,paymentservice-4,memory,491638784
2023-07-24T13:39:13.995Z,probe-holder,memory,506028032
2023-07-24T13:39:14.526Z,productcatalogservice,memory,490590208
2023-07-24T13:39:16.233Z,checkoutservice,memory,544911360
2023-07-24T13:39:17.775Z,shippingservice,memory,506138624
2023-07-24T13:39:17.595Z,paymentservice-2,memory,466354176
2023-07-24T13:39:17.409Z,recommendationservice,memory,520486912
2023-07-24T13:39:17.930Z,paymentservice-3,memory,513871872
2023-07-24T13:39:17.875Z,currencyservice,memory,466051072
2023-07-24T13:39:19.574Z,emailservice,memory,512696320
2023-07-24T13:39:20.790Z,adservice,memory,802582528
2023-07-24T13:39:21.219Z,paymentservice-1,memory,458752000
2023-07-24T13:39:22.412Z,cartservice,memory,494325760
2023-07-24T13:39:21.477Z,paymentservice-4,memory,491622400
2023-07-24T13:39:23.995Z,probe-holder,memory,506011648
2023-07-24T13:39:24.526Z,productcatalogservice,memory,490459136
2023-07-24T13:39:26.232Z,checkoutservice,memory,544894976
2023-07-24T13:39:27.776Z,shippingservice,memory,506339328
2023-07-24T13:39:27.594Z,paymentservice-2,memory,466345984
2023-07-24T13:39:27.409Z,recommendationservice,memory,520413184
2023-07-24T13:39:27.929Z,paymentservice-3,memory,513863680
2023-07-24T13:39:27.875Z,currencyservice,memory,465899520
2023-07-24T13:39:29.574Z,emailservice,memory,513650688
2023-07-24T13:39:30.790Z,adservice,memory,803852288
2023-07-24T13:39:31.219Z,paymentservice-1,memory,458735616
2023-07-24T13:39:32.413Z,cartservice,memory,494313472
2023-07-24T13:39:31.477Z,paymentservice-4,memory,491606016
2023-07-24T13:39:33.995Z,probe-holder,memory,506003456
2023-07-24T13:39:34.526Z,productcatalogservice,memory,490450944
2023-07-24T13:39:36.233Z,checkoutservice,memory,544878592
2023-07-24T13:39:37.775Z,shippingservice,memory,506322944
2023-07-24T13:39:37.594Z,paymentservice-2,memory,466329600
2023-07-24T13:39:37.409Z,recommendationservice,memory,520396800
2023-07-24T13:39:37.929Z,paymentservice-3,memory,513847296
2023-07-24T13:39:37.875Z,currencyservice,memory,466149376
2023-07-24T13:39:39.574Z,emailservice,memory,513605632
2023-07-24T13:39:40.791Z,adservice,memory,803835904
2023-07-24T13:39:41.219Z,paymentservice-1,memory,458727424
2023-07-24T13:39:42.412Z,cartservice,memory,494297088
2023-07-24T13:39:41.477Z,paymentservice-4,memory,491589632
2023-07-24T13:39:43.995Z,probe-holder,memory,505987072
2023-07-24T13:39:44.526Z,productcatalogservice,memory,490434560
2023-07-24T13:39:46.233Z,checkoutservice,memory,544870400
2023-07-24T13:39:47.776Z,shippingservice,memory,506314752
2023-07-24T13:39:47.595Z,paymentservice-2,memory,466321408
2023-07-24T13:39:47.409Z,recommendationservice,memory,520388608
2023-07-24T13:39:47.930Z,paymentservice-3,memory,513835008
2023-07-24T13:39:47.875Z,currencyservice,memory,466132992
2023-07-24T13:39:49.574Z,emailservice,memory,513589248
2023-07-24T13:39:50.791Z,adservice,memory,803823616
2023-07-24T13:39:51.219Z,paymentservice-1,memory,458711040
2023-07-24T13:39:52.413Z,cartservice,memory,494280704
2023-07-24T13:39:51.478Z,paymentservice-4,memory,491581440
2023-07-24T13:39:53.995Z,probe-holder,memory,505970688
2023-07-24T13:39:54.526Z,productcatalogservice,memory,490659840
2023-07-24T13:39:56.233Z,checkoutservice,memory,544837632
2023-07-24T13:39:57.776Z,shippingservice,memory,506269696
2023-07-24T13:39:57.595Z,paymentservice-2,memory,466305024
2023-07-24T13:39:57.409Z,recommendationservice,memory,520372224
2023-07-24T13:39:57.929Z,paymentservice-3,memory,513822720
2023-07-24T13:39:57.875Z,currencyservice,memory,466116608
2023-07-24T13:39:59.574Z,emailservice,memory,513564672
2023-07-24T13:40:00.790Z,adservice,memory,803803136
2023-07-24T13:40:01.220Z,paymentservice-1,memory,458694656
2023-07-24T13:40:02.413Z,cartservice,memory,494256128
2023-07-24T13:40:01.477Z,paymentservice-4,memory,491565056
2023-07-24T13:40:03.995Z,probe-holder,memory,505958400
2023-07-24T13:40:04.527Z,productcatalogservice,memory,491937792
2023-07-24T13:40:06.232Z,checkoutservice,memory,544821248
2023-07-24T13:40:07.775Z,shippingservice,memory,504836096
2023-07-24T13:40:07.595Z,paymentservice-2,memory,466288640
2023-07-24T13:40:07.409Z,recommendationservice,memory,520355840
2023-07-24T13:40:07.929Z,paymentservice-3,memory,513806336
2023-07-24T13:40:07.875Z,currencyservice,memory,466108416
2023-07-24T13:40:09.575Z,emailservice,memory,513548288
2023-07-24T13:40:10.791Z,adservice,memory,803790848
2023-07-24T13:40:11.219Z,paymentservice-1,memory,458686464
2023-07-24T13:40:12.412Z,cartservice,memory,494247936
2023-07-24T13:40:11.477Z,paymentservice-4,memory,491556864
2023-07-24T13:40:13.995Z,probe-holder,memory,505942016
2023-07-24T13:40:14.526Z,productcatalogservice,memory,491921408
2023-07-24T13:40:16.233Z,checkoutservice,memory,544800768
2023-07-24T13:40:17.775Z,shippingservice,memory,504827904
2023-07-24T13:40:17.595Z,paymentservice-2,memory,466280448
2023-07-24T13:40:17.409Z,recommendationservice,memory,520347648
2023-07-24T13:40:17.930Z,paymentservice-3,memory,513789952
2023-07-24T13:40:17.875Z,currencyservice,memory,467095552
2023-07-24T13:40:19.574Z,emailservice,memory,514048000
2023-07-24T13:40:20.790Z,adservice,memory,803774464
2023-07-24T13:40:21.219Z,paymentservice-1,memory,458670080
2023-07-24T13:40:22.413Z,cartservice,memory,494231552
2023-07-24T13:40:21.478Z,paymentservice-4,memory,491540480
2023-07-24T13:40:23.995Z,probe-holder,memory,505925632
2023-07-24T13:40:24.526Z,productcatalogservice,memory,492421120
2023-07-24T13:40:26.232Z,checkoutservice,memory,544784384
2023-07-24T13:40:27.775Z,shippingservice,memory,504750080
2023-07-24T13:40:27.595Z,paymentservice-2,memory,466259968
2023-07-24T13:40:27.409Z,recommendationservice,memory,520327168
2023-07-24T13:40:27.929Z,paymentservice-3,memory,513781760
2023-07-24T13:40:27.875Z,currencyservice,memory,467333120
2023-07-24T13:40:29.574Z,emailservice,memory,514035712
2023-07-24T13:40:30.790Z,adservice,memory,803741696
2023-07-24T13:40:31.219Z,paymentservice-1,memory,458649600
2023-07-24T13:40:32.413Z,cartservice,memory,494223360
2023-07-24T13:40:31.477Z,paymentservice-4,memory,491520000
2023-07-24T13:40:33.995Z,probe-holder,memory,505917440
2023-07-24T13:40:34.526Z,productcatalogservice,memory,492412928
2023-07-24T13:40:36.232Z,checkoutservice,memory,545026048
2023-07-24T13:40:37.775Z,shippingservice,memory,504733696
2023-07-24T13:40:37.595Z,paymentservice-2,memory,466243584
2023-07-24T13:40:37.409Z,recommendationservice,memory,520310784
2023-07-24T13:40:37.929Z,paymentservice-3,memory,514027520
2023-07-24T13:40:37.875Z,currencyservice,memory,467324928
2023-07-24T13:40:39.574Z,emailservice,memory,514023424
2023-07-24T13:40:40.791Z,adservice,memory,804507648
2023-07-24T13:40:41.219Z,paymentservice-1,memory,458641408
2023-07-24T13:40:42.413Z,cartservice,memory,494206976
2023-07-24T13:40:41.477Z,paymentservice-4,memory,491511808
2023-07-24T13:40:43.995Z,probe-holder,memory,505901056
2023-07-24T13:40:44.526Z,productcatalogservice,memory,492396544
2023-07-24T13:40:46.233Z,checkoutservice,memory,545017856
2023-07-24T13:40:47.776Z,shippingservice,memory,504717312
2023-07-24T13:40:47.595Z,paymentservice-2,memory,466235392
2023-07-24T13:40:47.409Z,recommendationservice,memory,520302592
2023-07-24T13:40:47.930Z,paymentservice-3,memory,514011136
2023-07-24T13:40:47.875Z,currencyservice,memory,467566592
2023-07-24T13:40:49.574Z,emailservice,memory,514478080
2023-07-24T13:40:50.791Z,adservice,memory,804487168
2023-07-24T13:40:51.219Z,paymentservice-1,memory,458625024
2023-07-24T13:40:52.413Z,cartservice,memory,494186496
2023-07-24T13:40:51.477Z,paymentservice-4,memory,491495424
2023-07-24T13:40:53.995Z,probe-holder,memory,505884672
2023-07-24T13:40:54.526Z,productcatalogservice,memory,492380160
2023-07-24T13:40:56.232Z,checkoutservice,memory,544849920
2023-07-24T13:40:57.776Z,shippingservice,memory,504614912
2023-07-24T13:40:57.595Z,paymentservice-2,memory,466219008
2023-07-24T13:40:57.409Z,recommendationservice,memory,520278016
2023-07-24T13:40:57.930Z,paymentservice-3,memory,514002944
2023-07-24T13:40:57.875Z,currencyservice,memory,467550208
2023-07-24T13:40:59.574Z,emailservice,memory,514461696
2023-07-24T13:41:00.791Z,adservice,memory,804470784
2023-07-24T13:41:01.219Z,paymentservice-1,memory,458608640
2023-07-24T13:41:02.412Z,cartservice,memory,494178304
2023-07-24T13:41:01.477Z,paymentservice-4,memory,491479040
2023-07-24T13:41:03.995Z,probe-holder,memory,505872384
2023-07-24T13:41:04.526Z,productcatalogservice,memory,492367872
2023-07-24T13:41:06.233Z,checkoutservice,memory,544833536
2023-07-24T13:41:07.776Z,shippingservice,memory,504532992
2023-07-24T13:41:07.594Z,paymentservice-2,memory,466202624
2023-07-24T13:41:07.409Z,recommendationservice,memory,520261632
2023-07-24T13:41:07.930Z,paymentservice-3,memory,513986560
2023-07-24T13:41:07.875Z,currencyservice,memory,467533824
2023-07-24T13:41:09.574Z,emailservice,memory,514224128
2023-07-24T13:41:10.791Z,adservice,memory,804519936
2023-07-24T13:41:11.219Z,paymentservice-1,memory,458600448
2023-07-24T13:41:12.413Z,cartservice,memory,494161920
2023-07-24T13:41:11.477Z,paymentservice-4,memory,491470848
2023-07-24T13:41:13.995Z,probe-holder,memory,505856000
2023-07-24T13:41:14.526Z,productcatalogservice,memory,492351488
2023-07-24T13:41:16.233Z,checkoutservice,memory,544825344
2023-07-24T13:41:17.775Z,shippingservice,memory,504524800
2023-07-24T13:41:17.595Z,paymentservice-2,memory,466194432
2023-07-24T13:41:17.409Z,recommendationservice,memory,520253440
2023-07-24T13:41:17.930Z,paymentservice-3,memory,513970176
2023-07-24T13:41:17.875Z,currencyservice,memory,467525632
2023-07-24T13:41:19.574Z,emailservice,memory,514207744
2023-07-24T13:41:20.790Z,adservice,memory,804503552
2023-07-24T13:41:21.219Z,paymentservice-1,memory,458842112
2023-07-24T13:41:22.413Z,cartservice,memory,494137344
2023-07-24T13:41:21.478Z,paymentservice-4,memory,491454464
2023-07-24T13:41:23.995Z,probe-holder,memory,505839616
2023-07-24T13:41:24.526Z,productcatalogservice,memory,492335104
2023-07-24T13:41:26.233Z,checkoutservice,memory,544808960
2023-07-24T13:41:27.775Z,shippingservice,memory,504508416
2023-07-24T13:41:27.595Z,paymentservice-2,memory,466178048
2023-07-24T13:41:27.410Z,recommendationservice,memory,520237056
2023-07-24T13:41:27.929Z,paymentservice-3,memory,513957888
2023-07-24T13:41:27.875Z,currencyservice,memory,467509248
2023-07-24T13:41:29.574Z,emailservice,memory,514174976
2023-07-24T13:41:30.790Z,adservice,memory,804741120
2023-07-24T13:41:31.219Z,paymentservice-1,memory,458825728
2023-07-24T13:41:32.413Z,cartservice,memory,494129152
2023-07-24T13:41:31.477Z,paymentservice-4,memory,491438080
2023-07-24T13:41:33.995Z,probe-holder,memory,505827328
2023-07-24T13:41:34.526Z,productcatalogservice,memory,492326912
2023-07-24T13:41:36.232Z,checkoutservice,memory,544792576
2023-07-24T13:41:37.776Z,shippingservice,memory,504500224
2023-07-24T13:41:37.595Z,paymentservice-2,memory,466161664
2023-07-24T13:41:37.409Z,recommendationservice,memory,520220672
2023-07-24T13:41:37.930Z,paymentservice-3,memory,513941504
2023-07-24T13:41:37.875Z,currencyservice,memory,467492864
2023-07-24T13:41:39.574Z,emailservice,memory,514166784
2023-07-24T13:41:40.791Z,adservice,memory,804990976
2023-07-24T13:41:41.219Z,paymentservice-1,memory,458817536
2023-07-24T13:41:42.413Z,cartservice,memory,494112768
2023-07-24T13:41:41.477Z,paymentservice-4,memory,491413504
2023-07-24T13:41:43.995Z,probe-holder,memory,505810944
2023-07-24T13:41:44.526Z,productcatalogservice,memory,492310528
2023-07-24T13:41:46.232Z,checkoutservice,memory,544780288
2023-07-24T13:41:47.775Z,shippingservice,memory,504741888
2023-07-24T13:41:47.595Z,paymentservice-2,memory,466153472
2023-07-24T13:41:47.409Z,recommendationservice,memory,520212480
2023-07-24T13:41:47.930Z,paymentservice-3,memory,513925120
2023-07-24T13:41:47.875Z,currencyservice,memory,467476480
2023-07-24T13:41:49.574Z,emailservice,memory,516509696
2023-07-24T13:41:50.791Z,adservice,memory,804970496
2023-07-24T13:41:51.219Z,paymentservice-1,memory,459317248
2023-07-24T13:41:52.413Z,cartservice,memory,494092288
2023-07-24T13:41:51.478Z,paymentservice-4,memory,491405312
2023-07-24T13:41:53.995Z,probe-holder,memory,505798656
2023-07-24T13:41:54.526Z,productcatalogservice,memory,492290048
2023-07-24T13:41:56.232Z,checkoutservice,memory,544763904
2023-07-24T13:41:57.775Z,shippingservice,memory,504721408
2023-07-24T13:41:57.594Z,paymentservice-2,memory,466137088
2023-07-24T13:41:57.409Z,recommendationservice,memory,520175616
2023-07-24T13:41:57.929Z,paymentservice-3,memory,513916928
2023-07-24T13:41:57.875Z,currencyservice,memory,467152896
2023-07-24T13:41:59.574Z,emailservice,memory,517791744
2023-07-24T13:42:00.791Z,adservice,memory,804950016
2023-07-24T13:42:01.220Z,paymentservice-1,memory,459296768
2023-07-24T13:42:02.412Z,cartservice,memory,494084096
2023-07-24T13:42:01.477Z,paymentservice-4,memory,491388928
2023-07-24T13:42:03.995Z,probe-holder,memory,505782272
2023-07-24T13:42:04.526Z,productcatalogservice,memory,492277760
2023-07-24T13:42:06.233Z,checkoutservice,memory,544747520
2023-07-24T13:42:07.776Z,shippingservice,memory,504713216
2023-07-24T13:42:07.595Z,paymentservice-2,memory,466120704
2023-07-24T13:42:07.409Z,recommendationservice,memory,520167424
2023-07-24T13:42:07.930Z,paymentservice-3,memory,513900544
2023-07-24T13:42:07.875Z,currencyservice,memory,467144704
2023-07-24T13:42:09.574Z,emailservice,memory,518287360
2023-07-24T13:42:10.791Z,adservice,memory,804642816
2023-07-24T13:42:11.219Z,paymentservice-1,memory,459288576
2023-07-24T13:42:12.413Z,cartservice,memory,494067712
2023-07-24T13:42:11.477Z,paymentservice-4,memory,491380736
2023-07-24T13:42:13.995Z,probe-holder,memory,505769984
2023-07-24T13:42:14.526Z,productcatalogservice,memory,492261376
2023-07-24T13:42:16.233Z,checkoutservice,memory,544739328
2023-07-24T13:42:17.775Z,shippingservice,memory,504696832
2023-07-24T13:42:17.595Z,paymentservice-2,memory,466112512
2023-07-24T13:42:17.409Z,recommendationservice,memory,520159232
2023-07-24T13:42:17.930Z,paymentservice-3,memory,513884160
2023-07-24T13:42:17.875Z,currencyservice,memory,467095552
2023-07-24T13:42:19.574Z,emailservice,memory,518270976
2023-07-24T13:42:20.790Z,adservice,memory,804626432
2023-07-24T13:42:21.219Z,paymentservice-1,memory,459530240
2023-07-24T13:42:22.412Z,cartservice,memory,494043136
2023-07-24T13:42:21.477Z,paymentservice-4,memory,491364352
2023-07-24T13:42:23.995Z,probe-holder,memory,505761792
2023-07-24T13:42:24.526Z,productcatalogservice,memory,493019136
2023-07-24T13:42:26.233Z,checkoutservice,memory,544718848
2023-07-24T13:42:27.775Z,shippingservice,memory,504676352
2023-07-24T13:42:27.595Z,paymentservice-2,memory,466092032
2023-07-24T13:42:27.409Z,recommendationservice,memory,520142848
2023-07-24T13:42:27.929Z,paymentservice-3,memory,513875968
2023-07-24T13:42:27.876Z,currencyservice,memory,467591168
2023-07-24T13:42:29.574Z,emailservice,memory,518217728
2023-07-24T13:42:30.791Z,adservice,memory,804614144
2023-07-24T13:42:31.220Z,paymentservice-1,memory,457338880
2023-07-24T13:42:32.413Z,cartservice,memory,494034944
2023-07-24T13:42:31.477Z,paymentservice-4,memory,491347968
2023-07-24T13:42:33.995Z,probe-holder,memory,505741312
2023-07-24T13:42:34.526Z,productcatalogservice,memory,494813184
2023-07-24T13:42:36.232Z,checkoutservice,memory,544702464
2023-07-24T13:42:37.775Z,shippingservice,memory,504668160
2023-07-24T13:42:37.595Z,paymentservice-2,memory,466075648
2023-07-24T13:42:37.409Z,recommendationservice,memory,520126464
2023-07-24T13:42:37.929Z,paymentservice-3,memory,513859584
2023-07-24T13:42:37.875Z,currencyservice,memory,467582976
2023-07-24T13:42:39.574Z,emailservice,memory,518201344
2023-07-24T13:42:40.790Z,adservice,memory,804597760
2023-07-24T13:42:41.219Z,paymentservice-1,memory,457707520
2023-07-24T13:42:42.412Z,cartservice,memory,494018560
2023-07-24T13:42:41.477Z,paymentservice-4,memory,491339776
2023-07-24T13:42:43.995Z,probe-holder,memory,505724928
2023-07-24T13:42:44.526Z,productcatalogservice,memory,494796800
2023-07-24T13:42:46.233Z,checkoutservice,memory,544694272
2023-07-24T13:42:47.776Z,shippingservice,memory,504602624
2023-07-24T13:42:47.595Z,paymentservice-2,memory,466067456
2023-07-24T13:42:47.409Z,recommendationservice,memory,520118272
2023-07-24T13:42:47.930Z,paymentservice-3,memory,513843200
2023-07-24T13:42:47.875Z,currencyservice,memory,467820544
2023-07-24T13:42:49.574Z,emailservice,memory,518184960
2023-07-24T13:42:50.790Z,adservice,memory,804577280
2023-07-24T13:42:51.219Z,paymentservice-1,memory,457867264
2023-07-24T13:42:52.412Z,cartservice,memory,493998080
2023-07-24T13:42:51.478Z,paymentservice-4,memory,491323392
2023-07-24T13:42:53.995Z,probe-holder,memory,505716736
2023-07-24T13:42:54.526Z,productcatalogservice,memory,495296512
2023-07-24T13:42:56.233Z,checkoutservice,memory,544677888
2023-07-24T13:42:57.776Z,shippingservice,memory,504586240
2023-07-24T13:42:57.595Z,paymentservice-2,memory,466051072
2023-07-24T13:42:57.409Z,recommendationservice,memory,520097792
2023-07-24T13:42:57.930Z,paymentservice-3,memory,513830912
2023-07-24T13:42:57.875Z,currencyservice,memory,467808256
2023-07-24T13:42:59.574Z,emailservice,memory,518172672
2023-07-24T13:43:00.790Z,adservice,memory,804560896
2023-07-24T13:43:01.219Z,paymentservice-1,memory,457846784
2023-07-24T13:43:02.412Z,cartservice,memory,493989888
2023-07-24T13:43:01.477Z,paymentservice-4,memory,491307008
2023-07-24T13:43:03.995Z,probe-holder,memory,505700352
2023-07-24T13:43:04.526Z,productcatalogservice,memory,495288320
2023-07-24T13:43:06.233Z,checkoutservice,memory,544661504
2023-07-24T13:43:07.775Z,shippingservice,memory,504578048
2023-07-24T13:43:07.594Z,paymentservice-2,memory,466034688
2023-07-24T13:43:07.409Z,recommendationservice,memory,520081408
2023-07-24T13:43:07.930Z,paymentservice-3,memory,513814528
2023-07-24T13:43:07.875Z,currencyservice,memory,467791872
2023-07-24T13:43:09.574Z,emailservice,memory,518156288
2023-07-24T13:43:10.790Z,adservice,memory,804548608
2023-07-24T13:43:11.219Z,paymentservice-1,memory,457838592
2023-07-24T13:43:12.413Z,cartservice,memory,493973504
2023-07-24T13:43:11.477Z,paymentservice-4,memory,491298816
2023-07-24T13:43:13.995Z,probe-holder,memory,505683968
2023-07-24T13:43:14.526Z,productcatalogservice,memory,495271936
2023-07-24T13:43:16.233Z,checkoutservice,memory,544653312
2023-07-24T13:43:17.775Z,shippingservice,memory,504561664
2023-07-24T13:43:17.595Z,paymentservice-2,memory,466018304
2023-07-24T13:43:17.409Z,recommendationservice,memory,520073216
2023-07-24T13:43:17.929Z,paymentservice-3,memory,513798144
2023-07-24T13:43:17.875Z,currencyservice,memory,467775488
2023-07-24T13:43:19.574Z,emailservice,memory,518139904
2023-07-24T13:43:20.791Z,adservice,memory,804532224
2023-07-24T13:43:21.219Z,paymentservice-1,memory,458080256
2023-07-24T13:43:22.412Z,cartservice,memory,493953024
2023-07-24T13:43:21.477Z,paymentservice-4,memory,491286528
2023-07-24T13:43:23.995Z,probe-holder,memory,505675776
2023-07-24T13:43:24.526Z,productcatalogservice,memory,495251456
2023-07-24T13:43:26.232Z,checkoutservice,memory,544632832
2023-07-24T13:43:27.775Z,shippingservice,memory,504541184
2023-07-24T13:43:27.595Z,paymentservice-2,memory,466001920
2023-07-24T13:43:27.409Z,recommendationservice,memory,520052736
2023-07-24T13:43:27.929Z,paymentservice-3,memory,513789952
2023-07-24T13:43:27.875Z,currencyservice,memory,467767296
2023-07-24T13:43:29.574Z,emailservice,memory,518123520
2023-07-24T13:43:30.791Z,adservice,memory,803459072
2023-07-24T13:43:31.219Z,paymentservice-1,memory,458059776
2023-07-24T13:43:32.413Z,cartservice,memory,493940736
2023-07-24T13:43:31.478Z,paymentservice-4,memory,491270144
2023-07-24T13:43:33.995Z,probe-holder,memory,505655296
2023-07-24T13:43:34.526Z,productcatalogservice,memory,495243264
2023-07-24T13:43:36.233Z,checkoutservice,memory,544616448
2023-07-24T13:43:37.775Z,shippingservice,memory,504532992
2023-07-24T13:43:37.594Z,paymentservice-2,memory,465993728
2023-07-24T13:43:37.409Z,recommendationservice,memory,515514368
2023-07-24T13:43:37.930Z,paymentservice-3,memory,513773568
2023-07-24T13:43:37.875Z,currencyservice,memory,467750912
2023-07-24T13:43:39.574Z,emailservice,memory,518365184
2023-07-24T13:43:40.791Z,adservice,memory,803708928
2023-07-24T13:43:41.219Z,paymentservice-1,memory,458051584
2023-07-24T13:43:42.413Z,cartservice,memory,493924352
2023-07-24T13:43:41.477Z,paymentservice-4,memory,491261952
2023-07-24T13:43:43.995Z,probe-holder,memory,505638912
2023-07-24T13:43:44.526Z,productcatalogservice,memory,495226880
2023-07-24T13:43:46.233Z,checkoutservice,memory,544608256
2023-07-24T13:43:47.776Z,shippingservice,memory,504516608
2023-07-24T13:43:47.594Z,paymentservice-2,memory,465977344
2023-07-24T13:43:47.409Z,recommendationservice,memory,515506176
2023-07-24T13:43:47.929Z,paymentservice-3,memory,513757184
2023-07-24T13:43:47.875Z,currencyservice,memory,467734528
2023-07-24T13:43:49.574Z,emailservice,memory,518348800
2023-07-24T13:43:50.791Z,adservice,memory,803545088
2023-07-24T13:43:51.219Z,paymentservice-1,memory,458039296
2023-07-24T13:43:52.413Z,cartservice,memory,493903872
2023-07-24T13:43:51.477Z,paymentservice-4,memory,491245568
2023-07-24T13:43:53.995Z,probe-holder,memory,505630720
2023-07-24T13:43:54.526Z,productcatalogservice,memory,495210496
2023-07-24T13:43:56.233Z,checkoutservice,memory,544591872
2023-07-24T13:43:57.776Z,shippingservice,memory,504483840
2023-07-24T13:43:57.595Z,paymentservice-2,memory,465956864
2023-07-24T13:43:57.409Z,recommendationservice,memory,515829760
2023-07-24T13:43:57.930Z,paymentservice-3,memory,513748992
2023-07-24T13:43:57.875Z,currencyservice,memory,467722240
2023-07-24T13:43:59.574Z,emailservice,memory,518270976
2023-07-24T13:44:00.791Z,adservice,memory,804040704
2023-07-24T13:44:01.219Z,paymentservice-1,memory,458022912
2023-07-24T13:44:02.413Z,cartservice,memory,493891584
2023-07-24T13:44:01.477Z,paymentservice-4,memory,491225088
2023-07-24T13:44:03.995Z,probe-holder,memory,505610240
2023-07-24T13:44:04.526Z,productcatalogservice,memory,495202304
2023-07-24T13:44:06.233Z,checkoutservice,memory,544583680
2023-07-24T13:44:07.776Z,shippingservice,memory,504475648
2023-07-24T13:44:07.595Z,paymentservice-2,memory,465948672
2023-07-24T13:44:07.409Z,recommendationservice,memory,515813376
2023-07-24T13:44:07.929Z,paymentservice-3,memory,513732608
2023-07-24T13:44:07.875Z,currencyservice,memory,467705856
2023-07-24T13:44:09.574Z,emailservice,memory,517992448
2023-07-24T13:44:10.790Z,adservice,memory,805580800
2023-07-24T13:44:11.219Z,paymentservice-1,memory,458014720
2023-07-24T13:44:12.413Z,cartservice,memory,493875200
2023-07-24T13:44:11.477Z,paymentservice-4,memory,491216896
2023-07-24T13:44:13.995Z,probe-holder,memory,505593856
2023-07-24T13:44:14.526Z,productcatalogservice,memory,495185920
2023-07-24T13:44:16.233Z,checkoutservice,memory,544563200
2023-07-24T13:44:17.775Z,shippingservice,memory,504459264
2023-07-24T13:44:17.595Z,paymentservice-2,memory,465932288
2023-07-24T13:44:17.409Z,recommendationservice,memory,515805184
2023-07-24T13:44:17.929Z,paymentservice-3,memory,513716224
2023-07-24T13:44:17.875Z,currencyservice,memory,467689472
2023-07-24T13:44:19.574Z,emailservice,memory,517914624
2023-07-24T13:44:20.791Z,adservice,memory,805552128
2023-07-24T13:44:21.220Z,paymentservice-1,memory,459546624
2023-07-24T13:44:22.412Z,cartservice,memory,493735936
2023-07-24T13:44:21.477Z,paymentservice-4,memory,491200512
2023-07-24T13:44:23.995Z,probe-holder,memory,505585664
2023-07-24T13:44:24.526Z,productcatalogservice,memory,495165440
2023-07-24T13:44:26.232Z,checkoutservice,memory,544546816
2023-07-24T13:44:27.775Z,shippingservice,memory,508637184
2023-07-24T13:44:27.595Z,paymentservice-2,memory,465907712
2023-07-24T13:44:27.409Z,recommendationservice,memory,516042752
2023-07-24T13:44:27.929Z,paymentservice-3,memory,513708032
2023-07-24T13:44:27.875Z,currencyservice,memory,467664896
2023-07-24T13:44:29.574Z,emailservice,memory,517906432
2023-07-24T13:44:30.790Z,adservice,memory,805543936
2023-07-24T13:44:31.219Z,paymentservice-1,memory,459530240
2023-07-24T13:44:32.412Z,cartservice,memory,508129280
2023-07-24T13:44:31.478Z,paymentservice-4,memory,491188224
2023-07-24T13:44:33.995Z,probe-holder,memory,505569280
2023-07-24T13:44:34.526Z,productcatalogservice,memory,523476992
2023-07-24T13:44:36.233Z,checkoutservice,memory,549871616
2023-07-24T13:44:37.776Z,shippingservice,memory,510238720
2023-07-24T13:44:37.409Z,recommendationservice,memory,548691968
