timestamp,key,run_id,resource,metric,value
2022-03-30T18:40:38.078Z,FULLY_SHARED_UNIT_1-2-1-1,1,target-1,memory,0.00307464599609375
2022-03-30T18:40:48.078Z,FULLY_SHARED_UNIT_1-2-1-1,1,target-1,memory,0.003093719482421875
2022-03-30T18:40:58.079Z,FULLY_SHARED_UNIT_1-2-1-1,1,target-1,memory,0.003093719482421875
2022-03-30T18:41:08.079Z,FULLY_SHARED_UNIT_1-2-1-1,1,target-1,memory,0.003093719482421875
2022-03-30T18:41:18.078Z,FULLY_SHARED_UNIT_1-2-1-1,1,target-1,memory,0.003093719482421875
2022-03-30T18:41:28.078Z,FULLY_SHARED_UNIT_1-2-1-1,1,target-1,memory,0.003093719482421875
2022-03-30T18:41:38.079Z,FULLY_SHARED_UNIT_1-2-1-1,1,target-1,memory,0.003093719482421875
2022-03-30T18:41:48.078Z,FULLY_SHARED_UNIT_1-2-1-1,1,target-1,memory,0.003093719482421875
2022-03-30T18:41:58.079Z,FULLY_SHARED_UNIT_1-2-1-1,1,target-1,memory,0.003093719482421875
2022-03-30T18:42:08.078Z,FULLY_SHARED_UNIT_1-2-1-1,1,target-1,memory,0.003093719482421875
2022-03-30T18:42:18.079Z,FULLY_SHARED_UNIT_1-2-1-1,1,target-1,memory,0.003093719482421875
2022-03-30T18:42:28.078Z,FULLY_SHARED_UNIT_1-2-1-1,1,target-1,memory,0.003093719482421875
2022-03-30T18:42:38.078Z,FULLY_SHARED_UNIT_1-2-1-1,1,target-1,memory,0.003093719482421875
2022-03-30T18:42:48.078Z,FULLY_SHARED_UNIT_1-2-1-1,1,target-1,memory,0.003093719482421875
2022-03-30T18:42:58.078Z,FULLY_SHARED_UNIT_1-2-1-1,1,target-1,memory,0.003093719482421875
2022-03-30T18:43:08.078Z,FULLY_SHARED_UNIT_1-2-1-1,1,target-1,memory,0.003093719482421875
2022-03-30T18:43:18.078Z,FULLY_SHARED_UNIT_1-2-1-1,1,target-1,memory,0.003093719482421875
2022-03-30T18:43:28.078Z,FULLY_SHARED_UNIT_1-2-1-1,1,target-1,memory,0.003093719482421875
2022-03-30T18:43:38.078Z,FULLY_SHARED_UNIT_1-2-1-1,1,target-1,memory,0.003093719482421875
2022-03-30T18:43:48.078Z,FULLY_SHARED_UNIT_1-2-1-1,1,target-1,memory,0.003093719482421875
2022-03-30T18:43:58.078Z,FULLY_SHARED_UNIT_1-2-1-1,1,target-1,memory,0.003093719482421875
2022-03-30T18:44:08.078Z,FULLY_SHARED_UNIT_1-2-1-1,1,target-1,memory,0.003093719482421875
2022-03-30T18:44:18.079Z,FULLY_SHARED_UNIT_1-2-1-1,1,target-1,memory,0.003093719482421875
2022-03-30T18:44:28.078Z,FULLY_SHARED_UNIT_1-2-1-1,1,target-1,memory,0.003093719482421875
2022-03-30T18:44:38.078Z,FULLY_SHARED_UNIT_1-2-1-1,1,target-1,memory,0.003093719482421875
2022-03-30T18:44:48.078Z,FULLY_SHARED_UNIT_1-2-1-1,1,target-1,memory,0.003093719482421875
2022-03-30T18:44:58.078Z,FULLY_SHARED_UNIT_1-2-1-1,1,target-1,memory,0.003093719482421875
2022-03-30T18:45:08.079Z,FULLY_SHARED_UNIT_1-2-1-1,1,target-1,memory,0.003093719482421875
2022-03-30T18:45:18.078Z,FULLY_SHARED_UNIT_1-2-1-1,1,target-1,memory,0.003093719482421875
2022-03-30T18:45:28.079Z,FULLY_SHARED_UNIT_1-2-1-1,1,target-1,memory,0.003093719482421875
2022-03-30T18:45:38.078Z,FULLY_SHARED_UNIT_1-2-1-1,1,target-1,memory,0.003093719482421875
2022-03-30T18:45:48.078Z,FULLY_SHARED_UNIT_1-2-1-1,1,target-1,memory,0.003093719482421875
2022-03-30T18:45:58.078Z,FULLY_SHARED_UNIT_1-2-1-1,1,target-1,memory,0.003093719482421875
2022-03-30T18:46:08.078Z,FULLY_SHARED_UNIT_1-2-1-1,1,target-1,memory,0.003093719482421875
2022-03-30T18:46:18.078Z,FULLY_SHARED_UNIT_1-2-1-1,1,target-1,memory,0.003093719482421875
2022-03-30T18:46:28.079Z,FULLY_SHARED_UNIT_1-2-1-1,1,target-1,memory,0.003093719482421875
2022-03-30T18:46:38.078Z,FULLY_SHARED_UNIT_1-2-1-1,1,target-1,memory,0.003093719482421875
2022-03-30T18:46:48.078Z,FULLY_SHARED_UNIT_1-2-1-1,1,target-1,memory,0.003093719482421875
2022-03-30T18:46:58.079Z,FULLY_SHARED_UNIT_1-2-1-1,1,target-1,memory,0.003093719482421875
2022-03-30T18:47:08.078Z,FULLY_SHARED_UNIT_1-2-1-1,1,target-1,memory,0.003093719482421875
2022-03-30T18:47:18.078Z,FULLY_SHARED_UNIT_1-2-1-1,1,target-1,memory,0.003093719482421875
2022-03-30T18:47:28.079Z,FULLY_SHARED_UNIT_1-2-1-1,1,target-1,memory,0.003093719482421875
2022-03-30T18:47:38.078Z,FULLY_SHARED_UNIT_1-2-1-1,1,target-1,memory,0.003093719482421875
2022-03-30T18:47:48.078Z,FULLY_SHARED_UNIT_1-2-1-1,1,target-1,memory,0.003093719482421875
2022-03-30T18:47:58.079Z,FULLY_SHARED_UNIT_1-2-1-1,1,target-1,memory,0.003093719482421875
2022-03-30T18:48:08.079Z,FULLY_SHARED_UNIT_1-2-1-1,1,target-1,memory,0.003093719482421875
2022-03-30T18:48:18.079Z,FULLY_SHARED_UNIT_1-2-1-1,1,target-1,memory,0.003093719482421875
2022-03-30T18:48:28.078Z,FULLY_SHARED_UNIT_1-2-1-1,1,target-1,memory,0.003093719482421875
2022-03-30T18:48:38.078Z,FULLY_SHARED_UNIT_1-2-1-1,1,target-1,memory,0.003093719482421875
2022-03-30T18:48:48.078Z,FULLY_SHARED_UNIT_1-2-1-1,1,target-1,memory,0.003093719482421875
2022-03-30T18:48:58.078Z,FULLY_SHARED_UNIT_1-2-1-1,1,target-1,memory,0.003093719482421875
2022-03-30T18:49:08.078Z,FULLY_SHARED_UNIT_1-2-1-1,1,target-1,memory,0.003093719482421875
2022-03-30T18:49:18.078Z,FULLY_SHARED_UNIT_1-2-1-1,1,target-1,memory,0.003093719482421875
2022-03-30T18:49:28.078Z,FULLY_SHARED_UNIT_1-2-1-1,1,target-1,memory,0.003093719482421875
2022-03-30T18:49:38.078Z,FULLY_SHARED_UNIT_1-2-1-1,1,target-1,memory,0.003093719482421875
2022-03-30T18:49:48.078Z,FULLY_SHARED_UNIT_1-2-1-1,1,target-1,memory,0.003093719482421875
2022-03-30T18:49:58.078Z,FULLY_SHARED_UNIT_1-2-1-1,1,target-1,memory,0.003093719482421875
2022-03-30T18:50:08.078Z,FULLY_SHARED_UNIT_1-2-1-1,1,target-1,memory,0.003093719482421875
2022-03-30T18:50:18.078Z,FULLY_SHARED_UNIT_1-2-1-1,1,target-1,memory,0.003093719482421875
2022-03-30T18:50:28.078Z,FULLY_SHARED_UNIT_1-2-1-1,1,target-1,memory,0.003093719482421875
2022-03-30T18:50:46.409Z,FULLY_SHARED_UNIT_1-2-1-1,2,target-1,memory,0.003116607666015625
2022-03-30T18:50:56.409Z,FULLY_SHARED_UNIT_1-2-1-1,2,target-1,memory,0.003116607666015625
2022-03-30T18:51:06.409Z,FULLY_SHARED_UNIT_1-2-1-1,2,target-1,memory,0.003116607666015625
2022-03-30T18:51:16.409Z,FULLY_SHARED_UNIT_1-2-1-1,2,target-1,memory,0.003116607666015625
2022-03-30T18:51:26.410Z,FULLY_SHARED_UNIT_1-2-1-1,2,target-1,memory,0.003116607666015625
2022-03-30T18:51:36.409Z,FULLY_SHARED_UNIT_1-2-1-1,2,target-1,memory,0.003116607666015625
2022-03-30T18:51:46.409Z,FULLY_SHARED_UNIT_1-2-1-1,2,target-1,memory,0.003116607666015625
2022-03-30T18:51:56.409Z,FULLY_SHARED_UNIT_1-2-1-1,2,target-1,memory,0.003116607666015625
2022-03-30T18:52:06.410Z,FULLY_SHARED_UNIT_1-2-1-1,2,target-1,memory,0.003116607666015625
2022-03-30T18:52:16.409Z,FULLY_SHARED_UNIT_1-2-1-1,2,target-1,memory,0.003116607666015625
2022-03-30T18:52:26.409Z,FULLY_SHARED_UNIT_1-2-1-1,2,target-1,memory,0.003116607666015625
2022-03-30T18:52:36.409Z,FULLY_SHARED_UNIT_1-2-1-1,2,target-1,memory,0.003116607666015625
2022-03-30T18:52:46.409Z,FULLY_SHARED_UNIT_1-2-1-1,2,target-1,memory,0.003116607666015625
2022-03-30T18:52:56.409Z,FULLY_SHARED_UNIT_1-2-1-1,2,target-1,memory,0.003116607666015625
2022-03-30T18:53:06.410Z,FULLY_SHARED_UNIT_1-2-1-1,2,target-1,memory,0.003116607666015625
2022-03-30T18:53:16.409Z,FULLY_SHARED_UNIT_1-2-1-1,2,target-1,memory,0.003116607666015625
2022-03-30T18:53:26.409Z,FULLY_SHARED_UNIT_1-2-1-1,2,target-1,memory,0.003116607666015625
2022-03-30T18:53:36.409Z,FULLY_SHARED_UNIT_1-2-1-1,2,target-1,memory,0.003116607666015625
2022-03-30T18:53:46.410Z,FULLY_SHARED_UNIT_1-2-1-1,2,target-1,memory,0.003116607666015625
2022-03-30T18:53:56.410Z,FULLY_SHARED_UNIT_1-2-1-1,2,target-1,memory,0.003116607666015625
2022-03-30T18:54:06.409Z,FULLY_SHARED_UNIT_1-2-1-1,2,target-1,memory,0.003116607666015625
2022-03-30T18:54:16.409Z,FULLY_SHARED_UNIT_1-2-1-1,2,target-1,memory,0.003116607666015625
2022-03-30T18:54:26.409Z,FULLY_SHARED_UNIT_1-2-1-1,2,target-1,memory,0.003116607666015625
2022-03-30T18:54:36.410Z,FULLY_SHARED_UNIT_1-2-1-1,2,target-1,memory,0.003116607666015625
2022-03-30T18:54:46.409Z,FULLY_SHARED_UNIT_1-2-1-1,2,target-1,memory,0.003116607666015625
2022-03-30T18:54:56.409Z,FULLY_SHARED_UNIT_1-2-1-1,2,target-1,memory,0.003116607666015625
2022-03-30T18:55:06.409Z,FULLY_SHARED_UNIT_1-2-1-1,2,target-1,memory,0.003116607666015625
2022-03-30T18:55:16.409Z,FULLY_SHARED_UNIT_1-2-1-1,2,target-1,memory,0.003116607666015625
2022-03-30T18:55:26.409Z,FULLY_SHARED_UNIT_1-2-1-1,2,target-1,memory,0.003116607666015625
2022-03-30T18:55:36.410Z,FULLY_SHARED_UNIT_1-2-1-1,2,target-1,memory,0.003116607666015625
2022-03-30T18:55:46.410Z,FULLY_SHARED_UNIT_1-2-1-1,2,target-1,memory,0.003116607666015625
2022-03-30T18:55:56.409Z,FULLY_SHARED_UNIT_1-2-1-1,2,target-1,memory,0.003116607666015625
2022-03-30T18:56:06.410Z,FULLY_SHARED_UNIT_1-2-1-1,2,target-1,memory,0.003116607666015625
2022-03-30T18:56:16.409Z,FULLY_SHARED_UNIT_1-2-1-1,2,target-1,memory,0.003116607666015625
2022-03-30T18:56:26.409Z,FULLY_SHARED_UNIT_1-2-1-1,2,target-1,memory,0.003116607666015625
2022-03-30T18:56:36.410Z,FULLY_SHARED_UNIT_1-2-1-1,2,target-1,memory,0.003116607666015625
2022-03-30T18:56:46.409Z,FULLY_SHARED_UNIT_1-2-1-1,2,target-1,memory,0.003116607666015625
2022-03-30T18:56:56.409Z,FULLY_SHARED_UNIT_1-2-1-1,2,target-1,memory,0.003116607666015625
2022-03-30T18:57:06.410Z,FULLY_SHARED_UNIT_1-2-1-1,2,target-1,memory,0.003116607666015625
2022-03-30T18:57:16.409Z,FULLY_SHARED_UNIT_1-2-1-1,2,target-1,memory,0.003116607666015625
2022-03-30T18:57:26.409Z,FULLY_SHARED_UNIT_1-2-1-1,2,target-1,memory,0.003116607666015625
2022-03-30T18:57:36.410Z,FULLY_SHARED_UNIT_1-2-1-1,2,target-1,memory,0.003116607666015625
2022-03-30T18:57:46.410Z,FULLY_SHARED_UNIT_1-2-1-1,2,target-1,memory,0.003116607666015625
2022-03-30T18:57:56.409Z,FULLY_SHARED_UNIT_1-2-1-1,2,target-1,memory,0.003116607666015625
2022-03-30T18:58:06.409Z,FULLY_SHARED_UNIT_1-2-1-1,2,target-1,memory,0.003116607666015625
2022-03-30T18:58:16.409Z,FULLY_SHARED_UNIT_1-2-1-1,2,target-1,memory,0.003116607666015625
2022-03-30T18:58:26.409Z,FULLY_SHARED_UNIT_1-2-1-1,2,target-1,memory,0.003116607666015625
2022-03-30T18:58:36.410Z,FULLY_SHARED_UNIT_1-2-1-1,2,target-1,memory,0.003116607666015625
2022-03-30T18:58:46.409Z,FULLY_SHARED_UNIT_1-2-1-1,2,target-1,memory,0.003116607666015625
2022-03-30T18:58:56.410Z,FULLY_SHARED_UNIT_1-2-1-1,2,target-1,memory,0.003116607666015625
2022-03-30T18:59:06.409Z,FULLY_SHARED_UNIT_1-2-1-1,2,target-1,memory,0.003116607666015625
2022-03-30T18:59:16.409Z,FULLY_SHARED_UNIT_1-2-1-1,2,target-1,memory,0.003116607666015625
2022-03-30T18:59:26.409Z,FULLY_SHARED_UNIT_1-2-1-1,2,target-1,memory,0.003116607666015625
2022-03-30T18:59:36.409Z,FULLY_SHARED_UNIT_1-2-1-1,2,target-1,memory,0.003116607666015625
2022-03-30T18:59:46.409Z,FULLY_SHARED_UNIT_1-2-1-1,2,target-1,memory,0.003116607666015625
2022-03-30T18:59:56.409Z,FULLY_SHARED_UNIT_1-2-1-1,2,target-1,memory,0.003116607666015625
2022-03-30T19:00:06.409Z,FULLY_SHARED_UNIT_1-2-1-1,2,target-1,memory,0.003116607666015625
2022-03-30T19:00:16.409Z,FULLY_SHARED_UNIT_1-2-1-1,2,target-1,memory,0.003116607666015625
2022-03-30T19:00:26.409Z,FULLY_SHARED_UNIT_1-2-1-1,2,target-1,memory,0.003116607666015625
2022-03-30T19:00:36.409Z,FULLY_SHARED_UNIT_1-2-1-1,2,target-1,memory,0.003116607666015625
2022-03-30T19:00:54.450Z,FULLY_SHARED_UNIT_1-2-1-1,3,target-1,memory,0.00312042236328125
2022-03-30T19:01:04.450Z,FULLY_SHARED_UNIT_1-2-1-1,3,target-1,memory,0.00312042236328125
2022-03-30T19:01:14.450Z,FULLY_SHARED_UNIT_1-2-1-1,3,target-1,memory,0.00312042236328125
2022-03-30T19:01:24.450Z,FULLY_SHARED_UNIT_1-2-1-1,3,target-1,memory,0.00312042236328125
2022-03-30T19:01:34.450Z,FULLY_SHARED_UNIT_1-2-1-1,3,target-1,memory,0.00312042236328125
2022-03-30T19:01:44.450Z,FULLY_SHARED_UNIT_1-2-1-1,3,target-1,memory,0.00312042236328125
2022-03-30T19:01:54.450Z,FULLY_SHARED_UNIT_1-2-1-1,3,target-1,memory,0.00312042236328125
2022-03-30T19:02:04.450Z,FULLY_SHARED_UNIT_1-2-1-1,3,target-1,memory,0.00312042236328125
2022-03-30T19:02:14.450Z,FULLY_SHARED_UNIT_1-2-1-1,3,target-1,memory,0.00312042236328125
2022-03-30T19:02:24.451Z,FULLY_SHARED_UNIT_1-2-1-1,3,target-1,memory,0.00312042236328125
2022-03-30T19:02:34.450Z,FULLY_SHARED_UNIT_1-2-1-1,3,target-1,memory,0.00312042236328125
2022-03-30T19:02:44.450Z,FULLY_SHARED_UNIT_1-2-1-1,3,target-1,memory,0.00312042236328125
2022-03-30T19:02:54.450Z,FULLY_SHARED_UNIT_1-2-1-1,3,target-1,memory,0.00312042236328125
2022-03-30T19:03:04.451Z,FULLY_SHARED_UNIT_1-2-1-1,3,target-1,memory,0.00312042236328125
2022-03-30T19:03:14.451Z,FULLY_SHARED_UNIT_1-2-1-1,3,target-1,memory,0.00312042236328125
2022-03-30T19:03:24.451Z,FULLY_SHARED_UNIT_1-2-1-1,3,target-1,memory,0.00312042236328125
2022-03-30T19:03:34.451Z,FULLY_SHARED_UNIT_1-2-1-1,3,target-1,memory,0.00312042236328125
2022-03-30T19:03:44.450Z,FULLY_SHARED_UNIT_1-2-1-1,3,target-1,memory,0.00312042236328125
2022-03-30T19:03:54.450Z,FULLY_SHARED_UNIT_1-2-1-1,3,target-1,memory,0.00312042236328125
2022-03-30T19:04:04.450Z,FULLY_SHARED_UNIT_1-2-1-1,3,target-1,memory,0.00312042236328125
2022-03-30T19:04:14.451Z,FULLY_SHARED_UNIT_1-2-1-1,3,target-1,memory,0.00312042236328125
2022-03-30T19:04:24.451Z,FULLY_SHARED_UNIT_1-2-1-1,3,target-1,memory,0.00312042236328125
2022-03-30T19:04:34.451Z,FULLY_SHARED_UNIT_1-2-1-1,3,target-1,memory,0.00312042236328125
2022-03-30T19:04:44.450Z,FULLY_SHARED_UNIT_1-2-1-1,3,target-1,memory,0.00312042236328125
2022-03-30T19:04:54.450Z,FULLY_SHARED_UNIT_1-2-1-1,3,target-1,memory,0.00312042236328125
2022-03-30T19:05:04.451Z,FULLY_SHARED_UNIT_1-2-1-1,3,target-1,memory,0.00312042236328125
2022-03-30T19:05:14.450Z,FULLY_SHARED_UNIT_1-2-1-1,3,target-1,memory,0.00312042236328125
2022-03-30T19:05:24.451Z,FULLY_SHARED_UNIT_1-2-1-1,3,target-1,memory,0.00312042236328125
2022-03-30T19:05:34.450Z,FULLY_SHARED_UNIT_1-2-1-1,3,target-1,memory,0.00312042236328125
2022-03-30T19:05:44.451Z,FULLY_SHARED_UNIT_1-2-1-1,3,target-1,memory,0.00312042236328125
2022-03-30T19:05:54.450Z,FULLY_SHARED_UNIT_1-2-1-1,3,target-1,memory,0.00312042236328125
2022-03-30T19:06:04.450Z,FULLY_SHARED_UNIT_1-2-1-1,3,target-1,memory,0.00312042236328125
2022-03-30T19:06:14.450Z,FULLY_SHARED_UNIT_1-2-1-1,3,target-1,memory,0.00312042236328125
2022-03-30T19:06:24.450Z,FULLY_SHARED_UNIT_1-2-1-1,3,target-1,memory,0.00312042236328125
2022-03-30T19:06:34.450Z,FULLY_SHARED_UNIT_1-2-1-1,3,target-1,memory,0.00312042236328125
2022-03-30T19:06:44.450Z,FULLY_SHARED_UNIT_1-2-1-1,3,target-1,memory,0.00312042236328125
2022-03-30T19:06:54.450Z,FULLY_SHARED_UNIT_1-2-1-1,3,target-1,memory,0.00312042236328125
2022-03-30T19:07:04.450Z,FULLY_SHARED_UNIT_1-2-1-1,3,target-1,memory,0.00312042236328125
2022-03-30T19:07:14.450Z,FULLY_SHARED_UNIT_1-2-1-1,3,target-1,memory,0.00312042236328125
2022-03-30T19:07:24.451Z,FULLY_SHARED_UNIT_1-2-1-1,3,target-1,memory,0.00312042236328125
2022-03-30T19:07:34.450Z,FULLY_SHARED_UNIT_1-2-1-1,3,target-1,memory,0.00312042236328125
2022-03-30T19:07:44.451Z,FULLY_SHARED_UNIT_1-2-1-1,3,target-1,memory,0.00312042236328125
2022-03-30T19:07:54.450Z,FULLY_SHARED_UNIT_1-2-1-1,3,target-1,memory,0.00312042236328125
2022-03-30T19:08:04.450Z,FULLY_SHARED_UNIT_1-2-1-1,3,target-1,memory,0.00312042236328125
2022-03-30T19:08:14.450Z,FULLY_SHARED_UNIT_1-2-1-1,3,target-1,memory,0.00312042236328125
2022-03-30T19:08:24.451Z,FULLY_SHARED_UNIT_1-2-1-1,3,target-1,memory,0.00312042236328125
2022-03-30T19:08:34.450Z,FULLY_SHARED_UNIT_1-2-1-1,3,target-1,memory,0.00312042236328125
2022-03-30T19:08:44.450Z,FULLY_SHARED_UNIT_1-2-1-1,3,target-1,memory,0.00312042236328125
2022-03-30T19:08:54.450Z,FULLY_SHARED_UNIT_1-2-1-1,3,target-1,memory,0.00312042236328125
2022-03-30T19:09:04.450Z,FULLY_SHARED_UNIT_1-2-1-1,3,target-1,memory,0.00312042236328125
2022-03-30T19:09:14.450Z,FULLY_SHARED_UNIT_1-2-1-1,3,target-1,memory,0.00312042236328125
2022-03-30T19:09:24.451Z,FULLY_SHARED_UNIT_1-2-1-1,3,target-1,memory,0.00312042236328125
2022-03-30T19:09:34.450Z,FULLY_SHARED_UNIT_1-2-1-1,3,target-1,memory,0.00312042236328125
2022-03-30T19:09:44.450Z,FULLY_SHARED_UNIT_1-2-1-1,3,target-1,memory,0.00312042236328125
2022-03-30T19:09:54.450Z,FULLY_SHARED_UNIT_1-2-1-1,3,target-1,memory,0.00312042236328125
2022-03-30T19:10:04.450Z,FULLY_SHARED_UNIT_1-2-1-1,3,target-1,memory,0.00312042236328125
2022-03-30T19:10:14.451Z,FULLY_SHARED_UNIT_1-2-1-1,3,target-1,memory,0.00312042236328125
2022-03-30T19:10:24.450Z,FULLY_SHARED_UNIT_1-2-1-1,3,target-1,memory,0.00312042236328125
2022-03-30T19:10:34.450Z,FULLY_SHARED_UNIT_1-2-1-1,3,target-1,memory,0.00312042236328125
2022-03-30T19:10:44.451Z,FULLY_SHARED_UNIT_1-2-1-1,3,target-1,memory,0.00312042236328125
2022-03-30T19:11:02.646Z,FULLY_SHARED_UNIT_1-2-1-2,1,target-1,memory,0.003124237060546875
2022-03-30T19:11:12.645Z,FULLY_SHARED_UNIT_1-2-1-2,1,target-1,memory,0.003124237060546875
2022-03-30T19:11:22.646Z,FULLY_SHARED_UNIT_1-2-1-2,1,target-1,memory,0.003124237060546875
2022-03-30T19:11:32.646Z,FULLY_SHARED_UNIT_1-2-1-2,1,target-1,memory,0.003124237060546875
2022-03-30T19:11:42.646Z,FULLY_SHARED_UNIT_1-2-1-2,1,target-1,memory,0.003124237060546875
2022-03-30T19:11:52.645Z,FULLY_SHARED_UNIT_1-2-1-2,1,target-1,memory,0.003124237060546875
2022-03-30T19:12:02.646Z,FULLY_SHARED_UNIT_1-2-1-2,1,target-1,memory,0.003124237060546875
2022-03-30T19:12:12.646Z,FULLY_SHARED_UNIT_1-2-1-2,1,target-1,memory,0.003124237060546875
2022-03-30T19:12:22.645Z,FULLY_SHARED_UNIT_1-2-1-2,1,target-1,memory,0.003124237060546875
2022-03-30T19:12:32.645Z,FULLY_SHARED_UNIT_1-2-1-2,1,target-1,memory,0.003124237060546875
2022-03-30T19:12:42.645Z,FULLY_SHARED_UNIT_1-2-1-2,1,target-1,memory,0.003124237060546875
2022-03-30T19:12:52.646Z,FULLY_SHARED_UNIT_1-2-1-2,1,target-1,memory,0.003124237060546875
2022-03-30T19:13:02.645Z,FULLY_SHARED_UNIT_1-2-1-2,1,target-1,memory,0.003124237060546875
2022-03-30T19:13:12.646Z,FULLY_SHARED_UNIT_1-2-1-2,1,target-1,memory,0.003124237060546875
2022-03-30T19:13:22.645Z,FULLY_SHARED_UNIT_1-2-1-2,1,target-1,memory,0.003124237060546875
2022-03-30T19:13:32.645Z,FULLY_SHARED_UNIT_1-2-1-2,1,target-1,memory,0.003124237060546875
2022-03-30T19:13:42.645Z,FULLY_SHARED_UNIT_1-2-1-2,1,target-1,memory,0.003124237060546875
2022-03-30T19:13:52.645Z,FULLY_SHARED_UNIT_1-2-1-2,1,target-1,memory,0.003124237060546875
2022-03-30T19:14:02.645Z,FULLY_SHARED_UNIT_1-2-1-2,1,target-1,memory,0.003124237060546875
2022-03-30T19:14:12.645Z,FULLY_SHARED_UNIT_1-2-1-2,1,target-1,memory,0.003124237060546875
2022-03-30T19:14:22.646Z,FULLY_SHARED_UNIT_1-2-1-2,1,target-1,memory,0.003124237060546875
2022-03-30T19:14:32.646Z,FULLY_SHARED_UNIT_1-2-1-2,1,target-1,memory,0.003124237060546875
2022-03-30T19:14:42.646Z,FULLY_SHARED_UNIT_1-2-1-2,1,target-1,memory,0.003124237060546875
2022-03-30T19:14:52.645Z,FULLY_SHARED_UNIT_1-2-1-2,1,target-1,memory,0.003124237060546875
2022-03-30T19:15:02.645Z,FULLY_SHARED_UNIT_1-2-1-2,1,target-1,memory,0.003124237060546875
2022-03-30T19:15:12.646Z,FULLY_SHARED_UNIT_1-2-1-2,1,target-1,memory,0.003124237060546875
2022-03-30T19:15:22.646Z,FULLY_SHARED_UNIT_1-2-1-2,1,target-1,memory,0.003124237060546875
2022-03-30T19:15:32.646Z,FULLY_SHARED_UNIT_1-2-1-2,1,target-1,memory,0.003124237060546875
2022-03-30T19:15:42.646Z,FULLY_SHARED_UNIT_1-2-1-2,1,target-1,memory,0.003124237060546875
2022-03-30T19:15:52.646Z,FULLY_SHARED_UNIT_1-2-1-2,1,target-1,memory,0.003124237060546875
2022-03-30T19:16:02.646Z,FULLY_SHARED_UNIT_1-2-1-2,1,target-1,memory,0.003124237060546875
2022-03-30T19:16:12.646Z,FULLY_SHARED_UNIT_1-2-1-2,1,target-1,memory,0.003124237060546875
2022-03-30T19:16:22.646Z,FULLY_SHARED_UNIT_1-2-1-2,1,target-1,memory,0.003124237060546875
2022-03-30T19:16:32.646Z,FULLY_SHARED_UNIT_1-2-1-2,1,target-1,memory,0.003124237060546875
2022-03-30T19:16:42.646Z,FULLY_SHARED_UNIT_1-2-1-2,1,target-1,memory,0.003124237060546875
2022-03-30T19:16:52.646Z,FULLY_SHARED_UNIT_1-2-1-2,1,target-1,memory,0.003124237060546875
2022-03-30T19:17:02.645Z,FULLY_SHARED_UNIT_1-2-1-2,1,target-1,memory,0.003124237060546875
2022-03-30T19:17:12.647Z,FULLY_SHARED_UNIT_1-2-1-2,1,target-1,memory,0.003124237060546875
2022-03-30T19:17:22.645Z,FULLY_SHARED_UNIT_1-2-1-2,1,target-1,memory,0.003124237060546875
2022-03-30T19:17:32.646Z,FULLY_SHARED_UNIT_1-2-1-2,1,target-1,memory,0.003124237060546875
2022-03-30T19:17:42.646Z,FULLY_SHARED_UNIT_1-2-1-2,1,target-1,memory,0.003124237060546875
2022-03-30T19:17:52.646Z,FULLY_SHARED_UNIT_1-2-1-2,1,target-1,memory,0.003124237060546875
2022-03-30T19:18:02.646Z,FULLY_SHARED_UNIT_1-2-1-2,1,target-1,memory,0.003124237060546875
2022-03-30T19:18:12.646Z,FULLY_SHARED_UNIT_1-2-1-2,1,target-1,memory,0.003124237060546875
2022-03-30T19:18:22.645Z,FULLY_SHARED_UNIT_1-2-1-2,1,target-1,memory,0.003124237060546875
2022-03-30T19:18:32.645Z,FULLY_SHARED_UNIT_1-2-1-2,1,target-1,memory,0.003124237060546875
2022-03-30T19:18:42.645Z,FULLY_SHARED_UNIT_1-2-1-2,1,target-1,memory,0.003124237060546875
2022-03-30T19:18:52.645Z,FULLY_SHARED_UNIT_1-2-1-2,1,target-1,memory,0.003124237060546875
2022-03-30T19:19:02.645Z,FULLY_SHARED_UNIT_1-2-1-2,1,target-1,memory,0.003124237060546875
2022-03-30T19:19:12.646Z,FULLY_SHARED_UNIT_1-2-1-2,1,target-1,memory,0.003124237060546875
2022-03-30T19:19:22.645Z,FULLY_SHARED_UNIT_1-2-1-2,1,target-1,memory,0.003124237060546875
2022-03-30T19:19:32.646Z,FULLY_SHARED_UNIT_1-2-1-2,1,target-1,memory,0.003124237060546875
2022-03-30T19:19:42.645Z,FULLY_SHARED_UNIT_1-2-1-2,1,target-1,memory,0.003124237060546875
2022-03-30T19:19:52.646Z,FULLY_SHARED_UNIT_1-2-1-2,1,target-1,memory,0.003124237060546875
2022-03-30T19:20:02.645Z,FULLY_SHARED_UNIT_1-2-1-2,1,target-1,memory,0.003124237060546875
2022-03-30T19:20:12.646Z,FULLY_SHARED_UNIT_1-2-1-2,1,target-1,memory,0.003124237060546875
2022-03-30T19:20:22.645Z,FULLY_SHARED_UNIT_1-2-1-2,1,target-1,memory,0.003124237060546875
2022-03-30T19:20:32.645Z,FULLY_SHARED_UNIT_1-2-1-2,1,target-1,memory,0.003124237060546875
2022-03-30T19:20:42.646Z,FULLY_SHARED_UNIT_1-2-1-2,1,target-1,memory,0.003124237060546875
2022-03-30T19:20:52.646Z,FULLY_SHARED_UNIT_1-2-1-2,1,target-1,memory,0.003124237060546875
2022-03-30T19:21:12.549Z,FULLY_SHARED_UNIT_1-2-1-2,2,target-1,memory,0.003124237060546875
2022-03-30T19:21:22.549Z,FULLY_SHARED_UNIT_1-2-1-2,2,target-1,memory,0.003124237060546875
2022-03-30T19:21:32.548Z,FULLY_SHARED_UNIT_1-2-1-2,2,target-1,memory,0.003124237060546875
2022-03-30T19:21:42.549Z,FULLY_SHARED_UNIT_1-2-1-2,2,target-1,memory,0.003124237060546875
2022-03-30T19:21:52.549Z,FULLY_SHARED_UNIT_1-2-1-2,2,target-1,memory,0.003124237060546875
2022-03-30T19:22:02.549Z,FULLY_SHARED_UNIT_1-2-1-2,2,target-1,memory,0.003124237060546875
2022-03-30T19:22:12.549Z,FULLY_SHARED_UNIT_1-2-1-2,2,target-1,memory,0.003124237060546875
2022-03-30T19:22:22.549Z,FULLY_SHARED_UNIT_1-2-1-2,2,target-1,memory,0.003124237060546875
2022-03-30T19:22:32.549Z,FULLY_SHARED_UNIT_1-2-1-2,2,target-1,memory,0.003124237060546875
2022-03-30T19:22:42.549Z,FULLY_SHARED_UNIT_1-2-1-2,2,target-1,memory,0.003124237060546875
2022-03-30T19:22:52.548Z,FULLY_SHARED_UNIT_1-2-1-2,2,target-1,memory,0.003124237060546875
2022-03-30T19:23:02.548Z,FULLY_SHARED_UNIT_1-2-1-2,2,target-1,memory,0.003124237060546875
2022-03-30T19:23:12.548Z,FULLY_SHARED_UNIT_1-2-1-2,2,target-1,memory,0.003124237060546875
2022-03-30T19:23:22.549Z,FULLY_SHARED_UNIT_1-2-1-2,2,target-1,memory,0.003124237060546875
2022-03-30T19:23:32.548Z,FULLY_SHARED_UNIT_1-2-1-2,2,target-1,memory,0.003124237060546875
2022-03-30T19:23:42.548Z,FULLY_SHARED_UNIT_1-2-1-2,2,target-1,memory,0.003124237060546875
2022-03-30T19:23:52.549Z,FULLY_SHARED_UNIT_1-2-1-2,2,target-1,memory,0.003124237060546875
2022-03-30T19:24:02.548Z,FULLY_SHARED_UNIT_1-2-1-2,2,target-1,memory,0.003124237060546875
2022-03-30T19:24:12.548Z,FULLY_SHARED_UNIT_1-2-1-2,2,target-1,memory,0.003124237060546875
2022-03-30T19:24:22.549Z,FULLY_SHARED_UNIT_1-2-1-2,2,target-1,memory,0.003124237060546875
2022-03-30T19:24:32.548Z,FULLY_SHARED_UNIT_1-2-1-2,2,target-1,memory,0.003124237060546875
2022-03-30T19:24:42.548Z,FULLY_SHARED_UNIT_1-2-1-2,2,target-1,memory,0.003124237060546875
2022-03-30T19:24:52.548Z,FULLY_SHARED_UNIT_1-2-1-2,2,target-1,memory,0.003124237060546875
2022-03-30T19:25:02.549Z,FULLY_SHARED_UNIT_1-2-1-2,2,target-1,memory,0.003124237060546875
2022-03-30T19:25:12.549Z,FULLY_SHARED_UNIT_1-2-1-2,2,target-1,memory,0.003124237060546875
2022-03-30T19:25:22.549Z,FULLY_SHARED_UNIT_1-2-1-2,2,target-1,memory,0.003124237060546875
2022-03-30T19:25:32.548Z,FULLY_SHARED_UNIT_1-2-1-2,2,target-1,memory,0.003124237060546875
2022-03-30T19:25:42.549Z,FULLY_SHARED_UNIT_1-2-1-2,2,target-1,memory,0.003124237060546875
2022-03-30T19:25:52.548Z,FULLY_SHARED_UNIT_1-2-1-2,2,target-1,memory,0.003124237060546875
2022-03-30T19:26:02.548Z,FULLY_SHARED_UNIT_1-2-1-2,2,target-1,memory,0.003124237060546875
2022-03-30T19:26:12.549Z,FULLY_SHARED_UNIT_1-2-1-2,2,target-1,memory,0.003124237060546875
2022-03-30T19:26:22.549Z,FULLY_SHARED_UNIT_1-2-1-2,2,target-1,memory,0.003124237060546875
2022-03-30T19:26:32.549Z,FULLY_SHARED_UNIT_1-2-1-2,2,target-1,memory,0.003124237060546875
2022-03-30T19:26:42.549Z,FULLY_SHARED_UNIT_1-2-1-2,2,target-1,memory,0.003124237060546875
2022-03-30T19:26:52.548Z,FULLY_SHARED_UNIT_1-2-1-2,2,target-1,memory,0.003124237060546875
2022-03-30T19:27:02.548Z,FULLY_SHARED_UNIT_1-2-1-2,2,target-1,memory,0.003124237060546875
2022-03-30T19:27:12.549Z,FULLY_SHARED_UNIT_1-2-1-2,2,target-1,memory,0.003124237060546875
2022-03-30T19:27:22.549Z,FULLY_SHARED_UNIT_1-2-1-2,2,target-1,memory,0.003124237060546875
2022-03-30T19:27:32.549Z,FULLY_SHARED_UNIT_1-2-1-2,2,target-1,memory,0.003124237060546875
2022-03-30T19:27:42.548Z,FULLY_SHARED_UNIT_1-2-1-2,2,target-1,memory,0.003124237060546875
2022-03-30T19:27:52.549Z,FULLY_SHARED_UNIT_1-2-1-2,2,target-1,memory,0.003124237060546875
2022-03-30T19:28:02.549Z,FULLY_SHARED_UNIT_1-2-1-2,2,target-1,memory,0.003124237060546875
2022-03-30T19:28:12.548Z,FULLY_SHARED_UNIT_1-2-1-2,2,target-1,memory,0.003124237060546875
2022-03-30T19:28:22.549Z,FULLY_SHARED_UNIT_1-2-1-2,2,target-1,memory,0.003124237060546875
2022-03-30T19:28:32.549Z,FULLY_SHARED_UNIT_1-2-1-2,2,target-1,memory,0.003124237060546875
2022-03-30T19:28:42.548Z,FULLY_SHARED_UNIT_1-2-1-2,2,target-1,memory,0.003124237060546875
2022-03-30T19:28:52.549Z,FULLY_SHARED_UNIT_1-2-1-2,2,target-1,memory,0.003124237060546875
2022-03-30T19:29:02.548Z,FULLY_SHARED_UNIT_1-2-1-2,2,target-1,memory,0.003124237060546875
2022-03-30T19:29:12.549Z,FULLY_SHARED_UNIT_1-2-1-2,2,target-1,memory,0.003124237060546875
2022-03-30T19:29:22.548Z,FULLY_SHARED_UNIT_1-2-1-2,2,target-1,memory,0.003124237060546875
2022-03-30T19:29:32.549Z,FULLY_SHARED_UNIT_1-2-1-2,2,target-1,memory,0.003124237060546875
2022-03-30T19:29:42.549Z,FULLY_SHARED_UNIT_1-2-1-2,2,target-1,memory,0.003124237060546875
2022-03-30T19:29:52.548Z,FULLY_SHARED_UNIT_1-2-1-2,2,target-1,memory,0.003124237060546875
2022-03-30T19:30:02.548Z,FULLY_SHARED_UNIT_1-2-1-2,2,target-1,memory,0.003124237060546875
2022-03-30T19:30:12.548Z,FULLY_SHARED_UNIT_1-2-1-2,2,target-1,memory,0.003124237060546875
2022-03-30T19:30:22.548Z,FULLY_SHARED_UNIT_1-2-1-2,2,target-1,memory,0.003124237060546875
2022-03-30T19:30:32.548Z,FULLY_SHARED_UNIT_1-2-1-2,2,target-1,memory,0.003124237060546875
2022-03-30T19:30:42.549Z,FULLY_SHARED_UNIT_1-2-1-2,2,target-1,memory,0.003124237060546875
2022-03-30T19:30:52.548Z,FULLY_SHARED_UNIT_1-2-1-2,2,target-1,memory,0.003124237060546875
2022-03-30T19:31:02.548Z,FULLY_SHARED_UNIT_1-2-1-2,2,target-1,memory,0.003124237060546875
2022-03-30T19:31:22.573Z,FULLY_SHARED_UNIT_1-2-1-2,3,target-1,memory,0.003124237060546875
2022-03-30T19:31:32.573Z,FULLY_SHARED_UNIT_1-2-1-2,3,target-1,memory,0.003124237060546875
2022-03-30T19:31:42.572Z,FULLY_SHARED_UNIT_1-2-1-2,3,target-1,memory,0.003124237060546875
2022-03-30T19:31:52.573Z,FULLY_SHARED_UNIT_1-2-1-2,3,target-1,memory,0.003124237060546875
2022-03-30T19:32:02.573Z,FULLY_SHARED_UNIT_1-2-1-2,3,target-1,memory,0.003124237060546875
2022-03-30T19:32:12.573Z,FULLY_SHARED_UNIT_1-2-1-2,3,target-1,memory,0.003124237060546875
2022-03-30T19:32:22.573Z,FULLY_SHARED_UNIT_1-2-1-2,3,target-1,memory,0.003124237060546875
2022-03-30T19:32:32.573Z,FULLY_SHARED_UNIT_1-2-1-2,3,target-1,memory,0.003124237060546875
2022-03-30T19:32:42.573Z,FULLY_SHARED_UNIT_1-2-1-2,3,target-1,memory,0.003124237060546875
2022-03-30T19:32:52.573Z,FULLY_SHARED_UNIT_1-2-1-2,3,target-1,memory,0.003124237060546875
2022-03-30T19:33:02.573Z,FULLY_SHARED_UNIT_1-2-1-2,3,target-1,memory,0.003124237060546875
2022-03-30T19:33:12.573Z,FULLY_SHARED_UNIT_1-2-1-2,3,target-1,memory,0.003124237060546875
2022-03-30T19:33:22.573Z,FULLY_SHARED_UNIT_1-2-1-2,3,target-1,memory,0.003124237060546875
2022-03-30T19:33:32.573Z,FULLY_SHARED_UNIT_1-2-1-2,3,target-1,memory,0.003124237060546875
2022-03-30T19:33:42.573Z,FULLY_SHARED_UNIT_1-2-1-2,3,target-1,memory,0.003124237060546875
2022-03-30T19:33:52.573Z,FULLY_SHARED_UNIT_1-2-1-2,3,target-1,memory,0.003124237060546875
2022-03-30T19:34:02.572Z,FULLY_SHARED_UNIT_1-2-1-2,3,target-1,memory,0.003124237060546875
2022-03-30T19:34:12.573Z,FULLY_SHARED_UNIT_1-2-1-2,3,target-1,memory,0.003124237060546875
2022-03-30T19:34:22.573Z,FULLY_SHARED_UNIT_1-2-1-2,3,target-1,memory,0.003124237060546875
2022-03-30T19:34:32.573Z,FULLY_SHARED_UNIT_1-2-1-2,3,target-1,memory,0.003124237060546875
2022-03-30T19:34:42.573Z,FULLY_SHARED_UNIT_1-2-1-2,3,target-1,memory,0.003124237060546875
2022-03-30T19:34:52.573Z,FULLY_SHARED_UNIT_1-2-1-2,3,target-1,memory,0.003124237060546875
2022-03-30T19:35:02.573Z,FULLY_SHARED_UNIT_1-2-1-2,3,target-1,memory,0.003124237060546875
2022-03-30T19:35:12.573Z,FULLY_SHARED_UNIT_1-2-1-2,3,target-1,memory,0.003124237060546875
2022-03-30T19:35:22.572Z,FULLY_SHARED_UNIT_1-2-1-2,3,target-1,memory,0.003124237060546875
2022-03-30T19:35:32.573Z,FULLY_SHARED_UNIT_1-2-1-2,3,target-1,memory,0.003124237060546875
2022-03-30T19:35:42.573Z,FULLY_SHARED_UNIT_1-2-1-2,3,target-1,memory,0.003124237060546875
2022-03-30T19:35:52.574Z,FULLY_SHARED_UNIT_1-2-1-2,3,target-1,memory,0.003124237060546875
2022-03-30T19:36:02.572Z,FULLY_SHARED_UNIT_1-2-1-2,3,target-1,memory,0.003124237060546875
2022-03-30T19:36:12.573Z,FULLY_SHARED_UNIT_1-2-1-2,3,target-1,memory,0.003124237060546875
2022-03-30T19:36:22.572Z,FULLY_SHARED_UNIT_1-2-1-2,3,target-1,memory,0.003124237060546875
2022-03-30T19:36:32.573Z,FULLY_SHARED_UNIT_1-2-1-2,3,target-1,memory,0.003124237060546875
2022-03-30T19:36:42.573Z,FULLY_SHARED_UNIT_1-2-1-2,3,target-1,memory,0.003124237060546875
2022-03-30T19:36:52.573Z,FULLY_SHARED_UNIT_1-2-1-2,3,target-1,memory,0.003124237060546875
2022-03-30T19:37:02.574Z,FULLY_SHARED_UNIT_1-2-1-2,3,target-1,memory,0.003124237060546875
2022-03-30T19:37:12.573Z,FULLY_SHARED_UNIT_1-2-1-2,3,target-1,memory,0.003124237060546875
2022-03-30T19:37:22.573Z,FULLY_SHARED_UNIT_1-2-1-2,3,target-1,memory,0.003124237060546875
2022-03-30T19:37:32.573Z,FULLY_SHARED_UNIT_1-2-1-2,3,target-1,memory,0.003124237060546875
2022-03-30T19:37:42.573Z,FULLY_SHARED_UNIT_1-2-1-2,3,target-1,memory,0.003124237060546875
2022-03-30T19:37:52.574Z,FULLY_SHARED_UNIT_1-2-1-2,3,target-1,memory,0.003124237060546875
2022-03-30T19:38:02.573Z,FULLY_SHARED_UNIT_1-2-1-2,3,target-1,memory,0.003124237060546875
2022-03-30T19:38:12.572Z,FULLY_SHARED_UNIT_1-2-1-2,3,target-1,memory,0.003124237060546875
2022-03-30T19:38:22.573Z,FULLY_SHARED_UNIT_1-2-1-2,3,target-1,memory,0.003124237060546875
2022-03-30T19:38:32.573Z,FULLY_SHARED_UNIT_1-2-1-2,3,target-1,memory,0.003124237060546875
2022-03-30T19:38:42.573Z,FULLY_SHARED_UNIT_1-2-1-2,3,target-1,memory,0.003124237060546875
2022-03-30T19:38:52.573Z,FULLY_SHARED_UNIT_1-2-1-2,3,target-1,memory,0.003124237060546875
2022-03-30T19:39:02.573Z,FULLY_SHARED_UNIT_1-2-1-2,3,target-1,memory,0.003124237060546875
2022-03-30T19:39:12.572Z,FULLY_SHARED_UNIT_1-2-1-2,3,target-1,memory,0.003124237060546875
2022-03-30T19:39:22.573Z,FULLY_SHARED_UNIT_1-2-1-2,3,target-1,memory,0.003124237060546875
2022-03-30T19:39:32.573Z,FULLY_SHARED_UNIT_1-2-1-2,3,target-1,memory,0.003124237060546875
2022-03-30T19:39:42.573Z,FULLY_SHARED_UNIT_1-2-1-2,3,target-1,memory,0.003124237060546875
2022-03-30T19:39:52.573Z,FULLY_SHARED_UNIT_1-2-1-2,3,target-1,memory,0.003124237060546875
2022-03-30T19:40:02.573Z,FULLY_SHARED_UNIT_1-2-1-2,3,target-1,memory,0.003124237060546875
2022-03-30T19:40:12.573Z,FULLY_SHARED_UNIT_1-2-1-2,3,target-1,memory,0.003124237060546875
2022-03-30T19:40:22.573Z,FULLY_SHARED_UNIT_1-2-1-2,3,target-1,memory,0.003124237060546875
2022-03-30T19:40:32.573Z,FULLY_SHARED_UNIT_1-2-1-2,3,target-1,memory,0.003124237060546875
2022-03-30T19:40:42.573Z,FULLY_SHARED_UNIT_1-2-1-2,3,target-1,memory,0.003124237060546875
2022-03-30T19:40:52.573Z,FULLY_SHARED_UNIT_1-2-1-2,3,target-1,memory,0.003124237060546875
2022-03-30T19:41:02.573Z,FULLY_SHARED_UNIT_1-2-1-2,3,target-1,memory,0.003124237060546875
2022-03-30T19:41:12.573Z,FULLY_SHARED_UNIT_1-2-1-2,3,target-1,memory,0.003124237060546875
2022-03-30T19:41:32.700Z,FULLY_SHARED_UNIT_1-2-1-4,1,target-1,memory,0.003124237060546875
2022-03-30T19:41:42.701Z,FULLY_SHARED_UNIT_1-2-1-4,1,target-1,memory,0.0031280517578125
2022-03-30T19:41:52.700Z,FULLY_SHARED_UNIT_1-2-1-4,1,target-1,memory,0.0031280517578125
2022-03-30T19:42:02.700Z,FULLY_SHARED_UNIT_1-2-1-4,1,target-1,memory,0.0031280517578125
2022-03-30T19:42:12.700Z,FULLY_SHARED_UNIT_1-2-1-4,1,target-1,memory,0.0031280517578125
2022-03-30T19:42:22.700Z,FULLY_SHARED_UNIT_1-2-1-4,1,target-1,memory,0.0031280517578125
2022-03-30T19:42:32.700Z,FULLY_SHARED_UNIT_1-2-1-4,1,target-1,memory,0.0031280517578125
2022-03-30T19:42:42.700Z,FULLY_SHARED_UNIT_1-2-1-4,1,target-1,memory,0.0031280517578125
2022-03-30T19:42:52.701Z,FULLY_SHARED_UNIT_1-2-1-4,1,target-1,memory,0.0031280517578125
2022-03-30T19:43:02.701Z,FULLY_SHARED_UNIT_1-2-1-4,1,target-1,memory,0.0031280517578125
2022-03-30T19:43:12.700Z,FULLY_SHARED_UNIT_1-2-1-4,1,target-1,memory,0.0031280517578125
2022-03-30T19:43:22.700Z,FULLY_SHARED_UNIT_1-2-1-4,1,target-1,memory,0.0031280517578125
2022-03-30T19:43:32.701Z,FULLY_SHARED_UNIT_1-2-1-4,1,target-1,memory,0.0031280517578125
2022-03-30T19:43:42.701Z,FULLY_SHARED_UNIT_1-2-1-4,1,target-1,memory,0.0031280517578125
2022-03-30T19:43:52.700Z,FULLY_SHARED_UNIT_1-2-1-4,1,target-1,memory,0.0031280517578125
2022-03-30T19:44:02.700Z,FULLY_SHARED_UNIT_1-2-1-4,1,target-1,memory,0.0031280517578125
2022-03-30T19:44:12.701Z,FULLY_SHARED_UNIT_1-2-1-4,1,target-1,memory,0.0031280517578125
2022-03-30T19:44:22.700Z,FULLY_SHARED_UNIT_1-2-1-4,1,target-1,memory,0.0031280517578125
2022-03-30T19:44:32.701Z,FULLY_SHARED_UNIT_1-2-1-4,1,target-1,memory,0.0031280517578125
2022-03-30T19:44:42.700Z,FULLY_SHARED_UNIT_1-2-1-4,1,target-1,memory,0.0031280517578125
2022-03-30T19:44:52.701Z,FULLY_SHARED_UNIT_1-2-1-4,1,target-1,memory,0.0031280517578125
2022-03-30T19:45:02.700Z,FULLY_SHARED_UNIT_1-2-1-4,1,target-1,memory,0.0031280517578125
2022-03-30T19:45:12.701Z,FULLY_SHARED_UNIT_1-2-1-4,1,target-1,memory,0.0031280517578125
2022-03-30T19:45:22.700Z,FULLY_SHARED_UNIT_1-2-1-4,1,target-1,memory,0.0031280517578125
2022-03-30T19:45:32.700Z,FULLY_SHARED_UNIT_1-2-1-4,1,target-1,memory,0.0031280517578125
2022-03-30T19:45:42.701Z,FULLY_SHARED_UNIT_1-2-1-4,1,target-1,memory,0.0031280517578125
2022-03-30T19:45:52.701Z,FULLY_SHARED_UNIT_1-2-1-4,1,target-1,memory,0.0031280517578125
2022-03-30T19:46:02.701Z,FULLY_SHARED_UNIT_1-2-1-4,1,target-1,memory,0.0031280517578125
2022-03-30T19:46:12.701Z,FULLY_SHARED_UNIT_1-2-1-4,1,target-1,memory,0.0031280517578125
2022-03-30T19:46:22.700Z,FULLY_SHARED_UNIT_1-2-1-4,1,target-1,memory,0.0031280517578125
2022-03-30T19:46:32.701Z,FULLY_SHARED_UNIT_1-2-1-4,1,target-1,memory,0.0031280517578125
2022-03-30T19:46:42.700Z,FULLY_SHARED_UNIT_1-2-1-4,1,target-1,memory,0.0031280517578125
2022-03-30T19:46:52.700Z,FULLY_SHARED_UNIT_1-2-1-4,1,target-1,memory,0.0031280517578125
2022-03-30T19:47:02.701Z,FULLY_SHARED_UNIT_1-2-1-4,1,target-1,memory,0.0031280517578125
2022-03-30T19:47:12.701Z,FULLY_SHARED_UNIT_1-2-1-4,1,target-1,memory,0.0031280517578125
2022-03-30T19:47:22.700Z,FULLY_SHARED_UNIT_1-2-1-4,1,target-1,memory,0.0031280517578125
2022-03-30T19:47:32.700Z,FULLY_SHARED_UNIT_1-2-1-4,1,target-1,memory,0.0031280517578125
2022-03-30T19:47:42.701Z,FULLY_SHARED_UNIT_1-2-1-4,1,target-1,memory,0.0031280517578125
2022-03-30T19:47:52.700Z,FULLY_SHARED_UNIT_1-2-1-4,1,target-1,memory,0.0031280517578125
2022-03-30T19:48:02.700Z,FULLY_SHARED_UNIT_1-2-1-4,1,target-1,memory,0.0031280517578125
2022-03-30T19:48:12.701Z,FULLY_SHARED_UNIT_1-2-1-4,1,target-1,memory,0.0031280517578125
2022-03-30T19:48:22.700Z,FULLY_SHARED_UNIT_1-2-1-4,1,target-1,memory,0.0031280517578125
2022-03-30T19:48:32.701Z,FULLY_SHARED_UNIT_1-2-1-4,1,target-1,memory,0.0031280517578125
2022-03-30T19:48:42.700Z,FULLY_SHARED_UNIT_1-2-1-4,1,target-1,memory,0.0031280517578125
2022-03-30T19:48:52.701Z,FULLY_SHARED_UNIT_1-2-1-4,1,target-1,memory,0.0031280517578125
2022-03-30T19:49:02.700Z,FULLY_SHARED_UNIT_1-2-1-4,1,target-1,memory,0.0031280517578125
2022-03-30T19:49:12.701Z,FULLY_SHARED_UNIT_1-2-1-4,1,target-1,memory,0.0031280517578125
2022-03-30T19:49:22.701Z,FULLY_SHARED_UNIT_1-2-1-4,1,target-1,memory,0.0031280517578125
2022-03-30T19:49:32.700Z,FULLY_SHARED_UNIT_1-2-1-4,1,target-1,memory,0.0031280517578125
2022-03-30T19:49:42.700Z,FULLY_SHARED_UNIT_1-2-1-4,1,target-1,memory,0.0031280517578125
2022-03-30T19:49:52.701Z,FULLY_SHARED_UNIT_1-2-1-4,1,target-1,memory,0.0031280517578125
2022-03-30T19:50:02.700Z,FULLY_SHARED_UNIT_1-2-1-4,1,target-1,memory,0.0031280517578125
2022-03-30T19:50:12.700Z,FULLY_SHARED_UNIT_1-2-1-4,1,target-1,memory,0.0031280517578125
2022-03-30T19:50:22.702Z,FULLY_SHARED_UNIT_1-2-1-4,1,target-1,memory,0.0031280517578125
2022-03-30T19:50:32.701Z,FULLY_SHARED_UNIT_1-2-1-4,1,target-1,memory,0.0031280517578125
2022-03-30T19:50:42.700Z,FULLY_SHARED_UNIT_1-2-1-4,1,target-1,memory,0.0031280517578125
2022-03-30T19:50:52.700Z,FULLY_SHARED_UNIT_1-2-1-4,1,target-1,memory,0.0031280517578125
2022-03-30T19:51:02.700Z,FULLY_SHARED_UNIT_1-2-1-4,1,target-1,memory,0.0031280517578125
2022-03-30T19:51:12.700Z,FULLY_SHARED_UNIT_1-2-1-4,1,target-1,memory,0.0031280517578125
2022-03-30T19:51:22.700Z,FULLY_SHARED_UNIT_1-2-1-4,1,target-1,memory,0.0031280517578125
2022-03-30T19:51:46.762Z,FULLY_SHARED_UNIT_1-2-1-4,2,target-1,memory,0.003143310546875
2022-03-30T19:51:56.761Z,FULLY_SHARED_UNIT_1-2-1-4,2,target-1,memory,0.003143310546875
2022-03-30T19:52:06.761Z,FULLY_SHARED_UNIT_1-2-1-4,2,target-1,memory,0.003143310546875
2022-03-30T19:52:16.762Z,FULLY_SHARED_UNIT_1-2-1-4,2,target-1,memory,0.003143310546875
2022-03-30T19:52:26.762Z,FULLY_SHARED_UNIT_1-2-1-4,2,target-1,memory,0.003143310546875
2022-03-30T19:52:36.762Z,FULLY_SHARED_UNIT_1-2-1-4,2,target-1,memory,0.003143310546875
2022-03-30T19:52:46.761Z,FULLY_SHARED_UNIT_1-2-1-4,2,target-1,memory,0.003143310546875
2022-03-30T19:52:56.762Z,FULLY_SHARED_UNIT_1-2-1-4,2,target-1,memory,0.003143310546875
2022-03-30T19:53:06.761Z,FULLY_SHARED_UNIT_1-2-1-4,2,target-1,memory,0.003143310546875
2022-03-30T19:53:16.761Z,FULLY_SHARED_UNIT_1-2-1-4,2,target-1,memory,0.003143310546875
2022-03-30T19:53:26.762Z,FULLY_SHARED_UNIT_1-2-1-4,2,target-1,memory,0.003143310546875
2022-03-30T19:53:36.762Z,FULLY_SHARED_UNIT_1-2-1-4,2,target-1,memory,0.003143310546875
2022-03-30T19:53:46.762Z,FULLY_SHARED_UNIT_1-2-1-4,2,target-1,memory,0.003143310546875
2022-03-30T19:53:56.761Z,FULLY_SHARED_UNIT_1-2-1-4,2,target-1,memory,0.003143310546875
2022-03-30T19:54:06.762Z,FULLY_SHARED_UNIT_1-2-1-4,2,target-1,memory,0.003143310546875
2022-03-30T19:54:16.761Z,FULLY_SHARED_UNIT_1-2-1-4,2,target-1,memory,0.003143310546875
2022-03-30T19:54:26.761Z,FULLY_SHARED_UNIT_1-2-1-4,2,target-1,memory,0.003143310546875
2022-03-30T19:54:36.762Z,FULLY_SHARED_UNIT_1-2-1-4,2,target-1,memory,0.003143310546875
2022-03-30T19:54:46.762Z,FULLY_SHARED_UNIT_1-2-1-4,2,target-1,memory,0.003143310546875
2022-03-30T19:54:56.761Z,FULLY_SHARED_UNIT_1-2-1-4,2,target-1,memory,0.003143310546875
2022-03-30T19:55:06.762Z,FULLY_SHARED_UNIT_1-2-1-4,2,target-1,memory,0.003143310546875
2022-03-30T19:55:16.762Z,FULLY_SHARED_UNIT_1-2-1-4,2,target-1,memory,0.003143310546875
2022-03-30T19:55:26.761Z,FULLY_SHARED_UNIT_1-2-1-4,2,target-1,memory,0.003143310546875
2022-03-30T19:55:36.761Z,FULLY_SHARED_UNIT_1-2-1-4,2,target-1,memory,0.003143310546875
2022-03-30T19:55:46.761Z,FULLY_SHARED_UNIT_1-2-1-4,2,target-1,memory,0.003143310546875
2022-03-30T19:55:56.761Z,FULLY_SHARED_UNIT_1-2-1-4,2,target-1,memory,0.003143310546875
2022-03-30T19:56:06.762Z,FULLY_SHARED_UNIT_1-2-1-4,2,target-1,memory,0.003143310546875
2022-03-30T19:56:16.762Z,FULLY_SHARED_UNIT_1-2-1-4,2,target-1,memory,0.003143310546875
2022-03-30T19:56:26.761Z,FULLY_SHARED_UNIT_1-2-1-4,2,target-1,memory,0.003143310546875
2022-03-30T19:56:36.762Z,FULLY_SHARED_UNIT_1-2-1-4,2,target-1,memory,0.003143310546875
2022-03-30T19:56:46.761Z,FULLY_SHARED_UNIT_1-2-1-4,2,target-1,memory,0.003143310546875
2022-03-30T19:56:56.762Z,FULLY_SHARED_UNIT_1-2-1-4,2,target-1,memory,0.003143310546875
2022-03-30T19:57:06.761Z,FULLY_SHARED_UNIT_1-2-1-4,2,target-1,memory,0.003143310546875
2022-03-30T19:57:16.762Z,FULLY_SHARED_UNIT_1-2-1-4,2,target-1,memory,0.003143310546875
2022-03-30T19:57:26.761Z,FULLY_SHARED_UNIT_1-2-1-4,2,target-1,memory,0.003143310546875
2022-03-30T19:57:36.762Z,FULLY_SHARED_UNIT_1-2-1-4,2,target-1,memory,0.003143310546875
2022-03-30T19:57:46.761Z,FULLY_SHARED_UNIT_1-2-1-4,2,target-1,memory,0.003143310546875
2022-03-30T19:57:56.761Z,FULLY_SHARED_UNIT_1-2-1-4,2,target-1,memory,0.003143310546875
2022-03-30T19:58:06.762Z,FULLY_SHARED_UNIT_1-2-1-4,2,target-1,memory,0.003143310546875
2022-03-30T19:58:16.761Z,FULLY_SHARED_UNIT_1-2-1-4,2,target-1,memory,0.003143310546875
2022-03-30T19:58:26.762Z,FULLY_SHARED_UNIT_1-2-1-4,2,target-1,memory,0.003143310546875
2022-03-30T19:58:36.761Z,FULLY_SHARED_UNIT_1-2-1-4,2,target-1,memory,0.003143310546875
2022-03-30T19:58:46.762Z,FULLY_SHARED_UNIT_1-2-1-4,2,target-1,memory,0.003143310546875
2022-03-30T19:58:56.761Z,FULLY_SHARED_UNIT_1-2-1-4,2,target-1,memory,0.003143310546875
2022-03-30T19:59:06.761Z,FULLY_SHARED_UNIT_1-2-1-4,2,target-1,memory,0.003143310546875
2022-03-30T19:59:16.762Z,FULLY_SHARED_UNIT_1-2-1-4,2,target-1,memory,0.003143310546875
2022-03-30T19:59:26.761Z,FULLY_SHARED_UNIT_1-2-1-4,2,target-1,memory,0.003143310546875
2022-03-30T19:59:36.762Z,FULLY_SHARED_UNIT_1-2-1-4,2,target-1,memory,0.003143310546875
2022-03-30T19:59:46.761Z,FULLY_SHARED_UNIT_1-2-1-4,2,target-1,memory,0.003143310546875
2022-03-30T19:59:56.761Z,FULLY_SHARED_UNIT_1-2-1-4,2,target-1,memory,0.003143310546875
2022-03-30T20:00:06.762Z,FULLY_SHARED_UNIT_1-2-1-4,2,target-1,memory,0.003143310546875
2022-03-30T20:00:16.762Z,FULLY_SHARED_UNIT_1-2-1-4,2,target-1,memory,0.003143310546875
2022-03-30T20:00:26.762Z,FULLY_SHARED_UNIT_1-2-1-4,2,target-1,memory,0.003143310546875
2022-03-30T20:00:36.762Z,FULLY_SHARED_UNIT_1-2-1-4,2,target-1,memory,0.003143310546875
2022-03-30T20:00:46.762Z,FULLY_SHARED_UNIT_1-2-1-4,2,target-1,memory,0.003143310546875
2022-03-30T20:00:56.761Z,FULLY_SHARED_UNIT_1-2-1-4,2,target-1,memory,0.003143310546875
2022-03-30T20:01:06.761Z,FULLY_SHARED_UNIT_1-2-1-4,2,target-1,memory,0.003143310546875
2022-03-30T20:01:16.762Z,FULLY_SHARED_UNIT_1-2-1-4,2,target-1,memory,0.003143310546875
2022-03-30T20:01:26.761Z,FULLY_SHARED_UNIT_1-2-1-4,2,target-1,memory,0.003143310546875
2022-03-30T20:01:36.761Z,FULLY_SHARED_UNIT_1-2-1-4,2,target-1,memory,0.003143310546875
2022-03-30T20:02:00.789Z,FULLY_SHARED_UNIT_1-2-1-4,3,target-1,memory,0.003143310546875
2022-03-30T20:02:10.789Z,FULLY_SHARED_UNIT_1-2-1-4,3,target-1,memory,0.003143310546875
2022-03-30T20:02:20.790Z,FULLY_SHARED_UNIT_1-2-1-4,3,target-1,memory,0.003143310546875
2022-03-30T20:02:30.790Z,FULLY_SHARED_UNIT_1-2-1-4,3,target-1,memory,0.003143310546875
2022-03-30T20:02:40.790Z,FULLY_SHARED_UNIT_1-2-1-4,3,target-1,memory,0.003143310546875
2022-03-30T20:02:50.790Z,FULLY_SHARED_UNIT_1-2-1-4,3,target-1,memory,0.003143310546875
2022-03-30T20:03:00.790Z,FULLY_SHARED_UNIT_1-2-1-4,3,target-1,memory,0.003143310546875
2022-03-30T20:03:10.790Z,FULLY_SHARED_UNIT_1-2-1-4,3,target-1,memory,0.003143310546875
2022-03-30T20:03:20.790Z,FULLY_SHARED_UNIT_1-2-1-4,3,target-1,memory,0.003143310546875
2022-03-30T20:03:30.790Z,FULLY_SHARED_UNIT_1-2-1-4,3,target-1,memory,0.003143310546875
2022-03-30T20:03:40.790Z,FULLY_SHARED_UNIT_1-2-1-4,3,target-1,memory,0.003143310546875
2022-03-30T20:03:50.790Z,FULLY_SHARED_UNIT_1-2-1-4,3,target-1,memory,0.003143310546875
2022-03-30T20:04:00.790Z,FULLY_SHARED_UNIT_1-2-1-4,3,target-1,memory,0.003143310546875
2022-03-30T20:04:10.789Z,FULLY_SHARED_UNIT_1-2-1-4,3,target-1,memory,0.003143310546875
2022-03-30T20:04:20.790Z,FULLY_SHARED_UNIT_1-2-1-4,3,target-1,memory,0.003143310546875
2022-03-30T20:04:30.790Z,FULLY_SHARED_UNIT_1-2-1-4,3,target-1,memory,0.003143310546875
2022-03-30T20:04:40.790Z,FULLY_SHARED_UNIT_1-2-1-4,3,target-1,memory,0.003143310546875
2022-03-30T20:04:50.790Z,FULLY_SHARED_UNIT_1-2-1-4,3,target-1,memory,0.003143310546875
2022-03-30T20:05:00.790Z,FULLY_SHARED_UNIT_1-2-1-4,3,target-1,memory,0.003143310546875
2022-03-30T20:05:10.790Z,FULLY_SHARED_UNIT_1-2-1-4,3,target-1,memory,0.003143310546875
2022-03-30T20:05:20.790Z,FULLY_SHARED_UNIT_1-2-1-4,3,target-1,memory,0.003143310546875
2022-03-30T20:05:30.790Z,FULLY_SHARED_UNIT_1-2-1-4,3,target-1,memory,0.003143310546875
2022-03-30T20:05:40.790Z,FULLY_SHARED_UNIT_1-2-1-4,3,target-1,memory,0.003143310546875
2022-03-30T20:05:50.790Z,FULLY_SHARED_UNIT_1-2-1-4,3,target-1,memory,0.003143310546875
2022-03-30T20:06:00.790Z,FULLY_SHARED_UNIT_1-2-1-4,3,target-1,memory,0.003143310546875
2022-03-30T20:06:10.790Z,FULLY_SHARED_UNIT_1-2-1-4,3,target-1,memory,0.003143310546875
2022-03-30T20:06:20.790Z,FULLY_SHARED_UNIT_1-2-1-4,3,target-1,memory,0.003143310546875
2022-03-30T20:06:30.789Z,FULLY_SHARED_UNIT_1-2-1-4,3,target-1,memory,0.003143310546875
2022-03-30T20:06:40.791Z,FULLY_SHARED_UNIT_1-2-1-4,3,target-1,memory,0.003143310546875
2022-03-30T20:06:50.790Z,FULLY_SHARED_UNIT_1-2-1-4,3,target-1,memory,0.003143310546875
2022-03-30T20:07:00.790Z,FULLY_SHARED_UNIT_1-2-1-4,3,target-1,memory,0.003143310546875
2022-03-30T20:07:10.790Z,FULLY_SHARED_UNIT_1-2-1-4,3,target-1,memory,0.003143310546875
2022-03-30T20:07:20.790Z,FULLY_SHARED_UNIT_1-2-1-4,3,target-1,memory,0.003143310546875
2022-03-30T20:07:30.790Z,FULLY_SHARED_UNIT_1-2-1-4,3,target-1,memory,0.003143310546875
2022-03-30T20:07:40.790Z,FULLY_SHARED_UNIT_1-2-1-4,3,target-1,memory,0.003143310546875
2022-03-30T20:07:50.790Z,FULLY_SHARED_UNIT_1-2-1-4,3,target-1,memory,0.003143310546875
2022-03-30T20:08:00.790Z,FULLY_SHARED_UNIT_1-2-1-4,3,target-1,memory,0.003143310546875
2022-03-30T20:08:10.790Z,FULLY_SHARED_UNIT_1-2-1-4,3,target-1,memory,0.003143310546875
2022-03-30T20:08:20.790Z,FULLY_SHARED_UNIT_1-2-1-4,3,target-1,memory,0.003143310546875
2022-03-30T20:08:30.791Z,FULLY_SHARED_UNIT_1-2-1-4,3,target-1,memory,0.003143310546875
2022-03-30T20:08:40.790Z,FULLY_SHARED_UNIT_1-2-1-4,3,target-1,memory,0.003143310546875
2022-03-30T20:08:50.790Z,FULLY_SHARED_UNIT_1-2-1-4,3,target-1,memory,0.003143310546875
2022-03-30T20:09:00.790Z,FULLY_SHARED_UNIT_1-2-1-4,3,target-1,memory,0.003143310546875
2022-03-30T20:09:10.790Z,FULLY_SHARED_UNIT_1-2-1-4,3,target-1,memory,0.003143310546875
2022-03-30T20:09:20.790Z,FULLY_SHARED_UNIT_1-2-1-4,3,target-1,memory,0.003143310546875
2022-03-30T20:09:30.790Z,FULLY_SHARED_UNIT_1-2-1-4,3,target-1,memory,0.003143310546875
2022-03-30T20:09:40.790Z,FULLY_SHARED_UNIT_1-2-1-4,3,target-1,memory,0.003143310546875
2022-03-30T20:09:50.790Z,FULLY_SHARED_UNIT_1-2-1-4,3,target-1,memory,0.003143310546875
2022-03-30T20:10:00.790Z,FULLY_SHARED_UNIT_1-2-1-4,3,target-1,memory,0.003143310546875
2022-03-30T20:10:10.790Z,FULLY_SHARED_UNIT_1-2-1-4,3,target-1,memory,0.003143310546875
2022-03-30T20:10:20.790Z,FULLY_SHARED_UNIT_1-2-1-4,3,target-1,memory,0.003143310546875
2022-03-30T20:10:30.790Z,FULLY_SHARED_UNIT_1-2-1-4,3,target-1,memory,0.003143310546875
2022-03-30T20:10:40.790Z,FULLY_SHARED_UNIT_1-2-1-4,3,target-1,memory,0.003143310546875
2022-03-30T20:10:50.791Z,FULLY_SHARED_UNIT_1-2-1-4,3,target-1,memory,0.003143310546875
2022-03-30T20:11:00.790Z,FULLY_SHARED_UNIT_1-2-1-4,3,target-1,memory,0.003143310546875
2022-03-30T20:11:10.790Z,FULLY_SHARED_UNIT_1-2-1-4,3,target-1,memory,0.003143310546875
2022-03-30T20:11:20.790Z,FULLY_SHARED_UNIT_1-2-1-4,3,target-1,memory,0.003143310546875
2022-03-30T20:11:30.790Z,FULLY_SHARED_UNIT_1-2-1-4,3,target-1,memory,0.003143310546875
2022-03-30T20:11:40.790Z,FULLY_SHARED_UNIT_1-2-1-4,3,target-1,memory,0.003143310546875
2022-03-30T20:11:50.790Z,FULLY_SHARED_UNIT_1-2-1-4,3,target-1,memory,0.003143310546875
2022-03-30T20:12:14.670Z,FULLY_SHARED_UNIT_1-2-1-8,1,target-1,memory,0.003265380859375
2022-03-30T20:12:24.670Z,FULLY_SHARED_UNIT_1-2-1-8,1,target-1,memory,0.00315093994140625
2022-03-30T20:12:34.670Z,FULLY_SHARED_UNIT_1-2-1-8,1,target-1,memory,0.00315093994140625
2022-03-30T20:12:44.670Z,FULLY_SHARED_UNIT_1-2-1-8,1,target-1,memory,0.00315093994140625
2022-03-30T20:12:54.670Z,FULLY_SHARED_UNIT_1-2-1-8,1,target-1,memory,0.00315093994140625
2022-03-30T20:13:04.670Z,FULLY_SHARED_UNIT_1-2-1-8,1,target-1,memory,0.00315093994140625
2022-03-30T20:13:14.670Z,FULLY_SHARED_UNIT_1-2-1-8,1,target-1,memory,0.00315093994140625
2022-03-30T20:13:24.669Z,FULLY_SHARED_UNIT_1-2-1-8,1,target-1,memory,0.00315093994140625
2022-03-30T20:13:34.670Z,FULLY_SHARED_UNIT_1-2-1-8,1,target-1,memory,0.00315093994140625
2022-03-30T20:13:44.670Z,FULLY_SHARED_UNIT_1-2-1-8,1,target-1,memory,0.00315093994140625
2022-03-30T20:13:54.669Z,FULLY_SHARED_UNIT_1-2-1-8,1,target-1,memory,0.00315093994140625
2022-03-30T20:14:04.670Z,FULLY_SHARED_UNIT_1-2-1-8,1,target-1,memory,0.00315093994140625
2022-03-30T20:14:14.670Z,FULLY_SHARED_UNIT_1-2-1-8,1,target-1,memory,0.00315093994140625
2022-03-30T20:14:24.670Z,FULLY_SHARED_UNIT_1-2-1-8,1,target-1,memory,0.00315093994140625
2022-03-30T20:14:34.670Z,FULLY_SHARED_UNIT_1-2-1-8,1,target-1,memory,0.00315093994140625
2022-03-30T20:14:44.670Z,FULLY_SHARED_UNIT_1-2-1-8,1,target-1,memory,0.00315093994140625
2022-03-30T20:14:54.670Z,FULLY_SHARED_UNIT_1-2-1-8,1,target-1,memory,0.00315093994140625
2022-03-30T20:15:04.669Z,FULLY_SHARED_UNIT_1-2-1-8,1,target-1,memory,0.00315093994140625
2022-03-30T20:15:14.670Z,FULLY_SHARED_UNIT_1-2-1-8,1,target-1,memory,0.00315093994140625
2022-03-30T20:15:24.670Z,FULLY_SHARED_UNIT_1-2-1-8,1,target-1,memory,0.00315093994140625
2022-03-30T20:15:34.670Z,FULLY_SHARED_UNIT_1-2-1-8,1,target-1,memory,0.00315093994140625
2022-03-30T20:15:44.670Z,FULLY_SHARED_UNIT_1-2-1-8,1,target-1,memory,0.00315093994140625
2022-03-30T20:15:54.670Z,FULLY_SHARED_UNIT_1-2-1-8,1,target-1,memory,0.00315093994140625
2022-03-30T20:16:04.670Z,FULLY_SHARED_UNIT_1-2-1-8,1,target-1,memory,0.00315093994140625
2022-03-30T20:16:14.670Z,FULLY_SHARED_UNIT_1-2-1-8,1,target-1,memory,0.00315093994140625
2022-03-30T20:16:24.670Z,FULLY_SHARED_UNIT_1-2-1-8,1,target-1,memory,0.00315093994140625
2022-03-30T20:16:34.669Z,FULLY_SHARED_UNIT_1-2-1-8,1,target-1,memory,0.00315093994140625
2022-03-30T20:16:44.670Z,FULLY_SHARED_UNIT_1-2-1-8,1,target-1,memory,0.00315093994140625
2022-03-30T20:16:54.670Z,FULLY_SHARED_UNIT_1-2-1-8,1,target-1,memory,0.00315093994140625
2022-03-30T20:17:04.670Z,FULLY_SHARED_UNIT_1-2-1-8,1,target-1,memory,0.00315093994140625
2022-03-30T20:17:14.670Z,FULLY_SHARED_UNIT_1-2-1-8,1,target-1,memory,0.00315093994140625
2022-03-30T20:17:24.670Z,FULLY_SHARED_UNIT_1-2-1-8,1,target-1,memory,0.00315093994140625
2022-03-30T20:17:34.670Z,FULLY_SHARED_UNIT_1-2-1-8,1,target-1,memory,0.00315093994140625
2022-03-30T20:17:44.671Z,FULLY_SHARED_UNIT_1-2-1-8,1,target-1,memory,0.00315093994140625
2022-03-30T20:17:54.670Z,FULLY_SHARED_UNIT_1-2-1-8,1,target-1,memory,0.00315093994140625
2022-03-30T20:18:04.670Z,FULLY_SHARED_UNIT_1-2-1-8,1,target-1,memory,0.00315093994140625
2022-03-30T20:18:14.670Z,FULLY_SHARED_UNIT_1-2-1-8,1,target-1,memory,0.00315093994140625
2022-03-30T20:18:24.670Z,FULLY_SHARED_UNIT_1-2-1-8,1,target-1,memory,0.00315093994140625
2022-03-30T20:18:34.670Z,FULLY_SHARED_UNIT_1-2-1-8,1,target-1,memory,0.00315093994140625
2022-03-30T20:18:44.670Z,FULLY_SHARED_UNIT_1-2-1-8,1,target-1,memory,0.00315093994140625
2022-03-30T20:18:54.670Z,FULLY_SHARED_UNIT_1-2-1-8,1,target-1,memory,0.00315093994140625
2022-03-30T20:19:04.670Z,FULLY_SHARED_UNIT_1-2-1-8,1,target-1,memory,0.00315093994140625
2022-03-30T20:19:14.670Z,FULLY_SHARED_UNIT_1-2-1-8,1,target-1,memory,0.00315093994140625
2022-03-30T20:19:24.669Z,FULLY_SHARED_UNIT_1-2-1-8,1,target-1,memory,0.00315093994140625
2022-03-30T20:19:34.670Z,FULLY_SHARED_UNIT_1-2-1-8,1,target-1,memory,0.00315093994140625
2022-03-30T20:19:44.670Z,FULLY_SHARED_UNIT_1-2-1-8,1,target-1,memory,0.00315093994140625
2022-03-30T20:19:54.670Z,FULLY_SHARED_UNIT_1-2-1-8,1,target-1,memory,0.00315093994140625
2022-03-30T20:20:04.670Z,FULLY_SHARED_UNIT_1-2-1-8,1,target-1,memory,0.00315093994140625
2022-03-30T20:20:14.670Z,FULLY_SHARED_UNIT_1-2-1-8,1,target-1,memory,0.00315093994140625
2022-03-30T20:20:24.670Z,FULLY_SHARED_UNIT_1-2-1-8,1,target-1,memory,0.00315093994140625
2022-03-30T20:20:34.670Z,FULLY_SHARED_UNIT_1-2-1-8,1,target-1,memory,0.00315093994140625
2022-03-30T20:20:44.670Z,FULLY_SHARED_UNIT_1-2-1-8,1,target-1,memory,0.00315093994140625
2022-03-30T20:20:54.670Z,FULLY_SHARED_UNIT_1-2-1-8,1,target-1,memory,0.00315093994140625
2022-03-30T20:21:04.670Z,FULLY_SHARED_UNIT_1-2-1-8,1,target-1,memory,0.00315093994140625
2022-03-30T20:21:14.669Z,FULLY_SHARED_UNIT_1-2-1-8,1,target-1,memory,0.00315093994140625
2022-03-30T20:21:24.670Z,FULLY_SHARED_UNIT_1-2-1-8,1,target-1,memory,0.00315093994140625
2022-03-30T20:21:34.670Z,FULLY_SHARED_UNIT_1-2-1-8,1,target-1,memory,0.00315093994140625
2022-03-30T20:21:44.670Z,FULLY_SHARED_UNIT_1-2-1-8,1,target-1,memory,0.00315093994140625
2022-03-30T20:21:54.670Z,FULLY_SHARED_UNIT_1-2-1-8,1,target-1,memory,0.00315093994140625
2022-03-30T20:22:04.670Z,FULLY_SHARED_UNIT_1-2-1-8,1,target-1,memory,0.00315093994140625
2022-03-30T20:22:36.557Z,FULLY_SHARED_UNIT_1-2-1-8,2,target-1,memory,0.00315093994140625
2022-03-30T20:22:46.557Z,FULLY_SHARED_UNIT_1-2-1-8,2,target-1,memory,0.00315093994140625
2022-03-30T20:22:56.558Z,FULLY_SHARED_UNIT_1-2-1-8,2,target-1,memory,0.00315093994140625
2022-03-30T20:23:06.558Z,FULLY_SHARED_UNIT_1-2-1-8,2,target-1,memory,0.00315093994140625
2022-03-30T20:23:16.557Z,FULLY_SHARED_UNIT_1-2-1-8,2,target-1,memory,0.00315093994140625
2022-03-30T20:23:26.558Z,FULLY_SHARED_UNIT_1-2-1-8,2,target-1,memory,0.00315093994140625
2022-03-30T20:23:36.558Z,FULLY_SHARED_UNIT_1-2-1-8,2,target-1,memory,0.00315093994140625
2022-03-30T20:23:46.557Z,FULLY_SHARED_UNIT_1-2-1-8,2,target-1,memory,0.00315093994140625
2022-03-30T20:23:56.557Z,FULLY_SHARED_UNIT_1-2-1-8,2,target-1,memory,0.00315093994140625
2022-03-30T20:24:06.557Z,FULLY_SHARED_UNIT_1-2-1-8,2,target-1,memory,0.00315093994140625
2022-03-30T20:24:16.558Z,FULLY_SHARED_UNIT_1-2-1-8,2,target-1,memory,0.00315093994140625
2022-03-30T20:24:26.557Z,FULLY_SHARED_UNIT_1-2-1-8,2,target-1,memory,0.00315093994140625
2022-03-30T20:24:36.557Z,FULLY_SHARED_UNIT_1-2-1-8,2,target-1,memory,0.00315093994140625
2022-03-30T20:24:46.558Z,FULLY_SHARED_UNIT_1-2-1-8,2,target-1,memory,0.00315093994140625
2022-03-30T20:24:56.557Z,FULLY_SHARED_UNIT_1-2-1-8,2,target-1,memory,0.00315093994140625
2022-03-30T20:25:06.558Z,FULLY_SHARED_UNIT_1-2-1-8,2,target-1,memory,0.00315093994140625
2022-03-30T20:25:16.557Z,FULLY_SHARED_UNIT_1-2-1-8,2,target-1,memory,0.00315093994140625
2022-03-30T20:25:26.557Z,FULLY_SHARED_UNIT_1-2-1-8,2,target-1,memory,0.00315093994140625
2022-03-30T20:25:36.557Z,FULLY_SHARED_UNIT_1-2-1-8,2,target-1,memory,0.00315093994140625
2022-03-30T20:25:46.558Z,FULLY_SHARED_UNIT_1-2-1-8,2,target-1,memory,0.00315093994140625
2022-03-30T20:25:56.558Z,FULLY_SHARED_UNIT_1-2-1-8,2,target-1,memory,0.00315093994140625
2022-03-30T20:26:06.557Z,FULLY_SHARED_UNIT_1-2-1-8,2,target-1,memory,0.00315093994140625
2022-03-30T20:26:16.557Z,FULLY_SHARED_UNIT_1-2-1-8,2,target-1,memory,0.00315093994140625
2022-03-30T20:26:26.558Z,FULLY_SHARED_UNIT_1-2-1-8,2,target-1,memory,0.00315093994140625
2022-03-30T20:26:36.557Z,FULLY_SHARED_UNIT_1-2-1-8,2,target-1,memory,0.00315093994140625
2022-03-30T20:26:46.558Z,FULLY_SHARED_UNIT_1-2-1-8,2,target-1,memory,0.00315093994140625
2022-03-30T20:26:56.557Z,FULLY_SHARED_UNIT_1-2-1-8,2,target-1,memory,0.00315093994140625
2022-03-30T20:27:06.558Z,FULLY_SHARED_UNIT_1-2-1-8,2,target-1,memory,0.00315093994140625
2022-03-30T20:27:16.558Z,FULLY_SHARED_UNIT_1-2-1-8,2,target-1,memory,0.00315093994140625
2022-03-30T20:27:26.557Z,FULLY_SHARED_UNIT_1-2-1-8,2,target-1,memory,0.00315093994140625
2022-03-30T20:27:36.557Z,FULLY_SHARED_UNIT_1-2-1-8,2,target-1,memory,0.00315093994140625
2022-03-30T20:27:46.558Z,FULLY_SHARED_UNIT_1-2-1-8,2,target-1,memory,0.00315093994140625
2022-03-30T20:27:56.557Z,FULLY_SHARED_UNIT_1-2-1-8,2,target-1,memory,0.00315093994140625
2022-03-30T20:28:06.557Z,FULLY_SHARED_UNIT_1-2-1-8,2,target-1,memory,0.00315093994140625
2022-03-30T20:28:16.558Z,FULLY_SHARED_UNIT_1-2-1-8,2,target-1,memory,0.00315093994140625
2022-03-30T20:28:26.558Z,FULLY_SHARED_UNIT_1-2-1-8,2,target-1,memory,0.00315093994140625
2022-03-30T20:28:36.557Z,FULLY_SHARED_UNIT_1-2-1-8,2,target-1,memory,0.00315093994140625
2022-03-30T20:28:46.558Z,FULLY_SHARED_UNIT_1-2-1-8,2,target-1,memory,0.00315093994140625
2022-03-30T20:28:56.558Z,FULLY_SHARED_UNIT_1-2-1-8,2,target-1,memory,0.00315093994140625
2022-03-30T20:29:06.558Z,FULLY_SHARED_UNIT_1-2-1-8,2,target-1,memory,0.00315093994140625
2022-03-30T20:29:16.557Z,FULLY_SHARED_UNIT_1-2-1-8,2,target-1,memory,0.00315093994140625
2022-03-30T20:29:26.557Z,FULLY_SHARED_UNIT_1-2-1-8,2,target-1,memory,0.00315093994140625
2022-03-30T20:29:36.558Z,FULLY_SHARED_UNIT_1-2-1-8,2,target-1,memory,0.00315093994140625
2022-03-30T20:29:46.557Z,FULLY_SHARED_UNIT_1-2-1-8,2,target-1,memory,0.00315093994140625
2022-03-30T20:29:56.558Z,FULLY_SHARED_UNIT_1-2-1-8,2,target-1,memory,0.00315093994140625
2022-03-30T20:30:06.558Z,FULLY_SHARED_UNIT_1-2-1-8,2,target-1,memory,0.00315093994140625
2022-03-30T20:30:16.558Z,FULLY_SHARED_UNIT_1-2-1-8,2,target-1,memory,0.00315093994140625
2022-03-30T20:30:26.557Z,FULLY_SHARED_UNIT_1-2-1-8,2,target-1,memory,0.00315093994140625
2022-03-30T20:30:36.557Z,FULLY_SHARED_UNIT_1-2-1-8,2,target-1,memory,0.00315093994140625
2022-03-30T20:30:46.558Z,FULLY_SHARED_UNIT_1-2-1-8,2,target-1,memory,0.00315093994140625
2022-03-30T20:30:56.558Z,FULLY_SHARED_UNIT_1-2-1-8,2,target-1,memory,0.00315093994140625
2022-03-30T20:31:06.557Z,FULLY_SHARED_UNIT_1-2-1-8,2,target-1,memory,0.00315093994140625
2022-03-30T20:31:16.557Z,FULLY_SHARED_UNIT_1-2-1-8,2,target-1,memory,0.00315093994140625
2022-03-30T20:31:26.558Z,FULLY_SHARED_UNIT_1-2-1-8,2,target-1,memory,0.00315093994140625
2022-03-30T20:31:36.557Z,FULLY_SHARED_UNIT_1-2-1-8,2,target-1,memory,0.00315093994140625
2022-03-30T20:31:46.557Z,FULLY_SHARED_UNIT_1-2-1-8,2,target-1,memory,0.00315093994140625
2022-03-30T20:31:56.558Z,FULLY_SHARED_UNIT_1-2-1-8,2,target-1,memory,0.00315093994140625
2022-03-30T20:32:06.557Z,FULLY_SHARED_UNIT_1-2-1-8,2,target-1,memory,0.00315093994140625
2022-03-30T20:32:16.558Z,FULLY_SHARED_UNIT_1-2-1-8,2,target-1,memory,0.00315093994140625
2022-03-30T20:32:26.558Z,FULLY_SHARED_UNIT_1-2-1-8,2,target-1,memory,0.00315093994140625
2022-03-30T20:32:58.810Z,FULLY_SHARED_UNIT_1-2-1-8,3,target-1,memory,0.00315093994140625
2022-03-30T20:33:08.810Z,FULLY_SHARED_UNIT_1-2-1-8,3,target-1,memory,0.00315093994140625
2022-03-30T20:33:18.811Z,FULLY_SHARED_UNIT_1-2-1-8,3,target-1,memory,0.00315093994140625
2022-03-30T20:33:28.810Z,FULLY_SHARED_UNIT_1-2-1-8,3,target-1,memory,0.00315093994140625
2022-03-30T20:33:38.810Z,FULLY_SHARED_UNIT_1-2-1-8,3,target-1,memory,0.00315093994140625
2022-03-30T20:33:48.810Z,FULLY_SHARED_UNIT_1-2-1-8,3,target-1,memory,0.00315093994140625
2022-03-30T20:33:58.810Z,FULLY_SHARED_UNIT_1-2-1-8,3,target-1,memory,0.00315093994140625
2022-03-30T20:34:08.810Z,FULLY_SHARED_UNIT_1-2-1-8,3,target-1,memory,0.00315093994140625
2022-03-30T20:34:18.810Z,FULLY_SHARED_UNIT_1-2-1-8,3,target-1,memory,0.00315093994140625
2022-03-30T20:34:28.810Z,FULLY_SHARED_UNIT_1-2-1-8,3,target-1,memory,0.00315093994140625
2022-03-30T20:34:38.810Z,FULLY_SHARED_UNIT_1-2-1-8,3,target-1,memory,0.00315093994140625
2022-03-30T20:34:48.810Z,FULLY_SHARED_UNIT_1-2-1-8,3,target-1,memory,0.00315093994140625
2022-03-30T20:34:58.810Z,FULLY_SHARED_UNIT_1-2-1-8,3,target-1,memory,0.00315093994140625
2022-03-30T20:35:08.810Z,FULLY_SHARED_UNIT_1-2-1-8,3,target-1,memory,0.00315093994140625
2022-03-30T20:35:18.810Z,FULLY_SHARED_UNIT_1-2-1-8,3,target-1,memory,0.00315093994140625
2022-03-30T20:35:28.810Z,FULLY_SHARED_UNIT_1-2-1-8,3,target-1,memory,0.00315093994140625
2022-03-30T20:35:38.810Z,FULLY_SHARED_UNIT_1-2-1-8,3,target-1,memory,0.00315093994140625
2022-03-30T20:35:48.810Z,FULLY_SHARED_UNIT_1-2-1-8,3,target-1,memory,0.00315093994140625
2022-03-30T20:35:58.810Z,FULLY_SHARED_UNIT_1-2-1-8,3,target-1,memory,0.00315093994140625
2022-03-30T20:36:08.810Z,FULLY_SHARED_UNIT_1-2-1-8,3,target-1,memory,0.00315093994140625
2022-03-30T20:36:18.810Z,FULLY_SHARED_UNIT_1-2-1-8,3,target-1,memory,0.00315093994140625
2022-03-30T20:36:28.810Z,FULLY_SHARED_UNIT_1-2-1-8,3,target-1,memory,0.00315093994140625
2022-03-30T20:36:38.810Z,FULLY_SHARED_UNIT_1-2-1-8,3,target-1,memory,0.00315093994140625
2022-03-30T20:36:48.810Z,FULLY_SHARED_UNIT_1-2-1-8,3,target-1,memory,0.00315093994140625
2022-03-30T20:36:58.810Z,FULLY_SHARED_UNIT_1-2-1-8,3,target-1,memory,0.00315093994140625
2022-03-30T20:37:08.810Z,FULLY_SHARED_UNIT_1-2-1-8,3,target-1,memory,0.00315093994140625
2022-03-30T20:37:18.810Z,FULLY_SHARED_UNIT_1-2-1-8,3,target-1,memory,0.00315093994140625
2022-03-30T20:37:28.809Z,FULLY_SHARED_UNIT_1-2-1-8,3,target-1,memory,0.00315093994140625
2022-03-30T20:37:38.810Z,FULLY_SHARED_UNIT_1-2-1-8,3,target-1,memory,0.00315093994140625
2022-03-30T20:37:48.810Z,FULLY_SHARED_UNIT_1-2-1-8,3,target-1,memory,0.00315093994140625
2022-03-30T20:37:58.810Z,FULLY_SHARED_UNIT_1-2-1-8,3,target-1,memory,0.00315093994140625
2022-03-30T20:38:08.811Z,FULLY_SHARED_UNIT_1-2-1-8,3,target-1,memory,0.00315093994140625
2022-03-30T20:38:18.810Z,FULLY_SHARED_UNIT_1-2-1-8,3,target-1,memory,0.00315093994140625
2022-03-30T20:38:28.810Z,FULLY_SHARED_UNIT_1-2-1-8,3,target-1,memory,0.00315093994140625
2022-03-30T20:38:38.810Z,FULLY_SHARED_UNIT_1-2-1-8,3,target-1,memory,0.00315093994140625
2022-03-30T20:38:48.810Z,FULLY_SHARED_UNIT_1-2-1-8,3,target-1,memory,0.00315093994140625
2022-03-30T20:38:58.810Z,FULLY_SHARED_UNIT_1-2-1-8,3,target-1,memory,0.00315093994140625
2022-03-30T20:39:08.811Z,FULLY_SHARED_UNIT_1-2-1-8,3,target-1,memory,0.00315093994140625
2022-03-30T20:39:18.810Z,FULLY_SHARED_UNIT_1-2-1-8,3,target-1,memory,0.00315093994140625
2022-03-30T20:39:28.810Z,FULLY_SHARED_UNIT_1-2-1-8,3,target-1,memory,0.00315093994140625
2022-03-30T20:39:38.810Z,FULLY_SHARED_UNIT_1-2-1-8,3,target-1,memory,0.00315093994140625
2022-03-30T20:39:48.810Z,FULLY_SHARED_UNIT_1-2-1-8,3,target-1,memory,0.00315093994140625
2022-03-30T20:39:58.810Z,FULLY_SHARED_UNIT_1-2-1-8,3,target-1,memory,0.00315093994140625
2022-03-30T20:40:08.811Z,FULLY_SHARED_UNIT_1-2-1-8,3,target-1,memory,0.00315093994140625
2022-03-30T20:40:18.810Z,FULLY_SHARED_UNIT_1-2-1-8,3,target-1,memory,0.00315093994140625
2022-03-30T20:40:28.810Z,FULLY_SHARED_UNIT_1-2-1-8,3,target-1,memory,0.00315093994140625
2022-03-30T20:40:38.810Z,FULLY_SHARED_UNIT_1-2-1-8,3,target-1,memory,0.00315093994140625
2022-03-30T20:40:48.810Z,FULLY_SHARED_UNIT_1-2-1-8,3,target-1,memory,0.00315093994140625
2022-03-30T20:40:58.810Z,FULLY_SHARED_UNIT_1-2-1-8,3,target-1,memory,0.00315093994140625
2022-03-30T20:41:08.810Z,FULLY_SHARED_UNIT_1-2-1-8,3,target-1,memory,0.00315093994140625
2022-03-30T20:41:18.810Z,FULLY_SHARED_UNIT_1-2-1-8,3,target-1,memory,0.00315093994140625
2022-03-30T20:41:28.809Z,FULLY_SHARED_UNIT_1-2-1-8,3,target-1,memory,0.00315093994140625
2022-03-30T20:41:38.810Z,FULLY_SHARED_UNIT_1-2-1-8,3,target-1,memory,0.00315093994140625
2022-03-30T20:41:48.810Z,FULLY_SHARED_UNIT_1-2-1-8,3,target-1,memory,0.00315093994140625
2022-03-30T20:41:58.810Z,FULLY_SHARED_UNIT_1-2-1-8,3,target-1,memory,0.00315093994140625
2022-03-30T20:42:08.810Z,FULLY_SHARED_UNIT_1-2-1-8,3,target-1,memory,0.00315093994140625
2022-03-30T20:42:18.810Z,FULLY_SHARED_UNIT_1-2-1-8,3,target-1,memory,0.00315093994140625
2022-03-30T20:42:28.810Z,FULLY_SHARED_UNIT_1-2-1-8,3,target-1,memory,0.00315093994140625
2022-03-30T20:42:38.810Z,FULLY_SHARED_UNIT_1-2-1-8,3,target-1,memory,0.00315093994140625
2022-03-30T20:42:48.810Z,FULLY_SHARED_UNIT_1-2-1-8,3,target-1,memory,0.00315093994140625
2022-03-30T20:43:30.582Z,FULLY_SHARED_UNIT_1-2-1-16,1,target-1,memory,0.00315093994140625
2022-03-30T20:43:40.581Z,FULLY_SHARED_UNIT_1-2-1-16,1,target-1,memory,0.00315093994140625
2022-03-30T20:43:50.581Z,FULLY_SHARED_UNIT_1-2-1-16,1,target-1,memory,0.0031585693359375
2022-03-30T20:44:00.582Z,FULLY_SHARED_UNIT_1-2-1-16,1,target-1,memory,0.0031585693359375
2022-03-30T20:44:10.582Z,FULLY_SHARED_UNIT_1-2-1-16,1,target-1,memory,0.0031585693359375
2022-03-30T20:44:20.582Z,FULLY_SHARED_UNIT_1-2-1-16,1,target-1,memory,0.0031585693359375
2022-03-30T20:44:30.582Z,FULLY_SHARED_UNIT_1-2-1-16,1,target-1,memory,0.0031585693359375
2022-03-30T20:44:40.582Z,FULLY_SHARED_UNIT_1-2-1-16,1,target-1,memory,0.0031585693359375
2022-03-30T20:44:50.581Z,FULLY_SHARED_UNIT_1-2-1-16,1,target-1,memory,0.0031585693359375
2022-03-30T20:45:00.582Z,FULLY_SHARED_UNIT_1-2-1-16,1,target-1,memory,0.0031585693359375
2022-03-30T20:45:10.581Z,FULLY_SHARED_UNIT_1-2-1-16,1,target-1,memory,0.0031585693359375
2022-03-30T20:45:20.581Z,FULLY_SHARED_UNIT_1-2-1-16,1,target-1,memory,0.0031585693359375
2022-03-30T20:45:30.581Z,FULLY_SHARED_UNIT_1-2-1-16,1,target-1,memory,0.0031585693359375
2022-03-30T20:45:40.582Z,FULLY_SHARED_UNIT_1-2-1-16,1,target-1,memory,0.0031585693359375
2022-03-30T20:45:50.581Z,FULLY_SHARED_UNIT_1-2-1-16,1,target-1,memory,0.0031585693359375
2022-03-30T20:46:00.582Z,FULLY_SHARED_UNIT_1-2-1-16,1,target-1,memory,0.0031585693359375
2022-03-30T20:46:10.581Z,FULLY_SHARED_UNIT_1-2-1-16,1,target-1,memory,0.0031585693359375
2022-03-30T20:46:20.582Z,FULLY_SHARED_UNIT_1-2-1-16,1,target-1,memory,0.0031585693359375
2022-03-30T20:46:30.582Z,FULLY_SHARED_UNIT_1-2-1-16,1,target-1,memory,0.0031585693359375
2022-03-30T20:46:40.582Z,FULLY_SHARED_UNIT_1-2-1-16,1,target-1,memory,0.0031585693359375
2022-03-30T20:46:50.582Z,FULLY_SHARED_UNIT_1-2-1-16,1,target-1,memory,0.0031585693359375
2022-03-30T20:47:00.581Z,FULLY_SHARED_UNIT_1-2-1-16,1,target-1,memory,0.0031585693359375
2022-03-30T20:47:10.581Z,FULLY_SHARED_UNIT_1-2-1-16,1,target-1,memory,0.0031585693359375
2022-03-30T20:47:20.581Z,FULLY_SHARED_UNIT_1-2-1-16,1,target-1,memory,0.0031585693359375
2022-03-30T20:47:30.581Z,FULLY_SHARED_UNIT_1-2-1-16,1,target-1,memory,0.0031585693359375
2022-03-30T20:47:40.582Z,FULLY_SHARED_UNIT_1-2-1-16,1,target-1,memory,0.0031585693359375
2022-03-30T20:47:50.581Z,FULLY_SHARED_UNIT_1-2-1-16,1,target-1,memory,0.0031585693359375
2022-03-30T20:48:00.581Z,FULLY_SHARED_UNIT_1-2-1-16,1,target-1,memory,0.0031585693359375
2022-03-30T20:48:10.581Z,FULLY_SHARED_UNIT_1-2-1-16,1,target-1,memory,0.0031585693359375
2022-03-30T20:48:20.581Z,FULLY_SHARED_UNIT_1-2-1-16,1,target-1,memory,0.0031585693359375
2022-03-30T20:48:30.581Z,FULLY_SHARED_UNIT_1-2-1-16,1,target-1,memory,0.0031585693359375
2022-03-30T20:48:40.582Z,FULLY_SHARED_UNIT_1-2-1-16,1,target-1,memory,0.0031585693359375
2022-03-30T20:48:50.582Z,FULLY_SHARED_UNIT_1-2-1-16,1,target-1,memory,0.0031585693359375
2022-03-30T20:49:00.581Z,FULLY_SHARED_UNIT_1-2-1-16,1,target-1,memory,0.0031585693359375
2022-03-30T20:49:10.581Z,FULLY_SHARED_UNIT_1-2-1-16,1,target-1,memory,0.0031585693359375
2022-03-30T20:49:20.581Z,FULLY_SHARED_UNIT_1-2-1-16,1,target-1,memory,0.0031585693359375
2022-03-30T20:49:30.582Z,FULLY_SHARED_UNIT_1-2-1-16,1,target-1,memory,0.0031585693359375
2022-03-30T20:49:40.581Z,FULLY_SHARED_UNIT_1-2-1-16,1,target-1,memory,0.0031585693359375
2022-03-30T20:49:50.581Z,FULLY_SHARED_UNIT_1-2-1-16,1,target-1,memory,0.0031585693359375
2022-03-30T20:50:00.581Z,FULLY_SHARED_UNIT_1-2-1-16,1,target-1,memory,0.0031585693359375
2022-03-30T20:50:10.581Z,FULLY_SHARED_UNIT_1-2-1-16,1,target-1,memory,0.0031585693359375
2022-03-30T20:50:20.582Z,FULLY_SHARED_UNIT_1-2-1-16,1,target-1,memory,0.0031585693359375
2022-03-30T20:50:30.582Z,FULLY_SHARED_UNIT_1-2-1-16,1,target-1,memory,0.0031585693359375
2022-03-30T20:50:40.581Z,FULLY_SHARED_UNIT_1-2-1-16,1,target-1,memory,0.0031585693359375
2022-03-30T20:50:50.582Z,FULLY_SHARED_UNIT_1-2-1-16,1,target-1,memory,0.0031585693359375
2022-03-30T20:51:00.581Z,FULLY_SHARED_UNIT_1-2-1-16,1,target-1,memory,0.0031585693359375
2022-03-30T20:51:10.581Z,FULLY_SHARED_UNIT_1-2-1-16,1,target-1,memory,0.0031585693359375
2022-03-30T20:51:20.582Z,FULLY_SHARED_UNIT_1-2-1-16,1,target-1,memory,0.0031585693359375
2022-03-30T20:51:30.582Z,FULLY_SHARED_UNIT_1-2-1-16,1,target-1,memory,0.0031585693359375
2022-03-30T20:51:40.581Z,FULLY_SHARED_UNIT_1-2-1-16,1,target-1,memory,0.0031585693359375
2022-03-30T20:51:50.582Z,FULLY_SHARED_UNIT_1-2-1-16,1,target-1,memory,0.0031585693359375
2022-03-30T20:52:00.581Z,FULLY_SHARED_UNIT_1-2-1-16,1,target-1,memory,0.0031585693359375
2022-03-30T20:52:10.581Z,FULLY_SHARED_UNIT_1-2-1-16,1,target-1,memory,0.0031585693359375
2022-03-30T20:52:20.581Z,FULLY_SHARED_UNIT_1-2-1-16,1,target-1,memory,0.0031585693359375
2022-03-30T20:52:30.582Z,FULLY_SHARED_UNIT_1-2-1-16,1,target-1,memory,0.0031585693359375
2022-03-30T20:52:40.582Z,FULLY_SHARED_UNIT_1-2-1-16,1,target-1,memory,0.0031585693359375
2022-03-30T20:52:50.581Z,FULLY_SHARED_UNIT_1-2-1-16,1,target-1,memory,0.0031585693359375
2022-03-30T20:53:00.581Z,FULLY_SHARED_UNIT_1-2-1-16,1,target-1,memory,0.0031585693359375
2022-03-30T20:53:10.582Z,FULLY_SHARED_UNIT_1-2-1-16,1,target-1,memory,0.0031585693359375
2022-03-30T20:53:20.581Z,FULLY_SHARED_UNIT_1-2-1-16,1,target-1,memory,0.0031585693359375
2022-03-30T20:54:08.072Z,FULLY_SHARED_UNIT_1-2-1-16,2,target-1,memory,0.0031585693359375
2022-03-30T20:54:18.071Z,FULLY_SHARED_UNIT_1-2-1-16,2,target-1,memory,0.0031585693359375
2022-03-30T20:54:28.071Z,FULLY_SHARED_UNIT_1-2-1-16,2,target-1,memory,0.0031585693359375
2022-03-30T20:54:38.072Z,FULLY_SHARED_UNIT_1-2-1-16,2,target-1,memory,0.0031585693359375
2022-03-30T20:54:48.072Z,FULLY_SHARED_UNIT_1-2-1-16,2,target-1,memory,0.0031585693359375
2022-03-30T20:54:58.071Z,FULLY_SHARED_UNIT_1-2-1-16,2,target-1,memory,0.0031585693359375
2022-03-30T20:55:08.072Z,FULLY_SHARED_UNIT_1-2-1-16,2,target-1,memory,0.0031585693359375
2022-03-30T20:55:18.071Z,FULLY_SHARED_UNIT_1-2-1-16,2,target-1,memory,0.0031585693359375
2022-03-30T20:55:28.072Z,FULLY_SHARED_UNIT_1-2-1-16,2,target-1,memory,0.0031585693359375
2022-03-30T20:55:38.071Z,FULLY_SHARED_UNIT_1-2-1-16,2,target-1,memory,0.0031585693359375
2022-03-30T20:55:48.072Z,FULLY_SHARED_UNIT_1-2-1-16,2,target-1,memory,0.0031585693359375
2022-03-30T20:55:58.072Z,FULLY_SHARED_UNIT_1-2-1-16,2,target-1,memory,0.0031585693359375
2022-03-30T20:56:08.071Z,FULLY_SHARED_UNIT_1-2-1-16,2,target-1,memory,0.0031585693359375
2022-03-30T20:56:18.072Z,FULLY_SHARED_UNIT_1-2-1-16,2,target-1,memory,0.0031585693359375
2022-03-30T20:56:28.071Z,FULLY_SHARED_UNIT_1-2-1-16,2,target-1,memory,0.0031585693359375
2022-03-30T20:56:38.072Z,FULLY_SHARED_UNIT_1-2-1-16,2,target-1,memory,0.0031585693359375
2022-03-30T20:56:48.071Z,FULLY_SHARED_UNIT_1-2-1-16,2,target-1,memory,0.0031585693359375
2022-03-30T20:56:58.072Z,FULLY_SHARED_UNIT_1-2-1-16,2,target-1,memory,0.0031585693359375
2022-03-30T20:57:08.072Z,FULLY_SHARED_UNIT_1-2-1-16,2,target-1,memory,0.0031585693359375
2022-03-30T20:57:18.071Z,FULLY_SHARED_UNIT_1-2-1-16,2,target-1,memory,0.0031585693359375
2022-03-30T20:57:28.072Z,FULLY_SHARED_UNIT_1-2-1-16,2,target-1,memory,0.0031585693359375
2022-03-30T20:57:38.071Z,FULLY_SHARED_UNIT_1-2-1-16,2,target-1,memory,0.0031585693359375
2022-03-30T20:57:48.071Z,FULLY_SHARED_UNIT_1-2-1-16,2,target-1,memory,0.0031585693359375
2022-03-30T20:57:58.071Z,FULLY_SHARED_UNIT_1-2-1-16,2,target-1,memory,0.0031585693359375
2022-03-30T20:58:08.072Z,FULLY_SHARED_UNIT_1-2-1-16,2,target-1,memory,0.0031585693359375
2022-03-30T20:58:18.072Z,FULLY_SHARED_UNIT_1-2-1-16,2,target-1,memory,0.0031585693359375
2022-03-30T20:58:28.072Z,FULLY_SHARED_UNIT_1-2-1-16,2,target-1,memory,0.0031585693359375
2022-03-30T20:58:38.071Z,FULLY_SHARED_UNIT_1-2-1-16,2,target-1,memory,0.0031585693359375
2022-03-30T20:58:48.071Z,FULLY_SHARED_UNIT_1-2-1-16,2,target-1,memory,0.0031585693359375
2022-03-30T20:58:58.072Z,FULLY_SHARED_UNIT_1-2-1-16,2,target-1,memory,0.0031585693359375
2022-03-30T20:59:08.072Z,FULLY_SHARED_UNIT_1-2-1-16,2,target-1,memory,0.0031585693359375
2022-03-30T20:59:18.071Z,FULLY_SHARED_UNIT_1-2-1-16,2,target-1,memory,0.0031585693359375
2022-03-30T20:59:28.072Z,FULLY_SHARED_UNIT_1-2-1-16,2,target-1,memory,0.0031585693359375
2022-03-30T20:59:38.071Z,FULLY_SHARED_UNIT_1-2-1-16,2,target-1,memory,0.0031585693359375
2022-03-30T20:59:48.071Z,FULLY_SHARED_UNIT_1-2-1-16,2,target-1,memory,0.0031585693359375
2022-03-30T20:59:58.072Z,FULLY_SHARED_UNIT_1-2-1-16,2,target-1,memory,0.0031585693359375
2022-03-30T21:00:08.071Z,FULLY_SHARED_UNIT_1-2-1-16,2,target-1,memory,0.0031585693359375
2022-03-30T21:00:18.072Z,FULLY_SHARED_UNIT_1-2-1-16,2,target-1,memory,0.0031585693359375
2022-03-30T21:00:28.072Z,FULLY_SHARED_UNIT_1-2-1-16,2,target-1,memory,0.0031585693359375
2022-03-30T21:00:38.072Z,FULLY_SHARED_UNIT_1-2-1-16,2,target-1,memory,0.0031585693359375
2022-03-30T21:00:48.071Z,FULLY_SHARED_UNIT_1-2-1-16,2,target-1,memory,0.0031585693359375
2022-03-30T21:00:58.072Z,FULLY_SHARED_UNIT_1-2-1-16,2,target-1,memory,0.0031585693359375
2022-03-30T21:01:08.071Z,FULLY_SHARED_UNIT_1-2-1-16,2,target-1,memory,0.0031585693359375
2022-03-30T21:01:18.071Z,FULLY_SHARED_UNIT_1-2-1-16,2,target-1,memory,0.0031585693359375
2022-03-30T21:01:28.071Z,FULLY_SHARED_UNIT_1-2-1-16,2,target-1,memory,0.0031585693359375
2022-03-30T21:01:38.071Z,FULLY_SHARED_UNIT_1-2-1-16,2,target-1,memory,0.0031585693359375
2022-03-30T21:01:48.072Z,FULLY_SHARED_UNIT_1-2-1-16,2,target-1,memory,0.0031585693359375
2022-03-30T21:01:58.071Z,FULLY_SHARED_UNIT_1-2-1-16,2,target-1,memory,0.0031585693359375
2022-03-30T21:02:08.072Z,FULLY_SHARED_UNIT_1-2-1-16,2,target-1,memory,0.0031585693359375
2022-03-30T21:02:18.071Z,FULLY_SHARED_UNIT_1-2-1-16,2,target-1,memory,0.0031585693359375
2022-03-30T21:02:28.071Z,FULLY_SHARED_UNIT_1-2-1-16,2,target-1,memory,0.0031585693359375
2022-03-30T21:02:38.071Z,FULLY_SHARED_UNIT_1-2-1-16,2,target-1,memory,0.0031585693359375
2022-03-30T21:02:48.072Z,FULLY_SHARED_UNIT_1-2-1-16,2,target-1,memory,0.0031585693359375
2022-03-30T21:02:58.071Z,FULLY_SHARED_UNIT_1-2-1-16,2,target-1,memory,0.0031585693359375
2022-03-30T21:03:08.072Z,FULLY_SHARED_UNIT_1-2-1-16,2,target-1,memory,0.0031585693359375
2022-03-30T21:03:18.071Z,FULLY_SHARED_UNIT_1-2-1-16,2,target-1,memory,0.0031585693359375
2022-03-30T21:03:28.072Z,FULLY_SHARED_UNIT_1-2-1-16,2,target-1,memory,0.0031585693359375
2022-03-30T21:03:38.071Z,FULLY_SHARED_UNIT_1-2-1-16,2,target-1,memory,0.0031585693359375
2022-03-30T21:03:48.072Z,FULLY_SHARED_UNIT_1-2-1-16,2,target-1,memory,0.0031585693359375
2022-03-30T21:03:58.071Z,FULLY_SHARED_UNIT_1-2-1-16,2,target-1,memory,0.0031585693359375
2022-03-30T21:04:46.355Z,FULLY_SHARED_UNIT_1-2-1-16,3,target-1,memory,0.0031585693359375
2022-03-30T21:04:56.355Z,FULLY_SHARED_UNIT_1-2-1-16,3,target-1,memory,0.0031585693359375
2022-03-30T21:05:06.356Z,FULLY_SHARED_UNIT_1-2-1-16,3,target-1,memory,0.0031585693359375
2022-03-30T21:05:16.355Z,FULLY_SHARED_UNIT_1-2-1-16,3,target-1,memory,0.0031585693359375
2022-03-30T21:05:26.355Z,FULLY_SHARED_UNIT_1-2-1-16,3,target-1,memory,0.0031585693359375
2022-03-30T21:05:36.355Z,FULLY_SHARED_UNIT_1-2-1-16,3,target-1,memory,0.0031585693359375
2022-03-30T21:05:46.355Z,FULLY_SHARED_UNIT_1-2-1-16,3,target-1,memory,0.0031585693359375
2022-03-30T21:05:56.355Z,FULLY_SHARED_UNIT_1-2-1-16,3,target-1,memory,0.0031585693359375
2022-03-30T21:06:06.355Z,FULLY_SHARED_UNIT_1-2-1-16,3,target-1,memory,0.0031585693359375
2022-03-30T21:06:16.355Z,FULLY_SHARED_UNIT_1-2-1-16,3,target-1,memory,0.0031585693359375
2022-03-30T21:06:26.354Z,FULLY_SHARED_UNIT_1-2-1-16,3,target-1,memory,0.0031585693359375
2022-03-30T21:06:36.355Z,FULLY_SHARED_UNIT_1-2-1-16,3,target-1,memory,0.0031585693359375
2022-03-30T21:06:46.355Z,FULLY_SHARED_UNIT_1-2-1-16,3,target-1,memory,0.0031585693359375
2022-03-30T21:06:56.355Z,FULLY_SHARED_UNIT_1-2-1-16,3,target-1,memory,0.0031585693359375
2022-03-30T21:07:06.355Z,FULLY_SHARED_UNIT_1-2-1-16,3,target-1,memory,0.0031585693359375
2022-03-30T21:07:16.355Z,FULLY_SHARED_UNIT_1-2-1-16,3,target-1,memory,0.0031585693359375
2022-03-30T21:07:26.355Z,FULLY_SHARED_UNIT_1-2-1-16,3,target-1,memory,0.0031585693359375
2022-03-30T21:07:36.355Z,FULLY_SHARED_UNIT_1-2-1-16,3,target-1,memory,0.0031585693359375
2022-03-30T21:07:46.355Z,FULLY_SHARED_UNIT_1-2-1-16,3,target-1,memory,0.0031585693359375
2022-03-30T21:07:56.355Z,FULLY_SHARED_UNIT_1-2-1-16,3,target-1,memory,0.0031585693359375
2022-03-30T21:08:06.355Z,FULLY_SHARED_UNIT_1-2-1-16,3,target-1,memory,0.0031585693359375
2022-03-30T21:08:16.355Z,FULLY_SHARED_UNIT_1-2-1-16,3,target-1,memory,0.0031585693359375
2022-03-30T21:08:26.355Z,FULLY_SHARED_UNIT_1-2-1-16,3,target-1,memory,0.0031585693359375
2022-03-30T21:08:36.356Z,FULLY_SHARED_UNIT_1-2-1-16,3,target-1,memory,0.0031585693359375
2022-03-30T21:08:46.356Z,FULLY_SHARED_UNIT_1-2-1-16,3,target-1,memory,0.0031585693359375
2022-03-30T21:08:56.355Z,FULLY_SHARED_UNIT_1-2-1-16,3,target-1,memory,0.0031585693359375
2022-03-30T21:09:06.355Z,FULLY_SHARED_UNIT_1-2-1-16,3,target-1,memory,0.0031585693359375
2022-03-30T21:09:16.355Z,FULLY_SHARED_UNIT_1-2-1-16,3,target-1,memory,0.0031585693359375
2022-03-30T21:09:26.355Z,FULLY_SHARED_UNIT_1-2-1-16,3,target-1,memory,0.0031585693359375
2022-03-30T21:09:36.355Z,FULLY_SHARED_UNIT_1-2-1-16,3,target-1,memory,0.0031585693359375
2022-03-30T21:09:46.354Z,FULLY_SHARED_UNIT_1-2-1-16,3,target-1,memory,0.0031585693359375
2022-03-30T21:09:56.355Z,FULLY_SHARED_UNIT_1-2-1-16,3,target-1,memory,0.0031585693359375
2022-03-30T21:10:06.355Z,FULLY_SHARED_UNIT_1-2-1-16,3,target-1,memory,0.0031585693359375
2022-03-30T21:10:16.355Z,FULLY_SHARED_UNIT_1-2-1-16,3,target-1,memory,0.0031585693359375
2022-03-30T21:10:26.355Z,FULLY_SHARED_UNIT_1-2-1-16,3,target-1,memory,0.0031585693359375
2022-03-30T21:10:36.355Z,FULLY_SHARED_UNIT_1-2-1-16,3,target-1,memory,0.0031585693359375
2022-03-30T21:10:46.355Z,FULLY_SHARED_UNIT_1-2-1-16,3,target-1,memory,0.0031585693359375
2022-03-30T21:10:56.355Z,FULLY_SHARED_UNIT_1-2-1-16,3,target-1,memory,0.0031585693359375
2022-03-30T21:11:06.355Z,FULLY_SHARED_UNIT_1-2-1-16,3,target-1,memory,0.0031585693359375
2022-03-30T21:11:16.355Z,FULLY_SHARED_UNIT_1-2-1-16,3,target-1,memory,0.0031585693359375
2022-03-30T21:11:26.355Z,FULLY_SHARED_UNIT_1-2-1-16,3,target-1,memory,0.0031585693359375
2022-03-30T21:11:36.355Z,FULLY_SHARED_UNIT_1-2-1-16,3,target-1,memory,0.0031585693359375
2022-03-30T21:11:46.355Z,FULLY_SHARED_UNIT_1-2-1-16,3,target-1,memory,0.0031585693359375
2022-03-30T21:11:56.355Z,FULLY_SHARED_UNIT_1-2-1-16,3,target-1,memory,0.0031585693359375
2022-03-30T21:12:06.355Z,FULLY_SHARED_UNIT_1-2-1-16,3,target-1,memory,0.0031585693359375
2022-03-30T21:12:16.355Z,FULLY_SHARED_UNIT_1-2-1-16,3,target-1,memory,0.0031585693359375
2022-03-30T21:12:26.355Z,FULLY_SHARED_UNIT_1-2-1-16,3,target-1,memory,0.0031585693359375
2022-03-30T21:12:36.355Z,FULLY_SHARED_UNIT_1-2-1-16,3,target-1,memory,0.0031585693359375
2022-03-30T21:12:46.355Z,FULLY_SHARED_UNIT_1-2-1-16,3,target-1,memory,0.0031585693359375
2022-03-30T21:12:56.355Z,FULLY_SHARED_UNIT_1-2-1-16,3,target-1,memory,0.0031585693359375
2022-03-30T21:13:06.355Z,FULLY_SHARED_UNIT_1-2-1-16,3,target-1,memory,0.0031585693359375
2022-03-30T21:13:16.357Z,FULLY_SHARED_UNIT_1-2-1-16,3,target-1,memory,0.0031585693359375
2022-03-30T21:13:26.355Z,FULLY_SHARED_UNIT_1-2-1-16,3,target-1,memory,0.0031585693359375
2022-03-30T21:13:36.355Z,FULLY_SHARED_UNIT_1-2-1-16,3,target-1,memory,0.0031585693359375
2022-03-30T21:13:46.355Z,FULLY_SHARED_UNIT_1-2-1-16,3,target-1,memory,0.0031585693359375
2022-03-30T21:13:56.355Z,FULLY_SHARED_UNIT_1-2-1-16,3,target-1,memory,0.0031585693359375
2022-03-30T21:14:06.355Z,FULLY_SHARED_UNIT_1-2-1-16,3,target-1,memory,0.0031585693359375
2022-03-30T21:14:16.355Z,FULLY_SHARED_UNIT_1-2-1-16,3,target-1,memory,0.0031585693359375
2022-03-30T21:14:26.355Z,FULLY_SHARED_UNIT_1-2-1-16,3,target-1,memory,0.0031585693359375
2022-03-30T21:14:36.355Z,FULLY_SHARED_UNIT_1-2-1-16,3,target-1,memory,0.0031585693359375
