2023-07-04T17:29:04.638Z,redis-exporter-dbops-team,network_in,172587
2023-07-04T17:29:04.668Z,redis-exporter-dev-team,network_in,185978
2023-07-04T17:29:04.638Z,blackbox-exporter,network_in,46362
2023-07-04T17:29:14.996Z,blackbox-exporter,network_in,46362
2023-07-04T17:29:14.996Z,redis-exporter-dbops-team,network_in,232737
2023-07-04T17:29:15.029Z,redis-exporter-dev-team,network_in,246309
2023-07-04T17:29:24.996Z,redis-exporter-dbops-team,network_in,232737
2023-07-04T17:29:24.996Z,blackbox-exporter,network_in,67613
2023-07-04T17:29:25.029Z,redis-exporter-dev-team,network_in,246309
2023-07-04T17:29:35.029Z,redis-exporter-dev-team,network_in,246309
2023-07-04T17:29:34.996Z,blackbox-exporter,network_in,67613
2023-07-04T17:29:34.996Z,redis-exporter-dbops-team,network_in,336197
2023-07-04T17:29:44.996Z,blackbox-exporter,network_in,67613
2023-07-04T17:29:45.030Z,redis-exporter-dev-team,network_in,383160
2023-07-04T17:29:44.996Z,redis-exporter-dbops-team,network_in,336197
2023-07-04T17:29:54.996Z,blackbox-exporter,network_in,74261
2023-07-04T17:29:54.996Z,redis-exporter-dbops-team,network_in,336197
2023-07-04T17:29:55.029Z,redis-exporter-dev-team,network_in,383160
2023-07-04T17:30:04.997Z,redis-exporter-dbops-team,network_in,394610
2023-07-04T17:30:04.997Z,blackbox-exporter,network_in,81778
2023-07-04T17:30:05.029Z,redis-exporter-dev-team,network_in,383160
2023-07-04T17:30:15.029Z,redis-exporter-dev-team,network_in,400170
2023-07-04T17:30:14.997Z,blackbox-exporter,network_in,101967
2023-07-04T17:30:14.997Z,redis-exporter-dbops-team,network_in,469316
2023-07-04T17:30:24.996Z,blackbox-exporter,network_in,101967
2023-07-04T17:30:24.996Z,redis-exporter-dbops-team,network_in,469316
2023-07-04T17:30:25.029Z,redis-exporter-dev-team,network_in,505487
2023-07-04T17:30:34.996Z,redis-exporter-dbops-team,network_in,469316
2023-07-04T17:30:34.996Z,blackbox-exporter,network_in,101967
2023-07-04T17:30:35.029Z,redis-exporter-dev-team,network_in,567637
2023-07-04T17:30:44.996Z,blackbox-exporter,network_in,122985
2023-07-04T17:30:45.029Z,redis-exporter-dev-team,network_in,628224
2023-07-04T17:30:44.996Z,redis-exporter-dbops-team,network_in,558946
2023-07-04T17:30:54.996Z,blackbox-exporter,network_in,127956
2023-07-04T17:30:54.996Z,redis-exporter-dbops-team,network_in,587945
2023-07-04T17:30:55.029Z,redis-exporter-dev-team,network_in,628224
2023-07-04T17:31:05.030Z,redis-exporter-dev-team,network_in,628224
2023-07-04T17:31:04.996Z,redis-exporter-dbops-team,network_in,587945
2023-07-04T17:31:04.996Z,blackbox-exporter,network_in,127956
2023-07-04T17:31:14.996Z,blackbox-exporter,network_in,149085
2023-07-04T17:31:15.029Z,redis-exporter-dev-team,network_in,675167
2023-07-04T17:31:14.996Z,redis-exporter-dbops-team,network_in,646505
2023-07-04T17:31:24.997Z,redis-exporter-dbops-team,network_in,706697
2023-07-04T17:31:25.029Z,redis-exporter-dev-team,network_in,675167
2023-07-04T17:31:24.997Z,blackbox-exporter,network_in,158987
2023-07-04T17:31:35.030Z,redis-exporter-dev-team,network_in,750758
2023-07-04T17:31:34.996Z,blackbox-exporter,network_in,158987
2023-07-04T17:31:34.996Z,redis-exporter-dbops-team,network_in,706697
2023-07-04T17:31:44.996Z,redis-exporter-dbops-team,network_in,810849
2023-07-04T17:31:44.996Z,blackbox-exporter,network_in,158987
2023-07-04T17:31:45.029Z,redis-exporter-dev-team,network_in,873377
2023-07-04T17:31:54.996Z,blackbox-exporter,network_in,178817
2023-07-04T17:31:54.996Z,redis-exporter-dbops-team,network_in,825484
2023-07-04T17:31:55.029Z,redis-exporter-dev-team,network_in,873377
2023-07-04T17:32:04.996Z,redis-exporter-dbops-team,network_in,884222
2023-07-04T17:32:05.029Z,redis-exporter-dev-team,network_in,873377
2023-07-04T17:32:04.996Z,blackbox-exporter,network_in,186440
2023-07-04T17:32:15.029Z,redis-exporter-dev-team,network_in,920420
2023-07-04T17:32:14.996Z,blackbox-exporter,network_in,205242
2023-07-04T17:32:14.996Z,redis-exporter-dbops-team,network_in,944651
2023-07-04T17:32:25.029Z,redis-exporter-dev-team,network_in,981194
2023-07-04T17:32:24.996Z,blackbox-exporter,network_in,224685
2023-07-04T17:32:24.996Z,redis-exporter-dbops-team,network_in,944651
2023-07-04T17:32:34.997Z,blackbox-exporter,network_in,224685
2023-07-04T17:32:34.997Z,redis-exporter-dbops-team,network_in,1003354
2023-07-04T17:32:35.029Z,redis-exporter-dev-team,network_in,1058351
2023-07-04T17:32:44.997Z,redis-exporter-dbops-team,network_in,1063554
2023-07-04T17:32:45.029Z,redis-exporter-dev-team,network_in,1058351
2023-07-04T17:32:44.997Z,blackbox-exporter,network_in,233187
2023-07-04T17:32:54.997Z,blackbox-exporter,network_in,233187
2023-07-04T17:32:55.029Z,redis-exporter-dev-team,network_in,1058351
2023-07-04T17:32:54.997Z,redis-exporter-dbops-team,network_in,1063554
2023-07-04T17:33:04.996Z,redis-exporter-dbops-team,network_in,1107815
2023-07-04T17:33:05.029Z,redis-exporter-dev-team,network_in,1181357
2023-07-04T17:33:04.996Z,blackbox-exporter,network_in,233187
2023-07-04T17:33:15.029Z,redis-exporter-dev-team,network_in,1181357
2023-07-04T17:33:14.996Z,blackbox-exporter,network_in,254597
2023-07-04T17:33:14.996Z,redis-exporter-dbops-team,network_in,1182568
2023-07-04T17:33:24.997Z,blackbox-exporter,network_in,266208
2023-07-04T17:33:24.997Z,redis-exporter-dbops-team,network_in,1182568
2023-07-04T17:33:25.029Z,redis-exporter-dev-team,network_in,1181357
2023-07-04T17:33:34.997Z,blackbox-exporter,network_in,266208
2023-07-04T17:33:34.997Z,redis-exporter-dbops-team,network_in,1182568
2023-07-04T17:33:35.029Z,redis-exporter-dev-team,network_in,1242164
2023-07-04T17:33:45.029Z,redis-exporter-dev-team,network_in,1350087
2023-07-04T17:33:44.996Z,blackbox-exporter,network_in,282400
2023-07-04T17:33:44.996Z,redis-exporter-dbops-team,network_in,1241266
2023-07-04T17:33:54.997Z,blackbox-exporter,network_in,282400
2023-07-04T17:33:54.997Z,redis-exporter-dbops-team,network_in,1241266
2023-07-04T17:33:55.029Z,redis-exporter-dev-team,network_in,1382208
2023-07-04T17:34:04.997Z,blackbox-exporter,network_in,292663
2023-07-04T17:34:04.997Z,redis-exporter-dbops-team,network_in,1301549
2023-07-04T17:34:05.029Z,redis-exporter-dev-team,network_in,1382208
2023-07-04T17:34:14.997Z,redis-exporter-dbops-team,network_in,1405965
2023-07-04T17:34:15.029Z,redis-exporter-dev-team,network_in,1382208
2023-07-04T17:34:14.997Z,blackbox-exporter,network_in,311510
2023-07-04T17:34:24.996Z,redis-exporter-dbops-team,network_in,1405965
2023-07-04T17:34:24.996Z,blackbox-exporter,network_in,311510
2023-07-04T17:34:25.029Z,redis-exporter-dev-team,network_in,1473006
2023-07-04T17:34:34.996Z,blackbox-exporter,network_in,333089
2023-07-04T17:34:34.996Z,redis-exporter-dbops-team,network_in,1450328
2023-07-04T17:34:35.029Z,redis-exporter-dev-team,network_in,1488044
2023-07-04T17:34:44.996Z,redis-exporter-dbops-team,network_in,1539767
2023-07-04T17:34:45.029Z,redis-exporter-dev-team,network_in,1550176
2023-07-04T17:34:44.996Z,blackbox-exporter,network_in,339376
2023-07-04T17:34:54.996Z,redis-exporter-dbops-team,network_in,1598442
2023-07-04T17:34:55.029Z,redis-exporter-dev-team,network_in,1610977
2023-07-04T17:34:54.996Z,blackbox-exporter,network_in,359593
2023-07-04T17:35:05.030Z,redis-exporter-dev-team,network_in,1673113
2023-07-04T17:35:04.997Z,blackbox-exporter,network_in,359593
2023-07-04T17:35:04.997Z,redis-exporter-dbops-team,network_in,1598442
2023-07-04T17:35:14.997Z,redis-exporter-dbops-team,network_in,1658852
2023-07-04T17:35:15.029Z,redis-exporter-dev-team,network_in,1673113
2023-07-04T17:35:14.997Z,blackbox-exporter,network_in,365699
2023-07-04T17:35:24.996Z,redis-exporter-dbops-team,network_in,1658852
2023-07-04T17:35:24.996Z,blackbox-exporter,network_in,365699
2023-07-04T17:35:25.029Z,redis-exporter-dev-team,network_in,1673113
2023-07-04T17:35:34.996Z,redis-exporter-dbops-team,network_in,1658852
2023-07-04T17:35:34.996Z,blackbox-exporter,network_in,365699
2023-07-04T17:35:35.029Z,redis-exporter-dev-team,network_in,1733957
2023-07-04T17:35:44.997Z,blackbox-exporter,network_in,392449
2023-07-04T17:35:44.997Z,redis-exporter-dbops-team,network_in,1777986
2023-07-04T17:35:45.029Z,redis-exporter-dev-team,network_in,1796148
2023-07-04T17:35:54.996Z,blackbox-exporter,network_in,392449
2023-07-04T17:35:55.029Z,redis-exporter-dev-team,network_in,1796148
2023-07-04T17:35:54.996Z,redis-exporter-dbops-team,network_in,1777986
2023-07-04T17:36:04.996Z,blackbox-exporter,network_in,392449
2023-07-04T17:36:05.029Z,redis-exporter-dev-team,network_in,1857031
2023-07-04T17:36:04.996Z,redis-exporter-dbops-team,network_in,1777986
2023-07-04T17:36:14.996Z,blackbox-exporter,network_in,414028
2023-07-04T17:36:15.029Z,redis-exporter-dev-team,network_in,1980216
2023-07-04T17:36:14.996Z,redis-exporter-dbops-team,network_in,1836815
2023-07-04T17:36:25.029Z,redis-exporter-dev-team,network_in,1980216
2023-07-04T17:36:24.996Z,redis-exporter-dbops-team,network_in,1897339
2023-07-04T17:36:24.996Z,blackbox-exporter,network_in,425476
2023-07-04T17:36:34.997Z,blackbox-exporter,network_in,425476
2023-07-04T17:36:35.030Z,redis-exporter-dev-team,network_in,2027395
2023-07-04T17:36:34.997Z,redis-exporter-dbops-team,network_in,1897339
2023-07-04T17:36:44.996Z,blackbox-exporter,network_in,425476
2023-07-04T17:36:44.996Z,redis-exporter-dbops-team,network_in,1897339
2023-07-04T17:36:45.029Z,redis-exporter-dev-team,network_in,2027395
2023-07-04T17:36:54.996Z,redis-exporter-dbops-team,network_in,2002135
2023-07-04T17:36:54.996Z,blackbox-exporter,network_in,444195
2023-07-04T17:36:55.029Z,redis-exporter-dev-team,network_in,2103285
2023-07-04T17:37:04.996Z,redis-exporter-dbops-team,network_in,2046465
2023-07-04T17:37:04.996Z,blackbox-exporter,network_in,464566
2023-07-04T17:37:05.029Z,redis-exporter-dev-team,network_in,2150650
2023-07-04T17:37:15.029Z,redis-exporter-dev-team,network_in,2150650
2023-07-04T17:37:14.997Z,blackbox-exporter,network_in,468246
2023-07-04T17:37:14.997Z,redis-exporter-dbops-team,network_in,2106828
2023-07-04T17:37:25.029Z,redis-exporter-dev-team,network_in,2211636
2023-07-04T17:37:24.996Z,blackbox-exporter,network_in,468246
2023-07-04T17:37:24.996Z,redis-exporter-dbops-team,network_in,2106828
2023-07-04T17:37:34.996Z,redis-exporter-dbops-team,network_in,2165853
2023-07-04T17:37:34.996Z,blackbox-exporter,network_in,478310
2023-07-04T17:37:35.029Z,redis-exporter-dev-team,network_in,2244073
2023-07-04T17:37:44.996Z,redis-exporter-dbops-team,network_in,2240883
2023-07-04T17:37:45.029Z,redis-exporter-dev-team,network_in,2289053
2023-07-04T17:37:44.996Z,blackbox-exporter,network_in,498288
2023-07-04T17:37:55.029Z,redis-exporter-dev-team,network_in,2349983
2023-07-04T17:37:54.997Z,redis-exporter-dbops-team,network_in,2285263
2023-07-04T17:37:54.997Z,blackbox-exporter,network_in,498288
2023-07-04T17:38:05.030Z,redis-exporter-dev-team,network_in,2412261
2023-07-04T17:38:04.996Z,redis-exporter-dbops-team,network_in,2285263
2023-07-04T17:38:04.996Z,blackbox-exporter,network_in,498288
2023-07-04T17:38:15.029Z,redis-exporter-dev-team,network_in,2412261
2023-07-04T17:38:14.996Z,blackbox-exporter,network_in,519789
2023-07-04T17:38:14.996Z,redis-exporter-dbops-team,network_in,2285263
2023-07-04T17:38:24.996Z,redis-exporter-dbops-team,network_in,2360214
2023-07-04T17:38:25.029Z,redis-exporter-dev-team,network_in,2412261
2023-07-04T17:38:24.996Z,blackbox-exporter,network_in,528582
2023-07-04T17:38:34.996Z,redis-exporter-dbops-team,network_in,2360214
2023-07-04T17:38:35.029Z,redis-exporter-dev-team,network_in,2490573
2023-07-04T17:38:34.996Z,blackbox-exporter,network_in,528582
2023-07-04T17:38:44.996Z,blackbox-exporter,network_in,546160
2023-07-04T17:38:44.996Z,redis-exporter-dbops-team,network_in,2433698
2023-07-04T17:38:45.029Z,redis-exporter-dev-team,network_in,2581612
2023-07-04T17:38:54.996Z,redis-exporter-dbops-team,network_in,2494152
2023-07-04T17:38:54.996Z,blackbox-exporter,network_in,551187
2023-07-04T17:38:55.030Z,redis-exporter-dev-team,network_in,2581612
2023-07-04T17:39:05.029Z,redis-exporter-dev-team,network_in,2581612
2023-07-04T17:39:04.996Z,blackbox-exporter,network_in,571296
2023-07-04T17:39:04.996Z,redis-exporter-dbops-team,network_in,2584206
2023-07-04T17:39:14.996Z,blackbox-exporter,network_in,571296
2023-07-04T17:39:14.996Z,redis-exporter-dbops-team,network_in,2584206
2023-07-04T17:39:15.029Z,redis-exporter-dev-team,network_in,2644044
2023-07-04T17:39:24.997Z,blackbox-exporter,network_in,571296
2023-07-04T17:39:25.030Z,redis-exporter-dev-team,network_in,2704939
2023-07-04T17:39:24.997Z,redis-exporter-dbops-team,network_in,2584206
