timestamp,key,run_id,resource,metric,value
2021-06-09T07:53:53.682Z,RESERVED_GLOBAL_UNIT_MULTI_PROBE-1-1-1,1,monitoring-unit-1,network_in,1.5036230087280273
2021-06-09T08:05:40.315Z,RESERVED_GLOBAL_UNIT_MULTI_PROBE-1-1-1,2,monitoring-unit-1,network_in,1.5067720413208008
2021-06-09T08:17:39.122Z,RESERVED_GLOBAL_UNIT_MULTI_PROBE-1-1-1,3,monitoring-unit-1,network_in,1.4922523498535156
2021-06-09T10:29:01.525Z,RESERVED_GLOBAL_UNIT_MULTI_PROBE-1-1-16,1,monitoring-unit-1,network_in,2.1283931732177734
2021-06-09T10:45:12.723Z,RESERVED_GLOBAL_UNIT_MULTI_PROBE-1-1-16,2,monitoring-unit-1,network_in,2.134611129760742
2021-06-09T11:01:33.914Z,RESERVED_GLOBAL_UNIT_MULTI_PROBE-1-1-16,3,monitoring-unit-1,network_in,2.1224679946899414
2021-06-09T08:29:22.148Z,RESERVED_GLOBAL_UNIT_MULTI_PROBE-1-1-2,1,monitoring-unit-1,network_in,1.538492202758789
2021-06-09T08:41:39.710Z,RESERVED_GLOBAL_UNIT_MULTI_PROBE-1-1-2,2,monitoring-unit-1,network_in,1.5864191055297852
2021-06-09T08:53:50.250Z,RESERVED_GLOBAL_UNIT_MULTI_PROBE-1-1-2,3,monitoring-unit-1,network_in,1.5778169631958008
2021-06-09T09:06:05.940Z,RESERVED_GLOBAL_UNIT_MULTI_PROBE-1-1-4,1,monitoring-unit-1,network_in,1.6156158447265625
2021-06-09T09:18:47.541Z,RESERVED_GLOBAL_UNIT_MULTI_PROBE-1-1-4,2,monitoring-unit-1,network_in,1.6296310424804688
2021-06-09T09:31:30.699Z,RESERVED_GLOBAL_UNIT_MULTI_PROBE-1-1-4,3,monitoring-unit-1,network_in,1.6246891021728516
2021-06-09T09:45:12.033Z,RESERVED_GLOBAL_UNIT_MULTI_PROBE-1-1-8,1,monitoring-unit-1,network_in,1.8006715774536133
2021-06-09T09:59:09.611Z,RESERVED_GLOBAL_UNIT_MULTI_PROBE-1-1-8,2,monitoring-unit-1,network_in,1.7779626846313477
2021-06-09T10:13:10.459Z,RESERVED_GLOBAL_UNIT_MULTI_PROBE-1-1-8,3,monitoring-unit-1,network_in,1.792994499206543
