2023-07-04T19:39:03.948Z,redis-exporter-dev-team,network_out,7204
2023-07-04T19:39:03.963Z,redis-exporter-dbops-team,network_out,6926
2023-07-04T19:39:03.948Z,blackbox-exporter,network_out,53252
2023-07-04T19:39:14.307Z,blackbox-exporter,network_out,76561
2023-07-04T19:39:14.307Z,redis-exporter-dev-team,network_out,13380
2023-07-04T19:39:14.325Z,redis-exporter-dbops-team,network_out,6926
2023-07-04T19:39:24.307Z,blackbox-exporter,network_out,91294
2023-07-04T19:39:24.307Z,redis-exporter-dev-team,network_out,13624
2023-07-04T19:39:24.326Z,redis-exporter-dbops-team,network_out,13351
2023-07-04T19:39:34.307Z,blackbox-exporter,network_out,91294
2023-07-04T19:39:34.307Z,redis-exporter-dev-team,network_out,13624
2023-07-04T19:39:34.326Z,redis-exporter-dbops-team,network_out,13351
2023-07-04T19:39:44.307Z,blackbox-exporter,network_out,125237
2023-07-04T19:39:44.307Z,redis-exporter-dev-team,network_out,19986
2023-07-04T19:39:44.325Z,redis-exporter-dbops-team,network_out,13351
2023-07-04T19:39:54.326Z,redis-exporter-dbops-team,network_out,19864
2023-07-04T19:39:54.307Z,blackbox-exporter,network_out,125237
2023-07-04T19:39:54.307Z,redis-exporter-dev-team,network_out,19986
2023-07-04T19:40:04.326Z,redis-exporter-dbops-team,network_out,19864
2023-07-04T19:40:04.308Z,redis-exporter-dev-team,network_out,20118
2023-07-04T19:40:04.308Z,blackbox-exporter,network_out,182200
2023-07-04T19:40:14.326Z,redis-exporter-dbops-team,network_out,26333
2023-07-04T19:40:14.307Z,redis-exporter-dev-team,network_out,26455
2023-07-04T19:40:14.307Z,blackbox-exporter,network_out,182200
2023-07-04T19:40:24.307Z,redis-exporter-dev-team,network_out,26455
2023-07-04T19:40:24.326Z,redis-exporter-dbops-team,network_out,26333
2023-07-04T19:40:24.307Z,blackbox-exporter,network_out,200758
2023-07-04T19:40:34.307Z,redis-exporter-dev-team,network_out,26455
2023-07-04T19:40:34.307Z,blackbox-exporter,network_out,200758
2023-07-04T19:40:34.326Z,redis-exporter-dbops-team,network_out,32899
2023-07-04T19:40:44.308Z,redis-exporter-dev-team,network_out,32960
2023-07-04T19:40:44.326Z,redis-exporter-dbops-team,network_out,32899
2023-07-04T19:40:44.308Z,blackbox-exporter,network_out,229909
2023-07-04T19:40:54.307Z,blackbox-exporter,network_out,268349
2023-07-04T19:40:54.307Z,redis-exporter-dev-team,network_out,33134
2023-07-04T19:40:54.326Z,redis-exporter-dbops-team,network_out,33031
2023-07-04T19:41:04.309Z,redis-exporter-dev-team,network_out,39446
2023-07-04T19:41:04.309Z,blackbox-exporter,network_out,268349
2023-07-04T19:41:04.325Z,redis-exporter-dbops-team,network_out,33031
2023-07-04T19:41:14.307Z,redis-exporter-dev-team,network_out,39446
2023-07-04T19:41:14.326Z,redis-exporter-dbops-team,network_out,39544
2023-07-04T19:41:14.307Z,blackbox-exporter,network_out,268349
2023-07-04T19:41:24.326Z,redis-exporter-dbops-team,network_out,39676
2023-07-04T19:41:24.308Z,blackbox-exporter,network_out,366836
2023-07-04T19:41:24.308Z,redis-exporter-dev-team,network_out,39578
2023-07-04T19:41:34.326Z,redis-exporter-dbops-team,network_out,46200
2023-07-04T19:41:34.307Z,blackbox-exporter,network_out,366836
2023-07-04T19:41:34.307Z,redis-exporter-dev-team,network_out,39578
2023-07-04T19:41:44.308Z,redis-exporter-dev-team,network_out,39578
2023-07-04T19:41:44.308Z,blackbox-exporter,network_out,403738
2023-07-04T19:41:44.325Z,redis-exporter-dbops-team,network_out,46200
2023-07-04T19:41:54.307Z,redis-exporter-dev-team,network_out,39578
2023-07-04T19:41:54.326Z,redis-exporter-dbops-team,network_out,46332
2023-07-04T19:41:54.307Z,blackbox-exporter,network_out,403738
2023-07-04T19:42:04.325Z,redis-exporter-dbops-team,network_out,52934
2023-07-04T19:42:04.308Z,redis-exporter-dev-team,network_out,46103
2023-07-04T19:42:04.308Z,blackbox-exporter,network_out,459305
2023-07-04T19:42:14.308Z,blackbox-exporter,network_out,494350
2023-07-04T19:42:14.308Z,redis-exporter-dev-team,network_out,46103
2023-07-04T19:42:14.326Z,redis-exporter-dbops-team,network_out,52934
2023-07-04T19:42:24.307Z,redis-exporter-dev-team,network_out,52565
2023-07-04T19:42:24.307Z,blackbox-exporter,network_out,546902
2023-07-04T19:42:24.326Z,redis-exporter-dbops-team,network_out,52934
2023-07-04T19:42:34.307Z,blackbox-exporter,network_out,546902
2023-07-04T19:42:34.307Z,redis-exporter-dev-team,network_out,58941
2023-07-04T19:42:34.326Z,redis-exporter-dbops-team,network_out,59554
2023-07-04T19:42:44.307Z,redis-exporter-dev-team,network_out,58941
2023-07-04T19:42:44.325Z,redis-exporter-dbops-team,network_out,59554
2023-07-04T19:42:44.307Z,blackbox-exporter,network_out,585699
2023-07-04T19:42:54.307Z,redis-exporter-dev-team,network_out,58941
2023-07-04T19:42:54.325Z,redis-exporter-dbops-team,network_out,59728
2023-07-04T19:42:54.307Z,blackbox-exporter,network_out,585699
2023-07-04T19:43:04.308Z,redis-exporter-dev-team,network_out,59143
2023-07-04T19:43:04.325Z,redis-exporter-dbops-team,network_out,59728
2023-07-04T19:43:04.308Z,blackbox-exporter,network_out,636735
2023-07-04T19:43:14.307Z,blackbox-exporter,network_out,675453
2023-07-04T19:43:14.307Z,redis-exporter-dev-team,network_out,65532
2023-07-04T19:43:14.326Z,redis-exporter-dbops-team,network_out,66397
2023-07-04T19:43:24.307Z,redis-exporter-dev-team,network_out,65532
2023-07-04T19:43:24.307Z,blackbox-exporter,network_out,728078
2023-07-04T19:43:24.326Z,redis-exporter-dbops-team,network_out,66397
2023-07-04T19:43:34.308Z,blackbox-exporter,network_out,728078
2023-07-04T19:43:34.308Z,redis-exporter-dev-team,network_out,72127
2023-07-04T19:43:34.326Z,redis-exporter-dbops-team,network_out,72934
2023-07-04T19:43:44.307Z,blackbox-exporter,network_out,728078
2023-07-04T19:43:44.307Z,redis-exporter-dev-team,network_out,72127
2023-07-04T19:43:44.325Z,redis-exporter-dbops-team,network_out,72934
2023-07-04T19:43:54.308Z,blackbox-exporter,network_out,793327
2023-07-04T19:43:54.308Z,redis-exporter-dev-team,network_out,72259
2023-07-04T19:43:54.327Z,redis-exporter-dbops-team,network_out,73108
2023-07-04T19:44:04.307Z,blackbox-exporter,network_out,793327
2023-07-04T19:44:04.326Z,redis-exporter-dbops-team,network_out,73108
2023-07-04T19:44:04.307Z,redis-exporter-dev-team,network_out,78764
2023-07-04T19:44:14.307Z,redis-exporter-dev-team,network_out,78764
2023-07-04T19:44:14.307Z,blackbox-exporter,network_out,856477
2023-07-04T19:44:14.326Z,redis-exporter-dbops-team,network_out,73108
2023-07-04T19:44:24.326Z,redis-exporter-dbops-team,network_out,79813
2023-07-04T19:44:24.307Z,redis-exporter-dev-team,network_out,78896
2023-07-04T19:44:24.307Z,blackbox-exporter,network_out,884514
2023-07-04T19:44:34.307Z,redis-exporter-dev-team,network_out,78896
2023-07-04T19:44:34.307Z,blackbox-exporter,network_out,915976
2023-07-04T19:44:34.326Z,redis-exporter-dbops-team,network_out,86367
2023-07-04T19:44:44.307Z,redis-exporter-dev-team,network_out,78896
2023-07-04T19:44:44.307Z,blackbox-exporter,network_out,915976
2023-07-04T19:44:44.326Z,redis-exporter-dbops-team,network_out,86367
2023-07-04T19:44:54.308Z,blackbox-exporter,network_out,976201
2023-07-04T19:44:54.308Z,redis-exporter-dev-team,network_out,85366
2023-07-04T19:44:54.325Z,redis-exporter-dbops-team,network_out,86541
2023-07-04T19:45:04.326Z,redis-exporter-dbops-team,network_out,93178
2023-07-04T19:45:04.308Z,blackbox-exporter,network_out,1039536
2023-07-04T19:45:04.308Z,redis-exporter-dev-team,network_out,85540
2023-07-04T19:45:14.307Z,blackbox-exporter,network_out,1067850
2023-07-04T19:45:14.326Z,redis-exporter-dbops-team,network_out,93178
2023-07-04T19:45:14.307Z,redis-exporter-dev-team,network_out,92063
2023-07-04T19:45:24.326Z,redis-exporter-dbops-team,network_out,93178
2023-07-04T19:45:24.307Z,redis-exporter-dev-team,network_out,92195
2023-07-04T19:45:24.307Z,blackbox-exporter,network_out,1067850
2023-07-04T19:45:34.307Z,blackbox-exporter,network_out,1099446
2023-07-04T19:45:34.307Z,redis-exporter-dev-team,network_out,92195
2023-07-04T19:45:34.326Z,redis-exporter-dbops-team,network_out,93310
2023-07-04T19:45:44.307Z,blackbox-exporter,network_out,1099446
2023-07-04T19:45:44.307Z,redis-exporter-dev-team,network_out,92195
2023-07-04T19:45:44.326Z,redis-exporter-dbops-team,network_out,99963
2023-07-04T19:45:54.307Z,redis-exporter-dev-team,network_out,98861
2023-07-04T19:45:54.326Z,redis-exporter-dbops-team,network_out,100095
2023-07-04T19:45:54.307Z,blackbox-exporter,network_out,1159389
2023-07-04T19:46:04.307Z,redis-exporter-dev-team,network_out,98861
2023-07-04T19:46:04.307Z,blackbox-exporter,network_out,1194472
2023-07-04T19:46:04.325Z,redis-exporter-dbops-team,network_out,100095
2023-07-04T19:46:14.307Z,redis-exporter-dev-team,network_out,98861
2023-07-04T19:46:14.307Z,blackbox-exporter,network_out,1194472
2023-07-04T19:46:14.326Z,redis-exporter-dbops-team,network_out,106818
2023-07-04T19:46:24.326Z,redis-exporter-dbops-team,network_out,106950
2023-07-04T19:46:24.308Z,blackbox-exporter,network_out,1251037
2023-07-04T19:46:24.308Z,redis-exporter-dev-team,network_out,105518
2023-07-04T19:46:34.326Z,redis-exporter-dbops-team,network_out,113605
2023-07-04T19:46:34.307Z,blackbox-exporter,network_out,1251037
2023-07-04T19:46:34.307Z,redis-exporter-dev-team,network_out,105518
2023-07-04T19:46:44.325Z,redis-exporter-dbops-team,network_out,113605
2023-07-04T19:46:44.308Z,redis-exporter-dev-team,network_out,112047
2023-07-04T19:46:44.308Z,blackbox-exporter,network_out,1314507
2023-07-04T19:46:54.308Z,blackbox-exporter,network_out,1314507
2023-07-04T19:46:54.308Z,redis-exporter-dev-team,network_out,112047
2023-07-04T19:46:54.326Z,redis-exporter-dbops-team,network_out,113737
2023-07-04T19:47:04.307Z,blackbox-exporter,network_out,1406386
2023-07-04T19:47:04.307Z,redis-exporter-dev-team,network_out,112221
2023-07-04T19:47:04.326Z,redis-exporter-dbops-team,network_out,120391
2023-07-04T19:47:14.308Z,blackbox-exporter,network_out,1406386
2023-07-04T19:47:14.326Z,redis-exporter-dbops-team,network_out,120523
2023-07-04T19:47:14.308Z,redis-exporter-dev-team,network_out,118705
2023-07-04T19:47:24.307Z,blackbox-exporter,network_out,1434666
2023-07-04T19:47:24.326Z,redis-exporter-dbops-team,network_out,120523
2023-07-04T19:47:24.307Z,redis-exporter-dev-team,network_out,118837
2023-07-04T19:47:34.307Z,blackbox-exporter,network_out,1469802
2023-07-04T19:47:34.307Z,redis-exporter-dev-team,network_out,125324
2023-07-04T19:47:34.326Z,redis-exporter-dbops-team,network_out,127184
2023-07-04T19:47:44.307Z,redis-exporter-dev-team,network_out,125324
2023-07-04T19:47:44.307Z,blackbox-exporter,network_out,1469802
2023-07-04T19:47:44.326Z,redis-exporter-dbops-team,network_out,127184
2023-07-04T19:47:54.308Z,redis-exporter-dev-team,network_out,125436
2023-07-04T19:47:54.308Z,blackbox-exporter,network_out,1501533
2023-07-04T19:47:54.326Z,redis-exporter-dbops-team,network_out,127316
2023-07-04T19:48:04.307Z,blackbox-exporter,network_out,1556028
2023-07-04T19:48:04.307Z,redis-exporter-dev-team,network_out,132109
2023-07-04T19:48:04.326Z,redis-exporter-dbops-team,network_out,127316
2023-07-04T19:48:14.326Z,redis-exporter-dbops-team,network_out,133968
2023-07-04T19:48:14.307Z,redis-exporter-dev-team,network_out,132109
2023-07-04T19:48:14.307Z,blackbox-exporter,network_out,1556028
2023-07-04T19:48:24.307Z,redis-exporter-dev-team,network_out,132109
2023-07-04T19:48:24.307Z,blackbox-exporter,network_out,1556028
2023-07-04T19:48:24.326Z,redis-exporter-dbops-team,network_out,133968
2023-07-04T19:48:34.308Z,blackbox-exporter,network_out,1649526
2023-07-04T19:48:34.308Z,redis-exporter-dev-team,network_out,132241
2023-07-04T19:48:34.326Z,redis-exporter-dbops-team,network_out,134100
2023-07-04T19:48:44.307Z,blackbox-exporter,network_out,1681348
2023-07-04T19:48:44.326Z,redis-exporter-dbops-team,network_out,140772
2023-07-04T19:48:44.307Z,redis-exporter-dev-team,network_out,132241
2023-07-04T19:48:54.326Z,redis-exporter-dbops-team,network_out,140904
2023-07-04T19:48:54.307Z,blackbox-exporter,network_out,1736031
2023-07-04T19:48:54.307Z,redis-exporter-dev-team,network_out,138923
2023-07-04T19:49:04.307Z,blackbox-exporter,network_out,1736031
2023-07-04T19:49:04.326Z,redis-exporter-dbops-team,network_out,140904
2023-07-04T19:49:04.307Z,redis-exporter-dev-team,network_out,138923
2023-07-04T19:49:14.307Z,redis-exporter-dev-team,network_out,145491
2023-07-04T19:49:14.326Z,redis-exporter-dbops-team,network_out,147587
2023-07-04T19:49:14.307Z,blackbox-exporter,network_out,1776671
2023-07-04T19:49:24.307Z,redis-exporter-dev-team,network_out,145623
2023-07-04T19:49:24.326Z,redis-exporter-dbops-team,network_out,147587
2023-07-04T19:49:24.307Z,blackbox-exporter,network_out,1776671
