2023-07-04T19:39:03.963Z,emailservice,network_out,4111
2023-07-04T19:39:03.948Z,shippingservice,network_out,8145
2023-07-04T19:39:03.970Z,checkoutservice,network_out,24621
2023-07-04T19:39:03.963Z,adservice,network_out,11387
2023-07-04T19:39:03.948Z,paymentservice,network_out,4095
2023-07-04T19:39:03.948Z,currencyservice,network_out,89216
2023-07-04T19:39:03.970Z,recommendationservice,network_out,62630
2023-07-04T19:39:03.970Z,cartservice,network_out,2337
2023-07-04T19:39:03.948Z,cartservice,network_out,2217
2023-07-04T19:39:03.948Z,cartservice,network_out,49971
2023-07-04T19:39:03.970Z,frontend,network_out,760496
2023-07-04T19:39:03.970Z,productcatalogservice,network_out,222860
2023-07-04T19:39:03.963Z,cartservice,network_out,2278
2023-07-04T19:39:03.948Z,redis-cart,network_out,88825
2023-07-04T19:39:14.307Z,cartservice,network_out,2371
2023-07-04T19:39:14.307Z,shippingservice,network_out,12481
2023-07-04T19:39:14.307Z,currencyservice,network_out,89216
2023-07-04T19:39:14.307Z,redis-cart,network_out,95846
2023-07-04T19:39:14.307Z,paymentservice,network_out,4245
2023-07-04T19:39:14.325Z,adservice,network_out,17945
2023-07-04T19:39:14.325Z,emailservice,network_out,4111
2023-07-04T19:39:14.307Z,cartservice,network_out,49971
2023-07-04T19:39:14.325Z,cartservice,network_out,2278
2023-07-04T19:39:14.487Z,checkoutservice,network_out,24621
2023-07-04T19:39:14.487Z,productcatalogservice,network_out,465598
2023-07-04T19:39:14.487Z,recommendationservice,network_out,62630
2023-07-04T19:39:14.487Z,cartservice,network_out,3040
2023-07-04T19:39:14.487Z,frontend,network_out,1178073
2023-07-04T19:39:24.307Z,shippingservice,network_out,15267
2023-07-04T19:39:24.307Z,cartservice,network_out,78502
2023-07-04T19:39:24.307Z,cartservice,network_out,2371
2023-07-04T19:39:24.307Z,currencyservice,network_out,132215
2023-07-04T19:39:24.326Z,emailservice,network_out,4219
2023-07-04T19:39:24.307Z,redis-cart,network_out,95846
2023-07-04T19:39:24.326Z,cartservice,network_out,2957
2023-07-04T19:39:24.326Z,adservice,network_out,17945
2023-07-04T19:39:24.307Z,paymentservice,network_out,4245
2023-07-04T19:39:24.487Z,recommendationservice,network_out,85110
2023-07-04T19:39:24.487Z,productcatalogservice,network_out,619124
2023-07-04T19:39:24.487Z,checkoutservice,network_out,30837
2023-07-04T19:39:24.487Z,cartservice,network_out,3040
2023-07-04T19:39:24.487Z,frontend,network_out,1676838
2023-07-04T19:39:34.307Z,paymentservice,network_out,5524
2023-07-04T19:39:34.326Z,emailservice,network_out,6438
2023-07-04T19:39:34.307Z,redis-cart,network_out,141992
2023-07-04T19:39:34.326Z,adservice,network_out,25724
2023-07-04T19:39:34.307Z,cartservice,network_out,90141
2023-07-04T19:39:34.307Z,shippingservice,network_out,21175
2023-07-04T19:39:34.307Z,cartservice,network_out,2371
2023-07-04T19:39:34.307Z,currencyservice,network_out,166660
2023-07-04T19:39:34.326Z,cartservice,network_out,2957
2023-07-04T19:39:34.488Z,checkoutservice,network_out,30837
2023-07-04T19:39:34.488Z,cartservice,network_out,3082
2023-07-04T19:39:34.488Z,productcatalogservice,network_out,797615
2023-07-04T19:39:34.488Z,recommendationservice,network_out,85110
2023-07-04T19:39:34.488Z,frontend,network_out,1676838
2023-07-04T19:39:44.307Z,redis-cart,network_out,146025
2023-07-04T19:39:44.307Z,shippingservice,network_out,21175
2023-07-04T19:39:44.307Z,currencyservice,network_out,166660
2023-07-04T19:39:44.325Z,adservice,network_out,25724
2023-07-04T19:39:44.307Z,paymentservice,network_out,6382
2023-07-04T19:39:44.325Z,cartservice,network_out,2957
2023-07-04T19:39:44.307Z,cartservice,network_out,99009
2023-07-04T19:39:44.307Z,cartservice,network_out,2371
2023-07-04T19:39:44.325Z,emailservice,network_out,6438
2023-07-04T19:39:44.488Z,frontend,network_out,1676838
2023-07-04T19:39:44.488Z,cartservice,network_out,3082
2023-07-04T19:39:44.488Z,recommendationservice,network_out,85110
2023-07-04T19:39:44.488Z,productcatalogservice,network_out,797615
2023-07-04T19:39:44.488Z,checkoutservice,network_out,30837
2023-07-04T19:39:54.307Z,currencyservice,network_out,166660
2023-07-04T19:39:54.326Z,cartservice,network_out,2957
2023-07-04T19:39:54.307Z,redis-cart,network_out,146025
2023-07-04T19:39:54.307Z,shippingservice,network_out,21175
2023-07-04T19:39:54.307Z,cartservice,network_out,99009
2023-07-04T19:39:54.307Z,cartservice,network_out,2371
2023-07-04T19:39:54.326Z,emailservice,network_out,6504
2023-07-04T19:39:54.326Z,adservice,network_out,36150
2023-07-04T19:39:54.307Z,paymentservice,network_out,6382
2023-07-04T19:39:54.488Z,recommendationservice,network_out,118859
2023-07-04T19:39:54.488Z,productcatalogservice,network_out,923068
2023-07-04T19:39:54.488Z,frontend,network_out,2499818
2023-07-04T19:39:54.488Z,checkoutservice,network_out,47556
2023-07-04T19:39:54.488Z,cartservice,network_out,3715
2023-07-04T19:40:04.326Z,adservice,network_out,36150
2023-07-04T19:40:04.308Z,cartservice,network_out,3870
2023-07-04T19:40:04.326Z,cartservice,network_out,3524
2023-07-04T19:40:04.308Z,shippingservice,network_out,23664
2023-07-04T19:40:04.308Z,currencyservice,network_out,228950
2023-07-04T19:40:04.308Z,paymentservice,network_out,6876
2023-07-04T19:40:04.308Z,cartservice,network_out,113136
2023-07-04T19:40:04.308Z,redis-cart,network_out,149781
2023-07-04T19:40:04.326Z,emailservice,network_out,7856
2023-07-04T19:40:04.489Z,productcatalogservice,network_out,1006116
2023-07-04T19:40:04.489Z,checkoutservice,network_out,47556
2023-07-04T19:40:04.489Z,cartservice,network_out,3715
2023-07-04T19:40:04.489Z,recommendationservice,network_out,137234
2023-07-04T19:40:04.489Z,frontend,network_out,2499818
2023-07-04T19:40:14.307Z,paymentservice,network_out,6876
2023-07-04T19:40:14.326Z,cartservice,network_out,3524
2023-07-04T19:40:14.326Z,emailservice,network_out,8207
2023-07-04T19:40:14.307Z,redis-cart,network_out,191740
2023-07-04T19:40:14.307Z,shippingservice,network_out,29395
2023-07-04T19:40:14.326Z,adservice,network_out,45368
2023-07-04T19:40:14.307Z,currencyservice,network_out,266323
2023-07-04T19:40:14.307Z,cartservice,network_out,3940
2023-07-04T19:40:14.307Z,cartservice,network_out,113136
2023-07-04T19:40:14.487Z,checkoutservice,network_out,47556
2023-07-04T19:40:14.487Z,frontend,network_out,3016185
2023-07-04T19:40:14.487Z,recommendationservice,network_out,155318
2023-07-04T19:40:14.487Z,cartservice,network_out,4501
2023-07-04T19:40:14.487Z,productcatalogservice,network_out,1205888
2023-07-04T19:40:24.307Z,currencyservice,network_out,266323
2023-07-04T19:40:24.307Z,redis-cart,network_out,196611
2023-07-04T19:40:24.307Z,cartservice,network_out,3940
2023-07-04T19:40:24.307Z,cartservice,network_out,133652
2023-07-04T19:40:24.326Z,cartservice,network_out,3524
2023-07-04T19:40:24.326Z,emailservice,network_out,8207
2023-07-04T19:40:24.307Z,paymentservice,network_out,8025
2023-07-04T19:40:24.307Z,shippingservice,network_out,32821
2023-07-04T19:40:24.326Z,adservice,network_out,45368
2023-07-04T19:40:24.488Z,recommendationservice,network_out,155318
2023-07-04T19:40:24.488Z,productcatalogservice,network_out,1205888
2023-07-04T19:40:24.488Z,frontend,network_out,3330542
2023-07-04T19:40:24.488Z,cartservice,network_out,4501
2023-07-04T19:40:24.488Z,checkoutservice,network_out,59119
2023-07-04T19:40:34.307Z,currencyservice,network_out,266323
2023-07-04T19:40:34.307Z,redis-cart,network_out,196611
2023-07-04T19:40:34.326Z,adservice,network_out,51735
2023-07-04T19:40:34.307Z,paymentservice,network_out,8025
2023-07-04T19:40:34.307Z,shippingservice,network_out,32821
2023-07-04T19:40:34.307Z,cartservice,network_out,3940
2023-07-04T19:40:34.307Z,cartservice,network_out,133652
2023-07-04T19:40:34.326Z,emailservice,network_out,9385
2023-07-04T19:40:34.326Z,cartservice,network_out,4157
2023-07-04T19:40:34.487Z,checkoutservice,network_out,59119
2023-07-04T19:40:34.487Z,recommendationservice,network_out,155318
2023-07-04T19:40:34.487Z,productcatalogservice,network_out,1205888
2023-07-04T19:40:34.487Z,frontend,network_out,3330542
2023-07-04T19:40:34.487Z,cartservice,network_out,4501
2023-07-04T19:40:44.308Z,cartservice,network_out,4615
2023-07-04T19:40:44.308Z,paymentservice,network_out,9762
2023-07-04T19:40:44.308Z,redis-cart,network_out,242389
2023-07-04T19:40:44.308Z,currencyservice,network_out,314287
2023-07-04T19:40:44.326Z,adservice,network_out,61683
2023-07-04T19:40:44.326Z,emailservice,network_out,10013
2023-07-04T19:40:44.326Z,cartservice,network_out,4269
2023-07-04T19:40:44.308Z,cartservice,network_out,168638
2023-07-04T19:40:44.308Z,shippingservice,network_out,38919
2023-07-04T19:40:44.488Z,recommendationservice,network_out,204224
2023-07-04T19:40:44.488Z,cartservice,network_out,5259
2023-07-04T19:40:44.488Z,checkoutservice,network_out,76565
2023-07-04T19:40:44.488Z,productcatalogservice,network_out,1548252
2023-07-04T19:40:44.488Z,frontend,network_out,3973851
2023-07-04T19:40:54.307Z,currencyservice,network_out,354920
2023-07-04T19:40:54.326Z,emailservice,network_out,10013
2023-07-04T19:40:54.307Z,cartservice,network_out,168638
2023-07-04T19:40:54.307Z,shippingservice,network_out,38919
2023-07-04T19:40:54.326Z,adservice,network_out,65933
2023-07-04T19:40:54.307Z,cartservice,network_out,4615
2023-07-04T19:40:54.307Z,redis-cart,network_out,249075
2023-07-04T19:40:54.307Z,paymentservice,network_out,9870
2023-07-04T19:40:54.326Z,cartservice,network_out,4985
2023-07-04T19:40:54.487Z,recommendationservice,network_out,217364
2023-07-04T19:40:54.487Z,checkoutservice,network_out,76565
2023-07-04T19:40:54.487Z,frontend,network_out,4363236
2023-07-04T19:40:54.487Z,cartservice,network_out,5259
2023-07-04T19:40:54.487Z,productcatalogservice,network_out,1683433
2023-07-04T19:41:04.309Z,cartservice,network_out,187808
2023-07-04T19:41:04.309Z,currencyservice,network_out,381840
2023-07-04T19:41:04.309Z,shippingservice,network_out,42373
2023-07-04T19:41:04.309Z,redis-cart,network_out,249075
2023-07-04T19:41:04.309Z,paymentservice,network_out,9870
2023-07-04T19:41:04.325Z,cartservice,network_out,4985
2023-07-04T19:41:04.309Z,cartservice,network_out,5199
2023-07-04T19:41:04.325Z,adservice,network_out,65933
2023-07-04T19:41:04.325Z,emailservice,network_out,10013
2023-07-04T19:41:04.487Z,productcatalogservice,network_out,1683433
2023-07-04T19:41:04.487Z,recommendationservice,network_out,217364
2023-07-04T19:41:04.487Z,checkoutservice,network_out,77821
2023-07-04T19:41:04.487Z,frontend,network_out,4363236
2023-07-04T19:41:04.487Z,cartservice,network_out,5259
2023-07-04T19:41:14.307Z,redis-cart,network_out,249075
2023-07-04T19:41:14.307Z,cartservice,network_out,5199
2023-07-04T19:41:14.326Z,adservice,network_out,73500
2023-07-04T19:41:14.307Z,cartservice,network_out,187808
2023-07-04T19:41:14.307Z,currencyservice,network_out,381840
2023-07-04T19:41:14.326Z,cartservice,network_out,4985
2023-07-04T19:41:14.307Z,paymentservice,network_out,9870
2023-07-04T19:41:14.307Z,shippingservice,network_out,42373
2023-07-04T19:41:14.326Z,emailservice,network_out,10952
2023-07-04T19:41:14.487Z,productcatalogservice,network_out,1886464
2023-07-04T19:41:14.487Z,checkoutservice,network_out,82545
2023-07-04T19:41:14.487Z,recommendationservice,network_out,245971
2023-07-04T19:41:14.487Z,cartservice,network_out,5259
2023-07-04T19:41:14.487Z,frontend,network_out,4909944
2023-07-04T19:41:24.308Z,cartservice,network_out,211174
2023-07-04T19:41:24.326Z,emailservice,network_out,11299
2023-07-04T19:41:24.308Z,redis-cart,network_out,293427
2023-07-04T19:41:24.308Z,cartservice,network_out,5241
2023-07-04T19:41:24.308Z,paymentservice,network_out,11085
2023-07-04T19:41:24.308Z,shippingservice,network_out,48696
2023-07-04T19:41:24.326Z,cartservice,network_out,5726
2023-07-04T19:41:24.326Z,adservice,network_out,81053
2023-07-04T19:41:24.308Z,currencyservice,network_out,411799
2023-07-04T19:41:24.488Z,checkoutservice,network_out,82545
2023-07-04T19:41:24.488Z,recommendationservice,network_out,262501
2023-07-04T19:41:24.488Z,cartservice,network_out,5934
2023-07-04T19:41:24.488Z,productcatalogservice,network_out,1886464
2023-07-04T19:41:24.488Z,frontend,network_out,4909944
2023-07-04T19:41:34.307Z,paymentservice,network_out,11442
2023-07-04T19:41:34.307Z,cartservice,network_out,5999
2023-07-04T19:41:34.326Z,adservice,network_out,81053
2023-07-04T19:41:34.326Z,cartservice,network_out,5726
2023-07-04T19:41:34.307Z,shippingservice,network_out,52604
2023-07-04T19:41:34.307Z,redis-cart,network_out,321640
2023-07-04T19:41:34.326Z,emailservice,network_out,12477
2023-07-04T19:41:34.307Z,currencyservice,network_out,462790
2023-07-04T19:41:34.307Z,cartservice,network_out,222406
2023-07-04T19:41:34.487Z,checkoutservice,network_out,82545
2023-07-04T19:41:34.487Z,cartservice,network_out,5934
2023-07-04T19:41:34.487Z,productcatalogservice,network_out,1886464
2023-07-04T19:41:34.487Z,recommendationservice,network_out,262501
2023-07-04T19:41:34.487Z,frontend,network_out,4909944
2023-07-04T19:41:44.308Z,shippingservice,network_out,52604
2023-07-04T19:41:44.308Z,redis-cart,network_out,347830
2023-07-04T19:41:44.325Z,adservice,network_out,81053
2023-07-04T19:41:44.325Z,cartservice,network_out,5726
2023-07-04T19:41:44.308Z,cartservice,network_out,5999
2023-07-04T19:41:44.308Z,currencyservice,network_out,462790
2023-07-04T19:41:44.325Z,emailservice,network_out,12477
2023-07-04T19:41:44.308Z,paymentservice,network_out,13179
2023-07-04T19:41:44.308Z,cartservice,network_out,222406
2023-07-04T19:41:44.487Z,recommendationservice,network_out,284344
2023-07-04T19:41:44.487Z,productcatalogservice,network_out,2232173
2023-07-04T19:41:44.487Z,checkoutservice,network_out,93262
2023-07-04T19:41:44.487Z,cartservice,network_out,5934
2023-07-04T19:41:44.487Z,frontend,network_out,5803636
2023-07-04T19:41:54.326Z,emailservice,network_out,13494
2023-07-04T19:41:54.307Z,cartservice,network_out,5999
2023-07-04T19:41:54.307Z,currencyservice,network_out,462790
2023-07-04T19:41:54.307Z,shippingservice,network_out,52604
2023-07-04T19:41:54.307Z,redis-cart,network_out,347830
2023-07-04T19:41:54.307Z,cartservice,network_out,222406
2023-07-04T19:41:54.307Z,paymentservice,network_out,13179
2023-07-04T19:41:54.326Z,cartservice,network_out,5726
2023-07-04T19:41:54.326Z,adservice,network_out,94491
2023-07-04T19:41:54.487Z,checkoutservice,network_out,102430
2023-07-04T19:41:54.487Z,recommendationservice,network_out,305977
2023-07-04T19:41:54.487Z,cartservice,network_out,5934
2023-07-04T19:41:54.487Z,productcatalogservice,network_out,2232173
2023-07-04T19:41:54.487Z,frontend,network_out,6214406
2023-07-04T19:42:04.325Z,cartservice,network_out,6442
2023-07-04T19:42:04.325Z,emailservice,network_out,14325
2023-07-04T19:42:04.308Z,cartservice,network_out,258480
2023-07-04T19:42:04.308Z,shippingservice,network_out,57421
2023-07-04T19:42:04.308Z,paymentservice,network_out,13564
2023-07-04T19:42:04.325Z,adservice,network_out,94491
2023-07-04T19:42:04.308Z,currencyservice,network_out,533156
2023-07-04T19:42:04.308Z,cartservice,network_out,5999
2023-07-04T19:42:04.308Z,redis-cart,network_out,355311
2023-07-04T19:42:04.487Z,productcatalogservice,network_out,2430720
2023-07-04T19:42:04.487Z,checkoutservice,network_out,108857
2023-07-04T19:42:04.487Z,recommendationservice,network_out,305977
2023-07-04T19:42:04.487Z,cartservice,network_out,6637
2023-07-04T19:42:04.487Z,frontend,network_out,6214406
2023-07-04T19:42:14.308Z,cartservice,network_out,276120
2023-07-04T19:42:14.326Z,adservice,network_out,102700
2023-07-04T19:42:14.326Z,cartservice,network_out,6442
2023-07-04T19:42:14.308Z,paymentservice,network_out,15070
2023-07-04T19:42:14.308Z,cartservice,network_out,5999
2023-07-04T19:42:14.308Z,redis-cart,network_out,395342
2023-07-04T19:42:14.326Z,emailservice,network_out,15436
2023-07-04T19:42:14.308Z,shippingservice,network_out,61540
2023-07-04T19:42:14.308Z,currencyservice,network_out,533156
2023-07-04T19:42:14.487Z,recommendationservice,network_out,328265
2023-07-04T19:42:14.487Z,cartservice,network_out,6637
2023-07-04T19:42:14.487Z,checkoutservice,network_out,108857
2023-07-04T19:42:14.487Z,frontend,network_out,6608350
2023-07-04T19:42:14.487Z,productcatalogservice,network_out,2583233
2023-07-04T19:42:24.307Z,cartservice,network_out,6823
2023-07-04T19:42:24.326Z,adservice,network_out,102700
2023-07-04T19:42:24.307Z,shippingservice,network_out,64040
2023-07-04T19:42:24.326Z,emailservice,network_out,15436
2023-07-04T19:42:24.307Z,cartservice,network_out,276120
2023-07-04T19:42:24.307Z,redis-cart,network_out,401121
2023-07-04T19:42:24.307Z,paymentservice,network_out,15070
2023-07-04T19:42:24.307Z,currencyservice,network_out,578981
2023-07-04T19:42:24.326Z,cartservice,network_out,6442
2023-07-04T19:42:24.487Z,recommendationservice,network_out,344621
2023-07-04T19:42:24.487Z,productcatalogservice,network_out,2583233
2023-07-04T19:42:24.487Z,checkoutservice,network_out,119431
2023-07-04T19:42:24.487Z,cartservice,network_out,7329
2023-07-04T19:42:24.487Z,frontend,network_out,6989030
2023-07-04T19:42:34.307Z,cartservice,network_out,289115
2023-07-04T19:42:34.307Z,redis-cart,network_out,441038
2023-07-04T19:42:34.307Z,currencyservice,network_out,600245
2023-07-04T19:42:34.326Z,emailservice,network_out,16333
2023-07-04T19:42:34.307Z,shippingservice,network_out,66566
2023-07-04T19:42:34.307Z,cartservice,network_out,6823
2023-07-04T19:42:34.307Z,paymentservice,network_out,15136
2023-07-04T19:42:34.326Z,cartservice,network_out,7266
2023-07-04T19:42:34.326Z,adservice,network_out,105431
2023-07-04T19:42:34.488Z,productcatalogservice,network_out,2717771
2023-07-04T19:42:34.488Z,checkoutservice,network_out,119431
2023-07-04T19:42:34.488Z,frontend,network_out,6989030
2023-07-04T19:42:34.488Z,recommendationservice,network_out,365891
2023-07-04T19:42:34.488Z,cartservice,network_out,7329
2023-07-04T19:42:44.307Z,cartservice,network_out,306750
2023-07-04T19:42:44.307Z,redis-cart,network_out,441038
2023-07-04T19:42:44.307Z,paymentservice,network_out,16243
2023-07-04T19:42:44.325Z,cartservice,network_out,7266
2023-07-04T19:42:44.325Z,adservice,network_out,114934
2023-07-04T19:42:44.307Z,cartservice,network_out,7585
2023-07-04T19:42:44.307Z,shippingservice,network_out,66566
2023-07-04T19:42:44.307Z,currencyservice,network_out,654411
2023-07-04T19:42:44.325Z,emailservice,network_out,16333
2023-07-04T19:42:44.488Z,recommendationservice,network_out,365891
2023-07-04T19:42:44.488Z,frontend,network_out,6989030
2023-07-04T19:42:44.488Z,checkoutservice,network_out,119431
2023-07-04T19:42:44.488Z,productcatalogservice,network_out,2717771
2023-07-04T19:42:44.488Z,cartservice,network_out,7329
2023-07-04T19:42:54.307Z,cartservice,network_out,306750
2023-07-04T19:42:54.307Z,redis-cart,network_out,441038
2023-07-04T19:42:54.307Z,paymentservice,network_out,16243
2023-07-04T19:42:54.307Z,cartservice,network_out,7585
2023-07-04T19:42:54.307Z,shippingservice,network_out,66566
2023-07-04T19:42:54.307Z,currencyservice,network_out,654411
2023-07-04T19:42:54.325Z,adservice,network_out,121875
2023-07-04T19:42:54.325Z,cartservice,network_out,8035
2023-07-04T19:42:54.325Z,emailservice,network_out,17069
2023-07-04T19:42:54.488Z,frontend,network_out,7951213
2023-07-04T19:42:54.488Z,cartservice,network_out,8111
2023-07-04T19:42:54.488Z,recommendationservice,network_out,383888
2023-07-04T19:42:54.488Z,productcatalogservice,network_out,2909448
2023-07-04T19:42:54.488Z,checkoutservice,network_out,129664
2023-07-04T19:43:04.308Z,redis-cart,network_out,474965
2023-07-04T19:43:04.308Z,paymentservice,network_out,16558
2023-07-04T19:43:04.308Z,cartservice,network_out,328887
2023-07-04T19:43:04.308Z,shippingservice,network_out,70663
2023-07-04T19:43:04.308Z,currencyservice,network_out,698460
2023-07-04T19:43:04.325Z,adservice,network_out,121875
2023-07-04T19:43:04.325Z,cartservice,network_out,8035
2023-07-04T19:43:04.325Z,emailservice,network_out,17069
2023-07-04T19:43:04.308Z,cartservice,network_out,7585
2023-07-04T19:43:04.488Z,cartservice,network_out,8111
2023-07-04T19:43:04.488Z,checkoutservice,network_out,129664
2023-07-04T19:43:04.488Z,frontend,network_out,8496630
2023-07-04T19:43:04.488Z,productcatalogservice,network_out,3118779
2023-07-04T19:43:04.488Z,recommendationservice,network_out,383888
2023-07-04T19:43:14.307Z,cartservice,network_out,8194
2023-07-04T19:43:14.307Z,paymentservice,network_out,17458
2023-07-04T19:43:14.326Z,emailservice,network_out,18032
2023-07-04T19:43:14.307Z,currencyservice,network_out,734564
2023-07-04T19:43:14.307Z,redis-cart,network_out,499101
2023-07-04T19:43:14.326Z,cartservice,network_out,8035
2023-07-04T19:43:14.307Z,cartservice,network_out,343958
2023-07-04T19:43:14.307Z,shippingservice,network_out,74138
2023-07-04T19:43:14.326Z,adservice,network_out,130744
2023-07-04T19:43:14.487Z,checkoutservice,network_out,131271
2023-07-04T19:43:14.487Z,frontend,network_out,8496630
2023-07-04T19:43:14.487Z,recommendationservice,network_out,414514
2023-07-04T19:43:14.487Z,productcatalogservice,network_out,3118779
2023-07-04T19:43:14.487Z,cartservice,network_out,8111
2023-07-04T19:43:24.326Z,adservice,network_out,136381
2023-07-04T19:43:24.307Z,cartservice,network_out,8194
2023-07-04T19:43:24.307Z,shippingservice,network_out,76572
2023-07-04T19:43:24.307Z,redis-cart,network_out,503726
2023-07-04T19:43:24.326Z,cartservice,network_out,8776
2023-07-04T19:43:24.307Z,currencyservice,network_out,734564
2023-07-04T19:43:24.307Z,cartservice,network_out,343958
2023-07-04T19:43:24.307Z,paymentservice,network_out,17458
2023-07-04T19:43:24.326Z,emailservice,network_out,18098
2023-07-04T19:43:24.487Z,checkoutservice,network_out,131271
2023-07-04T19:43:24.487Z,frontend,network_out,8496630
2023-07-04T19:43:24.487Z,recommendationservice,network_out,414514
2023-07-04T19:43:24.487Z,productcatalogservice,network_out,3118779
2023-07-04T19:43:24.487Z,cartservice,network_out,8111
2023-07-04T19:43:34.308Z,cartservice,network_out,8194
2023-07-04T19:43:34.308Z,currencyservice,network_out,779756
2023-07-04T19:43:34.308Z,cartservice,network_out,362263
2023-07-04T19:43:34.308Z,paymentservice,network_out,17839
2023-07-04T19:43:34.308Z,shippingservice,network_out,76572
2023-07-04T19:43:34.326Z,emailservice,network_out,19533
2023-07-04T19:43:34.308Z,redis-cart,network_out,503726
2023-07-04T19:43:34.326Z,cartservice,network_out,8776
2023-07-04T19:43:34.326Z,adservice,network_out,136381
2023-07-04T19:43:34.488Z,productcatalogservice,network_out,3462656
2023-07-04T19:43:34.488Z,frontend,network_out,9009379
2023-07-04T19:43:34.488Z,recommendationservice,network_out,429737
2023-07-04T19:43:34.488Z,cartservice,network_out,8786
2023-07-04T19:43:34.488Z,checkoutservice,network_out,131931
2023-07-04T19:43:44.307Z,cartservice,network_out,8194
2023-07-04T19:43:44.307Z,shippingservice,network_out,76572
2023-07-04T19:43:44.325Z,emailservice,network_out,19533
2023-07-04T19:43:44.307Z,currencyservice,network_out,779756
2023-07-04T19:43:44.307Z,cartservice,network_out,362263
2023-07-04T19:43:44.307Z,paymentservice,network_out,17839
2023-07-04T19:43:44.307Z,redis-cart,network_out,503726
2023-07-04T19:43:44.325Z,cartservice,network_out,8776
2023-07-04T19:43:44.325Z,adservice,network_out,136381
2023-07-04T19:43:44.487Z,recommendationservice,network_out,450714
2023-07-04T19:43:44.487Z,checkoutservice,network_out,147867
2023-07-04T19:43:44.487Z,cartservice,network_out,8786
2023-07-04T19:43:44.487Z,frontend,network_out,9396073
2023-07-04T19:43:44.487Z,productcatalogservice,network_out,3462656
2023-07-04T19:43:54.308Z,currencyservice,network_out,808055
2023-07-04T19:43:54.308Z,cartservice,network_out,8952
2023-07-04T19:43:54.327Z,adservice,network_out,152383
2023-07-04T19:43:54.308Z,cartservice,network_out,390582
2023-07-04T19:43:54.308Z,redis-cart,network_out,548718
2023-07-04T19:43:54.327Z,emailservice,network_out,19880
2023-07-04T19:43:54.308Z,shippingservice,network_out,84319
2023-07-04T19:43:54.308Z,paymentservice,network_out,19304
2023-07-04T19:43:54.327Z,cartservice,network_out,9558
2023-07-04T19:43:54.487Z,frontend,network_out,9720135
2023-07-04T19:43:54.487Z,productcatalogservice,network_out,3678882
2023-07-04T19:43:54.487Z,recommendationservice,network_out,472037
2023-07-04T19:43:54.487Z,checkoutservice,network_out,147867
2023-07-04T19:43:54.487Z,cartservice,network_out,9544
2023-07-04T19:44:04.307Z,shippingservice,network_out,84319
2023-07-04T19:44:04.307Z,redis-cart,network_out,578483
2023-07-04T19:44:04.326Z,adservice,network_out,152383
2023-07-04T19:44:04.307Z,currencyservice,network_out,856193
2023-07-04T19:44:04.307Z,cartservice,network_out,9734
2023-07-04T19:44:04.326Z,cartservice,network_out,9558
2023-07-04T19:44:04.307Z,cartservice,network_out,407010
2023-07-04T19:44:04.307Z,paymentservice,network_out,19936
2023-07-04T19:44:04.326Z,emailservice,network_out,21405
2023-07-04T19:44:04.487Z,frontend,network_out,9720135
2023-07-04T19:44:04.487Z,productcatalogservice,network_out,3678882
2023-07-04T19:44:04.487Z,recommendationservice,network_out,472037
2023-07-04T19:44:04.487Z,checkoutservice,network_out,147867
2023-07-04T19:44:04.487Z,cartservice,network_out,9544
2023-07-04T19:44:14.307Z,cartservice,network_out,9776
2023-07-04T19:44:14.326Z,adservice,network_out,160510
2023-07-04T19:44:14.307Z,cartservice,network_out,428267
2023-07-04T19:44:14.326Z,emailservice,network_out,21405
2023-07-04T19:44:14.307Z,currencyservice,network_out,856193
2023-07-04T19:44:14.307Z,paymentservice,network_out,19936
2023-07-04T19:44:14.307Z,shippingservice,network_out,88149
2023-07-04T19:44:14.307Z,redis-cart,network_out,604285
2023-07-04T19:44:14.326Z,cartservice,network_out,9558
2023-07-04T19:44:14.487Z,cartservice,network_out,9544
2023-07-04T19:44:14.487Z,checkoutservice,network_out,161196
2023-07-04T19:44:14.487Z,productcatalogservice,network_out,3827961
2023-07-04T19:44:14.487Z,recommendationservice,network_out,499891
2023-07-04T19:44:14.487Z,frontend,network_out,10381500
2023-07-04T19:44:24.307Z,cartservice,network_out,428267
2023-07-04T19:44:24.326Z,cartservice,network_out,9558
2023-07-04T19:44:24.326Z,emailservice,network_out,22231
2023-07-04T19:44:24.307Z,redis-cart,network_out,612930
2023-07-04T19:44:24.307Z,currencyservice,network_out,910947
2023-07-04T19:44:24.307Z,cartservice,network_out,9776
2023-07-04T19:44:24.307Z,paymentservice,network_out,21467
2023-07-04T19:44:24.307Z,shippingservice,network_out,91650
2023-07-04T19:44:24.326Z,adservice,network_out,166499
2023-07-04T19:44:24.487Z,productcatalogservice,network_out,4062811
2023-07-04T19:44:24.487Z,recommendationservice,network_out,519825
2023-07-04T19:44:24.487Z,frontend,network_out,10799208
2023-07-04T19:44:24.487Z,checkoutservice,network_out,165945
2023-07-04T19:44:24.487Z,cartservice,network_out,9544
2023-07-04T19:44:34.307Z,paymentservice,network_out,22574
2023-07-04T19:44:34.307Z,cartservice,network_out,449650
2023-07-04T19:44:34.307Z,currencyservice,network_out,946677
2023-07-04T19:44:34.307Z,cartservice,network_out,10426
2023-07-04T19:44:34.326Z,adservice,network_out,173254
2023-07-04T19:44:34.307Z,shippingservice,network_out,91650
2023-07-04T19:44:34.307Z,redis-cart,network_out,612930
2023-07-04T19:44:34.326Z,cartservice,network_out,10316
2023-07-04T19:44:34.326Z,emailservice,network_out,23385
2023-07-04T19:44:34.487Z,productcatalogservice,network_out,4062811
2023-07-04T19:44:34.487Z,recommendationservice,network_out,519825
2023-07-04T19:44:34.487Z,frontend,network_out,10799208
2023-07-04T19:44:34.487Z,checkoutservice,network_out,165945
2023-07-04T19:44:34.487Z,cartservice,network_out,9544
2023-07-04T19:44:44.307Z,shippingservice,network_out,91650
2023-07-04T19:44:44.307Z,redis-cart,network_out,612930
2023-07-04T19:44:44.326Z,cartservice,network_out,10316
2023-07-04T19:44:44.326Z,emailservice,network_out,23385
2023-07-04T19:44:44.307Z,cartservice,network_out,449650
2023-07-04T19:44:44.307Z,currencyservice,network_out,946677
2023-07-04T19:44:44.307Z,cartservice,network_out,10426
2023-07-04T19:44:44.326Z,adservice,network_out,173254
2023-07-04T19:44:44.307Z,paymentservice,network_out,22574
2023-07-04T19:44:44.487Z,checkoutservice,network_out,188479
2023-07-04T19:44:44.487Z,cartservice,network_out,10302
2023-07-04T19:44:44.487Z,frontend,network_out,11389790
2023-07-04T19:44:44.487Z,recommendationservice,network_out,553414
2023-07-04T19:44:44.487Z,productcatalogservice,network_out,4260733
2023-07-04T19:44:54.308Z,currencyservice,network_out,971907
2023-07-04T19:44:54.308Z,cartservice,network_out,488513
2023-07-04T19:44:54.325Z,emailservice,network_out,24558
2023-07-04T19:44:54.308Z,paymentservice,network_out,23498
2023-07-04T19:44:54.325Z,cartservice,network_out,10316
2023-07-04T19:44:54.308Z,cartservice,network_out,10468
2023-07-04T19:44:54.308Z,redis-cart,network_out,667825
2023-07-04T19:44:54.308Z,shippingservice,network_out,98398
2023-07-04T19:44:54.325Z,adservice,network_out,182954
2023-07-04T19:44:54.488Z,cartservice,network_out,10977
2023-07-04T19:44:54.488Z,frontend,network_out,12025836
2023-07-04T19:44:54.488Z,recommendationservice,network_out,553414
2023-07-04T19:44:54.488Z,productcatalogservice,network_out,4534162
2023-07-04T19:44:54.488Z,checkoutservice,network_out,188479
2023-07-04T19:45:04.308Z,redis-cart,network_out,667825
2023-07-04T19:45:04.308Z,cartservice,network_out,488513
2023-07-04T19:45:04.326Z,emailservice,network_out,25868
2023-07-04T19:45:04.308Z,paymentservice,network_out,23856
2023-07-04T19:45:04.308Z,shippingservice,network_out,102652
2023-07-04T19:45:04.308Z,cartservice,network_out,10468
2023-07-04T19:45:04.326Z,cartservice,network_out,10966
2023-07-04T19:45:04.308Z,currencyservice,network_out,1019473
2023-07-04T19:45:04.326Z,adservice,network_out,192016
2023-07-04T19:45:04.488Z,recommendationservice,network_out,580793
2023-07-04T19:45:04.488Z,productcatalogservice,network_out,4534162
2023-07-04T19:45:04.488Z,frontend,network_out,12025836
2023-07-04T19:45:04.488Z,cartservice,network_out,10977
2023-07-04T19:45:04.488Z,checkoutservice,network_out,194241
2023-07-04T19:45:14.307Z,redis-cart,network_out,713267
2023-07-04T19:45:14.326Z,adservice,network_out,192016
2023-07-04T19:45:14.326Z,emailservice,network_out,25868
2023-07-04T19:45:14.307Z,cartservice,network_out,11143
2023-07-04T19:45:14.307Z,cartservice,network_out,513419
2023-07-04T19:45:14.307Z,currencyservice,network_out,1019473
2023-07-04T19:45:14.307Z,shippingservice,network_out,106294
2023-07-04T19:45:14.326Z,cartservice,network_out,10966
2023-07-04T19:45:14.307Z,paymentservice,network_out,25344
2023-07-04T19:45:14.488Z,frontend,network_out,12680048
2023-07-04T19:45:14.488Z,checkoutservice,network_out,194241
2023-07-04T19:45:14.488Z,productcatalogservice,network_out,4728519
2023-07-04T19:45:14.488Z,cartservice,network_out,10977
2023-07-04T19:45:14.488Z,recommendationservice,network_out,595702
2023-07-04T19:45:24.307Z,cartservice,network_out,11143
2023-07-04T19:45:24.307Z,paymentservice,network_out,25344
2023-07-04T19:45:24.326Z,cartservice,network_out,10966
2023-07-04T19:45:24.307Z,currencyservice,network_out,1062084
2023-07-04T19:45:24.307Z,redis-cart,network_out,713267
2023-07-04T19:45:24.307Z,shippingservice,network_out,108178
2023-07-04T19:45:24.326Z,adservice,network_out,192016
2023-07-04T19:45:24.326Z,emailservice,network_out,25868
2023-07-04T19:45:24.307Z,cartservice,network_out,513419
2023-07-04T19:45:24.487Z,recommendationservice,network_out,595702
2023-07-04T19:45:24.487Z,frontend,network_out,12680048
2023-07-04T19:45:24.487Z,checkoutservice,network_out,194241
2023-07-04T19:45:24.487Z,productcatalogservice,network_out,4728519
2023-07-04T19:45:24.487Z,cartservice,network_out,10977
2023-07-04T19:45:34.307Z,cartservice,network_out,11793
2023-07-04T19:45:34.307Z,redis-cart,network_out,742630
2023-07-04T19:45:34.307Z,paymentservice,network_out,25725
2023-07-04T19:45:34.326Z,cartservice,network_out,11832
2023-07-04T19:45:34.307Z,currencyservice,network_out,1104864
2023-07-04T19:45:34.307Z,cartservice,network_out,532760
2023-07-04T19:45:34.307Z,shippingservice,network_out,110913
2023-07-04T19:45:34.326Z,emailservice,network_out,27956
2023-07-04T19:45:34.326Z,adservice,network_out,210189
2023-07-04T19:45:34.488Z,checkoutservice,network_out,213556
2023-07-04T19:45:34.488Z,cartservice,network_out,11735
2023-07-04T19:45:34.488Z,frontend,network_out,13274491
2023-07-04T19:45:34.488Z,recommendationservice,network_out,621757
2023-07-04T19:45:34.488Z,productcatalogservice,network_out,5010869
2023-07-04T19:45:44.307Z,currencyservice,network_out,1104864
2023-07-04T19:45:44.307Z,cartservice,network_out,532760
2023-07-04T19:45:44.307Z,shippingservice,network_out,110913
2023-07-04T19:45:44.326Z,emailservice,network_out,27956
2023-07-04T19:45:44.307Z,cartservice,network_out,11793
2023-07-04T19:45:44.307Z,redis-cart,network_out,742630
2023-07-04T19:45:44.307Z,paymentservice,network_out,25725
2023-07-04T19:45:44.326Z,cartservice,network_out,11832
2023-07-04T19:45:44.326Z,adservice,network_out,218223
2023-07-04T19:45:44.487Z,cartservice,network_out,11735
2023-07-04T19:45:44.487Z,productcatalogservice,network_out,5156397
2023-07-04T19:45:44.487Z,frontend,network_out,13274491
2023-07-04T19:45:44.487Z,recommendationservice,network_out,640727
2023-07-04T19:45:44.487Z,checkoutservice,network_out,218443
2023-07-04T19:45:54.307Z,cartservice,network_out,11835
2023-07-04T19:45:54.307Z,paymentservice,network_out,26941
2023-07-04T19:45:54.326Z,adservice,network_out,218223
2023-07-04T19:45:54.326Z,cartservice,network_out,11832
2023-07-04T19:45:54.307Z,cartservice,network_out,550997
2023-07-04T19:45:54.307Z,redis-cart,network_out,768770
2023-07-04T19:45:54.326Z,emailservice,network_out,28237
2023-07-04T19:45:54.307Z,shippingservice,network_out,114097
2023-07-04T19:45:54.307Z,currencyservice,network_out,1150244
2023-07-04T19:45:54.487Z,productcatalogservice,network_out,5156397
2023-07-04T19:45:54.487Z,recommendationservice,network_out,640727
2023-07-04T19:45:54.487Z,frontend,network_out,13860461
2023-07-04T19:45:54.487Z,checkoutservice,network_out,219103
2023-07-04T19:45:54.487Z,cartservice,network_out,11735
2023-07-04T19:46:04.307Z,cartservice,network_out,12485
2023-07-04T19:46:04.307Z,shippingservice,network_out,118864
2023-07-04T19:46:04.325Z,cartservice,network_out,11832
2023-07-04T19:46:04.307Z,redis-cart,network_out,777844
2023-07-04T19:46:04.307Z,cartservice,network_out,571135
2023-07-04T19:46:04.325Z,adservice,network_out,218223
2023-07-04T19:46:04.307Z,paymentservice,network_out,26941
2023-07-04T19:46:04.307Z,currencyservice,network_out,1187337
2023-07-04T19:46:04.325Z,emailservice,network_out,28237
2023-07-04T19:46:04.487Z,productcatalogservice,network_out,5156397
2023-07-04T19:46:04.487Z,recommendationservice,network_out,640727
2023-07-04T19:46:04.487Z,frontend,network_out,13860461
2023-07-04T19:46:04.487Z,checkoutservice,network_out,219103
2023-07-04T19:46:04.487Z,cartservice,network_out,11735
2023-07-04T19:46:14.307Z,redis-cart,network_out,777844
2023-07-04T19:46:14.307Z,cartservice,network_out,571135
2023-07-04T19:46:14.326Z,adservice,network_out,230947
2023-07-04T19:46:14.307Z,paymentservice,network_out,26941
2023-07-04T19:46:14.307Z,currencyservice,network_out,1187337
2023-07-04T19:46:14.307Z,cartservice,network_out,12485
2023-07-04T19:46:14.307Z,shippingservice,network_out,118864
2023-07-04T19:46:14.326Z,emailservice,network_out,29308
2023-07-04T19:46:14.326Z,cartservice,network_out,12507
2023-07-04T19:46:14.487Z,cartservice,network_out,12563
2023-07-04T19:46:14.487Z,checkoutservice,network_out,220574
2023-07-04T19:46:14.487Z,recommendationservice,network_out,684014
2023-07-04T19:46:14.487Z,productcatalogservice,network_out,5444209
2023-07-04T19:46:14.487Z,frontend,network_out,14737656
2023-07-04T19:46:24.326Z,emailservice,network_out,29659
2023-07-04T19:46:24.308Z,shippingservice,network_out,123221
2023-07-04T19:46:24.308Z,paymentservice,network_out,27869
2023-07-04T19:46:24.308Z,cartservice,network_out,12527
2023-07-04T19:46:24.308Z,redis-cart,network_out,829649
2023-07-04T19:46:24.308Z,currencyservice,network_out,1216735
2023-07-04T19:46:24.326Z,cartservice,network_out,13289
2023-07-04T19:46:24.326Z,adservice,network_out,230947
2023-07-04T19:46:24.308Z,cartservice,network_out,588133
2023-07-04T19:46:24.487Z,productcatalogservice,network_out,5585687
2023-07-04T19:46:24.487Z,frontend,network_out,14737656
2023-07-04T19:46:24.487Z,cartservice,network_out,13321
2023-07-04T19:46:24.487Z,checkoutservice,network_out,226965
2023-07-04T19:46:24.487Z,recommendationservice,network_out,684014
2023-07-04T19:46:34.307Z,shippingservice,network_out,127261
2023-07-04T19:46:34.307Z,redis-cart,network_out,829649
2023-07-04T19:46:34.307Z,currencyservice,network_out,1271982
2023-07-04T19:46:34.307Z,cartservice,network_out,13289
2023-07-04T19:46:34.326Z,adservice,network_out,237954
2023-07-04T19:46:34.307Z,cartservice,network_out,607151
2023-07-04T19:46:34.326Z,emailservice,network_out,30945
2023-07-04T19:46:34.307Z,paymentservice,network_out,28499
2023-07-04T19:46:34.326Z,cartservice,network_out,13289
2023-07-04T19:46:34.488Z,frontend,network_out,15395144
2023-07-04T19:46:34.488Z,cartservice,network_out,13321
2023-07-04T19:46:34.488Z,productcatalogservice,network_out,5585687
2023-07-04T19:46:34.488Z,recommendationservice,network_out,704494
2023-07-04T19:46:34.488Z,checkoutservice,network_out,235255
2023-07-04T19:46:44.308Z,cartservice,network_out,631758
2023-07-04T19:46:44.308Z,shippingservice,network_out,127261
2023-07-04T19:46:44.325Z,cartservice,network_out,13289
2023-07-04T19:46:44.308Z,currencyservice,network_out,1330459
2023-07-04T19:46:44.325Z,adservice,network_out,237954
2023-07-04T19:46:44.308Z,redis-cart,network_out,878912
2023-07-04T19:46:44.325Z,emailservice,network_out,30945
2023-07-04T19:46:44.308Z,paymentservice,network_out,29923
2023-07-04T19:46:44.308Z,cartservice,network_out,13289
2023-07-04T19:46:44.487Z,frontend,network_out,15395144
2023-07-04T19:46:44.487Z,cartservice,network_out,13321
2023-07-04T19:46:44.487Z,productcatalogservice,network_out,5585687
2023-07-04T19:46:44.487Z,recommendationservice,network_out,704494
2023-07-04T19:46:44.487Z,checkoutservice,network_out,235255
2023-07-04T19:46:54.308Z,cartservice,network_out,631758
2023-07-04T19:46:54.308Z,shippingservice,network_out,127261
2023-07-04T19:46:54.326Z,adservice,network_out,248054
2023-07-04T19:46:54.308Z,paymentservice,network_out,29923
2023-07-04T19:46:54.308Z,cartservice,network_out,13289
2023-07-04T19:46:54.326Z,cartservice,network_out,14065
2023-07-04T19:46:54.308Z,redis-cart,network_out,878912
2023-07-04T19:46:54.308Z,currencyservice,network_out,1330459
2023-07-04T19:46:54.326Z,emailservice,network_out,32441
2023-07-04T19:46:54.487Z,cartservice,network_out,14079
2023-07-04T19:46:54.487Z,checkoutservice,network_out,253971
2023-07-04T19:46:54.487Z,productcatalogservice,network_out,6045335
2023-07-04T19:46:54.487Z,frontend,network_out,15850027
2023-07-04T19:46:54.487Z,recommendationservice,network_out,739734
2023-07-04T19:47:04.307Z,cartservice,network_out,13289
2023-07-04T19:47:04.307Z,cartservice,network_out,656541
2023-07-04T19:47:04.326Z,emailservice,network_out,32441
2023-07-04T19:47:04.307Z,paymentservice,network_out,30595
2023-07-04T19:47:04.307Z,shippingservice,network_out,136073
2023-07-04T19:47:04.326Z,adservice,network_out,255296
2023-07-04T19:47:04.307Z,currencyservice,network_out,1361077
2023-07-04T19:47:04.307Z,redis-cart,network_out,906529
2023-07-04T19:47:04.326Z,cartservice,network_out,14065
2023-07-04T19:47:04.487Z,checkoutservice,network_out,271498
2023-07-04T19:47:04.487Z,productcatalogservice,network_out,6174196
2023-07-04T19:47:04.487Z,frontend,network_out,16518146
2023-07-04T19:47:04.487Z,cartservice,network_out,14079
2023-07-04T19:47:04.487Z,recommendationservice,network_out,763796
2023-07-04T19:47:14.326Z,adservice,network_out,265307
2023-07-04T19:47:14.308Z,currencyservice,network_out,1401029
2023-07-04T19:47:14.308Z,redis-cart,network_out,933210
2023-07-04T19:47:14.308Z,shippingservice,network_out,141081
2023-07-04T19:47:14.326Z,emailservice,network_out,34247
2023-07-04T19:47:14.308Z,cartservice,network_out,656541
2023-07-04T19:47:14.308Z,cartservice,network_out,13964
2023-07-04T19:47:14.326Z,cartservice,network_out,14065
2023-07-04T19:47:14.308Z,paymentservice,network_out,32334
2023-07-04T19:47:14.488Z,productcatalogservice,network_out,6174196
2023-07-04T19:47:14.488Z,cartservice,network_out,14079
2023-07-04T19:47:14.488Z,recommendationservice,network_out,763796
2023-07-04T19:47:14.488Z,frontend,network_out,16924644
2023-07-04T19:47:14.488Z,checkoutservice,network_out,282662
2023-07-04T19:47:24.307Z,currencyservice,network_out,1429445
2023-07-04T19:47:24.307Z,cartservice,network_out,13964
2023-07-04T19:47:24.307Z,shippingservice,network_out,146001
2023-07-04T19:47:24.326Z,cartservice,network_out,14065
2023-07-04T19:47:24.307Z,redis-cart,network_out,933210
2023-07-04T19:47:24.326Z,emailservice,network_out,34247
2023-07-04T19:47:24.307Z,cartservice,network_out,679437
2023-07-04T19:47:24.307Z,paymentservice,network_out,32649
2023-07-04T19:47:24.326Z,adservice,network_out,265307
2023-07-04T19:47:24.487Z,productcatalogservice,network_out,6174196
2023-07-04T19:47:24.487Z,cartservice,network_out,14079
2023-07-04T19:47:24.487Z,recommendationservice,network_out,763796
2023-07-04T19:47:24.487Z,frontend,network_out,16924644
2023-07-04T19:47:24.487Z,checkoutservice,network_out,282662
2023-07-04T19:47:34.307Z,redis-cart,network_out,943689
2023-07-04T19:47:34.307Z,cartservice,network_out,14663
2023-07-04T19:47:34.307Z,currencyservice,network_out,1429445
2023-07-04T19:47:34.326Z,emailservice,network_out,34851
2023-07-04T19:47:34.326Z,adservice,network_out,272888
2023-07-04T19:47:34.307Z,paymentservice,network_out,32649
2023-07-04T19:47:34.307Z,shippingservice,network_out,146001
2023-07-04T19:47:34.307Z,cartservice,network_out,695550
2023-07-04T19:47:34.326Z,cartservice,network_out,14852
2023-07-04T19:47:34.488Z,frontend,network_out,17801293
2023-07-04T19:47:34.488Z,recommendationservice,network_out,781758
2023-07-04T19:47:34.488Z,productcatalogservice,network_out,6520490
2023-07-04T19:47:34.488Z,cartservice,network_out,14771
2023-07-04T19:47:34.488Z,checkoutservice,network_out,291003
2023-07-04T19:47:44.307Z,paymentservice,network_out,32649
2023-07-04T19:47:44.326Z,cartservice,network_out,14852
2023-07-04T19:47:44.307Z,cartservice,network_out,14663
2023-07-04T19:47:44.307Z,currencyservice,network_out,1429445
2023-07-04T19:47:44.326Z,emailservice,network_out,36244
2023-07-04T19:47:44.326Z,adservice,network_out,272888
2023-07-04T19:47:44.307Z,redis-cart,network_out,943689
2023-07-04T19:47:44.307Z,shippingservice,network_out,146001
2023-07-04T19:47:44.307Z,cartservice,network_out,695550
2023-07-04T19:47:44.487Z,checkoutservice,network_out,291003
2023-07-04T19:47:44.487Z,recommendationservice,network_out,812567
2023-07-04T19:47:44.487Z,productcatalogservice,network_out,6520490
2023-07-04T19:47:44.487Z,cartservice,network_out,15470
2023-07-04T19:47:44.487Z,frontend,network_out,17801293
2023-07-04T19:47:54.308Z,cartservice,network_out,14705
2023-07-04T19:47:54.308Z,paymentservice,network_out,34453
2023-07-04T19:47:54.326Z,emailservice,network_out,36699
2023-07-04T19:47:54.326Z,adservice,network_out,283308
2023-07-04T19:47:54.308Z,currencyservice,network_out,1486280
2023-07-04T19:47:54.308Z,shippingservice,network_out,154844
2023-07-04T19:47:54.308Z,cartservice,network_out,716272
2023-07-04T19:47:54.308Z,redis-cart,network_out,987715
2023-07-04T19:47:54.326Z,cartservice,network_out,14852
2023-07-04T19:47:54.487Z,checkoutservice,network_out,291003
2023-07-04T19:47:54.487Z,recommendationservice,network_out,812567
2023-07-04T19:47:54.487Z,cartservice,network_out,15470
2023-07-04T19:47:54.487Z,frontend,network_out,17801293
2023-07-04T19:47:54.487Z,productcatalogservice,network_out,6520490
2023-07-04T19:48:04.326Z,emailservice,network_out,38860
2023-07-04T19:48:04.307Z,redis-cart,network_out,1037367
2023-07-04T19:48:04.307Z,currencyservice,network_out,1540128
2023-07-04T19:48:04.326Z,adservice,network_out,292381
2023-07-04T19:48:04.326Z,cartservice,network_out,14852
2023-07-04T19:48:04.307Z,paymentservice,network_out,34876
2023-07-04T19:48:04.307Z,cartservice,network_out,14705
2023-07-04T19:48:04.307Z,cartservice,network_out,735271
2023-07-04T19:48:04.307Z,shippingservice,network_out,154844
2023-07-04T19:48:04.487Z,cartservice,network_out,15512
2023-07-04T19:48:04.487Z,frontend,network_out,18954422
2023-07-04T19:48:04.487Z,productcatalogservice,network_out,6984004
2023-07-04T19:48:04.487Z,checkoutservice,network_out,317952
2023-07-04T19:48:04.487Z,recommendationservice,network_out,828791
2023-07-04T19:48:14.307Z,cartservice,network_out,15380
2023-07-04T19:48:14.307Z,shippingservice,network_out,162818
2023-07-04T19:48:14.307Z,paymentservice,network_out,37561
2023-07-04T19:48:14.307Z,cartservice,network_out,757152
2023-07-04T19:48:14.307Z,redis-cart,network_out,1047506
2023-07-04T19:48:14.307Z,currencyservice,network_out,1573235
2023-07-04T19:48:14.326Z,emailservice,network_out,38860
2023-07-04T19:48:14.326Z,adservice,network_out,292381
2023-07-04T19:48:14.326Z,cartservice,network_out,15544
2023-07-04T19:48:14.488Z,checkoutservice,network_out,317952
2023-07-04T19:48:14.488Z,recommendationservice,network_out,862814
2023-07-04T19:48:14.488Z,cartservice,network_out,15512
2023-07-04T19:48:14.488Z,frontend,network_out,18954422
2023-07-04T19:48:14.488Z,productcatalogservice,network_out,6984004
2023-07-04T19:48:24.307Z,cartservice,network_out,15380
2023-07-04T19:48:24.307Z,shippingservice,network_out,162818
2023-07-04T19:48:24.307Z,paymentservice,network_out,37561
2023-07-04T19:48:24.307Z,cartservice,network_out,757152
2023-07-04T19:48:24.307Z,redis-cart,network_out,1047506
2023-07-04T19:48:24.307Z,currencyservice,network_out,1573235
2023-07-04T19:48:24.326Z,emailservice,network_out,38860
2023-07-04T19:48:24.326Z,cartservice,network_out,15544
2023-07-04T19:48:24.326Z,adservice,network_out,292381
2023-07-04T19:48:24.487Z,productcatalogservice,network_out,7222651
2023-07-04T19:48:24.487Z,cartservice,network_out,16204
2023-07-04T19:48:24.487Z,recommendationservice,network_out,888302
2023-07-04T19:48:24.487Z,frontend,network_out,19339729
2023-07-04T19:48:24.487Z,checkoutservice,network_out,335889
2023-07-04T19:48:34.326Z,adservice,network_out,302190
2023-07-04T19:48:34.308Z,paymentservice,network_out,37876
2023-07-04T19:48:34.308Z,shippingservice,network_out,168953
2023-07-04T19:48:34.308Z,cartservice,network_out,15380
2023-07-04T19:48:34.326Z,cartservice,network_out,16410
2023-07-04T19:48:34.326Z,emailservice,network_out,40708
2023-07-04T19:48:34.308Z,redis-cart,network_out,1074729
2023-07-04T19:48:34.308Z,cartservice,network_out,770996
2023-07-04T19:48:34.308Z,currencyservice,network_out,1604977
2023-07-04T19:48:34.488Z,frontend,network_out,19810460
2023-07-04T19:48:34.488Z,productcatalogservice,network_out,7222651
2023-07-04T19:48:34.488Z,checkoutservice,network_out,343713
2023-07-04T19:48:34.488Z,recommendationservice,network_out,888302
2023-07-04T19:48:34.488Z,cartservice,network_out,16204
2023-07-04T19:48:44.307Z,shippingservice,network_out,168953
2023-07-04T19:48:44.326Z,emailservice,network_out,41336
2023-07-04T19:48:44.307Z,redis-cart,network_out,1102665
2023-07-04T19:48:44.307Z,paymentservice,network_out,37876
2023-07-04T19:48:44.307Z,currencyservice,network_out,1645558
2023-07-04T19:48:44.326Z,adservice,network_out,313315
2023-07-04T19:48:44.307Z,cartservice,network_out,15380
2023-07-04T19:48:44.307Z,cartservice,network_out,798077
2023-07-04T19:48:44.326Z,cartservice,network_out,16410
2023-07-04T19:48:44.488Z,cartservice,network_out,16204
2023-07-04T19:48:44.488Z,checkoutservice,network_out,353073
2023-07-04T19:48:44.488Z,recommendationservice,network_out,922922
2023-07-04T19:48:44.488Z,productcatalogservice,network_out,7420261
2023-07-04T19:48:44.488Z,frontend,network_out,20226814
2023-07-04T19:48:54.307Z,redis-cart,network_out,1109048
2023-07-04T19:48:54.307Z,cartservice,network_out,814744
2023-07-04T19:48:54.307Z,cartservice,network_out,16072
2023-07-04T19:48:54.307Z,currencyservice,network_out,1681011
2023-07-04T19:48:54.326Z,emailservice,network_out,41683
2023-07-04T19:48:54.326Z,adservice,network_out,320943
2023-07-04T19:48:54.307Z,shippingservice,network_out,173305
2023-07-04T19:48:54.307Z,paymentservice,network_out,39342
2023-07-04T19:48:54.326Z,cartservice,network_out,17151
2023-07-04T19:48:54.487Z,recommendationservice,network_out,922922
2023-07-04T19:48:54.487Z,productcatalogservice,network_out,7420261
2023-07-04T19:48:54.487Z,cartservice,network_out,16204
2023-07-04T19:48:54.487Z,checkoutservice,network_out,353073
2023-07-04T19:48:54.487Z,frontend,network_out,20226814
2023-07-04T19:49:04.307Z,cartservice,network_out,16072
2023-07-04T19:49:04.307Z,redis-cart,network_out,1109048
2023-07-04T19:49:04.307Z,cartservice,network_out,814744
2023-07-04T19:49:04.326Z,cartservice,network_out,17151
2023-07-04T19:49:04.307Z,currencyservice,network_out,1681011
2023-07-04T19:49:04.326Z,emailservice,network_out,42622
2023-07-04T19:49:04.307Z,shippingservice,network_out,173305
2023-07-04T19:49:04.307Z,paymentservice,network_out,39342
2023-07-04T19:49:04.326Z,adservice,network_out,327334
2023-07-04T19:49:04.488Z,recommendationservice,network_out,947635
2023-07-04T19:49:04.488Z,productcatalogservice,network_out,7676005
2023-07-04T19:49:04.488Z,frontend,network_out,20690602
2023-07-04T19:49:04.488Z,checkoutservice,network_out,357911
2023-07-04T19:49:04.488Z,cartservice,network_out,16896
2023-07-04T19:49:14.326Z,emailservice,network_out,42622
2023-07-04T19:49:14.326Z,cartservice,network_out,17151
2023-07-04T19:49:14.307Z,cartservice,network_out,16681
2023-07-04T19:49:14.307Z,redis-cart,network_out,1149262
2023-07-04T19:49:14.326Z,adservice,network_out,327334
2023-07-04T19:49:14.307Z,paymentservice,network_out,39749
2023-07-04T19:49:14.307Z,currencyservice,network_out,1718863
2023-07-04T19:49:14.307Z,shippingservice,network_out,177641
2023-07-04T19:49:14.307Z,cartservice,network_out,831988
2023-07-04T19:49:14.488Z,productcatalogservice,network_out,7876115
2023-07-04T19:49:14.488Z,frontend,network_out,21230440
2023-07-04T19:49:14.488Z,cartservice,network_out,16896
2023-07-04T19:49:14.488Z,checkoutservice,network_out,359382
2023-07-04T19:49:14.488Z,recommendationservice,network_out,947635
2023-07-04T19:49:24.326Z,cartservice,network_out,17151
2023-07-04T19:49:24.307Z,cartservice,network_out,855211
2023-07-04T19:49:24.307Z,currencyservice,network_out,1763396
2023-07-04T19:49:24.326Z,emailservice,network_out,43035
2023-07-04T19:49:24.307Z,cartservice,network_out,16681
2023-07-04T19:49:24.307Z,redis-cart,network_out,1157707
2023-07-04T19:49:24.326Z,adservice,network_out,336468
2023-07-04T19:49:24.307Z,paymentservice,network_out,40922
2023-07-04T19:49:24.307Z,shippingservice,network_out,181940
2023-07-04T19:49:24.488Z,productcatalogservice,network_out,8014280
2023-07-04T19:49:24.488Z,recommendationservice,network_out,971695
2023-07-04T19:49:24.488Z,cartservice,network_out,16896
2023-07-04T19:49:24.488Z,frontend,network_out,21230440
2023-07-04T19:49:24.488Z,checkoutservice,network_out,359382
