2023-07-14T12:24:56.002Z,carts-get,cpu,600411493
2023-07-14T12:25:06.381Z,carts-get,cpu,599433136
2023-07-14T12:25:16.379Z,carts-get,cpu,599433136
2023-07-14T12:25:26.379Z,queue-master,cpu,6535536
2023-07-14T12:25:26.379Z,carts-get,cpu,599379614
2023-07-14T12:25:36.379Z,queue-master,cpu,6535536
2023-07-14T12:25:36.379Z,carts-get,cpu,599379614
2023-07-14T12:25:46.379Z,carts,cpu,304908273
2023-07-14T12:25:56.379Z,carts-get,cpu,10111938
2023-07-14T12:26:06.379Z,carts-get,cpu,68089290
2023-07-14T12:26:06.379Z,carts-get,cpu,3883176
2023-07-14T12:26:16.380Z,queue-master,cpu,4533196
2023-07-14T12:26:16.380Z,carts-get,cpu,5281939
2023-07-14T12:26:26.380Z,queue-master,cpu,4533196
2023-07-14T12:26:26.380Z,carts-get,cpu,5281939
2023-07-14T12:24:56.002Z,carts-get,cpu,598584701
2023-07-14T12:25:46.379Z,queue-master,cpu,3785599
2023-07-14T12:25:46.379Z,carts-get,cpu,16415039
2023-07-14T12:25:56.379Z,carts-get,cpu,73679900
2023-07-14T12:26:16.380Z,carts-get,cpu,5118364
2023-07-14T12:26:16.380Z,carts-get,cpu,3883176
2023-07-14T12:26:16.380Z,carts,cpu,8052104
2023-07-14T12:26:26.380Z,carts-get,cpu,5118364
2023-07-14T12:24:56.002Z,queue-master,cpu,397313703
2023-07-14T12:25:26.379Z,carts,cpu,304908273
2023-07-14T12:25:36.379Z,carts,cpu,304908273
2023-07-14T12:25:46.379Z,carts-get,cpu,487469444
2023-07-14T12:25:46.379Z,carts-get,cpu,251400943
2023-07-14T12:25:56.379Z,carts-get,cpu,68089290
2023-07-14T12:26:06.379Z,carts,cpu,8052104
2023-07-14T12:26:06.379Z,queue-master,cpu,4533196
2023-07-14T12:26:26.380Z,carts,cpu,8052104
2023-07-14T12:25:06.381Z,queue-master,cpu,397313703
2023-07-14T12:25:06.381Z,carts-get,cpu,598040075
2023-07-14T12:25:06.381Z,carts-get,cpu,599193390
2023-07-14T12:25:06.381Z,carts,cpu,599668759
2023-07-14T12:25:16.379Z,queue-master,cpu,397313703
2023-07-14T12:25:16.379Z,carts-get,cpu,598040075
2023-07-14T12:25:16.379Z,carts-get,cpu,599193390
2023-07-14T12:25:16.379Z,carts,cpu,599668759
2023-07-14T12:25:26.379Z,carts-get,cpu,251400943
2023-07-14T12:25:26.379Z,carts-get,cpu,487469444
2023-07-14T12:25:36.379Z,carts-get,cpu,251400943
2023-07-14T12:25:36.379Z,carts-get,cpu,487469444
2023-07-14T12:25:56.379Z,carts,cpu,5015928
2023-07-14T12:25:56.379Z,queue-master,cpu,4760793
2023-07-14T12:26:06.379Z,carts-get,cpu,5868309
2023-07-14T12:26:26.380Z,carts-get,cpu,3883176
2023-07-14T12:25:06.862Z,shipping,cpu,597013125
2023-07-14T12:25:16.856Z,carts-get,cpu,599087438
2023-07-14T12:25:16.856Z,carts-get,cpu,595059315
2023-07-14T12:25:36.853Z,carts-get,cpu,61159258
2023-07-14T12:25:36.853Z,catalogue,cpu,122416
2023-07-14T12:25:46.853Z,carts-get,cpu,7168615
2023-07-14T12:25:46.853Z,carts-get,cpu,61159258
2023-07-14T12:25:56.853Z,carts-get,cpu,7168615
2023-07-14T12:25:56.853Z,catalogue,cpu,81021
2023-07-14T12:26:06.854Z,shipping,cpu,2380776
2023-07-14T12:26:16.853Z,shipping,cpu,2380776
2023-07-14T12:26:26.853Z,shipping,cpu,4420613
2023-07-14T12:26:26.853Z,carts-post,cpu,24279993
2023-07-14T12:24:56.421Z,carts-get,cpu,596039342
2023-07-14T12:25:06.862Z,catalogue,cpu,216332
2023-07-14T12:25:06.862Z,carts-get,cpu,597001185
2023-07-14T12:25:06.862Z,carts-get,cpu,599087438
2023-07-14T12:25:16.856Z,catalogue,cpu,141307
2023-07-14T12:25:16.856Z,shipping,cpu,474983813
2023-07-14T12:25:26.856Z,carts-get,cpu,490714694
2023-07-14T12:25:26.856Z,catalogue,cpu,141307
2023-07-14T12:25:26.856Z,shipping,cpu,474983813
2023-07-14T12:25:36.853Z,shipping,cpu,80295028
2023-07-14T12:25:46.853Z,carts-post,cpu,6372553
2023-07-14T12:25:46.853Z,carts-get,cpu,133877758
2023-07-14T12:25:56.853Z,carts-get,cpu,4848045
2023-07-14T12:26:06.854Z,carts-get,cpu,4001577
2023-07-14T12:26:06.854Z,carts-post,cpu,8813533
2023-07-14T12:26:06.854Z,catalogue,cpu,104837
2023-07-14T12:26:16.853Z,carts-get,cpu,4001577
2023-07-14T12:26:16.853Z,carts-post,cpu,8813533
2023-07-14T12:26:16.853Z,catalogue,cpu,104837
2023-07-14T12:24:56.421Z,carts-get,cpu,598024703
2023-07-14T12:24:56.421Z,catalogue,cpu,124738
2023-07-14T12:24:56.421Z,carts-post,cpu,599489376
2023-07-14T12:25:16.856Z,carts-get,cpu,595761003
2023-07-14T12:25:36.853Z,carts-get,cpu,40484985
2023-07-14T12:25:46.853Z,catalogue,cpu,81021
2023-07-14T12:25:56.853Z,carts-post,cpu,8813533
2023-07-14T12:25:56.853Z,carts-get,cpu,6491528
2023-07-14T12:26:06.854Z,carts-get,cpu,4736808
2023-07-14T12:26:16.853Z,carts-get,cpu,4736808
2023-07-14T12:26:26.853Z,carts-get,cpu,3840734
2023-07-14T12:26:26.853Z,carts-get,cpu,7519776
2023-07-14T12:26:26.853Z,carts-get,cpu,5277391
2023-07-14T12:26:26.853Z,catalogue,cpu,98815
2023-07-14T12:25:06.862Z,carts-post,cpu,599009944
2023-07-14T12:25:06.862Z,carts-get,cpu,598560537
2023-07-14T12:25:16.856Z,carts-post,cpu,587440730
2023-07-14T12:25:26.856Z,carts-get,cpu,376739097
2023-07-14T12:25:26.856Z,carts-get,cpu,595059315
2023-07-14T12:25:26.856Z,carts-post,cpu,587440730
2023-07-14T12:25:36.853Z,carts-get,cpu,133877758
2023-07-14T12:25:36.853Z,carts-post,cpu,6372553
2023-07-14T12:25:46.853Z,shipping,cpu,80295028
2023-07-14T12:25:56.853Z,shipping,cpu,6491047
2023-07-14T12:26:06.854Z,carts-get,cpu,3764776
2023-07-14T12:26:16.853Z,carts-get,cpu,3764776
2023-07-14T12:26:36.379Z,carts-get,cpu,4592973
2023-07-14T12:26:36.379Z,carts-get,cpu,5281939
2023-07-14T12:26:36.379Z,carts,cpu,5195112
2023-07-14T12:26:36.379Z,queue-master,cpu,3783435
2023-07-14T12:26:36.379Z,carts-get,cpu,5229833
2023-07-14T12:26:36.854Z,shipping,cpu,4420613
2023-07-14T12:26:36.854Z,carts-post,cpu,5533668
2023-07-14T12:26:36.854Z,carts-get,cpu,9025436
2023-07-14T12:26:36.854Z,carts-get,cpu,4187898
2023-07-14T12:26:36.854Z,catalogue,cpu,95850
2023-07-14T12:26:36.854Z,carts-get,cpu,7519776
2023-07-14T12:24:56.044Z,carts-delete,cpu,600006644
2023-07-14T12:24:56.044Z,carts-get,cpu,599114880
2023-07-14T12:24:56.044Z,carts-get,cpu,599272462
2023-07-14T12:25:06.576Z,carts-get,cpu,599272462
2023-07-14T12:25:06.576Z,carts-delete,cpu,598246436
2023-07-14T12:25:16.575Z,user-login,cpu,234764
2023-07-14T12:25:26.576Z,payment,cpu,118740
2023-07-14T12:25:26.576Z,carts-get,cpu,599355308
2023-07-14T12:25:36.576Z,carts-get,cpu,7234129
2023-07-14T12:25:36.576Z,user-login,cpu,255729
2023-07-14T12:25:46.576Z,user-register,cpu,172616
2023-07-14T12:25:46.576Z,orders,cpu,599689001
2023-07-14T12:25:46.576Z,user,cpu,113191
2023-07-14T12:25:56.575Z,orders,cpu,3920287
2023-07-14T12:25:56.575Z,user,cpu,192359
2023-07-14T12:25:56.575Z,user-login,cpu,174043
2023-07-14T12:25:56.575Z,payment,cpu,170461
2023-07-14T12:25:56.575Z,user-register,cpu,182155
2023-07-14T12:25:56.575Z,carts-delete,cpu,7752012
2023-07-14T12:25:56.575Z,carts-get,cpu,5436466
2023-07-14T12:25:56.575Z,carts-get,cpu,5738410
2023-07-14T12:26:06.576Z,carts-get,cpu,5734977
2023-07-14T12:26:16.575Z,carts-delete,cpu,7752012
2023-07-14T12:26:26.576Z,orders,cpu,4144838
2023-07-14T12:25:06.576Z,orders,cpu,600689642
2023-07-14T12:25:16.575Z,user,cpu,221295
2023-07-14T12:25:16.575Z,carts-delete,cpu,598246436
2023-07-14T12:25:26.576Z,user,cpu,219899
2023-07-14T12:25:36.576Z,carts-delete,cpu,6567889
2023-07-14T12:25:46.576Z,carts-get,cpu,7234129
2023-07-14T12:25:46.576Z,payment,cpu,68479
2023-07-14T12:26:06.576Z,user-login,cpu,174043
2023-07-14T12:26:06.576Z,carts-delete,cpu,7752012
2023-07-14T12:26:06.576Z,payment,cpu,73982
2023-07-14T12:26:16.575Z,user-login,cpu,174043
2023-07-14T12:26:16.575Z,orders,cpu,4144838
2023-07-14T12:26:26.576Z,carts-get,cpu,5734977
2023-07-14T12:26:26.576Z,user,cpu,230860
2023-07-14T12:26:26.576Z,payment,cpu,73982
2023-07-14T12:26:36.576Z,user-register,cpu,371849
2023-07-14T12:26:36.576Z,carts-delete,cpu,4549138
2023-07-14T12:24:56.044Z,user-register,cpu,151846
2023-07-14T12:24:56.044Z,user,cpu,213110
2023-07-14T12:25:06.576Z,carts-get,cpu,599355308
2023-07-14T12:25:16.575Z,carts-get,cpu,599355308
2023-07-14T12:25:26.576Z,carts-get,cpu,599158365
2023-07-14T12:25:26.576Z,user-login,cpu,332667
2023-07-14T12:25:26.576Z,carts-delete,cpu,598246436
2023-07-14T12:25:36.576Z,user-register,cpu,172616
2023-07-14T12:25:36.576Z,carts-get,cpu,168285059
2023-07-14T12:25:36.576Z,user,cpu,113191
2023-07-14T12:25:46.576Z,user-login,cpu,255729
2023-07-14T12:25:46.576Z,carts-delete,cpu,6567889
2023-07-14T12:26:06.576Z,user-register,cpu,262362
2023-07-14T12:26:06.576Z,orders,cpu,4144838
2023-07-14T12:26:16.575Z,user,cpu,192359
2023-07-14T12:26:16.575Z,user-register,cpu,262362
2023-07-14T12:26:16.575Z,carts-get,cpu,5734977
2023-07-14T12:26:16.575Z,payment,cpu,73982
2023-07-14T12:26:26.576Z,user-login,cpu,266999
2023-07-14T12:26:26.576Z,user-register,cpu,262362
2023-07-14T12:26:36.576Z,orders,cpu,14368951
2023-07-14T12:26:36.576Z,user-login,cpu,252020
2023-07-14T12:26:36.576Z,payment,cpu,104085
2023-07-14T12:26:36.576Z,carts-get,cpu,11906429
2023-07-14T12:26:36.576Z,user,cpu,271898
2023-07-14T12:26:36.576Z,carts-get,cpu,4733535
2023-07-14T12:24:56.044Z,orders,cpu,599835336
2023-07-14T12:24:56.044Z,user-login,cpu,234764
2023-07-14T12:24:56.044Z,payment,cpu,65704
2023-07-14T12:25:06.576Z,payment,cpu,108677
2023-07-14T12:25:06.576Z,user-register,cpu,409582
2023-07-14T12:25:06.576Z,user,cpu,221295
2023-07-14T12:25:06.576Z,user-login,cpu,234764
2023-07-14T12:25:16.575Z,payment,cpu,108677
2023-07-14T12:25:16.575Z,user-register,cpu,409582
2023-07-14T12:25:16.575Z,carts-get,cpu,599272462
2023-07-14T12:25:16.575Z,orders,cpu,600689642
2023-07-14T12:25:26.576Z,orders,cpu,600689642
2023-07-14T12:25:26.576Z,user-register,cpu,409582
2023-07-14T12:25:36.576Z,payment,cpu,68479
2023-07-14T12:25:36.576Z,orders,cpu,599689001
2023-07-14T12:25:46.576Z,carts-get,cpu,168285059
2023-07-14T12:26:06.576Z,user,cpu,192359
2023-07-14T12:26:06.576Z,carts-get,cpu,4791919
2023-07-14T12:26:16.575Z,carts-get,cpu,4791919
2023-07-14T12:26:26.576Z,carts-delete,cpu,5756949
2023-07-14T12:26:26.576Z,carts-get,cpu,4791919
2023-07-14T12:26:46.575Z,user-register,cpu,371849
2023-07-14T12:26:46.575Z,carts-delete,cpu,4549138
2023-07-14T12:26:46.575Z,orders,cpu,14368951
2023-07-14T12:26:46.575Z,user-login,cpu,252020
2023-07-14T12:26:46.575Z,payment,cpu,104085
2023-07-14T12:26:46.575Z,carts-get,cpu,11906429
2023-07-14T12:26:46.575Z,user,cpu,271898
2023-07-14T12:26:46.575Z,carts-get,cpu,4733535
2023-07-14T12:26:46.379Z,carts-get,cpu,4592973
2023-07-14T12:26:46.379Z,carts-get,cpu,5425907
2023-07-14T12:26:46.379Z,queue-master,cpu,3777539
2023-07-14T12:26:46.379Z,carts-get,cpu,3461814
2023-07-14T12:26:46.379Z,carts,cpu,5034377
2023-07-14T12:26:46.854Z,catalogue,cpu,95850
2023-07-14T12:26:46.854Z,carts-get,cpu,12437168
2023-07-14T12:26:46.854Z,shipping,cpu,3208765
2023-07-14T12:26:46.854Z,carts-post,cpu,5533668
2023-07-14T12:26:46.854Z,carts-get,cpu,9025436
2023-07-14T12:26:46.854Z,carts-get,cpu,41022149
2023-07-14T12:26:56.379Z,queue-master,cpu,4768692
2023-07-14T12:26:56.379Z,carts-get,cpu,56893805
2023-07-14T12:26:56.379Z,carts-get,cpu,3519260
2023-07-14T12:26:56.379Z,carts-get,cpu,4169890
2023-07-14T12:26:56.379Z,carts,cpu,59652371
2023-07-14T12:26:56.575Z,carts-delete,cpu,4930942
2023-07-14T12:26:56.575Z,user,cpu,271898
2023-07-14T12:26:56.575Z,user-register,cpu,371849
2023-07-14T12:26:56.575Z,user-login,cpu,252020
2023-07-14T12:26:56.575Z,carts-get,cpu,9233473
2023-07-14T12:26:56.575Z,carts-get,cpu,11906429
2023-07-14T12:26:56.575Z,orders,cpu,10200033
2023-07-14T12:26:56.575Z,payment,cpu,104085
2023-07-14T12:26:56.853Z,carts-get,cpu,12437168
2023-07-14T12:26:56.853Z,carts-post,cpu,5079721
2023-07-14T12:26:56.853Z,carts-get,cpu,3874615
2023-07-14T12:26:56.853Z,carts-get,cpu,12028239
2023-07-14T12:26:56.853Z,shipping,cpu,4525278
2023-07-14T12:26:56.853Z,catalogue,cpu,76957
2023-07-14T12:27:06.379Z,carts-get,cpu,4061365
2023-07-14T12:27:06.379Z,queue-master,cpu,9998564
2023-07-14T12:27:06.379Z,carts-get,cpu,53655424
2023-07-14T12:27:06.379Z,carts,cpu,5907360
2023-07-14T12:27:06.379Z,carts-get,cpu,6016716
2023-07-14T12:27:06.575Z,carts-get,cpu,39999193
2023-07-14T12:27:06.575Z,user,cpu,525556
2023-07-14T12:27:06.575Z,orders,cpu,3810785
2023-07-14T12:27:06.575Z,carts-delete,cpu,3953802
2023-07-14T12:27:06.575Z,user-login,cpu,298302
2023-07-14T12:27:06.575Z,payment,cpu,103266
2023-07-14T12:27:06.575Z,carts-get,cpu,37614195
2023-07-14T12:27:06.575Z,user-register,cpu,278456
2023-07-14T12:27:06.854Z,carts-get,cpu,3874615
2023-07-14T12:27:06.854Z,carts-get,cpu,12028239
2023-07-14T12:27:06.854Z,carts-post,cpu,60544515
2023-07-14T12:27:06.854Z,shipping,cpu,2669622
2023-07-14T12:27:06.854Z,carts-get,cpu,6939403
2023-07-14T12:27:06.854Z,catalogue,cpu,96607
2023-07-14T12:27:16.379Z,queue-master,cpu,9998564
2023-07-14T12:27:16.379Z,carts-get,cpu,53655424
2023-07-14T12:27:16.379Z,carts,cpu,5907360
2023-07-14T12:27:16.379Z,carts-get,cpu,6016716
2023-07-14T12:27:16.379Z,carts-get,cpu,4061365
2023-07-14T12:27:16.575Z,user-login,cpu,298302
2023-07-14T12:27:16.575Z,carts-delete,cpu,62332469
2023-07-14T12:27:16.575Z,orders,cpu,3810785
2023-07-14T12:27:16.575Z,carts-get,cpu,7484583
2023-07-14T12:27:16.575Z,user,cpu,525556
2023-07-14T12:27:16.575Z,payment,cpu,141783
2023-07-14T12:27:16.575Z,carts-get,cpu,7455439
2023-07-14T12:27:16.575Z,user-register,cpu,278456
2023-07-14T12:27:16.853Z,carts-get,cpu,3874615
2023-07-14T12:27:16.853Z,catalogue,cpu,96607
2023-07-14T12:27:16.853Z,shipping,cpu,2669622
2023-07-14T12:27:16.853Z,carts-get,cpu,12028239
2023-07-14T12:27:16.853Z,carts-post,cpu,60544515
2023-07-14T12:27:16.853Z,carts-get,cpu,6939403
2023-07-14T12:27:26.379Z,carts-get,cpu,6016716
2023-07-14T12:27:26.379Z,carts-get,cpu,4994897
2023-07-14T12:27:26.379Z,carts,cpu,5907360
2023-07-14T12:27:26.379Z,queue-master,cpu,9998564
2023-07-14T12:27:26.379Z,carts-get,cpu,4061365
2023-07-14T12:27:26.576Z,user-login,cpu,194526
2023-07-14T12:27:26.576Z,user-register,cpu,202358
2023-07-14T12:27:26.576Z,carts-get,cpu,5400597
2023-07-14T12:27:26.576Z,carts-delete,cpu,2956158
2023-07-14T12:27:26.576Z,payment,cpu,141783
2023-07-14T12:27:26.576Z,user,cpu,125321
2023-07-14T12:27:26.576Z,orders,cpu,9808759
2023-07-14T12:27:26.576Z,carts-get,cpu,7455439
2023-07-14T12:27:26.854Z,carts-post,cpu,6820700
2023-07-14T12:27:26.854Z,carts-get,cpu,4982396
2023-07-14T12:27:26.854Z,catalogue,cpu,148224
2023-07-14T12:27:26.854Z,carts-get,cpu,5590652
2023-07-14T12:27:26.854Z,shipping,cpu,8226858
2023-07-14T12:27:26.854Z,carts-get,cpu,59040239
2023-07-14T12:27:36.380Z,carts-get,cpu,4542095
2023-07-14T12:27:36.380Z,carts,cpu,4202277
2023-07-14T12:27:36.380Z,queue-master,cpu,4463541
2023-07-14T12:27:36.380Z,carts-get,cpu,8280310
2023-07-14T12:27:36.380Z,carts-get,cpu,3287297
2023-07-14T12:27:36.575Z,user-login,cpu,194526
2023-07-14T12:27:36.575Z,user,cpu,125321
2023-07-14T12:27:36.575Z,carts-delete,cpu,2956158
2023-07-14T12:27:36.575Z,carts-get,cpu,5400597
2023-07-14T12:27:36.575Z,user-register,cpu,202358
2023-07-14T12:27:36.575Z,orders,cpu,9808759
2023-07-14T12:27:36.575Z,payment,cpu,141783
2023-07-14T12:27:36.575Z,carts-get,cpu,7455439
2023-07-14T12:27:36.853Z,shipping,cpu,5947251
2023-07-14T12:27:36.853Z,carts-post,cpu,6820700
2023-07-14T12:27:36.853Z,carts-get,cpu,3177651
2023-07-14T12:27:36.853Z,carts-get,cpu,8566963
2023-07-14T12:27:36.853Z,catalogue,cpu,148224
2023-07-14T12:27:36.853Z,carts-get,cpu,59040239
2023-07-14T12:27:46.379Z,carts,cpu,4202277
2023-07-14T12:27:46.379Z,carts-get,cpu,3287297
2023-07-14T12:27:46.379Z,carts-get,cpu,4542095
2023-07-14T12:27:46.379Z,queue-master,cpu,4463541
2023-07-14T12:27:46.379Z,carts-get,cpu,8280310
2023-07-14T12:27:46.575Z,user-register,cpu,295314
2023-07-14T12:27:46.575Z,carts-get,cpu,5400597
2023-07-14T12:27:46.575Z,payment,cpu,90063
2023-07-14T12:27:46.575Z,carts-get,cpu,9141009
2023-07-14T12:27:46.575Z,orders,cpu,6145614
2023-07-14T12:27:46.575Z,user-login,cpu,279319
2023-07-14T12:27:46.575Z,user,cpu,307258
2023-07-14T12:27:46.575Z,carts-delete,cpu,2956158
2023-07-14T12:27:46.853Z,carts-post,cpu,5336878
2023-07-14T12:27:46.853Z,carts-get,cpu,3701461
2023-07-14T12:27:46.853Z,carts-get,cpu,3177651
2023-07-14T12:27:46.853Z,carts-get,cpu,10957007
2023-07-14T12:27:46.853Z,catalogue,cpu,76680
2023-07-14T12:27:46.853Z,shipping,cpu,3451354
2023-07-14T12:27:56.380Z,queue-master,cpu,4463541
2023-07-14T12:27:56.380Z,carts-get,cpu,12113922
2023-07-14T12:27:56.380Z,carts-get,cpu,8280310
2023-07-14T12:27:56.380Z,carts-get,cpu,8024447
2023-07-14T12:27:56.380Z,carts,cpu,4150885
2023-07-14T12:27:56.576Z,payment,cpu,125374
2023-07-14T12:27:56.576Z,user-register,cpu,295314
2023-07-14T12:27:56.576Z,carts-delete,cpu,4875381
2023-07-14T12:27:56.576Z,carts-get,cpu,4654818
2023-07-14T12:27:56.576Z,user,cpu,307258
2023-07-14T12:27:56.576Z,orders,cpu,6145614
2023-07-14T12:27:56.576Z,user-login,cpu,195361
2023-07-14T12:27:56.576Z,carts-get,cpu,2974015
2023-07-14T12:27:56.853Z,carts-post,cpu,5336878
2023-07-14T12:27:56.853Z,carts-get,cpu,10957007
2023-07-14T12:27:56.853Z,shipping,cpu,3451354
2023-07-14T12:27:56.853Z,carts-get,cpu,3701461
2023-07-14T12:27:56.853Z,carts-get,cpu,3177651
2023-07-14T12:27:56.853Z,catalogue,cpu,76680
2023-07-14T12:28:06.379Z,carts-get,cpu,2866513
2023-07-14T12:28:06.379Z,queue-master,cpu,17962098
2023-07-14T12:28:06.379Z,carts-get,cpu,3309005
2023-07-14T12:28:06.379Z,carts,cpu,4150885
2023-07-14T12:28:06.379Z,carts-get,cpu,12113922
2023-07-14T12:28:06.575Z,payment,cpu,115747
2023-07-14T12:28:06.575Z,user-login,cpu,295147
2023-07-14T12:28:06.575Z,carts-get,cpu,4657133
2023-07-14T12:28:06.575Z,carts-get,cpu,39508826
2023-07-14T12:28:06.575Z,user,cpu,304340
2023-07-14T12:28:06.575Z,user-register,cpu,253839
2023-07-14T12:28:06.575Z,orders,cpu,35589836
2023-07-14T12:28:06.575Z,carts-delete,cpu,70418841
2023-07-14T12:28:06.853Z,carts-get,cpu,5247907
2023-07-14T12:28:06.853Z,carts-post,cpu,3707161
2023-07-14T12:28:06.853Z,carts-get,cpu,5342524
2023-07-14T12:28:06.853Z,catalogue,cpu,135292
2023-07-14T12:28:06.853Z,carts-get,cpu,5393015
2023-07-14T12:28:06.853Z,shipping,cpu,3979312
2023-07-14T12:28:16.379Z,carts,cpu,3086759
2023-07-14T12:28:16.379Z,queue-master,cpu,35381794
2023-07-14T12:28:16.379Z,carts-get,cpu,5653223
2023-07-14T12:28:16.379Z,carts-get,cpu,23460617
2023-07-14T12:28:16.379Z,carts-get,cpu,3336014
2023-07-14T12:28:16.576Z,payment,cpu,105023
2023-07-14T12:28:16.576Z,user,cpu,176305
2023-07-14T12:28:16.576Z,user-login,cpu,261736
2023-07-14T12:28:16.576Z,orders,cpu,4294568
2023-07-14T12:28:16.576Z,carts-get,cpu,4657133
2023-07-14T12:28:16.576Z,carts-get,cpu,4882022
2023-07-14T12:28:16.576Z,carts-delete,cpu,3796673
2023-07-14T12:28:16.576Z,user-register,cpu,253839
2023-07-14T12:28:16.854Z,carts-get,cpu,9572877
2023-07-14T12:28:16.854Z,shipping,cpu,3979312
2023-07-14T12:28:16.854Z,catalogue,cpu,113868
2023-07-14T12:28:16.854Z,carts-get,cpu,10375753
2023-07-14T12:28:16.854Z,carts-post,cpu,3960452
2023-07-14T12:28:16.854Z,carts-get,cpu,11444133
2023-07-14T12:28:26.380Z,carts-get,cpu,4621113
2023-07-14T12:28:26.380Z,carts-get,cpu,4432351
2023-07-14T12:28:26.380Z,queue-master,cpu,3669122
2023-07-14T12:28:26.380Z,carts,cpu,3086759
2023-07-14T12:28:26.380Z,carts-get,cpu,3336014
2023-07-14T12:28:26.576Z,carts-delete,cpu,72118253
2023-07-14T12:28:26.576Z,carts-get,cpu,2929840
2023-07-14T12:28:26.576Z,orders,cpu,4294568
2023-07-14T12:28:26.576Z,payment,cpu,172817
2023-07-14T12:28:26.576Z,user-register,cpu,197539
2023-07-14T12:28:26.576Z,user-login,cpu,261736
2023-07-14T12:28:26.576Z,user,cpu,176305
2023-07-14T12:28:26.576Z,carts-get,cpu,23592721
2023-07-14T12:28:26.853Z,carts-get,cpu,3011067
2023-07-14T12:28:26.853Z,carts-post,cpu,3960452
2023-07-14T12:28:26.853Z,carts-get,cpu,5873291
2023-07-14T12:28:26.853Z,catalogue,cpu,113868
2023-07-14T12:28:26.853Z,shipping,cpu,4045588
2023-07-14T12:28:26.853Z,carts-get,cpu,4039423
2023-07-14T12:28:36.379Z,carts,cpu,3086759
2023-07-14T12:28:36.379Z,queue-master,cpu,3669122
2023-07-14T12:28:36.379Z,carts-get,cpu,3336014
2023-07-14T12:28:36.379Z,carts-get,cpu,4621113
2023-07-14T12:28:36.379Z,carts-get,cpu,4432351
2023-07-14T12:28:36.576Z,user-register,cpu,197539
2023-07-14T12:28:36.576Z,user-login,cpu,186046
2023-07-14T12:28:36.576Z,orders,cpu,6476150
2023-07-14T12:28:36.576Z,user,cpu,181651
2023-07-14T12:28:36.576Z,payment,cpu,172817
2023-07-14T12:28:36.576Z,carts-get,cpu,4665057
2023-07-14T12:28:36.576Z,carts-get,cpu,4077702
2023-07-14T12:28:36.576Z,carts-delete,cpu,72118253
2023-07-14T12:28:36.853Z,carts-get,cpu,3011067
2023-07-14T12:28:36.853Z,shipping,cpu,4045588
2023-07-14T12:28:36.853Z,carts-get,cpu,4039423
2023-07-14T12:28:36.853Z,carts-post,cpu,3960452
2023-07-14T12:28:36.853Z,carts-get,cpu,5873291
2023-07-14T12:28:36.853Z,catalogue,cpu,113868
2023-07-14T12:28:46.379Z,carts,cpu,5016387
2023-07-14T12:28:46.379Z,carts-get,cpu,4432351
2023-07-14T12:28:46.379Z,carts-get,cpu,10035289
2023-07-14T12:28:46.379Z,carts-get,cpu,3950474
2023-07-14T12:28:46.379Z,queue-master,cpu,3781825
2023-07-14T12:28:46.576Z,carts-delete,cpu,72118253
2023-07-14T12:28:46.576Z,user-login,cpu,186046
2023-07-14T12:28:46.576Z,orders,cpu,6476150
2023-07-14T12:28:46.576Z,user,cpu,181651
2023-07-14T12:28:46.576Z,carts-get,cpu,4665057
2023-07-14T12:28:46.576Z,carts-get,cpu,4077702
2023-07-14T12:28:46.576Z,user-register,cpu,197539
2023-07-14T12:28:46.576Z,payment,cpu,172817
2023-07-14T12:28:46.853Z,carts-get,cpu,5374837
2023-07-14T12:28:46.853Z,carts-post,cpu,6411115
2023-07-14T12:28:46.853Z,catalogue,cpu,165348
2023-07-14T12:28:46.853Z,carts-get,cpu,5022040
2023-07-14T12:28:46.853Z,carts-get,cpu,3276778
2023-07-14T12:28:46.853Z,shipping,cpu,3336977
2023-07-14T12:28:56.379Z,carts,cpu,4725059
2023-07-14T12:28:56.379Z,carts-get,cpu,4189259
2023-07-14T12:28:56.379Z,carts-get,cpu,4389935
2023-07-14T12:28:56.379Z,queue-master,cpu,3255584
2023-07-14T12:28:56.379Z,carts-get,cpu,2918159
2023-07-14T12:28:56.575Z,payment,cpu,124717
2023-07-14T12:28:56.575Z,carts-get,cpu,4077702
2023-07-14T12:28:56.575Z,orders,cpu,6476150
2023-07-14T12:28:56.575Z,carts-delete,cpu,2766606
2023-07-14T12:28:56.575Z,user-register,cpu,291646
2023-07-14T12:28:56.575Z,user-login,cpu,259716
2023-07-14T12:28:56.575Z,user,cpu,326123
2023-07-14T12:28:56.575Z,carts-get,cpu,4665057
2023-07-14T12:28:56.853Z,shipping,cpu,3191203
2023-07-14T12:28:56.853Z,carts-get,cpu,5022040
2023-07-14T12:28:56.853Z,catalogue,cpu,127870
2023-07-14T12:28:56.853Z,carts-get,cpu,5374837
2023-07-14T12:28:56.853Z,carts-get,cpu,3276778
2023-07-14T12:28:56.853Z,carts-post,cpu,3257025
2023-07-14T12:29:06.379Z,carts-get,cpu,54512560
2023-07-14T12:29:06.379Z,carts,cpu,3368617
2023-07-14T12:29:06.379Z,queue-master,cpu,3255584
2023-07-14T12:29:06.379Z,carts-get,cpu,3777774
2023-07-14T12:29:06.379Z,carts-get,cpu,5083091
2023-07-14T12:29:06.575Z,user-login,cpu,330789
2023-07-14T12:29:06.575Z,user-register,cpu,183222
2023-07-14T12:29:06.575Z,carts-get,cpu,2827955
2023-07-14T12:29:06.575Z,user,cpu,156971
2023-07-14T12:29:06.575Z,carts-get,cpu,5153149
2023-07-14T12:29:06.575Z,payment,cpu,108178
2023-07-14T12:29:06.575Z,orders,cpu,5126173
2023-07-14T12:29:06.575Z,carts-delete,cpu,69515989
2023-07-14T12:29:06.854Z,carts-get,cpu,4166135
2023-07-14T12:29:06.854Z,carts-get,cpu,6451179
2023-07-14T12:29:06.854Z,catalogue,cpu,127870
2023-07-14T12:29:06.854Z,shipping,cpu,3191203
2023-07-14T12:29:06.854Z,carts-get,cpu,4294188
2023-07-14T12:29:06.854Z,carts-post,cpu,3257025
2023-07-14T12:29:16.379Z,carts-get,cpu,4312408
2023-07-14T12:29:16.379Z,carts-get,cpu,3922245
2023-07-14T12:29:16.379Z,queue-master,cpu,4328738
2023-07-14T12:29:16.379Z,carts,cpu,3368617
2023-07-14T12:29:16.379Z,carts-get,cpu,5078753
2023-07-14T12:29:16.576Z,carts-delete,cpu,4849204
2023-07-14T12:29:16.576Z,user-login,cpu,172532
2023-07-14T12:29:16.576Z,orders,cpu,5126173
2023-07-14T12:29:16.576Z,user-register,cpu,270389
2023-07-14T12:29:16.576Z,user,cpu,362555
2023-07-14T12:29:16.576Z,carts-get,cpu,3916436
2023-07-14T12:29:16.576Z,carts-get,cpu,5153149
2023-07-14T12:29:16.576Z,payment,cpu,119604
2023-07-14T12:29:16.853Z,shipping,cpu,45262870
2023-07-14T12:29:16.853Z,catalogue,cpu,77551
2023-07-14T12:29:16.853Z,carts-get,cpu,3589743
2023-07-14T12:29:16.853Z,carts-get,cpu,3475195
2023-07-14T12:29:16.853Z,carts-get,cpu,3162135
2023-07-14T12:29:16.853Z,carts-post,cpu,4616803
2023-07-14T12:29:26.380Z,queue-master,cpu,4328738
2023-07-14T12:29:26.380Z,carts-get,cpu,4312408
2023-07-14T12:29:26.380Z,carts-get,cpu,3922245
2023-07-14T12:29:26.380Z,carts-get,cpu,5078753
2023-07-14T12:29:26.380Z,carts,cpu,5857679
2023-07-14T12:29:26.576Z,orders,cpu,4053499
2023-07-14T12:29:26.576Z,user-register,cpu,195741
2023-07-14T12:29:26.576Z,carts-get,cpu,2978388
2023-07-14T12:29:26.576Z,user-login,cpu,157815
2023-07-14T12:29:26.576Z,user,cpu,362555
2023-07-14T12:29:26.576Z,payment,cpu,99379
2023-07-14T12:29:26.576Z,carts-get,cpu,7911114
2023-07-14T12:29:26.576Z,carts-delete,cpu,4849204
2023-07-14T12:29:26.853Z,carts-get,cpu,5494895
2023-07-14T12:29:26.853Z,catalogue,cpu,77551
2023-07-14T12:29:26.853Z,carts-get,cpu,4281925
2023-07-14T12:29:26.853Z,carts-get,cpu,3475195
2023-07-14T12:29:26.853Z,shipping,cpu,4351115
2023-07-14T12:29:26.853Z,carts-post,cpu,3811993
2023-07-14T12:29:36.379Z,carts-get,cpu,5078753
2023-07-14T12:29:36.379Z,carts-get,cpu,4312408
2023-07-14T12:29:36.379Z,carts-get,cpu,3922245
2023-07-14T12:29:36.379Z,queue-master,cpu,4328738
2023-07-14T12:29:36.379Z,carts,cpu,5857679
2023-07-14T12:29:36.575Z,user-register,cpu,195741
2023-07-14T12:29:36.575Z,orders,cpu,4053499
2023-07-14T12:29:36.575Z,user-login,cpu,157815
2023-07-14T12:29:36.575Z,user,cpu,362555
2023-07-14T12:29:36.575Z,carts-get,cpu,2978388
2023-07-14T12:29:36.575Z,payment,cpu,99379
2023-07-14T12:29:36.575Z,carts-get,cpu,7911114
2023-07-14T12:29:36.575Z,carts-delete,cpu,4849204
2023-07-14T12:29:36.853Z,carts-get,cpu,5494895
2023-07-14T12:29:36.853Z,carts-post,cpu,3811993
2023-07-14T12:29:36.853Z,catalogue,cpu,77551
2023-07-14T12:29:36.853Z,carts-get,cpu,4281925
2023-07-14T12:29:36.853Z,carts-get,cpu,3475195
2023-07-14T12:29:36.853Z,shipping,cpu,4351115
2023-07-14T12:29:46.379Z,carts,cpu,3528563
2023-07-14T12:29:46.379Z,carts-get,cpu,4059414
2023-07-14T12:29:46.379Z,carts-get,cpu,4847550
2023-07-14T12:29:46.379Z,carts-get,cpu,4294383
2023-07-14T12:29:46.379Z,queue-master,cpu,2381947
2023-07-14T12:29:46.576Z,carts-delete,cpu,3993141
2023-07-14T12:29:46.576Z,payment,cpu,99379
2023-07-14T12:29:46.576Z,user,cpu,213780
2023-07-14T12:29:46.576Z,user-register,cpu,195741
2023-07-14T12:29:46.576Z,carts-get,cpu,3568226
2023-07-14T12:29:46.576Z,carts-get,cpu,2978388
2023-07-14T12:29:46.576Z,user-login,cpu,157815
2023-07-14T12:29:46.576Z,orders,cpu,2647436
2023-07-14T12:29:46.853Z,carts-post,cpu,4237716
2023-07-14T12:29:46.853Z,catalogue,cpu,132547
2023-07-14T12:29:46.853Z,carts-get,cpu,37242172
2023-07-14T12:29:46.853Z,carts-get,cpu,5996500
2023-07-14T12:29:46.853Z,carts-get,cpu,3410937
2023-07-14T12:29:46.853Z,shipping,cpu,2616579
2023-07-14T12:29:56.380Z,carts-get,cpu,2949992
2023-07-14T12:29:56.380Z,carts,cpu,5273351
2023-07-14T12:29:56.380Z,queue-master,cpu,16641225
2023-07-14T12:29:56.380Z,carts-get,cpu,4294383
2023-07-14T12:29:56.380Z,carts-get,cpu,3018964
2023-07-14T12:29:56.576Z,carts-get,cpu,3568226
2023-07-14T12:29:56.576Z,user,cpu,253391
2023-07-14T12:29:56.576Z,orders,cpu,2647436
2023-07-14T12:29:56.576Z,user-login,cpu,230450
2023-07-14T12:29:56.576Z,carts-delete,cpu,2997486
2023-07-14T12:29:56.576Z,payment,cpu,88458
2023-07-14T12:29:56.576Z,user-register,cpu,225203
2023-07-14T12:29:56.576Z,carts-get,cpu,5026313
2023-07-14T12:29:56.854Z,shipping,cpu,4394560
2023-07-14T12:29:56.854Z,catalogue,cpu,132547
2023-07-14T12:29:56.854Z,carts-get,cpu,3233569
2023-07-14T12:29:56.854Z,carts-get,cpu,37242172
2023-07-14T12:29:56.854Z,carts-post,cpu,4591488
2023-07-14T12:29:56.854Z,carts-get,cpu,2961765
2023-07-14T12:30:06.379Z,queue-master,cpu,3386999
2023-07-14T12:30:06.379Z,carts-get,cpu,4354144
2023-07-14T12:30:06.379Z,carts-get,cpu,3362722
2023-07-14T12:30:06.379Z,carts-get,cpu,3018964
2023-07-14T12:30:06.379Z,carts,cpu,5273351
2023-07-14T12:30:06.576Z,carts-get,cpu,2947480
2023-07-14T12:30:06.576Z,carts-delete,cpu,10334131
2023-07-14T12:30:06.576Z,user-register,cpu,227176
2023-07-14T12:30:06.576Z,payment,cpu,118270
2023-07-14T12:30:06.576Z,user-login,cpu,202293
2023-07-14T12:30:06.576Z,user,cpu,174317
2023-07-14T12:30:06.576Z,orders,cpu,3794119
2023-07-14T12:30:06.576Z,carts-get,cpu,5035934
2023-07-14T12:30:06.853Z,carts-get,cpu,3233569
2023-07-14T12:30:06.853Z,carts-get,cpu,2961765
2023-07-14T12:30:06.853Z,carts-get,cpu,3991950
2023-07-14T12:30:06.853Z,shipping,cpu,4394560
2023-07-14T12:30:06.853Z,carts-post,cpu,4219400
2023-07-14T12:30:06.853Z,catalogue,cpu,86483
2023-07-14T12:30:16.379Z,carts-get,cpu,10252650
2023-07-14T12:30:16.379Z,carts-get,cpu,3465176
2023-07-14T12:30:16.379Z,queue-master,cpu,2688078
2023-07-14T12:30:16.379Z,carts,cpu,11496963
2023-07-14T12:30:16.379Z,carts-get,cpu,4325680
2023-07-14T12:30:16.576Z,user,cpu,174317
2023-07-14T12:30:16.576Z,user-login,cpu,296556
2023-07-14T12:30:16.576Z,carts-get,cpu,5035934
2023-07-14T12:30:16.576Z,carts-delete,cpu,10334131
2023-07-14T12:30:16.576Z,orders,cpu,3132044
2023-07-14T12:30:16.576Z,carts-get,cpu,2813273
2023-07-14T12:30:16.576Z,user-register,cpu,324256
2023-07-14T12:30:16.576Z,payment,cpu,126940
2023-07-14T12:30:16.853Z,catalogue,cpu,86483
2023-07-14T12:30:16.853Z,carts-get,cpu,3991950
2023-07-14T12:30:16.853Z,shipping,cpu,2594810
2023-07-14T12:30:16.853Z,carts-get,cpu,12723592
2023-07-14T12:30:16.853Z,carts-get,cpu,5595480
2023-07-14T12:30:16.853Z,carts-post,cpu,4486647
2023-07-14T12:30:26.380Z,carts-get,cpu,3465176
2023-07-14T12:30:26.380Z,queue-master,cpu,44878998
2023-07-14T12:30:26.380Z,carts-get,cpu,3156333
2023-07-14T12:30:26.380Z,carts,cpu,11841732
2023-07-14T12:30:26.380Z,carts-get,cpu,4329477
2023-07-14T12:30:26.575Z,carts-delete,cpu,10334131
2023-07-14T12:30:26.575Z,user-login,cpu,296556
2023-07-14T12:30:26.575Z,user-register,cpu,324256
2023-07-14T12:30:26.575Z,user,cpu,174317
2023-07-14T12:30:26.575Z,payment,cpu,126940
2023-07-14T12:30:26.575Z,orders,cpu,3132044
2023-07-14T12:30:26.575Z,carts-get,cpu,2813273
2023-07-14T12:30:26.575Z,carts-get,cpu,5035934
2023-07-14T12:30:26.854Z,carts-post,cpu,4486647
2023-07-14T12:30:26.854Z,shipping,cpu,5563663
2023-07-14T12:30:26.854Z,carts-get,cpu,9633333
2023-07-14T12:30:26.854Z,carts-get,cpu,3530068
2023-07-14T12:30:26.854Z,carts-get,cpu,7087490
2023-07-14T12:30:26.854Z,catalogue,cpu,116634
2023-07-14T12:30:36.379Z,queue-master,cpu,44878998
2023-07-14T12:30:36.379Z,carts,cpu,11841732
2023-07-14T12:30:36.379Z,carts-get,cpu,3156333
2023-07-14T12:30:36.379Z,carts-get,cpu,4329477
2023-07-14T12:30:36.379Z,carts-get,cpu,3465176
2023-07-14T12:30:36.575Z,carts-get,cpu,4465484
2023-07-14T12:30:36.575Z,carts-delete,cpu,3186686
2023-07-14T12:30:36.575Z,user-register,cpu,324256
2023-07-14T12:30:36.575Z,user,cpu,248292
2023-07-14T12:30:36.575Z,user-login,cpu,181582
2023-07-14T12:30:36.575Z,orders,cpu,4597161
2023-07-14T12:30:36.575Z,payment,cpu,126940
2023-07-14T12:30:36.575Z,carts-get,cpu,2813273
2023-07-14T12:30:36.854Z,catalogue,cpu,119800
2023-07-14T12:30:36.854Z,shipping,cpu,2722137
2023-07-14T12:30:36.854Z,carts-get,cpu,3516272
2023-07-14T12:30:36.854Z,carts-get,cpu,2895542
2023-07-14T12:30:36.854Z,carts-post,cpu,3736713
2023-07-14T12:30:36.854Z,carts-get,cpu,9633333
2023-07-14T12:30:46.379Z,carts-get,cpu,3156333
2023-07-14T12:30:46.379Z,carts,cpu,3097098
2023-07-14T12:30:46.379Z,carts-get,cpu,7260107
2023-07-14T12:30:46.379Z,queue-master,cpu,44878998
2023-07-14T12:30:46.379Z,carts-get,cpu,4444002
2023-07-14T12:30:46.576Z,carts-get,cpu,3527494
2023-07-14T12:30:46.576Z,carts-get,cpu,2994436
2023-07-14T12:30:46.576Z,user-login,cpu,224838
2023-07-14T12:30:46.576Z,user-register,cpu,275087
2023-07-14T12:30:46.576Z,user,cpu,248311
2023-07-14T12:30:46.576Z,carts-delete,cpu,3786219
2023-07-14T12:30:46.576Z,payment,cpu,144897
2023-07-14T12:30:46.576Z,orders,cpu,5093084
2023-07-14T12:30:46.854Z,carts-get,cpu,3235229
2023-07-14T12:30:46.854Z,carts-get,cpu,2895542
2023-07-14T12:30:46.854Z,carts-post,cpu,3736713
2023-07-14T12:30:46.854Z,carts-get,cpu,3614306
2023-07-14T12:30:46.854Z,shipping,cpu,3404648
2023-07-14T12:30:46.854Z,catalogue,cpu,119800
2023-07-14T12:30:56.380Z,carts-get,cpu,2903629
2023-07-14T12:30:56.380Z,carts-get,cpu,2842805
2023-07-14T12:30:56.380Z,queue-master,cpu,2874767
2023-07-14T12:30:56.380Z,carts,cpu,4882977
2023-07-14T12:30:56.380Z,carts-get,cpu,5716559
2023-07-14T12:30:56.575Z,user-register,cpu,275087
2023-07-14T12:30:56.575Z,carts-get,cpu,2994436
2023-07-14T12:30:56.575Z,payment,cpu,144897
2023-07-14T12:30:56.575Z,orders,cpu,5093084
2023-07-14T12:30:56.575Z,carts-delete,cpu,3786219
2023-07-14T12:30:56.575Z,user-login,cpu,224838
2023-07-14T12:30:56.575Z,user,cpu,248311
2023-07-14T12:30:56.575Z,carts-get,cpu,3527494
2023-07-14T12:30:56.853Z,carts-get,cpu,3235229
2023-07-14T12:30:56.853Z,carts-get,cpu,2895542
2023-07-14T12:30:56.853Z,carts-post,cpu,3736713
2023-07-14T12:30:56.853Z,carts-get,cpu,3614306
2023-07-14T12:30:56.853Z,shipping,cpu,3404648
2023-07-14T12:30:56.853Z,catalogue,cpu,119800
2023-07-14T12:31:06.379Z,carts,cpu,4882977
2023-07-14T12:31:06.379Z,carts-get,cpu,5716559
2023-07-14T12:31:06.379Z,queue-master,cpu,2874767
2023-07-14T12:31:06.379Z,carts-get,cpu,2842805
2023-07-14T12:31:06.379Z,carts-get,cpu,2903629
2023-07-14T12:31:06.575Z,user-register,cpu,204107
2023-07-14T12:31:06.575Z,user-login,cpu,224838
2023-07-14T12:31:06.575Z,carts-delete,cpu,5137696
2023-07-14T12:31:06.575Z,carts-get,cpu,2994436
2023-07-14T12:31:06.575Z,user,cpu,195328
2023-07-14T12:31:06.575Z,orders,cpu,6653854
2023-07-14T12:31:06.575Z,payment,cpu,144897
2023-07-14T12:31:06.575Z,carts-get,cpu,4443403
2023-07-14T12:31:06.854Z,carts-get,cpu,8672233
2023-07-14T12:31:06.854Z,carts-get,cpu,4120635
2023-07-14T12:31:06.854Z,catalogue,cpu,82699
2023-07-14T12:31:06.854Z,carts-post,cpu,6113621
2023-07-14T12:31:06.854Z,shipping,cpu,11640070
2023-07-14T12:31:06.854Z,carts-get,cpu,7164667
2023-07-14T12:31:16.379Z,carts-get,cpu,2903629
2023-07-14T12:31:16.379Z,carts-get,cpu,2761028
2023-07-14T12:31:16.379Z,carts-get,cpu,2842805
2023-07-14T12:31:16.379Z,queue-master,cpu,2874767
2023-07-14T12:31:16.379Z,carts,cpu,2524887
2023-07-14T12:31:16.575Z,carts-delete,cpu,6513549
2023-07-14T12:31:16.575Z,user,cpu,266851
2023-07-14T12:31:16.575Z,carts-get,cpu,4101025
2023-07-14T12:31:16.575Z,orders,cpu,5384090
2023-07-14T12:31:16.575Z,carts-get,cpu,5617796
2023-07-14T12:31:16.575Z,payment,cpu,115535
2023-07-14T12:31:16.575Z,user-register,cpu,229500
2023-07-14T12:31:16.575Z,user-login,cpu,186382
2023-07-14T12:31:16.853Z,carts-get,cpu,36385997
2023-07-14T12:31:16.853Z,shipping,cpu,11640070
2023-07-14T12:31:16.853Z,carts-get,cpu,2906451
2023-07-14T12:31:16.853Z,carts-post,cpu,6113621
2023-07-14T12:31:16.853Z,catalogue,cpu,114072
2023-07-14T12:31:16.853Z,carts-get,cpu,8672233
2023-07-14T12:31:26.379Z,carts,cpu,5778534
2023-07-14T12:31:26.379Z,carts-get,cpu,4642658
2023-07-14T12:31:26.379Z,queue-master,cpu,3348624
2023-07-14T12:31:26.379Z,carts-get,cpu,7199353
2023-07-14T12:31:26.379Z,carts-get,cpu,3074177
2023-07-14T12:31:26.575Z,payment,cpu,73753
2023-07-14T12:31:26.575Z,user,cpu,164580
2023-07-14T12:31:26.575Z,user-register,cpu,229500
2023-07-14T12:31:26.575Z,orders,cpu,8079374
2023-07-14T12:31:26.575Z,carts-delete,cpu,1985417
2023-07-14T12:31:26.575Z,user-login,cpu,238806
2023-07-14T12:31:26.575Z,carts-get,cpu,5617796
2023-07-14T12:31:26.575Z,carts-get,cpu,7751015
2023-07-14T12:31:26.853Z,carts-get,cpu,36385997
2023-07-14T12:31:26.853Z,shipping,cpu,11640070
2023-07-14T12:31:26.853Z,carts-get,cpu,2906451
2023-07-14T12:31:26.853Z,carts-post,cpu,6113621
2023-07-14T12:31:26.853Z,catalogue,cpu,114072
2023-07-14T12:31:26.853Z,carts-get,cpu,8672233
2023-07-14T12:31:36.379Z,queue-master,cpu,5729756
2023-07-14T12:31:36.379Z,carts-get,cpu,4642658
2023-07-14T12:31:36.379Z,carts,cpu,5724505
2023-07-14T12:31:36.379Z,carts-get,cpu,3074177
2023-07-14T12:31:36.379Z,carts-get,cpu,3559267
2023-07-14T12:31:36.575Z,payment,cpu,73753
2023-07-14T12:31:36.575Z,user,cpu,164580
2023-07-14T12:31:36.575Z,carts-get,cpu,5617796
2023-07-14T12:31:36.575Z,user-register,cpu,229500
2023-07-14T12:31:36.575Z,carts-delete,cpu,1985417
2023-07-14T12:31:36.575Z,user-login,cpu,238806
2023-07-14T12:31:36.575Z,carts-get,cpu,7751015
2023-07-14T12:31:36.575Z,orders,cpu,8079374
2023-07-14T12:31:36.853Z,shipping,cpu,2299590
2023-07-14T12:31:36.853Z,carts-get,cpu,3620241
2023-07-14T12:31:36.853Z,carts-get,cpu,7950963
2023-07-14T12:31:36.853Z,catalogue,cpu,138985
2023-07-14T12:31:36.853Z,carts-post,cpu,3969303
2023-07-14T12:31:36.853Z,carts-get,cpu,2158459
2023-07-14T12:31:46.379Z,carts-get,cpu,3074177
2023-07-14T12:31:46.379Z,carts-get,cpu,3559267
2023-07-14T12:31:46.379Z,carts,cpu,5724505
2023-07-14T12:31:46.379Z,queue-master,cpu,5729756
2023-07-14T12:31:46.379Z,carts-get,cpu,4642658
2023-07-14T12:31:46.575Z,carts-get,cpu,3680338
2023-07-14T12:31:46.575Z,user-register,cpu,208412
2023-07-14T12:31:46.575Z,carts-delete,cpu,5223582
2023-07-14T12:31:46.575Z,orders,cpu,8079374
2023-07-14T12:31:46.575Z,user-login,cpu,258006
2023-07-14T12:31:46.575Z,carts-get,cpu,34176737
2023-07-14T12:31:46.575Z,user,cpu,215232
2023-07-14T12:31:46.575Z,payment,cpu,157459
2023-07-14T12:31:46.854Z,carts-get,cpu,2939541
2023-07-14T12:31:46.854Z,carts-post,cpu,3969303
2023-07-14T12:31:46.854Z,carts-get,cpu,3604428
2023-07-14T12:31:46.854Z,shipping,cpu,53466841
2023-07-14T12:31:46.854Z,carts-get,cpu,4175344
2023-07-14T12:31:46.854Z,catalogue,cpu,121742
2023-07-14T12:31:56.380Z,queue-master,cpu,4432061
2023-07-14T12:31:56.380Z,carts-get,cpu,3559267
2023-07-14T12:31:56.380Z,carts-get,cpu,3104111
2023-07-14T12:31:56.380Z,carts,cpu,5724505
2023-07-14T12:31:56.380Z,carts-get,cpu,3234616
2023-07-14T12:31:56.575Z,payment,cpu,157459
2023-07-14T12:31:56.575Z,user,cpu,251876
2023-07-14T12:31:56.575Z,carts-delete,cpu,5223582
2023-07-14T12:31:56.575Z,carts-get,cpu,3680338
2023-07-14T12:31:56.575Z,carts-get,cpu,6944946
2023-07-14T12:31:56.575Z,orders,cpu,3529962
2023-07-14T12:31:56.575Z,user-login,cpu,258006
2023-07-14T12:31:56.575Z,user-register,cpu,208412
2023-07-14T12:31:56.853Z,catalogue,cpu,95996
2023-07-14T12:31:56.853Z,carts-post,cpu,3363651
2023-07-14T12:31:56.853Z,carts-get,cpu,4175344
2023-07-14T12:31:56.853Z,carts-get,cpu,2939541
2023-07-14T12:31:56.853Z,carts-get,cpu,2743002
2023-07-14T12:31:56.853Z,shipping,cpu,53466841
2023-07-14T12:32:06.379Z,queue-master,cpu,2512769
2023-07-14T12:32:06.379Z,carts-get,cpu,4056498
2023-07-14T12:32:06.379Z,carts,cpu,7044982
2023-07-14T12:32:06.379Z,carts-get,cpu,4235196
2023-07-14T12:32:06.379Z,carts-get,cpu,2887511
2023-07-14T12:32:06.575Z,carts-delete,cpu,3836341
2023-07-14T12:32:06.575Z,user-login,cpu,189913
2023-07-14T12:32:06.575Z,carts-get,cpu,6691824
2023-07-14T12:32:06.575Z,user-register,cpu,153763
2023-07-14T12:32:06.575Z,orders,cpu,6895489
2023-07-14T12:32:06.575Z,payment,cpu,188036
2023-07-14T12:32:06.575Z,carts-get,cpu,2253164
2023-07-14T12:32:06.575Z,user,cpu,200361
2023-07-14T12:32:06.853Z,shipping,cpu,2295763
2023-07-14T12:32:06.853Z,catalogue,cpu,95996
2023-07-14T12:32:06.853Z,carts-get,cpu,2743002
2023-07-14T12:32:06.853Z,carts-get,cpu,2833724
2023-07-14T12:32:06.853Z,carts-post,cpu,5699568
2023-07-14T12:32:06.853Z,carts-get,cpu,3792171
2023-07-14T12:32:16.379Z,carts-get,cpu,3937813
2023-07-14T12:32:16.379Z,carts,cpu,3911374
2023-07-14T12:32:16.379Z,carts-get,cpu,4056498
2023-07-14T12:32:16.379Z,carts-get,cpu,4843316
2023-07-14T12:32:16.379Z,queue-master,cpu,34184691
2023-07-14T12:32:16.575Z,carts-get,cpu,6691824
2023-07-14T12:32:16.575Z,carts-delete,cpu,3836341
2023-07-14T12:32:16.575Z,payment,cpu,188036
2023-07-14T12:32:16.575Z,user,cpu,200361
2023-07-14T12:32:16.575Z,user-register,cpu,153763
2023-07-14T12:32:16.575Z,user-login,cpu,189913
2023-07-14T12:32:16.575Z,orders,cpu,6895489
2023-07-14T12:32:16.575Z,carts-get,cpu,2253164
2023-07-14T12:32:16.853Z,catalogue,cpu,95996
2023-07-14T12:32:16.853Z,carts-get,cpu,2743002
2023-07-14T12:32:16.853Z,carts-post,cpu,5699568
2023-07-14T12:32:16.853Z,carts-get,cpu,3792171
2023-07-14T12:32:16.853Z,shipping,cpu,2295763
2023-07-14T12:32:16.853Z,carts-get,cpu,2833724
2023-07-14T12:32:26.380Z,carts-get,cpu,3489041
2023-07-14T12:32:26.380Z,carts-get,cpu,6812775
2023-07-14T12:32:26.380Z,queue-master,cpu,34184691
2023-07-14T12:32:26.380Z,carts,cpu,3911374
2023-07-14T12:32:26.380Z,carts-get,cpu,8161101
2023-07-14T12:32:26.575Z,carts-delete,cpu,3633374
2023-07-14T12:32:26.575Z,payment,cpu,82232
2023-07-14T12:32:26.575Z,carts-get,cpu,6140120
2023-07-14T12:32:26.575Z,carts-get,cpu,16586899
2023-07-14T12:32:26.575Z,user,cpu,245175
2023-07-14T12:32:26.575Z,user-login,cpu,261809
2023-07-14T12:32:26.575Z,user-register,cpu,311344
2023-07-14T12:32:26.575Z,orders,cpu,3936005
2023-07-14T12:32:26.853Z,carts-get,cpu,2440725
2023-07-14T12:32:26.853Z,shipping,cpu,5233191
2023-07-14T12:32:26.853Z,catalogue,cpu,75240
2023-07-14T12:32:26.853Z,carts-get,cpu,2870947
2023-07-14T12:32:26.853Z,carts-get,cpu,6814559
2023-07-14T12:32:26.853Z,carts-post,cpu,7059917
2023-07-14T12:32:36.379Z,carts-get,cpu,3489041
2023-07-14T12:32:36.379Z,carts-get,cpu,6812775
2023-07-14T12:32:36.379Z,carts-get,cpu,8161101
2023-07-14T12:32:36.379Z,carts,cpu,3911374
2023-07-14T12:32:36.379Z,queue-master,cpu,34184691
2023-07-14T12:32:36.575Z,carts-get,cpu,6140120
2023-07-14T12:32:36.575Z,user,cpu,242576
2023-07-14T12:32:36.575Z,orders,cpu,2678419
2023-07-14T12:32:36.575Z,carts-get,cpu,16586899
2023-07-14T12:32:36.575Z,user-login,cpu,189769
2023-07-14T12:32:36.575Z,user-register,cpu,311344
2023-07-14T12:32:36.575Z,carts-delete,cpu,6160591
2023-07-14T12:32:36.575Z,payment,cpu,82232
2023-07-14T12:32:36.853Z,shipping,cpu,5233191
2023-07-14T12:32:36.853Z,carts-post,cpu,3181756
2023-07-14T12:32:36.853Z,carts-get,cpu,2870947
2023-07-14T12:32:36.853Z,carts-get,cpu,3125130
2023-07-14T12:32:36.853Z,catalogue,cpu,414603
2023-07-14T12:32:36.853Z,carts-get,cpu,9531707
2023-07-14T12:32:46.379Z,carts-get,cpu,6293845
2023-07-14T12:32:46.379Z,queue-master,cpu,2258017
2023-07-14T12:32:46.379Z,carts,cpu,10049365
2023-07-14T12:32:46.379Z,carts-get,cpu,3659004
2023-07-14T12:32:46.379Z,carts-get,cpu,6812775
2023-07-14T12:32:46.576Z,carts-get,cpu,4681769
2023-07-14T12:32:46.576Z,user,cpu,249748
2023-07-14T12:32:46.576Z,user-register,cpu,243018
2023-07-14T12:32:46.576Z,user-login,cpu,292621
2023-07-14T12:32:46.576Z,carts-get,cpu,4041821
2023-07-14T12:32:46.576Z,payment,cpu,119870
2023-07-14T12:32:46.576Z,carts-delete,cpu,2590739
2023-07-14T12:32:46.576Z,orders,cpu,7458792
2023-07-14T12:32:46.853Z,shipping,cpu,2510447
2023-07-14T12:32:46.853Z,carts-post,cpu,2118860
2023-07-14T12:32:46.853Z,carts-get,cpu,4879283
2023-07-14T12:32:46.853Z,carts-get,cpu,3689624
2023-07-14T12:32:46.853Z,catalogue,cpu,102397
2023-07-14T12:32:46.853Z,carts-get,cpu,3224315
2023-07-14T12:32:56.380Z,carts,cpu,3273572
2023-07-14T12:32:56.380Z,carts-get,cpu,3563855
2023-07-14T12:32:56.380Z,carts-get,cpu,3659004
2023-07-14T12:32:56.380Z,carts-get,cpu,3298130
2023-07-14T12:32:56.380Z,queue-master,cpu,2716697
2023-07-14T12:32:56.576Z,user,cpu,249748
2023-07-14T12:32:56.576Z,user-register,cpu,183491
2023-07-14T12:32:56.576Z,payment,cpu,157555
2023-07-14T12:32:56.576Z,user-login,cpu,197183
2023-07-14T12:32:56.576Z,orders,cpu,7458792
2023-07-14T12:32:56.576Z,carts-get,cpu,43890528
2023-07-14T12:32:56.576Z,carts-delete,cpu,2590739
2023-07-14T12:32:56.576Z,carts-get,cpu,2500861
2023-07-14T12:32:56.853Z,carts-get,cpu,2907517
2023-07-14T12:32:56.853Z,catalogue,cpu,219842
2023-07-14T12:32:56.853Z,carts-post,cpu,2118860
2023-07-14T12:32:56.853Z,shipping,cpu,2510447
2023-07-14T12:32:56.853Z,carts-get,cpu,2471772
2023-07-14T12:32:56.853Z,carts-get,cpu,3689624
2023-07-14T12:33:06.379Z,carts-get,cpu,15981137
2023-07-14T12:33:06.379Z,carts,cpu,3273572
2023-07-14T12:33:06.379Z,carts-get,cpu,3374108
2023-07-14T12:33:06.379Z,queue-master,cpu,2716697
2023-07-14T12:33:06.379Z,carts-get,cpu,3298130
2023-07-14T12:33:06.575Z,payment,cpu,157555
2023-07-14T12:33:06.575Z,user-register,cpu,183491
2023-07-14T12:33:06.575Z,user-login,cpu,197183
2023-07-14T12:33:06.575Z,orders,cpu,7458792
2023-07-14T12:33:06.575Z,carts-get,cpu,43890528
2023-07-14T12:33:06.575Z,carts-delete,cpu,2590739
2023-07-14T12:33:06.575Z,carts-get,cpu,2500861
2023-07-14T12:33:06.575Z,user,cpu,249748
2023-07-14T12:33:06.853Z,catalogue,cpu,219842
2023-07-14T12:33:06.853Z,carts-post,cpu,2118860
2023-07-14T12:33:06.853Z,carts-get,cpu,2907517
2023-07-14T12:33:06.853Z,shipping,cpu,2510447
2023-07-14T12:33:06.853Z,carts-get,cpu,2471772
2023-07-14T12:33:06.853Z,carts-get,cpu,3689624
2023-07-14T12:33:16.379Z,carts,cpu,2832086
2023-07-14T12:33:16.379Z,queue-master,cpu,6253338
2023-07-14T12:33:16.379Z,carts-get,cpu,2601727
2023-07-14T12:33:16.379Z,carts-get,cpu,3368677
2023-07-14T12:33:16.379Z,carts-get,cpu,2971738
2023-07-14T12:33:16.575Z,orders,cpu,3360137
2023-07-14T12:33:16.575Z,carts-get,cpu,4092459
2023-07-14T12:33:16.575Z,user,cpu,202752
2023-07-14T12:33:16.575Z,payment,cpu,107044
2023-07-14T12:33:16.575Z,user-register,cpu,314496
2023-07-14T12:33:16.575Z,carts-get,cpu,2584320
2023-07-14T12:33:16.575Z,carts-delete,cpu,2957100
2023-07-14T12:33:16.575Z,user-login,cpu,197183
2023-07-14T12:33:16.853Z,carts-post,cpu,7209324
2023-07-14T12:33:16.853Z,carts-get,cpu,3625528
2023-07-14T12:33:16.853Z,carts-get,cpu,2990658
2023-07-14T12:33:16.853Z,shipping,cpu,3163037
2023-07-14T12:33:16.853Z,catalogue,cpu,107291
2023-07-14T12:33:16.853Z,carts-get,cpu,3557866
2023-07-14T12:33:26.379Z,carts-get,cpu,3368677
2023-07-14T12:33:26.379Z,carts-get,cpu,2971738
2023-07-14T12:33:26.379Z,carts,cpu,2832086
2023-07-14T12:33:26.379Z,queue-master,cpu,6253338
2023-07-14T12:33:26.379Z,carts-get,cpu,2601727
2023-07-14T12:33:26.575Z,user,cpu,327801
2023-07-14T12:33:26.575Z,orders,cpu,4878863
2023-07-14T12:33:26.575Z,user-login,cpu,246698
2023-07-14T12:33:26.575Z,carts-delete,cpu,3011253
2023-07-14T12:33:26.575Z,carts-get,cpu,2584320
2023-07-14T12:33:26.575Z,user-register,cpu,314496
2023-07-14T12:33:26.575Z,payment,cpu,107044
2023-07-14T12:33:26.575Z,carts-get,cpu,4369855
2023-07-14T12:33:26.854Z,carts-get,cpu,4058393
2023-07-14T12:33:26.854Z,carts-post,cpu,3529160
2023-07-14T12:33:26.854Z,catalogue,cpu,127967
2023-07-14T12:33:26.854Z,shipping,cpu,3045888
2023-07-14T12:33:26.854Z,carts-get,cpu,3557866
2023-07-14T12:33:26.854Z,carts-get,cpu,4347015
2023-07-14T12:33:36.379Z,carts,cpu,3423395
2023-07-14T12:33:36.379Z,carts-get,cpu,3930251
2023-07-14T12:33:36.379Z,queue-master,cpu,6253338
2023-07-14T12:33:36.379Z,carts-get,cpu,3368677
2023-07-14T12:33:36.379Z,carts-get,cpu,6357657
2023-07-14T12:33:36.576Z,carts-get,cpu,2420507
2023-07-14T12:33:36.576Z,carts-get,cpu,2593625
2023-07-14T12:33:36.576Z,user-login,cpu,220836
2023-07-14T12:33:36.576Z,user,cpu,162053
2023-07-14T12:33:36.576Z,orders,cpu,2460298
2023-07-14T12:33:36.576Z,carts-delete,cpu,4318995
2023-07-14T12:33:36.576Z,payment,cpu,94124
2023-07-14T12:33:36.576Z,user-register,cpu,219686
2023-07-14T12:33:36.854Z,carts-get,cpu,6558020
2023-07-14T12:33:36.854Z,catalogue,cpu,127967
2023-07-14T12:33:36.854Z,carts-get,cpu,3086401
2023-07-14T12:33:36.854Z,shipping,cpu,3045888
2023-07-14T12:33:36.854Z,carts-get,cpu,4058393
2023-07-14T12:33:36.854Z,carts-post,cpu,2042865
2023-07-14T12:33:46.379Z,carts-get,cpu,3930251
2023-07-14T12:33:46.379Z,carts-get,cpu,2840355
2023-07-14T12:33:46.379Z,carts,cpu,2655582
2023-07-14T12:33:46.379Z,carts-get,cpu,2627807
2023-07-14T12:33:46.379Z,queue-master,cpu,2896336
2023-07-14T12:33:46.576Z,carts-get,cpu,2420507
2023-07-14T12:33:46.576Z,carts-get,cpu,2593625
2023-07-14T12:33:46.576Z,user-login,cpu,220836
2023-07-14T12:33:46.576Z,user,cpu,162053
2023-07-14T12:33:46.576Z,orders,cpu,2460298
2023-07-14T12:33:46.576Z,user-register,cpu,219686
2023-07-14T12:33:46.576Z,carts-delete,cpu,4318995
2023-07-14T12:33:46.576Z,payment,cpu,94124
2023-07-14T12:33:46.853Z,carts-get,cpu,6558020
2023-07-14T12:33:46.853Z,catalogue,cpu,127967
2023-07-14T12:33:46.853Z,carts-get,cpu,3086401
2023-07-14T12:33:46.853Z,shipping,cpu,3045888
2023-07-14T12:33:46.853Z,carts-get,cpu,4058393
2023-07-14T12:33:46.853Z,carts-post,cpu,2042865
2023-07-14T12:33:56.379Z,carts,cpu,2655582
2023-07-14T12:33:56.379Z,carts-get,cpu,5513132
2023-07-14T12:33:56.379Z,carts-get,cpu,2432787
2023-07-14T12:33:56.379Z,carts-get,cpu,2235682
2023-07-14T12:33:56.379Z,queue-master,cpu,2896336
2023-07-14T12:33:56.575Z,user-login,cpu,315821
2023-07-14T12:33:56.575Z,carts-get,cpu,6787155
2023-07-14T12:33:56.575Z,payment,cpu,178186
2023-07-14T12:33:56.575Z,carts-delete,cpu,2936836
2023-07-14T12:33:56.575Z,user,cpu,231367
2023-07-14T12:33:56.575Z,carts-get,cpu,2420507
2023-07-14T12:33:56.575Z,user-register,cpu,240830
2023-07-14T12:33:56.575Z,orders,cpu,2460298
2023-07-14T12:33:56.853Z,catalogue,cpu,102532
2023-07-14T12:33:56.853Z,shipping,cpu,2659257
2023-07-14T12:33:56.853Z,carts-post,cpu,11677721
2023-07-14T12:33:56.853Z,carts-get,cpu,2627666
2023-07-14T12:33:56.853Z,carts-get,cpu,8827114
2023-07-14T12:33:56.853Z,carts-get,cpu,2307545
2023-07-14T12:34:06.379Z,carts-get,cpu,3254837
2023-07-14T12:34:06.379Z,carts-get,cpu,20989959
2023-07-14T12:34:06.379Z,queue-master,cpu,5946994
2023-07-14T12:34:06.379Z,carts,cpu,25090998
2023-07-14T12:34:06.379Z,carts-get,cpu,3822032
2023-07-14T12:34:06.576Z,carts-delete,cpu,2155520
2023-07-14T12:34:06.576Z,carts-get,cpu,2201643
2023-07-14T12:34:06.576Z,payment,cpu,97459
2023-07-14T12:34:06.576Z,user-register,cpu,185055
2023-07-14T12:34:06.576Z,user-login,cpu,191569
2023-07-14T12:34:06.576Z,user,cpu,206231
2023-07-14T12:34:06.576Z,carts-get,cpu,3123723
2023-07-14T12:34:06.576Z,orders,cpu,3003140
2023-07-14T12:34:06.854Z,carts-post,cpu,6969035
2023-07-14T12:34:06.854Z,carts-get,cpu,2282179
2023-07-14T12:34:06.854Z,shipping,cpu,2659257
2023-07-14T12:34:06.854Z,catalogue,cpu,82885
2023-07-14T12:34:06.854Z,carts-get,cpu,5025218
2023-07-14T12:34:06.854Z,carts-get,cpu,2992058
2023-07-14T12:34:16.380Z,carts-get,cpu,12656513
2023-07-14T12:34:16.380Z,carts-get,cpu,4915490
2023-07-14T12:34:16.380Z,queue-master,cpu,2040696
2023-07-14T12:34:16.380Z,carts-get,cpu,20989959
2023-07-14T12:34:16.380Z,carts,cpu,25090998
2023-07-14T12:34:16.576Z,carts-delete,cpu,3073318
2023-07-14T12:34:16.576Z,user,cpu,266169
2023-07-14T12:34:16.576Z,carts-get,cpu,2998096
2023-07-14T12:34:16.576Z,user-register,cpu,250025
2023-07-14T12:34:16.576Z,orders,cpu,3003140
2023-07-14T12:34:16.576Z,payment,cpu,100308
2023-07-14T12:34:16.576Z,carts-get,cpu,3707120
2023-07-14T12:34:16.576Z,user-login,cpu,191569
2023-07-14T12:34:16.854Z,carts-get,cpu,2569924
2023-07-14T12:34:16.854Z,carts-post,cpu,6969035
2023-07-14T12:34:16.854Z,carts-get,cpu,26947814
2023-07-14T12:34:16.854Z,carts-get,cpu,2992058
2023-07-14T12:34:16.854Z,catalogue,cpu,94073
2023-07-14T12:34:16.854Z,shipping,cpu,2388157
2023-07-14T12:34:26.380Z,carts,cpu,25090998
2023-07-14T12:34:26.380Z,queue-master,cpu,2040696
2023-07-14T12:34:26.380Z,carts-get,cpu,4915490
2023-07-14T12:34:26.380Z,carts-get,cpu,12656513
2023-07-14T12:34:26.380Z,carts-get,cpu,20989959
2023-07-14T12:34:26.575Z,carts-delete,cpu,3073318
2023-07-14T12:34:26.575Z,carts-get,cpu,2998096
2023-07-14T12:34:26.575Z,carts-get,cpu,3707120
2023-07-14T12:34:26.575Z,payment,cpu,100308
2023-07-14T12:34:26.575Z,user,cpu,266169
2023-07-14T12:34:26.575Z,user-register,cpu,250025
2023-07-14T12:34:26.575Z,orders,cpu,3003140
2023-07-14T12:34:26.575Z,user-login,cpu,191569
2023-07-14T12:34:26.853Z,carts-post,cpu,3162788
2023-07-14T12:34:26.853Z,carts-get,cpu,3584373
2023-07-14T12:34:26.853Z,carts-get,cpu,2739261
2023-07-14T12:34:26.853Z,shipping,cpu,3337964
2023-07-14T12:34:26.853Z,carts-get,cpu,2569924
2023-07-14T12:34:26.853Z,catalogue,cpu,167533
2023-07-14T12:34:36.379Z,carts-get,cpu,3791583
2023-07-14T12:34:36.379Z,carts-get,cpu,4915490
2023-07-14T12:34:36.379Z,queue-master,cpu,8429626
2023-07-14T12:34:36.379Z,carts,cpu,2124348
2023-07-14T12:34:36.379Z,carts-get,cpu,12656513
2023-07-14T12:34:36.576Z,payment,cpu,141336
2023-07-14T12:34:36.576Z,carts-get,cpu,3707120
2023-07-14T12:34:36.576Z,user,cpu,266169
2023-07-14T12:34:36.576Z,carts-delete,cpu,3073318
2023-07-14T12:34:36.576Z,orders,cpu,4035319
2023-07-14T12:34:36.576Z,user-login,cpu,222002
2023-07-14T12:34:36.576Z,carts-get,cpu,2424585
2023-07-14T12:34:36.576Z,user-register,cpu,245008
2023-07-14T12:34:36.854Z,catalogue,cpu,167533
2023-07-14T12:34:36.854Z,carts-get,cpu,2447895
2023-07-14T12:34:36.854Z,carts-get,cpu,2739261
2023-07-14T12:34:36.854Z,shipping,cpu,2383940
2023-07-14T12:34:36.854Z,carts-get,cpu,2794866
2023-07-14T12:34:36.854Z,carts-post,cpu,2872513
2023-07-14T12:34:46.379Z,carts-get,cpu,3888107
2023-07-14T12:34:46.379Z,carts,cpu,3825820
2023-07-14T12:34:46.379Z,queue-master,cpu,2658933
2023-07-14T12:34:46.379Z,carts-get,cpu,6978511
2023-07-14T12:34:46.379Z,carts-get,cpu,2696177
2023-07-14T12:34:46.575Z,user-login,cpu,244772
2023-07-14T12:34:46.575Z,user,cpu,255525
2023-07-14T12:34:46.575Z,user-register,cpu,148799
2023-07-14T12:34:46.575Z,carts-get,cpu,2424585
2023-07-14T12:34:46.575Z,payment,cpu,141336
2023-07-14T12:34:46.575Z,carts-delete,cpu,20359915
2023-07-14T12:34:46.575Z,orders,cpu,2598357
2023-07-14T12:34:46.575Z,carts-get,cpu,3048016
2023-07-14T12:34:46.853Z,carts-get,cpu,2739261
2023-07-14T12:34:46.853Z,shipping,cpu,2383940
2023-07-14T12:34:46.853Z,catalogue,cpu,167533
2023-07-14T12:34:46.853Z,carts-get,cpu,2794866
2023-07-14T12:34:46.853Z,carts-get,cpu,2447895
2023-07-14T12:34:46.853Z,carts-post,cpu,2872513
2023-07-14T12:34:56.380Z,carts,cpu,3825820
2023-07-14T12:34:56.380Z,carts-get,cpu,2696177
2023-07-14T12:34:56.380Z,queue-master,cpu,2658933
2023-07-14T12:34:56.380Z,carts-get,cpu,3744795
2023-07-14T12:34:56.380Z,carts-get,cpu,3888107
2023-07-14T12:34:56.575Z,payment,cpu,177805
2023-07-14T12:34:56.575Z,carts-delete,cpu,3011056
2023-07-14T12:34:56.575Z,carts-get,cpu,2528767
2023-07-14T12:34:56.575Z,carts-get,cpu,2439549
2023-07-14T12:34:56.575Z,orders,cpu,22009813
2023-07-14T12:34:56.575Z,user,cpu,126551
2023-07-14T12:34:56.575Z,user-login,cpu,245722
2023-07-14T12:34:56.575Z,user-register,cpu,331368
2023-07-14T12:34:56.853Z,carts-post,cpu,13255105
2023-07-14T12:34:56.853Z,shipping,cpu,5026861
2023-07-14T12:34:56.853Z,carts-get,cpu,3133293
2023-07-14T12:34:56.853Z,carts-get,cpu,4709911
2023-07-14T12:34:56.853Z,catalogue,cpu,155028
2023-07-14T12:34:56.853Z,carts-get,cpu,14908119
2023-07-14T12:35:06.379Z,queue-master,cpu,2658933
2023-07-14T12:35:06.379Z,carts-get,cpu,2696177
2023-07-14T12:35:06.379Z,carts,cpu,3825820
2023-07-14T12:35:06.379Z,carts-get,cpu,3744795
2023-07-14T12:35:06.379Z,carts-get,cpu,3888107
2023-07-14T12:35:06.575Z,orders,cpu,22009813
2023-07-14T12:35:06.575Z,payment,cpu,177805
2023-07-14T12:35:06.575Z,user-register,cpu,331368
2023-07-14T12:35:06.575Z,user,cpu,126551
2023-07-14T12:35:06.575Z,carts-get,cpu,2439549
2023-07-14T12:35:06.575Z,carts-delete,cpu,3011056
2023-07-14T12:35:06.575Z,carts-get,cpu,2528767
2023-07-14T12:35:06.575Z,user-login,cpu,245722
2023-07-14T12:35:06.853Z,carts-get,cpu,11894083
2023-07-14T12:35:06.853Z,shipping,cpu,5026861
2023-07-14T12:35:06.853Z,carts-post,cpu,13255105
2023-07-14T12:35:06.853Z,catalogue,cpu,155028
2023-07-14T12:35:06.853Z,carts-get,cpu,14908119
2023-07-14T12:35:06.853Z,carts-get,cpu,2070232
2023-07-14T12:35:16.379Z,carts-get,cpu,3237998
2023-07-14T12:35:16.379Z,queue-master,cpu,31965916
2023-07-14T12:35:16.379Z,carts-get,cpu,12558604
2023-07-14T12:35:16.379Z,carts,cpu,10613446
2023-07-14T12:35:16.379Z,carts-get,cpu,4118625
2023-07-14T12:35:16.575Z,carts-delete,cpu,3011056
2023-07-14T12:35:16.575Z,user-login,cpu,176655
2023-07-14T12:35:16.575Z,user-register,cpu,174485
2023-07-14T12:35:16.575Z,carts-get,cpu,10052686
2023-07-14T12:35:16.575Z,payment,cpu,129330
2023-07-14T12:35:16.575Z,carts-get,cpu,2528767
2023-07-14T12:35:16.575Z,user,cpu,126551
2023-07-14T12:35:16.575Z,orders,cpu,22009813
2023-07-14T12:35:16.854Z,carts-get,cpu,11894083
2023-07-14T12:35:16.854Z,carts-post,cpu,2777128
2023-07-14T12:35:16.854Z,shipping,cpu,3389141
2023-07-14T12:35:16.854Z,carts-get,cpu,2070232
2023-07-14T12:35:16.854Z,carts-get,cpu,2269220
2023-07-14T12:35:16.854Z,catalogue,cpu,103654
