2023-07-14T12:24:56.002Z,carts-get,memory,291459072
2023-07-14T12:25:06.381Z,carts-get,memory,312078336
2023-07-14T12:25:16.379Z,carts-get,memory,312078336
2023-07-14T12:25:26.379Z,queue-master,memory,269905920
2023-07-14T12:25:26.379Z,carts-get,memory,319410176
2023-07-14T12:25:36.379Z,queue-master,memory,269905920
2023-07-14T12:25:36.379Z,carts-get,memory,319410176
2023-07-14T12:25:46.379Z,carts,memory,324825088
2023-07-14T12:25:56.379Z,carts-get,memory,302960640
2023-07-14T12:26:06.379Z,carts-get,memory,311541760
2023-07-14T12:26:06.379Z,carts-get,memory,303222784
2023-07-14T12:26:16.380Z,queue-master,memory,267038720
2023-07-14T12:26:16.380Z,carts-get,memory,312733696
2023-07-14T12:26:26.380Z,queue-master,memory,267038720
2023-07-14T12:26:26.380Z,carts-get,memory,312733696
2023-07-14T12:24:56.002Z,carts-get,memory,305623040
2023-07-14T12:25:46.379Z,queue-master,memory,268238848
2023-07-14T12:25:46.379Z,carts-get,memory,312012800
2023-07-14T12:25:56.379Z,carts-get,memory,313425920
2023-07-14T12:26:16.380Z,carts-get,memory,311824384
2023-07-14T12:26:16.380Z,carts-get,memory,303222784
2023-07-14T12:26:16.380Z,carts,memory,323846144
2023-07-14T12:26:26.380Z,carts-get,memory,311824384
2023-07-14T12:24:56.002Z,queue-master,memory,277544960
2023-07-14T12:25:26.379Z,carts,memory,324825088
2023-07-14T12:25:36.379Z,carts,memory,324825088
2023-07-14T12:25:46.379Z,carts-get,memory,303345664
2023-07-14T12:25:46.379Z,carts-get,memory,314245120
2023-07-14T12:25:56.379Z,carts-get,memory,311541760
2023-07-14T12:26:06.379Z,carts,memory,323846144
2023-07-14T12:26:06.379Z,queue-master,memory,267038720
2023-07-14T12:26:26.380Z,carts,memory,323846144
2023-07-14T12:25:06.381Z,queue-master,memory,277544960
2023-07-14T12:25:06.381Z,carts-get,memory,303812608
2023-07-14T12:25:06.381Z,carts-get,memory,302481408
2023-07-14T12:25:06.381Z,carts,memory,302223360
2023-07-14T12:25:16.379Z,queue-master,memory,277544960
2023-07-14T12:25:16.379Z,carts-get,memory,303812608
2023-07-14T12:25:16.379Z,carts-get,memory,302481408
2023-07-14T12:25:16.379Z,carts,memory,302223360
2023-07-14T12:25:26.379Z,carts-get,memory,314245120
2023-07-14T12:25:26.379Z,carts-get,memory,303345664
2023-07-14T12:25:36.379Z,carts-get,memory,314245120
2023-07-14T12:25:36.379Z,carts-get,memory,303345664
2023-07-14T12:25:56.379Z,carts,memory,325767168
2023-07-14T12:25:56.379Z,queue-master,memory,268505088
2023-07-14T12:26:06.379Z,carts-get,memory,312709120
2023-07-14T12:26:26.380Z,carts-get,memory,303222784
2023-07-14T12:25:06.862Z,shipping,memory,278605824
2023-07-14T12:25:16.856Z,carts-get,memory,303538176
2023-07-14T12:25:16.856Z,carts-get,memory,319438848
2023-07-14T12:25:36.853Z,carts-get,memory,302702592
2023-07-14T12:25:36.853Z,catalogue,memory,2916352
2023-07-14T12:25:46.853Z,carts-get,memory,302804992
2023-07-14T12:25:46.853Z,carts-get,memory,302702592
2023-07-14T12:25:56.853Z,carts-get,memory,302804992
2023-07-14T12:25:56.853Z,catalogue,memory,2932736
2023-07-14T12:26:06.854Z,shipping,memory,290635776
2023-07-14T12:26:16.853Z,shipping,memory,290635776
2023-07-14T12:26:26.853Z,shipping,memory,290664448
2023-07-14T12:26:26.853Z,carts-post,memory,313556992
2023-07-14T12:24:56.421Z,carts-get,memory,286134272
2023-07-14T12:25:06.862Z,catalogue,memory,2867200
2023-07-14T12:25:06.862Z,carts-get,memory,300916736
2023-07-14T12:25:06.862Z,carts-get,memory,303538176
2023-07-14T12:25:16.856Z,catalogue,memory,2875392
2023-07-14T12:25:16.856Z,shipping,memory,289533952
2023-07-14T12:25:26.856Z,carts-get,memory,306212864
2023-07-14T12:25:26.856Z,catalogue,memory,2875392
2023-07-14T12:25:26.856Z,shipping,memory,289533952
2023-07-14T12:25:36.853Z,shipping,memory,289730560
2023-07-14T12:25:46.853Z,carts-post,memory,317497344
2023-07-14T12:25:46.853Z,carts-get,memory,317554688
2023-07-14T12:25:56.853Z,carts-get,memory,317771776
2023-07-14T12:26:06.854Z,carts-get,memory,302714880
2023-07-14T12:26:06.854Z,carts-post,memory,315936768
2023-07-14T12:26:06.854Z,catalogue,memory,2953216
2023-07-14T12:26:16.853Z,carts-get,memory,302714880
2023-07-14T12:26:16.853Z,carts-post,memory,315936768
2023-07-14T12:26:16.853Z,catalogue,memory,2953216
2023-07-14T12:25:06.862Z,carts-post,memory,307728384
2023-07-14T12:25:06.862Z,carts-get,memory,296615936
2023-07-14T12:25:16.856Z,carts-post,memory,320905216
2023-07-14T12:25:26.856Z,carts-get,memory,303366144
2023-07-14T12:25:26.856Z,carts-get,memory,319438848
2023-07-14T12:25:26.856Z,carts-post,memory,320905216
2023-07-14T12:25:36.853Z,carts-get,memory,317554688
2023-07-14T12:25:36.853Z,carts-post,memory,317497344
2023-07-14T12:25:46.853Z,shipping,memory,289730560
2023-07-14T12:25:56.853Z,shipping,memory,290361344
2023-07-14T12:26:06.854Z,carts-get,memory,303398912
2023-07-14T12:26:16.853Z,carts-get,memory,303398912
2023-07-14T12:24:56.421Z,carts-get,memory,287670272
2023-07-14T12:24:56.421Z,catalogue,memory,2826240
2023-07-14T12:24:56.421Z,carts-post,memory,304349184
2023-07-14T12:25:16.856Z,carts-get,memory,301801472
2023-07-14T12:25:36.853Z,carts-get,memory,302198784
2023-07-14T12:25:46.853Z,catalogue,memory,2932736
2023-07-14T12:25:56.853Z,carts-post,memory,315936768
2023-07-14T12:25:56.853Z,carts-get,memory,303255552
2023-07-14T12:26:06.854Z,carts-get,memory,316923904
2023-07-14T12:26:16.853Z,carts-get,memory,316923904
2023-07-14T12:26:26.853Z,carts-get,memory,302751744
2023-07-14T12:26:26.853Z,carts-get,memory,315338752
2023-07-14T12:26:26.853Z,carts-get,memory,303431680
2023-07-14T12:26:26.853Z,catalogue,memory,2961408
2023-07-14T12:26:36.379Z,carts-get,memory,311193600
2023-07-14T12:26:36.379Z,carts-get,memory,312733696
2023-07-14T12:26:36.379Z,carts,memory,323862528
2023-07-14T12:26:36.379Z,queue-master,memory,267096064
2023-07-14T12:26:36.379Z,carts-get,memory,303271936
2023-07-14T12:26:36.854Z,carts-post,memory,313114624
2023-07-14T12:26:36.854Z,shipping,memory,290664448
2023-07-14T12:26:36.854Z,catalogue,memory,2985984
2023-07-14T12:26:36.854Z,carts-get,memory,315338752
2023-07-14T12:26:36.854Z,carts-get,memory,302546944
2023-07-14T12:26:36.854Z,carts-get,memory,303468544
2023-07-14T12:25:06.576Z,orders,memory,291651584
2023-07-14T12:25:16.575Z,user,memory,2994176
2023-07-14T12:25:16.575Z,carts-delete,memory,301821952
2023-07-14T12:25:26.576Z,user,memory,3031040
2023-07-14T12:25:36.576Z,carts-delete,memory,303779840
2023-07-14T12:25:46.576Z,carts-get,memory,314142720
2023-07-14T12:25:46.576Z,payment,memory,2461696
2023-07-14T12:26:06.576Z,user-login,memory,3166208
2023-07-14T12:26:06.576Z,carts-delete,memory,303816704
2023-07-14T12:26:06.576Z,payment,memory,2523136
2023-07-14T12:26:16.575Z,user-login,memory,3166208
2023-07-14T12:26:16.575Z,orders,memory,315514880
2023-07-14T12:26:26.576Z,carts-get,memory,314036224
2023-07-14T12:26:26.576Z,user,memory,3178496
2023-07-14T12:26:26.576Z,payment,memory,2523136
2023-07-14T12:26:36.576Z,user-register,memory,3362816
2023-07-14T12:26:36.576Z,carts-delete,memory,303452160
2023-07-14T12:24:56.044Z,carts-delete,memory,299327488
2023-07-14T12:24:56.044Z,carts-get,memory,300470272
2023-07-14T12:24:56.044Z,carts-get,memory,281948160
2023-07-14T12:25:06.576Z,carts-get,memory,281948160
2023-07-14T12:25:06.576Z,carts-delete,memory,301821952
2023-07-14T12:25:16.575Z,user-login,memory,2920448
2023-07-14T12:25:26.576Z,payment,memory,2441216
2023-07-14T12:25:26.576Z,carts-get,memory,302465024
2023-07-14T12:25:36.576Z,carts-get,memory,314142720
2023-07-14T12:25:36.576Z,user-login,memory,3076096
2023-07-14T12:25:46.576Z,user-register,memory,3112960
2023-07-14T12:25:46.576Z,orders,memory,325484544
2023-07-14T12:25:46.576Z,user,memory,3067904
2023-07-14T12:25:56.575Z,orders,memory,315228160
2023-07-14T12:25:56.575Z,user,memory,3145728
2023-07-14T12:25:56.575Z,user-login,memory,3166208
2023-07-14T12:25:56.575Z,payment,memory,2478080
2023-07-14T12:25:56.575Z,user-register,memory,3153920
2023-07-14T12:25:56.575Z,carts-delete,memory,303816704
2023-07-14T12:25:56.575Z,carts-get,memory,313499648
2023-07-14T12:25:56.575Z,carts-get,memory,313966592
2023-07-14T12:26:06.576Z,carts-get,memory,314036224
2023-07-14T12:26:16.575Z,carts-delete,memory,303816704
2023-07-14T12:26:26.576Z,orders,memory,315514880
2023-07-14T12:24:56.044Z,user-register,memory,3006464
2023-07-14T12:24:56.044Z,user,memory,2940928
2023-07-14T12:25:06.576Z,carts-get,memory,302465024
2023-07-14T12:25:16.575Z,carts-get,memory,302465024
2023-07-14T12:25:26.576Z,carts-get,memory,308178944
2023-07-14T12:25:26.576Z,user-login,memory,3010560
2023-07-14T12:25:26.576Z,carts-delete,memory,301821952
2023-07-14T12:25:36.576Z,user-register,memory,3112960
2023-07-14T12:25:36.576Z,carts-get,memory,313585664
2023-07-14T12:25:36.576Z,user,memory,3067904
2023-07-14T12:25:46.576Z,user-login,memory,3076096
2023-07-14T12:25:46.576Z,carts-delete,memory,303779840
2023-07-14T12:26:06.576Z,user-register,memory,3239936
2023-07-14T12:26:06.576Z,orders,memory,315514880
2023-07-14T12:26:16.575Z,user,memory,3145728
2023-07-14T12:26:16.575Z,user-register,memory,3239936
2023-07-14T12:26:16.575Z,carts-get,memory,314036224
2023-07-14T12:26:16.575Z,payment,memory,2523136
2023-07-14T12:26:26.576Z,user-login,memory,3219456
2023-07-14T12:26:26.576Z,user-register,memory,3239936
2023-07-14T12:26:36.576Z,orders,memory,314195968
2023-07-14T12:26:36.576Z,user-login,memory,3268608
2023-07-14T12:26:36.576Z,payment,memory,2551808
2023-07-14T12:26:36.576Z,carts-get,memory,315981824
2023-07-14T12:26:36.576Z,user,memory,3252224
2023-07-14T12:26:36.576Z,carts-get,memory,314068992
2023-07-14T12:24:56.044Z,orders,memory,279678976
2023-07-14T12:24:56.044Z,user-login,memory,2920448
2023-07-14T12:24:56.044Z,payment,memory,2334720
2023-07-14T12:25:06.576Z,payment,memory,2428928
2023-07-14T12:25:06.576Z,user-register,memory,3047424
2023-07-14T12:25:06.576Z,user,memory,2994176
2023-07-14T12:25:06.576Z,user-login,memory,2920448
2023-07-14T12:25:16.575Z,payment,memory,2428928
2023-07-14T12:25:16.575Z,user-register,memory,3047424
2023-07-14T12:25:16.575Z,carts-get,memory,281948160
2023-07-14T12:25:16.575Z,orders,memory,291651584
2023-07-14T12:25:26.576Z,orders,memory,291651584
2023-07-14T12:25:26.576Z,user-register,memory,3047424
2023-07-14T12:25:36.576Z,payment,memory,2461696
2023-07-14T12:25:36.576Z,orders,memory,325484544
2023-07-14T12:25:46.576Z,carts-get,memory,313585664
2023-07-14T12:26:06.576Z,user,memory,3145728
2023-07-14T12:26:06.576Z,carts-get,memory,314241024
2023-07-14T12:26:16.575Z,carts-get,memory,314241024
2023-07-14T12:26:26.576Z,carts-delete,memory,303415296
2023-07-14T12:26:26.576Z,carts-get,memory,314241024
2023-07-14T12:26:46.575Z,user-register,memory,3362816
2023-07-14T12:26:46.575Z,carts-delete,memory,303452160
2023-07-14T12:26:46.575Z,orders,memory,314195968
2023-07-14T12:26:46.575Z,user-login,memory,3268608
2023-07-14T12:26:46.575Z,payment,memory,2551808
2023-07-14T12:26:46.575Z,carts-get,memory,315981824
2023-07-14T12:26:46.575Z,user,memory,3252224
2023-07-14T12:26:46.575Z,carts-get,memory,314068992
2023-07-14T12:26:46.379Z,carts-get,memory,311193600
2023-07-14T12:26:46.379Z,carts-get,memory,312446976
2023-07-14T12:26:46.379Z,queue-master,memory,267268096
2023-07-14T12:26:46.379Z,carts-get,memory,303292416
2023-07-14T12:26:46.379Z,carts,memory,323903488
2023-07-14T12:26:46.854Z,catalogue,memory,2985984
2023-07-14T12:26:46.854Z,carts-post,memory,313114624
2023-07-14T12:26:46.854Z,carts-get,memory,302546944
2023-07-14T12:26:46.854Z,carts-get,memory,314425344
2023-07-14T12:26:46.854Z,carts-get,memory,302227456
2023-07-14T12:26:46.854Z,shipping,memory,290705408
2023-07-14T12:26:56.379Z,queue-master,memory,267284480
2023-07-14T12:26:56.379Z,carts-get,memory,310104064
2023-07-14T12:26:56.379Z,carts-get,memory,303312896
2023-07-14T12:26:56.379Z,carts-get,memory,311738368
2023-07-14T12:26:56.379Z,carts,memory,318132224
2023-07-14T12:26:56.575Z,carts-delete,memory,303325184
2023-07-14T12:26:56.575Z,user,memory,3252224
2023-07-14T12:26:56.575Z,user-register,memory,3362816
2023-07-14T12:26:56.575Z,user-login,memory,3268608
2023-07-14T12:26:56.575Z,carts-get,memory,314699776
2023-07-14T12:26:56.575Z,carts-get,memory,315981824
2023-07-14T12:26:56.575Z,orders,memory,313372672
2023-07-14T12:26:56.575Z,payment,memory,2551808
2023-07-14T12:26:56.853Z,carts-get,memory,302227456
2023-07-14T12:26:56.853Z,carts-post,memory,313139200
2023-07-14T12:26:56.853Z,carts-get,memory,314433536
2023-07-14T12:26:56.853Z,carts-get,memory,302223360
2023-07-14T12:26:56.853Z,shipping,memory,290725888
2023-07-14T12:26:56.853Z,catalogue,memory,2994176
2023-07-14T12:27:06.379Z,carts-get,memory,310116352
2023-07-14T12:27:06.379Z,queue-master,memory,267128832
2023-07-14T12:27:06.379Z,carts-get,memory,311894016
2023-07-14T12:27:06.379Z,carts,memory,317591552
2023-07-14T12:27:06.379Z,carts-get,memory,302964736
2023-07-14T12:27:06.575Z,carts-get,memory,314118144
2023-07-14T12:27:06.575Z,user,memory,3383296
2023-07-14T12:27:06.575Z,orders,memory,313425920
2023-07-14T12:27:06.575Z,carts-delete,memory,303599616
2023-07-14T12:27:06.575Z,user-login,memory,3399680
2023-07-14T12:27:06.575Z,payment,memory,2580480
2023-07-14T12:27:06.575Z,carts-get,memory,313810944
2023-07-14T12:27:06.575Z,user-register,memory,3424256
2023-07-14T12:27:06.854Z,carts-get,memory,314433536
2023-07-14T12:27:06.854Z,carts-get,memory,302223360
2023-07-14T12:27:06.854Z,carts-post,memory,312856576
2023-07-14T12:27:06.854Z,shipping,memory,290729984
2023-07-14T12:27:06.854Z,carts-get,memory,301613056
2023-07-14T12:27:06.854Z,catalogue,memory,3006464
2023-07-14T12:27:16.379Z,queue-master,memory,267128832
2023-07-14T12:27:16.379Z,carts-get,memory,311894016
2023-07-14T12:27:16.379Z,carts,memory,317591552
2023-07-14T12:27:16.379Z,carts-get,memory,302964736
2023-07-14T12:27:16.379Z,carts-get,memory,310116352
2023-07-14T12:27:16.575Z,orders,memory,313425920
2023-07-14T12:27:16.575Z,carts-get,memory,314109952
2023-07-14T12:27:16.575Z,user,memory,3383296
2023-07-14T12:27:16.575Z,payment,memory,2613248
2023-07-14T12:27:16.575Z,carts-get,memory,311697408
2023-07-14T12:27:16.575Z,user-register,memory,3424256
2023-07-14T12:27:16.575Z,user-login,memory,3399680
2023-07-14T12:27:16.575Z,carts-delete,memory,306249728
2023-07-14T12:27:16.853Z,carts-get,memory,314433536
2023-07-14T12:27:16.853Z,catalogue,memory,3006464
2023-07-14T12:27:16.853Z,shipping,memory,290729984
2023-07-14T12:27:16.853Z,carts-get,memory,302223360
2023-07-14T12:27:16.853Z,carts-post,memory,312856576
2023-07-14T12:27:16.853Z,carts-get,memory,301613056
2023-07-14T12:27:26.379Z,carts-get,memory,302964736
2023-07-14T12:27:26.379Z,carts-get,memory,311918592
2023-07-14T12:27:26.379Z,carts,memory,317591552
2023-07-14T12:27:26.379Z,queue-master,memory,267128832
2023-07-14T12:27:26.379Z,carts-get,memory,310116352
2023-07-14T12:27:26.576Z,user-login,memory,3444736
2023-07-14T12:27:26.576Z,user-register,memory,3457024
2023-07-14T12:27:26.576Z,carts-get,memory,313790464
2023-07-14T12:27:26.576Z,carts-delete,memory,310980608
2023-07-14T12:27:26.576Z,payment,memory,2613248
2023-07-14T12:27:26.576Z,user,memory,3391488
2023-07-14T12:27:26.576Z,orders,memory,311656448
2023-07-14T12:27:26.576Z,carts-get,memory,311697408
2023-07-14T12:27:26.854Z,carts-post,memory,312926208
2023-07-14T12:27:26.854Z,carts-get,memory,301645824
2023-07-14T12:27:26.854Z,catalogue,memory,3035136
2023-07-14T12:27:26.854Z,carts-get,memory,314277888
2023-07-14T12:27:26.854Z,shipping,memory,290181120
2023-07-14T12:27:26.854Z,carts-get,memory,301457408
2023-07-14T12:27:36.380Z,carts-get,memory,311934976
2023-07-14T12:27:36.380Z,carts,memory,317616128
2023-07-14T12:27:36.380Z,queue-master,memory,267337728
2023-07-14T12:27:36.380Z,carts-get,memory,309903360
2023-07-14T12:27:36.380Z,carts-get,memory,301981696
2023-07-14T12:27:36.575Z,user-login,memory,3444736
2023-07-14T12:27:36.575Z,user,memory,3391488
2023-07-14T12:27:36.575Z,carts-delete,memory,310980608
2023-07-14T12:27:36.575Z,carts-get,memory,313790464
2023-07-14T12:27:36.575Z,user-register,memory,3457024
2023-07-14T12:27:36.575Z,orders,memory,311656448
2023-07-14T12:27:36.575Z,payment,memory,2613248
2023-07-14T12:27:36.575Z,carts-get,memory,311697408
2023-07-14T12:27:36.853Z,shipping,memory,289878016
2023-07-14T12:27:36.853Z,carts-post,memory,312926208
2023-07-14T12:27:36.853Z,carts-get,memory,301654016
2023-07-14T12:27:36.853Z,carts-get,memory,313679872
2023-07-14T12:27:36.853Z,catalogue,memory,3035136
2023-07-14T12:27:36.853Z,carts-get,memory,301457408
2023-07-14T12:27:46.379Z,carts,memory,317616128
2023-07-14T12:27:46.379Z,carts-get,memory,301981696
2023-07-14T12:27:46.379Z,carts-get,memory,311934976
2023-07-14T12:27:46.379Z,queue-master,memory,267337728
2023-07-14T12:27:46.379Z,carts-get,memory,309903360
2023-07-14T12:27:46.575Z,user-register,memory,3510272
2023-07-14T12:27:46.575Z,carts-get,memory,313790464
2023-07-14T12:27:46.575Z,payment,memory,2633728
2023-07-14T12:27:46.575Z,carts-get,memory,311336960
2023-07-14T12:27:46.575Z,orders,memory,311693312
2023-07-14T12:27:46.575Z,user-login,memory,3489792
2023-07-14T12:27:46.575Z,user,memory,3469312
2023-07-14T12:27:46.575Z,carts-delete,memory,310980608
2023-07-14T12:27:46.853Z,carts-post,memory,312610816
2023-07-14T12:27:46.853Z,carts-get,memory,301617152
2023-07-14T12:27:46.853Z,carts-get,memory,301654016
2023-07-14T12:27:46.853Z,carts-get,memory,313257984
2023-07-14T12:27:46.853Z,catalogue,memory,3059712
2023-07-14T12:27:46.853Z,shipping,memory,289894400
2023-07-14T12:27:56.380Z,queue-master,memory,267337728
2023-07-14T12:27:56.380Z,carts-get,memory,300548096
2023-07-14T12:27:56.380Z,carts-get,memory,309903360
2023-07-14T12:27:56.380Z,carts-get,memory,311660544
2023-07-14T12:27:56.380Z,carts,memory,317632512
2023-07-14T12:27:56.576Z,payment,memory,2637824
2023-07-14T12:27:56.576Z,user-register,memory,3510272
2023-07-14T12:27:56.576Z,carts-delete,memory,317857792
2023-07-14T12:27:56.576Z,carts-get,memory,313843712
2023-07-14T12:27:56.576Z,user,memory,3469312
2023-07-14T12:27:56.576Z,orders,memory,311693312
2023-07-14T12:27:56.576Z,user-login,memory,3518464
2023-07-14T12:27:56.576Z,carts-get,memory,311357440
2023-07-14T12:27:56.853Z,carts-post,memory,312610816
2023-07-14T12:27:56.853Z,carts-get,memory,313257984
2023-07-14T12:27:56.853Z,carts-get,memory,301617152
2023-07-14T12:27:56.853Z,carts-get,memory,301654016
2023-07-14T12:27:56.853Z,catalogue,memory,3059712
2023-07-14T12:27:56.853Z,shipping,memory,289894400
2023-07-14T12:28:06.379Z,carts-get,memory,309919744
2023-07-14T12:28:06.379Z,queue-master,memory,268632064
2023-07-14T12:28:06.379Z,carts-get,memory,311660544
2023-07-14T12:28:06.379Z,carts,memory,317632512
2023-07-14T12:28:06.379Z,carts-get,memory,300548096
2023-07-14T12:28:06.575Z,payment,memory,2666496
2023-07-14T12:28:06.575Z,user-login,memory,3551232
2023-07-14T12:28:06.575Z,carts-get,memory,311373824
2023-07-14T12:28:06.575Z,user-register,memory,3567616
2023-07-14T12:28:06.575Z,orders,memory,311668736
2023-07-14T12:28:06.575Z,carts-delete,memory,327110656
2023-07-14T12:28:06.575Z,carts-get,memory,313262080
2023-07-14T12:28:06.575Z,user,memory,3563520
2023-07-14T12:28:06.853Z,carts-get,memory,301174784
2023-07-14T12:28:06.853Z,carts-post,memory,312762368
2023-07-14T12:28:06.853Z,carts-get,memory,301670400
2023-07-14T12:28:06.853Z,catalogue,memory,3096576
2023-07-14T12:28:06.853Z,carts-get,memory,313405440
2023-07-14T12:28:06.853Z,shipping,memory,289902592
2023-07-14T12:28:16.379Z,carts,memory,316588032
2023-07-14T12:28:16.379Z,queue-master,memory,266174464
2023-07-14T12:28:16.379Z,carts-get,memory,309813248
2023-07-14T12:28:16.379Z,carts-get,memory,311246848
2023-07-14T12:28:16.379Z,carts-get,memory,300707840
2023-07-14T12:28:16.576Z,payment,memory,2695168
2023-07-14T12:28:16.576Z,user,memory,3567616
2023-07-14T12:28:16.576Z,user-login,memory,3821568
2023-07-14T12:28:16.576Z,orders,memory,311734272
2023-07-14T12:28:16.576Z,carts-get,memory,311373824
2023-07-14T12:28:16.576Z,carts-get,memory,313290752
2023-07-14T12:28:16.576Z,carts-delete,memory,327118848
2023-07-14T12:28:16.576Z,user-register,memory,3567616
2023-07-14T12:28:16.854Z,carts-get,memory,313401344
2023-07-14T12:28:16.854Z,shipping,memory,289902592
2023-07-14T12:28:16.854Z,catalogue,memory,3121152
2023-07-14T12:28:16.854Z,carts-get,memory,299896832
2023-07-14T12:28:16.854Z,carts-post,memory,312840192
2023-07-14T12:28:16.854Z,carts-get,memory,301481984
2023-07-14T12:28:26.380Z,carts-get,memory,311386112
2023-07-14T12:28:26.380Z,carts-get,memory,309948416
2023-07-14T12:28:26.380Z,queue-master,memory,265711616
2023-07-14T12:28:26.380Z,carts,memory,316588032
2023-07-14T12:28:26.380Z,carts-get,memory,300707840
2023-07-14T12:28:26.576Z,carts-delete,memory,329035776
2023-07-14T12:28:26.576Z,carts-get,memory,313298944
2023-07-14T12:28:26.576Z,orders,memory,311734272
2023-07-14T12:28:26.576Z,payment,memory,2699264
2023-07-14T12:28:26.576Z,user-register,memory,3588096
2023-07-14T12:28:26.576Z,user-login,memory,3821568
2023-07-14T12:28:26.576Z,user,memory,3567616
2023-07-14T12:28:26.576Z,carts-get,memory,309612544
2023-07-14T12:28:26.853Z,carts-get,memory,299978752
2023-07-14T12:28:26.853Z,carts-post,memory,312840192
2023-07-14T12:28:26.853Z,carts-get,memory,313700352
2023-07-14T12:28:26.853Z,catalogue,memory,3121152
2023-07-14T12:28:26.853Z,shipping,memory,289140736
2023-07-14T12:28:26.853Z,carts-get,memory,301498368
2023-07-14T12:28:36.379Z,carts,memory,316588032
2023-07-14T12:28:36.379Z,queue-master,memory,265711616
2023-07-14T12:28:36.379Z,carts-get,memory,300707840
2023-07-14T12:28:36.379Z,carts-get,memory,311386112
2023-07-14T12:28:36.379Z,carts-get,memory,309948416
2023-07-14T12:28:36.576Z,user-register,memory,3588096
2023-07-14T12:28:36.576Z,user-login,memory,3592192
2023-07-14T12:28:36.576Z,orders,memory,311427072
2023-07-14T12:28:36.576Z,user,memory,3604480
2023-07-14T12:28:36.576Z,payment,memory,2699264
2023-07-14T12:28:36.576Z,carts-get,memory,313339904
2023-07-14T12:28:36.576Z,carts-get,memory,309821440
2023-07-14T12:28:36.576Z,carts-delete,memory,329035776
2023-07-14T12:28:36.853Z,carts-get,memory,299978752
2023-07-14T12:28:36.853Z,shipping,memory,289140736
2023-07-14T12:28:36.853Z,carts-get,memory,301498368
2023-07-14T12:28:36.853Z,carts-post,memory,312840192
2023-07-14T12:28:36.853Z,carts-get,memory,313700352
2023-07-14T12:28:36.853Z,catalogue,memory,3121152
2023-07-14T12:28:46.379Z,carts,memory,316796928
2023-07-14T12:28:46.379Z,carts-get,memory,309948416
2023-07-14T12:28:46.379Z,carts-get,memory,300830720
2023-07-14T12:28:46.379Z,carts-get,memory,311476224
2023-07-14T12:28:46.379Z,queue-master,memory,265801728
2023-07-14T12:28:46.576Z,carts-delete,memory,329035776
2023-07-14T12:28:46.576Z,user-login,memory,3592192
2023-07-14T12:28:46.576Z,orders,memory,311427072
2023-07-14T12:28:46.576Z,user,memory,3604480
2023-07-14T12:28:46.576Z,carts-get,memory,313339904
2023-07-14T12:28:46.576Z,carts-get,memory,309821440
2023-07-14T12:28:46.576Z,user-register,memory,3588096
2023-07-14T12:28:46.576Z,payment,memory,2699264
2023-07-14T12:28:46.853Z,carts-get,memory,301707264
2023-07-14T12:28:46.853Z,carts-post,memory,313163776
2023-07-14T12:28:46.853Z,catalogue,memory,3158016
2023-07-14T12:28:46.853Z,carts-get,memory,299737088
2023-07-14T12:28:46.853Z,carts-get,memory,313479168
2023-07-14T12:28:46.853Z,shipping,memory,289185792
2023-07-14T12:28:56.379Z,carts,memory,316891136
2023-07-14T12:28:56.379Z,carts-get,memory,300875776
2023-07-14T12:28:56.379Z,carts-get,memory,310063104
2023-07-14T12:28:56.379Z,queue-master,memory,265846784
2023-07-14T12:28:56.379Z,carts-get,memory,311488512
2023-07-14T12:28:56.575Z,payment,memory,2760704
2023-07-14T12:28:56.575Z,carts-get,memory,309821440
2023-07-14T12:28:56.575Z,orders,memory,311427072
2023-07-14T12:28:56.575Z,carts-delete,memory,332533760
2023-07-14T12:28:56.575Z,user-register,memory,3661824
2023-07-14T12:28:56.575Z,user-login,memory,3633152
2023-07-14T12:28:56.575Z,user,memory,3649536
2023-07-14T12:28:56.575Z,carts-get,memory,313339904
2023-07-14T12:28:56.853Z,shipping,memory,289198080
2023-07-14T12:28:56.853Z,carts-get,memory,299737088
2023-07-14T12:28:56.853Z,catalogue,memory,3153920
2023-07-14T12:28:56.853Z,carts-get,memory,301707264
2023-07-14T12:28:56.853Z,carts-get,memory,313479168
2023-07-14T12:28:56.853Z,carts-post,memory,313262080
2023-07-14T12:29:06.379Z,carts-get,memory,302559232
2023-07-14T12:29:06.379Z,carts,memory,316968960
2023-07-14T12:29:06.379Z,queue-master,memory,265846784
2023-07-14T12:29:06.379Z,carts-get,memory,310124544
2023-07-14T12:29:06.379Z,carts-get,memory,311590912
2023-07-14T12:29:06.575Z,user-login,memory,3833856
2023-07-14T12:29:06.575Z,user-register,memory,3686400
2023-07-14T12:29:06.575Z,carts-get,memory,313348096
2023-07-14T12:29:06.575Z,user,memory,3674112
2023-07-14T12:29:06.575Z,carts-get,memory,310009856
2023-07-14T12:29:06.575Z,payment,memory,2793472
2023-07-14T12:29:06.575Z,orders,memory,311492608
2023-07-14T12:29:06.575Z,carts-delete,memory,334602240
2023-07-14T12:29:06.854Z,carts-get,memory,301813760
2023-07-14T12:29:06.854Z,carts-get,memory,299278336
2023-07-14T12:29:06.854Z,catalogue,memory,3153920
2023-07-14T12:29:06.854Z,shipping,memory,289198080
2023-07-14T12:29:06.854Z,carts-get,memory,313499648
2023-07-14T12:29:06.854Z,carts-post,memory,313262080
2023-07-14T12:29:16.379Z,carts-get,memory,311738368
2023-07-14T12:29:16.379Z,carts-get,memory,310173696
2023-07-14T12:29:16.379Z,queue-master,memory,266272768
2023-07-14T12:29:16.379Z,carts,memory,316968960
2023-07-14T12:29:16.379Z,carts-get,memory,302575616
2023-07-14T12:29:16.576Z,carts-delete,memory,333950976
2023-07-14T12:29:16.576Z,user-login,memory,3727360
2023-07-14T12:29:16.576Z,orders,memory,311492608
2023-07-14T12:29:16.576Z,user-register,memory,3715072
2023-07-14T12:29:16.576Z,user,memory,3727360
2023-07-14T12:29:16.576Z,carts-get,memory,313368576
2023-07-14T12:29:16.576Z,carts-get,memory,310009856
2023-07-14T12:29:16.576Z,payment,memory,2813952
2023-07-14T12:29:16.853Z,shipping,memory,292421632
2023-07-14T12:29:16.853Z,catalogue,memory,3174400
2023-07-14T12:29:16.853Z,carts-get,memory,301862912
2023-07-14T12:29:16.853Z,carts-get,memory,299311104
2023-07-14T12:29:16.853Z,carts-get,memory,313532416
2023-07-14T12:29:16.853Z,carts-post,memory,313901056
2023-07-14T12:29:26.380Z,queue-master,memory,266272768
2023-07-14T12:29:26.380Z,carts-get,memory,311738368
2023-07-14T12:29:26.380Z,carts-get,memory,310173696
2023-07-14T12:29:26.380Z,carts-get,memory,302575616
2023-07-14T12:29:26.380Z,carts,memory,316166144
2023-07-14T12:29:26.576Z,orders,memory,311697408
2023-07-14T12:29:26.576Z,user-register,memory,3751936
2023-07-14T12:29:26.576Z,carts-get,memory,313376768
2023-07-14T12:29:26.576Z,user-login,memory,3751936
2023-07-14T12:29:26.576Z,user,memory,3727360
2023-07-14T12:29:26.576Z,payment,memory,2826240
2023-07-14T12:29:26.576Z,carts-get,memory,309612544
2023-07-14T12:29:26.576Z,carts-delete,memory,333950976
2023-07-14T12:29:26.853Z,carts-get,memory,301858816
2023-07-14T12:29:26.853Z,catalogue,memory,3174400
2023-07-14T12:29:26.853Z,carts-get,memory,313028608
2023-07-14T12:29:26.853Z,carts-get,memory,299311104
2023-07-14T12:29:26.853Z,shipping,memory,292425728
2023-07-14T12:29:26.853Z,carts-post,memory,318828544
2023-07-14T12:29:36.379Z,carts-get,memory,302575616
2023-07-14T12:29:36.379Z,carts-get,memory,311738368
2023-07-14T12:29:36.379Z,carts-get,memory,310173696
2023-07-14T12:29:36.379Z,queue-master,memory,266272768
2023-07-14T12:29:36.379Z,carts,memory,316166144
2023-07-14T12:29:36.575Z,user-register,memory,3751936
2023-07-14T12:29:36.575Z,orders,memory,311697408
2023-07-14T12:29:36.575Z,user-login,memory,3751936
2023-07-14T12:29:36.575Z,user,memory,3727360
2023-07-14T12:29:36.575Z,carts-get,memory,313376768
2023-07-14T12:29:36.575Z,payment,memory,2826240
2023-07-14T12:29:36.575Z,carts-get,memory,309612544
2023-07-14T12:29:36.575Z,carts-delete,memory,333950976
2023-07-14T12:29:36.853Z,carts-get,memory,301858816
2023-07-14T12:29:36.853Z,carts-post,memory,318828544
2023-07-14T12:29:36.853Z,catalogue,memory,3174400
2023-07-14T12:29:36.853Z,carts-get,memory,313028608
2023-07-14T12:29:36.853Z,carts-get,memory,299311104
2023-07-14T12:29:36.853Z,shipping,memory,292425728
2023-07-14T12:29:46.379Z,carts,memory,316215296
2023-07-14T12:29:46.379Z,carts-get,memory,302751744
2023-07-14T12:29:46.379Z,carts-get,memory,310407168
2023-07-14T12:29:46.379Z,carts-get,memory,311861248
2023-07-14T12:29:46.379Z,queue-master,memory,266280960
2023-07-14T12:29:46.576Z,carts-delete,memory,334073856
2023-07-14T12:29:46.576Z,payment,memory,2826240
2023-07-14T12:29:46.576Z,user,memory,3739648
2023-07-14T12:29:46.576Z,user-register,memory,3751936
2023-07-14T12:29:46.576Z,carts-get,memory,309616640
2023-07-14T12:29:46.576Z,carts-get,memory,313376768
2023-07-14T12:29:46.576Z,user-login,memory,3751936
2023-07-14T12:29:46.576Z,orders,memory,311599104
2023-07-14T12:29:46.853Z,carts-post,memory,325541888
2023-07-14T12:29:46.853Z,catalogue,memory,3219456
2023-07-14T12:29:46.853Z,carts-get,memory,299151360
2023-07-14T12:29:46.853Z,carts-get,memory,313229312
2023-07-14T12:29:46.853Z,carts-get,memory,301957120
2023-07-14T12:29:46.853Z,shipping,memory,292438016
2023-07-14T12:29:56.380Z,carts-get,memory,310427648
2023-07-14T12:29:56.380Z,carts,memory,316321792
2023-07-14T12:29:56.380Z,queue-master,memory,265531392
2023-07-14T12:29:56.380Z,carts-get,memory,311861248
2023-07-14T12:29:56.380Z,carts-get,memory,302759936
2023-07-14T12:29:56.576Z,carts-get,memory,309616640
2023-07-14T12:29:56.576Z,user,memory,3776512
2023-07-14T12:29:56.576Z,orders,memory,311599104
2023-07-14T12:29:56.576Z,user-login,memory,3780608
2023-07-14T12:29:56.576Z,carts-delete,memory,334123008
2023-07-14T12:29:56.576Z,payment,memory,2838528
2023-07-14T12:29:56.576Z,user-register,memory,3817472
2023-07-14T12:29:56.576Z,carts-get,memory,313397248
2023-07-14T12:29:56.854Z,shipping,memory,292163584
2023-07-14T12:29:56.854Z,catalogue,memory,3219456
2023-07-14T12:29:56.854Z,carts-get,memory,302030848
2023-07-14T12:29:56.854Z,carts-get,memory,299151360
2023-07-14T12:29:56.854Z,carts-post,memory,330731520
2023-07-14T12:29:56.854Z,carts-get,memory,313274368
2023-07-14T12:30:06.379Z,queue-master,memory,265539584
2023-07-14T12:30:06.379Z,carts-get,memory,312041472
2023-07-14T12:30:06.379Z,carts-get,memory,310468608
2023-07-14T12:30:06.379Z,carts-get,memory,302759936
2023-07-14T12:30:06.379Z,carts,memory,316321792
2023-07-14T12:30:06.576Z,carts-get,memory,313487360
2023-07-14T12:30:06.576Z,carts-delete,memory,333606912
2023-07-14T12:30:06.576Z,user-register,memory,3883008
2023-07-14T12:30:06.576Z,payment,memory,2854912
2023-07-14T12:30:06.576Z,user-login,memory,3817472
2023-07-14T12:30:06.576Z,user,memory,3796992
2023-07-14T12:30:06.576Z,orders,memory,311668736
2023-07-14T12:30:06.576Z,carts-get,memory,309227520
2023-07-14T12:30:06.853Z,carts-get,memory,302030848
2023-07-14T12:30:06.853Z,carts-get,memory,313274368
2023-07-14T12:30:06.853Z,carts-get,memory,299229184
2023-07-14T12:30:06.853Z,shipping,memory,292163584
2023-07-14T12:30:06.853Z,carts-post,memory,330805248
2023-07-14T12:30:06.853Z,catalogue,memory,3231744
2023-07-14T12:30:16.379Z,carts-get,memory,311660544
2023-07-14T12:30:16.379Z,carts-get,memory,302727168
2023-07-14T12:30:16.379Z,queue-master,memory,265560064
2023-07-14T12:30:16.379Z,carts,memory,315797504
2023-07-14T12:30:16.379Z,carts-get,memory,310484992
2023-07-14T12:30:16.576Z,user,memory,3796992
2023-07-14T12:30:16.576Z,user-login,memory,5292032
2023-07-14T12:30:16.576Z,carts-get,memory,309227520
2023-07-14T12:30:16.576Z,carts-delete,memory,333606912
2023-07-14T12:30:16.576Z,orders,memory,311783424
2023-07-14T12:30:16.576Z,carts-get,memory,313507840
2023-07-14T12:30:16.576Z,user-register,memory,3932160
2023-07-14T12:30:16.576Z,payment,memory,3469312
2023-07-14T12:30:16.853Z,catalogue,memory,3231744
2023-07-14T12:30:16.853Z,carts-get,memory,299229184
2023-07-14T12:30:16.853Z,shipping,memory,292163584
2023-07-14T12:30:16.853Z,carts-get,memory,302063616
2023-07-14T12:30:16.853Z,carts-get,memory,313323520
2023-07-14T12:30:16.853Z,carts-post,memory,330817536
2023-07-14T12:30:26.380Z,carts-get,memory,302727168
2023-07-14T12:30:26.380Z,queue-master,memory,267563008
2023-07-14T12:30:26.380Z,carts-get,memory,311660544
2023-07-14T12:30:26.380Z,carts,memory,315965440
2023-07-14T12:30:26.380Z,carts-get,memory,310554624
2023-07-14T12:30:26.575Z,carts-delete,memory,333606912
2023-07-14T12:30:26.575Z,user-login,memory,5292032
2023-07-14T12:30:26.575Z,user-register,memory,3932160
2023-07-14T12:30:26.575Z,user,memory,3796992
2023-07-14T12:30:26.575Z,payment,memory,3469312
2023-07-14T12:30:26.575Z,orders,memory,311783424
2023-07-14T12:30:26.575Z,carts-get,memory,313507840
2023-07-14T12:30:26.575Z,carts-get,memory,309227520
2023-07-14T12:30:26.854Z,carts-post,memory,330817536
2023-07-14T12:30:26.854Z,shipping,memory,291590144
2023-07-14T12:30:26.854Z,carts-get,memory,301322240
2023-07-14T12:30:26.854Z,carts-get,memory,313315328
2023-07-14T12:30:26.854Z,carts-get,memory,299409408
2023-07-14T12:30:26.854Z,catalogue,memory,3244032
2023-07-14T12:30:36.379Z,queue-master,memory,267563008
2023-07-14T12:30:36.379Z,carts,memory,315965440
2023-07-14T12:30:36.379Z,carts-get,memory,311660544
2023-07-14T12:30:36.379Z,carts-get,memory,310554624
2023-07-14T12:30:36.379Z,carts-get,memory,302727168
2023-07-14T12:30:36.575Z,carts-get,memory,309125120
2023-07-14T12:30:36.575Z,carts-delete,memory,333619200
2023-07-14T12:30:36.575Z,user-register,memory,3932160
2023-07-14T12:30:36.575Z,user,memory,3854336
2023-07-14T12:30:36.575Z,user-login,memory,5296128
2023-07-14T12:30:36.575Z,orders,memory,311783424
2023-07-14T12:30:36.575Z,payment,memory,3469312
2023-07-14T12:30:36.575Z,carts-get,memory,313507840
2023-07-14T12:30:36.854Z,catalogue,memory,3272704
2023-07-14T12:30:36.854Z,shipping,memory,291594240
2023-07-14T12:30:36.854Z,carts-get,memory,313323520
2023-07-14T12:30:36.854Z,carts-get,memory,299454464
2023-07-14T12:30:36.854Z,carts-post,memory,334987264
2023-07-14T12:30:36.854Z,carts-get,memory,301322240
2023-07-14T12:30:46.379Z,carts-get,memory,311660544
2023-07-14T12:30:46.379Z,carts,memory,315977728
2023-07-14T12:30:46.379Z,carts-get,memory,301965312
2023-07-14T12:30:46.379Z,queue-master,memory,267563008
2023-07-14T12:30:46.379Z,carts-get,memory,310554624
2023-07-14T12:30:46.576Z,carts-get,memory,309211136
2023-07-14T12:30:46.576Z,carts-get,memory,313688064
2023-07-14T12:30:46.576Z,user-login,memory,5304320
2023-07-14T12:30:46.576Z,user-register,memory,5320704
2023-07-14T12:30:46.576Z,user,memory,5300224
2023-07-14T12:30:46.576Z,carts-delete,memory,333639680
2023-07-14T12:30:46.576Z,payment,memory,3497984
2023-07-14T12:30:46.576Z,orders,memory,311959552
2023-07-14T12:30:46.854Z,carts-get,memory,313327616
2023-07-14T12:30:46.854Z,carts-get,memory,299454464
2023-07-14T12:30:46.854Z,carts-post,memory,334987264
2023-07-14T12:30:46.854Z,carts-get,memory,301342720
2023-07-14T12:30:46.854Z,shipping,memory,291594240
2023-07-14T12:30:46.854Z,catalogue,memory,3272704
2023-07-14T12:30:56.380Z,carts-get,memory,311775232
2023-07-14T12:30:56.380Z,carts-get,memory,302014464
2023-07-14T12:30:56.380Z,queue-master,memory,267583488
2023-07-14T12:30:56.380Z,carts,memory,316063744
2023-07-14T12:30:56.380Z,carts-get,memory,310444032
2023-07-14T12:30:56.575Z,user-register,memory,5320704
2023-07-14T12:30:56.575Z,carts-get,memory,313688064
2023-07-14T12:30:56.575Z,payment,memory,3497984
2023-07-14T12:30:56.575Z,orders,memory,311959552
2023-07-14T12:30:56.575Z,carts-delete,memory,333639680
2023-07-14T12:30:56.575Z,user-login,memory,5304320
2023-07-14T12:30:56.575Z,user,memory,5300224
2023-07-14T12:30:56.575Z,carts-get,memory,309211136
2023-07-14T12:30:56.853Z,carts-get,memory,313327616
2023-07-14T12:30:56.853Z,carts-get,memory,299454464
2023-07-14T12:30:56.853Z,carts-post,memory,334987264
2023-07-14T12:30:56.853Z,carts-get,memory,301342720
2023-07-14T12:30:56.853Z,shipping,memory,291594240
2023-07-14T12:30:56.853Z,catalogue,memory,3272704
2023-07-14T12:31:06.379Z,carts,memory,316063744
2023-07-14T12:31:06.379Z,carts-get,memory,310444032
2023-07-14T12:31:06.379Z,queue-master,memory,267583488
2023-07-14T12:31:06.379Z,carts-get,memory,302014464
2023-07-14T12:31:06.379Z,carts-get,memory,311775232
2023-07-14T12:31:06.575Z,user-register,memory,5349376
2023-07-14T12:31:06.575Z,user-login,memory,5304320
2023-07-14T12:31:06.575Z,carts-delete,memory,333688832
2023-07-14T12:31:06.575Z,carts-get,memory,313688064
2023-07-14T12:31:06.575Z,user,memory,5300224
2023-07-14T12:31:06.575Z,orders,memory,312500224
2023-07-14T12:31:06.575Z,payment,memory,3497984
2023-07-14T12:31:06.575Z,carts-get,memory,309305344
2023-07-14T12:31:06.854Z,carts-get,memory,297689088
2023-07-14T12:31:06.854Z,carts-get,memory,301404160
2023-07-14T12:31:06.854Z,catalogue,memory,3276800
2023-07-14T12:31:06.854Z,carts-post,memory,335044608
2023-07-14T12:31:06.854Z,shipping,memory,289370112
2023-07-14T12:31:06.854Z,carts-get,memory,313552896
2023-07-14T12:31:16.379Z,carts-get,memory,311775232
2023-07-14T12:31:16.379Z,carts-get,memory,310448128
2023-07-14T12:31:16.379Z,carts-get,memory,302014464
2023-07-14T12:31:16.379Z,queue-master,memory,267583488
2023-07-14T12:31:16.379Z,carts,memory,316092416
2023-07-14T12:31:16.575Z,carts-delete,memory,333787136
2023-07-14T12:31:16.575Z,user,memory,5300224
2023-07-14T12:31:16.575Z,carts-get,memory,313671680
2023-07-14T12:31:16.575Z,orders,memory,312606720
2023-07-14T12:31:16.575Z,carts-get,memory,308989952
2023-07-14T12:31:16.575Z,payment,memory,3526656
2023-07-14T12:31:16.575Z,user-register,memory,5361664
2023-07-14T12:31:16.575Z,user-login,memory,5308416
2023-07-14T12:31:16.853Z,carts-get,memory,314097664
2023-07-14T12:31:16.853Z,shipping,memory,289370112
2023-07-14T12:31:16.853Z,carts-get,memory,301445120
2023-07-14T12:31:16.853Z,carts-post,memory,335044608
2023-07-14T12:31:16.853Z,catalogue,memory,5115904
2023-07-14T12:31:16.853Z,carts-get,memory,297689088
2023-07-14T12:31:26.379Z,carts,memory,315928576
2023-07-14T12:31:26.379Z,carts-get,memory,311803904
2023-07-14T12:31:26.379Z,queue-master,memory,264175616
2023-07-14T12:31:26.379Z,carts-get,memory,309682176
2023-07-14T12:31:26.379Z,carts-get,memory,299982848
2023-07-14T12:31:26.575Z,payment,memory,3534848
2023-07-14T12:31:26.575Z,user,memory,5320704
2023-07-14T12:31:26.575Z,user-register,memory,5361664
2023-07-14T12:31:26.575Z,orders,memory,312553472
2023-07-14T12:31:26.575Z,carts-delete,memory,333795328
2023-07-14T12:31:26.575Z,user-login,memory,5304320
2023-07-14T12:31:26.575Z,carts-get,memory,308989952
2023-07-14T12:31:26.575Z,carts-get,memory,313516032
2023-07-14T12:31:26.853Z,carts-get,memory,314097664
2023-07-14T12:31:26.853Z,shipping,memory,289370112
2023-07-14T12:31:26.853Z,carts-get,memory,301445120
2023-07-14T12:31:26.853Z,carts-post,memory,335044608
2023-07-14T12:31:26.853Z,catalogue,memory,5115904
2023-07-14T12:31:26.853Z,carts-get,memory,297689088
2023-07-14T12:31:36.379Z,queue-master,memory,263892992
2023-07-14T12:31:36.379Z,carts-get,memory,311803904
2023-07-14T12:31:36.379Z,carts,memory,315969536
2023-07-14T12:31:36.379Z,carts-get,memory,299982848
2023-07-14T12:31:36.379Z,carts-get,memory,309682176
2023-07-14T12:31:36.575Z,payment,memory,3534848
2023-07-14T12:31:36.575Z,user,memory,5320704
2023-07-14T12:31:36.575Z,carts-get,memory,308989952
2023-07-14T12:31:36.575Z,user-register,memory,5361664
2023-07-14T12:31:36.575Z,carts-delete,memory,333795328
2023-07-14T12:31:36.575Z,user-login,memory,5304320
2023-07-14T12:31:36.575Z,carts-get,memory,313516032
2023-07-14T12:31:36.575Z,orders,memory,312553472
2023-07-14T12:31:36.853Z,shipping,memory,289402880
2023-07-14T12:31:36.853Z,carts-get,memory,297508864
2023-07-14T12:31:36.853Z,carts-get,memory,301043712
2023-07-14T12:31:36.853Z,catalogue,memory,5124096
2023-07-14T12:31:36.853Z,carts-get,memory,314101760
2023-07-14T12:31:36.853Z,carts-post,memory,335060992
2023-07-14T12:31:46.379Z,carts-get,memory,299982848
2023-07-14T12:31:46.379Z,carts-get,memory,309682176
2023-07-14T12:31:46.379Z,carts,memory,315969536
2023-07-14T12:31:46.379Z,queue-master,memory,263892992
2023-07-14T12:31:46.379Z,carts-get,memory,311803904
2023-07-14T12:31:46.575Z,carts-get,memory,313520128
2023-07-14T12:31:46.575Z,user-register,memory,5369856
2023-07-14T12:31:46.575Z,carts-delete,memory,333983744
2023-07-14T12:31:46.575Z,orders,memory,312553472
2023-07-14T12:31:46.575Z,user-login,memory,5320704
2023-07-14T12:31:46.575Z,carts-get,memory,309067776
2023-07-14T12:31:46.575Z,user,memory,5328896
2023-07-14T12:31:46.575Z,payment,memory,3547136
2023-07-14T12:31:46.854Z,carts-get,memory,301096960
2023-07-14T12:31:46.854Z,carts-post,memory,335060992
2023-07-14T12:31:46.854Z,carts-get,memory,297517056
2023-07-14T12:31:46.854Z,shipping,memory,291737600
2023-07-14T12:31:46.854Z,carts-get,memory,314126336
2023-07-14T12:31:46.854Z,catalogue,memory,5136384
2023-07-14T12:31:56.380Z,queue-master,memory,263618560
2023-07-14T12:31:56.380Z,carts-get,memory,309682176
2023-07-14T12:31:56.380Z,carts-get,memory,300007424
2023-07-14T12:31:56.380Z,carts,memory,315969536
2023-07-14T12:31:56.380Z,carts-get,memory,311848960
2023-07-14T12:31:56.575Z,payment,memory,3547136
2023-07-14T12:31:56.575Z,user,memory,5349376
2023-07-14T12:31:56.575Z,carts-delete,memory,333983744
2023-07-14T12:31:56.575Z,carts-get,memory,313520128
2023-07-14T12:31:56.575Z,carts-get,memory,309092352
2023-07-14T12:31:56.575Z,orders,memory,312578048
2023-07-14T12:31:56.575Z,user-login,memory,5320704
2023-07-14T12:31:56.575Z,user-register,memory,5369856
2023-07-14T12:31:56.853Z,catalogue,memory,5140480
2023-07-14T12:31:56.853Z,carts-post,memory,335097856
2023-07-14T12:31:56.853Z,carts-get,memory,314126336
2023-07-14T12:31:56.853Z,carts-get,memory,301096960
2023-07-14T12:31:56.853Z,shipping,memory,291737600
2023-07-14T12:31:56.853Z,carts-get,memory,297529344
2023-07-14T12:32:06.379Z,queue-master,memory,263655424
2023-07-14T12:32:06.379Z,carts-get,memory,299753472
2023-07-14T12:32:06.379Z,carts,memory,315240448
2023-07-14T12:32:06.379Z,carts-get,memory,312217600
2023-07-14T12:32:06.379Z,carts-get,memory,309833728
2023-07-14T12:32:06.575Z,carts-delete,memory,333881344
2023-07-14T12:32:06.575Z,user-login,memory,5345280
2023-07-14T12:32:06.575Z,carts-get,memory,308969472
2023-07-14T12:32:06.575Z,user-register,memory,5427200
2023-07-14T12:32:06.575Z,orders,memory,313081856
2023-07-14T12:32:06.575Z,payment,memory,3588096
2023-07-14T12:32:06.575Z,carts-get,memory,309112832
2023-07-14T12:32:06.575Z,user,memory,5361664
2023-07-14T12:32:06.853Z,shipping,memory,291753984
2023-07-14T12:32:06.853Z,catalogue,memory,5140480
2023-07-14T12:32:06.853Z,carts-get,memory,297529344
2023-07-14T12:32:06.853Z,carts-get,memory,314175488
2023-07-14T12:32:06.853Z,carts-post,memory,335204352
2023-07-14T12:32:06.853Z,carts-get,memory,301162496
2023-07-14T12:32:16.379Z,carts-get,memory,309907456
2023-07-14T12:32:16.379Z,carts,memory,315150336
2023-07-14T12:32:16.379Z,carts-get,memory,299753472
2023-07-14T12:32:16.379Z,carts-get,memory,312168448
2023-07-14T12:32:16.379Z,queue-master,memory,267173888
2023-07-14T12:32:16.575Z,carts-get,memory,308969472
2023-07-14T12:32:16.575Z,carts-delete,memory,333881344
2023-07-14T12:32:16.575Z,payment,memory,3588096
2023-07-14T12:32:16.575Z,user,memory,5361664
2023-07-14T12:32:16.575Z,user-register,memory,5427200
2023-07-14T12:32:16.575Z,user-login,memory,5345280
2023-07-14T12:32:16.575Z,orders,memory,313081856
2023-07-14T12:32:16.575Z,carts-get,memory,309112832
2023-07-14T12:32:16.853Z,catalogue,memory,5140480
2023-07-14T12:32:16.853Z,carts-get,memory,297529344
2023-07-14T12:32:16.853Z,carts-post,memory,335204352
2023-07-14T12:32:16.853Z,carts-get,memory,301162496
2023-07-14T12:32:16.853Z,shipping,memory,291753984
2023-07-14T12:32:16.853Z,carts-get,memory,314175488
2023-07-14T12:32:26.380Z,carts-get,memory,299827200
2023-07-14T12:32:26.380Z,carts-get,memory,312524800
2023-07-14T12:32:26.380Z,queue-master,memory,267173888
2023-07-14T12:32:26.380Z,carts,memory,315150336
2023-07-14T12:32:26.380Z,carts-get,memory,309157888
2023-07-14T12:32:26.575Z,carts-delete,memory,333889536
2023-07-14T12:32:26.575Z,payment,memory,3596288
2023-07-14T12:32:26.575Z,carts-get,memory,308285440
2023-07-14T12:32:26.575Z,carts-get,memory,308699136
2023-07-14T12:32:26.575Z,user,memory,5402624
2023-07-14T12:32:26.575Z,user-login,memory,5378048
2023-07-14T12:32:26.575Z,user-register,memory,5455872
2023-07-14T12:32:26.575Z,orders,memory,313290752
2023-07-14T12:32:26.853Z,carts-get,memory,301191168
2023-07-14T12:32:26.853Z,shipping,memory,291627008
2023-07-14T12:32:26.853Z,catalogue,memory,5165056
2023-07-14T12:32:26.853Z,carts-get,memory,297250816
2023-07-14T12:32:26.853Z,carts-get,memory,314200064
2023-07-14T12:32:26.853Z,carts-post,memory,335245312
2023-07-14T12:32:36.379Z,carts-get,memory,299827200
2023-07-14T12:32:36.379Z,carts-get,memory,312524800
2023-07-14T12:32:36.379Z,carts-get,memory,309157888
2023-07-14T12:32:36.379Z,carts,memory,315150336
2023-07-14T12:32:36.379Z,queue-master,memory,267173888
2023-07-14T12:32:36.575Z,carts-get,memory,308285440
2023-07-14T12:32:36.575Z,user,memory,5414912
2023-07-14T12:32:36.575Z,orders,memory,313200640
2023-07-14T12:32:36.575Z,carts-get,memory,308699136
2023-07-14T12:32:36.575Z,user-login,memory,5378048
2023-07-14T12:32:36.575Z,user-register,memory,5455872
2023-07-14T12:32:36.575Z,carts-delete,memory,333897728
2023-07-14T12:32:36.575Z,payment,memory,3596288
2023-07-14T12:32:36.853Z,shipping,memory,291627008
2023-07-14T12:32:36.853Z,carts-post,memory,335269888
2023-07-14T12:32:36.853Z,carts-get,memory,297250816
2023-07-14T12:32:36.853Z,carts-get,memory,314220544
2023-07-14T12:32:36.853Z,catalogue,memory,5169152
2023-07-14T12:32:36.853Z,carts-get,memory,298180608
2023-07-14T12:32:46.379Z,carts-get,memory,309309440
2023-07-14T12:32:46.379Z,queue-master,memory,265580544
2023-07-14T12:32:46.379Z,carts,memory,312832000
2023-07-14T12:32:46.379Z,carts-get,memory,299880448
2023-07-14T12:32:46.379Z,carts-get,memory,312524800
2023-07-14T12:32:46.576Z,carts-get,memory,308031488
2023-07-14T12:32:46.576Z,user,memory,5459968
2023-07-14T12:32:46.576Z,user-register,memory,5488640
2023-07-14T12:32:46.576Z,user-login,memory,5406720
2023-07-14T12:32:46.576Z,carts-get,memory,308854784
2023-07-14T12:32:46.576Z,payment,memory,3616768
2023-07-14T12:32:46.576Z,carts-delete,memory,334049280
2023-07-14T12:32:46.576Z,orders,memory,312401920
2023-07-14T12:32:46.853Z,shipping,memory,291667968
2023-07-14T12:32:46.853Z,carts-post,memory,335273984
2023-07-14T12:32:46.853Z,carts-get,memory,297365504
2023-07-14T12:32:46.853Z,carts-get,memory,298221568
2023-07-14T12:32:46.853Z,catalogue,memory,5173248
2023-07-14T12:32:46.853Z,carts-get,memory,314257408
2023-07-14T12:32:56.380Z,carts,memory,312897536
2023-07-14T12:32:56.380Z,carts-get,memory,309374976
2023-07-14T12:32:56.380Z,carts-get,memory,299880448
2023-07-14T12:32:56.380Z,carts-get,memory,317825024
2023-07-14T12:32:56.380Z,queue-master,memory,265568256
2023-07-14T12:32:56.576Z,user,memory,5459968
2023-07-14T12:32:56.576Z,user-register,memory,5496832
2023-07-14T12:32:56.576Z,payment,memory,3653632
2023-07-14T12:32:56.576Z,user-login,memory,5427200
2023-07-14T12:32:56.576Z,orders,memory,312401920
2023-07-14T12:32:56.576Z,carts-get,memory,308260864
2023-07-14T12:32:56.576Z,carts-delete,memory,334049280
2023-07-14T12:32:56.576Z,carts-get,memory,308899840
2023-07-14T12:32:56.853Z,carts-get,memory,314253312
2023-07-14T12:32:56.853Z,catalogue,memory,5185536
2023-07-14T12:32:56.853Z,carts-post,memory,335273984
2023-07-14T12:32:56.853Z,shipping,memory,291667968
2023-07-14T12:32:56.853Z,carts-get,memory,297377792
2023-07-14T12:32:56.853Z,carts-get,memory,298221568
2023-07-14T12:33:06.379Z,carts-get,memory,309215232
2023-07-14T12:33:06.379Z,carts,memory,312897536
2023-07-14T12:33:06.379Z,carts-get,memory,299958272
2023-07-14T12:33:06.379Z,queue-master,memory,265568256
2023-07-14T12:33:06.379Z,carts-get,memory,317825024
2023-07-14T12:33:06.575Z,payment,memory,3653632
2023-07-14T12:33:06.575Z,user-register,memory,5496832
2023-07-14T12:33:06.575Z,user-login,memory,5427200
2023-07-14T12:33:06.575Z,orders,memory,312401920
2023-07-14T12:33:06.575Z,carts-get,memory,308260864
2023-07-14T12:33:06.575Z,carts-delete,memory,334049280
2023-07-14T12:33:06.575Z,carts-get,memory,308899840
2023-07-14T12:33:06.575Z,user,memory,5459968
2023-07-14T12:33:06.853Z,catalogue,memory,5185536
2023-07-14T12:33:06.853Z,carts-post,memory,335273984
2023-07-14T12:33:06.853Z,carts-get,memory,314253312
2023-07-14T12:33:06.853Z,shipping,memory,291667968
2023-07-14T12:33:06.853Z,carts-get,memory,297377792
2023-07-14T12:33:06.853Z,carts-get,memory,298221568
2023-07-14T12:33:16.379Z,carts,memory,312999936
2023-07-14T12:33:16.379Z,queue-master,memory,264921088
2023-07-14T12:33:16.379Z,carts-get,memory,309239808
2023-07-14T12:33:16.379Z,carts-get,memory,335208448
2023-07-14T12:33:16.379Z,carts-get,memory,300003328
2023-07-14T12:33:16.575Z,orders,memory,312471552
2023-07-14T12:33:16.575Z,carts-get,memory,308928512
2023-07-14T12:33:16.575Z,user,memory,5472256
2023-07-14T12:33:16.575Z,payment,memory,3665920
2023-07-14T12:33:16.575Z,user-register,memory,5566464
2023-07-14T12:33:16.575Z,carts-get,memory,313475072
2023-07-14T12:33:16.575Z,carts-delete,memory,334114816
2023-07-14T12:33:16.575Z,user-login,memory,5427200
2023-07-14T12:33:16.853Z,carts-post,memory,335392768
2023-07-14T12:33:16.853Z,carts-get,memory,297443328
2023-07-14T12:33:16.853Z,carts-get,memory,298229760
2023-07-14T12:33:16.853Z,shipping,memory,290942976
2023-07-14T12:33:16.853Z,catalogue,memory,5197824
2023-07-14T12:33:16.853Z,carts-get,memory,314286080
2023-07-14T12:33:26.379Z,carts-get,memory,335208448
2023-07-14T12:33:26.379Z,carts-get,memory,300003328
2023-07-14T12:33:26.379Z,carts,memory,312999936
2023-07-14T12:33:26.379Z,queue-master,memory,264921088
2023-07-14T12:33:26.379Z,carts-get,memory,309239808
2023-07-14T12:33:26.575Z,user,memory,5545984
2023-07-14T12:33:26.575Z,orders,memory,311779328
2023-07-14T12:33:26.575Z,user-login,memory,5459968
2023-07-14T12:33:26.575Z,carts-delete,memory,334176256
2023-07-14T12:33:26.575Z,carts-get,memory,313475072
2023-07-14T12:33:26.575Z,user-register,memory,5566464
2023-07-14T12:33:26.575Z,payment,memory,3665920
2023-07-14T12:33:26.575Z,carts-get,memory,308965376
2023-07-14T12:33:26.854Z,carts-get,memory,297299968
2023-07-14T12:33:26.854Z,carts-post,memory,335593472
2023-07-14T12:33:26.854Z,catalogue,memory,5201920
2023-07-14T12:33:26.854Z,shipping,memory,290992128
2023-07-14T12:33:26.854Z,carts-get,memory,314286080
2023-07-14T12:33:26.854Z,carts-get,memory,298283008
2023-07-14T12:33:36.379Z,carts,memory,313110528
2023-07-14T12:33:36.379Z,carts-get,memory,309334016
2023-07-14T12:33:36.379Z,queue-master,memory,264921088
2023-07-14T12:33:36.379Z,carts-get,memory,335208448
2023-07-14T12:33:36.379Z,carts-get,memory,299147264
2023-07-14T12:33:36.576Z,carts-get,memory,327454720
2023-07-14T12:33:36.576Z,carts-get,memory,308977664
2023-07-14T12:33:36.576Z,user-login,memory,5492736
2023-07-14T12:33:36.576Z,user,memory,5566464
2023-07-14T12:33:36.576Z,orders,memory,311848960
2023-07-14T12:33:36.576Z,carts-delete,memory,334303232
2023-07-14T12:33:36.576Z,payment,memory,3690496
2023-07-14T12:33:36.576Z,user-register,memory,5595136
2023-07-14T12:33:36.854Z,carts-get,memory,312553472
2023-07-14T12:33:36.854Z,catalogue,memory,5201920
2023-07-14T12:33:36.854Z,carts-get,memory,298364928
2023-07-14T12:33:36.854Z,shipping,memory,290992128
2023-07-14T12:33:36.854Z,carts-get,memory,297299968
2023-07-14T12:33:36.854Z,carts-post,memory,335523840
2023-07-14T12:33:46.379Z,carts-get,memory,309334016
2023-07-14T12:33:46.379Z,carts-get,memory,299163648
2023-07-14T12:33:46.379Z,carts,memory,313147392
2023-07-14T12:33:46.379Z,carts-get,memory,335220736
2023-07-14T12:33:46.379Z,queue-master,memory,264941568
2023-07-14T12:33:46.576Z,carts-get,memory,327454720
2023-07-14T12:33:46.576Z,carts-get,memory,308977664
2023-07-14T12:33:46.576Z,user-login,memory,5492736
2023-07-14T12:33:46.576Z,user,memory,5566464
2023-07-14T12:33:46.576Z,orders,memory,311848960
2023-07-14T12:33:46.576Z,user-register,memory,5595136
2023-07-14T12:33:46.576Z,carts-delete,memory,334303232
2023-07-14T12:33:46.576Z,payment,memory,3690496
2023-07-14T12:33:46.853Z,carts-get,memory,312553472
2023-07-14T12:33:46.853Z,catalogue,memory,5201920
2023-07-14T12:33:46.853Z,carts-get,memory,298364928
2023-07-14T12:33:46.853Z,shipping,memory,290992128
2023-07-14T12:33:46.853Z,carts-get,memory,297299968
2023-07-14T12:33:46.853Z,carts-post,memory,335523840
2023-07-14T12:33:56.379Z,carts,memory,313147392
2023-07-14T12:33:56.379Z,carts-get,memory,335302656
2023-07-14T12:33:56.379Z,carts-get,memory,299196416
2023-07-14T12:33:56.379Z,carts-get,memory,309379072
2023-07-14T12:33:56.379Z,queue-master,memory,264941568
2023-07-14T12:33:56.575Z,user-login,memory,5558272
2023-07-14T12:33:56.575Z,carts-get,memory,308891648
2023-07-14T12:33:56.575Z,payment,memory,3698688
2023-07-14T12:33:56.575Z,carts-delete,memory,334327808
2023-07-14T12:33:56.575Z,user,memory,5607424
2023-07-14T12:33:56.575Z,carts-get,memory,327454720
2023-07-14T12:33:56.575Z,user-register,memory,5611520
2023-07-14T12:33:56.575Z,orders,memory,311848960
2023-07-14T12:33:56.853Z,catalogue,memory,5259264
2023-07-14T12:33:56.853Z,shipping,memory,290721792
2023-07-14T12:33:56.853Z,carts-post,memory,336003072
2023-07-14T12:33:56.853Z,carts-get,memory,312827904
2023-07-14T12:33:56.853Z,carts-get,memory,297926656
2023-07-14T12:33:56.853Z,carts-get,memory,298381312
2023-07-14T12:34:06.379Z,carts-get,memory,309411840
2023-07-14T12:34:06.379Z,carts-get,memory,339558400
2023-07-14T12:34:06.379Z,queue-master,memory,265289728
2023-07-14T12:34:06.379Z,carts,memory,312262656
2023-07-14T12:34:06.379Z,carts-get,memory,299261952
2023-07-14T12:34:06.576Z,carts-delete,memory,334331904
2023-07-14T12:34:06.576Z,carts-get,memory,327475200
2023-07-14T12:34:06.576Z,payment,memory,3719168
2023-07-14T12:34:06.576Z,user-register,memory,5627904
2023-07-14T12:34:06.576Z,user-login,memory,5591040
2023-07-14T12:34:06.576Z,user,memory,5623808
2023-07-14T12:34:06.576Z,carts-get,memory,308948992
2023-07-14T12:34:06.576Z,orders,memory,311500800
2023-07-14T12:34:06.854Z,carts-post,memory,336965632
2023-07-14T12:34:06.854Z,carts-get,memory,298418176
2023-07-14T12:34:06.854Z,shipping,memory,290721792
2023-07-14T12:34:06.854Z,catalogue,memory,5271552
2023-07-14T12:34:06.854Z,carts-get,memory,312840192
2023-07-14T12:34:06.854Z,carts-get,memory,297963520
2023-07-14T12:34:16.380Z,carts-get,memory,299388928
2023-07-14T12:34:16.380Z,carts-get,memory,307486720
2023-07-14T12:34:16.380Z,queue-master,memory,265560064
2023-07-14T12:34:16.380Z,carts-get,memory,339558400
2023-07-14T12:34:16.380Z,carts,memory,312262656
2023-07-14T12:34:16.576Z,carts-delete,memory,334336000
2023-07-14T12:34:16.576Z,user,memory,5648384
2023-07-14T12:34:16.576Z,carts-get,memory,308977664
2023-07-14T12:34:16.576Z,user-register,memory,5799936
2023-07-14T12:34:16.576Z,orders,memory,311500800
2023-07-14T12:34:16.576Z,payment,memory,3751936
2023-07-14T12:34:16.576Z,carts-get,memory,329699328
2023-07-14T12:34:16.576Z,user-login,memory,5591040
2023-07-14T12:34:16.854Z,carts-get,memory,298446848
2023-07-14T12:34:16.854Z,carts-post,memory,336965632
2023-07-14T12:34:16.854Z,carts-get,memory,312397824
2023-07-14T12:34:16.854Z,carts-get,memory,297963520
2023-07-14T12:34:16.854Z,catalogue,memory,5271552
2023-07-14T12:34:16.854Z,shipping,memory,290787328
2023-07-14T12:34:26.380Z,carts,memory,312262656
2023-07-14T12:34:26.380Z,queue-master,memory,265560064
2023-07-14T12:34:26.380Z,carts-get,memory,307486720
2023-07-14T12:34:26.380Z,carts-get,memory,299388928
2023-07-14T12:34:26.380Z,carts-get,memory,339558400
2023-07-14T12:34:26.575Z,carts-delete,memory,334336000
2023-07-14T12:34:26.575Z,carts-get,memory,308977664
2023-07-14T12:34:26.575Z,carts-get,memory,329699328
2023-07-14T12:34:26.575Z,payment,memory,3751936
2023-07-14T12:34:26.575Z,user,memory,5648384
2023-07-14T12:34:26.575Z,user-register,memory,5799936
2023-07-14T12:34:26.575Z,orders,memory,311500800
2023-07-14T12:34:26.575Z,user-login,memory,5591040
2023-07-14T12:34:26.853Z,carts-post,memory,337076224
2023-07-14T12:34:26.853Z,carts-get,memory,298094592
2023-07-14T12:34:26.853Z,carts-get,memory,318640128
2023-07-14T12:34:26.853Z,shipping,memory,290897920
2023-07-14T12:34:26.853Z,carts-get,memory,298446848
2023-07-14T12:34:26.853Z,catalogue,memory,5296128
2023-07-14T12:34:36.379Z,carts-get,memory,340828160
2023-07-14T12:34:36.379Z,carts-get,memory,307486720
2023-07-14T12:34:36.379Z,queue-master,memory,267988992
2023-07-14T12:34:36.379Z,carts,memory,312270848
2023-07-14T12:34:36.379Z,carts-get,memory,299388928
2023-07-14T12:34:36.576Z,payment,memory,3780608
2023-07-14T12:34:36.576Z,carts-get,memory,329699328
2023-07-14T12:34:36.576Z,user,memory,5648384
2023-07-14T12:34:36.576Z,carts-delete,memory,334336000
2023-07-14T12:34:36.576Z,orders,memory,311541760
2023-07-14T12:34:36.576Z,user-login,memory,5611520
2023-07-14T12:34:36.576Z,carts-get,memory,308981760
2023-07-14T12:34:36.576Z,user-register,memory,5709824
2023-07-14T12:34:36.854Z,catalogue,memory,5296128
2023-07-14T12:34:36.854Z,carts-get,memory,298094592
2023-07-14T12:34:36.854Z,carts-get,memory,318640128
2023-07-14T12:34:36.854Z,shipping,memory,290910208
2023-07-14T12:34:36.854Z,carts-get,memory,298479616
2023-07-14T12:34:36.854Z,carts-post,memory,337104896
2023-07-14T12:34:46.379Z,carts-get,memory,307601408
2023-07-14T12:34:46.379Z,carts,memory,312295424
2023-07-14T12:34:46.379Z,queue-master,memory,268046336
2023-07-14T12:34:46.379Z,carts-get,memory,340905984
2023-07-14T12:34:46.379Z,carts-get,memory,299401216
2023-07-14T12:34:46.575Z,user-login,memory,5681152
2023-07-14T12:34:46.575Z,user,memory,5681152
2023-07-14T12:34:46.575Z,user-register,memory,5742592
2023-07-14T12:34:46.575Z,carts-get,memory,308981760
2023-07-14T12:34:46.575Z,payment,memory,3780608
2023-07-14T12:34:46.575Z,carts-delete,memory,334548992
2023-07-14T12:34:46.575Z,orders,memory,311554048
2023-07-14T12:34:46.575Z,carts-get,memory,330731520
2023-07-14T12:34:46.853Z,carts-get,memory,318640128
2023-07-14T12:34:46.853Z,shipping,memory,290910208
2023-07-14T12:34:46.853Z,catalogue,memory,5296128
2023-07-14T12:34:46.853Z,carts-get,memory,298479616
2023-07-14T12:34:46.853Z,carts-get,memory,298094592
2023-07-14T12:34:46.853Z,carts-post,memory,337104896
2023-07-14T12:34:56.380Z,carts,memory,312295424
2023-07-14T12:34:56.380Z,carts-get,memory,299401216
2023-07-14T12:34:56.380Z,queue-master,memory,268046336
2023-07-14T12:34:56.380Z,carts-get,memory,340918272
2023-07-14T12:34:56.380Z,carts-get,memory,307601408
2023-07-14T12:34:56.575Z,payment,memory,3817472
2023-07-14T12:34:56.575Z,carts-delete,memory,334577664
2023-07-14T12:34:56.575Z,carts-get,memory,309055488
2023-07-14T12:34:56.575Z,carts-get,memory,331153408
2023-07-14T12:34:56.575Z,orders,memory,311799808
2023-07-14T12:34:56.575Z,user,memory,5722112
2023-07-14T12:34:56.575Z,user-login,memory,5693440
2023-07-14T12:34:56.575Z,user-register,memory,5758976
2023-07-14T12:34:56.853Z,carts-post,memory,336969728
2023-07-14T12:34:56.853Z,shipping,memory,289423360
2023-07-14T12:34:56.853Z,carts-get,memory,298131456
2023-07-14T12:34:56.853Z,carts-get,memory,298610688
2023-07-14T12:34:56.853Z,catalogue,memory,5341184
2023-07-14T12:34:56.853Z,carts-get,memory,327847936
2023-07-14T12:35:06.379Z,queue-master,memory,268046336
2023-07-14T12:35:06.379Z,carts-get,memory,299401216
2023-07-14T12:35:06.379Z,carts,memory,312295424
2023-07-14T12:35:06.379Z,carts-get,memory,340918272
2023-07-14T12:35:06.379Z,carts-get,memory,307601408
2023-07-14T12:35:06.575Z,orders,memory,311799808
2023-07-14T12:35:06.575Z,payment,memory,3817472
2023-07-14T12:35:06.575Z,user-register,memory,5758976
2023-07-14T12:35:06.575Z,user,memory,5722112
2023-07-14T12:35:06.575Z,carts-get,memory,331153408
2023-07-14T12:35:06.575Z,carts-delete,memory,334577664
2023-07-14T12:35:06.575Z,carts-get,memory,309055488
2023-07-14T12:35:06.575Z,user-login,memory,5693440
2023-07-14T12:35:06.853Z,carts-get,memory,298618880
2023-07-14T12:35:06.853Z,shipping,memory,289423360
2023-07-14T12:35:06.853Z,carts-post,memory,336969728
2023-07-14T12:35:06.853Z,catalogue,memory,5341184
2023-07-14T12:35:06.853Z,carts-get,memory,298631168
2023-07-14T12:35:06.853Z,carts-get,memory,327847936
2023-07-14T12:35:16.379Z,carts-get,memory,340959232
2023-07-14T12:35:16.379Z,queue-master,memory,267800576
2023-07-14T12:35:16.379Z,carts-get,memory,306917376
2023-07-14T12:35:16.379Z,carts,memory,312053760
2023-07-14T12:35:16.379Z,carts-get,memory,299421696
2023-07-14T12:35:16.575Z,carts-delete,memory,334577664
2023-07-14T12:35:16.575Z,user-login,memory,5718016
2023-07-14T12:35:16.575Z,user-register,memory,5771264
2023-07-14T12:35:16.575Z,carts-get,memory,331571200
2023-07-14T12:35:16.575Z,payment,memory,3837952
2023-07-14T12:35:16.575Z,carts-get,memory,309055488
2023-07-14T12:35:16.575Z,user,memory,5722112
2023-07-14T12:35:16.575Z,orders,memory,311799808
2023-07-14T12:35:16.854Z,carts-get,memory,298618880
2023-07-14T12:35:16.854Z,carts-post,memory,336973824
2023-07-14T12:35:16.854Z,shipping,memory,288792576
2023-07-14T12:35:16.854Z,carts-get,memory,298631168
2023-07-14T12:35:16.854Z,carts-get,memory,329965568
2023-07-14T12:35:16.854Z,catalogue,memory,5345280
