timestamp,key,run_id,resource,metric,value
2022-04-01T08:53:42.866Z,RESERVED_UNIT_1-1-1-1,1,target-1,memory,0.003231048583984375
2022-04-01T08:53:52.865Z,RESERVED_UNIT_1-1-1-1,1,target-1,memory,0.003231048583984375
2022-04-01T08:54:02.865Z,RESERVED_UNIT_1-1-1-1,1,target-1,memory,0.003231048583984375
2022-04-01T08:54:12.865Z,RESERVED_UNIT_1-1-1-1,1,target-1,memory,0.003231048583984375
2022-04-01T08:54:22.866Z,RESERVED_UNIT_1-1-1-1,1,target-1,memory,0.003231048583984375
2022-04-01T08:54:32.865Z,RESERVED_UNIT_1-1-1-1,1,target-1,memory,0.003231048583984375
2022-04-01T08:54:42.866Z,RESERVED_UNIT_1-1-1-1,1,target-1,memory,0.003231048583984375
2022-04-01T08:54:52.866Z,RESERVED_UNIT_1-1-1-1,1,target-1,memory,0.003231048583984375
2022-04-01T08:55:02.865Z,RESERVED_UNIT_1-1-1-1,1,target-1,memory,0.003231048583984375
2022-04-01T08:55:12.865Z,RESERVED_UNIT_1-1-1-1,1,target-1,memory,0.003231048583984375
2022-04-01T08:55:22.866Z,RESERVED_UNIT_1-1-1-1,1,target-1,memory,0.003231048583984375
2022-04-01T08:55:32.866Z,RESERVED_UNIT_1-1-1-1,1,target-1,memory,0.003231048583984375
2022-04-01T08:55:42.865Z,RESERVED_UNIT_1-1-1-1,1,target-1,memory,0.003231048583984375
2022-04-01T08:55:52.865Z,RESERVED_UNIT_1-1-1-1,1,target-1,memory,0.003231048583984375
2022-04-01T08:56:02.865Z,RESERVED_UNIT_1-1-1-1,1,target-1,memory,0.003231048583984375
2022-04-01T08:56:12.866Z,RESERVED_UNIT_1-1-1-1,1,target-1,memory,0.003231048583984375
2022-04-01T08:56:22.865Z,RESERVED_UNIT_1-1-1-1,1,target-1,memory,0.003231048583984375
2022-04-01T08:56:32.866Z,RESERVED_UNIT_1-1-1-1,1,target-1,memory,0.003231048583984375
2022-04-01T08:56:42.865Z,RESERVED_UNIT_1-1-1-1,1,target-1,memory,0.003231048583984375
2022-04-01T08:56:52.865Z,RESERVED_UNIT_1-1-1-1,1,target-1,memory,0.003231048583984375
2022-04-01T08:57:02.865Z,RESERVED_UNIT_1-1-1-1,1,target-1,memory,0.003231048583984375
2022-04-01T08:57:12.865Z,RESERVED_UNIT_1-1-1-1,1,target-1,memory,0.003231048583984375
2022-04-01T08:57:22.866Z,RESERVED_UNIT_1-1-1-1,1,target-1,memory,0.003231048583984375
2022-04-01T08:57:32.866Z,RESERVED_UNIT_1-1-1-1,1,target-1,memory,0.003231048583984375
2022-04-01T08:57:42.865Z,RESERVED_UNIT_1-1-1-1,1,target-1,memory,0.003231048583984375
2022-04-01T08:57:52.865Z,RESERVED_UNIT_1-1-1-1,1,target-1,memory,0.003231048583984375
2022-04-01T08:58:02.865Z,RESERVED_UNIT_1-1-1-1,1,target-1,memory,0.003231048583984375
2022-04-01T08:58:12.866Z,RESERVED_UNIT_1-1-1-1,1,target-1,memory,0.003231048583984375
2022-04-01T08:58:22.866Z,RESERVED_UNIT_1-1-1-1,1,target-1,memory,0.003231048583984375
2022-04-01T08:58:32.866Z,RESERVED_UNIT_1-1-1-1,1,target-1,memory,0.003231048583984375
2022-04-01T08:58:42.866Z,RESERVED_UNIT_1-1-1-1,1,target-1,memory,0.003231048583984375
2022-04-01T08:58:52.866Z,RESERVED_UNIT_1-1-1-1,1,target-1,memory,0.003231048583984375
2022-04-01T08:59:02.866Z,RESERVED_UNIT_1-1-1-1,1,target-1,memory,0.003231048583984375
2022-04-01T08:59:12.866Z,RESERVED_UNIT_1-1-1-1,1,target-1,memory,0.003231048583984375
2022-04-01T08:59:22.866Z,RESERVED_UNIT_1-1-1-1,1,target-1,memory,0.003231048583984375
2022-04-01T08:59:32.865Z,RESERVED_UNIT_1-1-1-1,1,target-1,memory,0.003231048583984375
2022-04-01T08:59:42.865Z,RESERVED_UNIT_1-1-1-1,1,target-1,memory,0.003231048583984375
2022-04-01T08:59:52.866Z,RESERVED_UNIT_1-1-1-1,1,target-1,memory,0.003231048583984375
2022-04-01T09:00:02.865Z,RESERVED_UNIT_1-1-1-1,1,target-1,memory,0.003231048583984375
2022-04-01T09:00:12.866Z,RESERVED_UNIT_1-1-1-1,1,target-1,memory,0.003231048583984375
2022-04-01T09:00:22.866Z,RESERVED_UNIT_1-1-1-1,1,target-1,memory,0.003231048583984375
2022-04-01T09:00:32.865Z,RESERVED_UNIT_1-1-1-1,1,target-1,memory,0.003231048583984375
2022-04-01T09:00:42.866Z,RESERVED_UNIT_1-1-1-1,1,target-1,memory,0.003231048583984375
2022-04-01T09:00:52.866Z,RESERVED_UNIT_1-1-1-1,1,target-1,memory,0.003231048583984375
2022-04-01T09:01:02.866Z,RESERVED_UNIT_1-1-1-1,1,target-1,memory,0.003231048583984375
2022-04-01T09:01:12.866Z,RESERVED_UNIT_1-1-1-1,1,target-1,memory,0.003231048583984375
2022-04-01T09:01:22.865Z,RESERVED_UNIT_1-1-1-1,1,target-1,memory,0.003231048583984375
2022-04-01T09:01:32.865Z,RESERVED_UNIT_1-1-1-1,1,target-1,memory,0.003231048583984375
2022-04-01T09:01:42.866Z,RESERVED_UNIT_1-1-1-1,1,target-1,memory,0.003231048583984375
2022-04-01T09:01:52.866Z,RESERVED_UNIT_1-1-1-1,1,target-1,memory,0.003231048583984375
2022-04-01T09:02:02.866Z,RESERVED_UNIT_1-1-1-1,1,target-1,memory,0.003231048583984375
2022-04-01T09:02:12.866Z,RESERVED_UNIT_1-1-1-1,1,target-1,memory,0.003231048583984375
2022-04-01T09:02:22.865Z,RESERVED_UNIT_1-1-1-1,1,target-1,memory,0.003231048583984375
2022-04-01T09:02:32.866Z,RESERVED_UNIT_1-1-1-1,1,target-1,memory,0.003231048583984375
2022-04-01T09:02:42.866Z,RESERVED_UNIT_1-1-1-1,1,target-1,memory,0.003231048583984375
2022-04-01T09:02:52.865Z,RESERVED_UNIT_1-1-1-1,1,target-1,memory,0.003231048583984375
2022-04-01T09:03:02.866Z,RESERVED_UNIT_1-1-1-1,1,target-1,memory,0.003231048583984375
2022-04-01T09:03:12.865Z,RESERVED_UNIT_1-1-1-1,1,target-1,memory,0.003231048583984375
2022-04-01T09:03:22.866Z,RESERVED_UNIT_1-1-1-1,1,target-1,memory,0.003231048583984375
2022-04-01T09:03:49.324Z,RESERVED_UNIT_1-1-1-1,2,target-1,memory,0.003231048583984375
2022-04-01T09:03:59.323Z,RESERVED_UNIT_1-1-1-1,2,target-1,memory,0.003231048583984375
2022-04-01T09:04:09.323Z,RESERVED_UNIT_1-1-1-1,2,target-1,memory,0.003231048583984375
2022-04-01T09:04:19.323Z,RESERVED_UNIT_1-1-1-1,2,target-1,memory,0.003231048583984375
2022-04-01T09:04:29.324Z,RESERVED_UNIT_1-1-1-1,2,target-1,memory,0.003231048583984375
2022-04-01T09:04:39.324Z,RESERVED_UNIT_1-1-1-1,2,target-1,memory,0.003231048583984375
2022-04-01T09:04:49.323Z,RESERVED_UNIT_1-1-1-1,2,target-1,memory,0.003231048583984375
2022-04-01T09:04:59.324Z,RESERVED_UNIT_1-1-1-1,2,target-1,memory,0.003231048583984375
2022-04-01T09:05:09.323Z,RESERVED_UNIT_1-1-1-1,2,target-1,memory,0.003231048583984375
2022-04-01T09:05:19.324Z,RESERVED_UNIT_1-1-1-1,2,target-1,memory,0.003231048583984375
2022-04-01T09:05:29.323Z,RESERVED_UNIT_1-1-1-1,2,target-1,memory,0.003231048583984375
2022-04-01T09:05:39.323Z,RESERVED_UNIT_1-1-1-1,2,target-1,memory,0.003231048583984375
2022-04-01T09:05:49.323Z,RESERVED_UNIT_1-1-1-1,2,target-1,memory,0.003231048583984375
2022-04-01T09:05:59.323Z,RESERVED_UNIT_1-1-1-1,2,target-1,memory,0.003231048583984375
2022-04-01T09:06:09.324Z,RESERVED_UNIT_1-1-1-1,2,target-1,memory,0.003231048583984375
2022-04-01T09:06:19.323Z,RESERVED_UNIT_1-1-1-1,2,target-1,memory,0.003231048583984375
2022-04-01T09:06:29.324Z,RESERVED_UNIT_1-1-1-1,2,target-1,memory,0.003231048583984375
2022-04-01T09:06:39.323Z,RESERVED_UNIT_1-1-1-1,2,target-1,memory,0.003231048583984375
2022-04-01T09:06:49.324Z,RESERVED_UNIT_1-1-1-1,2,target-1,memory,0.003231048583984375
2022-04-01T09:06:59.323Z,RESERVED_UNIT_1-1-1-1,2,target-1,memory,0.003231048583984375
2022-04-01T09:07:09.324Z,RESERVED_UNIT_1-1-1-1,2,target-1,memory,0.003231048583984375
2022-04-01T09:07:19.324Z,RESERVED_UNIT_1-1-1-1,2,target-1,memory,0.003231048583984375
2022-04-01T09:07:29.323Z,RESERVED_UNIT_1-1-1-1,2,target-1,memory,0.003231048583984375
2022-04-01T09:07:39.324Z,RESERVED_UNIT_1-1-1-1,2,target-1,memory,0.003231048583984375
2022-04-01T09:07:49.324Z,RESERVED_UNIT_1-1-1-1,2,target-1,memory,0.003231048583984375
2022-04-01T09:07:59.324Z,RESERVED_UNIT_1-1-1-1,2,target-1,memory,0.003231048583984375
2022-04-01T09:08:09.324Z,RESERVED_UNIT_1-1-1-1,2,target-1,memory,0.003231048583984375
2022-04-01T09:08:19.324Z,RESERVED_UNIT_1-1-1-1,2,target-1,memory,0.003231048583984375
2022-04-01T09:08:29.323Z,RESERVED_UNIT_1-1-1-1,2,target-1,memory,0.003231048583984375
2022-04-01T09:08:39.324Z,RESERVED_UNIT_1-1-1-1,2,target-1,memory,0.003231048583984375
2022-04-01T09:08:49.323Z,RESERVED_UNIT_1-1-1-1,2,target-1,memory,0.003231048583984375
2022-04-01T09:08:59.323Z,RESERVED_UNIT_1-1-1-1,2,target-1,memory,0.003231048583984375
2022-04-01T09:09:09.323Z,RESERVED_UNIT_1-1-1-1,2,target-1,memory,0.003231048583984375
2022-04-01T09:09:19.324Z,RESERVED_UNIT_1-1-1-1,2,target-1,memory,0.003231048583984375
2022-04-01T09:09:29.324Z,RESERVED_UNIT_1-1-1-1,2,target-1,memory,0.003231048583984375
2022-04-01T09:09:39.324Z,RESERVED_UNIT_1-1-1-1,2,target-1,memory,0.003231048583984375
2022-04-01T09:09:49.324Z,RESERVED_UNIT_1-1-1-1,2,target-1,memory,0.003231048583984375
2022-04-01T09:09:59.324Z,RESERVED_UNIT_1-1-1-1,2,target-1,memory,0.003231048583984375
2022-04-01T09:10:09.324Z,RESERVED_UNIT_1-1-1-1,2,target-1,memory,0.003231048583984375
2022-04-01T09:10:19.323Z,RESERVED_UNIT_1-1-1-1,2,target-1,memory,0.003231048583984375
2022-04-01T09:10:29.323Z,RESERVED_UNIT_1-1-1-1,2,target-1,memory,0.003231048583984375
2022-04-01T09:10:39.323Z,RESERVED_UNIT_1-1-1-1,2,target-1,memory,0.003231048583984375
2022-04-01T09:10:49.324Z,RESERVED_UNIT_1-1-1-1,2,target-1,memory,0.003231048583984375
2022-04-01T09:10:59.324Z,RESERVED_UNIT_1-1-1-1,2,target-1,memory,0.003231048583984375
2022-04-01T09:11:09.324Z,RESERVED_UNIT_1-1-1-1,2,target-1,memory,0.003231048583984375
2022-04-01T09:11:19.324Z,RESERVED_UNIT_1-1-1-1,2,target-1,memory,0.003231048583984375
2022-04-01T09:11:29.324Z,RESERVED_UNIT_1-1-1-1,2,target-1,memory,0.003231048583984375
2022-04-01T09:11:39.323Z,RESERVED_UNIT_1-1-1-1,2,target-1,memory,0.003231048583984375
2022-04-01T09:11:49.323Z,RESERVED_UNIT_1-1-1-1,2,target-1,memory,0.003231048583984375
2022-04-01T09:11:59.323Z,RESERVED_UNIT_1-1-1-1,2,target-1,memory,0.003231048583984375
2022-04-01T09:12:09.324Z,RESERVED_UNIT_1-1-1-1,2,target-1,memory,0.003231048583984375
2022-04-01T09:12:19.323Z,RESERVED_UNIT_1-1-1-1,2,target-1,memory,0.003231048583984375
2022-04-01T09:12:29.323Z,RESERVED_UNIT_1-1-1-1,2,target-1,memory,0.003231048583984375
2022-04-01T09:12:39.323Z,RESERVED_UNIT_1-1-1-1,2,target-1,memory,0.003231048583984375
2022-04-01T09:12:49.324Z,RESERVED_UNIT_1-1-1-1,2,target-1,memory,0.003231048583984375
2022-04-01T09:12:59.323Z,RESERVED_UNIT_1-1-1-1,2,target-1,memory,0.003231048583984375
2022-04-01T09:13:09.324Z,RESERVED_UNIT_1-1-1-1,2,target-1,memory,0.003231048583984375
2022-04-01T09:13:19.323Z,RESERVED_UNIT_1-1-1-1,2,target-1,memory,0.003231048583984375
2022-04-01T09:13:29.324Z,RESERVED_UNIT_1-1-1-1,2,target-1,memory,0.003231048583984375
2022-04-01T09:13:39.324Z,RESERVED_UNIT_1-1-1-1,2,target-1,memory,0.003231048583984375
2022-04-01T09:13:57.588Z,RESERVED_UNIT_1-1-1-1,3,target-1,memory,0.003231048583984375
2022-04-01T09:14:07.589Z,RESERVED_UNIT_1-1-1-1,3,target-1,memory,0.003231048583984375
2022-04-01T09:14:17.588Z,RESERVED_UNIT_1-1-1-1,3,target-1,memory,0.003231048583984375
2022-04-01T09:14:27.588Z,RESERVED_UNIT_1-1-1-1,3,target-1,memory,0.003231048583984375
2022-04-01T09:14:37.588Z,RESERVED_UNIT_1-1-1-1,3,target-1,memory,0.003231048583984375
2022-04-01T09:14:47.589Z,RESERVED_UNIT_1-1-1-1,3,target-1,memory,0.003231048583984375
2022-04-01T09:14:57.588Z,RESERVED_UNIT_1-1-1-1,3,target-1,memory,0.003231048583984375
2022-04-01T09:15:07.588Z,RESERVED_UNIT_1-1-1-1,3,target-1,memory,0.003231048583984375
2022-04-01T09:15:17.589Z,RESERVED_UNIT_1-1-1-1,3,target-1,memory,0.003231048583984375
2022-04-01T09:15:27.588Z,RESERVED_UNIT_1-1-1-1,3,target-1,memory,0.003231048583984375
2022-04-01T09:15:37.588Z,RESERVED_UNIT_1-1-1-1,3,target-1,memory,0.003231048583984375
2022-04-01T09:15:47.589Z,RESERVED_UNIT_1-1-1-1,3,target-1,memory,0.003231048583984375
2022-04-01T09:15:57.588Z,RESERVED_UNIT_1-1-1-1,3,target-1,memory,0.003231048583984375
2022-04-01T09:16:07.588Z,RESERVED_UNIT_1-1-1-1,3,target-1,memory,0.003231048583984375
2022-04-01T09:16:17.588Z,RESERVED_UNIT_1-1-1-1,3,target-1,memory,0.003231048583984375
2022-04-01T09:16:27.589Z,RESERVED_UNIT_1-1-1-1,3,target-1,memory,0.003231048583984375
2022-04-01T09:16:37.589Z,RESERVED_UNIT_1-1-1-1,3,target-1,memory,0.003231048583984375
2022-04-01T09:16:47.588Z,RESERVED_UNIT_1-1-1-1,3,target-1,memory,0.003231048583984375
2022-04-01T09:16:57.588Z,RESERVED_UNIT_1-1-1-1,3,target-1,memory,0.003231048583984375
2022-04-01T09:17:07.588Z,RESERVED_UNIT_1-1-1-1,3,target-1,memory,0.003231048583984375
2022-04-01T09:17:17.589Z,RESERVED_UNIT_1-1-1-1,3,target-1,memory,0.003231048583984375
2022-04-01T09:17:27.588Z,RESERVED_UNIT_1-1-1-1,3,target-1,memory,0.003231048583984375
2022-04-01T09:17:37.589Z,RESERVED_UNIT_1-1-1-1,3,target-1,memory,0.003231048583984375
2022-04-01T09:17:47.588Z,RESERVED_UNIT_1-1-1-1,3,target-1,memory,0.003231048583984375
2022-04-01T09:17:57.588Z,RESERVED_UNIT_1-1-1-1,3,target-1,memory,0.003231048583984375
2022-04-01T09:18:07.588Z,RESERVED_UNIT_1-1-1-1,3,target-1,memory,0.003231048583984375
2022-04-01T09:18:17.588Z,RESERVED_UNIT_1-1-1-1,3,target-1,memory,0.003231048583984375
2022-04-01T09:18:27.588Z,RESERVED_UNIT_1-1-1-1,3,target-1,memory,0.003231048583984375
2022-04-01T09:18:37.589Z,RESERVED_UNIT_1-1-1-1,3,target-1,memory,0.003231048583984375
2022-04-01T09:18:47.588Z,RESERVED_UNIT_1-1-1-1,3,target-1,memory,0.003231048583984375
2022-04-01T09:18:57.588Z,RESERVED_UNIT_1-1-1-1,3,target-1,memory,0.003231048583984375
2022-04-01T09:19:07.588Z,RESERVED_UNIT_1-1-1-1,3,target-1,memory,0.003231048583984375
2022-04-01T09:19:17.588Z,RESERVED_UNIT_1-1-1-1,3,target-1,memory,0.003231048583984375
2022-04-01T09:19:27.589Z,RESERVED_UNIT_1-1-1-1,3,target-1,memory,0.003231048583984375
2022-04-01T09:19:37.588Z,RESERVED_UNIT_1-1-1-1,3,target-1,memory,0.003231048583984375
2022-04-01T09:19:47.588Z,RESERVED_UNIT_1-1-1-1,3,target-1,memory,0.003231048583984375
2022-04-01T09:19:57.588Z,RESERVED_UNIT_1-1-1-1,3,target-1,memory,0.003231048583984375
2022-04-01T09:20:07.588Z,RESERVED_UNIT_1-1-1-1,3,target-1,memory,0.003231048583984375
2022-04-01T09:20:17.589Z,RESERVED_UNIT_1-1-1-1,3,target-1,memory,0.003231048583984375
2022-04-01T09:20:27.588Z,RESERVED_UNIT_1-1-1-1,3,target-1,memory,0.003231048583984375
2022-04-01T09:20:37.588Z,RESERVED_UNIT_1-1-1-1,3,target-1,memory,0.003231048583984375
2022-04-01T09:20:47.588Z,RESERVED_UNIT_1-1-1-1,3,target-1,memory,0.003231048583984375
2022-04-01T09:20:57.588Z,RESERVED_UNIT_1-1-1-1,3,target-1,memory,0.003231048583984375
2022-04-01T09:21:07.588Z,RESERVED_UNIT_1-1-1-1,3,target-1,memory,0.003231048583984375
2022-04-01T09:21:17.588Z,RESERVED_UNIT_1-1-1-1,3,target-1,memory,0.003231048583984375
2022-04-01T09:21:27.588Z,RESERVED_UNIT_1-1-1-1,3,target-1,memory,0.003231048583984375
2022-04-01T09:21:37.589Z,RESERVED_UNIT_1-1-1-1,3,target-1,memory,0.003231048583984375
2022-04-01T09:21:47.588Z,RESERVED_UNIT_1-1-1-1,3,target-1,memory,0.003231048583984375
2022-04-01T09:21:57.589Z,RESERVED_UNIT_1-1-1-1,3,target-1,memory,0.003231048583984375
2022-04-01T09:22:07.588Z,RESERVED_UNIT_1-1-1-1,3,target-1,memory,0.003231048583984375
2022-04-01T09:22:17.588Z,RESERVED_UNIT_1-1-1-1,3,target-1,memory,0.003231048583984375
2022-04-01T09:22:27.588Z,RESERVED_UNIT_1-1-1-1,3,target-1,memory,0.003231048583984375
2022-04-01T09:22:37.588Z,RESERVED_UNIT_1-1-1-1,3,target-1,memory,0.003231048583984375
2022-04-01T09:22:47.588Z,RESERVED_UNIT_1-1-1-1,3,target-1,memory,0.003231048583984375
2022-04-01T09:22:57.588Z,RESERVED_UNIT_1-1-1-1,3,target-1,memory,0.003231048583984375
2022-04-01T09:23:07.588Z,RESERVED_UNIT_1-1-1-1,3,target-1,memory,0.003231048583984375
2022-04-01T09:23:17.588Z,RESERVED_UNIT_1-1-1-1,3,target-1,memory,0.003231048583984375
2022-04-01T09:23:27.588Z,RESERVED_UNIT_1-1-1-1,3,target-1,memory,0.003231048583984375
2022-04-01T09:23:37.589Z,RESERVED_UNIT_1-1-1-1,3,target-1,memory,0.003231048583984375
2022-04-01T11:58:36.549Z,RESERVED_UNIT_1-2-1-2,1,target-1,memory,0.00296783447265625
2022-04-01T11:58:46.549Z,RESERVED_UNIT_1-2-1-2,1,target-1,memory,0.00296783447265625
2022-04-01T11:58:56.549Z,RESERVED_UNIT_1-2-1-2,1,target-1,memory,0.002971649169921875
2022-04-01T11:59:06.549Z,RESERVED_UNIT_1-2-1-2,1,target-1,memory,0.002971649169921875
2022-04-01T11:59:16.549Z,RESERVED_UNIT_1-2-1-2,1,target-1,memory,0.002971649169921875
2022-04-01T11:59:26.549Z,RESERVED_UNIT_1-2-1-2,1,target-1,memory,0.002971649169921875
2022-04-01T11:59:36.549Z,RESERVED_UNIT_1-2-1-2,1,target-1,memory,0.002971649169921875
2022-04-01T11:59:46.549Z,RESERVED_UNIT_1-2-1-2,1,target-1,memory,0.002971649169921875
2022-04-01T11:59:56.550Z,RESERVED_UNIT_1-2-1-2,1,target-1,memory,0.002971649169921875
2022-04-01T12:00:06.549Z,RESERVED_UNIT_1-2-1-2,1,target-1,memory,0.002971649169921875
2022-04-01T12:00:16.550Z,RESERVED_UNIT_1-2-1-2,1,target-1,memory,0.002971649169921875
2022-04-01T12:00:26.549Z,RESERVED_UNIT_1-2-1-2,1,target-1,memory,0.002971649169921875
2022-04-01T12:00:36.550Z,RESERVED_UNIT_1-2-1-2,1,target-1,memory,0.002971649169921875
2022-04-01T12:00:46.549Z,RESERVED_UNIT_1-2-1-2,1,target-1,memory,0.002971649169921875
2022-04-01T12:00:56.549Z,RESERVED_UNIT_1-2-1-2,1,target-1,memory,0.002971649169921875
2022-04-01T12:01:06.549Z,RESERVED_UNIT_1-2-1-2,1,target-1,memory,0.002971649169921875
2022-04-01T12:01:16.549Z,RESERVED_UNIT_1-2-1-2,1,target-1,memory,0.002971649169921875
2022-04-01T12:01:26.549Z,RESERVED_UNIT_1-2-1-2,1,target-1,memory,0.002971649169921875
2022-04-01T12:01:36.550Z,RESERVED_UNIT_1-2-1-2,1,target-1,memory,0.002971649169921875
2022-04-01T12:01:46.549Z,RESERVED_UNIT_1-2-1-2,1,target-1,memory,0.002971649169921875
2022-04-01T12:01:56.549Z,RESERVED_UNIT_1-2-1-2,1,target-1,memory,0.002971649169921875
2022-04-01T12:02:06.549Z,RESERVED_UNIT_1-2-1-2,1,target-1,memory,0.002971649169921875
2022-04-01T12:02:16.550Z,RESERVED_UNIT_1-2-1-2,1,target-1,memory,0.002971649169921875
2022-04-01T12:02:26.549Z,RESERVED_UNIT_1-2-1-2,1,target-1,memory,0.002971649169921875
2022-04-01T12:02:36.550Z,RESERVED_UNIT_1-2-1-2,1,target-1,memory,0.002971649169921875
2022-04-01T12:02:46.549Z,RESERVED_UNIT_1-2-1-2,1,target-1,memory,0.002971649169921875
2022-04-01T12:02:56.549Z,RESERVED_UNIT_1-2-1-2,1,target-1,memory,0.002971649169921875
2022-04-01T12:03:06.550Z,RESERVED_UNIT_1-2-1-2,1,target-1,memory,0.002971649169921875
2022-04-01T12:03:16.549Z,RESERVED_UNIT_1-2-1-2,1,target-1,memory,0.002971649169921875
2022-04-01T12:03:26.549Z,RESERVED_UNIT_1-2-1-2,1,target-1,memory,0.002971649169921875
2022-04-01T12:03:36.549Z,RESERVED_UNIT_1-2-1-2,1,target-1,memory,0.002971649169921875
2022-04-01T12:03:46.549Z,RESERVED_UNIT_1-2-1-2,1,target-1,memory,0.002971649169921875
2022-04-01T12:03:56.549Z,RESERVED_UNIT_1-2-1-2,1,target-1,memory,0.002971649169921875
2022-04-01T12:04:06.550Z,RESERVED_UNIT_1-2-1-2,1,target-1,memory,0.002971649169921875
2022-04-01T12:04:16.549Z,RESERVED_UNIT_1-2-1-2,1,target-1,memory,0.002971649169921875
2022-04-01T12:04:26.549Z,RESERVED_UNIT_1-2-1-2,1,target-1,memory,0.002971649169921875
2022-04-01T12:04:36.549Z,RESERVED_UNIT_1-2-1-2,1,target-1,memory,0.002971649169921875
2022-04-01T12:04:46.549Z,RESERVED_UNIT_1-2-1-2,1,target-1,memory,0.002971649169921875
2022-04-01T12:04:56.549Z,RESERVED_UNIT_1-2-1-2,1,target-1,memory,0.002971649169921875
2022-04-01T12:05:06.549Z,RESERVED_UNIT_1-2-1-2,1,target-1,memory,0.002971649169921875
2022-04-01T12:05:16.549Z,RESERVED_UNIT_1-2-1-2,1,target-1,memory,0.002971649169921875
2022-04-01T12:05:26.549Z,RESERVED_UNIT_1-2-1-2,1,target-1,memory,0.002971649169921875
2022-04-01T12:05:36.549Z,RESERVED_UNIT_1-2-1-2,1,target-1,memory,0.002971649169921875
2022-04-01T12:05:46.549Z,RESERVED_UNIT_1-2-1-2,1,target-1,memory,0.002971649169921875
2022-04-01T12:05:56.549Z,RESERVED_UNIT_1-2-1-2,1,target-1,memory,0.002971649169921875
2022-04-01T12:06:06.549Z,RESERVED_UNIT_1-2-1-2,1,target-1,memory,0.002971649169921875
2022-04-01T12:06:16.549Z,RESERVED_UNIT_1-2-1-2,1,target-1,memory,0.002971649169921875
2022-04-01T12:06:26.549Z,RESERVED_UNIT_1-2-1-2,1,target-1,memory,0.002971649169921875
2022-04-01T12:06:36.550Z,RESERVED_UNIT_1-2-1-2,1,target-1,memory,0.002971649169921875
2022-04-01T12:06:46.549Z,RESERVED_UNIT_1-2-1-2,1,target-1,memory,0.002971649169921875
2022-04-01T12:06:56.549Z,RESERVED_UNIT_1-2-1-2,1,target-1,memory,0.002971649169921875
2022-04-01T12:07:06.549Z,RESERVED_UNIT_1-2-1-2,1,target-1,memory,0.002971649169921875
2022-04-01T12:07:16.550Z,RESERVED_UNIT_1-2-1-2,1,target-1,memory,0.002971649169921875
2022-04-01T12:07:26.549Z,RESERVED_UNIT_1-2-1-2,1,target-1,memory,0.002971649169921875
2022-04-01T12:07:36.550Z,RESERVED_UNIT_1-2-1-2,1,target-1,memory,0.002971649169921875
2022-04-01T12:07:46.549Z,RESERVED_UNIT_1-2-1-2,1,target-1,memory,0.002971649169921875
2022-04-01T12:07:56.549Z,RESERVED_UNIT_1-2-1-2,1,target-1,memory,0.002971649169921875
2022-04-01T12:08:06.549Z,RESERVED_UNIT_1-2-1-2,1,target-1,memory,0.002971649169921875
2022-04-01T12:08:16.549Z,RESERVED_UNIT_1-2-1-2,1,target-1,memory,0.002971649169921875
2022-04-01T12:08:26.550Z,RESERVED_UNIT_1-2-1-2,1,target-1,memory,0.002971649169921875
2022-04-01T12:08:49.820Z,RESERVED_UNIT_1-2-1-2,2,target-1,memory,0.002971649169921875
2022-04-01T12:08:59.820Z,RESERVED_UNIT_1-2-1-2,2,target-1,memory,0.002971649169921875
2022-04-01T12:09:09.820Z,RESERVED_UNIT_1-2-1-2,2,target-1,memory,0.002971649169921875
2022-04-01T12:09:19.820Z,RESERVED_UNIT_1-2-1-2,2,target-1,memory,0.002971649169921875
2022-04-01T12:09:29.820Z,RESERVED_UNIT_1-2-1-2,2,target-1,memory,0.002971649169921875
2022-04-01T12:09:39.820Z,RESERVED_UNIT_1-2-1-2,2,target-1,memory,0.002971649169921875
2022-04-01T12:09:49.820Z,RESERVED_UNIT_1-2-1-2,2,target-1,memory,0.002971649169921875
2022-04-01T12:09:59.820Z,RESERVED_UNIT_1-2-1-2,2,target-1,memory,0.002971649169921875
2022-04-01T12:10:09.820Z,RESERVED_UNIT_1-2-1-2,2,target-1,memory,0.002971649169921875
2022-04-01T12:10:19.820Z,RESERVED_UNIT_1-2-1-2,2,target-1,memory,0.002971649169921875
2022-04-01T12:10:29.820Z,RESERVED_UNIT_1-2-1-2,2,target-1,memory,0.002971649169921875
2022-04-01T12:10:39.820Z,RESERVED_UNIT_1-2-1-2,2,target-1,memory,0.002971649169921875
2022-04-01T12:10:49.819Z,RESERVED_UNIT_1-2-1-2,2,target-1,memory,0.002971649169921875
2022-04-01T12:10:59.819Z,RESERVED_UNIT_1-2-1-2,2,target-1,memory,0.002971649169921875
2022-04-01T12:11:09.820Z,RESERVED_UNIT_1-2-1-2,2,target-1,memory,0.002971649169921875
2022-04-01T12:11:19.820Z,RESERVED_UNIT_1-2-1-2,2,target-1,memory,0.002971649169921875
2022-04-01T12:11:29.819Z,RESERVED_UNIT_1-2-1-2,2,target-1,memory,0.002971649169921875
2022-04-01T12:11:39.820Z,RESERVED_UNIT_1-2-1-2,2,target-1,memory,0.002971649169921875
2022-04-01T12:11:49.820Z,RESERVED_UNIT_1-2-1-2,2,target-1,memory,0.002971649169921875
2022-04-01T12:11:59.820Z,RESERVED_UNIT_1-2-1-2,2,target-1,memory,0.002971649169921875
2022-04-01T12:12:09.820Z,RESERVED_UNIT_1-2-1-2,2,target-1,memory,0.002971649169921875
2022-04-01T12:12:19.820Z,RESERVED_UNIT_1-2-1-2,2,target-1,memory,0.002971649169921875
2022-04-01T12:12:29.819Z,RESERVED_UNIT_1-2-1-2,2,target-1,memory,0.002971649169921875
2022-04-01T12:12:39.820Z,RESERVED_UNIT_1-2-1-2,2,target-1,memory,0.002971649169921875
2022-04-01T12:12:49.820Z,RESERVED_UNIT_1-2-1-2,2,target-1,memory,0.002971649169921875
2022-04-01T12:12:59.820Z,RESERVED_UNIT_1-2-1-2,2,target-1,memory,0.002971649169921875
2022-04-01T12:13:09.820Z,RESERVED_UNIT_1-2-1-2,2,target-1,memory,0.002971649169921875
2022-04-01T12:13:19.820Z,RESERVED_UNIT_1-2-1-2,2,target-1,memory,0.002971649169921875
2022-04-01T12:13:29.820Z,RESERVED_UNIT_1-2-1-2,2,target-1,memory,0.002971649169921875
2022-04-01T12:13:39.820Z,RESERVED_UNIT_1-2-1-2,2,target-1,memory,0.002971649169921875
2022-04-01T12:13:49.820Z,RESERVED_UNIT_1-2-1-2,2,target-1,memory,0.002971649169921875
2022-04-01T12:13:59.820Z,RESERVED_UNIT_1-2-1-2,2,target-1,memory,0.002971649169921875
2022-04-01T12:14:09.819Z,RESERVED_UNIT_1-2-1-2,2,target-1,memory,0.002971649169921875
2022-04-01T12:14:19.820Z,RESERVED_UNIT_1-2-1-2,2,target-1,memory,0.002971649169921875
2022-04-01T12:14:29.820Z,RESERVED_UNIT_1-2-1-2,2,target-1,memory,0.002971649169921875
2022-04-01T12:14:39.819Z,RESERVED_UNIT_1-2-1-2,2,target-1,memory,0.002971649169921875
2022-04-01T12:14:49.820Z,RESERVED_UNIT_1-2-1-2,2,target-1,memory,0.002971649169921875
2022-04-01T12:14:59.819Z,RESERVED_UNIT_1-2-1-2,2,target-1,memory,0.002971649169921875
2022-04-01T12:15:09.820Z,RESERVED_UNIT_1-2-1-2,2,target-1,memory,0.002971649169921875
2022-04-01T12:15:19.820Z,RESERVED_UNIT_1-2-1-2,2,target-1,memory,0.002971649169921875
2022-04-01T12:15:29.820Z,RESERVED_UNIT_1-2-1-2,2,target-1,memory,0.002971649169921875
2022-04-01T12:15:39.819Z,RESERVED_UNIT_1-2-1-2,2,target-1,memory,0.002971649169921875
2022-04-01T12:15:49.820Z,RESERVED_UNIT_1-2-1-2,2,target-1,memory,0.002971649169921875
2022-04-01T12:15:59.819Z,RESERVED_UNIT_1-2-1-2,2,target-1,memory,0.002971649169921875
2022-04-01T12:16:09.819Z,RESERVED_UNIT_1-2-1-2,2,target-1,memory,0.002971649169921875
2022-04-01T12:16:19.820Z,RESERVED_UNIT_1-2-1-2,2,target-1,memory,0.002971649169921875
2022-04-01T12:16:29.820Z,RESERVED_UNIT_1-2-1-2,2,target-1,memory,0.002971649169921875
2022-04-01T12:16:39.820Z,RESERVED_UNIT_1-2-1-2,2,target-1,memory,0.002971649169921875
2022-04-01T12:16:49.819Z,RESERVED_UNIT_1-2-1-2,2,target-1,memory,0.002971649169921875
2022-04-01T12:16:59.819Z,RESERVED_UNIT_1-2-1-2,2,target-1,memory,0.002971649169921875
2022-04-01T12:17:09.820Z,RESERVED_UNIT_1-2-1-2,2,target-1,memory,0.002971649169921875
2022-04-01T12:17:19.820Z,RESERVED_UNIT_1-2-1-2,2,target-1,memory,0.002971649169921875
2022-04-01T12:17:29.820Z,RESERVED_UNIT_1-2-1-2,2,target-1,memory,0.002971649169921875
2022-04-01T12:17:39.820Z,RESERVED_UNIT_1-2-1-2,2,target-1,memory,0.002971649169921875
2022-04-01T12:17:49.820Z,RESERVED_UNIT_1-2-1-2,2,target-1,memory,0.002971649169921875
2022-04-01T12:17:59.820Z,RESERVED_UNIT_1-2-1-2,2,target-1,memory,0.002971649169921875
2022-04-01T12:18:09.820Z,RESERVED_UNIT_1-2-1-2,2,target-1,memory,0.002971649169921875
2022-04-01T12:18:19.820Z,RESERVED_UNIT_1-2-1-2,2,target-1,memory,0.002971649169921875
2022-04-01T12:18:29.820Z,RESERVED_UNIT_1-2-1-2,2,target-1,memory,0.002971649169921875
2022-04-01T12:18:39.819Z,RESERVED_UNIT_1-2-1-2,2,target-1,memory,0.002971649169921875
2022-04-01T12:19:02.526Z,RESERVED_UNIT_1-2-1-2,3,target-1,memory,0.002971649169921875
2022-04-01T12:19:12.526Z,RESERVED_UNIT_1-2-1-2,3,target-1,memory,0.002971649169921875
2022-04-01T12:19:22.526Z,RESERVED_UNIT_1-2-1-2,3,target-1,memory,0.002971649169921875
2022-04-01T12:19:32.526Z,RESERVED_UNIT_1-2-1-2,3,target-1,memory,0.002971649169921875
2022-04-01T12:19:42.526Z,RESERVED_UNIT_1-2-1-2,3,target-1,memory,0.002971649169921875
2022-04-01T12:19:52.526Z,RESERVED_UNIT_1-2-1-2,3,target-1,memory,0.002971649169921875
2022-04-01T12:20:02.526Z,RESERVED_UNIT_1-2-1-2,3,target-1,memory,0.002971649169921875
2022-04-01T12:20:12.526Z,RESERVED_UNIT_1-2-1-2,3,target-1,memory,0.002971649169921875
2022-04-01T12:20:22.525Z,RESERVED_UNIT_1-2-1-2,3,target-1,memory,0.002971649169921875
2022-04-01T12:20:32.526Z,RESERVED_UNIT_1-2-1-2,3,target-1,memory,0.002971649169921875
2022-04-01T12:20:42.526Z,RESERVED_UNIT_1-2-1-2,3,target-1,memory,0.002971649169921875
2022-04-01T12:20:52.526Z,RESERVED_UNIT_1-2-1-2,3,target-1,memory,0.002971649169921875
2022-04-01T12:21:02.526Z,RESERVED_UNIT_1-2-1-2,3,target-1,memory,0.002971649169921875
2022-04-01T12:21:12.526Z,RESERVED_UNIT_1-2-1-2,3,target-1,memory,0.002971649169921875
2022-04-01T12:21:22.526Z,RESERVED_UNIT_1-2-1-2,3,target-1,memory,0.002971649169921875
2022-04-01T12:21:32.526Z,RESERVED_UNIT_1-2-1-2,3,target-1,memory,0.002971649169921875
2022-04-01T12:21:42.526Z,RESERVED_UNIT_1-2-1-2,3,target-1,memory,0.002971649169921875
2022-04-01T12:21:52.526Z,RESERVED_UNIT_1-2-1-2,3,target-1,memory,0.002971649169921875
2022-04-01T12:22:02.526Z,RESERVED_UNIT_1-2-1-2,3,target-1,memory,0.002971649169921875
2022-04-01T12:22:12.526Z,RESERVED_UNIT_1-2-1-2,3,target-1,memory,0.002971649169921875
2022-04-01T12:22:22.526Z,RESERVED_UNIT_1-2-1-2,3,target-1,memory,0.002971649169921875
2022-04-01T12:22:32.526Z,RESERVED_UNIT_1-2-1-2,3,target-1,memory,0.002971649169921875
2022-04-01T12:22:42.526Z,RESERVED_UNIT_1-2-1-2,3,target-1,memory,0.002971649169921875
2022-04-01T12:22:52.526Z,RESERVED_UNIT_1-2-1-2,3,target-1,memory,0.002971649169921875
2022-04-01T12:23:02.526Z,RESERVED_UNIT_1-2-1-2,3,target-1,memory,0.002971649169921875
2022-04-01T12:23:12.526Z,RESERVED_UNIT_1-2-1-2,3,target-1,memory,0.002971649169921875
2022-04-01T12:23:22.526Z,RESERVED_UNIT_1-2-1-2,3,target-1,memory,0.002971649169921875
2022-04-01T12:23:32.526Z,RESERVED_UNIT_1-2-1-2,3,target-1,memory,0.002971649169921875
2022-04-01T12:23:42.526Z,RESERVED_UNIT_1-2-1-2,3,target-1,memory,0.002971649169921875
2022-04-01T12:23:52.526Z,RESERVED_UNIT_1-2-1-2,3,target-1,memory,0.002971649169921875
2022-04-01T12:24:02.526Z,RESERVED_UNIT_1-2-1-2,3,target-1,memory,0.002971649169921875
2022-04-01T12:24:12.525Z,RESERVED_UNIT_1-2-1-2,3,target-1,memory,0.002971649169921875
2022-04-01T12:24:22.526Z,RESERVED_UNIT_1-2-1-2,3,target-1,memory,0.002971649169921875
2022-04-01T12:24:32.526Z,RESERVED_UNIT_1-2-1-2,3,target-1,memory,0.002971649169921875
2022-04-01T12:24:42.526Z,RESERVED_UNIT_1-2-1-2,3,target-1,memory,0.002971649169921875
2022-04-01T12:24:52.526Z,RESERVED_UNIT_1-2-1-2,3,target-1,memory,0.002971649169921875
2022-04-01T12:25:02.526Z,RESERVED_UNIT_1-2-1-2,3,target-1,memory,0.002971649169921875
2022-04-01T12:25:12.526Z,RESERVED_UNIT_1-2-1-2,3,target-1,memory,0.002971649169921875
2022-04-01T12:25:22.526Z,RESERVED_UNIT_1-2-1-2,3,target-1,memory,0.002971649169921875
2022-04-01T12:25:32.526Z,RESERVED_UNIT_1-2-1-2,3,target-1,memory,0.002971649169921875
2022-04-01T12:25:42.526Z,RESERVED_UNIT_1-2-1-2,3,target-1,memory,0.002971649169921875
2022-04-01T12:25:52.526Z,RESERVED_UNIT_1-2-1-2,3,target-1,memory,0.002971649169921875
2022-04-01T12:26:02.526Z,RESERVED_UNIT_1-2-1-2,3,target-1,memory,0.002971649169921875
2022-04-01T12:26:12.526Z,RESERVED_UNIT_1-2-1-2,3,target-1,memory,0.002971649169921875
2022-04-01T12:26:22.526Z,RESERVED_UNIT_1-2-1-2,3,target-1,memory,0.002971649169921875
2022-04-01T12:26:32.526Z,RESERVED_UNIT_1-2-1-2,3,target-1,memory,0.002971649169921875
2022-04-01T12:26:42.526Z,RESERVED_UNIT_1-2-1-2,3,target-1,memory,0.002971649169921875
2022-04-01T12:26:52.526Z,RESERVED_UNIT_1-2-1-2,3,target-1,memory,0.002971649169921875
2022-04-01T12:27:02.526Z,RESERVED_UNIT_1-2-1-2,3,target-1,memory,0.002971649169921875
2022-04-01T12:27:12.526Z,RESERVED_UNIT_1-2-1-2,3,target-1,memory,0.002971649169921875
2022-04-01T12:27:22.526Z,RESERVED_UNIT_1-2-1-2,3,target-1,memory,0.002971649169921875
2022-04-01T12:27:32.526Z,RESERVED_UNIT_1-2-1-2,3,target-1,memory,0.002971649169921875
2022-04-01T12:27:42.526Z,RESERVED_UNIT_1-2-1-2,3,target-1,memory,0.002971649169921875
2022-04-01T12:27:52.526Z,RESERVED_UNIT_1-2-1-2,3,target-1,memory,0.002971649169921875
2022-04-01T12:28:02.526Z,RESERVED_UNIT_1-2-1-2,3,target-1,memory,0.002971649169921875
2022-04-01T12:28:12.526Z,RESERVED_UNIT_1-2-1-2,3,target-1,memory,0.002971649169921875
2022-04-01T12:28:22.526Z,RESERVED_UNIT_1-2-1-2,3,target-1,memory,0.002971649169921875
2022-04-01T12:28:32.526Z,RESERVED_UNIT_1-2-1-2,3,target-1,memory,0.002971649169921875
2022-04-01T12:28:42.526Z,RESERVED_UNIT_1-2-1-2,3,target-1,memory,0.002971649169921875
2022-04-01T12:28:52.526Z,RESERVED_UNIT_1-2-1-2,3,target-1,memory,0.002971649169921875
2022-04-01T19:46:44.659Z,RESERVED_UNIT_1-4-1-4,1,target-1,memory,0.003330230712890625
2022-04-01T19:46:54.660Z,RESERVED_UNIT_1-4-1-4,1,target-1,memory,0.003082275390625
2022-04-01T19:47:04.660Z,RESERVED_UNIT_1-4-1-4,1,target-1,memory,0.003082275390625
2022-04-01T19:47:14.660Z,RESERVED_UNIT_1-4-1-4,1,target-1,memory,0.003082275390625
2022-04-01T19:47:24.660Z,RESERVED_UNIT_1-4-1-4,1,target-1,memory,0.003082275390625
2022-04-01T19:47:34.660Z,RESERVED_UNIT_1-4-1-4,1,target-1,memory,0.003082275390625
2022-04-01T19:47:44.660Z,RESERVED_UNIT_1-4-1-4,1,target-1,memory,0.003082275390625
2022-04-01T19:47:54.660Z,RESERVED_UNIT_1-4-1-4,1,target-1,memory,0.003082275390625
2022-04-01T19:48:04.660Z,RESERVED_UNIT_1-4-1-4,1,target-1,memory,0.003082275390625
2022-04-01T19:48:14.660Z,RESERVED_UNIT_1-4-1-4,1,target-1,memory,0.003082275390625
2022-04-01T19:48:24.660Z,RESERVED_UNIT_1-4-1-4,1,target-1,memory,0.003082275390625
2022-04-01T19:48:34.660Z,RESERVED_UNIT_1-4-1-4,1,target-1,memory,0.003082275390625
2022-04-01T19:48:44.660Z,RESERVED_UNIT_1-4-1-4,1,target-1,memory,0.003082275390625
2022-04-01T19:48:54.660Z,RESERVED_UNIT_1-4-1-4,1,target-1,memory,0.003082275390625
2022-04-01T19:49:04.660Z,RESERVED_UNIT_1-4-1-4,1,target-1,memory,0.003082275390625
2022-04-01T19:49:14.660Z,RESERVED_UNIT_1-4-1-4,1,target-1,memory,0.003082275390625
2022-04-01T19:49:24.659Z,RESERVED_UNIT_1-4-1-4,1,target-1,memory,0.003082275390625
2022-04-01T19:49:34.660Z,RESERVED_UNIT_1-4-1-4,1,target-1,memory,0.003082275390625
2022-04-01T19:49:44.660Z,RESERVED_UNIT_1-4-1-4,1,target-1,memory,0.003082275390625
2022-04-01T19:49:54.660Z,RESERVED_UNIT_1-4-1-4,1,target-1,memory,0.003082275390625
2022-04-01T19:50:04.660Z,RESERVED_UNIT_1-4-1-4,1,target-1,memory,0.003082275390625
2022-04-01T19:50:14.660Z,RESERVED_UNIT_1-4-1-4,1,target-1,memory,0.003082275390625
2022-04-01T19:50:24.660Z,RESERVED_UNIT_1-4-1-4,1,target-1,memory,0.003082275390625
2022-04-01T19:50:34.660Z,RESERVED_UNIT_1-4-1-4,1,target-1,memory,0.003082275390625
2022-04-01T19:50:44.660Z,RESERVED_UNIT_1-4-1-4,1,target-1,memory,0.003082275390625
2022-04-01T19:50:54.660Z,RESERVED_UNIT_1-4-1-4,1,target-1,memory,0.003082275390625
2022-04-01T19:51:04.659Z,RESERVED_UNIT_1-4-1-4,1,target-1,memory,0.003082275390625
2022-04-01T19:51:14.660Z,RESERVED_UNIT_1-4-1-4,1,target-1,memory,0.003082275390625
2022-04-01T19:51:24.660Z,RESERVED_UNIT_1-4-1-4,1,target-1,memory,0.003082275390625
2022-04-01T19:51:34.660Z,RESERVED_UNIT_1-4-1-4,1,target-1,memory,0.003082275390625
2022-04-01T19:51:44.660Z,RESERVED_UNIT_1-4-1-4,1,target-1,memory,0.003082275390625
2022-04-01T19:51:54.660Z,RESERVED_UNIT_1-4-1-4,1,target-1,memory,0.003082275390625
2022-04-01T19:52:04.660Z,RESERVED_UNIT_1-4-1-4,1,target-1,memory,0.003082275390625
2022-04-01T19:52:14.660Z,RESERVED_UNIT_1-4-1-4,1,target-1,memory,0.003082275390625
2022-04-01T19:52:24.659Z,RESERVED_UNIT_1-4-1-4,1,target-1,memory,0.003082275390625
2022-04-01T19:52:34.660Z,RESERVED_UNIT_1-4-1-4,1,target-1,memory,0.003082275390625
2022-04-01T19:52:44.660Z,RESERVED_UNIT_1-4-1-4,1,target-1,memory,0.003082275390625
2022-04-01T19:52:54.660Z,RESERVED_UNIT_1-4-1-4,1,target-1,memory,0.003082275390625
2022-04-01T19:53:04.660Z,RESERVED_UNIT_1-4-1-4,1,target-1,memory,0.003082275390625
2022-04-01T19:53:14.660Z,RESERVED_UNIT_1-4-1-4,1,target-1,memory,0.003082275390625
2022-04-01T19:53:24.660Z,RESERVED_UNIT_1-4-1-4,1,target-1,memory,0.003082275390625
2022-04-01T19:53:34.660Z,RESERVED_UNIT_1-4-1-4,1,target-1,memory,0.003082275390625
2022-04-01T19:53:44.660Z,RESERVED_UNIT_1-4-1-4,1,target-1,memory,0.003082275390625
2022-04-01T19:53:54.660Z,RESERVED_UNIT_1-4-1-4,1,target-1,memory,0.003082275390625
2022-04-01T19:54:04.660Z,RESERVED_UNIT_1-4-1-4,1,target-1,memory,0.003082275390625
2022-04-01T19:54:14.660Z,RESERVED_UNIT_1-4-1-4,1,target-1,memory,0.003082275390625
2022-04-01T19:54:24.660Z,RESERVED_UNIT_1-4-1-4,1,target-1,memory,0.003082275390625
2022-04-01T19:54:34.660Z,RESERVED_UNIT_1-4-1-4,1,target-1,memory,0.003082275390625
2022-04-01T19:54:44.660Z,RESERVED_UNIT_1-4-1-4,1,target-1,memory,0.003082275390625
2022-04-01T19:54:54.660Z,RESERVED_UNIT_1-4-1-4,1,target-1,memory,0.003082275390625
2022-04-01T19:55:04.660Z,RESERVED_UNIT_1-4-1-4,1,target-1,memory,0.003082275390625
2022-04-01T19:55:14.660Z,RESERVED_UNIT_1-4-1-4,1,target-1,memory,0.003082275390625
2022-04-01T19:55:24.660Z,RESERVED_UNIT_1-4-1-4,1,target-1,memory,0.003082275390625
2022-04-01T19:55:34.660Z,RESERVED_UNIT_1-4-1-4,1,target-1,memory,0.003082275390625
2022-04-01T19:55:44.660Z,RESERVED_UNIT_1-4-1-4,1,target-1,memory,0.003082275390625
2022-04-01T19:55:54.660Z,RESERVED_UNIT_1-4-1-4,1,target-1,memory,0.003082275390625
2022-04-01T19:56:04.660Z,RESERVED_UNIT_1-4-1-4,1,target-1,memory,0.003082275390625
2022-04-01T19:56:14.660Z,RESERVED_UNIT_1-4-1-4,1,target-1,memory,0.003082275390625
2022-04-01T19:56:24.660Z,RESERVED_UNIT_1-4-1-4,1,target-1,memory,0.003082275390625
2022-04-01T19:56:34.660Z,RESERVED_UNIT_1-4-1-4,1,target-1,memory,0.003082275390625
2022-04-01T19:57:19.533Z,RESERVED_UNIT_1-4-1-4,2,target-1,memory,0.003082275390625
2022-04-01T19:57:29.533Z,RESERVED_UNIT_1-4-1-4,2,target-1,memory,0.003086090087890625
2022-04-01T19:57:39.533Z,RESERVED_UNIT_1-4-1-4,2,target-1,memory,0.003086090087890625
2022-04-01T19:57:49.533Z,RESERVED_UNIT_1-4-1-4,2,target-1,memory,0.003086090087890625
2022-04-01T19:57:59.533Z,RESERVED_UNIT_1-4-1-4,2,target-1,memory,0.003086090087890625
2022-04-01T19:58:09.533Z,RESERVED_UNIT_1-4-1-4,2,target-1,memory,0.003086090087890625
2022-04-01T19:58:19.534Z,RESERVED_UNIT_1-4-1-4,2,target-1,memory,0.003086090087890625
2022-04-01T19:58:29.533Z,RESERVED_UNIT_1-4-1-4,2,target-1,memory,0.003086090087890625
2022-04-01T19:58:39.533Z,RESERVED_UNIT_1-4-1-4,2,target-1,memory,0.003086090087890625
2022-04-01T19:58:49.533Z,RESERVED_UNIT_1-4-1-4,2,target-1,memory,0.003086090087890625
2022-04-01T19:58:59.533Z,RESERVED_UNIT_1-4-1-4,2,target-1,memory,0.003086090087890625
2022-04-01T19:59:09.533Z,RESERVED_UNIT_1-4-1-4,2,target-1,memory,0.003086090087890625
2022-04-01T19:59:19.533Z,RESERVED_UNIT_1-4-1-4,2,target-1,memory,0.003086090087890625
2022-04-01T19:59:29.533Z,RESERVED_UNIT_1-4-1-4,2,target-1,memory,0.003086090087890625
2022-04-01T19:59:39.533Z,RESERVED_UNIT_1-4-1-4,2,target-1,memory,0.003086090087890625
2022-04-01T19:59:49.534Z,RESERVED_UNIT_1-4-1-4,2,target-1,memory,0.003086090087890625
2022-04-01T19:59:59.534Z,RESERVED_UNIT_1-4-1-4,2,target-1,memory,0.003086090087890625
2022-04-01T20:00:09.533Z,RESERVED_UNIT_1-4-1-4,2,target-1,memory,0.003086090087890625
2022-04-01T20:00:19.533Z,RESERVED_UNIT_1-4-1-4,2,target-1,memory,0.003086090087890625
2022-04-01T20:00:29.533Z,RESERVED_UNIT_1-4-1-4,2,target-1,memory,0.003086090087890625
2022-04-01T20:00:39.533Z,RESERVED_UNIT_1-4-1-4,2,target-1,memory,0.003086090087890625
2022-04-01T20:00:49.533Z,RESERVED_UNIT_1-4-1-4,2,target-1,memory,0.003086090087890625
2022-04-01T20:00:59.534Z,RESERVED_UNIT_1-4-1-4,2,target-1,memory,0.003086090087890625
2022-04-01T20:01:09.533Z,RESERVED_UNIT_1-4-1-4,2,target-1,memory,0.003086090087890625
2022-04-01T20:01:19.533Z,RESERVED_UNIT_1-4-1-4,2,target-1,memory,0.003086090087890625
2022-04-01T20:01:29.533Z,RESERVED_UNIT_1-4-1-4,2,target-1,memory,0.003086090087890625
2022-04-01T20:01:39.533Z,RESERVED_UNIT_1-4-1-4,2,target-1,memory,0.003086090087890625
2022-04-01T20:01:49.533Z,RESERVED_UNIT_1-4-1-4,2,target-1,memory,0.003086090087890625
2022-04-01T20:01:59.533Z,RESERVED_UNIT_1-4-1-4,2,target-1,memory,0.003086090087890625
2022-04-01T20:02:09.533Z,RESERVED_UNIT_1-4-1-4,2,target-1,memory,0.003086090087890625
2022-04-01T20:02:19.533Z,RESERVED_UNIT_1-4-1-4,2,target-1,memory,0.003086090087890625
2022-04-01T20:02:29.533Z,RESERVED_UNIT_1-4-1-4,2,target-1,memory,0.003086090087890625
2022-04-01T20:02:39.533Z,RESERVED_UNIT_1-4-1-4,2,target-1,memory,0.003086090087890625
2022-04-01T20:02:49.533Z,RESERVED_UNIT_1-4-1-4,2,target-1,memory,0.003086090087890625
2022-04-01T20:02:59.534Z,RESERVED_UNIT_1-4-1-4,2,target-1,memory,0.003086090087890625
2022-04-01T20:03:09.533Z,RESERVED_UNIT_1-4-1-4,2,target-1,memory,0.003086090087890625
2022-04-01T20:03:19.533Z,RESERVED_UNIT_1-4-1-4,2,target-1,memory,0.003086090087890625
2022-04-01T20:03:29.533Z,RESERVED_UNIT_1-4-1-4,2,target-1,memory,0.003086090087890625
2022-04-01T20:03:39.534Z,RESERVED_UNIT_1-4-1-4,2,target-1,memory,0.003086090087890625
2022-04-01T20:03:49.533Z,RESERVED_UNIT_1-4-1-4,2,target-1,memory,0.003086090087890625
2022-04-01T20:03:59.533Z,RESERVED_UNIT_1-4-1-4,2,target-1,memory,0.003086090087890625
2022-04-01T20:04:09.534Z,RESERVED_UNIT_1-4-1-4,2,target-1,memory,0.003086090087890625
2022-04-01T20:04:19.533Z,RESERVED_UNIT_1-4-1-4,2,target-1,memory,0.003086090087890625
2022-04-01T20:04:29.534Z,RESERVED_UNIT_1-4-1-4,2,target-1,memory,0.003086090087890625
2022-04-01T20:04:39.533Z,RESERVED_UNIT_1-4-1-4,2,target-1,memory,0.003086090087890625
2022-04-01T20:04:49.534Z,RESERVED_UNIT_1-4-1-4,2,target-1,memory,0.003086090087890625
2022-04-01T20:04:59.533Z,RESERVED_UNIT_1-4-1-4,2,target-1,memory,0.003086090087890625
2022-04-01T20:05:09.533Z,RESERVED_UNIT_1-4-1-4,2,target-1,memory,0.003086090087890625
2022-04-01T20:05:19.533Z,RESERVED_UNIT_1-4-1-4,2,target-1,memory,0.003086090087890625
2022-04-01T20:05:29.534Z,RESERVED_UNIT_1-4-1-4,2,target-1,memory,0.003086090087890625
2022-04-01T20:05:39.533Z,RESERVED_UNIT_1-4-1-4,2,target-1,memory,0.003086090087890625
2022-04-01T20:05:49.534Z,RESERVED_UNIT_1-4-1-4,2,target-1,memory,0.003086090087890625
2022-04-01T20:05:59.533Z,RESERVED_UNIT_1-4-1-4,2,target-1,memory,0.003086090087890625
2022-04-01T20:06:09.534Z,RESERVED_UNIT_1-4-1-4,2,target-1,memory,0.003086090087890625
2022-04-01T20:06:19.533Z,RESERVED_UNIT_1-4-1-4,2,target-1,memory,0.003086090087890625
2022-04-01T20:06:29.533Z,RESERVED_UNIT_1-4-1-4,2,target-1,memory,0.003086090087890625
2022-04-01T20:06:39.533Z,RESERVED_UNIT_1-4-1-4,2,target-1,memory,0.003086090087890625
2022-04-01T20:06:49.533Z,RESERVED_UNIT_1-4-1-4,2,target-1,memory,0.003086090087890625
2022-04-01T20:06:59.533Z,RESERVED_UNIT_1-4-1-4,2,target-1,memory,0.003086090087890625
2022-04-01T20:07:09.533Z,RESERVED_UNIT_1-4-1-4,2,target-1,memory,0.003086090087890625
2022-04-01T20:07:54.571Z,RESERVED_UNIT_1-4-1-4,3,target-1,memory,0.003086090087890625
2022-04-01T20:08:04.571Z,RESERVED_UNIT_1-4-1-4,3,target-1,memory,0.003086090087890625
2022-04-01T20:08:14.571Z,RESERVED_UNIT_1-4-1-4,3,target-1,memory,0.003086090087890625
2022-04-01T20:08:24.571Z,RESERVED_UNIT_1-4-1-4,3,target-1,memory,0.003086090087890625
2022-04-01T20:08:34.572Z,RESERVED_UNIT_1-4-1-4,3,target-1,memory,0.003086090087890625
2022-04-01T20:08:44.571Z,RESERVED_UNIT_1-4-1-4,3,target-1,memory,0.003086090087890625
2022-04-01T20:08:54.572Z,RESERVED_UNIT_1-4-1-4,3,target-1,memory,0.003086090087890625
2022-04-01T20:09:04.571Z,RESERVED_UNIT_1-4-1-4,3,target-1,memory,0.003086090087890625
2022-04-01T20:09:14.571Z,RESERVED_UNIT_1-4-1-4,3,target-1,memory,0.003086090087890625
2022-04-01T20:09:24.571Z,RESERVED_UNIT_1-4-1-4,3,target-1,memory,0.003086090087890625
2022-04-01T20:09:34.572Z,RESERVED_UNIT_1-4-1-4,3,target-1,memory,0.003086090087890625
2022-04-01T20:09:44.571Z,RESERVED_UNIT_1-4-1-4,3,target-1,memory,0.003086090087890625
2022-04-01T20:09:54.572Z,RESERVED_UNIT_1-4-1-4,3,target-1,memory,0.003086090087890625
2022-04-01T20:10:04.571Z,RESERVED_UNIT_1-4-1-4,3,target-1,memory,0.003086090087890625
2022-04-01T20:10:14.571Z,RESERVED_UNIT_1-4-1-4,3,target-1,memory,0.003086090087890625
2022-04-01T20:10:24.571Z,RESERVED_UNIT_1-4-1-4,3,target-1,memory,0.003086090087890625
2022-04-01T20:10:34.571Z,RESERVED_UNIT_1-4-1-4,3,target-1,memory,0.003086090087890625
2022-04-01T20:10:44.572Z,RESERVED_UNIT_1-4-1-4,3,target-1,memory,0.003086090087890625
2022-04-01T20:10:54.571Z,RESERVED_UNIT_1-4-1-4,3,target-1,memory,0.003086090087890625
2022-04-01T20:11:04.572Z,RESERVED_UNIT_1-4-1-4,3,target-1,memory,0.003086090087890625
2022-04-01T20:11:14.572Z,RESERVED_UNIT_1-4-1-4,3,target-1,memory,0.003086090087890625
2022-04-01T20:11:24.572Z,RESERVED_UNIT_1-4-1-4,3,target-1,memory,0.003086090087890625
2022-04-01T20:11:34.572Z,RESERVED_UNIT_1-4-1-4,3,target-1,memory,0.003086090087890625
2022-04-01T20:11:44.571Z,RESERVED_UNIT_1-4-1-4,3,target-1,memory,0.003086090087890625
2022-04-01T20:11:54.571Z,RESERVED_UNIT_1-4-1-4,3,target-1,memory,0.003086090087890625
2022-04-01T20:12:04.571Z,RESERVED_UNIT_1-4-1-4,3,target-1,memory,0.003086090087890625
2022-04-01T20:12:14.571Z,RESERVED_UNIT_1-4-1-4,3,target-1,memory,0.003086090087890625
2022-04-01T20:12:24.572Z,RESERVED_UNIT_1-4-1-4,3,target-1,memory,0.003086090087890625
2022-04-01T20:12:34.572Z,RESERVED_UNIT_1-4-1-4,3,target-1,memory,0.003086090087890625
2022-04-01T20:12:44.571Z,RESERVED_UNIT_1-4-1-4,3,target-1,memory,0.003086090087890625
2022-04-01T20:12:54.571Z,RESERVED_UNIT_1-4-1-4,3,target-1,memory,0.003086090087890625
2022-04-01T20:13:04.571Z,RESERVED_UNIT_1-4-1-4,3,target-1,memory,0.003086090087890625
2022-04-01T20:13:14.571Z,RESERVED_UNIT_1-4-1-4,3,target-1,memory,0.003086090087890625
2022-04-01T20:13:24.571Z,RESERVED_UNIT_1-4-1-4,3,target-1,memory,0.003086090087890625
2022-04-01T20:13:34.572Z,RESERVED_UNIT_1-4-1-4,3,target-1,memory,0.003086090087890625
2022-04-01T20:13:44.571Z,RESERVED_UNIT_1-4-1-4,3,target-1,memory,0.003086090087890625
2022-04-01T20:13:54.571Z,RESERVED_UNIT_1-4-1-4,3,target-1,memory,0.003086090087890625
2022-04-01T20:14:04.572Z,RESERVED_UNIT_1-4-1-4,3,target-1,memory,0.003086090087890625
2022-04-01T20:14:14.571Z,RESERVED_UNIT_1-4-1-4,3,target-1,memory,0.003086090087890625
2022-04-01T20:14:24.571Z,RESERVED_UNIT_1-4-1-4,3,target-1,memory,0.003086090087890625
2022-04-01T20:14:34.572Z,RESERVED_UNIT_1-4-1-4,3,target-1,memory,0.003086090087890625
2022-04-01T20:14:44.571Z,RESERVED_UNIT_1-4-1-4,3,target-1,memory,0.003086090087890625
2022-04-01T20:14:54.571Z,RESERVED_UNIT_1-4-1-4,3,target-1,memory,0.003086090087890625
2022-04-01T20:15:04.571Z,RESERVED_UNIT_1-4-1-4,3,target-1,memory,0.003086090087890625
2022-04-01T20:15:14.571Z,RESERVED_UNIT_1-4-1-4,3,target-1,memory,0.003086090087890625
2022-04-01T20:15:24.571Z,RESERVED_UNIT_1-4-1-4,3,target-1,memory,0.003086090087890625
2022-04-01T20:15:34.571Z,RESERVED_UNIT_1-4-1-4,3,target-1,memory,0.003086090087890625
2022-04-01T20:15:44.571Z,RESERVED_UNIT_1-4-1-4,3,target-1,memory,0.003086090087890625
2022-04-01T20:15:54.572Z,RESERVED_UNIT_1-4-1-4,3,target-1,memory,0.003086090087890625
2022-04-01T20:16:04.572Z,RESERVED_UNIT_1-4-1-4,3,target-1,memory,0.003086090087890625
2022-04-01T20:16:14.571Z,RESERVED_UNIT_1-4-1-4,3,target-1,memory,0.003086090087890625
2022-04-01T20:16:24.571Z,RESERVED_UNIT_1-4-1-4,3,target-1,memory,0.003086090087890625
2022-04-01T20:16:34.572Z,RESERVED_UNIT_1-4-1-4,3,target-1,memory,0.003086090087890625
2022-04-01T20:16:44.571Z,RESERVED_UNIT_1-4-1-4,3,target-1,memory,0.003086090087890625
2022-04-01T20:16:54.571Z,RESERVED_UNIT_1-4-1-4,3,target-1,memory,0.003086090087890625
2022-04-01T20:17:04.572Z,RESERVED_UNIT_1-4-1-4,3,target-1,memory,0.003086090087890625
2022-04-01T20:17:14.572Z,RESERVED_UNIT_1-4-1-4,3,target-1,memory,0.003086090087890625
2022-04-01T20:17:24.571Z,RESERVED_UNIT_1-4-1-4,3,target-1,memory,0.003086090087890625
2022-04-01T20:17:34.572Z,RESERVED_UNIT_1-4-1-4,3,target-1,memory,0.003086090087890625
2022-04-01T20:17:44.571Z,RESERVED_UNIT_1-4-1-4,3,target-1,memory,0.003086090087890625
2022-04-01T20:19:10.060Z,RESERVED_UNIT_1-8-1-8,1,target-1,memory,0.00313568115234375
2022-04-01T20:19:20.060Z,RESERVED_UNIT_1-8-1-8,1,target-1,memory,0.003154754638671875
2022-04-01T20:19:30.060Z,RESERVED_UNIT_1-8-1-8,1,target-1,memory,0.003154754638671875
2022-04-01T20:19:40.060Z,RESERVED_UNIT_1-8-1-8,1,target-1,memory,0.003154754638671875
2022-04-01T20:19:50.060Z,RESERVED_UNIT_1-8-1-8,1,target-1,memory,0.003154754638671875
2022-04-01T20:20:00.060Z,RESERVED_UNIT_1-8-1-8,1,target-1,memory,0.003154754638671875
2022-04-01T20:20:10.059Z,RESERVED_UNIT_1-8-1-8,1,target-1,memory,0.003154754638671875
2022-04-01T20:20:20.060Z,RESERVED_UNIT_1-8-1-8,1,target-1,memory,0.003154754638671875
2022-04-01T20:20:30.060Z,RESERVED_UNIT_1-8-1-8,1,target-1,memory,0.003154754638671875
2022-04-01T20:20:40.060Z,RESERVED_UNIT_1-8-1-8,1,target-1,memory,0.003154754638671875
2022-04-01T20:20:50.059Z,RESERVED_UNIT_1-8-1-8,1,target-1,memory,0.003154754638671875
2022-04-01T20:21:00.060Z,RESERVED_UNIT_1-8-1-8,1,target-1,memory,0.003154754638671875
2022-04-01T20:21:10.060Z,RESERVED_UNIT_1-8-1-8,1,target-1,memory,0.003154754638671875
2022-04-01T20:21:20.060Z,RESERVED_UNIT_1-8-1-8,1,target-1,memory,0.003154754638671875
2022-04-01T20:21:30.060Z,RESERVED_UNIT_1-8-1-8,1,target-1,memory,0.003154754638671875
2022-04-01T20:21:40.060Z,RESERVED_UNIT_1-8-1-8,1,target-1,memory,0.003154754638671875
2022-04-01T20:21:50.060Z,RESERVED_UNIT_1-8-1-8,1,target-1,memory,0.003154754638671875
2022-04-01T20:22:00.060Z,RESERVED_UNIT_1-8-1-8,1,target-1,memory,0.003154754638671875
2022-04-01T20:22:10.059Z,RESERVED_UNIT_1-8-1-8,1,target-1,memory,0.003154754638671875
2022-04-01T20:22:20.060Z,RESERVED_UNIT_1-8-1-8,1,target-1,memory,0.003154754638671875
2022-04-01T20:22:30.059Z,RESERVED_UNIT_1-8-1-8,1,target-1,memory,0.003154754638671875
2022-04-01T20:22:40.060Z,RESERVED_UNIT_1-8-1-8,1,target-1,memory,0.003154754638671875
2022-04-01T20:22:50.060Z,RESERVED_UNIT_1-8-1-8,1,target-1,memory,0.003154754638671875
2022-04-01T20:23:00.060Z,RESERVED_UNIT_1-8-1-8,1,target-1,memory,0.003154754638671875
2022-04-01T20:23:10.060Z,RESERVED_UNIT_1-8-1-8,1,target-1,memory,0.003154754638671875
2022-04-01T20:23:20.059Z,RESERVED_UNIT_1-8-1-8,1,target-1,memory,0.003154754638671875
2022-04-01T20:23:30.059Z,RESERVED_UNIT_1-8-1-8,1,target-1,memory,0.003154754638671875
2022-04-01T20:23:40.060Z,RESERVED_UNIT_1-8-1-8,1,target-1,memory,0.003154754638671875
2022-04-01T20:23:50.060Z,RESERVED_UNIT_1-8-1-8,1,target-1,memory,0.003154754638671875
2022-04-01T20:24:00.059Z,RESERVED_UNIT_1-8-1-8,1,target-1,memory,0.003154754638671875
2022-04-01T20:24:10.060Z,RESERVED_UNIT_1-8-1-8,1,target-1,memory,0.003154754638671875
2022-04-01T20:24:20.059Z,RESERVED_UNIT_1-8-1-8,1,target-1,memory,0.003154754638671875
2022-04-01T20:24:30.060Z,RESERVED_UNIT_1-8-1-8,1,target-1,memory,0.003154754638671875
2022-04-01T20:24:40.059Z,RESERVED_UNIT_1-8-1-8,1,target-1,memory,0.003154754638671875
2022-04-01T20:24:50.060Z,RESERVED_UNIT_1-8-1-8,1,target-1,memory,0.003154754638671875
2022-04-01T20:25:00.060Z,RESERVED_UNIT_1-8-1-8,1,target-1,memory,0.003154754638671875
2022-04-01T20:25:10.060Z,RESERVED_UNIT_1-8-1-8,1,target-1,memory,0.003154754638671875
2022-04-01T20:25:20.059Z,RESERVED_UNIT_1-8-1-8,1,target-1,memory,0.003154754638671875
2022-04-01T20:25:30.060Z,RESERVED_UNIT_1-8-1-8,1,target-1,memory,0.003154754638671875
2022-04-01T20:25:40.060Z,RESERVED_UNIT_1-8-1-8,1,target-1,memory,0.003154754638671875
2022-04-01T20:25:50.059Z,RESERVED_UNIT_1-8-1-8,1,target-1,memory,0.003154754638671875
2022-04-01T20:26:00.060Z,RESERVED_UNIT_1-8-1-8,1,target-1,memory,0.003154754638671875
2022-04-01T20:26:10.060Z,RESERVED_UNIT_1-8-1-8,1,target-1,memory,0.003154754638671875
2022-04-01T20:26:20.060Z,RESERVED_UNIT_1-8-1-8,1,target-1,memory,0.003154754638671875
2022-04-01T20:26:30.060Z,RESERVED_UNIT_1-8-1-8,1,target-1,memory,0.003154754638671875
2022-04-01T20:26:40.060Z,RESERVED_UNIT_1-8-1-8,1,target-1,memory,0.003154754638671875
2022-04-01T20:26:50.060Z,RESERVED_UNIT_1-8-1-8,1,target-1,memory,0.003154754638671875
2022-04-01T20:27:00.061Z,RESERVED_UNIT_1-8-1-8,1,target-1,memory,0.003154754638671875
2022-04-01T20:27:10.060Z,RESERVED_UNIT_1-8-1-8,1,target-1,memory,0.003154754638671875
2022-04-01T20:27:20.060Z,RESERVED_UNIT_1-8-1-8,1,target-1,memory,0.003154754638671875
2022-04-01T20:27:30.060Z,RESERVED_UNIT_1-8-1-8,1,target-1,memory,0.003154754638671875
2022-04-01T20:27:40.059Z,RESERVED_UNIT_1-8-1-8,1,target-1,memory,0.003154754638671875
2022-04-01T20:27:50.060Z,RESERVED_UNIT_1-8-1-8,1,target-1,memory,0.003154754638671875
2022-04-01T20:28:00.060Z,RESERVED_UNIT_1-8-1-8,1,target-1,memory,0.003154754638671875
2022-04-01T20:28:10.059Z,RESERVED_UNIT_1-8-1-8,1,target-1,memory,0.003154754638671875
2022-04-01T20:28:20.059Z,RESERVED_UNIT_1-8-1-8,1,target-1,memory,0.003154754638671875
2022-04-01T20:28:30.059Z,RESERVED_UNIT_1-8-1-8,1,target-1,memory,0.003154754638671875
2022-04-01T20:28:40.059Z,RESERVED_UNIT_1-8-1-8,1,target-1,memory,0.003154754638671875
2022-04-01T20:28:50.060Z,RESERVED_UNIT_1-8-1-8,1,target-1,memory,0.003154754638671875
2022-04-01T20:29:00.059Z,RESERVED_UNIT_1-8-1-8,1,target-1,memory,0.003154754638671875
2022-04-01T20:31:11.275Z,RESERVED_UNIT_1-8-1-8,2,target-1,memory,0.003154754638671875
2022-04-01T20:31:21.276Z,RESERVED_UNIT_1-8-1-8,2,target-1,memory,0.003154754638671875
2022-04-01T20:31:31.276Z,RESERVED_UNIT_1-8-1-8,2,target-1,memory,0.003154754638671875
2022-04-01T20:31:41.276Z,RESERVED_UNIT_1-8-1-8,2,target-1,memory,0.003154754638671875
2022-04-01T20:31:51.275Z,RESERVED_UNIT_1-8-1-8,2,target-1,memory,0.003154754638671875
2022-04-01T20:32:01.275Z,RESERVED_UNIT_1-8-1-8,2,target-1,memory,0.003154754638671875
2022-04-01T20:32:11.275Z,RESERVED_UNIT_1-8-1-8,2,target-1,memory,0.003154754638671875
2022-04-01T20:32:21.276Z,RESERVED_UNIT_1-8-1-8,2,target-1,memory,0.003154754638671875
2022-04-01T20:32:31.276Z,RESERVED_UNIT_1-8-1-8,2,target-1,memory,0.003154754638671875
2022-04-01T20:32:41.276Z,RESERVED_UNIT_1-8-1-8,2,target-1,memory,0.003154754638671875
2022-04-01T20:32:51.276Z,RESERVED_UNIT_1-8-1-8,2,target-1,memory,0.003154754638671875
2022-04-01T20:33:01.276Z,RESERVED_UNIT_1-8-1-8,2,target-1,memory,0.003154754638671875
2022-04-01T20:33:11.276Z,RESERVED_UNIT_1-8-1-8,2,target-1,memory,0.003154754638671875
2022-04-01T20:33:21.276Z,RESERVED_UNIT_1-8-1-8,2,target-1,memory,0.003154754638671875
2022-04-01T20:33:31.276Z,RESERVED_UNIT_1-8-1-8,2,target-1,memory,0.003154754638671875
2022-04-01T20:33:41.276Z,RESERVED_UNIT_1-8-1-8,2,target-1,memory,0.003154754638671875
2022-04-01T20:33:51.276Z,RESERVED_UNIT_1-8-1-8,2,target-1,memory,0.003154754638671875
2022-04-01T20:34:01.276Z,RESERVED_UNIT_1-8-1-8,2,target-1,memory,0.003154754638671875
2022-04-01T20:34:11.276Z,RESERVED_UNIT_1-8-1-8,2,target-1,memory,0.003154754638671875
2022-04-01T20:34:21.275Z,RESERVED_UNIT_1-8-1-8,2,target-1,memory,0.003154754638671875
2022-04-01T20:34:31.276Z,RESERVED_UNIT_1-8-1-8,2,target-1,memory,0.003154754638671875
2022-04-01T20:34:41.276Z,RESERVED_UNIT_1-8-1-8,2,target-1,memory,0.003154754638671875
2022-04-01T20:34:51.276Z,RESERVED_UNIT_1-8-1-8,2,target-1,memory,0.003154754638671875
2022-04-01T20:35:01.275Z,RESERVED_UNIT_1-8-1-8,2,target-1,memory,0.003154754638671875
2022-04-01T20:35:11.276Z,RESERVED_UNIT_1-8-1-8,2,target-1,memory,0.003154754638671875
2022-04-01T20:35:21.276Z,RESERVED_UNIT_1-8-1-8,2,target-1,memory,0.003154754638671875
2022-04-01T20:35:31.276Z,RESERVED_UNIT_1-8-1-8,2,target-1,memory,0.003154754638671875
2022-04-01T20:35:41.275Z,RESERVED_UNIT_1-8-1-8,2,target-1,memory,0.003154754638671875
2022-04-01T20:35:51.276Z,RESERVED_UNIT_1-8-1-8,2,target-1,memory,0.003154754638671875
2022-04-01T20:36:01.276Z,RESERVED_UNIT_1-8-1-8,2,target-1,memory,0.003154754638671875
2022-04-01T20:36:11.276Z,RESERVED_UNIT_1-8-1-8,2,target-1,memory,0.003154754638671875
2022-04-01T20:36:21.275Z,RESERVED_UNIT_1-8-1-8,2,target-1,memory,0.003154754638671875
2022-04-01T20:36:31.276Z,RESERVED_UNIT_1-8-1-8,2,target-1,memory,0.003154754638671875
2022-04-01T20:36:41.276Z,RESERVED_UNIT_1-8-1-8,2,target-1,memory,0.003154754638671875
2022-04-01T20:36:51.276Z,RESERVED_UNIT_1-8-1-8,2,target-1,memory,0.003154754638671875
2022-04-01T20:37:01.276Z,RESERVED_UNIT_1-8-1-8,2,target-1,memory,0.003154754638671875
2022-04-01T20:37:11.276Z,RESERVED_UNIT_1-8-1-8,2,target-1,memory,0.003154754638671875
2022-04-01T20:37:21.276Z,RESERVED_UNIT_1-8-1-8,2,target-1,memory,0.003154754638671875
2022-04-01T20:37:31.276Z,RESERVED_UNIT_1-8-1-8,2,target-1,memory,0.003154754638671875
2022-04-01T20:37:41.275Z,RESERVED_UNIT_1-8-1-8,2,target-1,memory,0.003154754638671875
2022-04-01T20:37:51.275Z,RESERVED_UNIT_1-8-1-8,2,target-1,memory,0.003154754638671875
2022-04-01T20:38:01.275Z,RESERVED_UNIT_1-8-1-8,2,target-1,memory,0.003154754638671875
2022-04-01T20:38:11.275Z,RESERVED_UNIT_1-8-1-8,2,target-1,memory,0.003154754638671875
2022-04-01T20:38:21.275Z,RESERVED_UNIT_1-8-1-8,2,target-1,memory,0.003154754638671875
2022-04-01T20:38:31.275Z,RESERVED_UNIT_1-8-1-8,2,target-1,memory,0.003154754638671875
2022-04-01T20:38:41.276Z,RESERVED_UNIT_1-8-1-8,2,target-1,memory,0.003154754638671875
2022-04-01T20:38:51.276Z,RESERVED_UNIT_1-8-1-8,2,target-1,memory,0.003154754638671875
2022-04-01T20:39:01.276Z,RESERVED_UNIT_1-8-1-8,2,target-1,memory,0.003154754638671875
2022-04-01T20:39:11.275Z,RESERVED_UNIT_1-8-1-8,2,target-1,memory,0.003154754638671875
2022-04-01T20:39:21.276Z,RESERVED_UNIT_1-8-1-8,2,target-1,memory,0.003154754638671875
2022-04-01T20:39:31.276Z,RESERVED_UNIT_1-8-1-8,2,target-1,memory,0.003154754638671875
2022-04-01T20:39:41.276Z,RESERVED_UNIT_1-8-1-8,2,target-1,memory,0.003154754638671875
2022-04-01T20:39:51.275Z,RESERVED_UNIT_1-8-1-8,2,target-1,memory,0.003154754638671875
2022-04-01T20:40:01.276Z,RESERVED_UNIT_1-8-1-8,2,target-1,memory,0.003154754638671875
2022-04-01T20:40:11.276Z,RESERVED_UNIT_1-8-1-8,2,target-1,memory,0.003154754638671875
2022-04-01T20:40:21.276Z,RESERVED_UNIT_1-8-1-8,2,target-1,memory,0.003154754638671875
2022-04-01T20:40:31.276Z,RESERVED_UNIT_1-8-1-8,2,target-1,memory,0.003154754638671875
2022-04-01T20:40:41.276Z,RESERVED_UNIT_1-8-1-8,2,target-1,memory,0.003154754638671875
2022-04-01T20:40:51.276Z,RESERVED_UNIT_1-8-1-8,2,target-1,memory,0.003154754638671875
2022-04-01T20:41:01.275Z,RESERVED_UNIT_1-8-1-8,2,target-1,memory,0.003154754638671875
2022-04-01T20:43:13.581Z,RESERVED_UNIT_1-8-1-8,3,target-1,memory,0.003154754638671875
2022-04-01T20:43:23.580Z,RESERVED_UNIT_1-8-1-8,3,target-1,memory,0.003154754638671875
2022-04-01T20:43:33.581Z,RESERVED_UNIT_1-8-1-8,3,target-1,memory,0.003170013427734375
2022-04-01T20:43:43.581Z,RESERVED_UNIT_1-8-1-8,3,target-1,memory,0.003170013427734375
2022-04-01T20:43:53.581Z,RESERVED_UNIT_1-8-1-8,3,target-1,memory,0.003170013427734375
2022-04-01T20:44:03.581Z,RESERVED_UNIT_1-8-1-8,3,target-1,memory,0.003170013427734375
2022-04-01T20:44:13.581Z,RESERVED_UNIT_1-8-1-8,3,target-1,memory,0.003170013427734375
2022-04-01T20:44:23.581Z,RESERVED_UNIT_1-8-1-8,3,target-1,memory,0.003170013427734375
2022-04-01T20:44:33.580Z,RESERVED_UNIT_1-8-1-8,3,target-1,memory,0.003170013427734375
2022-04-01T20:44:43.581Z,RESERVED_UNIT_1-8-1-8,3,target-1,memory,0.003170013427734375
2022-04-01T20:44:53.581Z,RESERVED_UNIT_1-8-1-8,3,target-1,memory,0.003170013427734375
2022-04-01T20:45:03.581Z,RESERVED_UNIT_1-8-1-8,3,target-1,memory,0.003170013427734375
2022-04-01T20:45:13.581Z,RESERVED_UNIT_1-8-1-8,3,target-1,memory,0.003170013427734375
2022-04-01T20:45:23.581Z,RESERVED_UNIT_1-8-1-8,3,target-1,memory,0.003170013427734375
2022-04-01T20:45:33.581Z,RESERVED_UNIT_1-8-1-8,3,target-1,memory,0.003170013427734375
2022-04-01T20:45:43.581Z,RESERVED_UNIT_1-8-1-8,3,target-1,memory,0.003170013427734375
2022-04-01T20:45:53.581Z,RESERVED_UNIT_1-8-1-8,3,target-1,memory,0.003170013427734375
2022-04-01T20:46:03.582Z,RESERVED_UNIT_1-8-1-8,3,target-1,memory,0.003170013427734375
2022-04-01T20:46:13.581Z,RESERVED_UNIT_1-8-1-8,3,target-1,memory,0.003170013427734375
2022-04-01T20:46:23.581Z,RESERVED_UNIT_1-8-1-8,3,target-1,memory,0.003170013427734375
2022-04-01T20:46:33.582Z,RESERVED_UNIT_1-8-1-8,3,target-1,memory,0.003170013427734375
2022-04-01T20:46:43.581Z,RESERVED_UNIT_1-8-1-8,3,target-1,memory,0.003170013427734375
2022-04-01T20:46:53.581Z,RESERVED_UNIT_1-8-1-8,3,target-1,memory,0.003170013427734375
2022-04-01T20:47:03.581Z,RESERVED_UNIT_1-8-1-8,3,target-1,memory,0.003170013427734375
2022-04-01T20:47:13.581Z,RESERVED_UNIT_1-8-1-8,3,target-1,memory,0.003170013427734375
2022-04-01T20:47:23.581Z,RESERVED_UNIT_1-8-1-8,3,target-1,memory,0.003170013427734375
2022-04-01T20:47:33.581Z,RESERVED_UNIT_1-8-1-8,3,target-1,memory,0.003170013427734375
2022-04-01T20:47:43.581Z,RESERVED_UNIT_1-8-1-8,3,target-1,memory,0.003170013427734375
2022-04-01T20:47:53.581Z,RESERVED_UNIT_1-8-1-8,3,target-1,memory,0.003170013427734375
2022-04-01T20:48:03.581Z,RESERVED_UNIT_1-8-1-8,3,target-1,memory,0.003170013427734375
2022-04-01T20:48:13.581Z,RESERVED_UNIT_1-8-1-8,3,target-1,memory,0.003170013427734375
2022-04-01T20:48:23.581Z,RESERVED_UNIT_1-8-1-8,3,target-1,memory,0.003170013427734375
2022-04-01T20:48:33.580Z,RESERVED_UNIT_1-8-1-8,3,target-1,memory,0.003170013427734375
2022-04-01T20:48:43.581Z,RESERVED_UNIT_1-8-1-8,3,target-1,memory,0.003170013427734375
2022-04-01T20:48:53.581Z,RESERVED_UNIT_1-8-1-8,3,target-1,memory,0.003170013427734375
2022-04-01T20:49:03.581Z,RESERVED_UNIT_1-8-1-8,3,target-1,memory,0.003170013427734375
2022-04-01T20:49:13.581Z,RESERVED_UNIT_1-8-1-8,3,target-1,memory,0.003170013427734375
2022-04-01T20:49:23.581Z,RESERVED_UNIT_1-8-1-8,3,target-1,memory,0.003170013427734375
2022-04-01T20:49:33.581Z,RESERVED_UNIT_1-8-1-8,3,target-1,memory,0.003170013427734375
2022-04-01T20:49:43.581Z,RESERVED_UNIT_1-8-1-8,3,target-1,memory,0.003170013427734375
2022-04-01T20:49:53.581Z,RESERVED_UNIT_1-8-1-8,3,target-1,memory,0.003170013427734375
2022-04-01T20:50:03.580Z,RESERVED_UNIT_1-8-1-8,3,target-1,memory,0.003170013427734375
2022-04-01T20:50:13.581Z,RESERVED_UNIT_1-8-1-8,3,target-1,memory,0.003170013427734375
2022-04-01T20:50:23.581Z,RESERVED_UNIT_1-8-1-8,3,target-1,memory,0.003170013427734375
2022-04-01T20:50:33.581Z,RESERVED_UNIT_1-8-1-8,3,target-1,memory,0.003170013427734375
2022-04-01T20:50:43.581Z,RESERVED_UNIT_1-8-1-8,3,target-1,memory,0.003170013427734375
2022-04-01T20:50:53.581Z,RESERVED_UNIT_1-8-1-8,3,target-1,memory,0.003170013427734375
2022-04-01T20:51:03.581Z,RESERVED_UNIT_1-8-1-8,3,target-1,memory,0.003170013427734375
2022-04-01T20:51:13.581Z,RESERVED_UNIT_1-8-1-8,3,target-1,memory,0.003170013427734375
2022-04-01T20:51:23.581Z,RESERVED_UNIT_1-8-1-8,3,target-1,memory,0.003170013427734375
2022-04-01T20:51:33.581Z,RESERVED_UNIT_1-8-1-8,3,target-1,memory,0.003170013427734375
2022-04-01T20:51:43.580Z,RESERVED_UNIT_1-8-1-8,3,target-1,memory,0.003170013427734375
2022-04-01T20:51:53.581Z,RESERVED_UNIT_1-8-1-8,3,target-1,memory,0.003170013427734375
2022-04-01T20:52:03.581Z,RESERVED_UNIT_1-8-1-8,3,target-1,memory,0.003170013427734375
2022-04-01T20:52:13.581Z,RESERVED_UNIT_1-8-1-8,3,target-1,memory,0.003170013427734375
2022-04-01T20:52:23.581Z,RESERVED_UNIT_1-8-1-8,3,target-1,memory,0.003170013427734375
2022-04-01T20:52:33.581Z,RESERVED_UNIT_1-8-1-8,3,target-1,memory,0.003170013427734375
2022-04-01T20:52:43.581Z,RESERVED_UNIT_1-8-1-8,3,target-1,memory,0.003170013427734375
2022-04-01T20:52:53.581Z,RESERVED_UNIT_1-8-1-8,3,target-1,memory,0.003170013427734375
2022-04-01T20:53:03.581Z,RESERVED_UNIT_1-8-1-8,3,target-1,memory,0.003170013427734375
2022-04-01T20:58:05.476Z,RESERVED_UNIT_1-16-1-16,1,target-1,memory,0.0034332275390625
2022-04-01T20:58:15.476Z,RESERVED_UNIT_1-16-1-16,1,target-1,memory,0.0034332275390625
2022-04-01T20:58:25.475Z,RESERVED_UNIT_1-16-1-16,1,target-1,memory,0.00347900390625
2022-04-01T20:58:35.475Z,RESERVED_UNIT_1-16-1-16,1,target-1,memory,0.00347900390625
2022-04-01T20:58:45.475Z,RESERVED_UNIT_1-16-1-16,1,target-1,memory,0.00347900390625
2022-04-01T20:58:55.475Z,RESERVED_UNIT_1-16-1-16,1,target-1,memory,0.00347900390625
2022-04-01T20:59:05.475Z,RESERVED_UNIT_1-16-1-16,1,target-1,memory,0.00347900390625
2022-04-01T20:59:15.475Z,RESERVED_UNIT_1-16-1-16,1,target-1,memory,0.00347900390625
2022-04-01T20:59:25.476Z,RESERVED_UNIT_1-16-1-16,1,target-1,memory,0.00347900390625
2022-04-01T20:59:35.475Z,RESERVED_UNIT_1-16-1-16,1,target-1,memory,0.00347900390625
2022-04-01T20:59:45.475Z,RESERVED_UNIT_1-16-1-16,1,target-1,memory,0.00347900390625
2022-04-01T20:59:55.476Z,RESERVED_UNIT_1-16-1-16,1,target-1,memory,0.00347900390625
2022-04-01T21:00:05.475Z,RESERVED_UNIT_1-16-1-16,1,target-1,memory,0.00347900390625
2022-04-01T21:00:15.475Z,RESERVED_UNIT_1-16-1-16,1,target-1,memory,0.00347900390625
2022-04-01T21:00:25.476Z,RESERVED_UNIT_1-16-1-16,1,target-1,memory,0.00347900390625
2022-04-01T21:00:35.475Z,RESERVED_UNIT_1-16-1-16,1,target-1,memory,0.00347900390625
2022-04-01T21:00:45.476Z,RESERVED_UNIT_1-16-1-16,1,target-1,memory,0.00347900390625
2022-04-01T21:00:55.475Z,RESERVED_UNIT_1-16-1-16,1,target-1,memory,0.00347900390625
2022-04-01T21:01:05.475Z,RESERVED_UNIT_1-16-1-16,1,target-1,memory,0.00347900390625
2022-04-01T21:01:15.476Z,RESERVED_UNIT_1-16-1-16,1,target-1,memory,0.00347900390625
2022-04-01T21:01:25.475Z,RESERVED_UNIT_1-16-1-16,1,target-1,memory,0.00347900390625
2022-04-01T21:01:35.476Z,RESERVED_UNIT_1-16-1-16,1,target-1,memory,0.00347900390625
2022-04-01T21:01:45.475Z,RESERVED_UNIT_1-16-1-16,1,target-1,memory,0.00347900390625
2022-04-01T21:01:55.475Z,RESERVED_UNIT_1-16-1-16,1,target-1,memory,0.00347900390625
2022-04-01T21:02:05.475Z,RESERVED_UNIT_1-16-1-16,1,target-1,memory,0.00347900390625
2022-04-01T21:02:15.476Z,RESERVED_UNIT_1-16-1-16,1,target-1,memory,0.00347900390625
2022-04-01T21:02:25.476Z,RESERVED_UNIT_1-16-1-16,1,target-1,memory,0.00347900390625
2022-04-01T21:02:35.475Z,RESERVED_UNIT_1-16-1-16,1,target-1,memory,0.00347900390625
2022-04-01T21:02:45.475Z,RESERVED_UNIT_1-16-1-16,1,target-1,memory,0.00347900390625
2022-04-01T21:02:55.475Z,RESERVED_UNIT_1-16-1-16,1,target-1,memory,0.00347900390625
2022-04-01T21:03:05.476Z,RESERVED_UNIT_1-16-1-16,1,target-1,memory,0.00347900390625
2022-04-01T21:03:15.476Z,RESERVED_UNIT_1-16-1-16,1,target-1,memory,0.00347900390625
2022-04-01T21:03:25.475Z,RESERVED_UNIT_1-16-1-16,1,target-1,memory,0.00347900390625
2022-04-01T21:03:35.475Z,RESERVED_UNIT_1-16-1-16,1,target-1,memory,0.00347900390625
2022-04-01T21:03:45.476Z,RESERVED_UNIT_1-16-1-16,1,target-1,memory,0.00347900390625
2022-04-01T21:03:55.475Z,RESERVED_UNIT_1-16-1-16,1,target-1,memory,0.00347900390625
2022-04-01T21:04:05.476Z,RESERVED_UNIT_1-16-1-16,1,target-1,memory,0.00347900390625
2022-04-01T21:04:15.476Z,RESERVED_UNIT_1-16-1-16,1,target-1,memory,0.00347900390625
2022-04-01T21:04:25.475Z,RESERVED_UNIT_1-16-1-16,1,target-1,memory,0.00347900390625
2022-04-01T21:04:35.475Z,RESERVED_UNIT_1-16-1-16,1,target-1,memory,0.00347900390625
2022-04-01T21:04:45.475Z,RESERVED_UNIT_1-16-1-16,1,target-1,memory,0.00347900390625
2022-04-01T21:04:55.476Z,RESERVED_UNIT_1-16-1-16,1,target-1,memory,0.00347900390625
2022-04-01T21:05:05.475Z,RESERVED_UNIT_1-16-1-16,1,target-1,memory,0.00347900390625
2022-04-01T21:05:15.475Z,RESERVED_UNIT_1-16-1-16,1,target-1,memory,0.00347900390625
2022-04-01T21:05:25.476Z,RESERVED_UNIT_1-16-1-16,1,target-1,memory,0.00347900390625
2022-04-01T21:05:35.476Z,RESERVED_UNIT_1-16-1-16,1,target-1,memory,0.00347900390625
2022-04-01T21:05:45.475Z,RESERVED_UNIT_1-16-1-16,1,target-1,memory,0.00347900390625
2022-04-01T21:05:55.476Z,RESERVED_UNIT_1-16-1-16,1,target-1,memory,0.00347900390625
2022-04-01T21:06:05.476Z,RESERVED_UNIT_1-16-1-16,1,target-1,memory,0.00347900390625
2022-04-01T21:06:15.475Z,RESERVED_UNIT_1-16-1-16,1,target-1,memory,0.00347900390625
2022-04-01T21:06:25.476Z,RESERVED_UNIT_1-16-1-16,1,target-1,memory,0.00347900390625
2022-04-01T21:06:35.475Z,RESERVED_UNIT_1-16-1-16,1,target-1,memory,0.00347900390625
2022-04-01T21:06:45.476Z,RESERVED_UNIT_1-16-1-16,1,target-1,memory,0.00347900390625
2022-04-01T21:06:55.476Z,RESERVED_UNIT_1-16-1-16,1,target-1,memory,0.00347900390625
2022-04-01T21:07:05.475Z,RESERVED_UNIT_1-16-1-16,1,target-1,memory,0.00347900390625
2022-04-01T21:07:15.476Z,RESERVED_UNIT_1-16-1-16,1,target-1,memory,0.00347900390625
2022-04-01T21:07:25.475Z,RESERVED_UNIT_1-16-1-16,1,target-1,memory,0.00347900390625
2022-04-01T21:07:35.476Z,RESERVED_UNIT_1-16-1-16,1,target-1,memory,0.00347900390625
2022-04-01T21:07:45.476Z,RESERVED_UNIT_1-16-1-16,1,target-1,memory,0.00347900390625
2022-04-01T21:07:55.475Z,RESERVED_UNIT_1-16-1-16,1,target-1,memory,0.00347900390625
2022-04-01T21:16:08.060Z,RESERVED_UNIT_1-16-1-16,2,target-1,memory,0.0035247802734375
2022-04-01T21:16:18.060Z,RESERVED_UNIT_1-16-1-16,2,target-1,memory,0.003543853759765625
2022-04-01T21:16:28.061Z,RESERVED_UNIT_1-16-1-16,2,target-1,memory,0.003543853759765625
2022-04-01T21:16:38.060Z,RESERVED_UNIT_1-16-1-16,2,target-1,memory,0.003543853759765625
2022-04-01T21:16:48.060Z,RESERVED_UNIT_1-16-1-16,2,target-1,memory,0.003543853759765625
2022-04-01T21:16:58.061Z,RESERVED_UNIT_1-16-1-16,2,target-1,memory,0.003543853759765625
2022-04-01T21:17:08.060Z,RESERVED_UNIT_1-16-1-16,2,target-1,memory,0.003543853759765625
2022-04-01T21:17:18.061Z,RESERVED_UNIT_1-16-1-16,2,target-1,memory,0.003543853759765625
2022-04-01T21:17:28.060Z,RESERVED_UNIT_1-16-1-16,2,target-1,memory,0.003543853759765625
2022-04-01T21:17:38.061Z,RESERVED_UNIT_1-16-1-16,2,target-1,memory,0.003543853759765625
2022-04-01T21:17:48.061Z,RESERVED_UNIT_1-16-1-16,2,target-1,memory,0.003543853759765625
2022-04-01T21:17:58.060Z,RESERVED_UNIT_1-16-1-16,2,target-1,memory,0.003543853759765625
2022-04-01T21:18:08.061Z,RESERVED_UNIT_1-16-1-16,2,target-1,memory,0.003543853759765625
2022-04-01T21:18:18.060Z,RESERVED_UNIT_1-16-1-16,2,target-1,memory,0.003543853759765625
2022-04-01T21:18:28.060Z,RESERVED_UNIT_1-16-1-16,2,target-1,memory,0.003543853759765625
2022-04-01T21:18:38.061Z,RESERVED_UNIT_1-16-1-16,2,target-1,memory,0.003543853759765625
2022-04-01T21:18:48.061Z,RESERVED_UNIT_1-16-1-16,2,target-1,memory,0.003543853759765625
2022-04-01T21:18:58.060Z,RESERVED_UNIT_1-16-1-16,2,target-1,memory,0.003543853759765625
2022-04-01T21:19:08.060Z,RESERVED_UNIT_1-16-1-16,2,target-1,memory,0.003543853759765625
2022-04-01T21:19:18.060Z,RESERVED_UNIT_1-16-1-16,2,target-1,memory,0.003543853759765625
2022-04-01T21:19:28.061Z,RESERVED_UNIT_1-16-1-16,2,target-1,memory,0.003543853759765625
2022-04-01T21:19:38.060Z,RESERVED_UNIT_1-16-1-16,2,target-1,memory,0.003543853759765625
2022-04-01T21:19:48.060Z,RESERVED_UNIT_1-16-1-16,2,target-1,memory,0.003543853759765625
2022-04-01T21:19:58.061Z,RESERVED_UNIT_1-16-1-16,2,target-1,memory,0.003543853759765625
2022-04-01T21:20:08.061Z,RESERVED_UNIT_1-16-1-16,2,target-1,memory,0.003543853759765625
2022-04-01T21:20:18.061Z,RESERVED_UNIT_1-16-1-16,2,target-1,memory,0.003543853759765625
2022-04-01T21:20:28.061Z,RESERVED_UNIT_1-16-1-16,2,target-1,memory,0.003543853759765625
2022-04-01T21:20:38.060Z,RESERVED_UNIT_1-16-1-16,2,target-1,memory,0.003543853759765625
2022-04-01T21:20:48.061Z,RESERVED_UNIT_1-16-1-16,2,target-1,memory,0.003543853759765625
2022-04-01T21:20:58.060Z,RESERVED_UNIT_1-16-1-16,2,target-1,memory,0.003543853759765625
2022-04-01T21:21:08.060Z,RESERVED_UNIT_1-16-1-16,2,target-1,memory,0.003543853759765625
2022-04-01T21:21:18.061Z,RESERVED_UNIT_1-16-1-16,2,target-1,memory,0.003543853759765625
2022-04-01T21:21:28.061Z,RESERVED_UNIT_1-16-1-16,2,target-1,memory,0.003543853759765625
2022-04-01T21:21:38.060Z,RESERVED_UNIT_1-16-1-16,2,target-1,memory,0.003543853759765625
2022-04-01T21:21:48.061Z,RESERVED_UNIT_1-16-1-16,2,target-1,memory,0.003543853759765625
2022-04-01T21:21:58.060Z,RESERVED_UNIT_1-16-1-16,2,target-1,memory,0.003543853759765625
2022-04-01T21:22:08.064Z,RESERVED_UNIT_1-16-1-16,2,target-1,memory,0.003543853759765625
2022-04-01T21:22:18.061Z,RESERVED_UNIT_1-16-1-16,2,target-1,memory,0.003543853759765625
2022-04-01T21:22:28.060Z,RESERVED_UNIT_1-16-1-16,2,target-1,memory,0.003543853759765625
2022-04-01T21:22:38.060Z,RESERVED_UNIT_1-16-1-16,2,target-1,memory,0.003543853759765625
2022-04-01T21:22:48.060Z,RESERVED_UNIT_1-16-1-16,2,target-1,memory,0.003543853759765625
2022-04-01T21:22:58.061Z,RESERVED_UNIT_1-16-1-16,2,target-1,memory,0.003543853759765625
2022-04-01T21:23:08.060Z,RESERVED_UNIT_1-16-1-16,2,target-1,memory,0.003543853759765625
2022-04-01T21:23:18.061Z,RESERVED_UNIT_1-16-1-16,2,target-1,memory,0.003543853759765625
2022-04-01T21:23:28.060Z,RESERVED_UNIT_1-16-1-16,2,target-1,memory,0.003543853759765625
2022-04-01T21:23:38.060Z,RESERVED_UNIT_1-16-1-16,2,target-1,memory,0.003543853759765625
2022-04-01T21:23:48.060Z,RESERVED_UNIT_1-16-1-16,2,target-1,memory,0.003543853759765625
2022-04-01T21:23:58.061Z,RESERVED_UNIT_1-16-1-16,2,target-1,memory,0.003543853759765625
2022-04-01T21:24:08.061Z,RESERVED_UNIT_1-16-1-16,2,target-1,memory,0.003543853759765625
2022-04-01T21:24:18.061Z,RESERVED_UNIT_1-16-1-16,2,target-1,memory,0.003543853759765625
2022-04-01T21:24:28.060Z,RESERVED_UNIT_1-16-1-16,2,target-1,memory,0.003543853759765625
2022-04-01T21:24:38.061Z,RESERVED_UNIT_1-16-1-16,2,target-1,memory,0.003543853759765625
2022-04-01T21:24:48.061Z,RESERVED_UNIT_1-16-1-16,2,target-1,memory,0.003543853759765625
2022-04-01T21:24:58.060Z,RESERVED_UNIT_1-16-1-16,2,target-1,memory,0.003543853759765625
2022-04-01T21:25:08.060Z,RESERVED_UNIT_1-16-1-16,2,target-1,memory,0.003543853759765625
2022-04-01T21:25:18.061Z,RESERVED_UNIT_1-16-1-16,2,target-1,memory,0.003543853759765625
2022-04-01T21:25:28.060Z,RESERVED_UNIT_1-16-1-16,2,target-1,memory,0.003543853759765625
2022-04-01T21:25:38.061Z,RESERVED_UNIT_1-16-1-16,2,target-1,memory,0.003543853759765625
2022-04-01T21:25:48.061Z,RESERVED_UNIT_1-16-1-16,2,target-1,memory,0.003543853759765625
2022-04-01T21:25:58.061Z,RESERVED_UNIT_1-16-1-16,2,target-1,memory,0.003543853759765625
2022-04-01T21:34:01.975Z,RESERVED_UNIT_1-16-1-16,3,target-1,memory,0.00359344482421875
2022-04-01T21:34:11.975Z,RESERVED_UNIT_1-16-1-16,3,target-1,memory,0.00359344482421875
2022-04-01T21:34:21.975Z,RESERVED_UNIT_1-16-1-16,3,target-1,memory,0.00359344482421875
2022-04-01T21:34:31.976Z,RESERVED_UNIT_1-16-1-16,3,target-1,memory,0.00359344482421875
2022-04-01T21:34:41.975Z,RESERVED_UNIT_1-16-1-16,3,target-1,memory,0.00359344482421875
2022-04-01T21:34:51.975Z,RESERVED_UNIT_1-16-1-16,3,target-1,memory,0.00359344482421875
2022-04-01T21:35:01.975Z,RESERVED_UNIT_1-16-1-16,3,target-1,memory,0.00359344482421875
2022-04-01T21:35:11.976Z,RESERVED_UNIT_1-16-1-16,3,target-1,memory,0.00359344482421875
2022-04-01T21:35:21.976Z,RESERVED_UNIT_1-16-1-16,3,target-1,memory,0.00359344482421875
2022-04-01T21:35:31.976Z,RESERVED_UNIT_1-16-1-16,3,target-1,memory,0.00359344482421875
2022-04-01T21:35:41.975Z,RESERVED_UNIT_1-16-1-16,3,target-1,memory,0.00359344482421875
2022-04-01T21:35:51.976Z,RESERVED_UNIT_1-16-1-16,3,target-1,memory,0.00359344482421875
2022-04-01T21:36:01.976Z,RESERVED_UNIT_1-16-1-16,3,target-1,memory,0.00359344482421875
2022-04-01T21:36:11.975Z,RESERVED_UNIT_1-16-1-16,3,target-1,memory,0.00359344482421875
2022-04-01T21:36:21.975Z,RESERVED_UNIT_1-16-1-16,3,target-1,memory,0.00359344482421875
2022-04-01T21:36:31.975Z,RESERVED_UNIT_1-16-1-16,3,target-1,memory,0.00359344482421875
2022-04-01T21:36:41.976Z,RESERVED_UNIT_1-16-1-16,3,target-1,memory,0.00359344482421875
2022-04-01T21:36:51.976Z,RESERVED_UNIT_1-16-1-16,3,target-1,memory,0.00359344482421875
2022-04-01T21:37:01.975Z,RESERVED_UNIT_1-16-1-16,3,target-1,memory,0.00359344482421875
2022-04-01T21:37:11.975Z,RESERVED_UNIT_1-16-1-16,3,target-1,memory,0.00359344482421875
2022-04-01T21:37:21.975Z,RESERVED_UNIT_1-16-1-16,3,target-1,memory,0.00359344482421875
2022-04-01T21:37:31.975Z,RESERVED_UNIT_1-16-1-16,3,target-1,memory,0.00359344482421875
2022-04-01T21:37:41.975Z,RESERVED_UNIT_1-16-1-16,3,target-1,memory,0.00359344482421875
2022-04-01T21:37:51.975Z,RESERVED_UNIT_1-16-1-16,3,target-1,memory,0.00359344482421875
2022-04-01T21:38:01.975Z,RESERVED_UNIT_1-16-1-16,3,target-1,memory,0.00359344482421875
2022-04-01T21:38:11.975Z,RESERVED_UNIT_1-16-1-16,3,target-1,memory,0.00359344482421875
2022-04-01T21:38:21.976Z,RESERVED_UNIT_1-16-1-16,3,target-1,memory,0.00359344482421875
2022-04-01T21:38:31.976Z,RESERVED_UNIT_1-16-1-16,3,target-1,memory,0.00359344482421875
2022-04-01T21:38:41.976Z,RESERVED_UNIT_1-16-1-16,3,target-1,memory,0.00359344482421875
2022-04-01T21:38:51.976Z,RESERVED_UNIT_1-16-1-16,3,target-1,memory,0.00359344482421875
2022-04-01T21:39:01.975Z,RESERVED_UNIT_1-16-1-16,3,target-1,memory,0.00359344482421875
2022-04-01T21:39:11.976Z,RESERVED_UNIT_1-16-1-16,3,target-1,memory,0.00359344482421875
2022-04-01T21:39:21.976Z,RESERVED_UNIT_1-16-1-16,3,target-1,memory,0.00359344482421875
2022-04-01T21:39:31.975Z,RESERVED_UNIT_1-16-1-16,3,target-1,memory,0.00359344482421875
2022-04-01T21:39:41.975Z,RESERVED_UNIT_1-16-1-16,3,target-1,memory,0.00359344482421875
2022-04-01T21:39:51.975Z,RESERVED_UNIT_1-16-1-16,3,target-1,memory,0.00359344482421875
2022-04-01T21:40:01.975Z,RESERVED_UNIT_1-16-1-16,3,target-1,memory,0.00359344482421875
2022-04-01T21:40:11.975Z,RESERVED_UNIT_1-16-1-16,3,target-1,memory,0.00359344482421875
2022-04-01T21:40:21.975Z,RESERVED_UNIT_1-16-1-16,3,target-1,memory,0.00359344482421875
2022-04-01T21:40:31.975Z,RESERVED_UNIT_1-16-1-16,3,target-1,memory,0.00359344482421875
2022-04-01T21:40:41.976Z,RESERVED_UNIT_1-16-1-16,3,target-1,memory,0.00359344482421875
2022-04-01T21:40:51.976Z,RESERVED_UNIT_1-16-1-16,3,target-1,memory,0.00359344482421875
2022-04-01T21:41:01.976Z,RESERVED_UNIT_1-16-1-16,3,target-1,memory,0.00359344482421875
2022-04-01T21:41:11.975Z,RESERVED_UNIT_1-16-1-16,3,target-1,memory,0.00359344482421875
2022-04-01T21:41:21.976Z,RESERVED_UNIT_1-16-1-16,3,target-1,memory,0.00359344482421875
2022-04-01T21:41:31.975Z,RESERVED_UNIT_1-16-1-16,3,target-1,memory,0.00359344482421875
2022-04-01T21:41:41.976Z,RESERVED_UNIT_1-16-1-16,3,target-1,memory,0.00359344482421875
2022-04-01T21:41:51.975Z,RESERVED_UNIT_1-16-1-16,3,target-1,memory,0.00359344482421875
2022-04-01T21:42:01.976Z,RESERVED_UNIT_1-16-1-16,3,target-1,memory,0.00359344482421875
2022-04-01T21:42:11.976Z,RESERVED_UNIT_1-16-1-16,3,target-1,memory,0.00359344482421875
2022-04-01T21:42:21.976Z,RESERVED_UNIT_1-16-1-16,3,target-1,memory,0.00359344482421875
2022-04-01T21:42:31.975Z,RESERVED_UNIT_1-16-1-16,3,target-1,memory,0.00359344482421875
2022-04-01T21:42:41.975Z,RESERVED_UNIT_1-16-1-16,3,target-1,memory,0.00359344482421875
2022-04-01T21:42:51.976Z,RESERVED_UNIT_1-16-1-16,3,target-1,memory,0.00359344482421875
2022-04-01T21:43:01.975Z,RESERVED_UNIT_1-16-1-16,3,target-1,memory,0.00359344482421875
2022-04-01T21:43:11.976Z,RESERVED_UNIT_1-16-1-16,3,target-1,memory,0.00359344482421875
2022-04-01T21:43:21.975Z,RESERVED_UNIT_1-16-1-16,3,target-1,memory,0.00359344482421875
2022-04-01T21:43:31.976Z,RESERVED_UNIT_1-16-1-16,3,target-1,memory,0.00359344482421875
2022-04-01T21:43:41.975Z,RESERVED_UNIT_1-16-1-16,3,target-1,memory,0.00359344482421875
2022-04-01T21:43:51.975Z,RESERVED_UNIT_1-16-1-16,3,target-1,memory,0.00359344482421875
