timestamp,key,run_id,resource,metric,value
2022-04-01T09:03:22.866Z,RESERVED_UNIT_1-1-1-1,1,target-1,network_in,0.013661384582519531
2022-04-01T09:13:39.324Z,RESERVED_UNIT_1-1-1-1,2,target-1,network_in,0.014374732971191406
2022-04-01T09:23:37.589Z,RESERVED_UNIT_1-1-1-1,3,target-1,network_in,0.013821601867675781
2022-04-01T21:07:55.475Z,RESERVED_UNIT_1-16-1-16,1,target-1,network_in,3.822930335998535
2022-04-01T21:25:58.061Z,RESERVED_UNIT_1-16-1-16,2,target-1,network_in,6.115695953369141
2022-04-01T21:43:51.975Z,RESERVED_UNIT_1-16-1-16,3,target-1,network_in,3.9396276473999023
2022-04-01T12:08:26.550Z,RESERVED_UNIT_1-2-1-2,1,target-1,network_in,0.06820201873779297
2022-04-01T12:18:39.819Z,RESERVED_UNIT_1-2-1-2,2,target-1,network_in,0.0994729995727539
2022-04-01T12:28:52.526Z,RESERVED_UNIT_1-2-1-2,3,target-1,network_in,0.05292320251464844
2022-04-01T19:56:34.660Z,RESERVED_UNIT_1-4-1-4,1,target-1,network_in,0.3034639358520508
2022-04-01T20:07:09.533Z,RESERVED_UNIT_1-4-1-4,2,target-1,network_in,0.3073234558105469
2022-04-01T20:17:44.571Z,RESERVED_UNIT_1-4-1-4,3,target-1,network_in,0.3114767074584961
2022-04-01T20:29:00.059Z,RESERVED_UNIT_1-8-1-8,1,target-1,network_in,1.151123046875
2022-04-01T20:41:01.275Z,RESERVED_UNIT_1-8-1-8,2,target-1,network_in,1.1530656814575195
2022-04-01T20:53:03.581Z,RESERVED_UNIT_1-8-1-8,3,target-1,network_in,1.1643543243408203
