2023-07-04T16:06:25.928Z,currencyservice,network_in,102760
2023-07-04T16:06:25.928Z,shippingservice,network_in,16650
2023-07-04T16:06:25.928Z,paymentservice,network_in,7289
2023-07-04T16:06:25.897Z,adservice,network_in,19305
2023-07-04T16:06:25.928Z,cartservice,network_in,43397
2023-07-04T16:06:25.897Z,emailservice,network_in,7528
2023-07-04T16:06:25.928Z,redis-cart,network_in,14614
2023-07-04T16:06:26.201Z,recommendationservice,network_in,166575
2023-07-04T16:06:26.201Z,redis-cart,network_in,30328
2023-07-04T16:06:26.201Z,frontend,network_in,499723
2023-07-04T16:06:26.201Z,checkoutservice,network_in,37870
2023-07-04T16:06:36.247Z,emailservice,network_in,8805
2023-07-04T16:06:36.247Z,adservice,network_in,19305
2023-07-04T16:06:36.299Z,cartservice,network_in,63795
2023-07-04T16:06:36.299Z,shippingservice,network_in,22667
2023-07-04T16:06:36.299Z,currencyservice,network_in,102760
2023-07-04T16:06:36.299Z,paymentservice,network_in,7771
2023-07-04T16:06:36.299Z,redis-cart,network_in,16122
2023-07-04T16:06:36.713Z,redis-cart,network_in,45394
2023-07-04T16:06:36.713Z,recommendationservice,network_in,231754
2023-07-04T16:06:36.713Z,productcatalogservice,network_in,366502
2023-07-04T16:06:36.713Z,checkoutservice,network_in,37870
2023-07-04T16:06:36.713Z,frontend,network_in,666513
2023-07-04T16:06:46.247Z,adservice,network_in,19305
2023-07-04T16:06:46.247Z,emailservice,network_in,8805
2023-07-04T16:06:46.299Z,redis-cart,network_in,18367
2023-07-04T16:06:46.299Z,paymentservice,network_in,8853
2023-07-04T16:06:46.299Z,currencyservice,network_in,131583
2023-07-04T16:06:46.299Z,cartservice,network_in,76088
2023-07-04T16:06:46.299Z,shippingservice,network_in,22667
2023-07-04T16:06:46.714Z,frontend,network_in,666513
2023-07-04T16:06:46.714Z,recommendationservice,network_in,231754
2023-07-04T16:06:46.714Z,checkoutservice,network_in,40721
2023-07-04T16:06:46.714Z,redis-cart,network_in,45394
2023-07-04T16:06:46.714Z,productcatalogservice,network_in,485044
2023-07-04T16:06:56.299Z,cartservice,network_in,76088
2023-07-04T16:06:56.299Z,currencyservice,network_in,168217
2023-07-04T16:06:56.299Z,redis-cart,network_in,21490
2023-07-04T16:06:56.299Z,paymentservice,network_in,8853
2023-07-04T16:06:56.299Z,shippingservice,network_in,27327
2023-07-04T16:06:56.247Z,adservice,network_in,37093
2023-07-04T16:06:56.247Z,emailservice,network_in,9057
2023-07-04T16:06:56.713Z,productcatalogservice,network_in,589271
2023-07-04T16:06:56.713Z,recommendationservice,network_in,298173
2023-07-04T16:06:56.713Z,checkoutservice,network_in,51169
2023-07-04T16:06:56.713Z,frontend,network_in,919381
2023-07-04T16:06:56.713Z,redis-cart,network_in,55574
2023-07-04T16:07:06.247Z,adservice,network_in,37093
2023-07-04T16:07:06.298Z,redis-cart,network_in,21490
2023-07-04T16:07:06.298Z,shippingservice,network_in,27327
2023-07-04T16:07:06.247Z,emailservice,network_in,9057
2023-07-04T16:07:06.298Z,cartservice,network_in,76088
2023-07-04T16:07:06.298Z,paymentservice,network_in,8853
2023-07-04T16:07:06.298Z,currencyservice,network_in,168217
2023-07-04T16:07:06.713Z,productcatalogservice,network_in,589271
2023-07-04T16:07:06.713Z,redis-cart,network_in,55574
2023-07-04T16:07:06.713Z,checkoutservice,network_in,51169
2023-07-04T16:07:06.713Z,frontend,network_in,919381
2023-07-04T16:07:06.713Z,recommendationservice,network_in,298173
2023-07-04T16:07:16.299Z,shippingservice,network_in,33336
2023-07-04T16:07:16.299Z,currencyservice,network_in,206175
2023-07-04T16:07:16.247Z,adservice,network_in,42033
2023-07-04T16:07:16.299Z,paymentservice,network_in,10141
2023-07-04T16:07:16.247Z,emailservice,network_in,12042
2023-07-04T16:07:16.299Z,redis-cart,network_in,24279
2023-07-04T16:07:16.299Z,cartservice,network_in,108371
2023-07-04T16:07:16.714Z,redis-cart,network_in,68341
2023-07-04T16:07:16.714Z,checkoutservice,network_in,56229
2023-07-04T16:07:16.714Z,recommendationservice,network_in,369852
2023-07-04T16:07:16.714Z,frontend,network_in,1059165
2023-07-04T16:07:16.714Z,productcatalogservice,network_in,659369
2023-07-04T16:07:26.298Z,redis-cart,network_in,24279
2023-07-04T16:07:26.298Z,shippingservice,network_in,33336
2023-07-04T16:07:26.298Z,paymentservice,network_in,10141
2023-07-04T16:07:26.247Z,adservice,network_in,42033
2023-07-04T16:07:26.298Z,currencyservice,network_in,206175
2023-07-04T16:07:26.247Z,emailservice,network_in,12042
2023-07-04T16:07:26.298Z,cartservice,network_in,108371
2023-07-04T16:07:26.713Z,recommendationservice,network_in,427032
2023-07-04T16:07:26.713Z,checkoutservice,network_in,61344
2023-07-04T16:07:26.713Z,redis-cart,network_in,84265
2023-07-04T16:07:26.713Z,frontend,network_in,1283070
2023-07-04T16:07:26.713Z,productcatalogservice,network_in,765942
2023-07-04T16:07:36.247Z,emailservice,network_in,13821
2023-07-04T16:07:36.247Z,adservice,network_in,54727
2023-07-04T16:07:36.298Z,shippingservice,network_in,38429
2023-07-04T16:07:36.298Z,paymentservice,network_in,11045
2023-07-04T16:07:36.298Z,cartservice,network_in,108371
2023-07-04T16:07:36.298Z,redis-cart,network_in,27138
2023-07-04T16:07:36.298Z,currencyservice,network_in,206175
2023-07-04T16:07:36.713Z,recommendationservice,network_in,505222
2023-07-04T16:07:36.713Z,frontend,network_in,1503180
2023-07-04T16:07:36.713Z,productcatalogservice,network_in,903778
2023-07-04T16:07:36.713Z,redis-cart,network_in,90681
2023-07-04T16:07:36.713Z,checkoutservice,network_in,61344
2023-07-04T16:07:46.298Z,cartservice,network_in,126165
2023-07-04T16:07:46.247Z,adservice,network_in,62714
2023-07-04T16:07:46.298Z,shippingservice,network_in,38429
2023-07-04T16:07:46.298Z,currencyservice,network_in,239929
2023-07-04T16:07:46.247Z,emailservice,network_in,14027
2023-07-04T16:07:46.298Z,redis-cart,network_in,29733
2023-07-04T16:07:46.298Z,paymentservice,network_in,11692
2023-07-04T16:07:46.713Z,recommendationservice,network_in,505222
2023-07-04T16:07:46.713Z,frontend,network_in,1503180
2023-07-04T16:07:46.713Z,redis-cart,network_in,90681
2023-07-04T16:07:46.713Z,checkoutservice,network_in,61344
2023-07-04T16:07:46.713Z,productcatalogservice,network_in,903778
2023-07-04T16:07:56.298Z,paymentservice,network_in,12848
2023-07-04T16:07:56.298Z,redis-cart,network_in,29733
2023-07-04T16:07:56.247Z,adservice,network_in,69507
2023-07-04T16:07:56.298Z,shippingservice,network_in,41567
2023-07-04T16:07:56.247Z,emailservice,network_in,15304
2023-07-04T16:07:56.298Z,currencyservice,network_in,239929
2023-07-04T16:07:56.298Z,cartservice,network_in,136132
2023-07-04T16:07:56.713Z,checkoutservice,network_in,63375
2023-07-04T16:07:56.713Z,recommendationservice,network_in,579582
2023-07-04T16:07:56.713Z,redis-cart,network_in,102980
2023-07-04T16:07:56.713Z,productcatalogservice,network_in,1057125
2023-07-04T16:07:56.713Z,frontend,network_in,1764911
2023-07-04T16:08:06.247Z,adservice,network_in,69507
2023-07-04T16:08:06.299Z,paymentservice,network_in,12956
2023-07-04T16:08:06.247Z,emailservice,network_in,15304
2023-07-04T16:08:06.299Z,currencyservice,network_in,307827
2023-07-04T16:08:06.299Z,shippingservice,network_in,46044
2023-07-04T16:08:06.299Z,cartservice,network_in,155018
2023-07-04T16:08:06.299Z,redis-cart,network_in,33400
2023-07-04T16:08:06.713Z,frontend,network_in,1764911
2023-07-04T16:08:06.713Z,checkoutservice,network_in,65354
2023-07-04T16:08:06.713Z,redis-cart,network_in,110638
2023-07-04T16:08:06.713Z,productcatalogservice,network_in,1057125
2023-07-04T16:08:06.713Z,recommendationservice,network_in,579582
2023-07-04T16:08:16.298Z,currencyservice,network_in,307827
2023-07-04T16:08:16.298Z,cartservice,network_in,155018
2023-07-04T16:08:16.298Z,redis-cart,network_in,33400
2023-07-04T16:08:16.298Z,shippingservice,network_in,46044
2023-07-04T16:08:16.298Z,paymentservice,network_in,12956
2023-07-04T16:08:16.247Z,adservice,network_in,74865
2023-07-04T16:08:16.247Z,emailservice,network_in,15304
2023-07-04T16:08:16.713Z,frontend,network_in,1764911
2023-07-04T16:08:16.713Z,checkoutservice,network_in,65354
2023-07-04T16:08:16.713Z,redis-cart,network_in,110638
2023-07-04T16:08:16.713Z,productcatalogservice,network_in,1057125
2023-07-04T16:08:16.713Z,recommendationservice,network_in,579582
2023-07-04T16:08:26.298Z,cartservice,network_in,182363
2023-07-04T16:08:26.247Z,emailservice,network_in,15304
2023-07-04T16:08:26.298Z,redis-cart,network_in,39020
2023-07-04T16:08:26.298Z,currencyservice,network_in,348263
2023-07-04T16:08:26.247Z,adservice,network_in,74865
2023-07-04T16:08:26.298Z,shippingservice,network_in,58363
2023-07-04T16:08:26.298Z,paymentservice,network_in,14405
2023-07-04T16:08:26.713Z,checkoutservice,network_in,80072
2023-07-04T16:08:26.713Z,recommendationservice,network_in,638990
2023-07-04T16:08:26.713Z,redis-cart,network_in,127882
2023-07-04T16:08:26.713Z,frontend,network_in,2175194
2023-07-04T16:08:26.713Z,productcatalogservice,network_in,1276760
2023-07-04T16:08:36.247Z,emailservice,network_in,18279
2023-07-04T16:08:36.299Z,currencyservice,network_in,378384
2023-07-04T16:08:36.299Z,redis-cart,network_in,39020
2023-07-04T16:08:36.247Z,adservice,network_in,92389
2023-07-04T16:08:36.299Z,shippingservice,network_in,58363
2023-07-04T16:08:36.299Z,paymentservice,network_in,15761
2023-07-04T16:08:36.299Z,cartservice,network_in,198799
2023-07-04T16:08:36.714Z,checkoutservice,network_in,80072
2023-07-04T16:08:36.714Z,redis-cart,network_in,127882
2023-07-04T16:08:36.714Z,productcatalogservice,network_in,1402376
2023-07-04T16:08:36.714Z,frontend,network_in,2175194
2023-07-04T16:08:36.714Z,recommendationservice,network_in,736568
2023-07-04T16:08:46.247Z,adservice,network_in,92389
2023-07-04T16:08:46.299Z,redis-cart,network_in,42395
2023-07-04T16:08:46.299Z,cartservice,network_in,213314
2023-07-04T16:08:46.247Z,emailservice,network_in,19596
2023-07-04T16:08:46.299Z,currencyservice,network_in,413765
2023-07-04T16:08:46.299Z,shippingservice,network_in,65301
2023-07-04T16:08:46.299Z,paymentservice,network_in,17121
2023-07-04T16:08:46.714Z,frontend,network_in,2390723
2023-07-04T16:08:46.714Z,redis-cart,network_in,140432
2023-07-04T16:08:46.714Z,checkoutservice,network_in,90675
2023-07-04T16:08:46.714Z,productcatalogservice,network_in,1402376
2023-07-04T16:08:46.714Z,recommendationservice,network_in,814496
2023-07-04T16:08:56.247Z,emailservice,network_in,19596
2023-07-04T16:08:56.247Z,adservice,network_in,92389
2023-07-04T16:08:56.299Z,currencyservice,network_in,413765
2023-07-04T16:08:56.299Z,shippingservice,network_in,65301
2023-07-04T16:08:56.299Z,redis-cart,network_in,42395
2023-07-04T16:08:56.299Z,cartservice,network_in,213314
2023-07-04T16:08:56.299Z,paymentservice,network_in,17121
2023-07-04T16:08:56.713Z,recommendationservice,network_in,814496
2023-07-04T16:08:56.713Z,productcatalogservice,network_in,1526393
2023-07-04T16:08:56.713Z,checkoutservice,network_in,91467
2023-07-04T16:08:56.713Z,redis-cart,network_in,154306
2023-07-04T16:08:56.713Z,frontend,network_in,2580988
2023-07-04T16:09:06.298Z,paymentservice,network_in,18943
2023-07-04T16:09:06.247Z,adservice,network_in,103272
2023-07-04T16:09:06.298Z,currencyservice,network_in,478564
2023-07-04T16:09:06.298Z,shippingservice,network_in,73228
2023-07-04T16:09:06.247Z,emailservice,network_in,21361
2023-07-04T16:09:06.298Z,cartservice,network_in,240619
2023-07-04T16:09:06.298Z,redis-cart,network_in,45518
2023-07-04T16:09:06.713Z,checkoutservice,network_in,104361
2023-07-04T16:09:06.713Z,frontend,network_in,2580988
2023-07-04T16:09:06.713Z,redis-cart,network_in,154306
2023-07-04T16:09:06.713Z,productcatalogservice,network_in,1526393
2023-07-04T16:09:06.713Z,recommendationservice,network_in,859244
2023-07-04T16:09:16.298Z,paymentservice,network_in,18943
2023-07-04T16:09:16.247Z,adservice,network_in,111888
2023-07-04T16:09:16.298Z,cartservice,network_in,240619
2023-07-04T16:09:16.298Z,redis-cart,network_in,45518
2023-07-04T16:09:16.247Z,emailservice,network_in,22569
2023-07-04T16:09:16.298Z,currencyservice,network_in,478564
2023-07-04T16:09:16.298Z,shippingservice,network_in,73228
2023-07-04T16:09:16.713Z,checkoutservice,network_in,104361
2023-07-04T16:09:16.713Z,frontend,network_in,2580988
2023-07-04T16:09:16.713Z,redis-cart,network_in,154306
2023-07-04T16:09:16.713Z,productcatalogservice,network_in,1526393
2023-07-04T16:09:16.713Z,recommendationservice,network_in,859244
2023-07-04T16:09:26.247Z,adservice,network_in,124263
2023-07-04T16:09:26.298Z,redis-cart,network_in,48349
2023-07-04T16:09:26.298Z,currencyservice,network_in,478564
2023-07-04T16:09:26.298Z,shippingservice,network_in,77280
2023-07-04T16:09:26.247Z,emailservice,network_in,22569
2023-07-04T16:09:26.298Z,cartservice,network_in,257830
2023-07-04T16:09:26.298Z,paymentservice,network_in,18943
2023-07-04T16:09:26.713Z,frontend,network_in,3167270
2023-07-04T16:09:26.713Z,recommendationservice,network_in,1007405
2023-07-04T16:09:26.713Z,checkoutservice,network_in,108315
2023-07-04T16:09:26.713Z,redis-cart,network_in,173342
2023-07-04T16:09:26.713Z,productcatalogservice,network_in,1907656
2023-07-04T16:09:36.247Z,emailservice,network_in,22569
2023-07-04T16:09:36.298Z,redis-cart,network_in,51278
2023-07-04T16:09:36.298Z,cartservice,network_in,273407
2023-07-04T16:09:36.298Z,shippingservice,network_in,83255
2023-07-04T16:09:36.298Z,paymentservice,network_in,19422
2023-07-04T16:09:36.247Z,adservice,network_in,124263
2023-07-04T16:09:36.298Z,currencyservice,network_in,554530
2023-07-04T16:09:36.713Z,recommendationservice,network_in,1063089
2023-07-04T16:09:36.713Z,redis-cart,network_in,185381
2023-07-04T16:09:36.713Z,checkoutservice,network_in,110028
2023-07-04T16:09:36.713Z,productcatalogservice,network_in,1907656
2023-07-04T16:09:36.713Z,frontend,network_in,3167270
2023-07-04T16:09:46.247Z,emailservice,network_in,24452
2023-07-04T16:09:46.298Z,shippingservice,network_in,87153
2023-07-04T16:09:46.247Z,adservice,network_in,132068
2023-07-04T16:09:46.298Z,redis-cart,network_in,54319
2023-07-04T16:09:46.298Z,cartservice,network_in,273407
2023-07-04T16:09:46.298Z,paymentservice,network_in,21227
2023-07-04T16:09:46.298Z,currencyservice,network_in,579803
2023-07-04T16:09:46.713Z,productcatalogservice,network_in,2037980
2023-07-04T16:09:46.713Z,checkoutservice,network_in,114158
2023-07-04T16:09:46.713Z,frontend,network_in,3392926
2023-07-04T16:09:46.713Z,redis-cart,network_in,194727
2023-07-04T16:09:46.713Z,recommendationservice,network_in,1063089
2023-07-04T16:09:56.247Z,adservice,network_in,132068
2023-07-04T16:09:56.247Z,emailservice,network_in,24452
2023-07-04T16:09:56.299Z,currencyservice,network_in,611498
2023-07-04T16:09:56.299Z,shippingservice,network_in,91130
2023-07-04T16:09:56.299Z,redis-cart,network_in,54319
2023-07-04T16:09:56.299Z,paymentservice,network_in,21377
2023-07-04T16:09:56.299Z,cartservice,network_in,296994
2023-07-04T16:09:56.713Z,checkoutservice,network_in,114950
2023-07-04T16:09:56.713Z,frontend,network_in,3591396
2023-07-04T16:09:56.713Z,redis-cart,network_in,208883
2023-07-04T16:09:56.713Z,recommendationservice,network_in,1134912
2023-07-04T16:09:56.713Z,productcatalogservice,network_in,2037980
2023-07-04T16:10:06.247Z,adservice,network_in,140758
2023-07-04T16:10:06.298Z,shippingservice,network_in,91130
2023-07-04T16:10:06.247Z,emailservice,network_in,27008
2023-07-04T16:10:06.298Z,redis-cart,network_in,54319
2023-07-04T16:10:06.298Z,currencyservice,network_in,611498
2023-07-04T16:10:06.298Z,paymentservice,network_in,21377
2023-07-04T16:10:06.298Z,cartservice,network_in,296994
2023-07-04T16:10:06.713Z,checkoutservice,network_in,114950
2023-07-04T16:10:06.713Z,frontend,network_in,3591396
2023-07-04T16:10:06.713Z,redis-cart,network_in,208883
2023-07-04T16:10:06.713Z,recommendationservice,network_in,1134912
2023-07-04T16:10:06.713Z,productcatalogservice,network_in,2037980
2023-07-04T16:10:16.298Z,shippingservice,network_in,91130
2023-07-04T16:10:16.298Z,redis-cart,network_in,59213
2023-07-04T16:10:16.298Z,currencyservice,network_in,611498
2023-07-04T16:10:16.298Z,cartservice,network_in,311830
2023-07-04T16:10:16.247Z,emailservice,network_in,27008
2023-07-04T16:10:16.247Z,adservice,network_in,148373
2023-07-04T16:10:16.298Z,paymentservice,network_in,21377
2023-07-04T16:10:16.713Z,checkoutservice,network_in,138521
2023-07-04T16:10:16.713Z,productcatalogservice,network_in,2225623
2023-07-04T16:10:16.713Z,recommendationservice,network_in,1197592
2023-07-04T16:10:16.713Z,redis-cart,network_in,223895
2023-07-04T16:10:16.713Z,frontend,network_in,3910546
2023-07-04T16:10:26.298Z,redis-cart,network_in,59213
2023-07-04T16:10:26.247Z,adservice,network_in,148373
2023-07-04T16:10:26.298Z,paymentservice,network_in,23215
2023-07-04T16:10:26.298Z,currencyservice,network_in,642360
2023-07-04T16:10:26.247Z,emailservice,network_in,27902
2023-07-04T16:10:26.298Z,cartservice,network_in,329116
2023-07-04T16:10:26.298Z,shippingservice,network_in,97594
2023-07-04T16:10:26.713Z,frontend,network_in,3910546
2023-07-04T16:10:26.713Z,recommendationservice,network_in,1262985
2023-07-04T16:10:26.713Z,checkoutservice,network_in,138661
2023-07-04T16:10:26.713Z,redis-cart,network_in,223895
2023-07-04T16:10:26.713Z,productcatalogservice,network_in,2385398
2023-07-04T16:10:36.299Z,paymentservice,network_in,23281
2023-07-04T16:10:36.247Z,adservice,network_in,148373
2023-07-04T16:10:36.299Z,redis-cart,network_in,64833
2023-07-04T16:10:36.247Z,emailservice,network_in,27902
2023-07-04T16:10:36.299Z,cartservice,network_in,339123
2023-07-04T16:10:36.299Z,currencyservice,network_in,671202
2023-07-04T16:10:36.299Z,shippingservice,network_in,104617
2023-07-04T16:10:36.713Z,checkoutservice,network_in,138661
2023-07-04T16:10:36.713Z,productcatalogservice,network_in,2517802
2023-07-04T16:10:36.713Z,recommendationservice,network_in,1315047
2023-07-04T16:10:36.713Z,frontend,network_in,4103472
2023-07-04T16:10:36.713Z,redis-cart,network_in,233721
2023-07-04T16:10:46.298Z,currencyservice,network_in,671202
2023-07-04T16:10:46.298Z,redis-cart,network_in,64833
2023-07-04T16:10:46.298Z,shippingservice,network_in,104617
2023-07-04T16:10:46.247Z,emailservice,network_in,29606
2023-07-04T16:10:46.247Z,adservice,network_in,168253
2023-07-04T16:10:46.298Z,paymentservice,network_in,23281
2023-07-04T16:10:46.298Z,cartservice,network_in,339123
2023-07-04T16:10:46.713Z,checkoutservice,network_in,138661
2023-07-04T16:10:46.713Z,productcatalogservice,network_in,2517802
2023-07-04T16:10:46.713Z,recommendationservice,network_in,1315047
2023-07-04T16:10:46.713Z,frontend,network_in,4103472
2023-07-04T16:10:46.713Z,redis-cart,network_in,233721
2023-07-04T16:10:56.299Z,redis-cart,network_in,65963
2023-07-04T16:10:56.299Z,paymentservice,network_in,23281
2023-07-04T16:10:56.299Z,shippingservice,network_in,109523
2023-07-04T16:10:56.299Z,cartservice,network_in,358852
2023-07-04T16:10:56.299Z,currencyservice,network_in,730416
2023-07-04T16:10:56.247Z,emailservice,network_in,29606
2023-07-04T16:10:56.247Z,adservice,network_in,168253
2023-07-04T16:10:56.713Z,redis-cart,network_in,243849
2023-07-04T16:10:56.713Z,productcatalogservice,network_in,2665205
2023-07-04T16:10:56.713Z,frontend,network_in,4406612
2023-07-04T16:10:56.713Z,checkoutservice,network_in,163695
2023-07-04T16:10:56.713Z,recommendationservice,network_in,1371747
2023-07-04T16:11:06.247Z,emailservice,network_in,32789
2023-07-04T16:11:06.298Z,paymentservice,network_in,25360
2023-07-04T16:11:06.247Z,adservice,network_in,173085
2023-07-04T16:11:06.298Z,currencyservice,network_in,772325
2023-07-04T16:11:06.298Z,cartservice,network_in,379148
2023-07-04T16:11:06.298Z,shippingservice,network_in,119298
2023-07-04T16:11:06.298Z,redis-cart,network_in,70787
2023-07-04T16:11:06.713Z,checkoutservice,network_in,164682
2023-07-04T16:11:06.713Z,recommendationservice,network_in,1479762
2023-07-04T16:11:06.713Z,redis-cart,network_in,257747
2023-07-04T16:11:06.713Z,productcatalogservice,network_in,2665205
2023-07-04T16:11:06.713Z,frontend,network_in,4698592
2023-07-04T16:11:16.299Z,paymentservice,network_in,26702
2023-07-04T16:11:16.247Z,adservice,network_in,173085
2023-07-04T16:11:16.299Z,cartservice,network_in,398412
2023-07-04T16:11:16.247Z,emailservice,network_in,32789
2023-07-04T16:11:16.299Z,shippingservice,network_in,119298
2023-07-04T16:11:16.299Z,redis-cart,network_in,70787
2023-07-04T16:11:16.299Z,currencyservice,network_in,772325
2023-07-04T16:11:16.713Z,checkoutservice,network_in,164682
2023-07-04T16:11:16.713Z,redis-cart,network_in,257747
2023-07-04T16:11:16.713Z,frontend,network_in,4698592
2023-07-04T16:11:16.713Z,recommendationservice,network_in,1479762
2023-07-04T16:11:16.713Z,productcatalogservice,network_in,2665205
2023-07-04T16:11:26.299Z,paymentservice,network_in,27662
2023-07-04T16:11:26.299Z,cartservice,network_in,398412
2023-07-04T16:11:26.299Z,currencyservice,network_in,808970
2023-07-04T16:11:26.247Z,adservice,network_in,188484
2023-07-04T16:11:26.247Z,emailservice,network_in,34357
2023-07-04T16:11:26.299Z,shippingservice,network_in,124302
2023-07-04T16:11:26.299Z,redis-cart,network_in,73618
2023-07-04T16:11:26.713Z,productcatalogservice,network_in,3001956
2023-07-04T16:11:26.713Z,recommendationservice,network_in,1554087
2023-07-04T16:11:26.713Z,frontend,network_in,4958334
2023-07-04T16:11:26.713Z,redis-cart,network_in,270418
2023-07-04T16:11:26.713Z,checkoutservice,network_in,171624
2023-07-04T16:11:36.299Z,cartservice,network_in,398412
2023-07-04T16:11:36.299Z,paymentservice,network_in,27662
2023-07-04T16:11:36.299Z,currencyservice,network_in,808970
2023-07-04T16:11:36.247Z,adservice,network_in,188484
2023-07-04T16:11:36.247Z,emailservice,network_in,34357
2023-07-04T16:11:36.299Z,shippingservice,network_in,124302
2023-07-04T16:11:36.299Z,redis-cart,network_in,73618
2023-07-04T16:11:36.714Z,redis-cart,network_in,286649
2023-07-04T16:11:36.714Z,frontend,network_in,4958334
2023-07-04T16:11:36.714Z,checkoutservice,network_in,176835
2023-07-04T16:11:36.714Z,recommendationservice,network_in,1554087
2023-07-04T16:11:36.714Z,productcatalogservice,network_in,3001956
2023-07-04T16:11:46.298Z,redis-cart,network_in,77537
2023-07-04T16:11:46.298Z,shippingservice,network_in,129699
2023-07-04T16:11:46.246Z,emailservice,network_in,35029
2023-07-04T16:11:46.246Z,adservice,network_in,199309
2023-07-04T16:11:46.298Z,paymentservice,network_in,28584
2023-07-04T16:11:46.298Z,cartservice,network_in,435035
2023-07-04T16:11:46.298Z,currencyservice,network_in,852194
2023-07-04T16:11:46.714Z,productcatalogservice,network_in,3102248
2023-07-04T16:11:46.714Z,checkoutservice,network_in,176835
2023-07-04T16:11:46.714Z,recommendationservice,network_in,1625169
2023-07-04T16:11:46.714Z,frontend,network_in,5163392
2023-07-04T16:11:46.714Z,redis-cart,network_in,286649
2023-07-04T16:11:56.298Z,shippingservice,network_in,133759
2023-07-04T16:11:56.298Z,currencyservice,network_in,879035
2023-07-04T16:11:56.247Z,emailservice,network_in,35029
2023-07-04T16:11:56.298Z,redis-cart,network_in,77537
2023-07-04T16:11:56.247Z,adservice,network_in,199309
2023-07-04T16:11:56.298Z,cartservice,network_in,435035
2023-07-04T16:11:56.298Z,paymentservice,network_in,28650
2023-07-04T16:11:56.713Z,redis-cart,network_in,295196
2023-07-04T16:11:56.713Z,recommendationservice,network_in,1689459
2023-07-04T16:11:56.713Z,checkoutservice,network_in,177627
2023-07-04T16:11:56.713Z,frontend,network_in,5163392
2023-07-04T16:11:56.713Z,productcatalogservice,network_in,3203187
2023-07-04T16:12:06.247Z,adservice,network_in,210571
2023-07-04T16:12:06.247Z,emailservice,network_in,38061
2023-07-04T16:12:06.299Z,redis-cart,network_in,81204
2023-07-04T16:12:06.299Z,shippingservice,network_in,139738
2023-07-04T16:12:06.299Z,paymentservice,network_in,29962
2023-07-04T16:12:06.299Z,cartservice,network_in,460290
2023-07-04T16:12:06.299Z,currencyservice,network_in,915198
2023-07-04T16:12:06.713Z,frontend,network_in,5417688
2023-07-04T16:12:06.713Z,redis-cart,network_in,309270
2023-07-04T16:12:06.713Z,checkoutservice,network_in,177627
2023-07-04T16:12:06.713Z,recommendationservice,network_in,1689459
2023-07-04T16:12:06.713Z,productcatalogservice,network_in,3316381
2023-07-04T16:12:16.298Z,redis-cart,network_in,81204
2023-07-04T16:12:16.247Z,emailservice,network_in,38061
2023-07-04T16:12:16.298Z,cartservice,network_in,460290
2023-07-04T16:12:16.298Z,currencyservice,network_in,915198
2023-07-04T16:12:16.247Z,adservice,network_in,210571
2023-07-04T16:12:16.298Z,shippingservice,network_in,139738
2023-07-04T16:12:16.298Z,paymentservice,network_in,29962
2023-07-04T16:12:16.713Z,frontend,network_in,5417688
2023-07-04T16:12:16.713Z,redis-cart,network_in,309270
2023-07-04T16:12:16.713Z,checkoutservice,network_in,177627
2023-07-04T16:12:16.713Z,recommendationservice,network_in,1689459
2023-07-04T16:12:16.713Z,productcatalogservice,network_in,3316381
2023-07-04T16:12:26.299Z,currencyservice,network_in,940453
2023-07-04T16:12:26.299Z,cartservice,network_in,480117
2023-07-04T16:12:26.299Z,paymentservice,network_in,29962
2023-07-04T16:12:26.247Z,adservice,network_in,219171
2023-07-04T16:12:26.299Z,redis-cart,network_in,83491
2023-07-04T16:12:26.247Z,emailservice,network_in,38127
2023-07-04T16:12:26.299Z,shippingservice,network_in,142050
2023-07-04T16:12:26.713Z,productcatalogservice,network_in,3413843
2023-07-04T16:12:26.713Z,recommendationservice,network_in,1823731
2023-07-04T16:12:26.713Z,frontend,network_in,5741975
2023-07-04T16:12:26.713Z,checkoutservice,network_in,195652
2023-07-04T16:12:26.713Z,redis-cart,network_in,318858
2023-07-04T16:12:36.247Z,adservice,network_in,219171
2023-07-04T16:12:36.299Z,cartservice,network_in,492117
2023-07-04T16:12:36.299Z,currencyservice,network_in,979891
2023-07-04T16:12:36.299Z,redis-cart,network_in,85736
2023-07-04T16:12:36.247Z,emailservice,network_in,38127
2023-07-04T16:12:36.299Z,shippingservice,network_in,147631
2023-07-04T16:12:36.299Z,paymentservice,network_in,31016
2023-07-04T16:12:36.714Z,recommendationservice,network_in,1823731
2023-07-04T16:12:36.714Z,productcatalogservice,network_in,3555322
2023-07-04T16:12:36.714Z,redis-cart,network_in,331907
2023-07-04T16:12:36.714Z,checkoutservice,network_in,198265
2023-07-04T16:12:36.714Z,frontend,network_in,5891626
2023-07-04T16:12:46.298Z,currencyservice,network_in,979891
2023-07-04T16:12:46.247Z,adservice,network_in,235547
2023-07-04T16:12:46.298Z,redis-cart,network_in,85736
2023-07-04T16:12:46.298Z,cartservice,network_in,492117
2023-07-04T16:12:46.247Z,emailservice,network_in,39264
2023-07-04T16:12:46.298Z,paymentservice,network_in,31016
2023-07-04T16:12:46.298Z,shippingservice,network_in,147631
2023-07-04T16:12:46.713Z,productcatalogservice,network_in,3555322
2023-07-04T16:12:46.713Z,checkoutservice,network_in,199057
2023-07-04T16:12:46.713Z,frontend,network_in,5891626
2023-07-04T16:12:46.713Z,redis-cart,network_in,331907
2023-07-04T16:12:46.713Z,recommendationservice,network_in,1897110
2023-07-04T16:12:56.247Z,adservice,network_in,235547
2023-07-04T16:12:56.298Z,redis-cart,network_in,91690
2023-07-04T16:12:56.298Z,currencyservice,network_in,1050711
2023-07-04T16:12:56.247Z,emailservice,network_in,39264
2023-07-04T16:12:56.298Z,shippingservice,network_in,151193
2023-07-04T16:12:56.298Z,paymentservice,network_in,32004
2023-07-04T16:12:56.298Z,cartservice,network_in,515147
2023-07-04T16:12:56.713Z,checkoutservice,network_in,199057
2023-07-04T16:12:56.713Z,productcatalogservice,network_in,3555322
2023-07-04T16:12:56.713Z,frontend,network_in,5891626
2023-07-04T16:12:56.713Z,redis-cart,network_in,331907
2023-07-04T16:12:56.713Z,recommendationservice,network_in,1897110
2023-07-04T16:13:06.247Z,adservice,network_in,245849
2023-07-04T16:13:06.298Z,cartservice,network_in,539314
2023-07-04T16:13:06.247Z,emailservice,network_in,43040
2023-07-04T16:13:06.298Z,redis-cart,network_in,91690
2023-07-04T16:13:06.298Z,shippingservice,network_in,161786
2023-07-04T16:13:06.298Z,paymentservice,network_in,33270
2023-07-04T16:13:06.298Z,currencyservice,network_in,1075956
2023-07-04T16:13:06.713Z,productcatalogservice,network_in,3789087
2023-07-04T16:13:06.713Z,frontend,network_in,6219360
2023-07-04T16:13:06.713Z,checkoutservice,network_in,226889
2023-07-04T16:13:06.713Z,redis-cart,network_in,345922
2023-07-04T16:13:06.713Z,recommendationservice,network_in,1951920
2023-07-04T16:13:16.299Z,currencyservice,network_in,1075956
2023-07-04T16:13:16.299Z,cartservice,network_in,539314
2023-07-04T16:13:16.299Z,shippingservice,network_in,161786
2023-07-04T16:13:16.247Z,emailservice,network_in,43040
2023-07-04T16:13:16.247Z,adservice,network_in,253120
2023-07-04T16:13:16.299Z,paymentservice,network_in,34827
2023-07-04T16:13:16.299Z,redis-cart,network_in,94479
2023-07-04T16:13:16.713Z,recommendationservice,network_in,2031034
2023-07-04T16:13:16.713Z,redis-cart,network_in,361392
2023-07-04T16:13:16.713Z,productcatalogservice,network_in,3953317
2023-07-04T16:13:16.713Z,checkoutservice,network_in,226889
2023-07-04T16:13:16.713Z,frontend,network_in,6459172
2023-07-04T16:13:26.247Z,adservice,network_in,253120
2023-07-04T16:13:26.298Z,paymentservice,network_in,34827
2023-07-04T16:13:26.298Z,currencyservice,network_in,1075956
2023-07-04T16:13:26.298Z,cartservice,network_in,539314
2023-07-04T16:13:26.298Z,redis-cart,network_in,94479
2023-07-04T16:13:26.247Z,emailservice,network_in,43040
2023-07-04T16:13:26.298Z,shippingservice,network_in,161786
2023-07-04T16:13:26.713Z,productcatalogservice,network_in,3953317
2023-07-04T16:13:26.713Z,redis-cart,network_in,373574
2023-07-04T16:13:26.713Z,recommendationservice,network_in,2106057
2023-07-04T16:13:26.713Z,frontend,network_in,6636281
2023-07-04T16:13:26.713Z,checkoutservice,network_in,242220
2023-07-04T16:13:36.247Z,adservice,network_in,265379
2023-07-04T16:13:36.247Z,emailservice,network_in,46634
2023-07-04T16:13:36.298Z,cartservice,network_in,559257
2023-07-04T16:13:36.298Z,shippingservice,network_in,170991
2023-07-04T16:13:36.298Z,currencyservice,network_in,1115937
2023-07-04T16:13:36.298Z,redis-cart,network_in,97268
2023-07-04T16:13:36.298Z,paymentservice,network_in,34827
2023-07-04T16:13:36.713Z,checkoutservice,network_in,252076
2023-07-04T16:13:36.713Z,redis-cart,network_in,373574
2023-07-04T16:13:36.713Z,frontend,network_in,6864944
2023-07-04T16:13:36.713Z,productcatalogservice,network_in,4131138
2023-07-04T16:13:36.713Z,recommendationservice,network_in,2106057
2023-07-04T16:13:46.247Z,emailservice,network_in,46634
2023-07-04T16:13:46.247Z,adservice,network_in,265379
2023-07-04T16:13:46.299Z,cartservice,network_in,578683
2023-07-04T16:13:46.299Z,paymentservice,network_in,36379
2023-07-04T16:13:46.299Z,redis-cart,network_in,97268
2023-07-04T16:13:46.299Z,currencyservice,network_in,1151490
2023-07-04T16:13:46.299Z,shippingservice,network_in,170991
2023-07-04T16:13:46.713Z,checkoutservice,network_in,252076
2023-07-04T16:13:46.713Z,redis-cart,network_in,373574
2023-07-04T16:13:46.713Z,frontend,network_in,6864944
2023-07-04T16:13:46.713Z,productcatalogservice,network_in,4131138
2023-07-04T16:13:46.713Z,recommendationservice,network_in,2106057
2023-07-04T16:13:56.299Z,paymentservice,network_in,37717
2023-07-04T16:13:56.247Z,adservice,network_in,277301
2023-07-04T16:13:56.299Z,cartservice,network_in,595609
2023-07-04T16:13:56.299Z,redis-cart,network_in,102874
2023-07-04T16:13:56.299Z,shippingservice,network_in,177161
2023-07-04T16:13:56.247Z,emailservice,network_in,47273
2023-07-04T16:13:56.299Z,currencyservice,network_in,1184647
2023-07-04T16:13:56.716Z,recommendationservice,network_in,2259588
2023-07-04T16:13:56.716Z,redis-cart,network_in,394617
2023-07-04T16:13:56.716Z,frontend,network_in,7012052
2023-07-04T16:13:56.716Z,checkoutservice,network_in,252868
2023-07-04T16:13:56.716Z,productcatalogservice,network_in,4266047
2023-07-04T16:14:06.298Z,cartservice,network_in,595609
2023-07-04T16:14:06.298Z,currencyservice,network_in,1184647
2023-07-04T16:14:06.298Z,shippingservice,network_in,177161
2023-07-04T16:14:06.247Z,adservice,network_in,285159
2023-07-04T16:14:06.247Z,emailservice,network_in,48973
2023-07-04T16:14:06.298Z,paymentservice,network_in,37717
2023-07-04T16:14:06.298Z,redis-cart,network_in,102874
2023-07-04T16:14:06.713Z,productcatalogservice,network_in,4266047
2023-07-04T16:14:06.713Z,frontend,network_in,7175283
2023-07-04T16:14:06.713Z,redis-cart,network_in,405156
2023-07-04T16:14:06.713Z,recommendationservice,network_in,2259588
2023-07-04T16:14:06.713Z,checkoutservice,network_in,252868
2023-07-04T16:14:16.247Z,adservice,network_in,290835
2023-07-04T16:14:16.299Z,shippingservice,network_in,182536
2023-07-04T16:14:16.299Z,paymentservice,network_in,37717
2023-07-04T16:14:16.299Z,currencyservice,network_in,1218962
2023-07-04T16:14:16.247Z,emailservice,network_in,50361
2023-07-04T16:14:16.299Z,cartservice,network_in,612380
2023-07-04T16:14:16.299Z,redis-cart,network_in,102874
2023-07-04T16:14:16.713Z,redis-cart,network_in,414441
2023-07-04T16:14:16.713Z,recommendationservice,network_in,2334379
2023-07-04T16:14:16.713Z,frontend,network_in,7380639
2023-07-04T16:14:16.713Z,checkoutservice,network_in,265905
2023-07-04T16:14:16.713Z,productcatalogservice,network_in,4428503
2023-07-04T16:14:26.247Z,emailservice,network_in,50361
2023-07-04T16:14:26.247Z,adservice,network_in,290835
2023-07-04T16:14:26.298Z,currencyservice,network_in,1245329
2023-07-04T16:14:26.298Z,shippingservice,network_in,187828
2023-07-04T16:14:26.298Z,paymentservice,network_in,39914
2023-07-04T16:14:26.298Z,redis-cart,network_in,108564
2023-07-04T16:14:26.298Z,cartservice,network_in,628005
2023-07-04T16:14:26.713Z,redis-cart,network_in,424402
2023-07-04T16:14:26.713Z,productcatalogservice,network_in,4518966
2023-07-04T16:14:26.713Z,checkoutservice,network_in,270125
2023-07-04T16:14:26.713Z,recommendationservice,network_in,2384430
2023-07-04T16:14:26.713Z,frontend,network_in,7380639
2023-07-04T16:14:36.298Z,cartservice,network_in,651240
2023-07-04T16:14:36.247Z,emailservice,network_in,51994
2023-07-04T16:14:36.298Z,shippingservice,network_in,193955
2023-07-04T16:14:36.247Z,adservice,network_in,302231
2023-07-04T16:14:36.298Z,paymentservice,network_in,40417
2023-07-04T16:14:36.298Z,redis-cart,network_in,108564
2023-07-04T16:14:36.298Z,currencyservice,network_in,1291938
2023-07-04T16:14:36.713Z,redis-cart,network_in,424402
2023-07-04T16:14:36.713Z,productcatalogservice,network_in,4518966
2023-07-04T16:14:36.713Z,checkoutservice,network_in,270125
2023-07-04T16:14:36.713Z,recommendationservice,network_in,2384430
2023-07-04T16:14:36.713Z,frontend,network_in,7380639
2023-07-04T16:14:46.247Z,emailservice,network_in,52130
2023-07-04T16:14:46.299Z,currencyservice,network_in,1322762
2023-07-04T16:14:46.299Z,paymentservice,network_in,41777
2023-07-04T16:14:46.247Z,adservice,network_in,309894
2023-07-04T16:14:46.299Z,shippingservice,network_in,193955
2023-07-04T16:14:46.299Z,cartservice,network_in,668747
2023-07-04T16:14:46.299Z,redis-cart,network_in,111967
2023-07-04T16:14:46.716Z,recommendationservice,network_in,2478497
2023-07-04T16:14:46.716Z,redis-cart,network_in,434507
2023-07-04T16:14:46.716Z,frontend,network_in,7691143
2023-07-04T16:14:46.716Z,checkoutservice,network_in,282859
2023-07-04T16:14:46.716Z,productcatalogservice,network_in,4711746
2023-07-04T16:14:56.298Z,cartservice,network_in,668747
2023-07-04T16:14:56.247Z,emailservice,network_in,52833
2023-07-04T16:14:56.247Z,adservice,network_in,317971
2023-07-04T16:14:56.298Z,shippingservice,network_in,193955
2023-07-04T16:14:56.298Z,currencyservice,network_in,1322762
2023-07-04T16:14:56.298Z,paymentservice,network_in,41777
2023-07-04T16:14:56.298Z,redis-cart,network_in,111967
2023-07-04T16:14:56.713Z,productcatalogservice,network_in,4831585
2023-07-04T16:14:56.713Z,frontend,network_in,7941216
2023-07-04T16:14:56.713Z,recommendationservice,network_in,2536133
2023-07-04T16:14:56.713Z,redis-cart,network_in,444932
2023-07-04T16:14:56.713Z,checkoutservice,network_in,284070
2023-07-04T16:15:06.247Z,emailservice,network_in,54040
2023-07-04T16:15:06.299Z,redis-cart,network_in,114504
2023-07-04T16:15:06.299Z,paymentservice,network_in,41777
2023-07-04T16:15:06.247Z,adservice,network_in,327411
2023-07-04T16:15:06.299Z,shippingservice,network_in,199385
2023-07-04T16:15:06.299Z,currencyservice,network_in,1322762
2023-07-04T16:15:06.299Z,cartservice,network_in,668747
2023-07-04T16:15:06.713Z,checkoutservice,network_in,284070
2023-07-04T16:15:06.713Z,frontend,network_in,8148138
2023-07-04T16:15:06.713Z,recommendationservice,network_in,2593471
2023-07-04T16:15:06.713Z,productcatalogservice,network_in,4975811
2023-07-04T16:15:06.713Z,redis-cart,network_in,457602
2023-07-04T16:15:16.298Z,paymentservice,network_in,42615
2023-07-04T16:15:16.298Z,currencyservice,network_in,1397331
2023-07-04T16:15:16.298Z,cartservice,network_in,690027
2023-07-04T16:15:16.247Z,emailservice,network_in,54040
2023-07-04T16:15:16.298Z,shippingservice,network_in,202354
2023-07-04T16:15:16.247Z,adservice,network_in,327411
2023-07-04T16:15:16.298Z,redis-cart,network_in,117335
2023-07-04T16:15:16.713Z,productcatalogservice,network_in,5098806
2023-07-04T16:15:16.713Z,checkoutservice,network_in,296001
2023-07-04T16:15:16.713Z,frontend,network_in,8148138
2023-07-04T16:15:16.713Z,recommendationservice,network_in,2593471
2023-07-04T16:15:16.713Z,redis-cart,network_in,466280
2023-07-04T16:15:26.298Z,shippingservice,network_in,202354
2023-07-04T16:15:26.247Z,emailservice,network_in,55940
2023-07-04T16:15:26.298Z,paymentservice,network_in,42615
2023-07-04T16:15:26.298Z,currencyservice,network_in,1397331
2023-07-04T16:15:26.247Z,adservice,network_in,334573
2023-07-04T16:15:26.298Z,redis-cart,network_in,117335
2023-07-04T16:15:26.298Z,cartservice,network_in,690027
2023-07-04T16:15:26.713Z,frontend,network_in,8419029
2023-07-04T16:15:26.713Z,recommendationservice,network_in,2702194
2023-07-04T16:15:26.713Z,checkoutservice,network_in,317604
2023-07-04T16:15:26.713Z,productcatalogservice,network_in,5098806
2023-07-04T16:15:26.713Z,redis-cart,network_in,479113
2023-07-04T16:15:36.247Z,emailservice,network_in,58460
2023-07-04T16:15:36.298Z,cartservice,network_in,716046
2023-07-04T16:15:36.298Z,redis-cart,network_in,120124
2023-07-04T16:15:36.298Z,currencyservice,network_in,1441567
2023-07-04T16:15:36.247Z,adservice,network_in,342847
2023-07-04T16:15:36.298Z,paymentservice,network_in,43903
2023-07-04T16:15:36.298Z,shippingservice,network_in,212288
2023-07-04T16:15:36.713Z,frontend,network_in,8419029
2023-07-04T16:15:36.713Z,recommendationservice,network_in,2702194
2023-07-04T16:15:36.713Z,checkoutservice,network_in,317604
2023-07-04T16:15:36.713Z,productcatalogservice,network_in,5098806
2023-07-04T16:15:36.713Z,redis-cart,network_in,479113
2023-07-04T16:15:46.247Z,emailservice,network_in,58460
2023-07-04T16:15:46.299Z,redis-cart,network_in,122913
2023-07-04T16:15:46.299Z,currencyservice,network_in,1483495
2023-07-04T16:15:46.299Z,cartservice,network_in,736099
2023-07-04T16:15:46.247Z,adservice,network_in,342847
2023-07-04T16:15:46.299Z,paymentservice,network_in,44645
2023-07-04T16:15:46.299Z,shippingservice,network_in,224299
2023-07-04T16:15:46.713Z,productcatalogservice,network_in,5259124
2023-07-04T16:15:46.713Z,recommendationservice,network_in,2769929
2023-07-04T16:15:46.713Z,checkoutservice,network_in,333343
2023-07-04T16:15:46.713Z,redis-cart,network_in,490199
2023-07-04T16:15:46.713Z,frontend,network_in,8780660
2023-07-04T16:15:56.299Z,paymentservice,network_in,46443
2023-07-04T16:15:56.299Z,shippingservice,network_in,224299
2023-07-04T16:15:56.299Z,currencyservice,network_in,1504049
2023-07-04T16:15:56.247Z,emailservice,network_in,59200
2023-07-04T16:15:56.247Z,adservice,network_in,354117
2023-07-04T16:15:56.299Z,redis-cart,network_in,126580
2023-07-04T16:15:56.299Z,cartservice,network_in,756810
2023-07-04T16:15:56.713Z,checkoutservice,network_in,333343
2023-07-04T16:15:56.713Z,recommendationservice,network_in,2836906
2023-07-04T16:15:56.713Z,frontend,network_in,8940995
2023-07-04T16:15:56.713Z,redis-cart,network_in,497849
2023-07-04T16:15:56.713Z,productcatalogservice,network_in,5421741
2023-07-04T16:16:06.247Z,emailservice,network_in,60940
2023-07-04T16:16:06.247Z,adservice,network_in,360553
2023-07-04T16:16:06.298Z,redis-cart,network_in,126580
2023-07-04T16:16:06.298Z,shippingservice,network_in,224299
2023-07-04T16:16:06.298Z,paymentservice,network_in,46443
2023-07-04T16:16:06.298Z,currencyservice,network_in,1504049
2023-07-04T16:16:06.298Z,cartservice,network_in,756810
2023-07-04T16:16:06.713Z,recommendationservice,network_in,2907767
2023-07-04T16:16:06.713Z,productcatalogservice,network_in,5421741
2023-07-04T16:16:06.713Z,frontend,network_in,8940995
2023-07-04T16:16:06.713Z,redis-cart,network_in,509139
2023-07-04T16:16:06.713Z,checkoutservice,network_in,339242
2023-07-04T16:16:16.299Z,shippingservice,network_in,228791
2023-07-04T16:16:16.299Z,redis-cart,network_in,126580
2023-07-04T16:16:16.247Z,emailservice,network_in,60940
2023-07-04T16:16:16.247Z,adservice,network_in,360553
2023-07-04T16:16:16.299Z,cartservice,network_in,778372
2023-07-04T16:16:16.299Z,currencyservice,network_in,1504049
2023-07-04T16:16:16.299Z,paymentservice,network_in,46443
2023-07-04T16:16:16.713Z,recommendationservice,network_in,2907767
2023-07-04T16:16:16.713Z,productcatalogservice,network_in,5421741
2023-07-04T16:16:16.713Z,frontend,network_in,8940995
2023-07-04T16:16:16.713Z,redis-cart,network_in,509139
2023-07-04T16:16:16.713Z,checkoutservice,network_in,339242
2023-07-04T16:16:26.299Z,paymentservice,network_in,48131
2023-07-04T16:16:26.299Z,redis-cart,network_in,132158
2023-07-04T16:16:26.247Z,adservice,network_in,371373
2023-07-04T16:16:26.247Z,emailservice,network_in,62254
2023-07-04T16:16:26.299Z,currencyservice,network_in,1556371
2023-07-04T16:16:26.299Z,cartservice,network_in,791982
2023-07-04T16:16:26.299Z,shippingservice,network_in,234923
2023-07-04T16:16:26.714Z,recommendationservice,network_in,2984290
2023-07-04T16:16:26.714Z,checkoutservice,network_in,343003
2023-07-04T16:16:26.714Z,frontend,network_in,9189666
2023-07-04T16:16:26.714Z,redis-cart,network_in,523514
2023-07-04T16:16:26.714Z,productcatalogservice,network_in,5758724
2023-07-04T16:16:36.247Z,emailservice,network_in,65196
2023-07-04T16:16:36.247Z,adservice,network_in,382683
2023-07-04T16:16:36.299Z,currencyservice,network_in,1595606
2023-07-04T16:16:36.299Z,shippingservice,network_in,239866
2023-07-04T16:16:36.299Z,redis-cart,network_in,132158
2023-07-04T16:16:36.299Z,cartservice,network_in,816975
2023-07-04T16:16:36.299Z,paymentservice,network_in,49444
2023-07-04T16:16:36.713Z,frontend,network_in,9477053
2023-07-04T16:16:36.713Z,recommendationservice,network_in,2984290
2023-07-04T16:16:36.713Z,redis-cart,network_in,535956
2023-07-04T16:16:36.713Z,checkoutservice,network_in,363320
2023-07-04T16:16:36.713Z,productcatalogservice,network_in,5758724
2023-07-04T16:16:46.247Z,adservice,network_in,382683
2023-07-04T16:16:46.298Z,redis-cart,network_in,132158
2023-07-04T16:16:46.298Z,cartservice,network_in,816975
2023-07-04T16:16:46.247Z,emailservice,network_in,65196
2023-07-04T16:16:46.298Z,paymentservice,network_in,49444
2023-07-04T16:16:46.298Z,currencyservice,network_in,1595606
2023-07-04T16:16:46.298Z,shippingservice,network_in,239866
2023-07-04T16:16:46.713Z,frontend,network_in,9656821
2023-07-04T16:16:46.713Z,redis-cart,network_in,544490
2023-07-04T16:16:46.713Z,checkoutservice,network_in,376027
2023-07-04T16:16:46.713Z,productcatalogservice,network_in,5880068
2023-07-04T16:16:46.713Z,recommendationservice,network_in,3077294
