timestamp,key,run_id,resource,metric,value
2021-06-08T11:17:10.118Z,SHARED_GLOBAL_UNIT_MULTI_PROBE-1-1-1,1,target-1,network_in,1.4587717056274414
2021-06-08T11:28:59.806Z,SHARED_GLOBAL_UNIT_MULTI_PROBE-1-1-1,2,target-1,network_in,1.4626712799072266
2021-06-08T11:40:44.395Z,SHARED_GLOBAL_UNIT_MULTI_PROBE-1-1-1,3,target-1,network_in,1.452911376953125
2021-06-09T02:55:09.520Z,SHARED_GLOBAL_UNIT_MULTI_PROBE-16-1-16,1,target-1,network_in,1.6554622650146484
2021-06-09T03:11:36.296Z,SHARED_GLOBAL_UNIT_MULTI_PROBE-16-1-16,2,target-1,network_in,1.6527481079101562
2021-06-09T03:28:07.228Z,SHARED_GLOBAL_UNIT_MULTI_PROBE-16-1-16,3,target-1,network_in,1.667555809020996
2021-06-08T15:14:11.179Z,SHARED_GLOBAL_UNIT_MULTI_PROBE-2-1-2,1,target-1,network_in,1.465437889099121
2021-06-08T15:26:13.349Z,SHARED_GLOBAL_UNIT_MULTI_PROBE-2-1-2,2,target-1,network_in,1.451155662536621
2021-06-08T15:38:22.337Z,SHARED_GLOBAL_UNIT_MULTI_PROBE-2-1-2,3,target-1,network_in,1.4785242080688477
2021-06-09T01:32:08.800Z,SHARED_GLOBAL_UNIT_MULTI_PROBE-4-1-4,1,target-1,network_in,1.4829320907592773
2021-06-09T01:44:53.738Z,SHARED_GLOBAL_UNIT_MULTI_PROBE-4-1-4,2,target-1,network_in,1.4949274063110352
2021-06-09T01:57:41.079Z,SHARED_GLOBAL_UNIT_MULTI_PROBE-4-1-4,3,target-1,network_in,1.500035285949707
2021-06-09T02:11:18.271Z,SHARED_GLOBAL_UNIT_MULTI_PROBE-8-1-8,1,target-1,network_in,1.5347394943237305
2021-06-09T02:25:07.753Z,SHARED_GLOBAL_UNIT_MULTI_PROBE-8-1-8,2,target-1,network_in,1.5621376037597656
2021-06-09T02:39:14.584Z,SHARED_GLOBAL_UNIT_MULTI_PROBE-8-1-8,3,target-1,network_in,1.5504159927368164
