2023-07-04T15:54:37.816Z,currencyservice,network_in,67751
2023-07-04T15:54:37.764Z,productcatalogservice,network_in,149681
2023-07-04T15:54:37.764Z,frontend,network_in,323503
2023-07-04T15:54:37.764Z,redis-cart,network_in,25504
2023-07-04T15:54:37.816Z,paymentservice,network_in,4316
2023-07-04T15:54:37.764Z,checkoutservice,network_in,14868
2023-07-04T15:54:37.816Z,redis-cart,network_in,15590
2023-07-04T15:54:37.799Z,emailservice,network_in,3955
2023-07-04T15:54:37.764Z,recommendationservice,network_in,85805
2023-07-04T15:54:37.816Z,cartservice,network_in,33976
2023-07-04T15:54:37.799Z,adservice,network_in,12321
2023-07-04T15:54:37.816Z,shippingservice,network_in,9478
2023-07-04T15:54:48.115Z,redis-cart,network_in,25504
2023-07-04T15:54:48.164Z,currencyservice,network_in,67751
2023-07-04T15:54:48.164Z,cartservice,network_in,33976
2023-07-04T15:54:48.115Z,frontend,network_in,504244
2023-07-04T15:54:48.143Z,emailservice,network_in,3955
2023-07-04T15:54:48.143Z,adservice,network_in,20507
2023-07-04T15:54:48.164Z,shippingservice,network_in,10236
2023-07-04T15:54:48.115Z,checkoutservice,network_in,14868
2023-07-04T15:54:48.115Z,recommendationservice,network_in,122182
2023-07-04T15:54:48.164Z,redis-cart,network_in,15590
2023-07-04T15:54:48.115Z,productcatalogservice,network_in,234620
2023-07-04T15:54:48.164Z,paymentservice,network_in,5406
2023-07-04T15:54:58.116Z,redis-cart,network_in,37737
2023-07-04T15:54:58.116Z,productcatalogservice,network_in,234620
2023-07-04T15:54:58.116Z,checkoutservice,network_in,28118
2023-07-04T15:54:58.116Z,recommendationservice,network_in,187077
2023-07-04T15:54:58.144Z,adservice,network_in,29242
2023-07-04T15:54:58.164Z,shippingservice,network_in,10236
2023-07-04T15:54:58.164Z,currencyservice,network_in,105457
2023-07-04T15:54:58.116Z,frontend,network_in,504244
2023-07-04T15:54:58.144Z,emailservice,network_in,5334
2023-07-04T15:54:58.164Z,cartservice,network_in,52243
2023-07-04T15:54:58.164Z,redis-cart,network_in,17432
2023-07-04T15:54:58.164Z,paymentservice,network_in,7581
2023-07-04T15:55:08.164Z,shippingservice,network_in,10236
2023-07-04T15:55:08.164Z,paymentservice,network_in,7581
2023-07-04T15:55:08.115Z,checkoutservice,network_in,28118
2023-07-04T15:55:08.115Z,recommendationservice,network_in,187077
2023-07-04T15:55:08.115Z,redis-cart,network_in,37737
2023-07-04T15:55:08.115Z,frontend,network_in,504244
2023-07-04T15:55:08.115Z,productcatalogservice,network_in,234620
2023-07-04T15:55:08.143Z,emailservice,network_in,5334
2023-07-04T15:55:08.143Z,adservice,network_in,29242
2023-07-04T15:55:08.164Z,cartservice,network_in,52243
2023-07-04T15:55:08.164Z,redis-cart,network_in,17432
2023-07-04T15:55:08.164Z,currencyservice,network_in,105457
2023-07-04T15:55:18.116Z,productcatalogservice,network_in,379342
2023-07-04T15:55:18.116Z,frontend,network_in,746189
2023-07-04T15:55:18.116Z,recommendationservice,network_in,187077
2023-07-04T15:55:18.163Z,redis-cart,network_in,17432
2023-07-04T15:55:18.144Z,emailservice,network_in,8964
2023-07-04T15:55:18.116Z,redis-cart,network_in,48672
2023-07-04T15:55:18.163Z,currencyservice,network_in,133647
2023-07-04T15:55:18.163Z,shippingservice,network_in,16148
2023-07-04T15:55:18.163Z,cartservice,network_in,52243
2023-07-04T15:55:18.116Z,checkoutservice,network_in,28118
2023-07-04T15:55:18.163Z,paymentservice,network_in,7581
2023-07-04T15:55:18.144Z,adservice,network_in,34865
2023-07-04T15:55:28.116Z,productcatalogservice,network_in,500521
2023-07-04T15:55:28.116Z,checkoutservice,network_in,40258
2023-07-04T15:55:28.164Z,currencyservice,network_in,160098
2023-07-04T15:55:28.164Z,paymentservice,network_in,8500
2023-07-04T15:55:28.164Z,redis-cart,network_in,23930
2023-07-04T15:55:28.116Z,redis-cart,network_in,64340
2023-07-04T15:55:28.116Z,frontend,network_in,1005936
2023-07-04T15:55:28.116Z,recommendationservice,network_in,256521
2023-07-04T15:55:28.164Z,shippingservice,network_in,21370
2023-07-04T15:55:28.143Z,adservice,network_in,34865
2023-07-04T15:55:28.164Z,cartservice,network_in,86141
2023-07-04T15:55:28.143Z,emailservice,network_in,8964
2023-07-04T15:55:38.116Z,redis-cart,network_in,64340
2023-07-04T15:55:38.116Z,productcatalogservice,network_in,625143
2023-07-04T15:55:38.116Z,checkoutservice,network_in,53441
2023-07-04T15:55:38.143Z,emailservice,network_in,10811
2023-07-04T15:55:38.116Z,frontend,network_in,1171146
2023-07-04T15:55:38.116Z,recommendationservice,network_in,343630
2023-07-04T15:55:38.163Z,currencyservice,network_in,160098
2023-07-04T15:55:38.163Z,cartservice,network_in,86141
2023-07-04T15:55:38.163Z,paymentservice,network_in,8500
2023-07-04T15:55:38.163Z,redis-cart,network_in,23930
2023-07-04T15:55:38.163Z,shippingservice,network_in,21370
2023-07-04T15:55:38.143Z,adservice,network_in,51111
2023-07-04T15:55:48.115Z,checkoutservice,network_in,53441
2023-07-04T15:55:48.115Z,redis-cart,network_in,64340
2023-07-04T15:55:48.115Z,productcatalogservice,network_in,625143
2023-07-04T15:55:48.143Z,adservice,network_in,51111
2023-07-04T15:55:48.115Z,recommendationservice,network_in,343630
2023-07-04T15:55:48.143Z,emailservice,network_in,12585
2023-07-04T15:55:48.115Z,frontend,network_in,1171146
2023-07-04T15:55:48.164Z,cartservice,network_in,94034
2023-07-04T15:55:48.164Z,currencyservice,network_in,189841
2023-07-04T15:55:48.164Z,redis-cart,network_in,23930
2023-07-04T15:55:48.164Z,shippingservice,network_in,27883
2023-07-04T15:55:48.164Z,paymentservice,network_in,10759
2023-07-04T15:55:58.116Z,frontend,network_in,1171146
2023-07-04T15:55:58.116Z,checkoutservice,network_in,59391
2023-07-04T15:55:58.164Z,redis-cart,network_in,28630
2023-07-04T15:55:58.116Z,redis-cart,network_in,75795
2023-07-04T15:55:58.116Z,recommendationservice,network_in,412917
2023-07-04T15:55:58.116Z,productcatalogservice,network_in,770340
2023-07-04T15:55:58.144Z,adservice,network_in,59420
2023-07-04T15:55:58.144Z,emailservice,network_in,13442
2023-07-04T15:55:58.164Z,currencyservice,network_in,216973
2023-07-04T15:55:58.164Z,shippingservice,network_in,32991
2023-07-04T15:55:58.164Z,cartservice,network_in,112569
2023-07-04T15:55:58.164Z,paymentservice,network_in,11448
2023-07-04T15:56:08.164Z,redis-cart,network_in,28630
2023-07-04T15:56:08.164Z,currencyservice,network_in,216973
2023-07-04T15:56:08.144Z,emailservice,network_in,13442
2023-07-04T15:56:08.164Z,shippingservice,network_in,32991
2023-07-04T15:56:08.164Z,paymentservice,network_in,11448
2023-07-04T15:56:08.116Z,frontend,network_in,1357012
2023-07-04T15:56:08.116Z,recommendationservice,network_in,412917
2023-07-04T15:56:08.116Z,redis-cart,network_in,75795
2023-07-04T15:56:08.116Z,productcatalogservice,network_in,770340
2023-07-04T15:56:08.116Z,checkoutservice,network_in,63401
2023-07-04T15:56:08.144Z,adservice,network_in,59420
2023-07-04T15:56:08.164Z,cartservice,network_in,112569
2023-07-04T15:56:18.164Z,shippingservice,network_in,32991
2023-07-04T15:56:18.164Z,currencyservice,network_in,256494
2023-07-04T15:56:18.144Z,adservice,network_in,71726
2023-07-04T15:56:18.144Z,emailservice,network_in,14537
2023-07-04T15:56:18.116Z,checkoutservice,network_in,65296
2023-07-04T15:56:18.116Z,productcatalogservice,network_in,1032373
2023-07-04T15:56:18.116Z,recommendationservice,network_in,567900
2023-07-04T15:56:18.164Z,paymentservice,network_in,12839
2023-07-04T15:56:18.116Z,frontend,network_in,1725285
2023-07-04T15:56:18.116Z,redis-cart,network_in,103240
2023-07-04T15:56:18.164Z,redis-cart,network_in,30472
2023-07-04T15:56:18.164Z,cartservice,network_in,127731
2023-07-04T15:56:28.144Z,adservice,network_in,71726
2023-07-04T15:56:28.116Z,recommendationservice,network_in,567900
2023-07-04T15:56:28.144Z,emailservice,network_in,14537
2023-07-04T15:56:28.164Z,currencyservice,network_in,285373
2023-07-04T15:56:28.116Z,checkoutservice,network_in,66088
2023-07-04T15:56:28.164Z,cartservice,network_in,144108
2023-07-04T15:56:28.164Z,shippingservice,network_in,40062
2023-07-04T15:56:28.116Z,redis-cart,network_in,103240
2023-07-04T15:56:28.116Z,productcatalogservice,network_in,1032373
2023-07-04T15:56:28.116Z,frontend,network_in,1725285
2023-07-04T15:56:28.164Z,paymentservice,network_in,12975
2023-07-04T15:56:28.164Z,redis-cart,network_in,35296
2023-07-04T15:56:38.164Z,cartservice,network_in,168430
2023-07-04T15:56:38.164Z,shippingservice,network_in,47157
2023-07-04T15:56:38.164Z,currencyservice,network_in,285373
2023-07-04T15:56:38.116Z,recommendationservice,network_in,567900
2023-07-04T15:56:38.116Z,redis-cart,network_in,103240
2023-07-04T15:56:38.116Z,productcatalogservice,network_in,1032373
2023-07-04T15:56:38.116Z,frontend,network_in,1725285
2023-07-04T15:56:38.116Z,checkoutservice,network_in,66088
2023-07-04T15:56:38.164Z,redis-cart,network_in,35296
2023-07-04T15:56:38.164Z,paymentservice,network_in,14774
2023-07-04T15:56:38.143Z,emailservice,network_in,16851
2023-07-04T15:56:38.143Z,adservice,network_in,88842
2023-07-04T15:56:48.116Z,productcatalogservice,network_in,1185872
2023-07-04T15:56:48.164Z,cartservice,network_in,187421
2023-07-04T15:56:48.116Z,frontend,network_in,2025325
2023-07-04T15:56:48.116Z,recommendationservice,network_in,630042
2023-07-04T15:56:48.116Z,redis-cart,network_in,120284
2023-07-04T15:56:48.143Z,emailservice,network_in,16851
2023-07-04T15:56:48.143Z,adservice,network_in,88842
2023-07-04T15:56:48.164Z,shippingservice,network_in,52519
2023-07-04T15:56:48.164Z,currencyservice,network_in,339277
2023-07-04T15:56:48.164Z,paymentservice,network_in,14774
2023-07-04T15:56:48.116Z,checkoutservice,network_in,66088
2023-07-04T15:56:48.164Z,redis-cart,network_in,39786
2023-07-04T15:56:58.116Z,productcatalogservice,network_in,1185872
2023-07-04T15:56:58.164Z,paymentservice,network_in,16727
2023-07-04T15:56:58.116Z,recommendationservice,network_in,697908
2023-07-04T15:56:58.164Z,cartservice,network_in,187421
2023-07-04T15:56:58.116Z,frontend,network_in,2025325
2023-07-04T15:56:58.164Z,redis-cart,network_in,39786
2023-07-04T15:56:58.116Z,redis-cart,network_in,131928
2023-07-04T15:56:58.116Z,checkoutservice,network_in,89542
2023-07-04T15:56:58.144Z,adservice,network_in,94959
2023-07-04T15:56:58.144Z,emailservice,network_in,19501
2023-07-04T15:56:58.164Z,currencyservice,network_in,386056
2023-07-04T15:56:58.164Z,shippingservice,network_in,52519
2023-07-04T15:57:08.144Z,emailservice,network_in,19501
2023-07-04T15:57:08.164Z,shippingservice,network_in,52519
2023-07-04T15:57:08.164Z,cartservice,network_in,187421
2023-07-04T15:57:08.116Z,productcatalogservice,network_in,1484231
2023-07-04T15:57:08.164Z,redis-cart,network_in,39786
2023-07-04T15:57:08.164Z,currencyservice,network_in,386056
2023-07-04T15:57:08.144Z,adservice,network_in,94959
2023-07-04T15:57:08.116Z,frontend,network_in,2450870
2023-07-04T15:57:08.116Z,recommendationservice,network_in,760863
2023-07-04T15:57:08.116Z,checkoutservice,network_in,106404
2023-07-04T15:57:08.116Z,redis-cart,network_in,142895
2023-07-04T15:57:08.164Z,paymentservice,network_in,16727
2023-07-04T15:57:18.164Z,paymentservice,network_in,17141
2023-07-04T15:57:18.116Z,redis-cart,network_in,152298
2023-07-04T15:57:18.116Z,recommendationservice,network_in,841921
2023-07-04T15:57:18.164Z,cartservice,network_in,201319
2023-07-04T15:57:18.164Z,currencyservice,network_in,386056
2023-07-04T15:57:18.164Z,redis-cart,network_in,41418
2023-07-04T15:57:18.164Z,shippingservice,network_in,60392
2023-07-04T15:57:18.116Z,frontend,network_in,2450870
2023-07-04T15:57:18.116Z,checkoutservice,network_in,110505
2023-07-04T15:57:18.116Z,productcatalogservice,network_in,1623443
2023-07-04T15:57:18.143Z,emailservice,network_in,21068
2023-07-04T15:57:18.143Z,adservice,network_in,106184
2023-07-04T15:57:28.116Z,frontend,network_in,2450870
2023-07-04T15:57:28.144Z,adservice,network_in,115081
2023-07-04T15:57:28.164Z,cartservice,network_in,219272
2023-07-04T15:57:28.116Z,redis-cart,network_in,152298
2023-07-04T15:57:28.116Z,productcatalogservice,network_in,1623443
2023-07-04T15:57:28.164Z,redis-cart,network_in,47330
2023-07-04T15:57:28.116Z,checkoutservice,network_in,110505
2023-07-04T15:57:28.116Z,recommendationservice,network_in,841921
2023-07-04T15:57:28.164Z,paymentservice,network_in,18057
2023-07-04T15:57:28.144Z,emailservice,network_in,23193
2023-07-04T15:57:28.164Z,shippingservice,network_in,69702
2023-07-04T15:57:28.164Z,currencyservice,network_in,437316
2023-07-04T15:57:38.164Z,redis-cart,network_in,47330
2023-07-04T15:57:38.116Z,redis-cart,network_in,152298
2023-07-04T15:57:38.116Z,productcatalogservice,network_in,1623443
2023-07-04T15:57:38.144Z,emailservice,network_in,24827
2023-07-04T15:57:38.116Z,checkoutservice,network_in,110505
2023-07-04T15:57:38.116Z,recommendationservice,network_in,841921
2023-07-04T15:57:38.164Z,shippingservice,network_in,69702
2023-07-04T15:57:38.164Z,currencyservice,network_in,437316
2023-07-04T15:57:38.116Z,frontend,network_in,2739495
2023-07-04T15:57:38.144Z,adservice,network_in,124790
2023-07-04T15:57:38.164Z,cartservice,network_in,219272
2023-07-04T15:57:38.164Z,paymentservice,network_in,18057
2023-07-04T15:57:48.144Z,emailservice,network_in,24827
2023-07-04T15:57:48.144Z,adservice,network_in,124790
2023-07-04T15:57:48.115Z,frontend,network_in,3140355
2023-07-04T15:57:48.115Z,recommendationservice,network_in,1023368
2023-07-04T15:57:48.115Z,redis-cart,network_in,180607
2023-07-04T15:57:48.163Z,paymentservice,network_in,19816
2023-07-04T15:57:48.163Z,redis-cart,network_in,47330
2023-07-04T15:57:48.115Z,productcatalogservice,network_in,1817756
2023-07-04T15:57:48.115Z,checkoutservice,network_in,127540
2023-07-04T15:57:48.163Z,cartservice,network_in,246270
2023-07-04T15:57:48.163Z,currencyservice,network_in,478726
2023-07-04T15:57:48.163Z,shippingservice,network_in,75485
2023-07-04T15:57:58.116Z,checkoutservice,network_in,127540
2023-07-04T15:57:58.143Z,adservice,network_in,124790
2023-07-04T15:57:58.116Z,frontend,network_in,3140355
2023-07-04T15:57:58.164Z,currencyservice,network_in,514581
2023-07-04T15:57:58.164Z,redis-cart,network_in,51960
2023-07-04T15:57:58.116Z,recommendationservice,network_in,1023368
2023-07-04T15:57:58.116Z,productcatalogservice,network_in,1969660
2023-07-04T15:57:58.164Z,paymentservice,network_in,20394
2023-07-04T15:57:58.164Z,shippingservice,network_in,80495
2023-07-04T15:57:58.143Z,emailservice,network_in,24827
2023-07-04T15:57:58.116Z,redis-cart,network_in,189791
2023-07-04T15:57:58.164Z,cartservice,network_in,263784
2023-07-04T15:58:08.144Z,emailservice,network_in,27812
2023-07-04T15:58:08.164Z,redis-cart,network_in,53662
2023-07-04T15:58:08.164Z,cartservice,network_in,276072
2023-07-04T15:58:08.116Z,checkoutservice,network_in,127540
2023-07-04T15:58:08.116Z,frontend,network_in,3140355
2023-07-04T15:58:08.164Z,currencyservice,network_in,546243
2023-07-04T15:58:08.116Z,recommendationservice,network_in,1023368
2023-07-04T15:58:08.116Z,redis-cart,network_in,189791
2023-07-04T15:58:08.116Z,productcatalogservice,network_in,1969660
2023-07-04T15:58:08.144Z,adservice,network_in,139978
2023-07-04T15:58:08.164Z,shippingservice,network_in,84310
2023-07-04T15:58:08.164Z,paymentservice,network_in,22215
2023-07-04T15:58:18.164Z,cartservice,network_in,291818
2023-07-04T15:58:18.116Z,redis-cart,network_in,197531
2023-07-04T15:58:18.116Z,recommendationservice,network_in,1085498
2023-07-04T15:58:18.144Z,adservice,network_in,139978
2023-07-04T15:58:18.164Z,currencyservice,network_in,588169
2023-07-04T15:58:18.164Z,shippingservice,network_in,88380
2023-07-04T15:58:18.116Z,checkoutservice,network_in,136319
2023-07-04T15:58:18.116Z,productcatalogservice,network_in,2057263
2023-07-04T15:58:18.144Z,emailservice,network_in,27812
2023-07-04T15:58:18.164Z,redis-cart,network_in,58082
2023-07-04T15:58:18.116Z,frontend,network_in,3368912
2023-07-04T15:58:18.164Z,paymentservice,network_in,22792
2023-07-04T15:58:28.116Z,frontend,network_in,3519836
2023-07-04T15:58:28.116Z,recommendationservice,network_in,1085498
2023-07-04T15:58:28.143Z,emailservice,network_in,27924
2023-07-04T15:58:28.164Z,currencyservice,network_in,588169
2023-07-04T15:58:28.116Z,checkoutservice,network_in,141378
2023-07-04T15:58:28.116Z,redis-cart,network_in,197531
2023-07-04T15:58:28.116Z,productcatalogservice,network_in,2057263
2023-07-04T15:58:28.164Z,paymentservice,network_in,22792
2023-07-04T15:58:28.164Z,redis-cart,network_in,58082
2023-07-04T15:58:28.143Z,adservice,network_in,149637
2023-07-04T15:58:28.164Z,cartservice,network_in,291818
2023-07-04T15:58:28.164Z,shippingservice,network_in,88380
2023-07-04T15:58:38.116Z,frontend,network_in,3752971
2023-07-04T15:58:38.164Z,cartservice,network_in,316062
2023-07-04T15:58:38.164Z,paymentservice,network_in,24576
2023-07-04T15:58:38.164Z,redis-cart,network_in,59212
2023-07-04T15:58:38.116Z,recommendationservice,network_in,1271638
2023-07-04T15:58:38.116Z,redis-cart,network_in,227018
2023-07-04T15:58:38.164Z,currencyservice,network_in,625655
2023-07-04T15:58:38.164Z,shippingservice,network_in,96835
2023-07-04T15:58:38.116Z,productcatalogservice,network_in,2275825
2023-07-04T15:58:38.116Z,checkoutservice,network_in,158625
2023-07-04T15:58:38.143Z,adservice,network_in,162475
2023-07-04T15:58:38.143Z,emailservice,network_in,30845
2023-07-04T15:58:48.115Z,frontend,network_in,3752971
2023-07-04T15:58:48.164Z,cartservice,network_in,332637
2023-07-04T15:58:48.115Z,productcatalogservice,network_in,2275825
2023-07-04T15:58:48.143Z,adservice,network_in,162475
2023-07-04T15:58:48.143Z,emailservice,network_in,31515
2023-07-04T15:58:48.164Z,currencyservice,network_in,625655
2023-07-04T15:58:48.115Z,recommendationservice,network_in,1271638
2023-07-04T15:58:48.115Z,checkoutservice,network_in,158625
2023-07-04T15:58:48.164Z,shippingservice,network_in,101221
2023-07-04T15:58:48.164Z,redis-cart,network_in,63814
2023-07-04T15:58:48.115Z,redis-cart,network_in,227018
2023-07-04T15:58:48.164Z,paymentservice,network_in,25295
2023-07-04T15:58:58.116Z,frontend,network_in,4004605
2023-07-04T15:58:58.143Z,adservice,network_in,162475
2023-07-04T15:58:58.116Z,redis-cart,network_in,227018
2023-07-04T15:58:58.164Z,redis-cart,network_in,63814
2023-07-04T15:58:58.164Z,shippingservice,network_in,101221
2023-07-04T15:58:58.164Z,currencyservice,network_in,669831
2023-07-04T15:58:58.116Z,recommendationservice,network_in,1314695
2023-07-04T15:58:58.116Z,checkoutservice,network_in,158625
2023-07-04T15:58:58.164Z,paymentservice,network_in,25295
2023-07-04T15:58:58.164Z,cartservice,network_in,332637
2023-07-04T15:58:58.116Z,productcatalogservice,network_in,2408070
2023-07-04T15:58:58.143Z,emailservice,network_in,31515
2023-07-04T15:59:08.164Z,shippingservice,network_in,106522
2023-07-04T15:59:08.164Z,cartservice,network_in,353832
2023-07-04T15:59:08.144Z,adservice,network_in,175285
2023-07-04T15:59:08.144Z,emailservice,network_in,33860
2023-07-04T15:59:08.164Z,paymentservice,network_in,26637
2023-07-04T15:59:08.164Z,currencyservice,network_in,711190
2023-07-04T15:59:08.116Z,redis-cart,network_in,235628
2023-07-04T15:59:08.116Z,productcatalogservice,network_in,2408070
2023-07-04T15:59:08.116Z,frontend,network_in,4004605
2023-07-04T15:59:08.116Z,recommendationservice,network_in,1349495
2023-07-04T15:59:08.116Z,checkoutservice,network_in,158625
2023-07-04T15:59:08.164Z,redis-cart,network_in,65446
2023-07-04T15:59:18.116Z,redis-cart,network_in,247302
2023-07-04T15:59:18.116Z,frontend,network_in,4202381
2023-07-04T15:59:18.116Z,checkoutservice,network_in,175977
2023-07-04T15:59:18.164Z,redis-cart,network_in,65446
2023-07-04T15:59:18.144Z,adservice,network_in,175285
2023-07-04T15:59:18.116Z,recommendationservice,network_in,1413557
2023-07-04T15:59:18.116Z,productcatalogservice,network_in,2735779
2023-07-04T15:59:18.164Z,paymentservice,network_in,26637
2023-07-04T15:59:18.144Z,emailservice,network_in,33860
2023-07-04T15:59:18.164Z,shippingservice,network_in,106522
2023-07-04T15:59:18.164Z,cartservice,network_in,353832
2023-07-04T15:59:18.164Z,currencyservice,network_in,711190
2023-07-04T15:59:28.115Z,checkoutservice,network_in,175977
2023-07-04T15:59:28.164Z,cartservice,network_in,377645
2023-07-04T15:59:28.115Z,redis-cart,network_in,247302
2023-07-04T15:59:28.164Z,currencyservice,network_in,711190
2023-07-04T15:59:28.115Z,recommendationservice,network_in,1413557
2023-07-04T15:59:28.115Z,frontend,network_in,4202381
2023-07-04T15:59:28.164Z,shippingservice,network_in,106522
2023-07-04T15:59:28.143Z,emailservice,network_in,34465
2023-07-04T15:59:28.143Z,adservice,network_in,186011
2023-07-04T15:59:28.115Z,productcatalogservice,network_in,2735779
2023-07-04T15:59:28.164Z,redis-cart,network_in,69434
2023-07-04T15:59:28.164Z,paymentservice,network_in,27446
2023-07-04T15:59:38.144Z,adservice,network_in,192377
2023-07-04T15:59:38.115Z,frontend,network_in,4535545
2023-07-04T15:59:38.164Z,redis-cart,network_in,70856
2023-07-04T15:59:38.164Z,paymentservice,network_in,29508
2023-07-04T15:59:38.115Z,recommendationservice,network_in,1498320
2023-07-04T15:59:38.115Z,productcatalogservice,network_in,2810103
2023-07-04T15:59:38.115Z,checkoutservice,network_in,180907
2023-07-04T15:59:38.115Z,redis-cart,network_in,262681
2023-07-04T15:59:38.144Z,emailservice,network_in,36910
2023-07-04T15:59:38.164Z,currencyservice,network_in,768212
2023-07-04T15:59:38.164Z,cartservice,network_in,394943
2023-07-04T15:59:38.164Z,shippingservice,network_in,113402
2023-07-04T15:59:48.144Z,emailservice,network_in,36910
2023-07-04T15:59:48.164Z,currencyservice,network_in,800069
2023-07-04T15:59:48.144Z,adservice,network_in,202600
2023-07-04T15:59:48.164Z,shippingservice,network_in,124067
2023-07-04T15:59:48.116Z,checkoutservice,network_in,198936
2023-07-04T15:59:48.116Z,redis-cart,network_in,279158
2023-07-04T15:59:48.164Z,redis-cart,network_in,75388
2023-07-04T15:59:48.164Z,cartservice,network_in,394943
2023-07-04T15:59:48.164Z,paymentservice,network_in,29508
2023-07-04T15:59:48.116Z,recommendationservice,network_in,1558811
2023-07-04T15:59:48.116Z,productcatalogservice,network_in,2965694
2023-07-04T15:59:48.116Z,frontend,network_in,4812702
2023-07-04T15:59:58.164Z,redis-cart,network_in,75388
2023-07-04T15:59:58.116Z,frontend,network_in,4945818
2023-07-04T15:59:58.164Z,paymentservice,network_in,30718
2023-07-04T15:59:58.144Z,adservice,network_in,202600
2023-07-04T15:59:58.164Z,cartservice,network_in,420708
2023-07-04T15:59:58.116Z,redis-cart,network_in,290112
2023-07-04T15:59:58.116Z,productcatalogservice,network_in,3101178
2023-07-04T15:59:58.116Z,checkoutservice,network_in,198936
2023-07-04T15:59:58.116Z,recommendationservice,network_in,1636179
2023-07-04T15:59:58.144Z,emailservice,network_in,38187
2023-07-04T15:59:58.164Z,currencyservice,network_in,800069
2023-07-04T15:59:58.164Z,shippingservice,network_in,129021
2023-07-04T16:00:08.164Z,shippingservice,network_in,134018
2023-07-04T16:00:08.116Z,frontend,network_in,5173387
2023-07-04T16:00:08.116Z,checkoutservice,network_in,204115
2023-07-04T16:00:08.144Z,adservice,network_in,202600
2023-07-04T16:00:08.144Z,emailservice,network_in,38187
2023-07-04T16:00:08.116Z,redis-cart,network_in,300938
2023-07-04T16:00:08.164Z,redis-cart,network_in,78177
2023-07-04T16:00:08.116Z,recommendationservice,network_in,1636179
2023-07-04T16:00:08.116Z,productcatalogservice,network_in,3101178
2023-07-04T16:00:08.164Z,cartservice,network_in,433490
2023-07-04T16:00:08.164Z,currencyservice,network_in,856446
2023-07-04T16:00:08.164Z,paymentservice,network_in,30718
2023-07-04T16:00:18.144Z,emailservice,network_in,39216
2023-07-04T16:00:18.164Z,shippingservice,network_in,134018
2023-07-04T16:00:18.115Z,frontend,network_in,5173387
2023-07-04T16:00:18.115Z,redis-cart,network_in,300938
2023-07-04T16:00:18.164Z,currencyservice,network_in,856446
2023-07-04T16:00:18.164Z,redis-cart,network_in,78177
2023-07-04T16:00:18.115Z,checkoutservice,network_in,204115
2023-07-04T16:00:18.164Z,cartservice,network_in,433490
2023-07-04T16:00:18.144Z,adservice,network_in,220436
2023-07-04T16:00:18.115Z,recommendationservice,network_in,1636179
2023-07-04T16:00:18.115Z,productcatalogservice,network_in,3101178
2023-07-04T16:00:18.164Z,paymentservice,network_in,30718
2023-07-04T16:00:28.116Z,frontend,network_in,5173387
2023-07-04T16:00:28.164Z,paymentservice,network_in,30784
2023-07-04T16:00:28.143Z,adservice,network_in,220436
2023-07-04T16:00:28.164Z,redis-cart,network_in,81008
2023-07-04T16:00:28.116Z,recommendationservice,network_in,1713281
2023-07-04T16:00:28.116Z,checkoutservice,network_in,204907
2023-07-04T16:00:28.164Z,shippingservice,network_in,134018
2023-07-04T16:00:28.116Z,redis-cart,network_in,300938
2023-07-04T16:00:28.116Z,productcatalogservice,network_in,3247849
2023-07-04T16:00:28.143Z,emailservice,network_in,39216
2023-07-04T16:00:28.164Z,cartservice,network_in,433490
2023-07-04T16:00:28.164Z,currencyservice,network_in,887289
2023-07-04T16:00:38.144Z,adservice,network_in,231059
2023-07-04T16:00:38.164Z,cartservice,network_in,468131
2023-07-04T16:00:38.164Z,currencyservice,network_in,922426
2023-07-04T16:00:38.144Z,emailservice,network_in,41089
2023-07-04T16:00:38.164Z,shippingservice,network_in,140644
2023-07-04T16:00:38.164Z,redis-cart,network_in,82430
2023-07-04T16:00:38.116Z,redis-cart,network_in,310234
2023-07-04T16:00:38.116Z,productcatalogservice,network_in,3247849
2023-07-04T16:00:38.116Z,frontend,network_in,5383018
2023-07-04T16:00:38.116Z,checkoutservice,network_in,204907
2023-07-04T16:00:38.116Z,recommendationservice,network_in,1770959
2023-07-04T16:00:38.164Z,paymentservice,network_in,32167
2023-07-04T16:00:48.143Z,adservice,network_in,231059
2023-07-04T16:00:48.115Z,checkoutservice,network_in,212733
2023-07-04T16:00:48.115Z,redis-cart,network_in,321791
2023-07-04T16:00:48.115Z,frontend,network_in,5742749
2023-07-04T16:00:48.115Z,productcatalogservice,network_in,3510998
2023-07-04T16:00:48.164Z,redis-cart,network_in,86418
2023-07-04T16:00:48.164Z,paymentservice,network_in,32233
2023-07-04T16:00:48.115Z,recommendationservice,network_in,1859000
2023-07-04T16:00:48.164Z,cartservice,network_in,486417
2023-07-04T16:00:48.164Z,shippingservice,network_in,143977
2023-07-04T16:00:48.143Z,emailservice,network_in,41089
2023-07-04T16:00:48.164Z,currencyservice,network_in,970500
2023-07-04T16:00:58.164Z,redis-cart,network_in,86418
2023-07-04T16:00:58.164Z,currencyservice,network_in,970500
2023-07-04T16:00:58.116Z,checkoutservice,network_in,217662
2023-07-04T16:00:58.164Z,paymentservice,network_in,32233
2023-07-04T16:00:58.116Z,productcatalogservice,network_in,3510998
2023-07-04T16:00:58.116Z,redis-cart,network_in,335578
2023-07-04T16:00:58.164Z,cartservice,network_in,486417
2023-07-04T16:00:58.116Z,recommendationservice,network_in,1859000
2023-07-04T16:00:58.116Z,frontend,network_in,5742749
2023-07-04T16:00:58.164Z,shippingservice,network_in,143977
2023-07-04T16:00:58.143Z,adservice,network_in,238930
2023-07-04T16:00:58.143Z,emailservice,network_in,41769
2023-07-04T16:01:08.115Z,recommendationservice,network_in,1859000
2023-07-04T16:01:08.115Z,redis-cart,network_in,335578
2023-07-04T16:01:08.115Z,checkoutservice,network_in,217662
2023-07-04T16:01:08.164Z,shippingservice,network_in,152644
2023-07-04T16:01:08.115Z,productcatalogservice,network_in,3510998
2023-07-04T16:01:08.143Z,emailservice,network_in,42864
2023-07-04T16:01:08.164Z,paymentservice,network_in,33442
2023-07-04T16:01:08.115Z,frontend,network_in,5742749
2023-07-04T16:01:08.143Z,adservice,network_in,249953
2023-07-04T16:01:08.164Z,cartservice,network_in,506280
2023-07-04T16:01:08.164Z,redis-cart,network_in,87506
2023-07-04T16:01:08.164Z,currencyservice,network_in,1003768
2023-07-04T16:01:18.164Z,paymentservice,network_in,33442
2023-07-04T16:01:18.164Z,redis-cart,network_in,87506
2023-07-04T16:01:18.116Z,frontend,network_in,6037157
2023-07-04T16:01:18.116Z,recommendationservice,network_in,1962828
2023-07-04T16:01:18.116Z,redis-cart,network_in,335578
2023-07-04T16:01:18.143Z,emailservice,network_in,42864
2023-07-04T16:01:18.116Z,checkoutservice,network_in,217662
2023-07-04T16:01:18.116Z,productcatalogservice,network_in,3650502
2023-07-04T16:01:18.143Z,adservice,network_in,249953
2023-07-04T16:01:18.164Z,cartservice,network_in,506280
2023-07-04T16:01:18.164Z,shippingservice,network_in,152644
2023-07-04T16:01:18.164Z,currencyservice,network_in,1003768
2023-07-04T16:01:28.116Z,productcatalogservice,network_in,3650502
2023-07-04T16:01:28.163Z,currencyservice,network_in,1037113
2023-07-04T16:01:28.116Z,checkoutservice,network_in,220275
2023-07-04T16:01:28.163Z,redis-cart,network_in,94074
2023-07-04T16:01:28.163Z,shippingservice,network_in,154976
2023-07-04T16:01:28.163Z,paymentservice,network_in,34830
2023-07-04T16:01:28.116Z,redis-cart,network_in,350761
2023-07-04T16:01:28.116Z,recommendationservice,network_in,2005712
2023-07-04T16:01:28.116Z,frontend,network_in,6165341
2023-07-04T16:01:28.143Z,adservice,network_in,266950
2023-07-04T16:01:28.143Z,emailservice,network_in,43112
2023-07-04T16:01:28.163Z,cartservice,network_in,519993
2023-07-04T16:01:38.116Z,recommendationservice,network_in,2047534
2023-07-04T16:01:38.164Z,currencyservice,network_in,1096282
2023-07-04T16:01:38.116Z,frontend,network_in,6309823
2023-07-04T16:01:38.116Z,redis-cart,network_in,363682
2023-07-04T16:01:38.144Z,emailservice,network_in,44789
2023-07-04T16:01:38.164Z,paymentservice,network_in,34830
2023-07-04T16:01:38.116Z,productcatalogservice,network_in,3889262
2023-07-04T16:01:38.116Z,checkoutservice,network_in,224490
2023-07-04T16:01:38.144Z,adservice,network_in,266950
2023-07-04T16:01:38.164Z,cartservice,network_in,543342
2023-07-04T16:01:38.164Z,shippingservice,network_in,159451
2023-07-04T16:01:38.164Z,redis-cart,network_in,94074
2023-07-04T16:01:48.164Z,currencyservice,network_in,1135269
2023-07-04T16:01:48.116Z,productcatalogservice,network_in,3889262
2023-07-04T16:01:48.116Z,recommendationservice,network_in,2047534
2023-07-04T16:01:48.143Z,adservice,network_in,266950
2023-07-04T16:01:48.164Z,redis-cart,network_in,98062
2023-07-04T16:01:48.164Z,cartservice,network_in,556064
2023-07-04T16:01:48.116Z,frontend,network_in,6309823
2023-07-04T16:01:48.164Z,shippingservice,network_in,159451
2023-07-04T16:01:48.116Z,checkoutservice,network_in,224490
2023-07-04T16:01:48.116Z,redis-cart,network_in,363682
2023-07-04T16:01:48.143Z,emailservice,network_in,44789
2023-07-04T16:01:48.164Z,paymentservice,network_in,34830
2023-07-04T16:01:58.116Z,frontend,network_in,6509183
2023-07-04T16:01:58.164Z,shippingservice,network_in,159451
2023-07-04T16:01:58.116Z,redis-cart,network_in,375858
2023-07-04T16:01:58.116Z,recommendationservice,network_in,2075427
2023-07-04T16:01:58.164Z,cartservice,network_in,556064
2023-07-04T16:01:58.116Z,productcatalogservice,network_in,3967758
2023-07-04T16:01:58.144Z,adservice,network_in,279633
2023-07-04T16:01:58.144Z,emailservice,network_in,45460
2023-07-04T16:01:58.116Z,checkoutservice,network_in,226311
2023-07-04T16:01:58.164Z,redis-cart,network_in,98062
2023-07-04T16:01:58.164Z,currencyservice,network_in,1135269
2023-07-04T16:01:58.164Z,paymentservice,network_in,34830
2023-07-04T16:02:08.144Z,emailservice,network_in,49484
2023-07-04T16:02:08.164Z,shippingservice,network_in,168857
2023-07-04T16:02:08.116Z,frontend,network_in,6791527
2023-07-04T16:02:08.116Z,productcatalogservice,network_in,4106060
2023-07-04T16:02:08.164Z,currencyservice,network_in,1186133
2023-07-04T16:02:08.116Z,checkoutservice,network_in,251986
2023-07-04T16:02:08.144Z,adservice,network_in,284104
2023-07-04T16:02:08.164Z,cartservice,network_in,582907
2023-07-04T16:02:08.116Z,recommendationservice,network_in,2161384
2023-07-04T16:02:08.116Z,redis-cart,network_in,388545
2023-07-04T16:02:08.164Z,paymentservice,network_in,37909
2023-07-04T16:02:08.164Z,redis-cart,network_in,100308
2023-07-04T16:02:18.116Z,redis-cart,network_in,400307
2023-07-04T16:02:18.164Z,paymentservice,network_in,39528
2023-07-04T16:02:18.116Z,productcatalogservice,network_in,4228035
2023-07-04T16:02:18.164Z,cartservice,network_in,582907
2023-07-04T16:02:18.116Z,checkoutservice,network_in,267790
2023-07-04T16:02:18.116Z,recommendationservice,network_in,2250156
2023-07-04T16:02:18.164Z,redis-cart,network_in,103752
2023-07-04T16:02:18.143Z,adservice,network_in,284104
2023-07-04T16:02:18.143Z,emailservice,network_in,49484
2023-07-04T16:02:18.116Z,frontend,network_in,6955998
2023-07-04T16:02:18.164Z,currencyservice,network_in,1186133
2023-07-04T16:02:18.164Z,shippingservice,network_in,177346
2023-07-04T16:02:28.116Z,productcatalogservice,network_in,4356639
2023-07-04T16:02:28.164Z,redis-cart,network_in,105718
2023-07-04T16:02:28.164Z,cartservice,network_in,612111
2023-07-04T16:02:28.116Z,recommendationservice,network_in,2322943
2023-07-04T16:02:28.164Z,shippingservice,network_in,186559
2023-07-04T16:02:28.116Z,frontend,network_in,7186347
2023-07-04T16:02:28.116Z,checkoutservice,network_in,267790
2023-07-04T16:02:28.144Z,emailservice,network_in,51976
2023-07-04T16:02:28.164Z,currencyservice,network_in,1225068
2023-07-04T16:02:28.116Z,redis-cart,network_in,400307
2023-07-04T16:02:28.144Z,adservice,network_in,297434
2023-07-04T16:02:28.164Z,paymentservice,network_in,41242
2023-07-04T16:02:38.143Z,emailservice,network_in,51976
2023-07-04T16:02:38.163Z,redis-cart,network_in,105718
2023-07-04T16:02:38.163Z,cartservice,network_in,612111
2023-07-04T16:02:38.143Z,adservice,network_in,297434
2023-07-04T16:02:38.163Z,shippingservice,network_in,186559
2023-07-04T16:02:38.163Z,currencyservice,network_in,1225068
2023-07-04T16:02:38.115Z,frontend,network_in,7186347
2023-07-04T16:02:38.115Z,productcatalogservice,network_in,4356639
2023-07-04T16:02:38.115Z,checkoutservice,network_in,267790
2023-07-04T16:02:38.115Z,recommendationservice,network_in,2322943
2023-07-04T16:02:38.115Z,redis-cart,network_in,400307
2023-07-04T16:02:38.163Z,paymentservice,network_in,41242
2023-07-04T16:02:48.116Z,productcatalogservice,network_in,4475158
2023-07-04T16:02:48.143Z,adservice,network_in,305858
2023-07-04T16:02:48.116Z,recommendationservice,network_in,2322943
2023-07-04T16:02:48.116Z,frontend,network_in,7186347
2023-07-04T16:02:48.116Z,checkoutservice,network_in,289367
2023-07-04T16:02:48.116Z,redis-cart,network_in,418424
2023-07-04T16:02:48.143Z,emailservice,network_in,54346
2023-07-04T16:02:48.165Z,currencyservice,network_in,1269549
2023-07-04T16:02:48.165Z,paymentservice,network_in,41242
2023-07-04T16:02:48.165Z,redis-cart,network_in,105718
2023-07-04T16:02:48.165Z,cartservice,network_in,622921
2023-07-04T16:02:48.165Z,shippingservice,network_in,186559
2023-07-04T16:02:58.116Z,redis-cart,network_in,434170
2023-07-04T16:02:58.116Z,productcatalogservice,network_in,4587002
2023-07-04T16:02:58.116Z,frontend,network_in,7446685
2023-07-04T16:02:58.116Z,recommendationservice,network_in,2388682
2023-07-04T16:02:58.143Z,emailservice,network_in,55026
2023-07-04T16:02:58.116Z,checkoutservice,network_in,290159
2023-07-04T16:02:58.164Z,currencyservice,network_in,1314135
2023-07-04T16:02:58.164Z,redis-cart,network_in,111478
2023-07-04T16:02:58.143Z,adservice,network_in,316371
2023-07-04T16:02:58.164Z,shippingservice,network_in,189775
2023-07-04T16:02:58.164Z,cartservice,network_in,633606
2023-07-04T16:02:58.164Z,paymentservice,network_in,41308
2023-07-04T16:03:08.116Z,productcatalogservice,network_in,4587002
2023-07-04T16:03:08.164Z,currencyservice,network_in,1314135
2023-07-04T16:03:08.116Z,checkoutservice,network_in,290159
2023-07-04T16:03:08.144Z,adservice,network_in,316371
2023-07-04T16:03:08.144Z,emailservice,network_in,56880
2023-07-04T16:03:08.116Z,redis-cart,network_in,434170
2023-07-04T16:03:08.164Z,shippingservice,network_in,189775
2023-07-04T16:03:08.164Z,paymentservice,network_in,41308
2023-07-04T16:03:08.116Z,frontend,network_in,7446685
2023-07-04T16:03:08.116Z,recommendationservice,network_in,2388682
2023-07-04T16:03:08.164Z,cartservice,network_in,633606
2023-07-04T16:03:08.164Z,redis-cart,network_in,111478
2023-07-04T16:03:18.115Z,redis-cart,network_in,449299
2023-07-04T16:03:18.115Z,frontend,network_in,7705765
2023-07-04T16:03:18.115Z,productcatalogservice,network_in,4587002
2023-07-04T16:03:18.115Z,recommendationservice,network_in,2470189
2023-07-04T16:03:18.144Z,adservice,network_in,316371
2023-07-04T16:03:18.164Z,paymentservice,network_in,43133
2023-07-04T16:03:18.164Z,shippingservice,network_in,197060
2023-07-04T16:03:18.115Z,checkoutservice,network_in,299111
2023-07-04T16:03:18.144Z,emailservice,network_in,56880
2023-07-04T16:03:18.164Z,currencyservice,network_in,1336183
2023-07-04T16:03:18.164Z,redis-cart,network_in,111478
2023-07-04T16:03:18.164Z,cartservice,network_in,657855
2023-07-04T16:03:28.116Z,frontend,network_in,7977784
2023-07-04T16:03:28.164Z,currencyservice,network_in,1364783
2023-07-04T16:03:28.164Z,paymentservice,network_in,43710
2023-07-04T16:03:28.116Z,checkoutservice,network_in,304202
2023-07-04T16:03:28.143Z,emailservice,network_in,58230
2023-07-04T16:03:28.164Z,redis-cart,network_in,115606
2023-07-04T16:03:28.116Z,recommendationservice,network_in,2529438
2023-07-04T16:03:28.116Z,redis-cart,network_in,449299
2023-07-04T16:03:28.143Z,adservice,network_in,336767
2023-07-04T16:03:28.164Z,shippingservice,network_in,201644
2023-07-04T16:03:28.116Z,productcatalogservice,network_in,4779577
2023-07-04T16:03:28.164Z,cartservice,network_in,681102
2023-07-04T16:03:38.164Z,paymentservice,network_in,45094
2023-07-04T16:03:38.164Z,currencyservice,network_in,1395997
2023-07-04T16:03:38.164Z,cartservice,network_in,681102
2023-07-04T16:03:38.164Z,redis-cart,network_in,118116
2023-07-04T16:03:38.144Z,adservice,network_in,346867
2023-07-04T16:03:38.144Z,emailservice,network_in,58230
2023-07-04T16:03:38.116Z,productcatalogservice,network_in,4872431
2023-07-04T16:03:38.116Z,recommendationservice,network_in,2587280
2023-07-04T16:03:38.116Z,frontend,network_in,7977784
2023-07-04T16:03:38.116Z,checkoutservice,network_in,304202
2023-07-04T16:03:38.116Z,redis-cart,network_in,467283
2023-07-04T16:03:38.164Z,shippingservice,network_in,210331
2023-07-04T16:03:48.144Z,adservice,network_in,346867
2023-07-04T16:03:48.116Z,productcatalogservice,network_in,5124308
2023-07-04T16:03:48.116Z,checkoutservice,network_in,315982
2023-07-04T16:03:48.164Z,redis-cart,network_in,122104
2023-07-04T16:03:48.116Z,frontend,network_in,8461750
2023-07-04T16:03:48.164Z,currencyservice,network_in,1435211
2023-07-04T16:03:48.116Z,redis-cart,network_in,479265
2023-07-04T16:03:48.144Z,emailservice,network_in,58230
2023-07-04T16:03:48.164Z,paymentservice,network_in,45573
2023-07-04T16:03:48.164Z,cartservice,network_in,705893
2023-07-04T16:03:48.164Z,shippingservice,network_in,210331
2023-07-04T16:03:48.116Z,recommendationservice,network_in,2680316
2023-07-04T16:03:58.116Z,recommendationservice,network_in,2736074
2023-07-04T16:03:58.144Z,adservice,network_in,353044
2023-07-04T16:03:58.144Z,emailservice,network_in,60590
2023-07-04T16:03:58.116Z,frontend,network_in,8461750
2023-07-04T16:03:58.116Z,checkoutservice,network_in,316774
2023-07-04T16:03:58.164Z,shippingservice,network_in,216655
2023-07-04T16:03:58.116Z,productcatalogservice,network_in,5124308
2023-07-04T16:03:58.164Z,currencyservice,network_in,1460563
2023-07-04T16:03:58.164Z,redis-cart,network_in,123192
2023-07-04T16:03:58.116Z,redis-cart,network_in,488418
2023-07-04T16:03:58.164Z,cartservice,network_in,714991
2023-07-04T16:03:58.164Z,paymentservice,network_in,46916
2023-07-04T16:04:08.116Z,productcatalogservice,network_in,5282725
2023-07-04T16:04:08.116Z,frontend,network_in,8619861
2023-07-04T16:04:08.143Z,adservice,network_in,353044
2023-07-04T16:04:08.143Z,emailservice,network_in,60590
2023-07-04T16:04:08.116Z,redis-cart,network_in,488418
2023-07-04T16:04:08.164Z,cartservice,network_in,736890
2023-07-04T16:04:08.164Z,currencyservice,network_in,1460563
2023-07-04T16:04:08.116Z,checkoutservice,network_in,323580
2023-07-04T16:04:08.116Z,recommendationservice,network_in,2736074
2023-07-04T16:04:08.164Z,redis-cart,network_in,123192
2023-07-04T16:04:08.164Z,paymentservice,network_in,46916
2023-07-04T16:04:08.164Z,shippingservice,network_in,216655
2023-07-04T16:04:18.115Z,productcatalogservice,network_in,5282725
2023-07-04T16:04:18.164Z,paymentservice,network_in,46916
2023-07-04T16:04:18.164Z,shippingservice,network_in,220894
2023-07-04T16:04:18.164Z,cartservice,network_in,736890
2023-07-04T16:04:18.115Z,recommendationservice,network_in,2736074
2023-07-04T16:04:18.164Z,redis-cart,network_in,127180
2023-07-04T16:04:18.115Z,redis-cart,network_in,488418
2023-07-04T16:04:18.144Z,emailservice,network_in,62365
2023-07-04T16:04:18.164Z,currencyservice,network_in,1507849
2023-07-04T16:04:18.115Z,checkoutservice,network_in,323580
2023-07-04T16:04:18.115Z,frontend,network_in,8619861
2023-07-04T16:04:18.144Z,adservice,network_in,369364
2023-07-04T16:04:28.116Z,recommendationservice,network_in,2805633
2023-07-04T16:04:28.116Z,frontend,network_in,8879842
2023-07-04T16:04:28.116Z,productcatalogservice,network_in,5282725
2023-07-04T16:04:28.164Z,cartservice,network_in,736890
2023-07-04T16:04:28.144Z,emailservice,network_in,62365
2023-07-04T16:04:28.164Z,paymentservice,network_in,46916
2023-07-04T16:04:28.164Z,shippingservice,network_in,220894
2023-07-04T16:04:28.164Z,currencyservice,network_in,1507849
2023-07-04T16:04:28.116Z,redis-cart,network_in,502708
2023-07-04T16:04:28.116Z,checkoutservice,network_in,323580
2023-07-04T16:04:28.144Z,adservice,network_in,369364
2023-07-04T16:04:28.164Z,redis-cart,network_in,127180
2023-07-04T16:04:38.164Z,cartservice,network_in,762628
2023-07-04T16:04:38.144Z,adservice,network_in,380474
2023-07-04T16:04:38.164Z,paymentservice,network_in,46916
2023-07-04T16:04:38.115Z,frontend,network_in,9102417
2023-07-04T16:04:38.115Z,checkoutservice,network_in,337509
2023-07-04T16:04:38.115Z,productcatalogservice,network_in,5568234
2023-07-04T16:04:38.115Z,recommendationservice,network_in,2898024
2023-07-04T16:04:38.115Z,redis-cart,network_in,517581
2023-07-04T16:04:38.164Z,shippingservice,network_in,229681
2023-07-04T16:04:38.164Z,currencyservice,network_in,1507849
2023-07-04T16:04:38.164Z,redis-cart,network_in,128602
2023-07-04T16:04:38.144Z,emailservice,network_in,64031
2023-07-04T16:04:48.143Z,adservice,network_in,380474
2023-07-04T16:04:48.116Z,productcatalogservice,network_in,5568234
2023-07-04T16:04:48.143Z,emailservice,network_in,64031
2023-07-04T16:04:48.116Z,frontend,network_in,9407459
2023-07-04T16:04:48.116Z,recommendationservice,network_in,2983108
2023-07-04T16:04:48.116Z,checkoutservice,network_in,337509
2023-07-04T16:04:48.116Z,redis-cart,network_in,530017
2023-07-04T16:04:48.164Z,currencyservice,network_in,1562692
2023-07-04T16:04:48.164Z,paymentservice,network_in,48647
2023-07-04T16:04:48.164Z,cartservice,network_in,762628
2023-07-04T16:04:48.164Z,redis-cart,network_in,132548
2023-07-04T16:04:48.164Z,shippingservice,network_in,229681
2023-07-04T16:04:58.115Z,productcatalogservice,network_in,5568234
2023-07-04T16:04:58.164Z,shippingservice,network_in,234597
2023-07-04T16:04:58.164Z,paymentservice,network_in,48647
2023-07-04T16:04:58.164Z,redis-cart,network_in,132548
2023-07-04T16:04:58.144Z,emailservice,network_in,65935
2023-07-04T16:04:58.115Z,frontend,network_in,9407459
2023-07-04T16:04:58.115Z,checkoutservice,network_in,337509
2023-07-04T16:04:58.164Z,currencyservice,network_in,1562692
2023-07-04T16:04:58.115Z,recommendationservice,network_in,2983108
2023-07-04T16:04:58.115Z,redis-cart,network_in,530017
2023-07-04T16:04:58.164Z,cartservice,network_in,782099
2023-07-04T16:04:58.144Z,adservice,network_in,386730
