timestamp,key,run_id,resource,metric,value
2022-03-31T08:59:57.539Z,FULLY_SHARED_SIDECAR_1-1-1-1,1,target-1,cpu,44941
2022-03-31T09:00:07.540Z,FULLY_SHARED_SIDECAR_1-1-1-1,1,target-1,cpu,19615
2022-03-31T09:00:17.539Z,FULLY_SHARED_SIDECAR_1-1-1-1,1,target-1,cpu,19615
2022-03-31T09:00:27.539Z,FULLY_SHARED_SIDECAR_1-1-1-1,1,target-1,cpu,36260
2022-03-31T09:00:37.540Z,FULLY_SHARED_SIDECAR_1-1-1-1,1,target-1,cpu,18192
2022-03-31T09:00:47.539Z,FULLY_SHARED_SIDECAR_1-1-1-1,1,target-1,cpu,18192
2022-03-31T09:00:57.539Z,FULLY_SHARED_SIDECAR_1-1-1-1,1,target-1,cpu,23460
2022-03-31T09:01:07.540Z,FULLY_SHARED_SIDECAR_1-1-1-1,1,target-1,cpu,18128
2022-03-31T09:01:17.539Z,FULLY_SHARED_SIDECAR_1-1-1-1,1,target-1,cpu,18128
2022-03-31T09:01:27.539Z,FULLY_SHARED_SIDECAR_1-1-1-1,1,target-1,cpu,25499
2022-03-31T09:01:37.540Z,FULLY_SHARED_SIDECAR_1-1-1-1,1,target-1,cpu,24543
2022-03-31T09:01:47.539Z,FULLY_SHARED_SIDECAR_1-1-1-1,1,target-1,cpu,24543
2022-03-31T09:01:57.540Z,FULLY_SHARED_SIDECAR_1-1-1-1,1,target-1,cpu,31508
2022-03-31T09:02:07.539Z,FULLY_SHARED_SIDECAR_1-1-1-1,1,target-1,cpu,31508
2022-03-31T09:02:17.539Z,FULLY_SHARED_SIDECAR_1-1-1-1,1,target-1,cpu,13337
2022-03-31T09:02:27.540Z,FULLY_SHARED_SIDECAR_1-1-1-1,1,target-1,cpu,38903
2022-03-31T09:02:37.540Z,FULLY_SHARED_SIDECAR_1-1-1-1,1,target-1,cpu,38903
2022-03-31T09:02:47.539Z,FULLY_SHARED_SIDECAR_1-1-1-1,1,target-1,cpu,14436
2022-03-31T09:02:57.539Z,FULLY_SHARED_SIDECAR_1-1-1-1,1,target-1,cpu,26273
2022-03-31T09:03:07.540Z,FULLY_SHARED_SIDECAR_1-1-1-1,1,target-1,cpu,26273
2022-03-31T09:03:17.539Z,FULLY_SHARED_SIDECAR_1-1-1-1,1,target-1,cpu,26273
2022-03-31T09:03:27.539Z,FULLY_SHARED_SIDECAR_1-1-1-1,1,target-1,cpu,29967
2022-03-31T09:03:37.539Z,FULLY_SHARED_SIDECAR_1-1-1-1,1,target-1,cpu,27188
2022-03-31T09:03:47.540Z,FULLY_SHARED_SIDECAR_1-1-1-1,1,target-1,cpu,13366
2022-03-31T09:03:57.539Z,FULLY_SHARED_SIDECAR_1-1-1-1,1,target-1,cpu,13366
2022-03-31T09:04:07.539Z,FULLY_SHARED_SIDECAR_1-1-1-1,1,target-1,cpu,27655
2022-03-31T09:04:17.540Z,FULLY_SHARED_SIDECAR_1-1-1-1,1,target-1,cpu,27655
2022-03-31T09:04:27.539Z,FULLY_SHARED_SIDECAR_1-1-1-1,1,target-1,cpu,27655
2022-03-31T09:04:37.540Z,FULLY_SHARED_SIDECAR_1-1-1-1,1,target-1,cpu,26641
2022-03-31T09:04:47.539Z,FULLY_SHARED_SIDECAR_1-1-1-1,1,target-1,cpu,26641
2022-03-31T09:04:57.539Z,FULLY_SHARED_SIDECAR_1-1-1-1,1,target-1,cpu,16751
2022-03-31T09:05:07.540Z,FULLY_SHARED_SIDECAR_1-1-1-1,1,target-1,cpu,16751
2022-03-31T09:05:17.540Z,FULLY_SHARED_SIDECAR_1-1-1-1,1,target-1,cpu,11330
2022-03-31T09:05:27.539Z,FULLY_SHARED_SIDECAR_1-1-1-1,1,target-1,cpu,11330
2022-03-31T09:05:37.539Z,FULLY_SHARED_SIDECAR_1-1-1-1,1,target-1,cpu,14260
2022-03-31T09:05:47.539Z,FULLY_SHARED_SIDECAR_1-1-1-1,1,target-1,cpu,14260
2022-03-31T09:05:57.539Z,FULLY_SHARED_SIDECAR_1-1-1-1,1,target-1,cpu,30491
2022-03-31T09:06:07.539Z,FULLY_SHARED_SIDECAR_1-1-1-1,1,target-1,cpu,14372
2022-03-31T09:06:17.540Z,FULLY_SHARED_SIDECAR_1-1-1-1,1,target-1,cpu,14372
2022-03-31T09:06:27.540Z,FULLY_SHARED_SIDECAR_1-1-1-1,1,target-1,cpu,14372
2022-03-31T09:06:37.539Z,FULLY_SHARED_SIDECAR_1-1-1-1,1,target-1,cpu,21068
2022-03-31T09:06:47.540Z,FULLY_SHARED_SIDECAR_1-1-1-1,1,target-1,cpu,21068
2022-03-31T09:06:57.539Z,FULLY_SHARED_SIDECAR_1-1-1-1,1,target-1,cpu,21068
2022-03-31T09:07:07.539Z,FULLY_SHARED_SIDECAR_1-1-1-1,1,target-1,cpu,23276
2022-03-31T09:07:17.539Z,FULLY_SHARED_SIDECAR_1-1-1-1,1,target-1,cpu,23276
2022-03-31T09:07:27.539Z,FULLY_SHARED_SIDECAR_1-1-1-1,1,target-1,cpu,26649
2022-03-31T09:07:37.539Z,FULLY_SHARED_SIDECAR_1-1-1-1,1,target-1,cpu,26649
2022-03-31T09:07:47.539Z,FULLY_SHARED_SIDECAR_1-1-1-1,1,target-1,cpu,26649
2022-03-31T09:07:57.539Z,FULLY_SHARED_SIDECAR_1-1-1-1,1,target-1,cpu,24107
2022-03-31T09:08:07.539Z,FULLY_SHARED_SIDECAR_1-1-1-1,1,target-1,cpu,15957
2022-03-31T09:08:17.540Z,FULLY_SHARED_SIDECAR_1-1-1-1,1,target-1,cpu,26280
2022-03-31T09:08:27.539Z,FULLY_SHARED_SIDECAR_1-1-1-1,1,target-1,cpu,26280
2022-03-31T09:08:37.540Z,FULLY_SHARED_SIDECAR_1-1-1-1,1,target-1,cpu,18709
2022-03-31T09:08:47.539Z,FULLY_SHARED_SIDECAR_1-1-1-1,1,target-1,cpu,18709
2022-03-31T09:08:57.539Z,FULLY_SHARED_SIDECAR_1-1-1-1,1,target-1,cpu,25009
2022-03-31T09:09:07.539Z,FULLY_SHARED_SIDECAR_1-1-1-1,1,target-1,cpu,26294
2022-03-31T09:09:17.539Z,FULLY_SHARED_SIDECAR_1-1-1-1,1,target-1,cpu,10461
2022-03-31T09:09:27.539Z,FULLY_SHARED_SIDECAR_1-1-1-1,1,target-1,cpu,10461
2022-03-31T09:09:37.539Z,FULLY_SHARED_SIDECAR_1-1-1-1,1,target-1,cpu,35684
2022-03-31T09:09:47.540Z,FULLY_SHARED_SIDECAR_1-1-1-1,1,target-1,cpu,18437
2022-03-31T09:10:05.539Z,FULLY_SHARED_SIDECAR_1-1-1-1,2,target-1,cpu,38199
2022-03-31T09:10:15.539Z,FULLY_SHARED_SIDECAR_1-1-1-1,2,target-1,cpu,20882
2022-03-31T09:10:25.539Z,FULLY_SHARED_SIDECAR_1-1-1-1,2,target-1,cpu,19157
2022-03-31T09:10:35.538Z,FULLY_SHARED_SIDECAR_1-1-1-1,2,target-1,cpu,19157
2022-03-31T09:10:45.539Z,FULLY_SHARED_SIDECAR_1-1-1-1,2,target-1,cpu,31748
2022-03-31T09:10:55.539Z,FULLY_SHARED_SIDECAR_1-1-1-1,2,target-1,cpu,20028
2022-03-31T09:11:05.538Z,FULLY_SHARED_SIDECAR_1-1-1-1,2,target-1,cpu,20028
2022-03-31T09:11:15.538Z,FULLY_SHARED_SIDECAR_1-1-1-1,2,target-1,cpu,17400
2022-03-31T09:11:25.539Z,FULLY_SHARED_SIDECAR_1-1-1-1,2,target-1,cpu,17400
2022-03-31T09:11:35.539Z,FULLY_SHARED_SIDECAR_1-1-1-1,2,target-1,cpu,23473
2022-03-31T09:11:45.539Z,FULLY_SHARED_SIDECAR_1-1-1-1,2,target-1,cpu,24235
2022-03-31T09:11:55.538Z,FULLY_SHARED_SIDECAR_1-1-1-1,2,target-1,cpu,24235
2022-03-31T09:12:05.539Z,FULLY_SHARED_SIDECAR_1-1-1-1,2,target-1,cpu,13880
2022-03-31T09:12:15.539Z,FULLY_SHARED_SIDECAR_1-1-1-1,2,target-1,cpu,21286
2022-03-31T09:12:25.538Z,FULLY_SHARED_SIDECAR_1-1-1-1,2,target-1,cpu,21286
2022-03-31T09:12:35.538Z,FULLY_SHARED_SIDECAR_1-1-1-1,2,target-1,cpu,12466
2022-03-31T09:12:45.539Z,FULLY_SHARED_SIDECAR_1-1-1-1,2,target-1,cpu,16717
2022-03-31T09:12:55.539Z,FULLY_SHARED_SIDECAR_1-1-1-1,2,target-1,cpu,16717
2022-03-31T09:13:05.539Z,FULLY_SHARED_SIDECAR_1-1-1-1,2,target-1,cpu,16717
2022-03-31T09:13:15.538Z,FULLY_SHARED_SIDECAR_1-1-1-1,2,target-1,cpu,14671
2022-03-31T09:13:25.538Z,FULLY_SHARED_SIDECAR_1-1-1-1,2,target-1,cpu,14671
2022-03-31T09:13:35.539Z,FULLY_SHARED_SIDECAR_1-1-1-1,2,target-1,cpu,20004
2022-03-31T09:13:45.538Z,FULLY_SHARED_SIDECAR_1-1-1-1,2,target-1,cpu,31288
2022-03-31T09:13:55.538Z,FULLY_SHARED_SIDECAR_1-1-1-1,2,target-1,cpu,31288
2022-03-31T09:14:05.538Z,FULLY_SHARED_SIDECAR_1-1-1-1,2,target-1,cpu,17600
2022-03-31T09:14:15.538Z,FULLY_SHARED_SIDECAR_1-1-1-1,2,target-1,cpu,17892
2022-03-31T09:14:25.538Z,FULLY_SHARED_SIDECAR_1-1-1-1,2,target-1,cpu,17892
2022-03-31T09:14:35.538Z,FULLY_SHARED_SIDECAR_1-1-1-1,2,target-1,cpu,17892
2022-03-31T09:14:45.538Z,FULLY_SHARED_SIDECAR_1-1-1-1,2,target-1,cpu,25626
2022-03-31T09:14:55.538Z,FULLY_SHARED_SIDECAR_1-1-1-1,2,target-1,cpu,25626
2022-03-31T09:15:05.538Z,FULLY_SHARED_SIDECAR_1-1-1-1,2,target-1,cpu,25062
2022-03-31T09:15:15.539Z,FULLY_SHARED_SIDECAR_1-1-1-1,2,target-1,cpu,16836
2022-03-31T09:15:25.539Z,FULLY_SHARED_SIDECAR_1-1-1-1,2,target-1,cpu,16836
2022-03-31T09:15:35.539Z,FULLY_SHARED_SIDECAR_1-1-1-1,2,target-1,cpu,23075
2022-03-31T09:15:45.539Z,FULLY_SHARED_SIDECAR_1-1-1-1,2,target-1,cpu,23075
2022-03-31T09:15:55.539Z,FULLY_SHARED_SIDECAR_1-1-1-1,2,target-1,cpu,28434
2022-03-31T09:16:05.539Z,FULLY_SHARED_SIDECAR_1-1-1-1,2,target-1,cpu,11109
2022-03-31T09:16:15.538Z,FULLY_SHARED_SIDECAR_1-1-1-1,2,target-1,cpu,11109
2022-03-31T09:16:25.539Z,FULLY_SHARED_SIDECAR_1-1-1-1,2,target-1,cpu,28365
2022-03-31T09:16:35.539Z,FULLY_SHARED_SIDECAR_1-1-1-1,2,target-1,cpu,28365
2022-03-31T09:16:45.539Z,FULLY_SHARED_SIDECAR_1-1-1-1,2,target-1,cpu,17390
2022-03-31T09:16:55.538Z,FULLY_SHARED_SIDECAR_1-1-1-1,2,target-1,cpu,17390
2022-03-31T09:17:05.539Z,FULLY_SHARED_SIDECAR_1-1-1-1,2,target-1,cpu,15818
2022-03-31T09:17:15.539Z,FULLY_SHARED_SIDECAR_1-1-1-1,2,target-1,cpu,20379
2022-03-31T09:17:25.539Z,FULLY_SHARED_SIDECAR_1-1-1-1,2,target-1,cpu,20379
2022-03-31T09:17:35.538Z,FULLY_SHARED_SIDECAR_1-1-1-1,2,target-1,cpu,20379
2022-03-31T09:17:45.539Z,FULLY_SHARED_SIDECAR_1-1-1-1,2,target-1,cpu,25053
2022-03-31T09:17:55.539Z,FULLY_SHARED_SIDECAR_1-1-1-1,2,target-1,cpu,21671
2022-03-31T09:18:05.539Z,FULLY_SHARED_SIDECAR_1-1-1-1,2,target-1,cpu,21671
2022-03-31T09:18:15.538Z,FULLY_SHARED_SIDECAR_1-1-1-1,2,target-1,cpu,11509
2022-03-31T09:18:25.539Z,FULLY_SHARED_SIDECAR_1-1-1-1,2,target-1,cpu,11509
2022-03-31T09:18:35.539Z,FULLY_SHARED_SIDECAR_1-1-1-1,2,target-1,cpu,11509
2022-03-31T09:18:45.538Z,FULLY_SHARED_SIDECAR_1-1-1-1,2,target-1,cpu,13728
2022-03-31T09:18:55.538Z,FULLY_SHARED_SIDECAR_1-1-1-1,2,target-1,cpu,13728
2022-03-31T09:19:05.538Z,FULLY_SHARED_SIDECAR_1-1-1-1,2,target-1,cpu,13728
2022-03-31T09:19:15.538Z,FULLY_SHARED_SIDECAR_1-1-1-1,2,target-1,cpu,28835
2022-03-31T09:19:25.538Z,FULLY_SHARED_SIDECAR_1-1-1-1,2,target-1,cpu,19215
2022-03-31T09:19:35.538Z,FULLY_SHARED_SIDECAR_1-1-1-1,2,target-1,cpu,19215
2022-03-31T09:19:45.538Z,FULLY_SHARED_SIDECAR_1-1-1-1,2,target-1,cpu,26928
2022-03-31T09:20:12.373Z,FULLY_SHARED_SIDECAR_1-1-1-1,3,target-1,cpu,32052
2022-03-31T09:20:22.374Z,FULLY_SHARED_SIDECAR_1-1-1-1,3,target-1,cpu,24564
2022-03-31T09:20:32.374Z,FULLY_SHARED_SIDECAR_1-1-1-1,3,target-1,cpu,24564
2022-03-31T09:20:42.374Z,FULLY_SHARED_SIDECAR_1-1-1-1,3,target-1,cpu,14161
2022-03-31T09:20:52.374Z,FULLY_SHARED_SIDECAR_1-1-1-1,3,target-1,cpu,14472
2022-03-31T09:21:02.374Z,FULLY_SHARED_SIDECAR_1-1-1-1,3,target-1,cpu,14472
2022-03-31T09:21:12.374Z,FULLY_SHARED_SIDECAR_1-1-1-1,3,target-1,cpu,14472
2022-03-31T09:21:22.373Z,FULLY_SHARED_SIDECAR_1-1-1-1,3,target-1,cpu,10575
2022-03-31T09:21:32.374Z,FULLY_SHARED_SIDECAR_1-1-1-1,3,target-1,cpu,10575
2022-03-31T09:21:42.374Z,FULLY_SHARED_SIDECAR_1-1-1-1,3,target-1,cpu,23125
2022-03-31T09:21:52.374Z,FULLY_SHARED_SIDECAR_1-1-1-1,3,target-1,cpu,23125
2022-03-31T09:22:02.374Z,FULLY_SHARED_SIDECAR_1-1-1-1,3,target-1,cpu,10259
2022-03-31T09:22:12.374Z,FULLY_SHARED_SIDECAR_1-1-1-1,3,target-1,cpu,10259
2022-03-31T09:22:22.374Z,FULLY_SHARED_SIDECAR_1-1-1-1,3,target-1,cpu,13372
2022-03-31T09:22:32.374Z,FULLY_SHARED_SIDECAR_1-1-1-1,3,target-1,cpu,13372
2022-03-31T09:22:42.374Z,FULLY_SHARED_SIDECAR_1-1-1-1,3,target-1,cpu,18190
2022-03-31T09:22:52.373Z,FULLY_SHARED_SIDECAR_1-1-1-1,3,target-1,cpu,18190
2022-03-31T09:23:02.373Z,FULLY_SHARED_SIDECAR_1-1-1-1,3,target-1,cpu,16042
2022-03-31T09:23:12.374Z,FULLY_SHARED_SIDECAR_1-1-1-1,3,target-1,cpu,20894
2022-03-31T09:23:22.374Z,FULLY_SHARED_SIDECAR_1-1-1-1,3,target-1,cpu,11985
2022-03-31T09:23:32.373Z,FULLY_SHARED_SIDECAR_1-1-1-1,3,target-1,cpu,11985
2022-03-31T09:23:42.373Z,FULLY_SHARED_SIDECAR_1-1-1-1,3,target-1,cpu,19690
2022-03-31T09:23:52.374Z,FULLY_SHARED_SIDECAR_1-1-1-1,3,target-1,cpu,19690
2022-03-31T09:24:02.373Z,FULLY_SHARED_SIDECAR_1-1-1-1,3,target-1,cpu,19690
2022-03-31T09:24:12.374Z,FULLY_SHARED_SIDECAR_1-1-1-1,3,target-1,cpu,18076
2022-03-31T09:24:22.373Z,FULLY_SHARED_SIDECAR_1-1-1-1,3,target-1,cpu,18076
2022-03-31T09:24:32.374Z,FULLY_SHARED_SIDECAR_1-1-1-1,3,target-1,cpu,27700
2022-03-31T09:24:42.374Z,FULLY_SHARED_SIDECAR_1-1-1-1,3,target-1,cpu,27700
2022-03-31T09:24:52.373Z,FULLY_SHARED_SIDECAR_1-1-1-1,3,target-1,cpu,27700
2022-03-31T09:25:02.373Z,FULLY_SHARED_SIDECAR_1-1-1-1,3,target-1,cpu,18135
2022-03-31T09:25:12.374Z,FULLY_SHARED_SIDECAR_1-1-1-1,3,target-1,cpu,18135
2022-03-31T09:25:22.374Z,FULLY_SHARED_SIDECAR_1-1-1-1,3,target-1,cpu,18135
2022-03-31T09:25:32.373Z,FULLY_SHARED_SIDECAR_1-1-1-1,3,target-1,cpu,14390
2022-03-31T09:25:42.374Z,FULLY_SHARED_SIDECAR_1-1-1-1,3,target-1,cpu,14390
2022-03-31T09:25:52.373Z,FULLY_SHARED_SIDECAR_1-1-1-1,3,target-1,cpu,14390
2022-03-31T09:26:02.374Z,FULLY_SHARED_SIDECAR_1-1-1-1,3,target-1,cpu,31409
2022-03-31T09:26:12.374Z,FULLY_SHARED_SIDECAR_1-1-1-1,3,target-1,cpu,13910
2022-03-31T09:26:22.374Z,FULLY_SHARED_SIDECAR_1-1-1-1,3,target-1,cpu,26967
2022-03-31T09:26:32.374Z,FULLY_SHARED_SIDECAR_1-1-1-1,3,target-1,cpu,26967
2022-03-31T09:26:42.374Z,FULLY_SHARED_SIDECAR_1-1-1-1,3,target-1,cpu,26967
2022-03-31T09:26:52.374Z,FULLY_SHARED_SIDECAR_1-1-1-1,3,target-1,cpu,16770
2022-03-31T09:27:02.373Z,FULLY_SHARED_SIDECAR_1-1-1-1,3,target-1,cpu,16770
2022-03-31T09:27:12.373Z,FULLY_SHARED_SIDECAR_1-1-1-1,3,target-1,cpu,13065
2022-03-31T09:27:22.373Z,FULLY_SHARED_SIDECAR_1-1-1-1,3,target-1,cpu,22471
2022-03-31T09:27:32.373Z,FULLY_SHARED_SIDECAR_1-1-1-1,3,target-1,cpu,22471
2022-03-31T09:27:42.374Z,FULLY_SHARED_SIDECAR_1-1-1-1,3,target-1,cpu,10921
2022-03-31T09:27:52.373Z,FULLY_SHARED_SIDECAR_1-1-1-1,3,target-1,cpu,10921
2022-03-31T09:28:02.374Z,FULLY_SHARED_SIDECAR_1-1-1-1,3,target-1,cpu,15721
2022-03-31T09:28:12.373Z,FULLY_SHARED_SIDECAR_1-1-1-1,3,target-1,cpu,15721
2022-03-31T09:28:22.374Z,FULLY_SHARED_SIDECAR_1-1-1-1,3,target-1,cpu,14324
2022-03-31T09:28:32.373Z,FULLY_SHARED_SIDECAR_1-1-1-1,3,target-1,cpu,14324
2022-03-31T09:28:42.374Z,FULLY_SHARED_SIDECAR_1-1-1-1,3,target-1,cpu,19907
2022-03-31T09:28:52.374Z,FULLY_SHARED_SIDECAR_1-1-1-1,3,target-1,cpu,19907
2022-03-31T09:29:02.373Z,FULLY_SHARED_SIDECAR_1-1-1-1,3,target-1,cpu,31162
2022-03-31T09:29:12.374Z,FULLY_SHARED_SIDECAR_1-1-1-1,3,target-1,cpu,31162
2022-03-31T09:29:22.374Z,FULLY_SHARED_SIDECAR_1-1-1-1,3,target-1,cpu,31162
2022-03-31T09:29:32.374Z,FULLY_SHARED_SIDECAR_1-1-1-1,3,target-1,cpu,17875
2022-03-31T09:29:42.373Z,FULLY_SHARED_SIDECAR_1-1-1-1,3,target-1,cpu,17875
2022-03-31T09:29:52.373Z,FULLY_SHARED_SIDECAR_1-1-1-1,3,target-1,cpu,40268
2022-03-31T09:30:18.291Z,FULLY_SHARED_SIDECAR_1-1-1-2,1,target-1,cpu,69522
2022-03-31T09:30:28.291Z,FULLY_SHARED_SIDECAR_1-1-1-2,1,target-1,cpu,22504
2022-03-31T09:30:38.291Z,FULLY_SHARED_SIDECAR_1-1-1-2,1,target-1,cpu,22504
2022-03-31T09:30:48.291Z,FULLY_SHARED_SIDECAR_1-1-1-2,1,target-1,cpu,53945
2022-03-31T09:30:58.291Z,FULLY_SHARED_SIDECAR_1-1-1-2,1,target-1,cpu,53945
2022-03-31T09:31:08.291Z,FULLY_SHARED_SIDECAR_1-1-1-2,1,target-1,cpu,53945
2022-03-31T09:31:18.290Z,FULLY_SHARED_SIDECAR_1-1-1-2,1,target-1,cpu,49935
2022-03-31T09:31:28.291Z,FULLY_SHARED_SIDECAR_1-1-1-2,1,target-1,cpu,44596
2022-03-31T09:31:38.291Z,FULLY_SHARED_SIDECAR_1-1-1-2,1,target-1,cpu,44596
2022-03-31T09:31:48.291Z,FULLY_SHARED_SIDECAR_1-1-1-2,1,target-1,cpu,34006
2022-03-31T09:31:58.292Z,FULLY_SHARED_SIDECAR_1-1-1-2,1,target-1,cpu,49090
2022-03-31T09:32:08.291Z,FULLY_SHARED_SIDECAR_1-1-1-2,1,target-1,cpu,49090
2022-03-31T09:32:18.291Z,FULLY_SHARED_SIDECAR_1-1-1-2,1,target-1,cpu,25750
2022-03-31T09:32:28.291Z,FULLY_SHARED_SIDECAR_1-1-1-2,1,target-1,cpu,25750
2022-03-31T09:32:38.291Z,FULLY_SHARED_SIDECAR_1-1-1-2,1,target-1,cpu,39054
2022-03-31T09:32:48.292Z,FULLY_SHARED_SIDECAR_1-1-1-2,1,target-1,cpu,53206
2022-03-31T09:32:58.291Z,FULLY_SHARED_SIDECAR_1-1-1-2,1,target-1,cpu,53206
2022-03-31T09:33:08.291Z,FULLY_SHARED_SIDECAR_1-1-1-2,1,target-1,cpu,27892
2022-03-31T09:33:18.292Z,FULLY_SHARED_SIDECAR_1-1-1-2,1,target-1,cpu,37021
2022-03-31T09:33:28.291Z,FULLY_SHARED_SIDECAR_1-1-1-2,1,target-1,cpu,37021
2022-03-31T09:33:38.291Z,FULLY_SHARED_SIDECAR_1-1-1-2,1,target-1,cpu,54066
2022-03-31T09:33:48.291Z,FULLY_SHARED_SIDECAR_1-1-1-2,1,target-1,cpu,54066
2022-03-31T09:33:58.291Z,FULLY_SHARED_SIDECAR_1-1-1-2,1,target-1,cpu,29755
2022-03-31T09:34:08.291Z,FULLY_SHARED_SIDECAR_1-1-1-2,1,target-1,cpu,29755
2022-03-31T09:34:18.291Z,FULLY_SHARED_SIDECAR_1-1-1-2,1,target-1,cpu,66572
2022-03-31T09:34:28.291Z,FULLY_SHARED_SIDECAR_1-1-1-2,1,target-1,cpu,26420
2022-03-31T09:34:38.291Z,FULLY_SHARED_SIDECAR_1-1-1-2,1,target-1,cpu,26420
2022-03-31T09:34:48.291Z,FULLY_SHARED_SIDECAR_1-1-1-2,1,target-1,cpu,47160
2022-03-31T09:34:58.290Z,FULLY_SHARED_SIDECAR_1-1-1-2,1,target-1,cpu,37222
2022-03-31T09:35:08.290Z,FULLY_SHARED_SIDECAR_1-1-1-2,1,target-1,cpu,37222
2022-03-31T09:35:18.291Z,FULLY_SHARED_SIDECAR_1-1-1-2,1,target-1,cpu,37222
2022-03-31T09:35:28.292Z,FULLY_SHARED_SIDECAR_1-1-1-2,1,target-1,cpu,51386
2022-03-31T09:35:38.291Z,FULLY_SHARED_SIDECAR_1-1-1-2,1,target-1,cpu,51386
2022-03-31T09:35:48.291Z,FULLY_SHARED_SIDECAR_1-1-1-2,1,target-1,cpu,47067
2022-03-31T09:35:58.291Z,FULLY_SHARED_SIDECAR_1-1-1-2,1,target-1,cpu,47067
2022-03-31T09:36:08.291Z,FULLY_SHARED_SIDECAR_1-1-1-2,1,target-1,cpu,53574
2022-03-31T09:36:18.291Z,FULLY_SHARED_SIDECAR_1-1-1-2,1,target-1,cpu,53574
2022-03-31T09:36:28.291Z,FULLY_SHARED_SIDECAR_1-1-1-2,1,target-1,cpu,48251
2022-03-31T09:36:38.291Z,FULLY_SHARED_SIDECAR_1-1-1-2,1,target-1,cpu,48251
2022-03-31T09:36:48.291Z,FULLY_SHARED_SIDECAR_1-1-1-2,1,target-1,cpu,48251
2022-03-31T09:36:58.291Z,FULLY_SHARED_SIDECAR_1-1-1-2,1,target-1,cpu,38211
2022-03-31T09:37:08.292Z,FULLY_SHARED_SIDECAR_1-1-1-2,1,target-1,cpu,42632
2022-03-31T09:37:18.291Z,FULLY_SHARED_SIDECAR_1-1-1-2,1,target-1,cpu,42632
2022-03-31T09:37:28.291Z,FULLY_SHARED_SIDECAR_1-1-1-2,1,target-1,cpu,23448
2022-03-31T09:37:38.291Z,FULLY_SHARED_SIDECAR_1-1-1-2,1,target-1,cpu,23448
2022-03-31T09:37:48.291Z,FULLY_SHARED_SIDECAR_1-1-1-2,1,target-1,cpu,41401
2022-03-31T09:37:58.291Z,FULLY_SHARED_SIDECAR_1-1-1-2,1,target-1,cpu,41401
2022-03-31T09:38:08.291Z,FULLY_SHARED_SIDECAR_1-1-1-2,1,target-1,cpu,35101
2022-03-31T09:38:18.290Z,FULLY_SHARED_SIDECAR_1-1-1-2,1,target-1,cpu,35101
2022-03-31T09:38:28.291Z,FULLY_SHARED_SIDECAR_1-1-1-2,1,target-1,cpu,36298
2022-03-31T09:38:38.292Z,FULLY_SHARED_SIDECAR_1-1-1-2,1,target-1,cpu,48567
2022-03-31T09:38:48.291Z,FULLY_SHARED_SIDECAR_1-1-1-2,1,target-1,cpu,48567
2022-03-31T09:38:58.291Z,FULLY_SHARED_SIDECAR_1-1-1-2,1,target-1,cpu,44298
2022-03-31T09:39:08.291Z,FULLY_SHARED_SIDECAR_1-1-1-2,1,target-1,cpu,44298
2022-03-31T09:39:18.291Z,FULLY_SHARED_SIDECAR_1-1-1-2,1,target-1,cpu,44298
2022-03-31T09:39:28.291Z,FULLY_SHARED_SIDECAR_1-1-1-2,1,target-1,cpu,55574
2022-03-31T09:39:38.291Z,FULLY_SHARED_SIDECAR_1-1-1-2,1,target-1,cpu,55574
2022-03-31T09:39:48.291Z,FULLY_SHARED_SIDECAR_1-1-1-2,1,target-1,cpu,28758
2022-03-31T09:39:58.291Z,FULLY_SHARED_SIDECAR_1-1-1-2,1,target-1,cpu,28758
2022-03-31T09:40:08.291Z,FULLY_SHARED_SIDECAR_1-1-1-2,1,target-1,cpu,66208
2022-03-31T09:40:28.126Z,FULLY_SHARED_SIDECAR_1-1-1-2,2,target-1,cpu,57084
2022-03-31T09:40:38.127Z,FULLY_SHARED_SIDECAR_1-1-1-2,2,target-1,cpu,38834
2022-03-31T09:40:48.126Z,FULLY_SHARED_SIDECAR_1-1-1-2,2,target-1,cpu,38834
2022-03-31T09:40:58.127Z,FULLY_SHARED_SIDECAR_1-1-1-2,2,target-1,cpu,38834
2022-03-31T09:41:08.126Z,FULLY_SHARED_SIDECAR_1-1-1-2,2,target-1,cpu,30236
2022-03-31T09:41:18.127Z,FULLY_SHARED_SIDECAR_1-1-1-2,2,target-1,cpu,30236
2022-03-31T09:41:28.127Z,FULLY_SHARED_SIDECAR_1-1-1-2,2,target-1,cpu,54579
2022-03-31T09:41:38.127Z,FULLY_SHARED_SIDECAR_1-1-1-2,2,target-1,cpu,54579
2022-03-31T09:41:48.127Z,FULLY_SHARED_SIDECAR_1-1-1-2,2,target-1,cpu,33613
2022-03-31T09:41:58.127Z,FULLY_SHARED_SIDECAR_1-1-1-2,2,target-1,cpu,33613
2022-03-31T09:42:08.127Z,FULLY_SHARED_SIDECAR_1-1-1-2,2,target-1,cpu,38585
2022-03-31T09:42:18.127Z,FULLY_SHARED_SIDECAR_1-1-1-2,2,target-1,cpu,38585
2022-03-31T09:42:28.126Z,FULLY_SHARED_SIDECAR_1-1-1-2,2,target-1,cpu,29347
2022-03-31T09:42:38.126Z,FULLY_SHARED_SIDECAR_1-1-1-2,2,target-1,cpu,29347
2022-03-31T09:42:48.127Z,FULLY_SHARED_SIDECAR_1-1-1-2,2,target-1,cpu,47091
2022-03-31T09:42:58.126Z,FULLY_SHARED_SIDECAR_1-1-1-2,2,target-1,cpu,47091
2022-03-31T09:43:08.127Z,FULLY_SHARED_SIDECAR_1-1-1-2,2,target-1,cpu,47091
2022-03-31T09:43:18.127Z,FULLY_SHARED_SIDECAR_1-1-1-2,2,target-1,cpu,38609
2022-03-31T09:43:28.126Z,FULLY_SHARED_SIDECAR_1-1-1-2,2,target-1,cpu,34645
2022-03-31T09:43:38.127Z,FULLY_SHARED_SIDECAR_1-1-1-2,2,target-1,cpu,34645
2022-03-31T09:43:48.126Z,FULLY_SHARED_SIDECAR_1-1-1-2,2,target-1,cpu,34645
2022-03-31T09:43:58.127Z,FULLY_SHARED_SIDECAR_1-1-1-2,2,target-1,cpu,50391
2022-03-31T09:44:08.127Z,FULLY_SHARED_SIDECAR_1-1-1-2,2,target-1,cpu,32488
2022-03-31T09:44:18.127Z,FULLY_SHARED_SIDECAR_1-1-1-2,2,target-1,cpu,32488
2022-03-31T09:44:28.126Z,FULLY_SHARED_SIDECAR_1-1-1-2,2,target-1,cpu,32488
2022-03-31T09:44:38.127Z,FULLY_SHARED_SIDECAR_1-1-1-2,2,target-1,cpu,41790
2022-03-31T09:44:48.127Z,FULLY_SHARED_SIDECAR_1-1-1-2,2,target-1,cpu,41790
2022-03-31T09:44:58.127Z,FULLY_SHARED_SIDECAR_1-1-1-2,2,target-1,cpu,41790
2022-03-31T09:45:08.127Z,FULLY_SHARED_SIDECAR_1-1-1-2,2,target-1,cpu,32416
2022-03-31T09:45:18.127Z,FULLY_SHARED_SIDECAR_1-1-1-2,2,target-1,cpu,32416
2022-03-31T09:45:28.127Z,FULLY_SHARED_SIDECAR_1-1-1-2,2,target-1,cpu,32416
2022-03-31T09:45:38.127Z,FULLY_SHARED_SIDECAR_1-1-1-2,2,target-1,cpu,37201
2022-03-31T09:45:48.126Z,FULLY_SHARED_SIDECAR_1-1-1-2,2,target-1,cpu,37201
2022-03-31T09:45:58.126Z,FULLY_SHARED_SIDECAR_1-1-1-2,2,target-1,cpu,37201
2022-03-31T09:46:08.126Z,FULLY_SHARED_SIDECAR_1-1-1-2,2,target-1,cpu,46437
2022-03-31T09:46:18.127Z,FULLY_SHARED_SIDECAR_1-1-1-2,2,target-1,cpu,48644
2022-03-31T09:46:28.127Z,FULLY_SHARED_SIDECAR_1-1-1-2,2,target-1,cpu,27530
2022-03-31T09:46:38.126Z,FULLY_SHARED_SIDECAR_1-1-1-2,2,target-1,cpu,27530
2022-03-31T09:46:48.127Z,FULLY_SHARED_SIDECAR_1-1-1-2,2,target-1,cpu,44447
2022-03-31T09:46:58.127Z,FULLY_SHARED_SIDECAR_1-1-1-2,2,target-1,cpu,54945
2022-03-31T09:47:08.127Z,FULLY_SHARED_SIDECAR_1-1-1-2,2,target-1,cpu,54945
2022-03-31T09:47:18.127Z,FULLY_SHARED_SIDECAR_1-1-1-2,2,target-1,cpu,46947
2022-03-31T09:47:28.127Z,FULLY_SHARED_SIDECAR_1-1-1-2,2,target-1,cpu,46947
2022-03-31T09:47:38.127Z,FULLY_SHARED_SIDECAR_1-1-1-2,2,target-1,cpu,28992
2022-03-31T09:47:48.126Z,FULLY_SHARED_SIDECAR_1-1-1-2,2,target-1,cpu,28992
2022-03-31T09:47:58.127Z,FULLY_SHARED_SIDECAR_1-1-1-2,2,target-1,cpu,47502
2022-03-31T09:48:08.127Z,FULLY_SHARED_SIDECAR_1-1-1-2,2,target-1,cpu,31092
2022-03-31T09:48:18.127Z,FULLY_SHARED_SIDECAR_1-1-1-2,2,target-1,cpu,46647
2022-03-31T09:48:28.127Z,FULLY_SHARED_SIDECAR_1-1-1-2,2,target-1,cpu,46647
2022-03-31T09:48:38.127Z,FULLY_SHARED_SIDECAR_1-1-1-2,2,target-1,cpu,42373
2022-03-31T09:48:48.126Z,FULLY_SHARED_SIDECAR_1-1-1-2,2,target-1,cpu,42373
2022-03-31T09:48:58.127Z,FULLY_SHARED_SIDECAR_1-1-1-2,2,target-1,cpu,30638
2022-03-31T09:49:08.127Z,FULLY_SHARED_SIDECAR_1-1-1-2,2,target-1,cpu,30638
2022-03-31T09:49:18.126Z,FULLY_SHARED_SIDECAR_1-1-1-2,2,target-1,cpu,56668
2022-03-31T09:49:28.126Z,FULLY_SHARED_SIDECAR_1-1-1-2,2,target-1,cpu,56668
2022-03-31T09:49:38.127Z,FULLY_SHARED_SIDECAR_1-1-1-2,2,target-1,cpu,56668
2022-03-31T09:49:48.127Z,FULLY_SHARED_SIDECAR_1-1-1-2,2,target-1,cpu,42434
2022-03-31T09:49:58.127Z,FULLY_SHARED_SIDECAR_1-1-1-2,2,target-1,cpu,42434
2022-03-31T09:50:08.127Z,FULLY_SHARED_SIDECAR_1-1-1-2,2,target-1,cpu,37202
2022-03-31T09:50:18.126Z,FULLY_SHARED_SIDECAR_1-1-1-2,2,target-1,cpu,37202
2022-03-31T09:50:36.714Z,FULLY_SHARED_SIDECAR_1-1-1-2,3,target-1,cpu,77897
2022-03-31T09:50:46.715Z,FULLY_SHARED_SIDECAR_1-1-1-2,3,target-1,cpu,49352
2022-03-31T09:50:56.715Z,FULLY_SHARED_SIDECAR_1-1-1-2,3,target-1,cpu,49352
2022-03-31T09:51:06.714Z,FULLY_SHARED_SIDECAR_1-1-1-2,3,target-1,cpu,49352
2022-03-31T09:51:16.714Z,FULLY_SHARED_SIDECAR_1-1-1-2,3,target-1,cpu,45020
2022-03-31T09:51:26.714Z,FULLY_SHARED_SIDECAR_1-1-1-2,3,target-1,cpu,54765
2022-03-31T09:51:36.714Z,FULLY_SHARED_SIDECAR_1-1-1-2,3,target-1,cpu,54765
2022-03-31T09:51:46.715Z,FULLY_SHARED_SIDECAR_1-1-1-2,3,target-1,cpu,34319
2022-03-31T09:51:56.715Z,FULLY_SHARED_SIDECAR_1-1-1-2,3,target-1,cpu,68098
2022-03-31T09:52:06.714Z,FULLY_SHARED_SIDECAR_1-1-1-2,3,target-1,cpu,68098
2022-03-31T09:52:16.715Z,FULLY_SHARED_SIDECAR_1-1-1-2,3,target-1,cpu,28058
2022-03-31T09:52:26.715Z,FULLY_SHARED_SIDECAR_1-1-1-2,3,target-1,cpu,28058
2022-03-31T09:52:36.714Z,FULLY_SHARED_SIDECAR_1-1-1-2,3,target-1,cpu,56160
2022-03-31T09:52:46.714Z,FULLY_SHARED_SIDECAR_1-1-1-2,3,target-1,cpu,56160
2022-03-31T09:52:56.714Z,FULLY_SHARED_SIDECAR_1-1-1-2,3,target-1,cpu,35087
2022-03-31T09:53:06.714Z,FULLY_SHARED_SIDECAR_1-1-1-2,3,target-1,cpu,35087
2022-03-31T09:53:16.715Z,FULLY_SHARED_SIDECAR_1-1-1-2,3,target-1,cpu,34538
2022-03-31T09:53:26.715Z,FULLY_SHARED_SIDECAR_1-1-1-2,3,target-1,cpu,43182
2022-03-31T09:53:36.715Z,FULLY_SHARED_SIDECAR_1-1-1-2,3,target-1,cpu,43182
2022-03-31T09:53:46.715Z,FULLY_SHARED_SIDECAR_1-1-1-2,3,target-1,cpu,36665
2022-03-31T09:53:56.714Z,FULLY_SHARED_SIDECAR_1-1-1-2,3,target-1,cpu,36665
2022-03-31T09:54:06.714Z,FULLY_SHARED_SIDECAR_1-1-1-2,3,target-1,cpu,52323
2022-03-31T09:54:16.715Z,FULLY_SHARED_SIDECAR_1-1-1-2,3,target-1,cpu,63881
2022-03-31T09:54:26.715Z,FULLY_SHARED_SIDECAR_1-1-1-2,3,target-1,cpu,63881
2022-03-31T09:54:36.715Z,FULLY_SHARED_SIDECAR_1-1-1-2,3,target-1,cpu,33500
2022-03-31T09:54:46.714Z,FULLY_SHARED_SIDECAR_1-1-1-2,3,target-1,cpu,33500
2022-03-31T09:54:56.715Z,FULLY_SHARED_SIDECAR_1-1-1-2,3,target-1,cpu,50561
2022-03-31T09:55:06.715Z,FULLY_SHARED_SIDECAR_1-1-1-2,3,target-1,cpu,50561
2022-03-31T09:55:16.715Z,FULLY_SHARED_SIDECAR_1-1-1-2,3,target-1,cpu,48494
2022-03-31T09:55:26.714Z,FULLY_SHARED_SIDECAR_1-1-1-2,3,target-1,cpu,48494
2022-03-31T09:55:36.714Z,FULLY_SHARED_SIDECAR_1-1-1-2,3,target-1,cpu,22271
2022-03-31T09:55:46.714Z,FULLY_SHARED_SIDECAR_1-1-1-2,3,target-1,cpu,22271
2022-03-31T09:55:56.714Z,FULLY_SHARED_SIDECAR_1-1-1-2,3,target-1,cpu,30497
2022-03-31T09:56:06.714Z,FULLY_SHARED_SIDECAR_1-1-1-2,3,target-1,cpu,30497
2022-03-31T09:56:16.715Z,FULLY_SHARED_SIDECAR_1-1-1-2,3,target-1,cpu,47161
2022-03-31T09:56:26.714Z,FULLY_SHARED_SIDECAR_1-1-1-2,3,target-1,cpu,47161
2022-03-31T09:56:36.715Z,FULLY_SHARED_SIDECAR_1-1-1-2,3,target-1,cpu,48317
2022-03-31T09:56:46.714Z,FULLY_SHARED_SIDECAR_1-1-1-2,3,target-1,cpu,48317
2022-03-31T09:56:56.714Z,FULLY_SHARED_SIDECAR_1-1-1-2,3,target-1,cpu,40631
2022-03-31T09:57:06.714Z,FULLY_SHARED_SIDECAR_1-1-1-2,3,target-1,cpu,40631
2022-03-31T09:57:16.715Z,FULLY_SHARED_SIDECAR_1-1-1-2,3,target-1,cpu,33565
2022-03-31T09:57:26.715Z,FULLY_SHARED_SIDECAR_1-1-1-2,3,target-1,cpu,33565
2022-03-31T09:57:36.714Z,FULLY_SHARED_SIDECAR_1-1-1-2,3,target-1,cpu,29999
2022-03-31T09:57:46.715Z,FULLY_SHARED_SIDECAR_1-1-1-2,3,target-1,cpu,56847
2022-03-31T09:57:56.714Z,FULLY_SHARED_SIDECAR_1-1-1-2,3,target-1,cpu,56847
2022-03-31T09:58:06.715Z,FULLY_SHARED_SIDECAR_1-1-1-2,3,target-1,cpu,46435
2022-03-31T09:58:16.715Z,FULLY_SHARED_SIDECAR_1-1-1-2,3,target-1,cpu,46435
2022-03-31T09:58:26.714Z,FULLY_SHARED_SIDECAR_1-1-1-2,3,target-1,cpu,52080
2022-03-31T09:58:36.715Z,FULLY_SHARED_SIDECAR_1-1-1-2,3,target-1,cpu,52080
2022-03-31T09:58:46.715Z,FULLY_SHARED_SIDECAR_1-1-1-2,3,target-1,cpu,52080
2022-03-31T09:58:56.714Z,FULLY_SHARED_SIDECAR_1-1-1-2,3,target-1,cpu,50174
2022-03-31T09:59:06.714Z,FULLY_SHARED_SIDECAR_1-1-1-2,3,target-1,cpu,47123
2022-03-31T09:59:16.714Z,FULLY_SHARED_SIDECAR_1-1-1-2,3,target-1,cpu,47123
2022-03-31T09:59:26.715Z,FULLY_SHARED_SIDECAR_1-1-1-2,3,target-1,cpu,27807
2022-03-31T09:59:36.714Z,FULLY_SHARED_SIDECAR_1-1-1-2,3,target-1,cpu,27807
2022-03-31T09:59:46.715Z,FULLY_SHARED_SIDECAR_1-1-1-2,3,target-1,cpu,32220
2022-03-31T09:59:56.715Z,FULLY_SHARED_SIDECAR_1-1-1-2,3,target-1,cpu,32220
2022-03-31T10:00:06.715Z,FULLY_SHARED_SIDECAR_1-1-1-2,3,target-1,cpu,47319
2022-03-31T10:00:16.715Z,FULLY_SHARED_SIDECAR_1-1-1-2,3,target-1,cpu,47319
2022-03-31T10:00:26.715Z,FULLY_SHARED_SIDECAR_1-1-1-2,3,target-1,cpu,63423
2022-03-31T10:00:45.715Z,FULLY_SHARED_SIDECAR_1-1-1-4,1,target-1,cpu,59082
2022-03-31T10:00:55.715Z,FULLY_SHARED_SIDECAR_1-1-1-4,1,target-1,cpu,59082
2022-03-31T10:01:05.715Z,FULLY_SHARED_SIDECAR_1-1-1-4,1,target-1,cpu,93296
2022-03-31T10:01:15.715Z,FULLY_SHARED_SIDECAR_1-1-1-4,1,target-1,cpu,93296
2022-03-31T10:01:25.715Z,FULLY_SHARED_SIDECAR_1-1-1-4,1,target-1,cpu,89953
2022-03-31T10:01:35.715Z,FULLY_SHARED_SIDECAR_1-1-1-4,1,target-1,cpu,89953
2022-03-31T10:01:45.715Z,FULLY_SHARED_SIDECAR_1-1-1-4,1,target-1,cpu,72111
2022-03-31T10:01:55.715Z,FULLY_SHARED_SIDECAR_1-1-1-4,1,target-1,cpu,86797
2022-03-31T10:02:05.715Z,FULLY_SHARED_SIDECAR_1-1-1-4,1,target-1,cpu,86797
2022-03-31T10:02:15.715Z,FULLY_SHARED_SIDECAR_1-1-1-4,1,target-1,cpu,70145
2022-03-31T10:02:25.714Z,FULLY_SHARED_SIDECAR_1-1-1-4,1,target-1,cpu,73530
2022-03-31T10:02:35.715Z,FULLY_SHARED_SIDECAR_1-1-1-4,1,target-1,cpu,124081
2022-03-31T10:02:45.715Z,FULLY_SHARED_SIDECAR_1-1-1-4,1,target-1,cpu,124081
2022-03-31T10:02:55.715Z,FULLY_SHARED_SIDECAR_1-1-1-4,1,target-1,cpu,55077
2022-03-31T10:03:05.715Z,FULLY_SHARED_SIDECAR_1-1-1-4,1,target-1,cpu,55077
2022-03-31T10:03:15.715Z,FULLY_SHARED_SIDECAR_1-1-1-4,1,target-1,cpu,69967
2022-03-31T10:03:25.715Z,FULLY_SHARED_SIDECAR_1-1-1-4,1,target-1,cpu,69967
2022-03-31T10:03:35.714Z,FULLY_SHARED_SIDECAR_1-1-1-4,1,target-1,cpu,69967
2022-03-31T10:03:45.715Z,FULLY_SHARED_SIDECAR_1-1-1-4,1,target-1,cpu,67370
2022-03-31T10:03:55.714Z,FULLY_SHARED_SIDECAR_1-1-1-4,1,target-1,cpu,99735
2022-03-31T10:04:05.715Z,FULLY_SHARED_SIDECAR_1-1-1-4,1,target-1,cpu,46027
2022-03-31T10:04:15.715Z,FULLY_SHARED_SIDECAR_1-1-1-4,1,target-1,cpu,46027
2022-03-31T10:04:25.715Z,FULLY_SHARED_SIDECAR_1-1-1-4,1,target-1,cpu,81545
2022-03-31T10:04:35.715Z,FULLY_SHARED_SIDECAR_1-1-1-4,1,target-1,cpu,81545
2022-03-31T10:04:45.715Z,FULLY_SHARED_SIDECAR_1-1-1-4,1,target-1,cpu,78643
2022-03-31T10:04:55.715Z,FULLY_SHARED_SIDECAR_1-1-1-4,1,target-1,cpu,101297
2022-03-31T10:05:05.715Z,FULLY_SHARED_SIDECAR_1-1-1-4,1,target-1,cpu,83047
2022-03-31T10:05:15.715Z,FULLY_SHARED_SIDECAR_1-1-1-4,1,target-1,cpu,83047
2022-03-31T10:05:25.715Z,FULLY_SHARED_SIDECAR_1-1-1-4,1,target-1,cpu,83047
2022-03-31T10:05:35.715Z,FULLY_SHARED_SIDECAR_1-1-1-4,1,target-1,cpu,66651
2022-03-31T10:05:45.714Z,FULLY_SHARED_SIDECAR_1-1-1-4,1,target-1,cpu,88648
2022-03-31T10:05:55.715Z,FULLY_SHARED_SIDECAR_1-1-1-4,1,target-1,cpu,88648
2022-03-31T10:06:05.715Z,FULLY_SHARED_SIDECAR_1-1-1-4,1,target-1,cpu,88648
2022-03-31T10:06:15.715Z,FULLY_SHARED_SIDECAR_1-1-1-4,1,target-1,cpu,68157
2022-03-31T10:06:25.715Z,FULLY_SHARED_SIDECAR_1-1-1-4,1,target-1,cpu,64700
2022-03-31T10:06:35.715Z,FULLY_SHARED_SIDECAR_1-1-1-4,1,target-1,cpu,64700
2022-03-31T10:06:45.714Z,FULLY_SHARED_SIDECAR_1-1-1-4,1,target-1,cpu,64700
2022-03-31T10:06:55.715Z,FULLY_SHARED_SIDECAR_1-1-1-4,1,target-1,cpu,100870
2022-03-31T10:07:05.714Z,FULLY_SHARED_SIDECAR_1-1-1-4,1,target-1,cpu,91676
2022-03-31T10:07:15.715Z,FULLY_SHARED_SIDECAR_1-1-1-4,1,target-1,cpu,91676
2022-03-31T10:07:25.715Z,FULLY_SHARED_SIDECAR_1-1-1-4,1,target-1,cpu,91676
2022-03-31T10:07:35.715Z,FULLY_SHARED_SIDECAR_1-1-1-4,1,target-1,cpu,77633
2022-03-31T10:07:45.715Z,FULLY_SHARED_SIDECAR_1-1-1-4,1,target-1,cpu,87422
2022-03-31T10:07:55.714Z,FULLY_SHARED_SIDECAR_1-1-1-4,1,target-1,cpu,87422
2022-03-31T10:08:05.714Z,FULLY_SHARED_SIDECAR_1-1-1-4,1,target-1,cpu,87422
2022-03-31T10:08:15.715Z,FULLY_SHARED_SIDECAR_1-1-1-4,1,target-1,cpu,92645
2022-03-31T10:08:25.715Z,FULLY_SHARED_SIDECAR_1-1-1-4,1,target-1,cpu,92645
2022-03-31T10:08:35.715Z,FULLY_SHARED_SIDECAR_1-1-1-4,1,target-1,cpu,92645
2022-03-31T10:08:45.715Z,FULLY_SHARED_SIDECAR_1-1-1-4,1,target-1,cpu,66825
2022-03-31T10:08:55.715Z,FULLY_SHARED_SIDECAR_1-1-1-4,1,target-1,cpu,66825
2022-03-31T10:09:05.715Z,FULLY_SHARED_SIDECAR_1-1-1-4,1,target-1,cpu,133355
2022-03-31T10:09:15.715Z,FULLY_SHARED_SIDECAR_1-1-1-4,1,target-1,cpu,74676
2022-03-31T10:09:25.714Z,FULLY_SHARED_SIDECAR_1-1-1-4,1,target-1,cpu,74676
2022-03-31T10:09:35.715Z,FULLY_SHARED_SIDECAR_1-1-1-4,1,target-1,cpu,74676
2022-03-31T10:09:45.714Z,FULLY_SHARED_SIDECAR_1-1-1-4,1,target-1,cpu,85659
2022-03-31T10:09:55.715Z,FULLY_SHARED_SIDECAR_1-1-1-4,1,target-1,cpu,85457
2022-03-31T10:10:05.714Z,FULLY_SHARED_SIDECAR_1-1-1-4,1,target-1,cpu,85457
2022-03-31T10:10:15.715Z,FULLY_SHARED_SIDECAR_1-1-1-4,1,target-1,cpu,85457
2022-03-31T10:10:25.715Z,FULLY_SHARED_SIDECAR_1-1-1-4,1,target-1,cpu,57610
2022-03-31T10:10:35.714Z,FULLY_SHARED_SIDECAR_1-1-1-4,1,target-1,cpu,54020
2022-03-31T10:10:57.550Z,FULLY_SHARED_SIDECAR_1-1-1-4,2,target-1,cpu,116059
2022-03-31T10:11:07.551Z,FULLY_SHARED_SIDECAR_1-1-1-4,2,target-1,cpu,116798
2022-03-31T10:11:17.551Z,FULLY_SHARED_SIDECAR_1-1-1-4,2,target-1,cpu,116798
2022-03-31T10:11:27.550Z,FULLY_SHARED_SIDECAR_1-1-1-4,2,target-1,cpu,116798
2022-03-31T10:11:37.550Z,FULLY_SHARED_SIDECAR_1-1-1-4,2,target-1,cpu,77696
2022-03-31T10:11:47.550Z,FULLY_SHARED_SIDECAR_1-1-1-4,2,target-1,cpu,77696
2022-03-31T10:11:57.550Z,FULLY_SHARED_SIDECAR_1-1-1-4,2,target-1,cpu,83492
2022-03-31T10:12:07.550Z,FULLY_SHARED_SIDECAR_1-1-1-4,2,target-1,cpu,83492
2022-03-31T10:12:17.551Z,FULLY_SHARED_SIDECAR_1-1-1-4,2,target-1,cpu,82800
2022-03-31T10:12:27.550Z,FULLY_SHARED_SIDECAR_1-1-1-4,2,target-1,cpu,82800
2022-03-31T10:12:37.550Z,FULLY_SHARED_SIDECAR_1-1-1-4,2,target-1,cpu,55027
2022-03-31T10:12:47.551Z,FULLY_SHARED_SIDECAR_1-1-1-4,2,target-1,cpu,74703
2022-03-31T10:12:57.550Z,FULLY_SHARED_SIDECAR_1-1-1-4,2,target-1,cpu,74703
2022-03-31T10:13:07.550Z,FULLY_SHARED_SIDECAR_1-1-1-4,2,target-1,cpu,91404
2022-03-31T10:13:17.550Z,FULLY_SHARED_SIDECAR_1-1-1-4,2,target-1,cpu,73182
2022-03-31T10:13:27.550Z,FULLY_SHARED_SIDECAR_1-1-1-4,2,target-1,cpu,73182
2022-03-31T10:13:37.550Z,FULLY_SHARED_SIDECAR_1-1-1-4,2,target-1,cpu,73182
2022-03-31T10:13:47.550Z,FULLY_SHARED_SIDECAR_1-1-1-4,2,target-1,cpu,85840
2022-03-31T10:13:57.550Z,FULLY_SHARED_SIDECAR_1-1-1-4,2,target-1,cpu,85840
2022-03-31T10:14:07.550Z,FULLY_SHARED_SIDECAR_1-1-1-4,2,target-1,cpu,80025
2022-03-31T10:14:17.550Z,FULLY_SHARED_SIDECAR_1-1-1-4,2,target-1,cpu,80025
2022-03-31T10:14:27.551Z,FULLY_SHARED_SIDECAR_1-1-1-4,2,target-1,cpu,68872
2022-03-31T10:14:37.550Z,FULLY_SHARED_SIDECAR_1-1-1-4,2,target-1,cpu,68872
2022-03-31T10:14:47.551Z,FULLY_SHARED_SIDECAR_1-1-1-4,2,target-1,cpu,67166
2022-03-31T10:14:57.551Z,FULLY_SHARED_SIDECAR_1-1-1-4,2,target-1,cpu,76811
2022-03-31T10:15:07.550Z,FULLY_SHARED_SIDECAR_1-1-1-4,2,target-1,cpu,76811
2022-03-31T10:15:17.551Z,FULLY_SHARED_SIDECAR_1-1-1-4,2,target-1,cpu,80627
2022-03-31T10:15:27.550Z,FULLY_SHARED_SIDECAR_1-1-1-4,2,target-1,cpu,80627
2022-03-31T10:15:37.550Z,FULLY_SHARED_SIDECAR_1-1-1-4,2,target-1,cpu,98766
2022-03-31T10:15:47.550Z,FULLY_SHARED_SIDECAR_1-1-1-4,2,target-1,cpu,64287
2022-03-31T10:15:57.550Z,FULLY_SHARED_SIDECAR_1-1-1-4,2,target-1,cpu,65352
2022-03-31T10:16:07.550Z,FULLY_SHARED_SIDECAR_1-1-1-4,2,target-1,cpu,65352
2022-03-31T10:16:17.550Z,FULLY_SHARED_SIDECAR_1-1-1-4,2,target-1,cpu,128697
2022-03-31T10:16:27.551Z,FULLY_SHARED_SIDECAR_1-1-1-4,2,target-1,cpu,48618
2022-03-31T10:16:37.551Z,FULLY_SHARED_SIDECAR_1-1-1-4,2,target-1,cpu,48618
2022-03-31T10:16:47.551Z,FULLY_SHARED_SIDECAR_1-1-1-4,2,target-1,cpu,48618
2022-03-31T10:16:57.551Z,FULLY_SHARED_SIDECAR_1-1-1-4,2,target-1,cpu,93107
2022-03-31T10:17:07.551Z,FULLY_SHARED_SIDECAR_1-1-1-4,2,target-1,cpu,99449
2022-03-31T10:17:17.550Z,FULLY_SHARED_SIDECAR_1-1-1-4,2,target-1,cpu,99449
2022-03-31T10:17:27.551Z,FULLY_SHARED_SIDECAR_1-1-1-4,2,target-1,cpu,92922
2022-03-31T10:17:37.550Z,FULLY_SHARED_SIDECAR_1-1-1-4,2,target-1,cpu,92922
2022-03-31T10:17:47.550Z,FULLY_SHARED_SIDECAR_1-1-1-4,2,target-1,cpu,68226
2022-03-31T10:17:57.550Z,FULLY_SHARED_SIDECAR_1-1-1-4,2,target-1,cpu,68226
2022-03-31T10:18:07.550Z,FULLY_SHARED_SIDECAR_1-1-1-4,2,target-1,cpu,68226
2022-03-31T10:18:17.550Z,FULLY_SHARED_SIDECAR_1-1-1-4,2,target-1,cpu,100614
2022-03-31T10:18:27.550Z,FULLY_SHARED_SIDECAR_1-1-1-4,2,target-1,cpu,71659
2022-03-31T10:18:37.550Z,FULLY_SHARED_SIDECAR_1-1-1-4,2,target-1,cpu,71659
2022-03-31T10:18:47.550Z,FULLY_SHARED_SIDECAR_1-1-1-4,2,target-1,cpu,114816
2022-03-31T10:18:57.551Z,FULLY_SHARED_SIDECAR_1-1-1-4,2,target-1,cpu,70187
2022-03-31T10:19:07.551Z,FULLY_SHARED_SIDECAR_1-1-1-4,2,target-1,cpu,70187
2022-03-31T10:19:17.550Z,FULLY_SHARED_SIDECAR_1-1-1-4,2,target-1,cpu,70187
2022-03-31T10:19:27.550Z,FULLY_SHARED_SIDECAR_1-1-1-4,2,target-1,cpu,114111
2022-03-31T10:19:37.551Z,FULLY_SHARED_SIDECAR_1-1-1-4,2,target-1,cpu,49948
2022-03-31T10:19:47.551Z,FULLY_SHARED_SIDECAR_1-1-1-4,2,target-1,cpu,49948
2022-03-31T10:19:57.550Z,FULLY_SHARED_SIDECAR_1-1-1-4,2,target-1,cpu,49948
2022-03-31T10:20:07.551Z,FULLY_SHARED_SIDECAR_1-1-1-4,2,target-1,cpu,83014
2022-03-31T10:20:17.551Z,FULLY_SHARED_SIDECAR_1-1-1-4,2,target-1,cpu,83014
2022-03-31T10:20:27.550Z,FULLY_SHARED_SIDECAR_1-1-1-4,2,target-1,cpu,63159
2022-03-31T10:20:37.550Z,FULLY_SHARED_SIDECAR_1-1-1-4,2,target-1,cpu,119611
2022-03-31T10:20:47.550Z,FULLY_SHARED_SIDECAR_1-1-1-4,2,target-1,cpu,119611
2022-03-31T10:21:08.692Z,FULLY_SHARED_SIDECAR_1-1-1-4,3,target-1,cpu,147654
2022-03-31T10:21:18.693Z,FULLY_SHARED_SIDECAR_1-1-1-4,3,target-1,cpu,147654
2022-03-31T10:21:28.692Z,FULLY_SHARED_SIDECAR_1-1-1-4,3,target-1,cpu,147654
2022-03-31T10:21:38.692Z,FULLY_SHARED_SIDECAR_1-1-1-4,3,target-1,cpu,73244
2022-03-31T10:21:48.693Z,FULLY_SHARED_SIDECAR_1-1-1-4,3,target-1,cpu,67974
2022-03-31T10:21:58.693Z,FULLY_SHARED_SIDECAR_1-1-1-4,3,target-1,cpu,67974
2022-03-31T10:22:08.693Z,FULLY_SHARED_SIDECAR_1-1-1-4,3,target-1,cpu,92412
2022-03-31T10:22:18.693Z,FULLY_SHARED_SIDECAR_1-1-1-4,3,target-1,cpu,85794
2022-03-31T10:22:28.692Z,FULLY_SHARED_SIDECAR_1-1-1-4,3,target-1,cpu,85794
2022-03-31T10:22:38.693Z,FULLY_SHARED_SIDECAR_1-1-1-4,3,target-1,cpu,92142
2022-03-31T10:22:48.692Z,FULLY_SHARED_SIDECAR_1-1-1-4,3,target-1,cpu,92142
2022-03-31T10:22:58.693Z,FULLY_SHARED_SIDECAR_1-1-1-4,3,target-1,cpu,66160
2022-03-31T10:23:08.693Z,FULLY_SHARED_SIDECAR_1-1-1-4,3,target-1,cpu,66605
2022-03-31T10:23:18.693Z,FULLY_SHARED_SIDECAR_1-1-1-4,3,target-1,cpu,66605
2022-03-31T10:23:28.692Z,FULLY_SHARED_SIDECAR_1-1-1-4,3,target-1,cpu,79113
2022-03-31T10:23:38.693Z,FULLY_SHARED_SIDECAR_1-1-1-4,3,target-1,cpu,62845
2022-03-31T10:23:48.692Z,FULLY_SHARED_SIDECAR_1-1-1-4,3,target-1,cpu,62845
2022-03-31T10:23:58.692Z,FULLY_SHARED_SIDECAR_1-1-1-4,3,target-1,cpu,54032
2022-03-31T10:24:08.693Z,FULLY_SHARED_SIDECAR_1-1-1-4,3,target-1,cpu,125090
2022-03-31T10:24:18.692Z,FULLY_SHARED_SIDECAR_1-1-1-4,3,target-1,cpu,125090
2022-03-31T10:24:28.692Z,FULLY_SHARED_SIDECAR_1-1-1-4,3,target-1,cpu,65958
2022-03-31T10:24:38.693Z,FULLY_SHARED_SIDECAR_1-1-1-4,3,target-1,cpu,65958
2022-03-31T10:24:48.693Z,FULLY_SHARED_SIDECAR_1-1-1-4,3,target-1,cpu,98691
2022-03-31T10:24:58.693Z,FULLY_SHARED_SIDECAR_1-1-1-4,3,target-1,cpu,98691
2022-03-31T10:25:08.692Z,FULLY_SHARED_SIDECAR_1-1-1-4,3,target-1,cpu,86277
2022-03-31T10:25:18.692Z,FULLY_SHARED_SIDECAR_1-1-1-4,3,target-1,cpu,86277
2022-03-31T10:25:28.693Z,FULLY_SHARED_SIDECAR_1-1-1-4,3,target-1,cpu,68798
2022-03-31T10:25:38.693Z,FULLY_SHARED_SIDECAR_1-1-1-4,3,target-1,cpu,105490
2022-03-31T10:25:48.692Z,FULLY_SHARED_SIDECAR_1-1-1-4,3,target-1,cpu,105490
2022-03-31T10:25:58.692Z,FULLY_SHARED_SIDECAR_1-1-1-4,3,target-1,cpu,83161
2022-03-31T10:26:08.692Z,FULLY_SHARED_SIDECAR_1-1-1-4,3,target-1,cpu,72240
2022-03-31T10:26:18.692Z,FULLY_SHARED_SIDECAR_1-1-1-4,3,target-1,cpu,68961
2022-03-31T10:26:28.693Z,FULLY_SHARED_SIDECAR_1-1-1-4,3,target-1,cpu,68961
2022-03-31T10:26:38.692Z,FULLY_SHARED_SIDECAR_1-1-1-4,3,target-1,cpu,68961
2022-03-31T10:26:48.692Z,FULLY_SHARED_SIDECAR_1-1-1-4,3,target-1,cpu,90204
2022-03-31T10:26:58.692Z,FULLY_SHARED_SIDECAR_1-1-1-4,3,target-1,cpu,90204
2022-03-31T10:27:08.692Z,FULLY_SHARED_SIDECAR_1-1-1-4,3,target-1,cpu,73228
2022-03-31T10:27:18.692Z,FULLY_SHARED_SIDECAR_1-1-1-4,3,target-1,cpu,73228
2022-03-31T10:27:28.693Z,FULLY_SHARED_SIDECAR_1-1-1-4,3,target-1,cpu,99945
2022-03-31T10:27:38.692Z,FULLY_SHARED_SIDECAR_1-1-1-4,3,target-1,cpu,99945
2022-03-31T10:27:48.692Z,FULLY_SHARED_SIDECAR_1-1-1-4,3,target-1,cpu,70784
2022-03-31T10:27:58.692Z,FULLY_SHARED_SIDECAR_1-1-1-4,3,target-1,cpu,70784
2022-03-31T10:28:08.692Z,FULLY_SHARED_SIDECAR_1-1-1-4,3,target-1,cpu,73241
2022-03-31T10:28:18.692Z,FULLY_SHARED_SIDECAR_1-1-1-4,3,target-1,cpu,73241
2022-03-31T10:28:28.692Z,FULLY_SHARED_SIDECAR_1-1-1-4,3,target-1,cpu,98051
2022-03-31T10:28:38.693Z,FULLY_SHARED_SIDECAR_1-1-1-4,3,target-1,cpu,77925
2022-03-31T10:28:48.692Z,FULLY_SHARED_SIDECAR_1-1-1-4,3,target-1,cpu,77925
2022-03-31T10:28:58.692Z,FULLY_SHARED_SIDECAR_1-1-1-4,3,target-1,cpu,99878
2022-03-31T10:29:08.693Z,FULLY_SHARED_SIDECAR_1-1-1-4,3,target-1,cpu,99878
2022-03-31T10:29:18.692Z,FULLY_SHARED_SIDECAR_1-1-1-4,3,target-1,cpu,99878
2022-03-31T10:29:28.692Z,FULLY_SHARED_SIDECAR_1-1-1-4,3,target-1,cpu,124586
2022-03-31T10:29:38.692Z,FULLY_SHARED_SIDECAR_1-1-1-4,3,target-1,cpu,124586
2022-03-31T10:29:48.692Z,FULLY_SHARED_SIDECAR_1-1-1-4,3,target-1,cpu,68169
2022-03-31T10:29:58.693Z,FULLY_SHARED_SIDECAR_1-1-1-4,3,target-1,cpu,113750
2022-03-31T10:30:08.693Z,FULLY_SHARED_SIDECAR_1-1-1-4,3,target-1,cpu,113750
2022-03-31T10:30:18.693Z,FULLY_SHARED_SIDECAR_1-1-1-4,3,target-1,cpu,68678
2022-03-31T10:30:28.692Z,FULLY_SHARED_SIDECAR_1-1-1-4,3,target-1,cpu,68678
2022-03-31T10:30:38.692Z,FULLY_SHARED_SIDECAR_1-1-1-4,3,target-1,cpu,94112
2022-03-31T10:30:48.692Z,FULLY_SHARED_SIDECAR_1-1-1-4,3,target-1,cpu,80767
2022-03-31T10:30:58.692Z,FULLY_SHARED_SIDECAR_1-1-1-4,3,target-1,cpu,75815
2022-03-31T10:31:22.112Z,FULLY_SHARED_SIDECAR_1-1-1-8,1,target-1,cpu,96198
2022-03-31T10:31:32.112Z,FULLY_SHARED_SIDECAR_1-1-1-8,1,target-1,cpu,96198
2022-03-31T10:31:42.113Z,FULLY_SHARED_SIDECAR_1-1-1-8,1,target-1,cpu,173553
2022-03-31T10:31:52.112Z,FULLY_SHARED_SIDECAR_1-1-1-8,1,target-1,cpu,173553
2022-03-31T10:32:02.113Z,FULLY_SHARED_SIDECAR_1-1-1-8,1,target-1,cpu,140895
2022-03-31T10:32:12.112Z,FULLY_SHARED_SIDECAR_1-1-1-8,1,target-1,cpu,140895
2022-03-31T10:32:22.113Z,FULLY_SHARED_SIDECAR_1-1-1-8,1,target-1,cpu,189130
2022-03-31T10:32:32.113Z,FULLY_SHARED_SIDECAR_1-1-1-8,1,target-1,cpu,161873
2022-03-31T10:32:42.113Z,FULLY_SHARED_SIDECAR_1-1-1-8,1,target-1,cpu,161873
2022-03-31T10:32:52.113Z,FULLY_SHARED_SIDECAR_1-1-1-8,1,target-1,cpu,200069
2022-03-31T10:33:02.113Z,FULLY_SHARED_SIDECAR_1-1-1-8,1,target-1,cpu,200069
2022-03-31T10:33:12.113Z,FULLY_SHARED_SIDECAR_1-1-1-8,1,target-1,cpu,154923
2022-03-31T10:33:22.113Z,FULLY_SHARED_SIDECAR_1-1-1-8,1,target-1,cpu,154923
2022-03-31T10:33:32.112Z,FULLY_SHARED_SIDECAR_1-1-1-8,1,target-1,cpu,154923
2022-03-31T10:33:42.113Z,FULLY_SHARED_SIDECAR_1-1-1-8,1,target-1,cpu,199652
2022-03-31T10:33:52.113Z,FULLY_SHARED_SIDECAR_1-1-1-8,1,target-1,cpu,199652
2022-03-31T10:34:02.112Z,FULLY_SHARED_SIDECAR_1-1-1-8,1,target-1,cpu,199652
2022-03-31T10:34:12.113Z,FULLY_SHARED_SIDECAR_1-1-1-8,1,target-1,cpu,162669
2022-03-31T10:34:22.113Z,FULLY_SHARED_SIDECAR_1-1-1-8,1,target-1,cpu,162669
2022-03-31T10:34:32.113Z,FULLY_SHARED_SIDECAR_1-1-1-8,1,target-1,cpu,151476
2022-03-31T10:34:42.112Z,FULLY_SHARED_SIDECAR_1-1-1-8,1,target-1,cpu,151476
2022-03-31T10:34:52.112Z,FULLY_SHARED_SIDECAR_1-1-1-8,1,target-1,cpu,140449
2022-03-31T10:35:02.113Z,FULLY_SHARED_SIDECAR_1-1-1-8,1,target-1,cpu,140449
2022-03-31T10:35:12.113Z,FULLY_SHARED_SIDECAR_1-1-1-8,1,target-1,cpu,140449
2022-03-31T10:35:22.112Z,FULLY_SHARED_SIDECAR_1-1-1-8,1,target-1,cpu,170552
2022-03-31T10:35:32.112Z,FULLY_SHARED_SIDECAR_1-1-1-8,1,target-1,cpu,155998
2022-03-31T10:35:42.112Z,FULLY_SHARED_SIDECAR_1-1-1-8,1,target-1,cpu,220811
2022-03-31T10:35:52.113Z,FULLY_SHARED_SIDECAR_1-1-1-8,1,target-1,cpu,220811
2022-03-31T10:36:02.112Z,FULLY_SHARED_SIDECAR_1-1-1-8,1,target-1,cpu,220811
2022-03-31T10:36:12.113Z,FULLY_SHARED_SIDECAR_1-1-1-8,1,target-1,cpu,162143
2022-03-31T10:36:22.113Z,FULLY_SHARED_SIDECAR_1-1-1-8,1,target-1,cpu,162143
2022-03-31T10:36:32.113Z,FULLY_SHARED_SIDECAR_1-1-1-8,1,target-1,cpu,175566
2022-03-31T10:36:42.113Z,FULLY_SHARED_SIDECAR_1-1-1-8,1,target-1,cpu,175566
2022-03-31T10:36:52.112Z,FULLY_SHARED_SIDECAR_1-1-1-8,1,target-1,cpu,175566
2022-03-31T10:37:02.113Z,FULLY_SHARED_SIDECAR_1-1-1-8,1,target-1,cpu,192879
2022-03-31T10:37:12.113Z,FULLY_SHARED_SIDECAR_1-1-1-8,1,target-1,cpu,192879
2022-03-31T10:37:22.113Z,FULLY_SHARED_SIDECAR_1-1-1-8,1,target-1,cpu,158132
2022-03-31T10:37:32.112Z,FULLY_SHARED_SIDECAR_1-1-1-8,1,target-1,cpu,158132
2022-03-31T10:37:42.113Z,FULLY_SHARED_SIDECAR_1-1-1-8,1,target-1,cpu,163259
2022-03-31T10:37:52.113Z,FULLY_SHARED_SIDECAR_1-1-1-8,1,target-1,cpu,163259
2022-03-31T10:38:02.112Z,FULLY_SHARED_SIDECAR_1-1-1-8,1,target-1,cpu,170816
2022-03-31T10:38:12.112Z,FULLY_SHARED_SIDECAR_1-1-1-8,1,target-1,cpu,170816
2022-03-31T10:38:22.112Z,FULLY_SHARED_SIDECAR_1-1-1-8,1,target-1,cpu,180913
2022-03-31T10:38:32.113Z,FULLY_SHARED_SIDECAR_1-1-1-8,1,target-1,cpu,124440
2022-03-31T10:38:42.113Z,FULLY_SHARED_SIDECAR_1-1-1-8,1,target-1,cpu,124440
2022-03-31T10:38:52.113Z,FULLY_SHARED_SIDECAR_1-1-1-8,1,target-1,cpu,162452
2022-03-31T10:39:02.112Z,FULLY_SHARED_SIDECAR_1-1-1-8,1,target-1,cpu,162452
2022-03-31T10:39:12.113Z,FULLY_SHARED_SIDECAR_1-1-1-8,1,target-1,cpu,163396
2022-03-31T10:39:22.113Z,FULLY_SHARED_SIDECAR_1-1-1-8,1,target-1,cpu,180935
2022-03-31T10:39:32.113Z,FULLY_SHARED_SIDECAR_1-1-1-8,1,target-1,cpu,180935
2022-03-31T10:39:42.113Z,FULLY_SHARED_SIDECAR_1-1-1-8,1,target-1,cpu,131141
2022-03-31T10:39:52.113Z,FULLY_SHARED_SIDECAR_1-1-1-8,1,target-1,cpu,179796
2022-03-31T10:40:02.112Z,FULLY_SHARED_SIDECAR_1-1-1-8,1,target-1,cpu,179796
2022-03-31T10:40:12.113Z,FULLY_SHARED_SIDECAR_1-1-1-8,1,target-1,cpu,166649
2022-03-31T10:40:22.113Z,FULLY_SHARED_SIDECAR_1-1-1-8,1,target-1,cpu,166649
2022-03-31T10:40:32.112Z,FULLY_SHARED_SIDECAR_1-1-1-8,1,target-1,cpu,166649
2022-03-31T10:40:42.113Z,FULLY_SHARED_SIDECAR_1-1-1-8,1,target-1,cpu,178207
2022-03-31T10:40:52.113Z,FULLY_SHARED_SIDECAR_1-1-1-8,1,target-1,cpu,178207
2022-03-31T10:41:02.113Z,FULLY_SHARED_SIDECAR_1-1-1-8,1,target-1,cpu,178207
2022-03-31T10:41:12.113Z,FULLY_SHARED_SIDECAR_1-1-1-8,1,target-1,cpu,181630
2022-03-31T10:41:41.445Z,FULLY_SHARED_SIDECAR_1-1-1-8,2,target-1,cpu,145431
2022-03-31T10:41:51.446Z,FULLY_SHARED_SIDECAR_1-1-1-8,2,target-1,cpu,145431
2022-03-31T10:42:01.446Z,FULLY_SHARED_SIDECAR_1-1-1-8,2,target-1,cpu,139971
2022-03-31T10:42:11.445Z,FULLY_SHARED_SIDECAR_1-1-1-8,2,target-1,cpu,139971
2022-03-31T10:42:21.445Z,FULLY_SHARED_SIDECAR_1-1-1-8,2,target-1,cpu,172889
2022-03-31T10:42:31.446Z,FULLY_SHARED_SIDECAR_1-1-1-8,2,target-1,cpu,169854
2022-03-31T10:42:41.446Z,FULLY_SHARED_SIDECAR_1-1-1-8,2,target-1,cpu,169854
2022-03-31T10:42:51.446Z,FULLY_SHARED_SIDECAR_1-1-1-8,2,target-1,cpu,177802
2022-03-31T10:43:01.445Z,FULLY_SHARED_SIDECAR_1-1-1-8,2,target-1,cpu,177802
2022-03-31T10:43:11.446Z,FULLY_SHARED_SIDECAR_1-1-1-8,2,target-1,cpu,157394
2022-03-31T10:43:21.445Z,FULLY_SHARED_SIDECAR_1-1-1-8,2,target-1,cpu,157394
2022-03-31T10:43:31.445Z,FULLY_SHARED_SIDECAR_1-1-1-8,2,target-1,cpu,180916
2022-03-31T10:43:41.446Z,FULLY_SHARED_SIDECAR_1-1-1-8,2,target-1,cpu,155157
2022-03-31T10:43:51.445Z,FULLY_SHARED_SIDECAR_1-1-1-8,2,target-1,cpu,155157
2022-03-31T10:44:01.445Z,FULLY_SHARED_SIDECAR_1-1-1-8,2,target-1,cpu,172031
2022-03-31T10:44:11.446Z,FULLY_SHARED_SIDECAR_1-1-1-8,2,target-1,cpu,189503
2022-03-31T10:44:21.446Z,FULLY_SHARED_SIDECAR_1-1-1-8,2,target-1,cpu,189503
2022-03-31T10:44:31.445Z,FULLY_SHARED_SIDECAR_1-1-1-8,2,target-1,cpu,189503
2022-03-31T10:44:41.445Z,FULLY_SHARED_SIDECAR_1-1-1-8,2,target-1,cpu,144612
2022-03-31T10:44:51.445Z,FULLY_SHARED_SIDECAR_1-1-1-8,2,target-1,cpu,144612
2022-03-31T10:45:01.445Z,FULLY_SHARED_SIDECAR_1-1-1-8,2,target-1,cpu,144612
2022-03-31T10:45:11.445Z,FULLY_SHARED_SIDECAR_1-1-1-8,2,target-1,cpu,178815
2022-03-31T10:45:21.445Z,FULLY_SHARED_SIDECAR_1-1-1-8,2,target-1,cpu,178815
2022-03-31T10:45:31.446Z,FULLY_SHARED_SIDECAR_1-1-1-8,2,target-1,cpu,150672
2022-03-31T10:45:41.445Z,FULLY_SHARED_SIDECAR_1-1-1-8,2,target-1,cpu,150672
2022-03-31T10:45:51.446Z,FULLY_SHARED_SIDECAR_1-1-1-8,2,target-1,cpu,177884
2022-03-31T10:46:01.446Z,FULLY_SHARED_SIDECAR_1-1-1-8,2,target-1,cpu,177884
2022-03-31T10:46:11.446Z,FULLY_SHARED_SIDECAR_1-1-1-8,2,target-1,cpu,204753
2022-03-31T10:46:21.445Z,FULLY_SHARED_SIDECAR_1-1-1-8,2,target-1,cpu,204753
2022-03-31T10:46:31.446Z,FULLY_SHARED_SIDECAR_1-1-1-8,2,target-1,cpu,184272
2022-03-31T10:46:41.446Z,FULLY_SHARED_SIDECAR_1-1-1-8,2,target-1,cpu,184272
2022-03-31T10:46:51.445Z,FULLY_SHARED_SIDECAR_1-1-1-8,2,target-1,cpu,144744
2022-03-31T10:47:01.445Z,FULLY_SHARED_SIDECAR_1-1-1-8,2,target-1,cpu,155253
2022-03-31T10:47:11.445Z,FULLY_SHARED_SIDECAR_1-1-1-8,2,target-1,cpu,146360
2022-03-31T10:47:21.445Z,FULLY_SHARED_SIDECAR_1-1-1-8,2,target-1,cpu,187779
2022-03-31T10:47:31.445Z,FULLY_SHARED_SIDECAR_1-1-1-8,2,target-1,cpu,187779
2022-03-31T10:47:41.446Z,FULLY_SHARED_SIDECAR_1-1-1-8,2,target-1,cpu,139575
2022-03-31T10:47:51.445Z,FULLY_SHARED_SIDECAR_1-1-1-8,2,target-1,cpu,139575
2022-03-31T10:48:01.446Z,FULLY_SHARED_SIDECAR_1-1-1-8,2,target-1,cpu,163009
2022-03-31T10:48:11.446Z,FULLY_SHARED_SIDECAR_1-1-1-8,2,target-1,cpu,163009
2022-03-31T10:48:21.445Z,FULLY_SHARED_SIDECAR_1-1-1-8,2,target-1,cpu,142775
2022-03-31T10:48:31.446Z,FULLY_SHARED_SIDECAR_1-1-1-8,2,target-1,cpu,142775
2022-03-31T10:48:41.445Z,FULLY_SHARED_SIDECAR_1-1-1-8,2,target-1,cpu,142775
2022-03-31T10:48:51.446Z,FULLY_SHARED_SIDECAR_1-1-1-8,2,target-1,cpu,161225
2022-03-31T10:49:01.446Z,FULLY_SHARED_SIDECAR_1-1-1-8,2,target-1,cpu,161225
2022-03-31T10:49:11.446Z,FULLY_SHARED_SIDECAR_1-1-1-8,2,target-1,cpu,171418
2022-03-31T10:49:21.446Z,FULLY_SHARED_SIDECAR_1-1-1-8,2,target-1,cpu,171418
2022-03-31T10:49:31.445Z,FULLY_SHARED_SIDECAR_1-1-1-8,2,target-1,cpu,174651
2022-03-31T10:49:41.445Z,FULLY_SHARED_SIDECAR_1-1-1-8,2,target-1,cpu,179785
2022-03-31T10:49:51.446Z,FULLY_SHARED_SIDECAR_1-1-1-8,2,target-1,cpu,179785
2022-03-31T10:50:01.445Z,FULLY_SHARED_SIDECAR_1-1-1-8,2,target-1,cpu,179785
2022-03-31T10:50:11.445Z,FULLY_SHARED_SIDECAR_1-1-1-8,2,target-1,cpu,184189
2022-03-31T10:50:21.446Z,FULLY_SHARED_SIDECAR_1-1-1-8,2,target-1,cpu,172485
2022-03-31T10:50:31.446Z,FULLY_SHARED_SIDECAR_1-1-1-8,2,target-1,cpu,172485
2022-03-31T10:50:41.446Z,FULLY_SHARED_SIDECAR_1-1-1-8,2,target-1,cpu,172485
2022-03-31T10:50:51.446Z,FULLY_SHARED_SIDECAR_1-1-1-8,2,target-1,cpu,175256
2022-03-31T10:51:01.446Z,FULLY_SHARED_SIDECAR_1-1-1-8,2,target-1,cpu,175256
2022-03-31T10:51:11.446Z,FULLY_SHARED_SIDECAR_1-1-1-8,2,target-1,cpu,194807
2022-03-31T10:51:21.446Z,FULLY_SHARED_SIDECAR_1-1-1-8,2,target-1,cpu,194807
2022-03-31T10:51:31.445Z,FULLY_SHARED_SIDECAR_1-1-1-8,2,target-1,cpu,194807
2022-03-31T10:52:00.703Z,FULLY_SHARED_SIDECAR_1-1-1-8,3,target-1,cpu,185997
2022-03-31T10:52:10.703Z,FULLY_SHARED_SIDECAR_1-1-1-8,3,target-1,cpu,129476
2022-03-31T10:52:20.703Z,FULLY_SHARED_SIDECAR_1-1-1-8,3,target-1,cpu,238978
2022-03-31T10:52:30.704Z,FULLY_SHARED_SIDECAR_1-1-1-8,3,target-1,cpu,238978
2022-03-31T10:52:40.703Z,FULLY_SHARED_SIDECAR_1-1-1-8,3,target-1,cpu,238978
2022-03-31T10:52:50.703Z,FULLY_SHARED_SIDECAR_1-1-1-8,3,target-1,cpu,169317
2022-03-31T10:53:00.704Z,FULLY_SHARED_SIDECAR_1-1-1-8,3,target-1,cpu,169317
2022-03-31T10:53:10.704Z,FULLY_SHARED_SIDECAR_1-1-1-8,3,target-1,cpu,169317
2022-03-31T10:53:20.703Z,FULLY_SHARED_SIDECAR_1-1-1-8,3,target-1,cpu,197430
2022-03-31T10:53:30.703Z,FULLY_SHARED_SIDECAR_1-1-1-8,3,target-1,cpu,197430
2022-03-31T10:53:40.704Z,FULLY_SHARED_SIDECAR_1-1-1-8,3,target-1,cpu,180321
2022-03-31T10:53:50.703Z,FULLY_SHARED_SIDECAR_1-1-1-8,3,target-1,cpu,180321
2022-03-31T10:54:00.703Z,FULLY_SHARED_SIDECAR_1-1-1-8,3,target-1,cpu,153453
2022-03-31T10:54:10.703Z,FULLY_SHARED_SIDECAR_1-1-1-8,3,target-1,cpu,178696
2022-03-31T10:54:20.703Z,FULLY_SHARED_SIDECAR_1-1-1-8,3,target-1,cpu,178696
2022-03-31T10:54:30.703Z,FULLY_SHARED_SIDECAR_1-1-1-8,3,target-1,cpu,205837
2022-03-31T10:54:40.703Z,FULLY_SHARED_SIDECAR_1-1-1-8,3,target-1,cpu,172822
2022-03-31T10:54:50.703Z,FULLY_SHARED_SIDECAR_1-1-1-8,3,target-1,cpu,163747
2022-03-31T10:55:00.703Z,FULLY_SHARED_SIDECAR_1-1-1-8,3,target-1,cpu,163747
2022-03-31T10:55:10.703Z,FULLY_SHARED_SIDECAR_1-1-1-8,3,target-1,cpu,210497
2022-03-31T10:55:20.703Z,FULLY_SHARED_SIDECAR_1-1-1-8,3,target-1,cpu,210497
2022-03-31T10:55:30.704Z,FULLY_SHARED_SIDECAR_1-1-1-8,3,target-1,cpu,174520
2022-03-31T10:55:40.703Z,FULLY_SHARED_SIDECAR_1-1-1-8,3,target-1,cpu,174520
2022-03-31T10:55:50.704Z,FULLY_SHARED_SIDECAR_1-1-1-8,3,target-1,cpu,172672
2022-03-31T10:56:00.703Z,FULLY_SHARED_SIDECAR_1-1-1-8,3,target-1,cpu,172672
2022-03-31T10:56:10.703Z,FULLY_SHARED_SIDECAR_1-1-1-8,3,target-1,cpu,201933
2022-03-31T10:56:20.704Z,FULLY_SHARED_SIDECAR_1-1-1-8,3,target-1,cpu,137315
2022-03-31T10:56:30.703Z,FULLY_SHARED_SIDECAR_1-1-1-8,3,target-1,cpu,137315
2022-03-31T10:56:40.703Z,FULLY_SHARED_SIDECAR_1-1-1-8,3,target-1,cpu,175159
2022-03-31T10:56:50.704Z,FULLY_SHARED_SIDECAR_1-1-1-8,3,target-1,cpu,175159
2022-03-31T10:57:00.704Z,FULLY_SHARED_SIDECAR_1-1-1-8,3,target-1,cpu,175159
2022-03-31T10:57:10.703Z,FULLY_SHARED_SIDECAR_1-1-1-8,3,target-1,cpu,151361
2022-03-31T10:57:20.703Z,FULLY_SHARED_SIDECAR_1-1-1-8,3,target-1,cpu,151361
2022-03-31T10:57:30.704Z,FULLY_SHARED_SIDECAR_1-1-1-8,3,target-1,cpu,162656
2022-03-31T10:57:40.704Z,FULLY_SHARED_SIDECAR_1-1-1-8,3,target-1,cpu,162656
2022-03-31T10:57:50.703Z,FULLY_SHARED_SIDECAR_1-1-1-8,3,target-1,cpu,195760
2022-03-31T10:58:00.704Z,FULLY_SHARED_SIDECAR_1-1-1-8,3,target-1,cpu,144667
2022-03-31T10:58:10.704Z,FULLY_SHARED_SIDECAR_1-1-1-8,3,target-1,cpu,144667
2022-03-31T10:58:20.704Z,FULLY_SHARED_SIDECAR_1-1-1-8,3,target-1,cpu,144667
2022-03-31T10:58:30.704Z,FULLY_SHARED_SIDECAR_1-1-1-8,3,target-1,cpu,194718
2022-03-31T10:58:40.704Z,FULLY_SHARED_SIDECAR_1-1-1-8,3,target-1,cpu,196641
2022-03-31T10:58:50.703Z,FULLY_SHARED_SIDECAR_1-1-1-8,3,target-1,cpu,196641
2022-03-31T10:59:00.703Z,FULLY_SHARED_SIDECAR_1-1-1-8,3,target-1,cpu,191358
2022-03-31T10:59:10.703Z,FULLY_SHARED_SIDECAR_1-1-1-8,3,target-1,cpu,155108
2022-03-31T10:59:20.703Z,FULLY_SHARED_SIDECAR_1-1-1-8,3,target-1,cpu,155108
2022-03-31T10:59:30.703Z,FULLY_SHARED_SIDECAR_1-1-1-8,3,target-1,cpu,167990
2022-03-31T10:59:40.703Z,FULLY_SHARED_SIDECAR_1-1-1-8,3,target-1,cpu,189517
2022-03-31T10:59:50.703Z,FULLY_SHARED_SIDECAR_1-1-1-8,3,target-1,cpu,189517
2022-03-31T11:00:00.712Z,FULLY_SHARED_SIDECAR_1-1-1-8,3,target-1,cpu,172822
2022-03-31T11:00:10.703Z,FULLY_SHARED_SIDECAR_1-1-1-8,3,target-1,cpu,172822
2022-03-31T11:00:20.703Z,FULLY_SHARED_SIDECAR_1-1-1-8,3,target-1,cpu,213444
2022-03-31T11:00:30.703Z,FULLY_SHARED_SIDECAR_1-1-1-8,3,target-1,cpu,137281
2022-03-31T11:00:40.704Z,FULLY_SHARED_SIDECAR_1-1-1-8,3,target-1,cpu,195679
2022-03-31T11:00:50.704Z,FULLY_SHARED_SIDECAR_1-1-1-8,3,target-1,cpu,195679
2022-03-31T11:01:00.704Z,FULLY_SHARED_SIDECAR_1-1-1-8,3,target-1,cpu,177466
2022-03-31T11:01:10.703Z,FULLY_SHARED_SIDECAR_1-1-1-8,3,target-1,cpu,177466
2022-03-31T11:01:20.703Z,FULLY_SHARED_SIDECAR_1-1-1-8,3,target-1,cpu,163718
2022-03-31T11:01:30.703Z,FULLY_SHARED_SIDECAR_1-1-1-8,3,target-1,cpu,176097
2022-03-31T11:01:40.704Z,FULLY_SHARED_SIDECAR_1-1-1-8,3,target-1,cpu,134391
2022-03-31T11:01:50.703Z,FULLY_SHARED_SIDECAR_1-1-1-8,3,target-1,cpu,134391
2022-03-31T11:02:29.816Z,FULLY_SHARED_SIDECAR_1-1-1-16,1,target-1,cpu,150764
2022-03-31T11:02:39.817Z,FULLY_SHARED_SIDECAR_1-1-1-16,1,target-1,cpu,341636
2022-03-31T11:02:49.816Z,FULLY_SHARED_SIDECAR_1-1-1-16,1,target-1,cpu,341636
2022-03-31T11:02:59.816Z,FULLY_SHARED_SIDECAR_1-1-1-16,1,target-1,cpu,359102
2022-03-31T11:03:09.816Z,FULLY_SHARED_SIDECAR_1-1-1-16,1,target-1,cpu,359102
2022-03-31T11:03:19.817Z,FULLY_SHARED_SIDECAR_1-1-1-16,1,target-1,cpu,368161
2022-03-31T11:03:29.817Z,FULLY_SHARED_SIDECAR_1-1-1-16,1,target-1,cpu,368161
2022-03-31T11:03:39.816Z,FULLY_SHARED_SIDECAR_1-1-1-16,1,target-1,cpu,311683
2022-03-31T11:03:49.817Z,FULLY_SHARED_SIDECAR_1-1-1-16,1,target-1,cpu,311683
2022-03-31T11:03:59.817Z,FULLY_SHARED_SIDECAR_1-1-1-16,1,target-1,cpu,299767
2022-03-31T11:04:09.816Z,FULLY_SHARED_SIDECAR_1-1-1-16,1,target-1,cpu,299767
2022-03-31T11:04:19.817Z,FULLY_SHARED_SIDECAR_1-1-1-16,1,target-1,cpu,324196
2022-03-31T11:04:29.816Z,FULLY_SHARED_SIDECAR_1-1-1-16,1,target-1,cpu,324196
2022-03-31T11:04:39.816Z,FULLY_SHARED_SIDECAR_1-1-1-16,1,target-1,cpu,345484
2022-03-31T11:04:49.817Z,FULLY_SHARED_SIDECAR_1-1-1-16,1,target-1,cpu,345484
2022-03-31T11:04:59.816Z,FULLY_SHARED_SIDECAR_1-1-1-16,1,target-1,cpu,345484
2022-03-31T11:05:09.816Z,FULLY_SHARED_SIDECAR_1-1-1-16,1,target-1,cpu,282989
2022-03-31T11:05:19.817Z,FULLY_SHARED_SIDECAR_1-1-1-16,1,target-1,cpu,282989
2022-03-31T11:05:29.816Z,FULLY_SHARED_SIDECAR_1-1-1-16,1,target-1,cpu,282989
2022-03-31T11:05:39.816Z,FULLY_SHARED_SIDECAR_1-1-1-16,1,target-1,cpu,332477
2022-03-31T11:05:49.817Z,FULLY_SHARED_SIDECAR_1-1-1-16,1,target-1,cpu,338622
2022-03-31T11:05:59.817Z,FULLY_SHARED_SIDECAR_1-1-1-16,1,target-1,cpu,338622
2022-03-31T11:06:09.816Z,FULLY_SHARED_SIDECAR_1-1-1-16,1,target-1,cpu,314674
2022-03-31T11:06:19.816Z,FULLY_SHARED_SIDECAR_1-1-1-16,1,target-1,cpu,314674
2022-03-31T11:06:29.816Z,FULLY_SHARED_SIDECAR_1-1-1-16,1,target-1,cpu,268774
2022-03-31T11:06:39.816Z,FULLY_SHARED_SIDECAR_1-1-1-16,1,target-1,cpu,268774
2022-03-31T11:06:49.816Z,FULLY_SHARED_SIDECAR_1-1-1-16,1,target-1,cpu,336627
2022-03-31T11:06:59.816Z,FULLY_SHARED_SIDECAR_1-1-1-16,1,target-1,cpu,336627
2022-03-31T11:07:09.817Z,FULLY_SHARED_SIDECAR_1-1-1-16,1,target-1,cpu,323452
2022-03-31T11:07:19.816Z,FULLY_SHARED_SIDECAR_1-1-1-16,1,target-1,cpu,323452
2022-03-31T11:07:29.816Z,FULLY_SHARED_SIDECAR_1-1-1-16,1,target-1,cpu,310102
2022-03-31T11:07:39.816Z,FULLY_SHARED_SIDECAR_1-1-1-16,1,target-1,cpu,328838
2022-03-31T11:07:49.817Z,FULLY_SHARED_SIDECAR_1-1-1-16,1,target-1,cpu,328838
2022-03-31T11:07:59.817Z,FULLY_SHARED_SIDECAR_1-1-1-16,1,target-1,cpu,324051
2022-03-31T11:08:09.817Z,FULLY_SHARED_SIDECAR_1-1-1-16,1,target-1,cpu,324051
2022-03-31T11:08:19.817Z,FULLY_SHARED_SIDECAR_1-1-1-16,1,target-1,cpu,327972
2022-03-31T11:08:29.816Z,FULLY_SHARED_SIDECAR_1-1-1-16,1,target-1,cpu,327972
2022-03-31T11:08:39.816Z,FULLY_SHARED_SIDECAR_1-1-1-16,1,target-1,cpu,355346
2022-03-31T11:08:49.816Z,FULLY_SHARED_SIDECAR_1-1-1-16,1,target-1,cpu,355346
2022-03-31T11:08:59.816Z,FULLY_SHARED_SIDECAR_1-1-1-16,1,target-1,cpu,311147
2022-03-31T11:09:09.816Z,FULLY_SHARED_SIDECAR_1-1-1-16,1,target-1,cpu,362971
2022-03-31T11:09:19.816Z,FULLY_SHARED_SIDECAR_1-1-1-16,1,target-1,cpu,362971
2022-03-31T11:09:29.816Z,FULLY_SHARED_SIDECAR_1-1-1-16,1,target-1,cpu,283656
2022-03-31T11:09:39.816Z,FULLY_SHARED_SIDECAR_1-1-1-16,1,target-1,cpu,283656
2022-03-31T11:09:49.816Z,FULLY_SHARED_SIDECAR_1-1-1-16,1,target-1,cpu,348044
2022-03-31T11:09:59.816Z,FULLY_SHARED_SIDECAR_1-1-1-16,1,target-1,cpu,341263
2022-03-31T11:10:09.817Z,FULLY_SHARED_SIDECAR_1-1-1-16,1,target-1,cpu,301890
2022-03-31T11:10:19.816Z,FULLY_SHARED_SIDECAR_1-1-1-16,1,target-1,cpu,301890
2022-03-31T11:10:29.816Z,FULLY_SHARED_SIDECAR_1-1-1-16,1,target-1,cpu,322736
2022-03-31T11:10:39.817Z,FULLY_SHARED_SIDECAR_1-1-1-16,1,target-1,cpu,427513
2022-03-31T11:10:49.816Z,FULLY_SHARED_SIDECAR_1-1-1-16,1,target-1,cpu,427513
2022-03-31T11:10:59.816Z,FULLY_SHARED_SIDECAR_1-1-1-16,1,target-1,cpu,437810
2022-03-31T11:11:09.817Z,FULLY_SHARED_SIDECAR_1-1-1-16,1,target-1,cpu,352106
2022-03-31T11:11:19.816Z,FULLY_SHARED_SIDECAR_1-1-1-16,1,target-1,cpu,352106
2022-03-31T11:11:29.816Z,FULLY_SHARED_SIDECAR_1-1-1-16,1,target-1,cpu,316150
2022-03-31T11:11:39.816Z,FULLY_SHARED_SIDECAR_1-1-1-16,1,target-1,cpu,316150
2022-03-31T11:11:49.816Z,FULLY_SHARED_SIDECAR_1-1-1-16,1,target-1,cpu,316150
2022-03-31T11:11:59.816Z,FULLY_SHARED_SIDECAR_1-1-1-16,1,target-1,cpu,300843
2022-03-31T11:12:09.817Z,FULLY_SHARED_SIDECAR_1-1-1-16,1,target-1,cpu,300843
2022-03-31T11:12:19.816Z,FULLY_SHARED_SIDECAR_1-1-1-16,1,target-1,cpu,300843
2022-03-31T11:13:03.302Z,FULLY_SHARED_SIDECAR_1-1-1-16,2,target-1,cpu,378338
2022-03-31T11:13:13.302Z,FULLY_SHARED_SIDECAR_1-1-1-16,2,target-1,cpu,187355
2022-03-31T11:13:23.301Z,FULLY_SHARED_SIDECAR_1-1-1-16,2,target-1,cpu,321024
2022-03-31T11:13:33.302Z,FULLY_SHARED_SIDECAR_1-1-1-16,2,target-1,cpu,312607
2022-03-31T11:13:43.302Z,FULLY_SHARED_SIDECAR_1-1-1-16,2,target-1,cpu,333056
2022-03-31T11:13:53.303Z,FULLY_SHARED_SIDECAR_1-1-1-16,2,target-1,cpu,333056
2022-03-31T11:14:03.302Z,FULLY_SHARED_SIDECAR_1-1-1-16,2,target-1,cpu,333056
2022-03-31T11:14:13.302Z,FULLY_SHARED_SIDECAR_1-1-1-16,2,target-1,cpu,317337
2022-03-31T11:14:23.302Z,FULLY_SHARED_SIDECAR_1-1-1-16,2,target-1,cpu,317337
2022-03-31T11:14:33.301Z,FULLY_SHARED_SIDECAR_1-1-1-16,2,target-1,cpu,348569
2022-03-31T11:14:43.302Z,FULLY_SHARED_SIDECAR_1-1-1-16,2,target-1,cpu,348569
2022-03-31T11:14:53.303Z,FULLY_SHARED_SIDECAR_1-1-1-16,2,target-1,cpu,320681
2022-03-31T11:15:03.302Z,FULLY_SHARED_SIDECAR_1-1-1-16,2,target-1,cpu,320681
2022-03-31T11:15:13.302Z,FULLY_SHARED_SIDECAR_1-1-1-16,2,target-1,cpu,292497
2022-03-31T11:15:23.302Z,FULLY_SHARED_SIDECAR_1-1-1-16,2,target-1,cpu,351101
2022-03-31T11:15:33.302Z,FULLY_SHARED_SIDECAR_1-1-1-16,2,target-1,cpu,351101
2022-03-31T11:15:43.302Z,FULLY_SHARED_SIDECAR_1-1-1-16,2,target-1,cpu,316989
2022-03-31T11:15:53.302Z,FULLY_SHARED_SIDECAR_1-1-1-16,2,target-1,cpu,304131
2022-03-31T11:16:03.302Z,FULLY_SHARED_SIDECAR_1-1-1-16,2,target-1,cpu,304131
2022-03-31T11:16:13.302Z,FULLY_SHARED_SIDECAR_1-1-1-16,2,target-1,cpu,304131
2022-03-31T11:16:23.302Z,FULLY_SHARED_SIDECAR_1-1-1-16,2,target-1,cpu,354356
2022-03-31T11:16:33.302Z,FULLY_SHARED_SIDECAR_1-1-1-16,2,target-1,cpu,354356
2022-03-31T11:16:43.301Z,FULLY_SHARED_SIDECAR_1-1-1-16,2,target-1,cpu,320750
2022-03-31T11:16:53.302Z,FULLY_SHARED_SIDECAR_1-1-1-16,2,target-1,cpu,333138
2022-03-31T11:17:03.303Z,FULLY_SHARED_SIDECAR_1-1-1-16,2,target-1,cpu,318301
2022-03-31T11:17:13.302Z,FULLY_SHARED_SIDECAR_1-1-1-16,2,target-1,cpu,318301
2022-03-31T11:17:23.302Z,FULLY_SHARED_SIDECAR_1-1-1-16,2,target-1,cpu,291924
2022-03-31T11:17:33.302Z,FULLY_SHARED_SIDECAR_1-1-1-16,2,target-1,cpu,291924
2022-03-31T11:17:43.302Z,FULLY_SHARED_SIDECAR_1-1-1-16,2,target-1,cpu,478023
2022-03-31T11:17:53.302Z,FULLY_SHARED_SIDECAR_1-1-1-16,2,target-1,cpu,321772
2022-03-31T11:18:03.302Z,FULLY_SHARED_SIDECAR_1-1-1-16,2,target-1,cpu,317629
2022-03-31T11:18:13.302Z,FULLY_SHARED_SIDECAR_1-1-1-16,2,target-1,cpu,313795
2022-03-31T11:18:23.302Z,FULLY_SHARED_SIDECAR_1-1-1-16,2,target-1,cpu,313795
2022-03-31T11:18:33.302Z,FULLY_SHARED_SIDECAR_1-1-1-16,2,target-1,cpu,313795
2022-03-31T11:18:43.302Z,FULLY_SHARED_SIDECAR_1-1-1-16,2,target-1,cpu,336687
2022-03-31T11:18:53.302Z,FULLY_SHARED_SIDECAR_1-1-1-16,2,target-1,cpu,325704
2022-03-31T11:19:03.302Z,FULLY_SHARED_SIDECAR_1-1-1-16,2,target-1,cpu,325704
2022-03-31T11:19:13.302Z,FULLY_SHARED_SIDECAR_1-1-1-16,2,target-1,cpu,325704
2022-03-31T11:19:23.302Z,FULLY_SHARED_SIDECAR_1-1-1-16,2,target-1,cpu,306391
2022-03-31T11:19:33.302Z,FULLY_SHARED_SIDECAR_1-1-1-16,2,target-1,cpu,317607
2022-03-31T11:19:43.302Z,FULLY_SHARED_SIDECAR_1-1-1-16,2,target-1,cpu,317607
2022-03-31T11:19:53.302Z,FULLY_SHARED_SIDECAR_1-1-1-16,2,target-1,cpu,317607
2022-03-31T11:20:03.302Z,FULLY_SHARED_SIDECAR_1-1-1-16,2,target-1,cpu,300507
2022-03-31T11:20:13.302Z,FULLY_SHARED_SIDECAR_1-1-1-16,2,target-1,cpu,375494
2022-03-31T11:20:23.303Z,FULLY_SHARED_SIDECAR_1-1-1-16,2,target-1,cpu,295497
2022-03-31T11:20:33.302Z,FULLY_SHARED_SIDECAR_1-1-1-16,2,target-1,cpu,295497
2022-03-31T11:20:43.302Z,FULLY_SHARED_SIDECAR_1-1-1-16,2,target-1,cpu,333203
2022-03-31T11:20:53.302Z,FULLY_SHARED_SIDECAR_1-1-1-16,2,target-1,cpu,283283
2022-03-31T11:21:03.302Z,FULLY_SHARED_SIDECAR_1-1-1-16,2,target-1,cpu,283283
2022-03-31T11:21:13.302Z,FULLY_SHARED_SIDECAR_1-1-1-16,2,target-1,cpu,296573
2022-03-31T11:21:23.303Z,FULLY_SHARED_SIDECAR_1-1-1-16,2,target-1,cpu,332958
2022-03-31T11:21:33.302Z,FULLY_SHARED_SIDECAR_1-1-1-16,2,target-1,cpu,332958
2022-03-31T11:21:43.301Z,FULLY_SHARED_SIDECAR_1-1-1-16,2,target-1,cpu,323553
2022-03-31T11:21:53.302Z,FULLY_SHARED_SIDECAR_1-1-1-16,2,target-1,cpu,314432
2022-03-31T11:22:03.303Z,FULLY_SHARED_SIDECAR_1-1-1-16,2,target-1,cpu,350192
2022-03-31T11:22:13.302Z,FULLY_SHARED_SIDECAR_1-1-1-16,2,target-1,cpu,350192
2022-03-31T11:22:23.302Z,FULLY_SHARED_SIDECAR_1-1-1-16,2,target-1,cpu,350192
2022-03-31T11:22:33.301Z,FULLY_SHARED_SIDECAR_1-1-1-16,2,target-1,cpu,327178
2022-03-31T11:22:43.302Z,FULLY_SHARED_SIDECAR_1-1-1-16,2,target-1,cpu,336396
2022-03-31T11:22:53.302Z,FULLY_SHARED_SIDECAR_1-1-1-16,2,target-1,cpu,310680
2022-03-31T11:23:37.036Z,FULLY_SHARED_SIDECAR_1-1-1-16,3,target-1,cpu,155358
2022-03-31T11:23:47.036Z,FULLY_SHARED_SIDECAR_1-1-1-16,3,target-1,cpu,332814
2022-03-31T11:23:57.036Z,FULLY_SHARED_SIDECAR_1-1-1-16,3,target-1,cpu,332814
2022-03-31T11:24:07.037Z,FULLY_SHARED_SIDECAR_1-1-1-16,3,target-1,cpu,391821
2022-03-31T11:24:17.036Z,FULLY_SHARED_SIDECAR_1-1-1-16,3,target-1,cpu,391821
2022-03-31T11:24:27.036Z,FULLY_SHARED_SIDECAR_1-1-1-16,3,target-1,cpu,344276
2022-03-31T11:24:37.037Z,FULLY_SHARED_SIDECAR_1-1-1-16,3,target-1,cpu,289901
2022-03-31T11:24:47.036Z,FULLY_SHARED_SIDECAR_1-1-1-16,3,target-1,cpu,289901
2022-03-31T11:24:57.036Z,FULLY_SHARED_SIDECAR_1-1-1-16,3,target-1,cpu,319595
2022-03-31T11:25:07.036Z,FULLY_SHARED_SIDECAR_1-1-1-16,3,target-1,cpu,319595
2022-03-31T11:25:17.037Z,FULLY_SHARED_SIDECAR_1-1-1-16,3,target-1,cpu,322422
2022-03-31T11:25:27.036Z,FULLY_SHARED_SIDECAR_1-1-1-16,3,target-1,cpu,322422
2022-03-31T11:25:37.037Z,FULLY_SHARED_SIDECAR_1-1-1-16,3,target-1,cpu,340343
2022-03-31T11:25:47.036Z,FULLY_SHARED_SIDECAR_1-1-1-16,3,target-1,cpu,340343
2022-03-31T11:25:57.037Z,FULLY_SHARED_SIDECAR_1-1-1-16,3,target-1,cpu,338546
2022-03-31T11:26:07.037Z,FULLY_SHARED_SIDECAR_1-1-1-16,3,target-1,cpu,338546
2022-03-31T11:26:17.036Z,FULLY_SHARED_SIDECAR_1-1-1-16,3,target-1,cpu,318787
2022-03-31T11:26:27.037Z,FULLY_SHARED_SIDECAR_1-1-1-16,3,target-1,cpu,318787
2022-03-31T11:26:37.036Z,FULLY_SHARED_SIDECAR_1-1-1-16,3,target-1,cpu,318787
2022-03-31T11:26:47.037Z,FULLY_SHARED_SIDECAR_1-1-1-16,3,target-1,cpu,317360
2022-03-31T11:26:57.037Z,FULLY_SHARED_SIDECAR_1-1-1-16,3,target-1,cpu,317360
2022-03-31T11:27:07.036Z,FULLY_SHARED_SIDECAR_1-1-1-16,3,target-1,cpu,317360
2022-03-31T11:27:17.036Z,FULLY_SHARED_SIDECAR_1-1-1-16,3,target-1,cpu,325527
2022-03-31T11:27:27.037Z,FULLY_SHARED_SIDECAR_1-1-1-16,3,target-1,cpu,335479
2022-03-31T11:27:37.036Z,FULLY_SHARED_SIDECAR_1-1-1-16,3,target-1,cpu,335479
2022-03-31T11:27:47.036Z,FULLY_SHARED_SIDECAR_1-1-1-16,3,target-1,cpu,371298
2022-03-31T11:27:57.036Z,FULLY_SHARED_SIDECAR_1-1-1-16,3,target-1,cpu,357261
2022-03-31T11:28:07.037Z,FULLY_SHARED_SIDECAR_1-1-1-16,3,target-1,cpu,301321
2022-03-31T11:28:17.036Z,FULLY_SHARED_SIDECAR_1-1-1-16,3,target-1,cpu,301321
2022-03-31T11:28:27.036Z,FULLY_SHARED_SIDECAR_1-1-1-16,3,target-1,cpu,317442
2022-03-31T11:28:37.037Z,FULLY_SHARED_SIDECAR_1-1-1-16,3,target-1,cpu,355609
2022-03-31T11:28:47.036Z,FULLY_SHARED_SIDECAR_1-1-1-16,3,target-1,cpu,355609
2022-03-31T11:28:57.036Z,FULLY_SHARED_SIDECAR_1-1-1-16,3,target-1,cpu,302596
2022-03-31T11:29:07.036Z,FULLY_SHARED_SIDECAR_1-1-1-16,3,target-1,cpu,337246
2022-03-31T11:29:17.037Z,FULLY_SHARED_SIDECAR_1-1-1-16,3,target-1,cpu,311842
2022-03-31T11:29:27.036Z,FULLY_SHARED_SIDECAR_1-1-1-16,3,target-1,cpu,311842
2022-03-31T11:29:37.037Z,FULLY_SHARED_SIDECAR_1-1-1-16,3,target-1,cpu,317867
2022-03-31T11:29:47.037Z,FULLY_SHARED_SIDECAR_1-1-1-16,3,target-1,cpu,317867
2022-03-31T11:29:57.036Z,FULLY_SHARED_SIDECAR_1-1-1-16,3,target-1,cpu,317867
2022-03-31T11:30:07.036Z,FULLY_SHARED_SIDECAR_1-1-1-16,3,target-1,cpu,333426
2022-03-31T11:30:17.037Z,FULLY_SHARED_SIDECAR_1-1-1-16,3,target-1,cpu,350313
2022-03-31T11:30:27.037Z,FULLY_SHARED_SIDECAR_1-1-1-16,3,target-1,cpu,350313
2022-03-31T11:30:37.037Z,FULLY_SHARED_SIDECAR_1-1-1-16,3,target-1,cpu,297480
2022-03-31T11:30:47.036Z,FULLY_SHARED_SIDECAR_1-1-1-16,3,target-1,cpu,297480
2022-03-31T11:30:57.036Z,FULLY_SHARED_SIDECAR_1-1-1-16,3,target-1,cpu,272478
2022-03-31T11:31:07.036Z,FULLY_SHARED_SIDECAR_1-1-1-16,3,target-1,cpu,338599
2022-03-31T11:31:17.037Z,FULLY_SHARED_SIDECAR_1-1-1-16,3,target-1,cpu,331973
2022-03-31T11:31:27.036Z,FULLY_SHARED_SIDECAR_1-1-1-16,3,target-1,cpu,331973
2022-03-31T11:31:37.037Z,FULLY_SHARED_SIDECAR_1-1-1-16,3,target-1,cpu,266432
2022-03-31T11:31:47.037Z,FULLY_SHARED_SIDECAR_1-1-1-16,3,target-1,cpu,266432
2022-03-31T11:31:57.037Z,FULLY_SHARED_SIDECAR_1-1-1-16,3,target-1,cpu,288923
2022-03-31T11:32:07.037Z,FULLY_SHARED_SIDECAR_1-1-1-16,3,target-1,cpu,288923
2022-03-31T11:32:17.036Z,FULLY_SHARED_SIDECAR_1-1-1-16,3,target-1,cpu,339404
2022-03-31T11:32:27.036Z,FULLY_SHARED_SIDECAR_1-1-1-16,3,target-1,cpu,339404
2022-03-31T11:32:37.036Z,FULLY_SHARED_SIDECAR_1-1-1-16,3,target-1,cpu,352926
2022-03-31T11:32:47.037Z,FULLY_SHARED_SIDECAR_1-1-1-16,3,target-1,cpu,352926
2022-03-31T11:32:57.036Z,FULLY_SHARED_SIDECAR_1-1-1-16,3,target-1,cpu,352926
2022-03-31T11:33:07.036Z,FULLY_SHARED_SIDECAR_1-1-1-16,3,target-1,cpu,343630
2022-03-31T11:33:17.037Z,FULLY_SHARED_SIDECAR_1-1-1-16,3,target-1,cpu,343630
2022-03-31T11:33:27.036Z,FULLY_SHARED_SIDECAR_1-1-1-16,3,target-1,cpu,343630
