2023-07-20T14:45:33.737Z,shippingservice,network_in,789570390
2023-07-20T14:45:32.860Z,cartservice,network_in,532335403
2023-07-20T14:45:34.083Z,checkoutservice,network_in,791865813
2023-07-20T14:45:34.842Z,paymentservice,network_in,414341309
2023-07-20T14:45:31.356Z,adservice,network_in,653308884
2023-07-20T14:45:35.770Z,recommendationservice-1,network_in,396326350
2023-07-20T14:45:36.039Z,recommendationservice-4,network_in,259161834
2023-07-20T14:45:31.267Z,recommendationservice-3,network_in,259204881
2023-07-20T14:45:37.787Z,currencyservice,network_in,415668769
2023-07-20T14:45:37.922Z,emailservice,network_in,397529149
2023-07-20T14:45:39.194Z,recommendationservice-2,network_in,302273024
2023-07-20T14:45:40.487Z,probe-holder,network_in,321192586
2023-07-20T14:45:40.619Z,productcatalogservice,network_in,790986001
2023-07-20T14:45:41.268Z,recommendationservice-3,network_in,259209976
2023-07-20T14:45:41.356Z,adservice,network_in,653317193
2023-07-20T14:45:42.861Z,cartservice,network_in,532349373
2023-07-20T14:45:43.738Z,shippingservice,network_in,789579142
2023-07-20T14:45:44.083Z,checkoutservice,network_in,791871353
2023-07-20T14:45:44.842Z,paymentservice,network_in,414349237
2023-07-20T14:45:45.770Z,recommendationservice-1,network_in,396335567
2023-07-20T14:45:46.040Z,recommendationservice-4,network_in,259170149
2023-07-20T14:45:47.787Z,currencyservice,network_in,415676752
2023-07-20T14:45:47.923Z,emailservice,network_in,397538751
2023-07-20T14:45:49.195Z,recommendationservice-2,network_in,302281345
2023-07-20T14:45:50.487Z,probe-holder,network_in,321238749
2023-07-20T14:45:50.620Z,productcatalogservice,network_in,790990975
2023-07-20T14:45:51.267Z,recommendationservice-3,network_in,259218565
2023-07-20T14:45:51.356Z,adservice,network_in,653325610
2023-07-20T14:45:52.861Z,cartservice,network_in,532354967
2023-07-20T14:45:53.738Z,shippingservice,network_in,789587754
2023-07-20T14:45:54.083Z,checkoutservice,network_in,791880337
2023-07-20T14:45:54.842Z,paymentservice,network_in,414358345
2023-07-20T14:45:55.770Z,recommendationservice-1,network_in,396345895
2023-07-20T14:45:56.039Z,recommendationservice-4,network_in,259174658
2023-07-20T14:45:57.787Z,currencyservice,network_in,415681082
2023-07-20T14:45:57.923Z,emailservice,network_in,397547603
2023-07-20T14:45:59.195Z,recommendationservice-2,network_in,302285857
2023-07-20T14:46:00.487Z,probe-holder,network_in,321284782
2023-07-20T14:46:00.620Z,productcatalogservice,network_in,790999664
2023-07-20T14:46:01.268Z,recommendationservice-3,network_in,259227221
2023-07-20T14:46:01.356Z,adservice,network_in,653329946
2023-07-20T14:46:02.862Z,cartservice,network_in,532363783
2023-07-20T14:46:03.738Z,shippingservice,network_in,789592688
2023-07-20T14:46:04.083Z,checkoutservice,network_in,791889560
2023-07-20T14:46:04.842Z,paymentservice,network_in,414366695
2023-07-20T14:46:05.770Z,recommendationservice-1,network_in,396355391
2023-07-20T14:46:06.039Z,recommendationservice-4,network_in,259187908
2023-07-20T14:46:07.787Z,currencyservice,network_in,415689089
2023-07-20T14:46:07.923Z,emailservice,network_in,397556028
2023-07-20T14:46:09.195Z,recommendationservice-2,network_in,302299106
2023-07-20T14:46:10.487Z,probe-holder,network_in,321327203
2023-07-20T14:46:10.620Z,productcatalogservice,network_in,791008418
2023-07-20T14:46:11.268Z,recommendationservice-3,network_in,259237002
2023-07-20T14:46:11.356Z,adservice,network_in,653337941
2023-07-20T14:46:12.862Z,cartservice,network_in,532372599
2023-07-20T14:46:13.738Z,shippingservice,network_in,789601304
2023-07-20T14:46:14.083Z,checkoutservice,network_in,791894966
2023-07-20T14:46:14.842Z,paymentservice,network_in,414374623
2023-07-20T14:46:15.770Z,recommendationservice-1,network_in,396364470
2023-07-20T14:46:16.039Z,recommendationservice-4,network_in,259196588
2023-07-20T14:46:17.788Z,currencyservice,network_in,415702307
2023-07-20T14:46:17.923Z,emailservice,network_in,397560798
2023-07-20T14:46:19.195Z,recommendationservice-2,network_in,302307355
2023-07-20T14:46:20.487Z,probe-holder,network_in,321373326
2023-07-20T14:46:20.620Z,productcatalogservice,network_in,791018293
2023-07-20T14:46:21.268Z,recommendationservice-3,network_in,259246024
2023-07-20T14:46:21.356Z,adservice,network_in,653350743
2023-07-20T14:46:22.861Z,cartservice,network_in,532377770
2023-07-20T14:46:23.738Z,shippingservice,network_in,789614776
2023-07-20T14:46:24.085Z,checkoutservice,network_in,791909236
2023-07-20T14:46:24.842Z,paymentservice,network_in,414378881
2023-07-20T14:46:25.770Z,recommendationservice-1,network_in,396369806
2023-07-20T14:46:26.039Z,recommendationservice-4,network_in,259201170
2023-07-20T14:46:27.787Z,currencyservice,network_in,415706679
2023-07-20T14:46:27.923Z,emailservice,network_in,397569224
2023-07-20T14:46:29.195Z,recommendationservice-2,network_in,302312283
2023-07-20T14:46:30.487Z,probe-holder,network_in,321424293
2023-07-20T14:46:30.620Z,productcatalogservice,network_in,791027410
2023-07-20T14:46:31.267Z,recommendationservice-3,network_in,259254878
2023-07-20T14:46:31.356Z,adservice,network_in,653355329
2023-07-20T14:46:32.861Z,cartservice,network_in,532386836
2023-07-20T14:46:33.738Z,shippingservice,network_in,789620399
2023-07-20T14:46:34.083Z,checkoutservice,network_in,791918657
2023-07-20T14:46:34.842Z,paymentservice,network_in,414387067
2023-07-20T14:46:35.770Z,recommendationservice-1,network_in,396379142
2023-07-20T14:46:36.040Z,recommendationservice-4,network_in,259209685
2023-07-20T14:46:37.787Z,currencyservice,network_in,415714944
2023-07-20T14:46:37.923Z,emailservice,network_in,397577906
2023-07-20T14:46:39.195Z,recommendationservice-2,network_in,302320802
2023-07-20T14:46:40.487Z,probe-holder,network_in,321467393
2023-07-20T14:46:40.620Z,productcatalogservice,network_in,791036353
2023-07-20T14:46:41.268Z,recommendationservice-3,network_in,259259725
2023-07-20T14:46:41.356Z,adservice,network_in,653363324
2023-07-20T14:46:42.862Z,cartservice,network_in,532400475
2023-07-20T14:46:43.738Z,shippingservice,network_in,789629081
2023-07-20T14:46:44.083Z,checkoutservice,network_in,791924059
2023-07-20T14:46:44.842Z,paymentservice,network_in,414394995
2023-07-20T14:46:45.770Z,recommendationservice-1,network_in,396388221
2023-07-20T14:46:46.039Z,recommendationservice-4,network_in,259217936
2023-07-20T14:46:47.787Z,currencyservice,network_in,415722885
2023-07-20T14:46:47.923Z,emailservice,network_in,397587936
2023-07-20T14:46:49.195Z,recommendationservice-2,network_in,302325381
2023-07-20T14:46:50.487Z,probe-holder,network_in,321513347
2023-07-20T14:46:50.620Z,productcatalogservice,network_in,791041327
2023-07-20T14:46:51.268Z,recommendationservice-3,network_in,259268317
2023-07-20T14:46:51.356Z,adservice,network_in,653371741
2023-07-20T14:46:52.861Z,cartservice,network_in,532406066
2023-07-20T14:46:53.738Z,shippingservice,network_in,789634087
2023-07-20T14:46:54.083Z,checkoutservice,network_in,791933048
2023-07-20T14:46:54.842Z,paymentservice,network_in,414404103
2023-07-20T14:46:55.770Z,recommendationservice-1,network_in,396398559
2023-07-20T14:46:56.039Z,recommendationservice-4,network_in,259222447
2023-07-20T14:46:57.787Z,currencyservice,network_in,415727215
2023-07-20T14:46:57.923Z,emailservice,network_in,397596782
2023-07-20T14:46:59.195Z,recommendationservice-2,network_in,302333635
2023-07-20T14:47:00.487Z,probe-holder,network_in,321559386
2023-07-20T14:47:00.620Z,productcatalogservice,network_in,791050016
2023-07-20T14:47:01.267Z,recommendationservice-3,network_in,259276911
2023-07-20T14:47:01.356Z,adservice,network_in,653376077
2023-07-20T14:47:02.862Z,cartservice,network_in,532414883
2023-07-20T14:47:03.738Z,shippingservice,network_in,789642706
2023-07-20T14:47:04.083Z,checkoutservice,network_in,791942127
2023-07-20T14:47:04.842Z,paymentservice,network_in,414412453
2023-07-20T14:47:05.770Z,recommendationservice-1,network_in,396408059
2023-07-20T14:47:06.039Z,recommendationservice-4,network_in,259235715
2023-07-20T14:47:07.787Z,currencyservice,network_in,415735222
2023-07-20T14:47:07.923Z,emailservice,network_in,397605209
2023-07-20T14:47:09.196Z,recommendationservice-2,network_in,302346813
2023-07-20T14:47:10.487Z,probe-holder,network_in,321601542
2023-07-20T14:47:10.620Z,productcatalogservice,network_in,791058709
2023-07-20T14:47:11.268Z,recommendationservice-3,network_in,259286698
2023-07-20T14:47:11.356Z,adservice,network_in,653384072
2023-07-20T14:47:12.862Z,cartservice,network_in,532423696
2023-07-20T14:47:13.738Z,shippingservice,network_in,789651387
2023-07-20T14:47:14.083Z,checkoutservice,network_in,791947528
2023-07-20T14:47:14.842Z,paymentservice,network_in,414420381
2023-07-20T14:47:15.770Z,recommendationservice-1,network_in,396417132
2023-07-20T14:47:16.039Z,recommendationservice-4,network_in,259244393
2023-07-20T14:47:17.787Z,currencyservice,network_in,415748482
2023-07-20T14:47:17.923Z,emailservice,network_in,397609978
2023-07-20T14:47:19.195Z,recommendationservice-2,network_in,302351321
2023-07-20T14:47:20.487Z,probe-holder,network_in,321647399
2023-07-20T14:47:20.620Z,productcatalogservice,network_in,791068582
2023-07-20T14:47:21.268Z,recommendationservice-3,network_in,259295710
2023-07-20T14:47:21.356Z,adservice,network_in,653392067
2023-07-20T14:47:22.861Z,cartservice,network_in,532428859
2023-07-20T14:47:23.738Z,shippingservice,network_in,789661178
2023-07-20T14:47:24.083Z,checkoutservice,network_in,791961792
2023-07-20T14:47:24.842Z,paymentservice,network_in,414424639
2023-07-20T14:47:25.770Z,recommendationservice-1,network_in,396422461
2023-07-20T14:47:26.039Z,recommendationservice-4,network_in,259248975
2023-07-20T14:47:27.787Z,currencyservice,network_in,415752812
2023-07-20T14:47:27.923Z,emailservice,network_in,397618404
2023-07-20T14:47:29.195Z,recommendationservice-2,network_in,302359996
2023-07-20T14:47:30.487Z,probe-holder,network_in,321698085
2023-07-20T14:47:30.620Z,productcatalogservice,network_in,791077694
2023-07-20T14:47:31.268Z,recommendationservice-3,network_in,259304301
2023-07-20T14:47:31.356Z,adservice,network_in,653401168
2023-07-20T14:47:32.861Z,cartservice,network_in,532437676
2023-07-20T14:47:33.738Z,shippingservice,network_in,789670281
2023-07-20T14:47:34.083Z,checkoutservice,network_in,791970867
2023-07-20T14:47:34.842Z,paymentservice,network_in,414432567
2023-07-20T14:47:35.770Z,recommendationservice-1,network_in,396431542
2023-07-20T14:47:36.039Z,recommendationservice-4,network_in,259257230
2023-07-20T14:47:37.788Z,currencyservice,network_in,415760819
2023-07-20T14:47:37.923Z,emailservice,network_in,397626835
2023-07-20T14:47:39.195Z,recommendationservice-2,network_in,302368252
2023-07-20T14:47:40.487Z,probe-holder,network_in,321740670
2023-07-20T14:47:40.620Z,productcatalogservice,network_in,791086386
2023-07-20T14:47:41.268Z,recommendationservice-3,network_in,259309151
2023-07-20T14:47:41.356Z,adservice,network_in,653409205
2023-07-20T14:47:42.861Z,cartservice,network_in,532451318
2023-07-20T14:47:43.738Z,shippingservice,network_in,789678898
2023-07-20T14:47:44.083Z,checkoutservice,network_in,791976269
2023-07-20T14:47:44.842Z,paymentservice,network_in,414440495
2023-07-20T14:47:45.770Z,recommendationservice-1,network_in,396440620
2023-07-20T14:47:46.039Z,recommendationservice-4,network_in,259265550
2023-07-20T14:47:47.787Z,currencyservice,network_in,415768760
2023-07-20T14:47:47.923Z,emailservice,network_in,397636441
2023-07-20T14:47:49.195Z,recommendationservice-2,network_in,302372766
2023-07-20T14:47:50.487Z,probe-holder,network_in,321786503
2023-07-20T14:47:50.620Z,productcatalogservice,network_in,791091361
2023-07-20T14:47:51.267Z,recommendationservice-3,network_in,259317746
2023-07-20T14:47:51.356Z,adservice,network_in,653413987
2023-07-20T14:47:52.861Z,cartservice,network_in,532456911
2023-07-20T14:47:53.738Z,shippingservice,network_in,789683837
2023-07-20T14:47:54.083Z,checkoutservice,network_in,791985254
2023-07-20T14:47:54.842Z,paymentservice,network_in,414449603
2023-07-20T14:47:55.770Z,recommendationservice-1,network_in,396450887
2023-07-20T14:47:56.039Z,recommendationservice-4,network_in,259270126
2023-07-20T14:47:57.787Z,currencyservice,network_in,415773132
2023-07-20T14:47:57.923Z,emailservice,network_in,397645290
2023-07-20T14:47:59.195Z,recommendationservice-2,network_in,302381090
2023-07-20T14:48:00.487Z,probe-holder,network_in,321832358
2023-07-20T14:48:00.620Z,productcatalogservice,network_in,791100056
2023-07-20T14:48:01.268Z,recommendationservice-3,network_in,259326409
2023-07-20T14:48:01.356Z,adservice,network_in,653421916
2023-07-20T14:48:02.862Z,cartservice,network_in,532465732
2023-07-20T14:48:03.738Z,shippingservice,network_in,789692458
2023-07-20T14:48:04.085Z,checkoutservice,network_in,791994418
2023-07-20T14:48:04.842Z,paymentservice,network_in,414457953
2023-07-20T14:48:05.770Z,recommendationservice-1,network_in,396460389
2023-07-20T14:48:06.039Z,recommendationservice-4,network_in,259283309
2023-07-20T14:48:07.787Z,currencyservice,network_in,415781139
2023-07-20T14:48:07.925Z,emailservice,network_in,397653718
2023-07-20T14:48:09.195Z,recommendationservice-2,network_in,302394275
2023-07-20T14:48:10.487Z,probe-holder,network_in,321874615
2023-07-20T14:48:10.620Z,productcatalogservice,network_in,791105031
2023-07-20T14:48:11.268Z,recommendationservice-3,network_in,259336339
2023-07-20T14:48:11.356Z,adservice,network_in,653429911
2023-07-20T14:48:12.862Z,cartservice,network_in,532474553
2023-07-20T14:48:13.738Z,shippingservice,network_in,789701073
2023-07-20T14:48:14.083Z,checkoutservice,network_in,791999821
2023-07-20T14:48:14.842Z,paymentservice,network_in,414465881
2023-07-20T14:48:15.770Z,recommendationservice-1,network_in,396469469
2023-07-20T14:48:16.039Z,recommendationservice-4,network_in,259292052
2023-07-20T14:48:17.788Z,currencyservice,network_in,415794357
2023-07-20T14:48:17.923Z,emailservice,network_in,397658558
2023-07-20T14:48:19.195Z,recommendationservice-2,network_in,302398790
2023-07-20T14:48:20.487Z,probe-holder,network_in,321920666
2023-07-20T14:48:20.620Z,productcatalogservice,network_in,791118627
2023-07-20T14:48:21.267Z,recommendationservice-3,network_in,259345354
2023-07-20T14:48:21.356Z,adservice,network_in,653434271
2023-07-20T14:48:22.862Z,cartservice,network_in,532479724
2023-07-20T14:48:23.738Z,shippingservice,network_in,789710867
2023-07-20T14:48:24.085Z,checkoutservice,network_in,792014086
2023-07-20T14:48:24.842Z,paymentservice,network_in,414470139
2023-07-20T14:48:25.770Z,recommendationservice-1,network_in,396474807
2023-07-20T14:48:26.039Z,recommendationservice-4,network_in,259296633
2023-07-20T14:48:27.788Z,currencyservice,network_in,415798687
2023-07-20T14:48:27.924Z,emailservice,network_in,397666987
2023-07-20T14:48:29.195Z,recommendationservice-2,network_in,302407553
2023-07-20T14:48:30.487Z,probe-holder,network_in,321971426
2023-07-20T14:48:30.620Z,productcatalogservice,network_in,791127742
2023-07-20T14:48:31.267Z,recommendationservice-3,network_in,259354016
2023-07-20T14:48:31.356Z,adservice,network_in,653447049
2023-07-20T14:48:32.861Z,cartservice,network_in,532488548
2023-07-20T14:48:33.738Z,shippingservice,network_in,789719906
2023-07-20T14:48:34.083Z,checkoutservice,network_in,792023163
2023-07-20T14:48:34.843Z,paymentservice,network_in,414478067
2023-07-20T14:48:35.770Z,recommendationservice-1,network_in,396483883
2023-07-20T14:48:36.040Z,recommendationservice-4,network_in,259304890
2023-07-20T14:48:37.787Z,currencyservice,network_in,415806694
2023-07-20T14:48:37.924Z,emailservice,network_in,397675410
2023-07-20T14:48:39.195Z,recommendationservice-2,network_in,302415873
2023-07-20T14:48:40.487Z,probe-holder,network_in,322013979
2023-07-20T14:48:40.620Z,productcatalogservice,network_in,791132717
2023-07-20T14:48:41.268Z,recommendationservice-3,network_in,259358869
2023-07-20T14:48:41.356Z,adservice,network_in,653455044
2023-07-20T14:48:42.861Z,cartservice,network_in,532502253
2023-07-20T14:48:43.738Z,shippingservice,network_in,789728527
2023-07-20T14:48:44.083Z,checkoutservice,network_in,792028565
2023-07-20T14:48:44.842Z,paymentservice,network_in,414485995
2023-07-20T14:48:45.772Z,recommendationservice-1,network_in,396492962
2023-07-20T14:48:46.039Z,recommendationservice-4,network_in,259313149
2023-07-20T14:48:47.787Z,currencyservice,network_in,415814743
2023-07-20T14:48:47.923Z,emailservice,network_in,397685013
2023-07-20T14:48:49.195Z,recommendationservice-2,network_in,302420380
2023-07-20T14:48:50.487Z,probe-holder,network_in,322059861
2023-07-20T14:48:50.620Z,productcatalogservice,network_in,791141410
2023-07-20T14:48:51.268Z,recommendationservice-3,network_in,259367529
2023-07-20T14:48:51.356Z,adservice,network_in,653459826
2023-07-20T14:48:52.862Z,cartservice,network_in,532507845
2023-07-20T14:48:53.738Z,shippingservice,network_in,789733533
2023-07-20T14:48:54.083Z,checkoutservice,network_in,792037558
2023-07-20T14:48:54.842Z,paymentservice,network_in,414495103
2023-07-20T14:48:55.770Z,recommendationservice-1,network_in,396503222
2023-07-20T14:48:56.039Z,recommendationservice-4,network_in,259317728
2023-07-20T14:48:57.787Z,currencyservice,network_in,415819073
2023-07-20T14:48:57.923Z,emailservice,network_in,397693860
2023-07-20T14:48:59.195Z,recommendationservice-2,network_in,302428699
2023-07-20T14:49:00.487Z,probe-holder,network_in,322105702
2023-07-20T14:49:00.620Z,productcatalogservice,network_in,791150098
2023-07-20T14:49:01.267Z,recommendationservice-3,network_in,259376121
2023-07-20T14:49:01.356Z,adservice,network_in,653467755
2023-07-20T14:49:02.861Z,cartservice,network_in,532516659
2023-07-20T14:49:03.738Z,shippingservice,network_in,789742145
2023-07-20T14:49:04.085Z,checkoutservice,network_in,792046638
2023-07-20T14:49:04.842Z,paymentservice,network_in,414503453
2023-07-20T14:49:05.770Z,recommendationservice-1,network_in,396512720
2023-07-20T14:49:06.039Z,recommendationservice-4,network_in,259330915
2023-07-20T14:49:07.788Z,currencyservice,network_in,415827080
2023-07-20T14:49:07.923Z,emailservice,network_in,397702290
2023-07-20T14:49:09.195Z,recommendationservice-2,network_in,302442030
2023-07-20T14:49:10.487Z,probe-holder,network_in,322147946
2023-07-20T14:49:10.620Z,productcatalogservice,network_in,791155070
2023-07-20T14:49:11.268Z,recommendationservice-3,network_in,259385898
2023-07-20T14:49:11.356Z,adservice,network_in,653475792
2023-07-20T14:49:12.862Z,cartservice,network_in,532525474
2023-07-20T14:49:13.738Z,shippingservice,network_in,789750756
2023-07-20T14:49:14.083Z,checkoutservice,network_in,792052038
2023-07-20T14:49:14.842Z,paymentservice,network_in,414511467
2023-07-20T14:49:15.770Z,recommendationservice-1,network_in,396521797
2023-07-20T14:49:16.039Z,recommendationservice-4,network_in,259339592
2023-07-20T14:49:17.787Z,currencyservice,network_in,415840298
2023-07-20T14:49:17.923Z,emailservice,network_in,397707131
2023-07-20T14:49:19.195Z,recommendationservice-2,network_in,302446544
2023-07-20T14:49:20.487Z,probe-holder,network_in,322193883
2023-07-20T14:49:20.620Z,productcatalogservice,network_in,791168666
2023-07-20T14:49:21.268Z,recommendationservice-3,network_in,259394913
2023-07-20T14:49:21.356Z,adservice,network_in,653480152
2023-07-20T14:49:22.862Z,cartservice,network_in,532530731
2023-07-20T14:49:23.738Z,shippingservice,network_in,789760550
2023-07-20T14:49:24.083Z,checkoutservice,network_in,792066298
2023-07-20T14:49:24.842Z,paymentservice,network_in,414515725
2023-07-20T14:49:25.770Z,recommendationservice-1,network_in,396527133
2023-07-20T14:49:26.039Z,recommendationservice-4,network_in,259344165
2023-07-20T14:49:27.788Z,currencyservice,network_in,415844670
2023-07-20T14:49:27.923Z,emailservice,network_in,397715561
2023-07-20T14:49:29.195Z,recommendationservice-2,network_in,302455219
2023-07-20T14:49:30.487Z,probe-holder,network_in,322244706
2023-07-20T14:49:30.620Z,productcatalogservice,network_in,791177779
2023-07-20T14:49:31.267Z,recommendationservice-3,network_in,259403596
2023-07-20T14:49:31.356Z,adservice,network_in,653492888
2023-07-20T14:49:32.862Z,cartservice,network_in,532539551
2023-07-20T14:49:33.738Z,shippingservice,network_in,789769588
2023-07-20T14:49:34.083Z,checkoutservice,network_in,792075374
2023-07-20T14:49:34.842Z,paymentservice,network_in,414523653
2023-07-20T14:49:35.770Z,recommendationservice-1,network_in,396536215
2023-07-20T14:49:36.039Z,recommendationservice-4,network_in,259352418
2023-07-20T14:49:37.787Z,currencyservice,network_in,415852677
2023-07-20T14:49:37.923Z,emailservice,network_in,397723992
2023-07-20T14:49:39.195Z,recommendationservice-2,network_in,302463539
2023-07-20T14:49:40.487Z,probe-holder,network_in,322287505
2023-07-20T14:49:40.620Z,productcatalogservice,network_in,791182756
2023-07-20T14:49:41.268Z,recommendationservice-3,network_in,259408447
2023-07-20T14:49:41.356Z,adservice,network_in,653500883
2023-07-20T14:49:42.862Z,cartservice,network_in,532553265
2023-07-20T14:49:43.738Z,shippingservice,network_in,789778205
2023-07-20T14:49:44.083Z,checkoutservice,network_in,792080778
2023-07-20T14:49:44.842Z,paymentservice,network_in,414531581
2023-07-20T14:49:45.770Z,recommendationservice-1,network_in,396545358
2023-07-20T14:49:46.039Z,recommendationservice-4,network_in,259360673
2023-07-20T14:49:47.787Z,currencyservice,network_in,415860770
2023-07-20T14:49:47.923Z,emailservice,network_in,397733600
2023-07-20T14:49:49.195Z,recommendationservice-2,network_in,302468048
2023-07-20T14:49:50.487Z,probe-holder,network_in,322333632
2023-07-20T14:49:50.620Z,productcatalogservice,network_in,791191455
2023-07-20T14:49:51.268Z,recommendationservice-3,network_in,259417045
2023-07-20T14:49:51.356Z,adservice,network_in,653505599
2023-07-20T14:49:52.861Z,cartservice,network_in,532558863
2023-07-20T14:49:53.738Z,shippingservice,network_in,789783212
2023-07-20T14:49:54.083Z,checkoutservice,network_in,792089770
2023-07-20T14:49:54.842Z,paymentservice,network_in,414541122
2023-07-20T14:49:55.770Z,recommendationservice-1,network_in,396555622
2023-07-20T14:49:56.039Z,recommendationservice-4,network_in,259365187
2023-07-20T14:49:57.788Z,currencyservice,network_in,415865166
2023-07-20T14:49:57.923Z,emailservice,network_in,397742518
2023-07-20T14:49:59.195Z,recommendationservice-2,network_in,302476306
2023-07-20T14:50:00.487Z,probe-holder,network_in,322379438
2023-07-20T14:50:00.621Z,productcatalogservice,network_in,791200150
2023-07-20T14:50:01.268Z,recommendationservice-3,network_in,259425639
2023-07-20T14:50:01.356Z,adservice,network_in,653513636
2023-07-20T14:50:02.861Z,cartservice,network_in,532567684
2023-07-20T14:50:03.738Z,shippingservice,network_in,789791830
2023-07-20T14:50:04.083Z,checkoutservice,network_in,792098849
2023-07-20T14:50:04.842Z,paymentservice,network_in,414549472
2023-07-20T14:50:05.770Z,recommendationservice-1,network_in,396565121
2023-07-20T14:50:06.039Z,recommendationservice-4,network_in,259378438
2023-07-20T14:50:07.788Z,currencyservice,network_in,415873239
2023-07-20T14:50:07.923Z,emailservice,network_in,397750946
2023-07-20T14:50:09.195Z,recommendationservice-2,network_in,302489491
2023-07-20T14:50:10.487Z,probe-holder,network_in,322421745
2023-07-20T14:50:10.620Z,productcatalogservice,network_in,791205126
2023-07-20T14:50:11.268Z,recommendationservice-3,network_in,259435420
2023-07-20T14:50:11.356Z,adservice,network_in,653521631
2023-07-20T14:50:12.861Z,cartservice,network_in,532576500
2023-07-20T14:50:13.738Z,shippingservice,network_in,789800447
2023-07-20T14:50:14.083Z,checkoutservice,network_in,792104252
2023-07-20T14:50:14.842Z,paymentservice,network_in,414557400
2023-07-20T14:50:15.770Z,recommendationservice-1,network_in,396570457
2023-07-20T14:50:16.039Z,recommendationservice-4,network_in,259387183
2023-07-20T14:50:17.788Z,currencyservice,network_in,415886499
2023-07-20T14:50:17.923Z,emailservice,network_in,397755712
2023-07-20T14:50:19.195Z,recommendationservice-2,network_in,302494001
2023-07-20T14:50:20.487Z,probe-holder,network_in,322467716
2023-07-20T14:50:20.620Z,productcatalogservice,network_in,791218718
2023-07-20T14:50:21.267Z,recommendationservice-3,network_in,259444438
2023-07-20T14:50:21.356Z,adservice,network_in,653525925
2023-07-20T14:50:22.861Z,cartservice,network_in,532581666
2023-07-20T14:50:23.738Z,shippingservice,network_in,789810247
2023-07-20T14:50:24.083Z,checkoutservice,network_in,792118605
2023-07-20T14:50:24.842Z,paymentservice,network_in,414561658
2023-07-20T14:50:25.770Z,recommendationservice-1,network_in,396579536
2023-07-20T14:50:26.040Z,recommendationservice-4,network_in,259391780
2023-07-20T14:50:27.787Z,currencyservice,network_in,415890829
2023-07-20T14:50:27.923Z,emailservice,network_in,397764136
2023-07-20T14:50:29.195Z,recommendationservice-2,network_in,302502738
2023-07-20T14:50:30.487Z,probe-holder,network_in,322518439
2023-07-20T14:50:30.619Z,productcatalogservice,network_in,791227833
2023-07-20T14:50:31.268Z,recommendationservice-3,network_in,259453097
2023-07-20T14:50:31.356Z,adservice,network_in,653538727
2023-07-20T14:50:32.861Z,cartservice,network_in,532590482
2023-07-20T14:50:33.738Z,shippingservice,network_in,789819283
2023-07-20T14:50:34.083Z,checkoutservice,network_in,792127685
2023-07-20T14:50:34.842Z,paymentservice,network_in,414572362
2023-07-20T14:50:35.770Z,recommendationservice-1,network_in,396588609
2023-07-20T14:50:36.039Z,recommendationservice-4,network_in,259400036
2023-07-20T14:50:37.787Z,currencyservice,network_in,415898902
2023-07-20T14:50:37.923Z,emailservice,network_in,397772562
2023-07-20T14:50:39.195Z,recommendationservice-2,network_in,302511053
2023-07-20T14:50:40.487Z,probe-holder,network_in,322561150
2023-07-20T14:50:40.620Z,productcatalogservice,network_in,791232813
2023-07-20T14:50:41.268Z,recommendationservice-3,network_in,259457945
2023-07-20T14:50:41.356Z,adservice,network_in,653546722
2023-07-20T14:50:42.861Z,cartservice,network_in,532604120
2023-07-20T14:50:43.738Z,shippingservice,network_in,789827894
2023-07-20T14:50:44.083Z,checkoutservice,network_in,792133087
2023-07-20T14:50:44.842Z,paymentservice,network_in,414583716
2023-07-20T14:50:45.770Z,recommendationservice-1,network_in,396593942
2023-07-20T14:50:46.040Z,recommendationservice-4,network_in,259408292
2023-07-20T14:50:47.788Z,currencyservice,network_in,415906929
2023-07-20T14:50:47.923Z,emailservice,network_in,397782249
2023-07-20T14:50:49.195Z,recommendationservice-2,network_in,302515569
2023-07-20T14:50:50.487Z,probe-holder,network_in,322607123
2023-07-20T14:50:50.620Z,productcatalogservice,network_in,791241501
2023-07-20T14:50:51.267Z,recommendationservice-3,network_in,259466688
2023-07-20T14:50:51.356Z,adservice,network_in,653551480
2023-07-20T14:50:52.862Z,cartservice,network_in,532609707
2023-07-20T14:50:53.738Z,shippingservice,network_in,789832830
2023-07-20T14:50:54.083Z,checkoutservice,network_in,792142074
2023-07-20T14:50:54.842Z,paymentservice,network_in,414599486
2023-07-20T14:50:55.770Z,recommendationservice-1,network_in,396608035
2023-07-20T14:50:56.039Z,recommendationservice-4,network_in,259412802
2023-07-20T14:50:57.787Z,currencyservice,network_in,415911301
2023-07-20T14:50:57.923Z,emailservice,network_in,397791100
2023-07-20T14:50:59.195Z,recommendationservice-2,network_in,302523824
2023-07-20T14:51:00.487Z,probe-holder,network_in,322653153
2023-07-20T14:51:00.620Z,productcatalogservice,network_in,791250191
2023-07-20T14:51:01.267Z,recommendationservice-3,network_in,259475282
2023-07-20T14:51:01.356Z,adservice,network_in,653559475
2023-07-20T14:51:02.862Z,cartservice,network_in,532618526
2023-07-20T14:51:03.738Z,shippingservice,network_in,789841441
2023-07-20T14:51:04.085Z,checkoutservice,network_in,792151150
2023-07-20T14:51:04.842Z,paymentservice,network_in,414611498
2023-07-20T14:51:05.770Z,recommendationservice-1,network_in,396617541
2023-07-20T14:51:06.039Z,recommendationservice-4,network_in,259426113
2023-07-20T14:51:07.787Z,currencyservice,network_in,415919308
2023-07-20T14:51:07.924Z,emailservice,network_in,397799592
2023-07-20T14:51:09.195Z,recommendationservice-2,network_in,302537078
2023-07-20T14:51:10.487Z,probe-holder,network_in,322695453
2023-07-20T14:51:10.620Z,productcatalogservice,network_in,791255174
2023-07-20T14:51:11.268Z,recommendationservice-3,network_in,259485057
2023-07-20T14:51:11.356Z,adservice,network_in,653567470
2023-07-20T14:51:12.861Z,cartservice,network_in,532627344
2023-07-20T14:51:13.738Z,shippingservice,network_in,789850054
2023-07-20T14:51:14.083Z,checkoutservice,network_in,792156550
2023-07-20T14:51:14.842Z,paymentservice,network_in,414625422
2023-07-20T14:51:15.770Z,recommendationservice-1,network_in,396622880
2023-07-20T14:51:16.039Z,recommendationservice-4,network_in,259434852
2023-07-20T14:51:17.788Z,currencyservice,network_in,415932526
2023-07-20T14:51:17.923Z,emailservice,network_in,397804375
2023-07-20T14:51:19.195Z,recommendationservice-2,network_in,302541659
2023-07-20T14:51:20.487Z,probe-holder,network_in,322741308
2023-07-20T14:51:20.620Z,productcatalogservice,network_in,791269204
2023-07-20T14:51:21.268Z,recommendationservice-3,network_in,259494150
2023-07-20T14:51:21.356Z,adservice,network_in,653571764
2023-07-20T14:51:22.861Z,cartservice,network_in,532632601
2023-07-20T14:51:23.738Z,shippingservice,network_in,789859851
2023-07-20T14:51:24.085Z,checkoutservice,network_in,792170879
2023-07-20T14:51:24.842Z,paymentservice,network_in,414633376
2023-07-20T14:51:25.770Z,recommendationservice-1,network_in,396631959
2023-07-20T14:51:26.039Z,recommendationservice-4,network_in,259439426
2023-07-20T14:51:27.787Z,currencyservice,network_in,415936856
2023-07-20T14:51:27.923Z,emailservice,network_in,397812802
2023-07-20T14:51:29.195Z,recommendationservice-2,network_in,302550405
2023-07-20T14:51:30.487Z,probe-holder,network_in,322792187
2023-07-20T14:51:30.620Z,productcatalogservice,network_in,791280408
2023-07-20T14:51:31.267Z,recommendationservice-3,network_in,259502814
2023-07-20T14:51:31.356Z,adservice,network_in,653584608
2023-07-20T14:51:32.861Z,cartservice,network_in,532641424
2023-07-20T14:51:33.738Z,shippingservice,network_in,789868900
2023-07-20T14:51:34.085Z,checkoutservice,network_in,792179957
2023-07-20T14:51:34.842Z,paymentservice,network_in,414645096
2023-07-20T14:51:35.770Z,recommendationservice-1,network_in,396641039
2023-07-20T14:51:36.039Z,recommendationservice-4,network_in,259447681
2023-07-20T14:51:37.787Z,currencyservice,network_in,415944863
2023-07-20T14:51:37.923Z,emailservice,network_in,397817579
2023-07-20T14:51:39.195Z,recommendationservice-2,network_in,302558724
2023-07-20T14:51:40.487Z,probe-holder,network_in,322835063
2023-07-20T14:51:40.620Z,productcatalogservice,network_in,791285382
2023-07-20T14:51:41.268Z,recommendationservice-3,network_in,259507669
2023-07-20T14:51:41.356Z,adservice,network_in,653592689
2023-07-20T14:51:42.861Z,cartservice,network_in,532655067
2023-07-20T14:51:43.738Z,shippingservice,network_in,789877515
2023-07-20T14:51:44.083Z,checkoutservice,network_in,792185359
2023-07-20T14:51:44.843Z,paymentservice,network_in,414651990
2023-07-20T14:51:45.770Z,recommendationservice-1,network_in,396646383
2023-07-20T14:51:46.040Z,recommendationservice-4,network_in,259455939
2023-07-20T14:51:47.787Z,currencyservice,network_in,415952846
2023-07-20T14:51:47.923Z,emailservice,network_in,397830840
2023-07-20T14:51:49.195Z,recommendationservice-2,network_in,302563305
2023-07-20T14:51:50.487Z,probe-holder,network_in,322880990
2023-07-20T14:51:50.620Z,productcatalogservice,network_in,791294079
2023-07-20T14:51:51.267Z,recommendationservice-3,network_in,259516262
2023-07-20T14:51:51.356Z,adservice,network_in,653597405
2023-07-20T14:51:52.861Z,cartservice,network_in,532660663
2023-07-20T14:51:53.738Z,shippingservice,network_in,789882458
2023-07-20T14:51:54.083Z,checkoutservice,network_in,792194345
2023-07-20T14:51:54.842Z,paymentservice,network_in,414669686
2023-07-20T14:51:55.771Z,recommendationservice-1,network_in,396660386
2023-07-20T14:51:56.039Z,recommendationservice-4,network_in,259460525
2023-07-20T14:51:57.787Z,currencyservice,network_in,415957176
2023-07-20T14:51:57.923Z,emailservice,network_in,397839688
2023-07-20T14:51:59.195Z,recommendationservice-2,network_in,302571626
2023-07-20T14:52:00.487Z,probe-holder,network_in,322926967
2023-07-20T14:52:00.620Z,productcatalogservice,network_in,791302771
2023-07-20T14:52:01.267Z,recommendationservice-3,network_in,259521118
2023-07-20T14:52:01.356Z,adservice,network_in,653605400
2023-07-20T14:52:02.861Z,cartservice,network_in,532669481
2023-07-20T14:52:03.738Z,shippingservice,network_in,789891142
2023-07-20T14:52:04.085Z,checkoutservice,network_in,792199831
2023-07-20T14:52:04.842Z,paymentservice,network_in,414680672
2023-07-20T14:52:05.770Z,recommendationservice-1,network_in,396669880
2023-07-20T14:52:06.039Z,recommendationservice-4,network_in,259473773
2023-07-20T14:52:07.787Z,currencyservice,network_in,415965183
2023-07-20T14:52:07.923Z,emailservice,network_in,397844455
2023-07-20T14:52:09.195Z,recommendationservice-2,network_in,302581064
2023-07-20T14:52:10.487Z,probe-holder,network_in,322969157
2023-07-20T14:52:10.620Z,productcatalogservice,network_in,791307743
2023-07-20T14:52:11.267Z,recommendationservice-3,network_in,259534639
2023-07-20T14:52:11.356Z,adservice,network_in,653613395
2023-07-20T14:52:12.861Z,cartservice,network_in,532678297
2023-07-20T14:52:13.738Z,shippingservice,network_in,789899761
2023-07-20T14:52:14.083Z,checkoutservice,network_in,792208837
2023-07-20T14:52:14.842Z,paymentservice,network_in,414689218
2023-07-20T14:52:15.770Z,recommendationservice-1,network_in,396675212
2023-07-20T14:52:16.040Z,recommendationservice-4,network_in,259482451
2023-07-20T14:52:17.787Z,currencyservice,network_in,415978401
2023-07-20T14:52:17.923Z,emailservice,network_in,397852881
2023-07-20T14:52:19.195Z,recommendationservice-2,network_in,302589314
2023-07-20T14:52:20.487Z,probe-holder,network_in,323015179
2023-07-20T14:52:20.620Z,productcatalogservice,network_in,791321336
2023-07-20T14:52:21.268Z,recommendationservice-3,network_in,259543655
2023-07-20T14:52:21.356Z,adservice,network_in,653617731
2023-07-20T14:52:22.861Z,cartservice,network_in,532683464
2023-07-20T14:52:23.738Z,shippingservice,network_in,789909549
2023-07-20T14:52:24.085Z,checkoutservice,network_in,792223167
2023-07-20T14:52:24.842Z,paymentservice,network_in,414706752
2023-07-20T14:52:25.770Z,recommendationservice-1,network_in,396684288
2023-07-20T14:52:26.039Z,recommendationservice-4,network_in,259486963
2023-07-20T14:52:27.787Z,currencyservice,network_in,415982773
2023-07-20T14:52:27.923Z,emailservice,network_in,397861308
2023-07-20T14:52:29.195Z,recommendationservice-2,network_in,302598055
2023-07-20T14:52:30.487Z,probe-holder,network_in,323065853
2023-07-20T14:52:30.620Z,productcatalogservice,network_in,791330449
2023-07-20T14:52:31.267Z,recommendationservice-3,network_in,259548499
2023-07-20T14:52:31.356Z,adservice,network_in,653630533
2023-07-20T14:52:32.862Z,cartservice,network_in,532692277
2023-07-20T14:52:33.738Z,shippingservice,network_in,789918647
2023-07-20T14:52:34.083Z,checkoutservice,network_in,792228565
2023-07-20T14:52:34.842Z,paymentservice,network_in,414717782
2023-07-20T14:52:35.770Z,recommendationservice-1,network_in,396693365
2023-07-20T14:52:36.039Z,recommendationservice-4,network_in,259495285
2023-07-20T14:52:37.787Z,currencyservice,network_in,415990780
2023-07-20T14:52:37.923Z,emailservice,network_in,397866078
2023-07-20T14:52:39.195Z,recommendationservice-2,network_in,302602567
2023-07-20T14:52:40.487Z,probe-holder,network_in,323108566
2023-07-20T14:52:40.620Z,productcatalogservice,network_in,791335421
2023-07-20T14:52:41.268Z,recommendationservice-3,network_in,259557090
2023-07-20T14:52:41.356Z,adservice,network_in,653638528
2023-07-20T14:52:42.861Z,cartservice,network_in,532705915
2023-07-20T14:52:43.738Z,shippingservice,network_in,789927260
2023-07-20T14:52:44.083Z,checkoutservice,network_in,792237640
2023-07-20T14:52:44.842Z,paymentservice,network_in,414726462
2023-07-20T14:52:45.770Z,recommendationservice-1,network_in,396698698
2023-07-20T14:52:46.039Z,recommendationservice-4,network_in,259503601
2023-07-20T14:52:47.788Z,currencyservice,network_in,415998721
2023-07-20T14:52:47.923Z,emailservice,network_in,397879338
2023-07-20T14:52:49.195Z,recommendationservice-2,network_in,302610821
2023-07-20T14:52:50.487Z,probe-holder,network_in,323154390
2023-07-20T14:52:50.620Z,productcatalogservice,network_in,791344112
2023-07-20T14:52:51.268Z,recommendationservice-3,network_in,259565769
2023-07-20T14:52:51.357Z,adservice,network_in,653643244
2023-07-20T14:52:52.862Z,cartservice,network_in,532711507
2023-07-20T14:52:53.738Z,shippingservice,network_in,789932200
2023-07-20T14:52:54.083Z,checkoutservice,network_in,792246625
2023-07-20T14:52:54.842Z,paymentservice,network_in,414742682
2023-07-20T14:52:55.770Z,recommendationservice-1,network_in,396713139
2023-07-20T14:52:56.039Z,recommendationservice-4,network_in,259508178
2023-07-20T14:52:57.787Z,currencyservice,network_in,416003051
2023-07-20T14:52:57.923Z,emailservice,network_in,397888191
2023-07-20T14:52:59.195Z,recommendationservice-2,network_in,302619228
2023-07-20T14:53:00.487Z,probe-holder,network_in,323200248
2023-07-20T14:53:00.620Z,productcatalogservice,network_in,791352803
2023-07-20T14:53:01.267Z,recommendationservice-3,network_in,259570625
2023-07-20T14:53:01.356Z,adservice,network_in,653651367
2023-07-20T14:53:02.862Z,cartservice,network_in,532720329
2023-07-20T14:53:03.738Z,shippingservice,network_in,789940817
2023-07-20T14:53:04.085Z,checkoutservice,network_in,792252030
2023-07-20T14:53:04.842Z,paymentservice,network_in,414755006
2023-07-20T14:53:05.770Z,recommendationservice-1,network_in,396722643
2023-07-20T14:53:06.039Z,recommendationservice-4,network_in,259521427
2023-07-20T14:53:07.788Z,currencyservice,network_in,416011058
2023-07-20T14:53:07.923Z,emailservice,network_in,397892965
2023-07-20T14:53:09.195Z,recommendationservice-2,network_in,302628733
2023-07-20T14:53:10.487Z,probe-holder,network_in,323242603
2023-07-20T14:53:10.620Z,productcatalogservice,network_in,791357781
2023-07-20T14:53:11.267Z,recommendationservice-3,network_in,259584143
2023-07-20T14:53:11.356Z,adservice,network_in,653659362
2023-07-20T14:53:12.862Z,cartservice,network_in,532729150
2023-07-20T14:53:13.738Z,shippingservice,network_in,789949433
2023-07-20T14:53:14.083Z,checkoutservice,network_in,792261105
2023-07-20T14:53:14.842Z,paymentservice,network_in,414763398
2023-07-20T14:53:15.770Z,recommendationservice-1,network_in,396727983
2023-07-20T14:53:16.040Z,recommendationservice-4,network_in,259526363
2023-07-20T14:53:17.787Z,currencyservice,network_in,416024318
2023-07-20T14:53:17.923Z,emailservice,network_in,397901396
2023-07-20T14:53:19.195Z,recommendationservice-2,network_in,302637489
2023-07-20T14:53:20.487Z,probe-holder,network_in,323288577
2023-07-20T14:53:20.620Z,productcatalogservice,network_in,791371377
2023-07-20T14:53:21.267Z,recommendationservice-3,network_in,259593157
2023-07-20T14:53:21.356Z,adservice,network_in,653663656
2023-07-20T14:53:22.861Z,cartservice,network_in,532734322
2023-07-20T14:53:23.738Z,shippingservice,network_in,789959228
2023-07-20T14:53:24.085Z,checkoutservice,network_in,792275368
2023-07-20T14:53:24.842Z,paymentservice,network_in,414777102
2023-07-20T14:53:25.770Z,recommendationservice-1,network_in,396737060
2023-07-20T14:53:26.039Z,recommendationservice-4,network_in,259534616
2023-07-20T14:53:27.787Z,currencyservice,network_in,416028648
2023-07-20T14:53:27.923Z,emailservice,network_in,397909822
2023-07-20T14:53:29.195Z,recommendationservice-2,network_in,302646170
2023-07-20T14:53:30.487Z,probe-holder,network_in,323338483
2023-07-20T14:53:30.620Z,productcatalogservice,network_in,791380491
2023-07-20T14:53:31.267Z,recommendationservice-3,network_in,259598007
2023-07-20T14:53:31.356Z,adservice,network_in,653676500
2023-07-20T14:53:32.862Z,cartservice,network_in,532743141
2023-07-20T14:53:33.738Z,shippingservice,network_in,789968269
2023-07-20T14:53:34.083Z,checkoutservice,network_in,792280766
2023-07-20T14:53:34.842Z,paymentservice,network_in,414791112
2023-07-20T14:53:35.770Z,recommendationservice-1,network_in,396746134
2023-07-20T14:53:36.040Z,recommendationservice-4,network_in,259542868
2023-07-20T14:53:37.787Z,currencyservice,network_in,416036655
2023-07-20T14:53:37.923Z,emailservice,network_in,397914589
2023-07-20T14:53:39.195Z,recommendationservice-2,network_in,302650745
2023-07-20T14:53:40.487Z,probe-holder,network_in,323382170
2023-07-20T14:53:40.620Z,productcatalogservice,network_in,791385463
2023-07-20T14:53:41.268Z,recommendationservice-3,network_in,259606603
2023-07-20T14:53:41.356Z,adservice,network_in,653684495
2023-07-20T14:53:42.861Z,cartservice,network_in,532753131
2023-07-20T14:53:43.738Z,shippingservice,network_in,789976885
2023-07-20T14:53:44.083Z,checkoutservice,network_in,792289844
2023-07-20T14:53:44.842Z,paymentservice,network_in,414798236
2023-07-20T14:53:45.772Z,recommendationservice-1,network_in,396751468
2023-07-20T14:53:46.039Z,recommendationservice-4,network_in,259547378
2023-07-20T14:53:47.787Z,currencyservice,network_in,416044596
2023-07-20T14:53:47.923Z,emailservice,network_in,397927844
2023-07-20T14:53:49.195Z,recommendationservice-2,network_in,302659062
2023-07-20T14:53:50.487Z,probe-holder,network_in,323427979
2023-07-20T14:53:50.620Z,productcatalogservice,network_in,791394157
2023-07-20T14:53:51.268Z,recommendationservice-3,network_in,259615193
2023-07-20T14:53:51.356Z,adservice,network_in,653689211
2023-07-20T14:53:52.861Z,cartservice,network_in,532762366
2023-07-20T14:53:53.738Z,shippingservice,network_in,789981886
2023-07-20T14:53:54.083Z,checkoutservice,network_in,792298831
2023-07-20T14:53:54.842Z,paymentservice,network_in,414811014
2023-07-20T14:53:55.770Z,recommendationservice-1,network_in,396765556
2023-07-20T14:53:56.039Z,recommendationservice-4,network_in,259555634
2023-07-20T14:53:57.787Z,currencyservice,network_in,416048968
2023-07-20T14:53:57.923Z,emailservice,network_in,397936692
2023-07-20T14:53:59.195Z,recommendationservice-2,network_in,302667313
2023-07-20T14:54:00.487Z,probe-holder,network_in,323470409
2023-07-20T14:54:00.620Z,productcatalogservice,network_in,791402847
2023-07-20T14:54:01.267Z,recommendationservice-3,network_in,259620042
2023-07-20T14:54:01.356Z,adservice,network_in,653697248
2023-07-20T14:54:02.861Z,cartservice,network_in,532771177
2023-07-20T14:54:03.738Z,shippingservice,network_in,789990500
2023-07-20T14:54:04.083Z,checkoutservice,network_in,792304230
2023-07-20T14:54:04.842Z,paymentservice,network_in,414819364
2023-07-20T14:54:05.770Z,recommendationservice-1,network_in,396775051
2023-07-20T14:54:06.039Z,recommendationservice-4,network_in,259568953
2023-07-20T14:54:07.787Z,currencyservice,network_in,416056975
2023-07-20T14:54:07.923Z,emailservice,network_in,397941460
2023-07-20T14:54:09.195Z,recommendationservice-2,network_in,302676753
2023-07-20T14:54:10.487Z,probe-holder,network_in,323516533
2023-07-20T14:54:10.620Z,productcatalogservice,network_in,791407816
2023-07-20T14:54:11.267Z,recommendationservice-3,network_in,259633559
2023-07-20T14:54:11.356Z,adservice,network_in,653705243
2023-07-20T14:54:12.862Z,cartservice,network_in,532776341
2023-07-20T14:54:13.738Z,shippingservice,network_in,789999114
2023-07-20T14:54:14.083Z,checkoutservice,network_in,792313305
2023-07-20T14:54:14.842Z,paymentservice,network_in,414823622
2023-07-20T14:54:15.770Z,recommendationservice-1,network_in,396780382
2023-07-20T14:54:16.039Z,recommendationservice-4,network_in,259573953
2023-07-20T14:54:17.787Z,currencyservice,network_in,416066094
2023-07-20T14:54:17.923Z,emailservice,network_in,397949886
2023-07-20T14:54:19.195Z,recommendationservice-2,network_in,302685007
2023-07-20T14:54:20.487Z,probe-holder,network_in,323562526
2023-07-20T14:54:20.620Z,productcatalogservice,network_in,791421407
2023-07-20T14:54:21.268Z,recommendationservice-3,network_in,259642572
2023-07-20T14:54:21.356Z,adservice,network_in,653709537
2023-07-20T14:54:22.861Z,cartservice,network_in,532785156
2023-07-20T14:54:23.738Z,shippingservice,network_in,790008904
2023-07-20T14:54:24.083Z,checkoutservice,network_in,792327565
2023-07-20T14:54:24.842Z,paymentservice,network_in,414831550
2023-07-20T14:54:25.770Z,recommendationservice-1,network_in,396789456
2023-07-20T14:54:26.040Z,recommendationservice-4,network_in,259582203
2023-07-20T14:54:27.788Z,currencyservice,network_in,416074523
2023-07-20T14:54:27.923Z,emailservice,network_in,397958309
2023-07-20T14:54:29.195Z,recommendationservice-2,network_in,302693683
2023-07-20T14:54:30.487Z,probe-holder,network_in,323609505
2023-07-20T14:54:30.620Z,productcatalogservice,network_in,791430518
2023-07-20T14:54:31.268Z,recommendationservice-3,network_in,259647418
2023-07-20T14:54:31.356Z,adservice,network_in,653722381
2023-07-20T14:54:32.862Z,cartservice,network_in,532793969
2023-07-20T14:54:33.738Z,shippingservice,network_in,790017937
2023-07-20T14:54:34.083Z,checkoutservice,network_in,792332961
2023-07-20T14:54:34.842Z,paymentservice,network_in,414839478
2023-07-20T14:54:35.770Z,recommendationservice-1,network_in,396798532
2023-07-20T14:54:36.039Z,recommendationservice-4,network_in,259590454
2023-07-20T14:54:37.788Z,currencyservice,network_in,416082530
2023-07-20T14:54:37.923Z,emailservice,network_in,397963079
2023-07-20T14:54:39.195Z,recommendationservice-2,network_in,302698192
2023-07-20T14:54:40.487Z,probe-holder,network_in,323656191
2023-07-20T14:54:40.619Z,productcatalogservice,network_in,791435491
2023-07-20T14:54:41.267Z,recommendationservice-3,network_in,259656012
2023-07-20T14:54:41.356Z,adservice,network_in,653730376
2023-07-20T14:54:42.861Z,cartservice,network_in,532803962
2023-07-20T14:54:43.738Z,shippingservice,network_in,790026553
2023-07-20T14:54:44.083Z,checkoutservice,network_in,792342034
2023-07-20T14:54:44.842Z,paymentservice,network_in,414843736
2023-07-20T14:54:45.770Z,recommendationservice-1,network_in,396803869
2023-07-20T14:54:46.039Z,recommendationservice-4,network_in,259594962
2023-07-20T14:54:47.787Z,currencyservice,network_in,416086902
2023-07-20T14:54:47.923Z,emailservice,network_in,397976408
2023-07-20T14:54:49.195Z,recommendationservice-2,network_in,302706447
2023-07-20T14:54:50.487Z,probe-holder,network_in,323702149
2023-07-20T14:54:50.620Z,productcatalogservice,network_in,791444181
2023-07-20T14:54:51.268Z,recommendationservice-3,network_in,259664605
2023-07-20T14:54:51.356Z,adservice,network_in,653735092
2023-07-20T14:54:52.862Z,cartservice,network_in,532813200
2023-07-20T14:54:53.738Z,shippingservice,network_in,790031489
2023-07-20T14:54:54.083Z,checkoutservice,network_in,792351015
2023-07-20T14:54:54.842Z,paymentservice,network_in,414856580
2023-07-20T14:54:55.770Z,recommendationservice-1,network_in,396817873
2023-07-20T14:54:56.039Z,recommendationservice-4,network_in,259603214
2023-07-20T14:54:57.787Z,currencyservice,network_in,416094909
2023-07-20T14:54:57.923Z,emailservice,network_in,397985256
2023-07-20T14:54:59.195Z,recommendationservice-2,network_in,302714769
2023-07-20T14:55:00.487Z,probe-holder,network_in,323744510
2023-07-20T14:55:00.620Z,productcatalogservice,network_in,791452874
2023-07-20T14:55:01.267Z,recommendationservice-3,network_in,259669457
2023-07-20T14:55:01.356Z,adservice,network_in,653743129
2023-07-20T14:55:02.861Z,cartservice,network_in,532822019
2023-07-20T14:55:03.738Z,shippingservice,network_in,790040099
2023-07-20T14:55:04.083Z,checkoutservice,network_in,792356417
2023-07-20T14:55:04.842Z,paymentservice,network_in,414864930
2023-07-20T14:55:05.770Z,recommendationservice-1,network_in,396827374
2023-07-20T14:55:06.040Z,recommendationservice-4,network_in,259616548
2023-07-20T14:55:07.787Z,currencyservice,network_in,416102850
2023-07-20T14:55:07.923Z,emailservice,network_in,397990026
2023-07-20T14:55:09.195Z,recommendationservice-2,network_in,302724278
2023-07-20T14:55:10.487Z,probe-holder,network_in,323790442
2023-07-20T14:55:10.620Z,productcatalogservice,network_in,791457851
2023-07-20T14:55:11.268Z,recommendationservice-3,network_in,259683044
2023-07-20T14:55:11.356Z,adservice,network_in,653751124
2023-07-20T14:55:12.861Z,cartservice,network_in,532827189
2023-07-20T14:55:13.738Z,shippingservice,network_in,790049147
2023-07-20T14:55:14.083Z,checkoutservice,network_in,792365426
2023-07-20T14:55:14.842Z,paymentservice,network_in,414869188
2023-07-20T14:55:15.770Z,recommendationservice-1,network_in,396832707
2023-07-20T14:55:16.039Z,recommendationservice-4,network_in,259621481
2023-07-20T14:55:17.787Z,currencyservice,network_in,416112035
2023-07-20T14:55:17.923Z,emailservice,network_in,397998448
2023-07-20T14:55:19.195Z,recommendationservice-2,network_in,302732606
2023-07-20T14:55:20.487Z,probe-holder,network_in,323836229
2023-07-20T14:55:20.620Z,productcatalogservice,network_in,791471453
2023-07-20T14:55:21.268Z,recommendationservice-3,network_in,259692057
2023-07-20T14:55:21.356Z,adservice,network_in,653755418
2023-07-20T14:55:22.861Z,cartservice,network_in,532836002
2023-07-20T14:55:23.738Z,shippingservice,network_in,790059010
2023-07-20T14:55:24.083Z,checkoutservice,network_in,792379757
2023-07-20T14:55:24.842Z,paymentservice,network_in,414877116
2023-07-20T14:55:25.770Z,recommendationservice-1,network_in,396841778
2023-07-20T14:55:26.039Z,recommendationservice-4,network_in,259629737
2023-07-20T14:55:27.787Z,currencyservice,network_in,416120464
2023-07-20T14:55:27.923Z,emailservice,network_in,398006966
2023-07-20T14:55:29.195Z,recommendationservice-2,network_in,302741342
2023-07-20T14:55:30.487Z,probe-holder,network_in,323883493
2023-07-20T14:55:30.620Z,productcatalogservice,network_in,791480563
2023-07-20T14:55:31.268Z,recommendationservice-3,network_in,259696906
2023-07-20T14:55:31.356Z,adservice,network_in,653768262
2023-07-20T14:55:32.861Z,cartservice,network_in,532844810
2023-07-20T14:55:33.738Z,shippingservice,network_in,790068046
2023-07-20T14:55:34.083Z,checkoutservice,network_in,792385153
2023-07-20T14:55:34.842Z,paymentservice,network_in,414885044
2023-07-20T14:55:35.770Z,recommendationservice-1,network_in,396850850
2023-07-20T14:55:36.039Z,recommendationservice-4,network_in,259638059
2023-07-20T14:55:37.787Z,currencyservice,network_in,416128447
2023-07-20T14:55:37.923Z,emailservice,network_in,398011799
2023-07-20T14:55:39.195Z,recommendationservice-2,network_in,302745917
2023-07-20T14:55:40.487Z,probe-holder,network_in,323929747
2023-07-20T14:55:40.620Z,productcatalogservice,network_in,791485531
2023-07-20T14:55:41.268Z,recommendationservice-3,network_in,259705496
2023-07-20T14:55:41.356Z,adservice,network_in,653779916
2023-07-20T14:55:42.862Z,cartservice,network_in,533076204
2023-07-20T14:55:43.738Z,shippingservice,network_in,790076664
2023-07-20T14:55:44.083Z,checkoutservice,network_in,792615449
2023-07-20T14:55:44.845Z,paymentservice,network_in,415110728
2023-07-20T14:55:45.770Z,recommendationservice-1,network_in,397077295
2023-07-20T14:55:46.039Z,recommendationservice-4,network_in,259863496
