timestamp,key,run_id,resource,metric,value
2021-06-09T07:53:53.682Z,RESERVED_GLOBAL_UNIT_MULTI_PROBE-1-1-1,1,monitoring-unit-1,network_out,1.0690641403198242
2021-06-09T08:05:40.315Z,RESERVED_GLOBAL_UNIT_MULTI_PROBE-1-1-1,2,monitoring-unit-1,network_out,1.077829360961914
2021-06-09T08:17:39.122Z,RESERVED_GLOBAL_UNIT_MULTI_PROBE-1-1-1,3,monitoring-unit-1,network_out,1.0625038146972656
2021-06-09T21:50:53.750Z,RESERVED_GLOBAL_UNIT_MULTI_PROBE-16-1-1,1,monitoring-unit-1,network_out,1.134237289428711
2021-06-09T21:50:55.476Z,RESERVED_GLOBAL_UNIT_MULTI_PROBE-16-1-1,1,monitoring-unit-10,network_out,1.1356792449951172
2021-06-09T21:50:56.051Z,RESERVED_GLOBAL_UNIT_MULTI_PROBE-16-1-1,1,monitoring-unit-11,network_out,1.1309518814086914
2021-06-09T21:50:56.228Z,RESERVED_GLOBAL_UNIT_MULTI_PROBE-16-1-1,1,monitoring-unit-12,network_out,1.1400585174560547
2021-06-09T21:50:56.601Z,RESERVED_GLOBAL_UNIT_MULTI_PROBE-16-1-1,1,monitoring-unit-13,network_out,1.1309518814086914
2021-06-09T21:50:56.551Z,RESERVED_GLOBAL_UNIT_MULTI_PROBE-16-1-1,1,monitoring-unit-14,network_out,1.1305274963378906
2021-06-09T21:50:56.612Z,RESERVED_GLOBAL_UNIT_MULTI_PROBE-16-1-1,1,monitoring-unit-15,network_out,1.1273889541625977
2021-06-09T21:50:57.093Z,RESERVED_GLOBAL_UNIT_MULTI_PROBE-16-1-1,1,monitoring-unit-16,network_out,1.1317081451416016
2021-06-09T21:50:53.516Z,RESERVED_GLOBAL_UNIT_MULTI_PROBE-16-1-1,1,monitoring-unit-2,network_out,1.2953510284423828
2021-06-09T21:50:53.932Z,RESERVED_GLOBAL_UNIT_MULTI_PROBE-16-1-1,1,monitoring-unit-3,network_out,1.1221809387207031
2021-06-09T21:50:53.974Z,RESERVED_GLOBAL_UNIT_MULTI_PROBE-16-1-1,1,monitoring-unit-4,network_out,1.1284503936767578
2021-06-09T21:50:53.934Z,RESERVED_GLOBAL_UNIT_MULTI_PROBE-16-1-1,1,monitoring-unit-5,network_out,1.1286211013793945
2021-06-09T21:50:54.713Z,RESERVED_GLOBAL_UNIT_MULTI_PROBE-16-1-1,1,monitoring-unit-6,network_out,1.1235771179199219
2021-06-09T21:50:55.252Z,RESERVED_GLOBAL_UNIT_MULTI_PROBE-16-1-1,1,monitoring-unit-7,network_out,1.1320075988769531
2021-06-09T21:50:54.818Z,RESERVED_GLOBAL_UNIT_MULTI_PROBE-16-1-1,1,monitoring-unit-8,network_out,1.1232223510742188
2021-06-09T21:50:55.412Z,RESERVED_GLOBAL_UNIT_MULTI_PROBE-16-1-1,1,monitoring-unit-9,network_out,1.1237554550170898
2021-06-09T22:05:13.386Z,RESERVED_GLOBAL_UNIT_MULTI_PROBE-16-1-1,2,monitoring-unit-1,network_out,1.1476211547851562
2021-06-09T22:05:14.817Z,RESERVED_GLOBAL_UNIT_MULTI_PROBE-16-1-1,2,monitoring-unit-10,network_out,1.1300649642944336
2021-06-09T22:05:15.438Z,RESERVED_GLOBAL_UNIT_MULTI_PROBE-16-1-1,2,monitoring-unit-11,network_out,1.130112648010254
2021-06-09T22:05:15.589Z,RESERVED_GLOBAL_UNIT_MULTI_PROBE-16-1-1,2,monitoring-unit-12,network_out,1.121870994567871
2021-06-09T22:05:15.734Z,RESERVED_GLOBAL_UNIT_MULTI_PROBE-16-1-1,2,monitoring-unit-13,network_out,1.1361351013183594
2021-06-09T22:05:16.104Z,RESERVED_GLOBAL_UNIT_MULTI_PROBE-16-1-1,2,monitoring-unit-14,network_out,1.130533218383789
2021-06-09T22:05:15.968Z,RESERVED_GLOBAL_UNIT_MULTI_PROBE-16-1-1,2,monitoring-unit-15,network_out,1.1506128311157227
2021-06-09T22:05:16.661Z,RESERVED_GLOBAL_UNIT_MULTI_PROBE-16-1-1,2,monitoring-unit-16,network_out,1.1282930374145508
2021-06-09T22:05:13.085Z,RESERVED_GLOBAL_UNIT_MULTI_PROBE-16-1-1,2,monitoring-unit-2,network_out,1.195988655090332
2021-06-09T22:05:13.535Z,RESERVED_GLOBAL_UNIT_MULTI_PROBE-16-1-1,2,monitoring-unit-3,network_out,1.1252756118774414
2021-06-09T22:05:13.609Z,RESERVED_GLOBAL_UNIT_MULTI_PROBE-16-1-1,2,monitoring-unit-4,network_out,1.1281538009643555
2021-06-09T22:05:13.517Z,RESERVED_GLOBAL_UNIT_MULTI_PROBE-16-1-1,2,monitoring-unit-5,network_out,1.1282777786254883
2021-06-09T22:05:14.322Z,RESERVED_GLOBAL_UNIT_MULTI_PROBE-16-1-1,2,monitoring-unit-6,network_out,1.1295175552368164
2021-06-09T22:05:14.558Z,RESERVED_GLOBAL_UNIT_MULTI_PROBE-16-1-1,2,monitoring-unit-7,network_out,1.1218013763427734
2021-06-09T22:05:14.725Z,RESERVED_GLOBAL_UNIT_MULTI_PROBE-16-1-1,2,monitoring-unit-8,network_out,1.1257696151733398
2021-06-09T22:05:14.460Z,RESERVED_GLOBAL_UNIT_MULTI_PROBE-16-1-1,2,monitoring-unit-9,network_out,1.1296634674072266
2021-06-09T22:19:31.901Z,RESERVED_GLOBAL_UNIT_MULTI_PROBE-16-1-1,3,monitoring-unit-1,network_out,1.1218080520629883
2021-06-09T22:19:33.274Z,RESERVED_GLOBAL_UNIT_MULTI_PROBE-16-1-1,3,monitoring-unit-10,network_out,1.130117416381836
2021-06-09T22:19:33.978Z,RESERVED_GLOBAL_UNIT_MULTI_PROBE-16-1-1,3,monitoring-unit-11,network_out,1.124114990234375
2021-06-09T22:19:34.196Z,RESERVED_GLOBAL_UNIT_MULTI_PROBE-16-1-1,3,monitoring-unit-12,network_out,1.1304588317871094
2021-06-09T22:19:34.388Z,RESERVED_GLOBAL_UNIT_MULTI_PROBE-16-1-1,3,monitoring-unit-13,network_out,1.1273717880249023
2021-06-09T22:19:34.528Z,RESERVED_GLOBAL_UNIT_MULTI_PROBE-16-1-1,3,monitoring-unit-14,network_out,1.1234893798828125
2021-06-09T22:19:34.379Z,RESERVED_GLOBAL_UNIT_MULTI_PROBE-16-1-1,3,monitoring-unit-15,network_out,1.1289424896240234
2021-06-09T22:19:35.241Z,RESERVED_GLOBAL_UNIT_MULTI_PROBE-16-1-1,3,monitoring-unit-16,network_out,1.1247100830078125
2021-06-09T22:19:31.610Z,RESERVED_GLOBAL_UNIT_MULTI_PROBE-16-1-1,3,monitoring-unit-2,network_out,1.1342697143554688
2021-06-09T22:19:32.091Z,RESERVED_GLOBAL_UNIT_MULTI_PROBE-16-1-1,3,monitoring-unit-3,network_out,1.133427619934082
2021-06-09T22:19:32.081Z,RESERVED_GLOBAL_UNIT_MULTI_PROBE-16-1-1,3,monitoring-unit-4,network_out,1.1224822998046875
2021-06-09T22:19:32.085Z,RESERVED_GLOBAL_UNIT_MULTI_PROBE-16-1-1,3,monitoring-unit-5,network_out,1.1255884170532227
2021-06-09T22:19:32.837Z,RESERVED_GLOBAL_UNIT_MULTI_PROBE-16-1-1,3,monitoring-unit-6,network_out,1.1222038269042969
2021-06-09T22:19:33.114Z,RESERVED_GLOBAL_UNIT_MULTI_PROBE-16-1-1,3,monitoring-unit-7,network_out,1.137643814086914
2021-06-09T22:19:33.239Z,RESERVED_GLOBAL_UNIT_MULTI_PROBE-16-1-1,3,monitoring-unit-8,network_out,1.1286945343017578
2021-06-09T22:19:33.319Z,RESERVED_GLOBAL_UNIT_MULTI_PROBE-16-1-1,3,monitoring-unit-9,network_out,1.1265974044799805
2021-06-09T11:16:47.260Z,RESERVED_GLOBAL_UNIT_MULTI_PROBE-2-1-1,1,monitoring-unit-1,network_out,1.0874519348144531
2021-06-09T11:16:47.938Z,RESERVED_GLOBAL_UNIT_MULTI_PROBE-2-1-1,1,monitoring-unit-2,network_out,1.0755605697631836
2021-06-09T11:28:41.256Z,RESERVED_GLOBAL_UNIT_MULTI_PROBE-2-1-1,2,monitoring-unit-1,network_out,1.0762557983398438
2021-06-09T11:28:40.531Z,RESERVED_GLOBAL_UNIT_MULTI_PROBE-2-1-1,2,monitoring-unit-2,network_out,1.0687618255615234
2021-06-09T11:40:33.734Z,RESERVED_GLOBAL_UNIT_MULTI_PROBE-2-1-1,3,monitoring-unit-1,network_out,1.0661001205444336
2021-06-09T11:40:33.136Z,RESERVED_GLOBAL_UNIT_MULTI_PROBE-2-1-1,3,monitoring-unit-2,network_out,1.0648183822631836
2021-06-09T20:34:49.835Z,RESERVED_GLOBAL_UNIT_MULTI_PROBE-4-1-1,1,monitoring-unit-1,network_out,1.122309684753418
2021-06-09T20:34:49.157Z,RESERVED_GLOBAL_UNIT_MULTI_PROBE-4-1-1,1,monitoring-unit-2,network_out,1.1196002960205078
2021-06-09T20:34:49.982Z,RESERVED_GLOBAL_UNIT_MULTI_PROBE-4-1-1,1,monitoring-unit-3,network_out,1.1277847290039062
2021-06-09T20:34:49.938Z,RESERVED_GLOBAL_UNIT_MULTI_PROBE-4-1-1,1,monitoring-unit-4,network_out,1.1210517883300781
2021-06-09T20:46:53.024Z,RESERVED_GLOBAL_UNIT_MULTI_PROBE-4-1-1,2,monitoring-unit-1,network_out,1.1521120071411133
2021-06-09T20:46:52.365Z,RESERVED_GLOBAL_UNIT_MULTI_PROBE-4-1-1,2,monitoring-unit-2,network_out,1.1441154479980469
2021-06-09T20:46:52.660Z,RESERVED_GLOBAL_UNIT_MULTI_PROBE-4-1-1,2,monitoring-unit-3,network_out,1.1218671798706055
2021-06-09T20:46:52.650Z,RESERVED_GLOBAL_UNIT_MULTI_PROBE-4-1-1,2,monitoring-unit-4,network_out,1.1270437240600586
2021-06-09T20:58:55.083Z,RESERVED_GLOBAL_UNIT_MULTI_PROBE-4-1-1,3,monitoring-unit-1,network_out,1.2948617935180664
2021-06-09T20:58:54.179Z,RESERVED_GLOBAL_UNIT_MULTI_PROBE-4-1-1,3,monitoring-unit-2,network_out,1.1313657760620117
2021-06-09T20:58:54.540Z,RESERVED_GLOBAL_UNIT_MULTI_PROBE-4-1-1,3,monitoring-unit-3,network_out,1.1291685104370117
2021-06-09T20:58:54.509Z,RESERVED_GLOBAL_UNIT_MULTI_PROBE-4-1-1,3,monitoring-unit-4,network_out,1.1300020217895508
2021-06-09T21:11:28.018Z,RESERVED_GLOBAL_UNIT_MULTI_PROBE-8-1-1,1,monitoring-unit-1,network_out,1.285745620727539
2021-06-09T21:11:28.087Z,RESERVED_GLOBAL_UNIT_MULTI_PROBE-8-1-1,1,monitoring-unit-2,network_out,1.1291685104370117
2021-06-09T21:11:28.580Z,RESERVED_GLOBAL_UNIT_MULTI_PROBE-8-1-1,1,monitoring-unit-3,network_out,1.1298017501831055
2021-06-09T21:11:28.481Z,RESERVED_GLOBAL_UNIT_MULTI_PROBE-8-1-1,1,monitoring-unit-4,network_out,1.1266050338745117
2021-06-09T21:11:28.973Z,RESERVED_GLOBAL_UNIT_MULTI_PROBE-8-1-1,1,monitoring-unit-5,network_out,1.1186227798461914
2021-06-09T21:11:29.668Z,RESERVED_GLOBAL_UNIT_MULTI_PROBE-8-1-1,1,monitoring-unit-6,network_out,1.1286239624023438
2021-06-09T21:11:30.075Z,RESERVED_GLOBAL_UNIT_MULTI_PROBE-8-1-1,1,monitoring-unit-7,network_out,1.2684507369995117
2021-06-09T21:11:29.753Z,RESERVED_GLOBAL_UNIT_MULTI_PROBE-8-1-1,1,monitoring-unit-8,network_out,1.147165298461914
2021-06-09T21:24:13.820Z,RESERVED_GLOBAL_UNIT_MULTI_PROBE-8-1-1,2,monitoring-unit-1,network_out,1.2888603210449219
2021-06-09T21:24:13.641Z,RESERVED_GLOBAL_UNIT_MULTI_PROBE-8-1-1,2,monitoring-unit-2,network_out,1.1825342178344727
2021-06-09T21:24:13.931Z,RESERVED_GLOBAL_UNIT_MULTI_PROBE-8-1-1,2,monitoring-unit-3,network_out,1.1322917938232422
2021-06-09T21:24:14.001Z,RESERVED_GLOBAL_UNIT_MULTI_PROBE-8-1-1,2,monitoring-unit-4,network_out,1.1632270812988281
2021-06-09T21:24:14.053Z,RESERVED_GLOBAL_UNIT_MULTI_PROBE-8-1-1,2,monitoring-unit-5,network_out,1.137770652770996
2021-06-09T21:24:14.972Z,RESERVED_GLOBAL_UNIT_MULTI_PROBE-8-1-1,2,monitoring-unit-6,network_out,1.1391353607177734
2021-06-09T21:24:15.107Z,RESERVED_GLOBAL_UNIT_MULTI_PROBE-8-1-1,2,monitoring-unit-7,network_out,1.1722784042358398
2021-06-09T21:24:15.067Z,RESERVED_GLOBAL_UNIT_MULTI_PROBE-8-1-1,2,monitoring-unit-8,network_out,1.1521568298339844
2021-06-09T21:36:57.943Z,RESERVED_GLOBAL_UNIT_MULTI_PROBE-8-1-1,3,monitoring-unit-1,network_out,1.1354084014892578
2021-06-09T21:36:57.592Z,RESERVED_GLOBAL_UNIT_MULTI_PROBE-8-1-1,3,monitoring-unit-2,network_out,1.2914934158325195
2021-06-09T21:36:58.015Z,RESERVED_GLOBAL_UNIT_MULTI_PROBE-8-1-1,3,monitoring-unit-3,network_out,1.1275739669799805
2021-06-09T21:36:58.262Z,RESERVED_GLOBAL_UNIT_MULTI_PROBE-8-1-1,3,monitoring-unit-4,network_out,1.1281414031982422
2021-06-09T21:36:58.062Z,RESERVED_GLOBAL_UNIT_MULTI_PROBE-8-1-1,3,monitoring-unit-5,network_out,1.1266555786132812
2021-06-09T21:36:58.821Z,RESERVED_GLOBAL_UNIT_MULTI_PROBE-8-1-1,3,monitoring-unit-6,network_out,1.129063606262207
2021-06-09T21:36:59.234Z,RESERVED_GLOBAL_UNIT_MULTI_PROBE-8-1-1,3,monitoring-unit-7,network_out,1.1220674514770508
2021-06-09T21:36:59.176Z,RESERVED_GLOBAL_UNIT_MULTI_PROBE-8-1-1,3,monitoring-unit-8,network_out,1.1272859573364258
