timestamp,key,run_id,resource,metric,value
2022-04-02T21:03:46.710Z,RESERVED_SIDECAR_1-2-1-1,1,target-1,network_in,0.04301166534423828
2022-04-02T21:13:55.629Z,RESERVED_SIDECAR_1-2-1-1,2,target-1,network_in,0.04039192199707031
2022-04-02T21:24:04.606Z,RESERVED_SIDECAR_1-2-1-1,3,target-1,network_in,0.04312419891357422
2022-04-03T03:22:06.024Z,RESERVED_SIDECAR_1-2-16-1,1,target-1,network_in,0.5637397766113281
2022-04-03T03:22:06.024Z,RESERVED_SIDECAR_1-2-16-1,1,target-10,network_in,0.5908966064453125
2022-04-03T03:22:05.945Z,RESERVED_SIDECAR_1-2-16-1,1,target-11,network_in,0.5731563568115234
2022-04-03T03:22:05.938Z,RESERVED_SIDECAR_1-2-16-1,1,target-12,network_in,0.5955905914306641
2022-04-03T03:22:06.024Z,RESERVED_SIDECAR_1-2-16-1,1,target-13,network_in,0.5736846923828125
2022-04-03T03:22:05.945Z,RESERVED_SIDECAR_1-2-16-1,1,target-14,network_in,0.5789680480957031
2022-04-03T03:22:05.945Z,RESERVED_SIDECAR_1-2-16-1,1,target-15,network_in,0.5853328704833984
2022-04-03T03:22:06.024Z,RESERVED_SIDECAR_1-2-16-1,1,target-16,network_in,0.5687713623046875
2022-04-03T03:22:05.945Z,RESERVED_SIDECAR_1-2-16-1,1,target-2,network_in,0.568450927734375
2022-04-03T03:22:05.945Z,RESERVED_SIDECAR_1-2-16-1,1,target-3,network_in,0.5714912414550781
2022-04-03T03:22:06.024Z,RESERVED_SIDECAR_1-2-16-1,1,target-4,network_in,0.5856599807739258
2022-04-03T03:22:06.024Z,RESERVED_SIDECAR_1-2-16-1,1,target-5,network_in,0.5748424530029297
2022-04-03T03:22:05.945Z,RESERVED_SIDECAR_1-2-16-1,1,target-6,network_in,0.5830650329589844
2022-04-03T03:22:05.945Z,RESERVED_SIDECAR_1-2-16-1,1,target-7,network_in,0.569096565246582
2022-04-03T03:22:06.024Z,RESERVED_SIDECAR_1-2-16-1,1,target-8,network_in,0.5707015991210938
2022-04-03T03:22:05.938Z,RESERVED_SIDECAR_1-2-16-1,1,target-9,network_in,0.5898265838623047
2022-04-03T03:33:24.036Z,RESERVED_SIDECAR_1-2-16-1,2,target-1,network_in,0.6032981872558594
2022-04-03T03:33:24.036Z,RESERVED_SIDECAR_1-2-16-1,2,target-10,network_in,0.5793571472167969
2022-04-03T03:33:24.002Z,RESERVED_SIDECAR_1-2-16-1,2,target-11,network_in,0.5870342254638672
2022-04-03T03:33:24.002Z,RESERVED_SIDECAR_1-2-16-1,2,target-12,network_in,0.6299972534179688
2022-04-03T03:33:24.036Z,RESERVED_SIDECAR_1-2-16-1,2,target-13,network_in,0.5857353210449219
2022-04-03T03:33:24.002Z,RESERVED_SIDECAR_1-2-16-1,2,target-14,network_in,0.5830211639404297
2022-04-03T03:33:24.002Z,RESERVED_SIDECAR_1-2-16-1,2,target-15,network_in,0.5961074829101562
2022-04-03T03:33:24.036Z,RESERVED_SIDECAR_1-2-16-1,2,target-16,network_in,0.5885047912597656
2022-04-03T03:33:24.002Z,RESERVED_SIDECAR_1-2-16-1,2,target-2,network_in,0.5817527770996094
2022-04-03T03:33:24.002Z,RESERVED_SIDECAR_1-2-16-1,2,target-3,network_in,0.5982122421264648
2022-04-03T03:33:24.036Z,RESERVED_SIDECAR_1-2-16-1,2,target-4,network_in,0.59613037109375
2022-04-03T03:33:24.036Z,RESERVED_SIDECAR_1-2-16-1,2,target-5,network_in,0.5797491073608398
2022-04-03T03:33:24.002Z,RESERVED_SIDECAR_1-2-16-1,2,target-6,network_in,0.5761194229125977
2022-04-03T03:33:24.002Z,RESERVED_SIDECAR_1-2-16-1,2,target-7,network_in,0.5963811874389648
2022-04-03T03:33:24.036Z,RESERVED_SIDECAR_1-2-16-1,2,target-8,network_in,0.5815496444702148
2022-04-03T03:33:24.002Z,RESERVED_SIDECAR_1-2-16-1,2,target-9,network_in,0.6191568374633789
2022-04-03T03:44:41.791Z,RESERVED_SIDECAR_1-2-16-1,3,target-1,network_in,0.5844078063964844
2022-04-03T03:44:41.791Z,RESERVED_SIDECAR_1-2-16-1,3,target-10,network_in,0.5785236358642578
2022-04-03T03:44:41.784Z,RESERVED_SIDECAR_1-2-16-1,3,target-11,network_in,0.6077690124511719
2022-04-03T03:44:41.767Z,RESERVED_SIDECAR_1-2-16-1,3,target-12,network_in,0.6044349670410156
2022-04-03T03:44:41.791Z,RESERVED_SIDECAR_1-2-16-1,3,target-13,network_in,0.5841274261474609
2022-04-03T03:44:41.784Z,RESERVED_SIDECAR_1-2-16-1,3,target-14,network_in,0.6074905395507812
2022-04-03T03:44:41.784Z,RESERVED_SIDECAR_1-2-16-1,3,target-15,network_in,0.6316490173339844
2022-04-03T03:44:41.791Z,RESERVED_SIDECAR_1-2-16-1,3,target-16,network_in,0.5732269287109375
2022-04-03T03:44:41.784Z,RESERVED_SIDECAR_1-2-16-1,3,target-2,network_in,0.5956840515136719
2022-04-03T03:44:41.784Z,RESERVED_SIDECAR_1-2-16-1,3,target-3,network_in,0.5999555587768555
2022-04-03T03:44:41.791Z,RESERVED_SIDECAR_1-2-16-1,3,target-4,network_in,0.563725471496582
2022-04-03T03:44:41.791Z,RESERVED_SIDECAR_1-2-16-1,3,target-5,network_in,0.5693683624267578
2022-04-03T03:44:41.784Z,RESERVED_SIDECAR_1-2-16-1,3,target-6,network_in,0.6047039031982422
2022-04-03T03:44:41.784Z,RESERVED_SIDECAR_1-2-16-1,3,target-7,network_in,0.604975700378418
2022-04-03T03:44:41.791Z,RESERVED_SIDECAR_1-2-16-1,3,target-8,network_in,0.5752086639404297
2022-04-03T03:44:41.767Z,RESERVED_SIDECAR_1-2-16-1,3,target-9,network_in,0.5978574752807617
2022-04-03T01:47:26.593Z,RESERVED_SIDECAR_1-2-2-1,1,target-1,network_in,0.057496070861816406
2022-04-03T01:47:26.593Z,RESERVED_SIDECAR_1-2-2-1,1,target-10,network_in,0.00213623046875
2022-04-03T01:47:26.603Z,RESERVED_SIDECAR_1-2-2-1,1,target-11,network_in,0.0026035308837890625
2022-04-03T01:47:26.643Z,RESERVED_SIDECAR_1-2-2-1,1,target-12,network_in,0.0035858154296875
2022-04-03T01:47:26.593Z,RESERVED_SIDECAR_1-2-2-1,1,target-13,network_in,0.0020694732666015625
2022-04-03T01:47:26.603Z,RESERVED_SIDECAR_1-2-2-1,1,target-14,network_in,0.00240325927734375
2022-04-03T01:47:26.603Z,RESERVED_SIDECAR_1-2-2-1,1,target-15,network_in,0.002536773681640625
2022-04-03T01:47:26.593Z,RESERVED_SIDECAR_1-2-2-1,1,target-16,network_in,0.003116607666015625
2022-04-03T01:47:26.603Z,RESERVED_SIDECAR_1-2-2-1,1,target-2,network_in,0.07103538513183594
2022-04-03T01:47:26.603Z,RESERVED_SIDECAR_1-2-2-1,1,target-3,network_in,0.002536773681640625
2022-04-03T01:47:26.593Z,RESERVED_SIDECAR_1-2-2-1,1,target-4,network_in,0.0023097991943359375
2022-04-03T01:47:26.593Z,RESERVED_SIDECAR_1-2-2-1,1,target-5,network_in,0.0025959014892578125
2022-04-03T01:47:26.603Z,RESERVED_SIDECAR_1-2-2-1,1,target-6,network_in,0.00319671630859375
2022-04-03T01:47:26.603Z,RESERVED_SIDECAR_1-2-2-1,1,target-7,network_in,0.0026035308837890625
2022-04-03T01:47:26.593Z,RESERVED_SIDECAR_1-2-2-1,1,target-8,network_in,0.0022430419921875
2022-04-03T01:47:26.643Z,RESERVED_SIDECAR_1-2-2-1,1,target-9,network_in,0.0035858154296875
2022-04-03T01:57:41.213Z,RESERVED_SIDECAR_1-2-2-1,2,target-1,network_in,0.0705118179321289
2022-04-03T01:57:41.213Z,RESERVED_SIDECAR_1-2-2-1,2,target-10,network_in,0.0014801025390625
2022-04-03T01:57:41.235Z,RESERVED_SIDECAR_1-2-2-1,2,target-11,network_in,0.0024929046630859375
2022-04-03T01:57:41.243Z,RESERVED_SIDECAR_1-2-2-1,2,target-12,network_in,0.0013065338134765625
2022-04-03T01:57:41.213Z,RESERVED_SIDECAR_1-2-2-1,2,target-13,network_in,0.0014801025390625
2022-04-03T01:57:41.235Z,RESERVED_SIDECAR_1-2-2-1,2,target-14,network_in,0.0024929046630859375
2022-04-03T01:57:41.235Z,RESERVED_SIDECAR_1-2-2-1,2,target-15,network_in,0.0024929046630859375
2022-04-03T01:57:41.213Z,RESERVED_SIDECAR_1-2-2-1,2,target-16,network_in,0.00080108642578125
2022-04-03T01:57:41.235Z,RESERVED_SIDECAR_1-2-2-1,2,target-2,network_in,0.08049488067626953
2022-04-03T01:57:41.235Z,RESERVED_SIDECAR_1-2-2-1,2,target-3,network_in,0.0024929046630859375
2022-04-03T01:57:41.213Z,RESERVED_SIDECAR_1-2-2-1,2,target-4,network_in,0.00080108642578125
2022-04-03T01:57:41.213Z,RESERVED_SIDECAR_1-2-2-1,2,target-5,network_in,0.0014133453369140625
2022-04-03T01:57:41.235Z,RESERVED_SIDECAR_1-2-2-1,2,target-6,network_in,0.0024929046630859375
2022-04-03T01:57:41.235Z,RESERVED_SIDECAR_1-2-2-1,2,target-7,network_in,0.0024929046630859375
2022-04-03T01:57:41.213Z,RESERVED_SIDECAR_1-2-2-1,2,target-8,network_in,0.0008678436279296875
2022-04-03T01:57:41.243Z,RESERVED_SIDECAR_1-2-2-1,2,target-9,network_in,0.000980377197265625
2022-04-03T02:07:55.872Z,RESERVED_SIDECAR_1-2-2-1,3,target-1,network_in,0.05342292785644531
2022-04-03T02:07:55.872Z,RESERVED_SIDECAR_1-2-2-1,3,target-10,network_in,0.0
2022-04-03T02:07:55.850Z,RESERVED_SIDECAR_1-2-2-1,3,target-11,network_in,0.0004673004150390625
2022-04-03T02:07:55.874Z,RESERVED_SIDECAR_1-2-2-1,3,target-12,network_in,0.0033721923828125
2022-04-03T02:07:55.872Z,RESERVED_SIDECAR_1-2-2-1,3,target-13,network_in,4.00543212890625e-05
2022-04-03T02:07:55.850Z,RESERVED_SIDECAR_1-2-2-1,3,target-14,network_in,0.0011463165283203125
2022-04-03T02:07:55.850Z,RESERVED_SIDECAR_1-2-2-1,3,target-15,network_in,0.00121307373046875
2022-04-03T02:07:55.872Z,RESERVED_SIDECAR_1-2-2-1,3,target-16,network_in,0.0
2022-04-03T02:07:55.850Z,RESERVED_SIDECAR_1-2-2-1,3,target-2,network_in,0.0713348388671875
2022-04-03T02:07:55.850Z,RESERVED_SIDECAR_1-2-2-1,3,target-3,network_in,0.0011463165283203125
2022-04-03T02:07:55.872Z,RESERVED_SIDECAR_1-2-2-1,3,target-4,network_in,0.0
2022-04-03T02:07:55.872Z,RESERVED_SIDECAR_1-2-2-1,3,target-5,network_in,0.0
2022-04-03T02:07:55.850Z,RESERVED_SIDECAR_1-2-2-1,3,target-6,network_in,0.0006198883056640625
2022-04-03T02:07:55.850Z,RESERVED_SIDECAR_1-2-2-1,3,target-7,network_in,0.00121307373046875
2022-04-03T02:07:55.872Z,RESERVED_SIDECAR_1-2-2-1,3,target-8,network_in,0.0001201629638671875
2022-04-03T02:07:55.874Z,RESERVED_SIDECAR_1-2-2-1,3,target-9,network_in,0.0033721923828125
2022-04-03T02:18:10.691Z,RESERVED_SIDECAR_1-2-4-1,1,target-1,network_in,0.13986968994140625
2022-04-03T02:18:10.691Z,RESERVED_SIDECAR_1-2-4-1,1,target-10,network_in,0.0026798248291015625
2022-04-03T02:18:10.650Z,RESERVED_SIDECAR_1-2-4-1,1,target-11,network_in,0.002613067626953125
2022-04-03T02:18:10.615Z,RESERVED_SIDECAR_1-2-4-1,1,target-12,network_in,0.00347137451171875
2022-04-03T02:18:10.691Z,RESERVED_SIDECAR_1-2-4-1,1,target-13,network_in,0.0026798248291015625
2022-04-03T02:18:10.650Z,RESERVED_SIDECAR_1-2-4-1,1,target-14,network_in,0.001354217529296875
2022-04-03T02:18:10.650Z,RESERVED_SIDECAR_1-2-4-1,1,target-15,network_in,0.0025730133056640625
2022-04-03T02:18:10.691Z,RESERVED_SIDECAR_1-2-4-1,1,target-16,network_in,0.0026397705078125
2022-04-03T02:18:10.650Z,RESERVED_SIDECAR_1-2-4-1,1,target-2,network_in,0.14005470275878906
2022-04-03T02:18:10.650Z,RESERVED_SIDECAR_1-2-4-1,1,target-3,network_in,0.13700580596923828
2022-04-03T02:18:10.691Z,RESERVED_SIDECAR_1-2-4-1,1,target-4,network_in,0.13895034790039062
2022-04-03T02:18:10.691Z,RESERVED_SIDECAR_1-2-4-1,1,target-5,network_in,0.0026798248291015625
2022-04-03T02:18:10.650Z,RESERVED_SIDECAR_1-2-4-1,1,target-6,network_in,0.002613067626953125
2022-04-03T02:18:10.650Z,RESERVED_SIDECAR_1-2-4-1,1,target-7,network_in,0.002613067626953125
2022-04-03T02:18:10.691Z,RESERVED_SIDECAR_1-2-4-1,1,target-8,network_in,0.0026798248291015625
2022-04-03T02:18:10.615Z,RESERVED_SIDECAR_1-2-4-1,1,target-9,network_in,0.004291534423828125
2022-04-03T02:28:34.255Z,RESERVED_SIDECAR_1-2-4-1,2,target-1,network_in,0.13923931121826172
2022-04-03T02:28:34.255Z,RESERVED_SIDECAR_1-2-4-1,2,target-10,network_in,0.0011730194091796875
2022-04-03T02:28:34.320Z,RESERVED_SIDECAR_1-2-4-1,2,target-11,network_in,0.0020313262939453125
2022-04-03T02:28:34.345Z,RESERVED_SIDECAR_1-2-4-1,2,target-12,network_in,0.00415802001953125
2022-04-03T02:28:34.255Z,RESERVED_SIDECAR_1-2-4-1,2,target-13,network_in,0.0020275115966796875
2022-04-03T02:28:34.320Z,RESERVED_SIDECAR_1-2-4-1,2,target-14,network_in,0.002239227294921875
2022-04-03T02:28:34.320Z,RESERVED_SIDECAR_1-2-4-1,2,target-15,network_in,0.00110626220703125
2022-04-03T02:28:34.255Z,RESERVED_SIDECAR_1-2-4-1,2,target-16,network_in,0.0023593902587890625
2022-04-03T02:28:34.320Z,RESERVED_SIDECAR_1-2-4-1,2,target-2,network_in,0.13532161712646484
2022-04-03T02:28:34.320Z,RESERVED_SIDECAR_1-2-4-1,2,target-3,network_in,0.13896942138671875
2022-04-03T02:28:34.255Z,RESERVED_SIDECAR_1-2-4-1,2,target-4,network_in,0.13840007781982422
2022-04-03T02:28:34.255Z,RESERVED_SIDECAR_1-2-4-1,2,target-5,network_in,0.002239227294921875
2022-04-03T02:28:34.320Z,RESERVED_SIDECAR_1-2-4-1,2,target-6,network_in,0.002239227294921875
2022-04-03T02:28:34.320Z,RESERVED_SIDECAR_1-2-4-1,2,target-7,network_in,0.002239227294921875
2022-04-03T02:28:34.255Z,RESERVED_SIDECAR_1-2-4-1,2,target-8,network_in,0.0023593902587890625
2022-04-03T02:28:34.345Z,RESERVED_SIDECAR_1-2-4-1,2,target-9,network_in,0.002193450927734375
2022-04-03T02:38:58.265Z,RESERVED_SIDECAR_1-2-4-1,3,target-1,network_in,0.13988876342773438
2022-04-03T02:38:58.265Z,RESERVED_SIDECAR_1-2-4-1,3,target-10,network_in,0.0021724700927734375
2022-04-03T02:38:58.278Z,RESERVED_SIDECAR_1-2-4-1,3,target-11,network_in,0.001087188720703125
2022-04-03T02:38:58.976Z,RESERVED_SIDECAR_1-2-4-1,3,target-12,network_in,0.0025081634521484375
2022-04-03T02:38:58.265Z,RESERVED_SIDECAR_1-2-4-1,3,target-13,network_in,0.002239227294921875
2022-04-03T02:38:58.278Z,RESERVED_SIDECAR_1-2-4-1,3,target-14,network_in,0.0023059844970703125
2022-04-03T02:38:58.278Z,RESERVED_SIDECAR_1-2-4-1,3,target-15,network_in,0.0023059844970703125
2022-04-03T02:38:58.265Z,RESERVED_SIDECAR_1-2-4-1,3,target-16,network_in,0.002239227294921875
2022-04-03T02:38:58.278Z,RESERVED_SIDECAR_1-2-4-1,3,target-2,network_in,0.14133453369140625
2022-04-03T02:38:58.278Z,RESERVED_SIDECAR_1-2-4-1,3,target-3,network_in,0.1344585418701172
2022-04-03T02:38:58.265Z,RESERVED_SIDECAR_1-2-4-1,3,target-4,network_in,0.1421051025390625
2022-04-03T02:38:58.265Z,RESERVED_SIDECAR_1-2-4-1,3,target-5,network_in,0.002239227294921875
2022-04-03T02:38:58.278Z,RESERVED_SIDECAR_1-2-4-1,3,target-6,network_in,0.0023059844970703125
2022-04-03T02:38:58.278Z,RESERVED_SIDECAR_1-2-4-1,3,target-7,network_in,0.0023059844970703125
2022-04-03T02:38:58.265Z,RESERVED_SIDECAR_1-2-4-1,3,target-8,network_in,0.001758575439453125
2022-04-03T02:38:58.976Z,RESERVED_SIDECAR_1-2-4-1,3,target-9,network_in,0.0042247772216796875
2022-04-03T02:49:32.093Z,RESERVED_SIDECAR_1-2-8-1,1,target-1,network_in,0.29109764099121094
2022-04-03T02:49:32.093Z,RESERVED_SIDECAR_1-2-8-1,1,target-10,network_in,0.0065326690673828125
2022-04-03T02:49:32.140Z,RESERVED_SIDECAR_1-2-8-1,1,target-11,network_in,0.00627899169921875
2022-04-03T02:49:32.145Z,RESERVED_SIDECAR_1-2-8-1,1,target-12,network_in,0.006237030029296875
2022-04-03T02:49:32.093Z,RESERVED_SIDECAR_1-2-8-1,1,target-13,network_in,0.0063457489013671875
2022-04-03T02:49:32.140Z,RESERVED_SIDECAR_1-2-8-1,1,target-14,network_in,0.004608154296875
2022-04-03T02:49:32.140Z,RESERVED_SIDECAR_1-2-8-1,1,target-15,network_in,0.0055522918701171875
2022-04-03T02:49:32.093Z,RESERVED_SIDECAR_1-2-8-1,1,target-16,network_in,0.0063457489013671875
2022-04-03T02:49:32.140Z,RESERVED_SIDECAR_1-2-8-1,1,target-2,network_in,0.2880821228027344
2022-04-03T02:49:32.140Z,RESERVED_SIDECAR_1-2-8-1,1,target-3,network_in,0.2843599319458008
2022-04-03T02:49:32.093Z,RESERVED_SIDECAR_1-2-8-1,1,target-4,network_in,0.29190731048583984
2022-04-03T02:49:32.093Z,RESERVED_SIDECAR_1-2-8-1,1,target-5,network_in,0.2893791198730469
2022-04-03T02:49:32.140Z,RESERVED_SIDECAR_1-2-8-1,1,target-6,network_in,0.29339599609375
2022-04-03T02:49:32.140Z,RESERVED_SIDECAR_1-2-8-1,1,target-7,network_in,0.2934741973876953
2022-04-03T02:49:32.093Z,RESERVED_SIDECAR_1-2-8-1,1,target-8,network_in,0.2948579788208008
2022-04-03T02:49:32.145Z,RESERVED_SIDECAR_1-2-8-1,1,target-9,network_in,0.006237030029296875
2022-04-03T03:00:13.594Z,RESERVED_SIDECAR_1-2-8-1,2,target-1,network_in,0.3003072738647461
2022-04-03T03:00:13.594Z,RESERVED_SIDECAR_1-2-8-1,2,target-10,network_in,0.00606536865234375
2022-04-03T03:00:13.519Z,RESERVED_SIDECAR_1-2-8-1,2,target-11,network_in,0.00475311279296875
2022-04-03T03:00:13.452Z,RESERVED_SIDECAR_1-2-8-1,2,target-12,network_in,0.005092620849609375
2022-04-03T03:00:13.594Z,RESERVED_SIDECAR_1-2-8-1,2,target-13,network_in,0.0061321258544921875
2022-04-03T03:00:13.519Z,RESERVED_SIDECAR_1-2-8-1,2,target-14,network_in,0.0032405853271484375
2022-04-03T03:00:13.519Z,RESERVED_SIDECAR_1-2-8-1,2,target-15,network_in,0.00460052490234375
2022-04-03T03:00:13.594Z,RESERVED_SIDECAR_1-2-8-1,2,target-16,network_in,0.0061321258544921875
2022-04-03T03:00:13.519Z,RESERVED_SIDECAR_1-2-8-1,2,target-2,network_in,0.29221248626708984
2022-04-03T03:00:13.519Z,RESERVED_SIDECAR_1-2-8-1,2,target-3,network_in,0.28848934173583984
2022-04-03T03:00:13.594Z,RESERVED_SIDECAR_1-2-8-1,2,target-4,network_in,0.2935752868652344
2022-04-03T03:00:13.594Z,RESERVED_SIDECAR_1-2-8-1,2,target-5,network_in,0.300537109375
2022-04-03T03:00:13.519Z,RESERVED_SIDECAR_1-2-8-1,2,target-6,network_in,0.2857799530029297
2022-04-03T03:00:13.519Z,RESERVED_SIDECAR_1-2-8-1,2,target-7,network_in,0.2994842529296875
2022-04-03T03:00:13.594Z,RESERVED_SIDECAR_1-2-8-1,2,target-8,network_in,0.29633331298828125
2022-04-03T03:00:13.452Z,RESERVED_SIDECAR_1-2-8-1,2,target-9,network_in,0.006237030029296875
2022-04-03T03:10:54.919Z,RESERVED_SIDECAR_1-2-8-1,3,target-1,network_in,0.29741573333740234
2022-04-03T03:10:54.919Z,RESERVED_SIDECAR_1-2-8-1,3,target-10,network_in,0.0063076019287109375
2022-04-03T03:10:54.890Z,RESERVED_SIDECAR_1-2-8-1,3,target-11,network_in,0.0026950836181640625
2022-04-03T03:10:54.855Z,RESERVED_SIDECAR_1-2-8-1,3,target-12,network_in,0.0063037872314453125
2022-04-03T03:10:54.919Z,RESERVED_SIDECAR_1-2-8-1,3,target-13,network_in,0.006244659423828125
2022-04-03T03:10:54.890Z,RESERVED_SIDECAR_1-2-8-1,3,target-14,network_in,0.0038204193115234375
2022-04-03T03:10:54.890Z,RESERVED_SIDECAR_1-2-8-1,3,target-15,network_in,0.0023746490478515625
2022-04-03T03:10:54.919Z,RESERVED_SIDECAR_1-2-8-1,3,target-16,network_in,0.006244659423828125
2022-04-03T03:10:54.890Z,RESERVED_SIDECAR_1-2-8-1,3,target-2,network_in,0.2925891876220703
2022-04-03T03:10:54.890Z,RESERVED_SIDECAR_1-2-8-1,3,target-3,network_in,0.28885364532470703
2022-04-03T03:10:54.919Z,RESERVED_SIDECAR_1-2-8-1,3,target-4,network_in,0.29766178131103516
2022-04-03T03:10:54.919Z,RESERVED_SIDECAR_1-2-8-1,3,target-5,network_in,0.29766178131103516
2022-04-03T03:10:54.890Z,RESERVED_SIDECAR_1-2-8-1,3,target-6,network_in,0.2873249053955078
2022-04-03T03:10:54.890Z,RESERVED_SIDECAR_1-2-8-1,3,target-7,network_in,0.28990650177001953
2022-04-03T03:10:54.919Z,RESERVED_SIDECAR_1-2-8-1,3,target-8,network_in,0.2995004653930664
2022-04-03T03:10:54.855Z,RESERVED_SIDECAR_1-2-8-1,3,target-9,network_in,0.005245208740234375
