2023-07-20T14:23:08.683Z,checkoutservice,network_out,34992631
2023-07-20T14:23:10.368Z,productcatalogservice,network_out,33761244
2023-07-20T14:23:11.429Z,adservice,network_out,31293505
2023-07-20T14:23:13.619Z,recommendationservice-3,network_out,2014241
2023-07-20T14:23:13.671Z,probe-holder,network_out,401139196
2023-07-20T14:23:13.841Z,emailservice,network_out,32887660
2023-07-20T14:23:14.863Z,recommendationservice-1,network_out,33608239
2023-07-20T14:23:15.018Z,cartservice,network_out,34942130
2023-07-20T14:23:15.120Z,recommendationservice-2,network_out,7967432
2023-07-20T14:23:15.499Z,recommendationservice-4,network_out,2491673
2023-07-20T14:23:17.913Z,currencyservice,network_out,39918974
2023-07-20T14:23:17.052Z,shippingservice,network_out,33547644
2023-07-20T14:23:17.780Z,paymentservice,network_out,39016834
2023-07-20T14:23:18.684Z,checkoutservice,network_out,35017501
2023-07-20T14:23:20.368Z,productcatalogservice,network_out,33780395
2023-07-20T14:23:21.429Z,adservice,network_out,31315186
2023-07-20T14:23:23.620Z,recommendationservice-3,network_out,2029696
2023-07-20T14:23:23.672Z,probe-holder,network_out,401399969
2023-07-20T14:23:23.842Z,emailservice,network_out,32907390
2023-07-20T14:23:24.864Z,recommendationservice-1,network_out,33627779
2023-07-20T14:23:25.019Z,cartservice,network_out,34963119
2023-07-20T14:23:25.120Z,recommendationservice-2,network_out,7987755
2023-07-20T14:23:25.500Z,recommendationservice-4,network_out,2506632
2023-07-20T14:23:27.915Z,currencyservice,network_out,39937136
2023-07-20T14:23:27.053Z,shippingservice,network_out,33571792
2023-07-20T14:23:27.780Z,paymentservice,network_out,39040231
2023-07-20T14:23:28.684Z,checkoutservice,network_out,35038702
2023-07-20T14:23:30.368Z,productcatalogservice,network_out,33801198
2023-07-20T14:23:31.429Z,adservice,network_out,31339354
2023-07-20T14:23:33.620Z,recommendationservice-3,network_out,2050598
2023-07-20T14:23:33.672Z,probe-holder,network_out,401658957
2023-07-20T14:23:33.842Z,emailservice,network_out,32927215
2023-07-20T14:23:34.864Z,recommendationservice-1,network_out,33648504
2023-07-20T14:23:35.019Z,cartservice,network_out,34978863
2023-07-20T14:23:35.120Z,recommendationservice-2,network_out,8002176
2023-07-20T14:23:35.500Z,recommendationservice-4,network_out,2527090
2023-07-20T14:23:37.914Z,currencyservice,network_out,39960563
2023-07-20T14:23:37.053Z,shippingservice,network_out,33592496
2023-07-20T14:23:37.781Z,paymentservice,network_out,39058384
2023-07-20T14:23:38.683Z,checkoutservice,network_out,35054727
2023-07-20T14:23:40.368Z,productcatalogservice,network_out,33822018
2023-07-20T14:23:41.429Z,adservice,network_out,31364226
2023-07-20T14:23:43.620Z,recommendationservice-3,network_out,2071490
2023-07-20T14:23:43.672Z,probe-holder,network_out,401919717
2023-07-20T14:23:43.842Z,emailservice,network_out,32941855
2023-07-20T14:23:44.864Z,recommendationservice-1,network_out,33663887
2023-07-20T14:23:45.019Z,cartservice,network_out,35003581
2023-07-20T14:23:45.120Z,recommendationservice-2,network_out,8021896
2023-07-20T14:23:45.500Z,recommendationservice-4,network_out,2547521
2023-07-20T14:23:47.915Z,currencyservice,network_out,39984093
2023-07-20T14:23:47.053Z,shippingservice,network_out,33607905
2023-07-20T14:23:47.780Z,paymentservice,network_out,39084783
2023-07-20T14:23:48.684Z,checkoutservice,network_out,35076015
2023-07-20T14:23:50.368Z,productcatalogservice,network_out,33837525
2023-07-20T14:23:51.429Z,adservice,network_out,31383082
2023-07-20T14:23:53.620Z,recommendationservice-3,network_out,2087059
2023-07-20T14:23:53.672Z,probe-holder,network_out,402180401
2023-07-20T14:23:53.842Z,emailservice,network_out,32965314
2023-07-20T14:23:54.865Z,recommendationservice-1,network_out,33688214
2023-07-20T14:23:55.019Z,cartservice,network_out,35024569
2023-07-20T14:23:55.120Z,recommendationservice-2,network_out,8041643
2023-07-20T14:23:55.500Z,recommendationservice-4,network_out,2562643
2023-07-20T14:23:57.914Z,currencyservice,network_out,40002318
2023-07-20T14:23:57.053Z,shippingservice,network_out,33628597
2023-07-20T14:23:57.781Z,paymentservice,network_out,39108978
2023-07-20T14:23:58.684Z,checkoutservice,network_out,35097131
2023-07-20T14:24:00.368Z,productcatalogservice,network_out,33858348
2023-07-20T14:24:01.429Z,adservice,network_out,31407288
2023-07-20T14:24:03.620Z,recommendationservice-3,network_out,2107934
2023-07-20T14:24:03.672Z,probe-holder,network_out,402435929
2023-07-20T14:24:03.842Z,emailservice,network_out,32985210
2023-07-20T14:24:04.864Z,recommendationservice-1,network_out,33708886
2023-07-20T14:24:05.019Z,cartservice,network_out,35040284
2023-07-20T14:24:05.120Z,recommendationservice-2,network_out,8058997
2023-07-20T14:24:05.500Z,recommendationservice-4,network_out,2586681
2023-07-20T14:24:07.914Z,currencyservice,network_out,40025695
2023-07-20T14:24:07.053Z,shippingservice,network_out,33651111
2023-07-20T14:24:07.780Z,paymentservice,network_out,39127174
2023-07-20T14:24:08.683Z,checkoutservice,network_out,35113280
2023-07-20T14:24:10.368Z,productcatalogservice,network_out,33879305
2023-07-20T14:24:11.429Z,adservice,network_out,31431545
2023-07-20T14:24:13.620Z,recommendationservice-3,network_out,2135185
2023-07-20T14:24:13.672Z,probe-holder,network_out,402696772
2023-07-20T14:24:13.842Z,emailservice,network_out,32999979
2023-07-20T14:24:14.864Z,recommendationservice-1,network_out,33724383
2023-07-20T14:24:15.019Z,cartservice,network_out,35061378
2023-07-20T14:24:15.120Z,recommendationservice-2,network_out,8078841
2023-07-20T14:24:15.500Z,recommendationservice-4,network_out,2607252
2023-07-20T14:24:17.914Z,currencyservice,network_out,40052965
2023-07-20T14:24:17.053Z,shippingservice,network_out,33674079
2023-07-20T14:24:17.780Z,paymentservice,network_out,39150736
2023-07-20T14:24:18.684Z,checkoutservice,network_out,35138128
2023-07-20T14:24:20.368Z,productcatalogservice,network_out,33898421
2023-07-20T14:24:21.429Z,adservice,network_out,31453275
2023-07-20T14:24:23.620Z,recommendationservice-3,network_out,2150827
2023-07-20T14:24:23.672Z,probe-holder,network_out,402957453
2023-07-20T14:24:23.842Z,emailservice,network_out,33019849
2023-07-20T14:24:24.864Z,recommendationservice-1,network_out,33745107
2023-07-20T14:24:25.019Z,cartservice,network_out,35082386
2023-07-20T14:24:25.120Z,recommendationservice-2,network_out,8093986
2023-07-20T14:24:25.500Z,recommendationservice-4,network_out,2622379
2023-07-20T14:24:27.914Z,currencyservice,network_out,40071134
2023-07-20T14:24:27.053Z,shippingservice,network_out,33698370
2023-07-20T14:24:27.780Z,paymentservice,network_out,39174112
2023-07-20T14:24:28.684Z,checkoutservice,network_out,35159311
2023-07-20T14:24:30.368Z,productcatalogservice,network_out,33919265
2023-07-20T14:24:31.429Z,adservice,network_out,31479952
2023-07-20T14:24:33.620Z,recommendationservice-3,network_out,2171713
2023-07-20T14:24:33.672Z,probe-holder,network_out,403214792
2023-07-20T14:24:33.842Z,emailservice,network_out,33039743
2023-07-20T14:24:34.865Z,recommendationservice-1,network_out,33765800
2023-07-20T14:24:35.019Z,cartservice,network_out,35098127
2023-07-20T14:24:35.120Z,recommendationservice-2,network_out,8113758
2023-07-20T14:24:35.500Z,recommendationservice-4,network_out,2642839
2023-07-20T14:24:37.914Z,currencyservice,network_out,40094546
2023-07-20T14:24:37.053Z,shippingservice,network_out,33719121
2023-07-20T14:24:37.780Z,paymentservice,network_out,39192202
2023-07-20T14:24:38.684Z,checkoutservice,network_out,35175275
2023-07-20T14:24:40.368Z,productcatalogservice,network_out,33940121
2023-07-20T14:24:41.429Z,adservice,network_out,31504795
2023-07-20T14:24:43.620Z,recommendationservice-3,network_out,2192606
2023-07-20T14:24:43.672Z,probe-holder,network_out,403473661
2023-07-20T14:24:43.842Z,emailservice,network_out,33054392
2023-07-20T14:24:44.865Z,recommendationservice-1,network_out,33781174
2023-07-20T14:24:45.019Z,cartservice,network_out,35122790
2023-07-20T14:24:45.120Z,recommendationservice-2,network_out,8133542
2023-07-20T14:24:45.500Z,recommendationservice-4,network_out,2663280
2023-07-20T14:24:47.915Z,currencyservice,network_out,40118042
2023-07-20T14:24:47.053Z,shippingservice,network_out,33734556
2023-07-20T14:24:47.781Z,paymentservice,network_out,39218497
2023-07-20T14:24:48.684Z,checkoutservice,network_out,35196499
2023-07-20T14:24:50.369Z,productcatalogservice,network_out,33955677
2023-07-20T14:24:51.429Z,adservice,network_out,31523682
2023-07-20T14:24:53.620Z,recommendationservice-3,network_out,2208199
2023-07-20T14:24:53.672Z,probe-holder,network_out,403732493
2023-07-20T14:24:53.842Z,emailservice,network_out,33077874
2023-07-20T14:24:54.864Z,recommendationservice-1,network_out,33805572
2023-07-20T14:24:55.019Z,cartservice,network_out,35143841
2023-07-20T14:24:55.120Z,recommendationservice-2,network_out,8147961
2023-07-20T14:24:55.500Z,recommendationservice-4,network_out,2678414
2023-07-20T14:24:57.914Z,currencyservice,network_out,40136212
2023-07-20T14:24:57.053Z,shippingservice,network_out,33755251
2023-07-20T14:24:57.780Z,paymentservice,network_out,39242574
2023-07-20T14:24:58.684Z,checkoutservice,network_out,35217667
2023-07-20T14:25:00.368Z,productcatalogservice,network_out,33976528
2023-07-20T14:25:01.429Z,adservice,network_out,31547848
2023-07-20T14:25:03.672Z,probe-holder,network_out,403986075
2023-07-20T14:25:03.620Z,recommendationservice-3,network_out,2229099
2023-07-20T14:25:03.842Z,emailservice,network_out,33097726
2023-07-20T14:25:04.865Z,recommendationservice-1,network_out,33826260
2023-07-20T14:25:05.019Z,cartservice,network_out,35159584
2023-07-20T14:25:05.120Z,recommendationservice-2,network_out,8170608
2023-07-20T14:25:05.500Z,recommendationservice-4,network_out,2705087
2023-07-20T14:25:07.914Z,currencyservice,network_out,40159595
2023-07-20T14:25:07.053Z,shippingservice,network_out,33775921
2023-07-20T14:25:07.781Z,paymentservice,network_out,39260661
2023-07-20T14:25:08.684Z,checkoutservice,network_out,35233715
2023-07-20T14:25:10.368Z,productcatalogservice,network_out,33997349
2023-07-20T14:25:11.429Z,adservice,network_out,31571998
2023-07-20T14:25:13.842Z,emailservice,network_out,33112348
2023-07-20T14:25:13.620Z,recommendationservice-3,network_out,2253596
2023-07-20T14:25:13.672Z,probe-holder,network_out,404244910
2023-07-20T14:25:14.864Z,recommendationservice-1,network_out,33841660
2023-07-20T14:25:15.019Z,cartservice,network_out,35180618
2023-07-20T14:25:15.120Z,recommendationservice-2,network_out,8190403
2023-07-20T14:25:15.500Z,recommendationservice-4,network_out,2720228
2023-07-20T14:25:17.915Z,currencyservice,network_out,40186690
2023-07-20T14:25:17.053Z,shippingservice,network_out,33793888
2023-07-20T14:25:17.781Z,paymentservice,network_out,39284050
2023-07-20T14:25:18.684Z,checkoutservice,network_out,35258616
2023-07-20T14:25:20.369Z,productcatalogservice,network_out,34016486
2023-07-20T14:25:21.429Z,adservice,network_out,31593742
2023-07-20T14:25:23.620Z,recommendationservice-3,network_out,2269171
2023-07-20T14:25:23.672Z,probe-holder,network_out,404503728
2023-07-20T14:25:23.842Z,emailservice,network_out,33132228
2023-07-20T14:25:24.864Z,recommendationservice-1,network_out,33862371
2023-07-20T14:25:25.019Z,cartservice,network_out,35201644
2023-07-20T14:25:25.120Z,recommendationservice-2,network_out,8205592
2023-07-20T14:25:25.500Z,recommendationservice-4,network_out,2740662
2023-07-20T14:25:27.914Z,currencyservice,network_out,40204850
2023-07-20T14:25:27.053Z,shippingservice,network_out,33818203
2023-07-20T14:25:27.780Z,paymentservice,network_out,39307433
2023-07-20T14:25:28.684Z,checkoutservice,network_out,35279712
2023-07-20T14:25:30.368Z,productcatalogservice,network_out,34037283
2023-07-20T14:25:31.429Z,adservice,network_out,31617988
2023-07-20T14:25:33.620Z,recommendationservice-3,network_out,2290044
2023-07-20T14:25:33.672Z,probe-holder,network_out,404760903
2023-07-20T14:25:33.842Z,emailservice,network_out,33152071
2023-07-20T14:25:34.865Z,recommendationservice-1,network_out,33883095
2023-07-20T14:25:35.019Z,cartservice,network_out,35217438
2023-07-20T14:25:35.120Z,recommendationservice-2,network_out,8225331
2023-07-20T14:25:35.500Z,recommendationservice-4,network_out,2761102
2023-07-20T14:25:37.914Z,currencyservice,network_out,40228175
2023-07-20T14:25:37.053Z,shippingservice,network_out,33838845
2023-07-20T14:25:37.781Z,paymentservice,network_out,39325541
2023-07-20T14:25:38.683Z,checkoutservice,network_out,35295780
2023-07-20T14:25:40.368Z,productcatalogservice,network_out,34058088
2023-07-20T14:25:41.429Z,adservice,network_out,31642952
2023-07-20T14:25:43.672Z,probe-holder,network_out,405019833
2023-07-20T14:25:43.620Z,recommendationservice-3,network_out,2310956
2023-07-20T14:25:43.842Z,emailservice,network_out,33166711
2023-07-20T14:25:44.865Z,recommendationservice-1,network_out,33898495
2023-07-20T14:25:45.019Z,cartservice,network_out,35242082
2023-07-20T14:25:45.120Z,recommendationservice-2,network_out,8245047
2023-07-20T14:25:45.500Z,recommendationservice-4,network_out,2776235
2023-07-20T14:25:47.914Z,currencyservice,network_out,40251677
2023-07-20T14:25:47.053Z,shippingservice,network_out,33854338
2023-07-20T14:25:47.780Z,paymentservice,network_out,39351794
2023-07-20T14:25:48.684Z,checkoutservice,network_out,35317020
2023-07-20T14:25:50.368Z,productcatalogservice,network_out,34073652
2023-07-20T14:25:51.429Z,adservice,network_out,31661815
2023-07-20T14:25:53.671Z,probe-holder,network_out,405273513
2023-07-20T14:25:53.620Z,recommendationservice-3,network_out,2326577
2023-07-20T14:25:53.842Z,emailservice,network_out,33190167
2023-07-20T14:25:54.864Z,recommendationservice-1,network_out,33922778
2023-07-20T14:25:55.019Z,cartservice,network_out,35263118
2023-07-20T14:25:55.120Z,recommendationservice-2,network_out,8259483
2023-07-20T14:25:55.500Z,recommendationservice-4,network_out,2796670
2023-07-20T14:25:57.914Z,currencyservice,network_out,40269909
2023-07-20T14:25:57.053Z,shippingservice,network_out,33875029
2023-07-20T14:25:57.780Z,paymentservice,network_out,39375864
2023-07-20T14:25:58.684Z,checkoutservice,network_out,35338133
2023-07-20T14:26:00.368Z,productcatalogservice,network_out,34094463
2023-07-20T14:26:01.429Z,adservice,network_out,31685996
2023-07-20T14:26:03.620Z,recommendationservice-3,network_out,2347487
2023-07-20T14:26:03.672Z,probe-holder,network_out,405532446
2023-07-20T14:26:03.842Z,emailservice,network_out,33210028
2023-07-20T14:26:04.864Z,recommendationservice-1,network_out,33943497
2023-07-20T14:26:05.019Z,cartservice,network_out,35278953
2023-07-20T14:26:05.120Z,recommendationservice-2,network_out,8282128
2023-07-20T14:26:05.500Z,recommendationservice-4,network_out,2820732
2023-07-20T14:26:07.914Z,currencyservice,network_out,40293395
2023-07-20T14:26:07.053Z,shippingservice,network_out,33895701
2023-07-20T14:26:07.780Z,paymentservice,network_out,39393948
2023-07-20T14:26:08.684Z,checkoutservice,network_out,35354163
2023-07-20T14:26:10.368Z,productcatalogservice,network_out,34115312
2023-07-20T14:26:11.429Z,adservice,network_out,31710148
2023-07-20T14:26:13.620Z,recommendationservice-3,network_out,2371974
2023-07-20T14:26:13.672Z,probe-holder,network_out,405791379
2023-07-20T14:26:13.842Z,emailservice,network_out,33224628
2023-07-20T14:26:14.864Z,recommendationservice-1,network_out,33958879
2023-07-20T14:26:15.019Z,cartservice,network_out,35299933
2023-07-20T14:26:15.120Z,recommendationservice-2,network_out,8301909
2023-07-20T14:26:15.500Z,recommendationservice-4,network_out,2835844
2023-07-20T14:26:17.914Z,currencyservice,network_out,40320449
2023-07-20T14:26:17.053Z,shippingservice,network_out,33911146
2023-07-20T14:26:17.780Z,paymentservice,network_out,39417299
2023-07-20T14:26:18.684Z,checkoutservice,network_out,35378992
2023-07-20T14:26:20.368Z,productcatalogservice,network_out,34136949
2023-07-20T14:26:21.429Z,adservice,network_out,31732018
2023-07-20T14:26:23.620Z,recommendationservice-3,network_out,2387535
2023-07-20T14:26:23.672Z,probe-holder,network_out,406045105
2023-07-20T14:26:23.842Z,emailservice,network_out,33244516
2023-07-20T14:26:24.864Z,recommendationservice-1,network_out,33979560
2023-07-20T14:26:25.019Z,cartservice,network_out,35320882
2023-07-20T14:26:25.120Z,recommendationservice-2,network_out,8317034
2023-07-20T14:26:25.500Z,recommendationservice-4,network_out,2856263
2023-07-20T14:26:27.915Z,currencyservice,network_out,40338610
2023-07-20T14:26:27.053Z,shippingservice,network_out,33935415
2023-07-20T14:26:27.781Z,paymentservice,network_out,39440659
2023-07-20T14:26:28.684Z,checkoutservice,network_out,35400186
2023-07-20T14:26:30.368Z,productcatalogservice,network_out,34157729
2023-07-20T14:26:31.429Z,adservice,network_out,31756179
2023-07-20T14:26:33.620Z,recommendationservice-3,network_out,2408414
2023-07-20T14:26:33.672Z,probe-holder,network_out,406307553
2023-07-20T14:26:33.842Z,emailservice,network_out,33264340
2023-07-20T14:26:34.864Z,recommendationservice-1,network_out,34000268
2023-07-20T14:26:35.019Z,cartservice,network_out,35336673
2023-07-20T14:26:35.120Z,recommendationservice-2,network_out,8336833
2023-07-20T14:26:35.501Z,recommendationservice-4,network_out,2876707
2023-07-20T14:26:37.914Z,currencyservice,network_out,40361970
2023-07-20T14:26:37.053Z,shippingservice,network_out,33956105
2023-07-20T14:26:37.780Z,paymentservice,network_out,39458750
2023-07-20T14:26:38.684Z,checkoutservice,network_out,35416221
2023-07-20T14:26:40.369Z,productcatalogservice,network_out,34178537
2023-07-20T14:26:41.429Z,adservice,network_out,31781008
2023-07-20T14:26:43.620Z,recommendationservice-3,network_out,2429318
2023-07-20T14:26:43.672Z,probe-holder,network_out,406566371
2023-07-20T14:26:43.842Z,emailservice,network_out,33278955
2023-07-20T14:26:44.864Z,recommendationservice-1,network_out,34015725
2023-07-20T14:26:45.019Z,cartservice,network_out,35361314
2023-07-20T14:26:45.120Z,recommendationservice-2,network_out,8351263
2023-07-20T14:26:45.500Z,recommendationservice-4,network_out,2891808
2023-07-20T14:26:47.914Z,currencyservice,network_out,40380208
2023-07-20T14:26:47.053Z,shippingservice,network_out,33971542
2023-07-20T14:26:47.780Z,paymentservice,network_out,39484989
2023-07-20T14:26:48.684Z,checkoutservice,network_out,35437553
2023-07-20T14:26:50.368Z,productcatalogservice,network_out,34194063
2023-07-20T14:26:51.429Z,adservice,network_out,31799943
2023-07-20T14:26:53.620Z,recommendationservice-3,network_out,2444914
2023-07-20T14:26:53.672Z,probe-holder,network_out,406819937
2023-07-20T14:26:53.842Z,emailservice,network_out,33302418
2023-07-20T14:26:54.864Z,recommendationservice-1,network_out,34040037
2023-07-20T14:26:55.019Z,cartservice,network_out,35382335
2023-07-20T14:26:55.120Z,recommendationservice-2,network_out,8371044
2023-07-20T14:26:55.501Z,recommendationservice-4,network_out,2912244
2023-07-20T14:26:57.914Z,currencyservice,network_out,40403644
2023-07-20T14:26:57.053Z,shippingservice,network_out,33992203
2023-07-20T14:26:57.780Z,paymentservice,network_out,39509042
2023-07-20T14:26:58.683Z,checkoutservice,network_out,35458687
2023-07-20T14:27:00.368Z,productcatalogservice,network_out,34214892
2023-07-20T14:27:01.429Z,adservice,network_out,31824101
2023-07-20T14:27:03.620Z,recommendationservice-3,network_out,2465776
2023-07-20T14:27:03.672Z,probe-holder,network_out,407078799
2023-07-20T14:27:03.842Z,emailservice,network_out,33322294
2023-07-20T14:27:04.865Z,recommendationservice-1,network_out,34060779
2023-07-20T14:27:05.019Z,cartservice,network_out,35398131
2023-07-20T14:27:05.120Z,recommendationservice-2,network_out,8393686
2023-07-20T14:27:05.501Z,recommendationservice-4,network_out,2936270
2023-07-20T14:27:07.915Z,currencyservice,network_out,40427007
2023-07-20T14:27:07.053Z,shippingservice,network_out,34012872
2023-07-20T14:27:07.780Z,paymentservice,network_out,39527077
2023-07-20T14:27:08.684Z,checkoutservice,network_out,35474774
2023-07-20T14:27:10.368Z,productcatalogservice,network_out,34235697
2023-07-20T14:27:11.429Z,adservice,network_out,31848356
2023-07-20T14:27:13.620Z,recommendationservice-3,network_out,2490248
2023-07-20T14:27:13.672Z,probe-holder,network_out,407337713
2023-07-20T14:27:13.842Z,emailservice,network_out,33336859
2023-07-20T14:27:14.864Z,recommendationservice-1,network_out,34076182
2023-07-20T14:27:15.019Z,cartservice,network_out,35419153
2023-07-20T14:27:15.120Z,recommendationservice-2,network_out,8408099
2023-07-20T14:27:15.500Z,recommendationservice-4,network_out,2951379
2023-07-20T14:27:17.914Z,currencyservice,network_out,40448749
2023-07-20T14:27:17.053Z,shippingservice,network_out,34028301
2023-07-20T14:27:17.780Z,paymentservice,network_out,39550466
2023-07-20T14:27:18.684Z,checkoutservice,network_out,35499661
2023-07-20T14:27:20.368Z,productcatalogservice,network_out,34254875
2023-07-20T14:27:21.429Z,adservice,network_out,31870174
2023-07-20T14:27:23.620Z,recommendationservice-3,network_out,2505804
2023-07-20T14:27:23.672Z,probe-holder,network_out,407591334
2023-07-20T14:27:23.842Z,emailservice,network_out,33356759
2023-07-20T14:27:24.864Z,recommendationservice-1,network_out,34096919
2023-07-20T14:27:25.019Z,cartservice,network_out,35440165
2023-07-20T14:27:25.120Z,recommendationservice-2,network_out,8428571
2023-07-20T14:27:25.500Z,recommendationservice-4,network_out,2971798
2023-07-20T14:27:27.914Z,currencyservice,network_out,40472215
2023-07-20T14:27:27.053Z,shippingservice,network_out,34052598
2023-07-20T14:27:27.780Z,paymentservice,network_out,39573867
2023-07-20T14:27:28.684Z,checkoutservice,network_out,35520745
2023-07-20T14:27:30.368Z,productcatalogservice,network_out,34275695
2023-07-20T14:27:31.429Z,adservice,network_out,31894371
2023-07-20T14:27:33.620Z,recommendationservice-3,network_out,2526678
2023-07-20T14:27:33.672Z,probe-holder,network_out,407853892
2023-07-20T14:27:33.842Z,emailservice,network_out,33376629
2023-07-20T14:27:34.864Z,recommendationservice-1,network_out,34117667
2023-07-20T14:27:35.019Z,cartservice,network_out,35455940
2023-07-20T14:27:35.120Z,recommendationservice-2,network_out,8448306
2023-07-20T14:27:35.500Z,recommendationservice-4,network_out,2992223
2023-07-20T14:27:37.914Z,currencyservice,network_out,40495594
2023-07-20T14:27:37.053Z,shippingservice,network_out,34073286
2023-07-20T14:27:37.780Z,paymentservice,network_out,39591982
2023-07-20T14:27:38.683Z,checkoutservice,network_out,35536808
2023-07-20T14:27:40.368Z,productcatalogservice,network_out,34296492
2023-07-20T14:27:41.429Z,adservice,network_out,31919173
2023-07-20T14:27:43.620Z,recommendationservice-3,network_out,2547552
2023-07-20T14:27:43.672Z,probe-holder,network_out,408112704
2023-07-20T14:27:43.842Z,emailservice,network_out,33391259
2023-07-20T14:27:44.865Z,recommendationservice-1,network_out,34133114
2023-07-20T14:27:45.019Z,cartservice,network_out,35480596
2023-07-20T14:27:45.120Z,recommendationservice-2,network_out,8462750
2023-07-20T14:27:45.500Z,recommendationservice-4,network_out,3007353
2023-07-20T14:27:47.914Z,currencyservice,network_out,40513774
2023-07-20T14:27:47.053Z,shippingservice,network_out,34088713
2023-07-20T14:27:47.780Z,paymentservice,network_out,39618239
2023-07-20T14:27:48.684Z,checkoutservice,network_out,35558023
2023-07-20T14:27:50.368Z,productcatalogservice,network_out,34312002
2023-07-20T14:27:51.429Z,adservice,network_out,31938152
2023-07-20T14:27:53.620Z,recommendationservice-3,network_out,2563116
2023-07-20T14:27:53.672Z,probe-holder,network_out,408366365
2023-07-20T14:27:53.842Z,emailservice,network_out,33414745
2023-07-20T14:27:54.864Z,recommendationservice-1,network_out,34157413
2023-07-20T14:27:55.019Z,cartservice,network_out,35501621
2023-07-20T14:27:55.120Z,recommendationservice-2,network_out,8482491
2023-07-20T14:27:55.500Z,recommendationservice-4,network_out,3027807
2023-07-20T14:27:57.914Z,currencyservice,network_out,40537208
2023-07-20T14:27:57.053Z,shippingservice,network_out,34109348
2023-07-20T14:27:57.781Z,paymentservice,network_out,39642307
2023-07-20T14:27:58.684Z,checkoutservice,network_out,35579194
2023-07-20T14:28:00.368Z,productcatalogservice,network_out,34332830
2023-07-20T14:28:01.429Z,adservice,network_out,31962375
2023-07-20T14:28:03.620Z,recommendationservice-3,network_out,2583982
2023-07-20T14:28:03.672Z,probe-holder,network_out,408625238
2023-07-20T14:28:03.842Z,emailservice,network_out,33434600
2023-07-20T14:28:04.864Z,recommendationservice-1,network_out,34178109
2023-07-20T14:28:05.019Z,cartservice,network_out,35517418
2023-07-20T14:28:05.120Z,recommendationservice-2,network_out,8505121
2023-07-20T14:28:05.500Z,recommendationservice-4,network_out,3051859
2023-07-20T14:28:07.914Z,currencyservice,network_out,40560561
2023-07-20T14:28:07.053Z,shippingservice,network_out,34130022
2023-07-20T14:28:07.780Z,paymentservice,network_out,39660334
2023-07-20T14:28:08.684Z,checkoutservice,network_out,35595227
2023-07-20T14:28:10.368Z,productcatalogservice,network_out,34348342
2023-07-20T14:28:11.429Z,adservice,network_out,31986448
2023-07-20T14:28:13.621Z,recommendationservice-3,network_out,2608475
2023-07-20T14:28:13.672Z,probe-holder,network_out,408884054
2023-07-20T14:28:13.842Z,emailservice,network_out,33449221
2023-07-20T14:28:14.864Z,recommendationservice-1,network_out,34193525
2023-07-20T14:28:15.019Z,cartservice,network_out,35538426
2023-07-20T14:28:15.120Z,recommendationservice-2,network_out,8519538
2023-07-20T14:28:15.501Z,recommendationservice-4,network_out,3067081
2023-07-20T14:28:17.914Z,currencyservice,network_out,40582344
2023-07-20T14:28:17.053Z,shippingservice,network_out,34145425
2023-07-20T14:28:17.780Z,paymentservice,network_out,39683696
2023-07-20T14:28:18.684Z,checkoutservice,network_out,35620079
2023-07-20T14:28:20.369Z,productcatalogservice,network_out,34372747
2023-07-20T14:28:21.429Z,adservice,network_out,32008299
2023-07-20T14:28:23.620Z,recommendationservice-3,network_out,2624047
2023-07-20T14:28:23.672Z,probe-holder,network_out,409137502
2023-07-20T14:28:23.842Z,emailservice,network_out,33469075
2023-07-20T14:28:24.864Z,recommendationservice-1,network_out,34214149
2023-07-20T14:28:25.019Z,cartservice,network_out,35559458
2023-07-20T14:28:25.120Z,recommendationservice-2,network_out,8539988
2023-07-20T14:28:25.500Z,recommendationservice-4,network_out,3087532
2023-07-20T14:28:27.914Z,currencyservice,network_out,40605802
2023-07-20T14:28:27.053Z,shippingservice,network_out,34169754
2023-07-20T14:28:27.781Z,paymentservice,network_out,39707055
2023-07-20T14:28:28.684Z,checkoutservice,network_out,35641207
2023-07-20T14:28:30.368Z,productcatalogservice,network_out,34393575
2023-07-20T14:28:31.429Z,adservice,network_out,32032472
2023-07-20T14:28:33.672Z,probe-holder,network_out,409400037
2023-07-20T14:28:33.620Z,recommendationservice-3,network_out,2644946
2023-07-20T14:28:33.842Z,emailservice,network_out,33488947
2023-07-20T14:28:34.865Z,recommendationservice-1,network_out,34234768
2023-07-20T14:28:35.019Z,cartservice,network_out,35575253
2023-07-20T14:28:35.120Z,recommendationservice-2,network_out,8559737
2023-07-20T14:28:35.501Z,recommendationservice-4,network_out,3107967
2023-07-20T14:28:37.914Z,currencyservice,network_out,40629132
2023-07-20T14:28:37.053Z,shippingservice,network_out,34190435
2023-07-20T14:28:37.780Z,paymentservice,network_out,39725138
2023-07-20T14:28:38.683Z,checkoutservice,network_out,35657135
2023-07-20T14:28:40.368Z,productcatalogservice,network_out,34409099
2023-07-20T14:28:41.429Z,adservice,network_out,32057273
2023-07-20T14:28:43.672Z,probe-holder,network_out,409658960
2023-07-20T14:28:43.620Z,recommendationservice-3,network_out,2660518
2023-07-20T14:28:43.843Z,emailservice,network_out,33503560
2023-07-20T14:28:44.865Z,recommendationservice-1,network_out,34250182
2023-07-20T14:28:45.019Z,cartservice,network_out,35599906
2023-07-20T14:28:45.120Z,recommendationservice-2,network_out,8574153
2023-07-20T14:28:45.500Z,recommendationservice-4,network_out,3123106
2023-07-20T14:28:47.914Z,currencyservice,network_out,40647320
2023-07-20T14:28:47.053Z,shippingservice,network_out,34205867
2023-07-20T14:28:47.780Z,paymentservice,network_out,39751414
2023-07-20T14:28:48.684Z,checkoutservice,network_out,35678349
2023-07-20T14:28:50.368Z,productcatalogservice,network_out,34429996
2023-07-20T14:28:51.429Z,adservice,network_out,32076266
2023-07-20T14:28:53.620Z,recommendationservice-3,network_out,2681396
2023-07-20T14:28:53.672Z,probe-holder,network_out,409912613
2023-07-20T14:28:53.842Z,emailservice,network_out,33527056
2023-07-20T14:28:54.864Z,recommendationservice-1,network_out,34274430
2023-07-20T14:28:55.019Z,cartservice,network_out,35620936
2023-07-20T14:28:55.120Z,recommendationservice-2,network_out,8593909
2023-07-20T14:28:55.500Z,recommendationservice-4,network_out,3143546
2023-07-20T14:28:57.915Z,currencyservice,network_out,40670748
2023-07-20T14:28:57.053Z,shippingservice,network_out,34226534
2023-07-20T14:28:57.780Z,paymentservice,network_out,39775451
2023-07-20T14:28:58.684Z,checkoutservice,network_out,35694159
2023-07-20T14:29:00.368Z,productcatalogservice,network_out,34450826
2023-07-20T14:29:01.429Z,adservice,network_out,32100416
2023-07-20T14:29:03.620Z,recommendationservice-3,network_out,2702296
2023-07-20T14:29:03.672Z,probe-holder,network_out,410171487
2023-07-20T14:29:03.842Z,emailservice,network_out,33546956
2023-07-20T14:29:04.864Z,recommendationservice-1,network_out,34295132
2023-07-20T14:29:05.019Z,cartservice,network_out,35636711
2023-07-20T14:29:05.120Z,recommendationservice-2,network_out,8616516
2023-07-20T14:29:05.500Z,recommendationservice-4,network_out,3167573
2023-07-20T14:29:07.914Z,currencyservice,network_out,40694140
2023-07-20T14:29:07.053Z,shippingservice,network_out,34247207
2023-07-20T14:29:07.781Z,paymentservice,network_out,39793571
2023-07-20T14:29:08.683Z,checkoutservice,network_out,35715498
2023-07-20T14:29:10.368Z,productcatalogservice,network_out,34466364
2023-07-20T14:29:11.429Z,adservice,network_out,32124539
2023-07-20T14:29:13.620Z,recommendationservice-3,network_out,2721487
2023-07-20T14:29:13.672Z,probe-holder,network_out,410430347
2023-07-20T14:29:13.842Z,emailservice,network_out,33561531
2023-07-20T14:29:14.865Z,recommendationservice-1,network_out,34310525
2023-07-20T14:29:15.019Z,cartservice,network_out,35657749
2023-07-20T14:29:15.120Z,recommendationservice-2,network_out,8630941
2023-07-20T14:29:15.500Z,recommendationservice-4,network_out,3182736
2023-07-20T14:29:17.914Z,currencyservice,network_out,40715912
2023-07-20T14:29:17.053Z,shippingservice,network_out,34262630
2023-07-20T14:29:17.780Z,paymentservice,network_out,39816944
2023-07-20T14:29:18.684Z,checkoutservice,network_out,35740364
2023-07-20T14:29:20.368Z,productcatalogservice,network_out,34490807
2023-07-20T14:29:21.429Z,adservice,network_out,32146386
2023-07-20T14:29:23.620Z,recommendationservice-3,network_out,2742366
2023-07-20T14:29:23.672Z,probe-holder,network_out,410683941
2023-07-20T14:29:23.842Z,emailservice,network_out,33581418
2023-07-20T14:29:24.864Z,recommendationservice-1,network_out,34331235
2023-07-20T14:29:25.019Z,cartservice,network_out,35678785
2023-07-20T14:29:25.120Z,recommendationservice-2,network_out,8651369
2023-07-20T14:29:25.500Z,recommendationservice-4,network_out,3203173
2023-07-20T14:29:27.914Z,currencyservice,network_out,40739303
2023-07-20T14:29:27.053Z,shippingservice,network_out,34286939
2023-07-20T14:29:27.781Z,paymentservice,network_out,39835057
2023-07-20T14:29:28.684Z,checkoutservice,network_out,35756267
2023-07-20T14:29:30.368Z,productcatalogservice,network_out,34511617
2023-07-20T14:29:31.429Z,adservice,network_out,32170558
2023-07-20T14:29:33.620Z,recommendationservice-3,network_out,2763230
2023-07-20T14:29:33.672Z,probe-holder,network_out,410946403
2023-07-20T14:29:33.843Z,emailservice,network_out,33601299
2023-07-20T14:29:34.864Z,recommendationservice-1,network_out,34351948
2023-07-20T14:29:35.019Z,cartservice,network_out,35694510
2023-07-20T14:29:35.120Z,recommendationservice-2,network_out,8671054
2023-07-20T14:29:35.500Z,recommendationservice-4,network_out,3223606
2023-07-20T14:29:37.914Z,currencyservice,network_out,40762661
2023-07-20T14:29:37.053Z,shippingservice,network_out,34303598
2023-07-20T14:29:37.780Z,paymentservice,network_out,39858472
2023-07-20T14:29:38.684Z,checkoutservice,network_out,35777606
2023-07-20T14:29:40.368Z,productcatalogservice,network_out,34527121
2023-07-20T14:29:41.429Z,adservice,network_out,32195350
2023-07-20T14:29:43.620Z,recommendationservice-3,network_out,2778820
2023-07-20T14:29:43.672Z,probe-holder,network_out,411205263
2023-07-20T14:29:43.842Z,emailservice,network_out,33615944
2023-07-20T14:29:44.865Z,recommendationservice-1,network_out,34367342
2023-07-20T14:29:45.019Z,cartservice,network_out,35719150
2023-07-20T14:29:45.120Z,recommendationservice-2,network_out,8685454
2023-07-20T14:29:45.500Z,recommendationservice-4,network_out,3238725
2023-07-20T14:29:47.914Z,currencyservice,network_out,40780852
2023-07-20T14:29:47.053Z,shippingservice,network_out,34323064
2023-07-20T14:29:47.780Z,paymentservice,network_out,39884744
2023-07-20T14:29:48.684Z,checkoutservice,network_out,35798901
2023-07-20T14:29:50.368Z,productcatalogservice,network_out,34547979
2023-07-20T14:29:51.429Z,adservice,network_out,32214329
2023-07-20T14:29:53.620Z,recommendationservice-3,network_out,2799673
2023-07-20T14:29:53.672Z,probe-holder,network_out,411458817
2023-07-20T14:29:53.842Z,emailservice,network_out,33639396
2023-07-20T14:29:54.864Z,recommendationservice-1,network_out,34391690
2023-07-20T14:29:55.019Z,cartservice,network_out,35734954
2023-07-20T14:29:55.120Z,recommendationservice-2,network_out,8705155
2023-07-20T14:29:55.500Z,recommendationservice-4,network_out,3259163
2023-07-20T14:29:57.914Z,currencyservice,network_out,40804315
2023-07-20T14:29:57.053Z,shippingservice,network_out,34343730
2023-07-20T14:29:57.780Z,paymentservice,network_out,39903556
2023-07-20T14:29:58.684Z,checkoutservice,network_out,35814687
2023-07-20T14:30:00.368Z,productcatalogservice,network_out,34568795
2023-07-20T14:30:01.430Z,adservice,network_out,32238469
2023-07-20T14:30:03.620Z,recommendationservice-3,network_out,2820552
2023-07-20T14:30:03.672Z,probe-holder,network_out,411717654
2023-07-20T14:30:03.842Z,emailservice,network_out,33659233
2023-07-20T14:30:04.864Z,recommendationservice-1,network_out,34407103
2023-07-20T14:30:05.019Z,cartservice,network_out,35755990
2023-07-20T14:30:05.120Z,recommendationservice-2,network_out,8725765
2023-07-20T14:30:05.500Z,recommendationservice-4,network_out,3283183
2023-07-20T14:30:07.914Z,currencyservice,network_out,40827731
2023-07-20T14:30:07.053Z,shippingservice,network_out,34359170
2023-07-20T14:30:07.780Z,paymentservice,network_out,39926918
2023-07-20T14:30:08.683Z,checkoutservice,network_out,35835951
2023-07-20T14:30:10.368Z,productcatalogservice,network_out,34584376
2023-07-20T14:30:11.429Z,adservice,network_out,32262591
2023-07-20T14:30:13.620Z,recommendationservice-3,network_out,2839710
2023-07-20T14:30:13.672Z,probe-holder,network_out,411976422
2023-07-20T14:30:13.842Z,emailservice,network_out,33673880
2023-07-20T14:30:14.865Z,recommendationservice-1,network_out,34427812
2023-07-20T14:30:15.019Z,cartservice,network_out,35776976
2023-07-20T14:30:15.120Z,recommendationservice-2,network_out,8742188
2023-07-20T14:30:15.500Z,recommendationservice-4,network_out,3298300
2023-07-20T14:30:17.914Z,currencyservice,network_out,40849461
2023-07-20T14:30:17.053Z,shippingservice,network_out,34379820
2023-07-20T14:30:17.780Z,paymentservice,network_out,39950271
2023-07-20T14:30:18.684Z,checkoutservice,network_out,35860687
2023-07-20T14:30:20.369Z,productcatalogservice,network_out,34608793
2023-07-20T14:30:21.429Z,adservice,network_out,32284515
2023-07-20T14:30:23.620Z,recommendationservice-3,network_out,2860586
2023-07-20T14:30:23.672Z,probe-holder,network_out,412229986
2023-07-20T14:30:23.842Z,emailservice,network_out,33693704
2023-07-20T14:30:24.865Z,recommendationservice-1,network_out,34448514
2023-07-20T14:30:25.019Z,cartservice,network_out,35792703
2023-07-20T14:30:25.120Z,recommendationservice-2,network_out,8762625
2023-07-20T14:30:25.500Z,recommendationservice-4,network_out,3318741
2023-07-20T14:30:27.914Z,currencyservice,network_out,40872859
2023-07-20T14:30:27.053Z,shippingservice,network_out,34404111
2023-07-20T14:30:27.780Z,paymentservice,network_out,39968381
2023-07-20T14:30:28.684Z,checkoutservice,network_out,35876582
2023-07-20T14:30:30.368Z,productcatalogservice,network_out,34629642
2023-07-20T14:30:31.429Z,adservice,network_out,32308705
2023-07-20T14:30:33.672Z,probe-holder,network_out,412492520
2023-07-20T14:30:33.620Z,recommendationservice-3,network_out,2881480
2023-07-20T14:30:33.842Z,emailservice,network_out,33713615
2023-07-20T14:30:34.864Z,recommendationservice-1,network_out,34463893
2023-07-20T14:30:35.019Z,cartservice,network_out,35813711
2023-07-20T14:30:35.120Z,recommendationservice-2,network_out,8782353
2023-07-20T14:30:35.500Z,recommendationservice-4,network_out,3339183
2023-07-20T14:30:37.914Z,currencyservice,network_out,40896317
2023-07-20T14:30:37.053Z,shippingservice,network_out,34419511
2023-07-20T14:30:37.780Z,paymentservice,network_out,39991746
2023-07-20T14:30:38.684Z,checkoutservice,network_out,35897815
2023-07-20T14:30:40.368Z,productcatalogservice,network_out,34645147
2023-07-20T14:30:41.429Z,adservice,network_out,32327561
2023-07-20T14:30:43.620Z,recommendationservice-3,network_out,2897038
2023-07-20T14:30:43.672Z,probe-holder,network_out,412751330
2023-07-20T14:30:43.842Z,emailservice,network_out,33728282
2023-07-20T14:30:44.864Z,recommendationservice-1,network_out,34484590
2023-07-20T14:30:45.019Z,cartservice,network_out,35838276
2023-07-20T14:30:45.120Z,recommendationservice-2,network_out,8796781
2023-07-20T14:30:45.500Z,recommendationservice-4,network_out,3354287
2023-07-20T14:30:47.914Z,currencyservice,network_out,40914535
2023-07-20T14:30:47.053Z,shippingservice,network_out,34440216
2023-07-20T14:30:47.781Z,paymentservice,network_out,40018026
2023-07-20T14:30:48.684Z,checkoutservice,network_out,35918970
2023-07-20T14:30:50.368Z,productcatalogservice,network_out,34665975
2023-07-20T14:30:51.429Z,adservice,network_out,32352473
2023-07-20T14:30:53.620Z,recommendationservice-3,network_out,2917920
2023-07-20T14:30:53.672Z,probe-holder,network_out,413004981
2023-07-20T14:30:53.842Z,emailservice,network_out,33751753
2023-07-20T14:30:54.865Z,recommendationservice-1,network_out,34508909
2023-07-20T14:30:55.019Z,cartservice,network_out,35854083
2023-07-20T14:30:55.120Z,recommendationservice-2,network_out,8816521
2023-07-20T14:30:55.500Z,recommendationservice-4,network_out,3374694
2023-07-20T14:30:57.914Z,currencyservice,network_out,40938011
2023-07-20T14:30:57.054Z,shippingservice,network_out,34460857
2023-07-20T14:30:57.780Z,paymentservice,network_out,40036876
2023-07-20T14:30:58.684Z,checkoutservice,network_out,35934974
2023-07-20T14:31:00.368Z,productcatalogservice,network_out,34686770
2023-07-20T14:31:01.429Z,adservice,network_out,32376645
2023-07-20T14:31:03.620Z,recommendationservice-3,network_out,2938772
2023-07-20T14:31:03.672Z,probe-holder,network_out,413263792
2023-07-20T14:31:03.842Z,emailservice,network_out,33771597
2023-07-20T14:31:04.865Z,recommendationservice-1,network_out,34524323
2023-07-20T14:31:05.019Z,cartservice,network_out,35875118
2023-07-20T14:31:05.120Z,recommendationservice-2,network_out,8836267
2023-07-20T14:31:05.501Z,recommendationservice-4,network_out,3398765
2023-07-20T14:31:07.915Z,currencyservice,network_out,40961434
2023-07-20T14:31:07.053Z,shippingservice,network_out,34476243
2023-07-20T14:31:07.780Z,paymentservice,network_out,40060257
2023-07-20T14:31:08.683Z,checkoutservice,network_out,35956212
2023-07-20T14:31:10.368Z,productcatalogservice,network_out,34702316
2023-07-20T14:31:11.429Z,adservice,network_out,32395507
2023-07-20T14:31:13.620Z,recommendationservice-3,network_out,2957923
2023-07-20T14:31:13.672Z,probe-holder,network_out,413522615
2023-07-20T14:31:13.842Z,emailservice,network_out,33786197
2023-07-20T14:31:14.864Z,recommendationservice-1,network_out,34545051
2023-07-20T14:31:15.019Z,cartservice,network_out,35896096
2023-07-20T14:31:15.120Z,recommendationservice-2,network_out,8853613
2023-07-20T14:31:15.500Z,recommendationservice-4,network_out,3413891
2023-07-20T14:31:17.914Z,currencyservice,network_out,40983210
2023-07-20T14:31:17.053Z,shippingservice,network_out,34496937
2023-07-20T14:31:17.780Z,paymentservice,network_out,40083648
2023-07-20T14:31:18.684Z,checkoutservice,network_out,35980931
2023-07-20T14:31:20.368Z,productcatalogservice,network_out,34726721
2023-07-20T14:31:21.429Z,adservice,network_out,32422578
2023-07-20T14:31:23.620Z,recommendationservice-3,network_out,2978808
2023-07-20T14:31:23.672Z,probe-holder,network_out,413776212
2023-07-20T14:31:23.842Z,emailservice,network_out,33806067
2023-07-20T14:31:24.864Z,recommendationservice-1,network_out,34565818
2023-07-20T14:31:25.019Z,cartservice,network_out,35911873
2023-07-20T14:31:25.120Z,recommendationservice-2,network_out,8874067
2023-07-20T14:31:25.500Z,recommendationservice-4,network_out,3434315
2023-07-20T14:31:27.914Z,currencyservice,network_out,41006602
2023-07-20T14:31:27.053Z,shippingservice,network_out,34521196
2023-07-20T14:31:27.781Z,paymentservice,network_out,40101713
2023-07-20T14:31:28.684Z,checkoutservice,network_out,35996987
2023-07-20T14:31:30.368Z,productcatalogservice,network_out,34747551
2023-07-20T14:31:31.429Z,adservice,network_out,32449269
2023-07-20T14:31:33.620Z,recommendationservice-3,network_out,2999666
2023-07-20T14:31:33.672Z,probe-holder,network_out,414038647
2023-07-20T14:31:33.842Z,emailservice,network_out,33820684
2023-07-20T14:31:34.864Z,recommendationservice-1,network_out,34581184
2023-07-20T14:31:35.020Z,cartservice,network_out,35932833
2023-07-20T14:31:35.120Z,recommendationservice-2,network_out,8893816
2023-07-20T14:31:35.500Z,recommendationservice-4,network_out,3454803
2023-07-20T14:31:37.914Z,currencyservice,network_out,41030037
2023-07-20T14:31:37.053Z,shippingservice,network_out,34536627
2023-07-20T14:31:37.780Z,paymentservice,network_out,40125076
2023-07-20T14:31:38.683Z,checkoutservice,network_out,36018253
2023-07-20T14:31:40.368Z,productcatalogservice,network_out,34763083
2023-07-20T14:31:41.429Z,adservice,network_out,32468128
2023-07-20T14:31:43.620Z,recommendationservice-3,network_out,3015306
2023-07-20T14:31:43.672Z,probe-holder,network_out,414297397
2023-07-20T14:31:43.842Z,emailservice,network_out,33840562
2023-07-20T14:31:44.864Z,recommendationservice-1,network_out,34601869
2023-07-20T14:31:45.019Z,cartservice,network_out,35957425
2023-07-20T14:31:45.120Z,recommendationservice-2,network_out,8908261
2023-07-20T14:31:45.500Z,recommendationservice-4,network_out,3469958
2023-07-20T14:31:47.914Z,currencyservice,network_out,41048213
2023-07-20T14:31:47.053Z,shippingservice,network_out,34557326
2023-07-20T14:31:47.780Z,paymentservice,network_out,40151297
2023-07-20T14:31:48.684Z,checkoutservice,network_out,36039423
2023-07-20T14:31:50.368Z,productcatalogservice,network_out,34783913
2023-07-20T14:31:51.429Z,adservice,network_out,32493030
2023-07-20T14:31:53.620Z,recommendationservice-3,network_out,3036167
2023-07-20T14:31:53.672Z,probe-holder,network_out,414550961
2023-07-20T14:31:53.842Z,emailservice,network_out,33864015
2023-07-20T14:31:54.864Z,recommendationservice-1,network_out,34626148
2023-07-20T14:31:55.019Z,cartservice,network_out,35973141
2023-07-20T14:31:55.120Z,recommendationservice-2,network_out,8927987
2023-07-20T14:31:55.500Z,recommendationservice-4,network_out,3490411
2023-07-20T14:31:57.914Z,currencyservice,network_out,41071575
2023-07-20T14:31:57.053Z,shippingservice,network_out,34577958
2023-07-20T14:31:57.780Z,paymentservice,network_out,40170094
2023-07-20T14:31:58.684Z,checkoutservice,network_out,36055420
2023-07-20T14:32:00.368Z,productcatalogservice,network_out,34804725
2023-07-20T14:32:01.429Z,adservice,network_out,32517168
2023-07-20T14:32:03.620Z,recommendationservice-3,network_out,3057069
2023-07-20T14:32:03.673Z,probe-holder,network_out,414809758
2023-07-20T14:32:03.842Z,emailservice,network_out,33878619
2023-07-20T14:32:04.865Z,recommendationservice-1,network_out,34641556
2023-07-20T14:32:05.019Z,cartservice,network_out,35994099
2023-07-20T14:32:05.120Z,recommendationservice-2,network_out,8947728
2023-07-20T14:32:05.500Z,recommendationservice-4,network_out,3514446
2023-07-20T14:32:07.914Z,currencyservice,network_out,41094990
2023-07-20T14:32:07.053Z,shippingservice,network_out,34593407
2023-07-20T14:32:07.780Z,paymentservice,network_out,40193465
2023-07-20T14:32:08.683Z,checkoutservice,network_out,36076656
2023-07-20T14:32:10.368Z,productcatalogservice,network_out,34820227
2023-07-20T14:32:11.429Z,adservice,network_out,32536077
2023-07-20T14:32:13.620Z,recommendationservice-3,network_out,3076240
2023-07-20T14:32:13.672Z,probe-holder,network_out,415068600
2023-07-20T14:32:13.843Z,emailservice,network_out,33898518
2023-07-20T14:32:14.864Z,recommendationservice-1,network_out,34662230
2023-07-20T14:32:15.019Z,cartservice,network_out,36015048
2023-07-20T14:32:15.120Z,recommendationservice-2,network_out,8965076
2023-07-20T14:32:15.500Z,recommendationservice-4,network_out,3529567
2023-07-20T14:32:17.914Z,currencyservice,network_out,41116742
2023-07-20T14:32:17.053Z,shippingservice,network_out,34614086
2023-07-20T14:32:17.781Z,paymentservice,network_out,40216852
2023-07-20T14:32:18.684Z,checkoutservice,network_out,36101441
2023-07-20T14:32:20.368Z,productcatalogservice,network_out,34844670
2023-07-20T14:32:21.429Z,adservice,network_out,32563184
2023-07-20T14:32:23.620Z,recommendationservice-3,network_out,3097120
2023-07-20T14:32:23.672Z,probe-holder,network_out,415322191
2023-07-20T14:32:23.842Z,emailservice,network_out,33918404
2023-07-20T14:32:24.864Z,recommendationservice-1,network_out,34682930
2023-07-20T14:32:25.019Z,cartservice,network_out,36030772
2023-07-20T14:32:25.120Z,recommendationservice-2,network_out,8985495
2023-07-20T14:32:25.500Z,recommendationservice-4,network_out,3550057
2023-07-20T14:32:27.914Z,currencyservice,network_out,41140152
2023-07-20T14:32:27.053Z,shippingservice,network_out,34638339
2023-07-20T14:32:27.780Z,paymentservice,network_out,40234946
2023-07-20T14:32:28.684Z,checkoutservice,network_out,36117385
2023-07-20T14:32:30.368Z,productcatalogservice,network_out,34865467
2023-07-20T14:32:31.429Z,adservice,network_out,32591124
2023-07-20T14:32:33.620Z,recommendationservice-3,network_out,3118006
2023-07-20T14:32:33.672Z,probe-holder,network_out,415584715
2023-07-20T14:32:33.842Z,emailservice,network_out,33933045
2023-07-20T14:32:34.865Z,recommendationservice-1,network_out,34698331
2023-07-20T14:32:35.019Z,cartservice,network_out,36051715
2023-07-20T14:32:35.120Z,recommendationservice-2,network_out,9005234
2023-07-20T14:32:35.500Z,recommendationservice-4,network_out,3570484
2023-07-20T14:32:37.914Z,currencyservice,network_out,41163686
2023-07-20T14:32:37.053Z,shippingservice,network_out,34653764
2023-07-20T14:32:37.781Z,paymentservice,network_out,40258317
2023-07-20T14:32:38.683Z,checkoutservice,network_out,36138628
2023-07-20T14:32:40.368Z,productcatalogservice,network_out,34883482
2023-07-20T14:32:41.429Z,adservice,network_out,32609958
2023-07-20T14:32:43.620Z,recommendationservice-3,network_out,3133586
2023-07-20T14:32:43.672Z,probe-holder,network_out,415843606
2023-07-20T14:32:43.842Z,emailservice,network_out,33952921
2023-07-20T14:32:44.864Z,recommendationservice-1,network_out,34719034
2023-07-20T14:32:45.019Z,cartservice,network_out,36076350
2023-07-20T14:32:45.120Z,recommendationservice-2,network_out,9019662
2023-07-20T14:32:45.501Z,recommendationservice-4,network_out,3585610
2023-07-20T14:32:47.914Z,currencyservice,network_out,41181934
2023-07-20T14:32:47.053Z,shippingservice,network_out,34674449
2023-07-20T14:32:47.781Z,paymentservice,network_out,40284591
2023-07-20T14:32:48.684Z,checkoutservice,network_out,36159752
2023-07-20T14:32:50.368Z,productcatalogservice,network_out,34904319
2023-07-20T14:32:51.429Z,adservice,network_out,32634917
2023-07-20T14:32:53.620Z,recommendationservice-3,network_out,3154465
2023-07-20T14:32:53.672Z,probe-holder,network_out,416097147
2023-07-20T14:32:53.842Z,emailservice,network_out,33976379
2023-07-20T14:32:54.864Z,recommendationservice-1,network_out,34743351
2023-07-20T14:32:55.019Z,cartservice,network_out,36092063
2023-07-20T14:32:55.120Z,recommendationservice-2,network_out,9039385
2023-07-20T14:32:55.500Z,recommendationservice-4,network_out,3606039
2023-07-20T14:32:57.914Z,currencyservice,network_out,41205337
2023-07-20T14:32:57.053Z,shippingservice,network_out,34695084
2023-07-20T14:32:57.781Z,paymentservice,network_out,40303432
2023-07-20T14:32:58.684Z,checkoutservice,network_out,36175722
2023-07-20T14:33:00.369Z,productcatalogservice,network_out,34925138
2023-07-20T14:33:01.429Z,adservice,network_out,32659061
2023-07-20T14:33:03.672Z,probe-holder,network_out,416356065
2023-07-20T14:33:03.620Z,recommendationservice-3,network_out,3175363
2023-07-20T14:33:03.842Z,emailservice,network_out,33990992
2023-07-20T14:33:04.864Z,recommendationservice-1,network_out,34758771
2023-07-20T14:33:05.019Z,cartservice,network_out,36113085
2023-07-20T14:33:05.120Z,recommendationservice-2,network_out,9059143
2023-07-20T14:33:05.500Z,recommendationservice-4,network_out,3630110
2023-07-20T14:33:07.914Z,currencyservice,network_out,41228836
2023-07-20T14:33:07.053Z,shippingservice,network_out,34710456
2023-07-20T14:33:07.780Z,paymentservice,network_out,40326786
2023-07-20T14:33:08.684Z,checkoutservice,network_out,36196923
2023-07-20T14:33:10.368Z,productcatalogservice,network_out,34940636
2023-07-20T14:33:11.429Z,adservice,network_out,32677878
2023-07-20T14:33:13.620Z,recommendationservice-3,network_out,3194572
2023-07-20T14:33:13.672Z,probe-holder,network_out,416609617
2023-07-20T14:33:13.842Z,emailservice,network_out,34010848
2023-07-20T14:33:14.864Z,recommendationservice-1,network_out,34779462
2023-07-20T14:33:15.019Z,cartservice,network_out,36134023
2023-07-20T14:33:15.120Z,recommendationservice-2,network_out,9076467
2023-07-20T14:33:15.500Z,recommendationservice-4,network_out,3645222
2023-07-20T14:33:17.914Z,currencyservice,network_out,41250623
2023-07-20T14:33:17.053Z,shippingservice,network_out,34731194
2023-07-20T14:33:17.781Z,paymentservice,network_out,40350142
2023-07-20T14:33:18.684Z,checkoutservice,network_out,36221664
2023-07-20T14:33:20.368Z,productcatalogservice,network_out,34965055
2023-07-20T14:33:21.429Z,adservice,network_out,32722124
2023-07-20T14:33:23.620Z,recommendationservice-3,network_out,3232774
2023-07-20T14:33:23.672Z,probe-holder,network_out,416868372
2023-07-20T14:33:23.842Z,emailservice,network_out,34048072
