timestamp,key,run_id,resource,metric,value
2021-06-08T11:17:14.282Z,SHARED_GLOBAL_UNIT_MULTI_PROBE-1-1-1,1,monitoring-unit-1,network_in,1.4777297973632812
2021-06-08T11:28:59.972Z,SHARED_GLOBAL_UNIT_MULTI_PROBE-1-1-1,2,monitoring-unit-1,network_in,1.5009374618530273
2021-06-08T11:40:44.625Z,SHARED_GLOBAL_UNIT_MULTI_PROBE-1-1-1,3,monitoring-unit-1,network_in,1.5103321075439453
2021-06-09T02:55:18.064Z,SHARED_GLOBAL_UNIT_MULTI_PROBE-16-1-16,1,monitoring-unit-1,network_in,2.1113977432250977
2021-06-09T03:11:34.087Z,SHARED_GLOBAL_UNIT_MULTI_PROBE-16-1-16,2,monitoring-unit-1,network_in,2.1078968048095703
2021-06-09T03:28:11.554Z,SHARED_GLOBAL_UNIT_MULTI_PROBE-16-1-16,3,monitoring-unit-1,network_in,2.1257171630859375
2021-06-08T15:14:13.270Z,SHARED_GLOBAL_UNIT_MULTI_PROBE-2-1-2,1,monitoring-unit-1,network_in,1.5336294174194336
2021-06-08T15:26:22.025Z,SHARED_GLOBAL_UNIT_MULTI_PROBE-2-1-2,2,monitoring-unit-1,network_in,1.5430221557617188
2021-06-08T15:38:28.326Z,SHARED_GLOBAL_UNIT_MULTI_PROBE-2-1-2,3,monitoring-unit-1,network_in,1.5294733047485352
2021-06-09T01:32:07.630Z,SHARED_GLOBAL_UNIT_MULTI_PROBE-4-1-4,1,monitoring-unit-1,network_in,1.6097822189331055
2021-06-09T01:44:54.392Z,SHARED_GLOBAL_UNIT_MULTI_PROBE-4-1-4,2,monitoring-unit-1,network_in,1.6173276901245117
2021-06-09T01:57:41.785Z,SHARED_GLOBAL_UNIT_MULTI_PROBE-4-1-4,3,monitoring-unit-1,network_in,1.5994014739990234
2021-06-09T02:11:20.971Z,SHARED_GLOBAL_UNIT_MULTI_PROBE-8-1-8,1,monitoring-unit-1,network_in,1.7768774032592773
2021-06-09T02:25:16.635Z,SHARED_GLOBAL_UNIT_MULTI_PROBE-8-1-8,2,monitoring-unit-1,network_in,1.7954673767089844
2021-06-09T02:39:19.827Z,SHARED_GLOBAL_UNIT_MULTI_PROBE-8-1-8,3,monitoring-unit-1,network_in,1.7666749954223633
