timestamp,key,run_id,resource,metric,value
2022-03-30T16:05:37.917Z,FULLY_SHARED_UNIT_1-1-1-1,1,monitoring-unit-1,memory,0.03108978271484375
2022-03-30T16:05:47.917Z,FULLY_SHARED_UNIT_1-1-1-1,1,monitoring-unit-1,memory,0.038997650146484375
2022-03-30T16:05:57.917Z,FULLY_SHARED_UNIT_1-1-1-1,1,monitoring-unit-1,memory,0.038997650146484375
2022-03-30T16:06:07.917Z,FULLY_SHARED_UNIT_1-1-1-1,1,monitoring-unit-1,memory,0.04132843017578125
2022-03-30T16:06:17.916Z,FULLY_SHARED_UNIT_1-1-1-1,1,monitoring-unit-1,memory,0.04132843017578125
2022-03-30T16:06:27.916Z,FULLY_SHARED_UNIT_1-1-1-1,1,monitoring-unit-1,memory,0.041446685791015625
2022-03-30T16:06:37.917Z,FULLY_SHARED_UNIT_1-1-1-1,1,monitoring-unit-1,memory,0.04145050048828125
2022-03-30T16:06:47.917Z,FULLY_SHARED_UNIT_1-1-1-1,1,monitoring-unit-1,memory,0.04145050048828125
2022-03-30T16:06:57.916Z,FULLY_SHARED_UNIT_1-1-1-1,1,monitoring-unit-1,memory,0.04145050048828125
2022-03-30T16:07:07.917Z,FULLY_SHARED_UNIT_1-1-1-1,1,monitoring-unit-1,memory,0.0417327880859375
2022-03-30T16:07:17.917Z,FULLY_SHARED_UNIT_1-1-1-1,1,monitoring-unit-1,memory,0.0417327880859375
2022-03-30T16:07:27.917Z,FULLY_SHARED_UNIT_1-1-1-1,1,monitoring-unit-1,memory,0.04183197021484375
2022-03-30T16:07:37.916Z,FULLY_SHARED_UNIT_1-1-1-1,1,monitoring-unit-1,memory,0.04183197021484375
2022-03-30T16:07:47.916Z,FULLY_SHARED_UNIT_1-1-1-1,1,monitoring-unit-1,memory,0.039703369140625
2022-03-30T16:07:57.917Z,FULLY_SHARED_UNIT_1-1-1-1,1,monitoring-unit-1,memory,0.039703369140625
2022-03-30T16:08:07.916Z,FULLY_SHARED_UNIT_1-1-1-1,1,monitoring-unit-1,memory,0.039703369140625
2022-03-30T16:08:17.916Z,FULLY_SHARED_UNIT_1-1-1-1,1,monitoring-unit-1,memory,0.0406494140625
2022-03-30T16:08:27.917Z,FULLY_SHARED_UNIT_1-1-1-1,1,monitoring-unit-1,memory,0.0406494140625
2022-03-30T16:08:37.916Z,FULLY_SHARED_UNIT_1-1-1-1,1,monitoring-unit-1,memory,0.0406494140625
2022-03-30T16:08:47.916Z,FULLY_SHARED_UNIT_1-1-1-1,1,monitoring-unit-1,memory,0.04158782958984375
2022-03-30T16:08:57.917Z,FULLY_SHARED_UNIT_1-1-1-1,1,monitoring-unit-1,memory,0.04270172119140625
2022-03-30T16:09:07.917Z,FULLY_SHARED_UNIT_1-1-1-1,1,monitoring-unit-1,memory,0.04270172119140625
2022-03-30T16:09:17.917Z,FULLY_SHARED_UNIT_1-1-1-1,1,monitoring-unit-1,memory,0.043399810791015625
2022-03-30T16:09:27.917Z,FULLY_SHARED_UNIT_1-1-1-1,1,monitoring-unit-1,memory,0.043399810791015625
2022-03-30T16:09:37.917Z,FULLY_SHARED_UNIT_1-1-1-1,1,monitoring-unit-1,memory,0.043529510498046875
2022-03-30T16:09:47.916Z,FULLY_SHARED_UNIT_1-1-1-1,1,monitoring-unit-1,memory,0.043529510498046875
2022-03-30T16:09:57.916Z,FULLY_SHARED_UNIT_1-1-1-1,1,monitoring-unit-1,memory,0.04323577880859375
2022-03-30T16:10:07.917Z,FULLY_SHARED_UNIT_1-1-1-1,1,monitoring-unit-1,memory,0.043243408203125
2022-03-30T16:10:17.917Z,FULLY_SHARED_UNIT_1-1-1-1,1,monitoring-unit-1,memory,0.043243408203125
2022-03-30T16:10:27.916Z,FULLY_SHARED_UNIT_1-1-1-1,1,monitoring-unit-1,memory,0.043243408203125
2022-03-30T16:10:37.917Z,FULLY_SHARED_UNIT_1-1-1-1,1,monitoring-unit-1,memory,0.043243408203125
2022-03-30T16:10:47.916Z,FULLY_SHARED_UNIT_1-1-1-1,1,monitoring-unit-1,memory,0.043243408203125
2022-03-30T16:10:57.917Z,FULLY_SHARED_UNIT_1-1-1-1,1,monitoring-unit-1,memory,0.043247222900390625
2022-03-30T16:11:07.916Z,FULLY_SHARED_UNIT_1-1-1-1,1,monitoring-unit-1,memory,0.043247222900390625
2022-03-30T16:11:17.917Z,FULLY_SHARED_UNIT_1-1-1-1,1,monitoring-unit-1,memory,0.04156494140625
2022-03-30T16:11:27.916Z,FULLY_SHARED_UNIT_1-1-1-1,1,monitoring-unit-1,memory,0.04156494140625
2022-03-30T16:11:37.916Z,FULLY_SHARED_UNIT_1-1-1-1,1,monitoring-unit-1,memory,0.042236328125
2022-03-30T16:11:47.917Z,FULLY_SHARED_UNIT_1-1-1-1,1,monitoring-unit-1,memory,0.042236328125
2022-03-30T16:11:57.916Z,FULLY_SHARED_UNIT_1-1-1-1,1,monitoring-unit-1,memory,0.042236328125
2022-03-30T16:12:07.916Z,FULLY_SHARED_UNIT_1-1-1-1,1,monitoring-unit-1,memory,0.0426025390625
2022-03-30T16:12:17.917Z,FULLY_SHARED_UNIT_1-1-1-1,1,monitoring-unit-1,memory,0.0426025390625
2022-03-30T16:12:27.916Z,FULLY_SHARED_UNIT_1-1-1-1,1,monitoring-unit-1,memory,0.0426025390625
2022-03-30T16:12:37.916Z,FULLY_SHARED_UNIT_1-1-1-1,1,monitoring-unit-1,memory,0.04334259033203125
2022-03-30T16:12:47.917Z,FULLY_SHARED_UNIT_1-1-1-1,1,monitoring-unit-1,memory,0.043346405029296875
2022-03-30T16:12:57.917Z,FULLY_SHARED_UNIT_1-1-1-1,1,monitoring-unit-1,memory,0.043514251708984375
2022-03-30T16:13:07.916Z,FULLY_SHARED_UNIT_1-1-1-1,1,monitoring-unit-1,memory,0.043514251708984375
2022-03-30T16:13:17.916Z,FULLY_SHARED_UNIT_1-1-1-1,1,monitoring-unit-1,memory,0.043521881103515625
2022-03-30T16:13:27.917Z,FULLY_SHARED_UNIT_1-1-1-1,1,monitoring-unit-1,memory,0.043521881103515625
2022-03-30T16:13:37.916Z,FULLY_SHARED_UNIT_1-1-1-1,1,monitoring-unit-1,memory,0.043521881103515625
2022-03-30T16:13:47.916Z,FULLY_SHARED_UNIT_1-1-1-1,1,monitoring-unit-1,memory,0.040203094482421875
2022-03-30T16:13:57.917Z,FULLY_SHARED_UNIT_1-1-1-1,1,monitoring-unit-1,memory,0.041316986083984375
2022-03-30T16:14:07.916Z,FULLY_SHARED_UNIT_1-1-1-1,1,monitoring-unit-1,memory,0.041316986083984375
2022-03-30T16:14:17.916Z,FULLY_SHARED_UNIT_1-1-1-1,1,monitoring-unit-1,memory,0.040679931640625
2022-03-30T16:14:27.917Z,FULLY_SHARED_UNIT_1-1-1-1,1,monitoring-unit-1,memory,0.0412139892578125
2022-03-30T16:14:37.917Z,FULLY_SHARED_UNIT_1-1-1-1,1,monitoring-unit-1,memory,0.041225433349609375
2022-03-30T16:14:47.917Z,FULLY_SHARED_UNIT_1-1-1-1,1,monitoring-unit-1,memory,0.041225433349609375
2022-03-30T16:14:57.917Z,FULLY_SHARED_UNIT_1-1-1-1,1,monitoring-unit-1,memory,0.042690277099609375
2022-03-30T16:15:07.917Z,FULLY_SHARED_UNIT_1-1-1-1,1,monitoring-unit-1,memory,0.03981781005859375
2022-03-30T16:15:17.917Z,FULLY_SHARED_UNIT_1-1-1-1,1,monitoring-unit-1,memory,0.03981781005859375
2022-03-30T16:15:27.917Z,FULLY_SHARED_UNIT_1-1-1-1,1,monitoring-unit-1,memory,0.0411834716796875
2022-03-30T16:15:46.230Z,FULLY_SHARED_UNIT_1-1-1-1,2,monitoring-unit-1,memory,0.032855987548828125
2022-03-30T16:15:56.230Z,FULLY_SHARED_UNIT_1-1-1-1,2,monitoring-unit-1,memory,0.032855987548828125
2022-03-30T16:16:06.230Z,FULLY_SHARED_UNIT_1-1-1-1,2,monitoring-unit-1,memory,0.040935516357421875
2022-03-30T16:16:16.230Z,FULLY_SHARED_UNIT_1-1-1-1,2,monitoring-unit-1,memory,0.040935516357421875
2022-03-30T16:16:26.230Z,FULLY_SHARED_UNIT_1-1-1-1,2,monitoring-unit-1,memory,0.041477203369140625
2022-03-30T16:16:36.230Z,FULLY_SHARED_UNIT_1-1-1-1,2,monitoring-unit-1,memory,0.041477203369140625
2022-03-30T16:16:46.230Z,FULLY_SHARED_UNIT_1-1-1-1,2,monitoring-unit-1,memory,0.0434417724609375
2022-03-30T16:16:56.230Z,FULLY_SHARED_UNIT_1-1-1-1,2,monitoring-unit-1,memory,0.04351806640625
2022-03-30T16:17:06.230Z,FULLY_SHARED_UNIT_1-1-1-1,2,monitoring-unit-1,memory,0.04351806640625
2022-03-30T16:17:16.229Z,FULLY_SHARED_UNIT_1-1-1-1,2,monitoring-unit-1,memory,0.044178009033203125
2022-03-30T16:17:26.230Z,FULLY_SHARED_UNIT_1-1-1-1,2,monitoring-unit-1,memory,0.044178009033203125
2022-03-30T16:17:36.229Z,FULLY_SHARED_UNIT_1-1-1-1,2,monitoring-unit-1,memory,0.044178009033203125
2022-03-30T16:17:46.230Z,FULLY_SHARED_UNIT_1-1-1-1,2,monitoring-unit-1,memory,0.04419708251953125
2022-03-30T16:17:56.230Z,FULLY_SHARED_UNIT_1-1-1-1,2,monitoring-unit-1,memory,0.043895721435546875
2022-03-30T16:18:06.229Z,FULLY_SHARED_UNIT_1-1-1-1,2,monitoring-unit-1,memory,0.043895721435546875
2022-03-30T16:18:16.230Z,FULLY_SHARED_UNIT_1-1-1-1,2,monitoring-unit-1,memory,0.043903350830078125
2022-03-30T16:18:26.229Z,FULLY_SHARED_UNIT_1-1-1-1,2,monitoring-unit-1,memory,0.043903350830078125
2022-03-30T16:18:36.229Z,FULLY_SHARED_UNIT_1-1-1-1,2,monitoring-unit-1,memory,0.044284820556640625
2022-03-30T16:18:46.229Z,FULLY_SHARED_UNIT_1-1-1-1,2,monitoring-unit-1,memory,0.044284820556640625
2022-03-30T16:18:56.230Z,FULLY_SHARED_UNIT_1-1-1-1,2,monitoring-unit-1,memory,0.044033050537109375
2022-03-30T16:19:06.229Z,FULLY_SHARED_UNIT_1-1-1-1,2,monitoring-unit-1,memory,0.044033050537109375
2022-03-30T16:19:16.230Z,FULLY_SHARED_UNIT_1-1-1-1,2,monitoring-unit-1,memory,0.044033050537109375
2022-03-30T16:19:26.230Z,FULLY_SHARED_UNIT_1-1-1-1,2,monitoring-unit-1,memory,0.0411834716796875
2022-03-30T16:19:36.229Z,FULLY_SHARED_UNIT_1-1-1-1,2,monitoring-unit-1,memory,0.0411834716796875
2022-03-30T16:19:46.230Z,FULLY_SHARED_UNIT_1-1-1-1,2,monitoring-unit-1,memory,0.0412445068359375
2022-03-30T16:19:56.229Z,FULLY_SHARED_UNIT_1-1-1-1,2,monitoring-unit-1,memory,0.0412445068359375
2022-03-30T16:20:06.230Z,FULLY_SHARED_UNIT_1-1-1-1,2,monitoring-unit-1,memory,0.042377471923828125
2022-03-30T16:20:16.230Z,FULLY_SHARED_UNIT_1-1-1-1,2,monitoring-unit-1,memory,0.042377471923828125
2022-03-30T16:20:26.229Z,FULLY_SHARED_UNIT_1-1-1-1,2,monitoring-unit-1,memory,0.04477691650390625
2022-03-30T16:20:36.230Z,FULLY_SHARED_UNIT_1-1-1-1,2,monitoring-unit-1,memory,0.04477691650390625
2022-03-30T16:20:46.230Z,FULLY_SHARED_UNIT_1-1-1-1,2,monitoring-unit-1,memory,0.04477691650390625
2022-03-30T16:20:56.230Z,FULLY_SHARED_UNIT_1-1-1-1,2,monitoring-unit-1,memory,0.04477691650390625
2022-03-30T16:21:06.230Z,FULLY_SHARED_UNIT_1-1-1-1,2,monitoring-unit-1,memory,0.044403076171875
2022-03-30T16:21:16.230Z,FULLY_SHARED_UNIT_1-1-1-1,2,monitoring-unit-1,memory,0.044422149658203125
2022-03-30T16:21:26.229Z,FULLY_SHARED_UNIT_1-1-1-1,2,monitoring-unit-1,memory,0.044422149658203125
2022-03-30T16:21:36.229Z,FULLY_SHARED_UNIT_1-1-1-1,2,monitoring-unit-1,memory,0.04442596435546875
2022-03-30T16:21:46.230Z,FULLY_SHARED_UNIT_1-1-1-1,2,monitoring-unit-1,memory,0.044643402099609375
2022-03-30T16:21:56.229Z,FULLY_SHARED_UNIT_1-1-1-1,2,monitoring-unit-1,memory,0.044643402099609375
2022-03-30T16:22:06.230Z,FULLY_SHARED_UNIT_1-1-1-1,2,monitoring-unit-1,memory,0.044643402099609375
2022-03-30T16:22:16.230Z,FULLY_SHARED_UNIT_1-1-1-1,2,monitoring-unit-1,memory,0.044643402099609375
2022-03-30T16:22:26.230Z,FULLY_SHARED_UNIT_1-1-1-1,2,monitoring-unit-1,memory,0.044834136962890625
2022-03-30T16:22:36.229Z,FULLY_SHARED_UNIT_1-1-1-1,2,monitoring-unit-1,memory,0.044834136962890625
2022-03-30T16:22:46.230Z,FULLY_SHARED_UNIT_1-1-1-1,2,monitoring-unit-1,memory,0.044834136962890625
2022-03-30T16:22:56.230Z,FULLY_SHARED_UNIT_1-1-1-1,2,monitoring-unit-1,memory,0.044834136962890625
2022-03-30T16:23:06.229Z,FULLY_SHARED_UNIT_1-1-1-1,2,monitoring-unit-1,memory,0.044742584228515625
2022-03-30T16:23:16.229Z,FULLY_SHARED_UNIT_1-1-1-1,2,monitoring-unit-1,memory,0.044750213623046875
2022-03-30T16:23:26.229Z,FULLY_SHARED_UNIT_1-1-1-1,2,monitoring-unit-1,memory,0.044750213623046875
2022-03-30T16:23:36.229Z,FULLY_SHARED_UNIT_1-1-1-1,2,monitoring-unit-1,memory,0.044750213623046875
2022-03-30T16:23:46.229Z,FULLY_SHARED_UNIT_1-1-1-1,2,monitoring-unit-1,memory,0.043903350830078125
2022-03-30T16:23:56.229Z,FULLY_SHARED_UNIT_1-1-1-1,2,monitoring-unit-1,memory,0.043918609619140625
2022-03-30T16:24:06.229Z,FULLY_SHARED_UNIT_1-1-1-1,2,monitoring-unit-1,memory,0.044483184814453125
2022-03-30T16:24:16.230Z,FULLY_SHARED_UNIT_1-1-1-1,2,monitoring-unit-1,memory,0.044483184814453125
2022-03-30T16:24:26.230Z,FULLY_SHARED_UNIT_1-1-1-1,2,monitoring-unit-1,memory,0.044490814208984375
2022-03-30T16:24:36.230Z,FULLY_SHARED_UNIT_1-1-1-1,2,monitoring-unit-1,memory,0.044490814208984375
2022-03-30T16:24:46.230Z,FULLY_SHARED_UNIT_1-1-1-1,2,monitoring-unit-1,memory,0.044490814208984375
2022-03-30T16:24:56.230Z,FULLY_SHARED_UNIT_1-1-1-1,2,monitoring-unit-1,memory,0.04479217529296875
2022-03-30T16:25:06.229Z,FULLY_SHARED_UNIT_1-1-1-1,2,monitoring-unit-1,memory,0.04479217529296875
2022-03-30T16:25:16.229Z,FULLY_SHARED_UNIT_1-1-1-1,2,monitoring-unit-1,memory,0.044795989990234375
2022-03-30T16:25:26.230Z,FULLY_SHARED_UNIT_1-1-1-1,2,monitoring-unit-1,memory,0.044795989990234375
2022-03-30T16:25:36.230Z,FULLY_SHARED_UNIT_1-1-1-1,2,monitoring-unit-1,memory,0.044795989990234375
2022-03-30T16:25:54.363Z,FULLY_SHARED_UNIT_1-1-1-1,3,monitoring-unit-1,memory,0.0311431884765625
2022-03-30T16:26:04.363Z,FULLY_SHARED_UNIT_1-1-1-1,3,monitoring-unit-1,memory,0.0311431884765625
2022-03-30T16:26:14.363Z,FULLY_SHARED_UNIT_1-1-1-1,3,monitoring-unit-1,memory,0.038055419921875
2022-03-30T16:26:24.363Z,FULLY_SHARED_UNIT_1-1-1-1,3,monitoring-unit-1,memory,0.038055419921875
2022-03-30T16:26:34.363Z,FULLY_SHARED_UNIT_1-1-1-1,3,monitoring-unit-1,memory,0.038150787353515625
2022-03-30T16:26:44.363Z,FULLY_SHARED_UNIT_1-1-1-1,3,monitoring-unit-1,memory,0.042163848876953125
2022-03-30T16:26:54.365Z,FULLY_SHARED_UNIT_1-1-1-1,3,monitoring-unit-1,memory,0.042163848876953125
2022-03-30T16:27:04.364Z,FULLY_SHARED_UNIT_1-1-1-1,3,monitoring-unit-1,memory,0.042163848876953125
2022-03-30T16:27:14.364Z,FULLY_SHARED_UNIT_1-1-1-1,3,monitoring-unit-1,memory,0.042194366455078125
2022-03-30T16:27:24.363Z,FULLY_SHARED_UNIT_1-1-1-1,3,monitoring-unit-1,memory,0.042194366455078125
2022-03-30T16:27:34.364Z,FULLY_SHARED_UNIT_1-1-1-1,3,monitoring-unit-1,memory,0.0433502197265625
2022-03-30T16:27:44.364Z,FULLY_SHARED_UNIT_1-1-1-1,3,monitoring-unit-1,memory,0.0433502197265625
2022-03-30T16:27:54.364Z,FULLY_SHARED_UNIT_1-1-1-1,3,monitoring-unit-1,memory,0.0433502197265625
2022-03-30T16:28:04.363Z,FULLY_SHARED_UNIT_1-1-1-1,3,monitoring-unit-1,memory,0.0433502197265625
2022-03-30T16:28:14.364Z,FULLY_SHARED_UNIT_1-1-1-1,3,monitoring-unit-1,memory,0.043262481689453125
2022-03-30T16:28:24.364Z,FULLY_SHARED_UNIT_1-1-1-1,3,monitoring-unit-1,memory,0.043262481689453125
2022-03-30T16:28:34.363Z,FULLY_SHARED_UNIT_1-1-1-1,3,monitoring-unit-1,memory,0.043262481689453125
2022-03-30T16:28:44.364Z,FULLY_SHARED_UNIT_1-1-1-1,3,monitoring-unit-1,memory,0.04381561279296875
2022-03-30T16:28:54.363Z,FULLY_SHARED_UNIT_1-1-1-1,3,monitoring-unit-1,memory,0.04381561279296875
2022-03-30T16:29:04.363Z,FULLY_SHARED_UNIT_1-1-1-1,3,monitoring-unit-1,memory,0.04383087158203125
2022-03-30T16:29:14.364Z,FULLY_SHARED_UNIT_1-1-1-1,3,monitoring-unit-1,memory,0.04383087158203125
2022-03-30T16:29:24.364Z,FULLY_SHARED_UNIT_1-1-1-1,3,monitoring-unit-1,memory,0.040401458740234375
2022-03-30T16:29:34.363Z,FULLY_SHARED_UNIT_1-1-1-1,3,monitoring-unit-1,memory,0.040401458740234375
2022-03-30T16:29:44.363Z,FULLY_SHARED_UNIT_1-1-1-1,3,monitoring-unit-1,memory,0.041011810302734375
2022-03-30T16:29:54.363Z,FULLY_SHARED_UNIT_1-1-1-1,3,monitoring-unit-1,memory,0.041011810302734375
2022-03-30T16:30:04.363Z,FULLY_SHARED_UNIT_1-1-1-1,3,monitoring-unit-1,memory,0.041164398193359375
2022-03-30T16:30:14.364Z,FULLY_SHARED_UNIT_1-1-1-1,3,monitoring-unit-1,memory,0.0418853759765625
2022-03-30T16:30:24.364Z,FULLY_SHARED_UNIT_1-1-1-1,3,monitoring-unit-1,memory,0.0418853759765625
2022-03-30T16:30:34.363Z,FULLY_SHARED_UNIT_1-1-1-1,3,monitoring-unit-1,memory,0.041889190673828125
2022-03-30T16:30:44.363Z,FULLY_SHARED_UNIT_1-1-1-1,3,monitoring-unit-1,memory,0.041889190673828125
2022-03-30T16:30:54.363Z,FULLY_SHARED_UNIT_1-1-1-1,3,monitoring-unit-1,memory,0.043361663818359375
2022-03-30T16:31:04.363Z,FULLY_SHARED_UNIT_1-1-1-1,3,monitoring-unit-1,memory,0.043361663818359375
2022-03-30T16:31:14.363Z,FULLY_SHARED_UNIT_1-1-1-1,3,monitoring-unit-1,memory,0.0442047119140625
2022-03-30T16:31:24.363Z,FULLY_SHARED_UNIT_1-1-1-1,3,monitoring-unit-1,memory,0.0442047119140625
2022-03-30T16:31:34.364Z,FULLY_SHARED_UNIT_1-1-1-1,3,monitoring-unit-1,memory,0.044429779052734375
2022-03-30T16:31:44.363Z,FULLY_SHARED_UNIT_1-1-1-1,3,monitoring-unit-1,memory,0.044429779052734375
2022-03-30T16:31:54.364Z,FULLY_SHARED_UNIT_1-1-1-1,3,monitoring-unit-1,memory,0.044017791748046875
2022-03-30T16:32:04.363Z,FULLY_SHARED_UNIT_1-1-1-1,3,monitoring-unit-1,memory,0.044017791748046875
2022-03-30T16:32:14.363Z,FULLY_SHARED_UNIT_1-1-1-1,3,monitoring-unit-1,memory,0.042049407958984375
2022-03-30T16:32:24.364Z,FULLY_SHARED_UNIT_1-1-1-1,3,monitoring-unit-1,memory,0.042057037353515625
2022-03-30T16:32:34.364Z,FULLY_SHARED_UNIT_1-1-1-1,3,monitoring-unit-1,memory,0.042057037353515625
2022-03-30T16:32:44.364Z,FULLY_SHARED_UNIT_1-1-1-1,3,monitoring-unit-1,memory,0.042057037353515625
2022-03-30T16:32:54.363Z,FULLY_SHARED_UNIT_1-1-1-1,3,monitoring-unit-1,memory,0.043140411376953125
2022-03-30T16:33:04.363Z,FULLY_SHARED_UNIT_1-1-1-1,3,monitoring-unit-1,memory,0.043140411376953125
2022-03-30T16:33:14.364Z,FULLY_SHARED_UNIT_1-1-1-1,3,monitoring-unit-1,memory,0.0441131591796875
2022-03-30T16:33:24.364Z,FULLY_SHARED_UNIT_1-1-1-1,3,monitoring-unit-1,memory,0.0441131591796875
2022-03-30T16:33:34.363Z,FULLY_SHARED_UNIT_1-1-1-1,3,monitoring-unit-1,memory,0.0441131591796875
2022-03-30T16:33:44.364Z,FULLY_SHARED_UNIT_1-1-1-1,3,monitoring-unit-1,memory,0.044284820556640625
2022-03-30T16:33:54.363Z,FULLY_SHARED_UNIT_1-1-1-1,3,monitoring-unit-1,memory,0.044284820556640625
2022-03-30T16:34:04.363Z,FULLY_SHARED_UNIT_1-1-1-1,3,monitoring-unit-1,memory,0.0443267822265625
2022-03-30T16:34:14.363Z,FULLY_SHARED_UNIT_1-1-1-1,3,monitoring-unit-1,memory,0.0443267822265625
2022-03-30T16:34:24.363Z,FULLY_SHARED_UNIT_1-1-1-1,3,monitoring-unit-1,memory,0.044330596923828125
2022-03-30T16:34:34.363Z,FULLY_SHARED_UNIT_1-1-1-1,3,monitoring-unit-1,memory,0.044330596923828125
2022-03-30T16:34:44.364Z,FULLY_SHARED_UNIT_1-1-1-1,3,monitoring-unit-1,memory,0.044483184814453125
2022-03-30T16:34:54.364Z,FULLY_SHARED_UNIT_1-1-1-1,3,monitoring-unit-1,memory,0.044483184814453125
2022-03-30T16:35:04.363Z,FULLY_SHARED_UNIT_1-1-1-1,3,monitoring-unit-1,memory,0.044490814208984375
2022-03-30T16:35:14.364Z,FULLY_SHARED_UNIT_1-1-1-1,3,monitoring-unit-1,memory,0.044490814208984375
2022-03-30T16:35:24.364Z,FULLY_SHARED_UNIT_1-1-1-1,3,monitoring-unit-1,memory,0.044490814208984375
2022-03-30T16:35:34.363Z,FULLY_SHARED_UNIT_1-1-1-1,3,monitoring-unit-1,memory,0.0385894775390625
2022-03-30T16:35:44.364Z,FULLY_SHARED_UNIT_1-1-1-1,3,monitoring-unit-1,memory,0.03997039794921875
2022-03-30T21:15:46.690Z,FULLY_SHARED_UNIT_1-1-2-1,1,monitoring-unit-1,memory,0.033031463623046875
2022-03-30T21:15:56.690Z,FULLY_SHARED_UNIT_1-1-2-1,1,monitoring-unit-1,memory,0.040599822998046875
2022-03-30T21:16:06.691Z,FULLY_SHARED_UNIT_1-1-2-1,1,monitoring-unit-1,memory,0.042755126953125
2022-03-30T21:16:16.690Z,FULLY_SHARED_UNIT_1-1-2-1,1,monitoring-unit-1,memory,0.042755126953125
2022-03-30T21:16:26.690Z,FULLY_SHARED_UNIT_1-1-2-1,1,monitoring-unit-1,memory,0.042903900146484375
2022-03-30T21:16:36.690Z,FULLY_SHARED_UNIT_1-1-2-1,1,monitoring-unit-1,memory,0.044864654541015625
2022-03-30T21:16:46.690Z,FULLY_SHARED_UNIT_1-1-2-1,1,monitoring-unit-1,memory,0.044864654541015625
2022-03-30T21:16:56.690Z,FULLY_SHARED_UNIT_1-1-2-1,1,monitoring-unit-1,memory,0.044864654541015625
2022-03-30T21:17:06.690Z,FULLY_SHARED_UNIT_1-1-2-1,1,monitoring-unit-1,memory,0.044910430908203125
2022-03-30T21:17:16.691Z,FULLY_SHARED_UNIT_1-1-2-1,1,monitoring-unit-1,memory,0.044910430908203125
2022-03-30T21:17:26.690Z,FULLY_SHARED_UNIT_1-1-2-1,1,monitoring-unit-1,memory,0.044910430908203125
2022-03-30T21:17:36.691Z,FULLY_SHARED_UNIT_1-1-2-1,1,monitoring-unit-1,memory,0.046512603759765625
2022-03-30T21:17:46.691Z,FULLY_SHARED_UNIT_1-1-2-1,1,monitoring-unit-1,memory,0.04653167724609375
2022-03-30T21:17:56.691Z,FULLY_SHARED_UNIT_1-1-2-1,1,monitoring-unit-1,memory,0.04653167724609375
2022-03-30T21:18:06.691Z,FULLY_SHARED_UNIT_1-1-2-1,1,monitoring-unit-1,memory,0.04653167724609375
2022-03-30T21:18:16.691Z,FULLY_SHARED_UNIT_1-1-2-1,1,monitoring-unit-1,memory,0.0468902587890625
2022-03-30T21:18:26.691Z,FULLY_SHARED_UNIT_1-1-2-1,1,monitoring-unit-1,memory,0.047351837158203125
2022-03-30T21:18:36.690Z,FULLY_SHARED_UNIT_1-1-2-1,1,monitoring-unit-1,memory,0.047351837158203125
2022-03-30T21:18:46.691Z,FULLY_SHARED_UNIT_1-1-2-1,1,monitoring-unit-1,memory,0.047367095947265625
2022-03-30T21:18:56.690Z,FULLY_SHARED_UNIT_1-1-2-1,1,monitoring-unit-1,memory,0.047367095947265625
2022-03-30T21:19:06.690Z,FULLY_SHARED_UNIT_1-1-2-1,1,monitoring-unit-1,memory,0.04761505126953125
2022-03-30T21:19:16.690Z,FULLY_SHARED_UNIT_1-1-2-1,1,monitoring-unit-1,memory,0.04761505126953125
2022-03-30T21:19:26.691Z,FULLY_SHARED_UNIT_1-1-2-1,1,monitoring-unit-1,memory,0.047679901123046875
2022-03-30T21:19:36.691Z,FULLY_SHARED_UNIT_1-1-2-1,1,monitoring-unit-1,memory,0.047679901123046875
2022-03-30T21:19:46.690Z,FULLY_SHARED_UNIT_1-1-2-1,1,monitoring-unit-1,memory,0.044124603271484375
2022-03-30T21:19:56.691Z,FULLY_SHARED_UNIT_1-1-2-1,1,monitoring-unit-1,memory,0.04437255859375
2022-03-30T21:20:06.691Z,FULLY_SHARED_UNIT_1-1-2-1,1,monitoring-unit-1,memory,0.04437255859375
2022-03-30T21:20:16.690Z,FULLY_SHARED_UNIT_1-1-2-1,1,monitoring-unit-1,memory,0.04437255859375
2022-03-30T21:20:26.690Z,FULLY_SHARED_UNIT_1-1-2-1,1,monitoring-unit-1,memory,0.045017242431640625
2022-03-30T21:20:36.690Z,FULLY_SHARED_UNIT_1-1-2-1,1,monitoring-unit-1,memory,0.04502105712890625
2022-03-30T21:20:46.690Z,FULLY_SHARED_UNIT_1-1-2-1,1,monitoring-unit-1,memory,0.04502105712890625
2022-03-30T21:20:56.691Z,FULLY_SHARED_UNIT_1-1-2-1,1,monitoring-unit-1,memory,0.04640960693359375
2022-03-30T21:21:06.691Z,FULLY_SHARED_UNIT_1-1-2-1,1,monitoring-unit-1,memory,0.04640960693359375
2022-03-30T21:21:16.690Z,FULLY_SHARED_UNIT_1-1-2-1,1,monitoring-unit-1,memory,0.04640960693359375
2022-03-30T21:21:26.690Z,FULLY_SHARED_UNIT_1-1-2-1,1,monitoring-unit-1,memory,0.044086456298828125
2022-03-30T21:21:36.691Z,FULLY_SHARED_UNIT_1-1-2-1,1,monitoring-unit-1,memory,0.044086456298828125
2022-03-30T21:21:46.690Z,FULLY_SHARED_UNIT_1-1-2-1,1,monitoring-unit-1,memory,0.044086456298828125
2022-03-30T21:21:56.691Z,FULLY_SHARED_UNIT_1-1-2-1,1,monitoring-unit-1,memory,0.044086456298828125
2022-03-30T21:22:06.690Z,FULLY_SHARED_UNIT_1-1-2-1,1,monitoring-unit-1,memory,0.044086456298828125
2022-03-30T21:22:16.690Z,FULLY_SHARED_UNIT_1-1-2-1,1,monitoring-unit-1,memory,0.045787811279296875
2022-03-30T21:22:26.690Z,FULLY_SHARED_UNIT_1-1-2-1,1,monitoring-unit-1,memory,0.045787811279296875
2022-03-30T21:22:36.691Z,FULLY_SHARED_UNIT_1-1-2-1,1,monitoring-unit-1,memory,0.045787811279296875
2022-03-30T21:22:46.691Z,FULLY_SHARED_UNIT_1-1-2-1,1,monitoring-unit-1,memory,0.04605865478515625
2022-03-30T21:22:56.690Z,FULLY_SHARED_UNIT_1-1-2-1,1,monitoring-unit-1,memory,0.04605865478515625
2022-03-30T21:23:06.691Z,FULLY_SHARED_UNIT_1-1-2-1,1,monitoring-unit-1,memory,0.04605865478515625
2022-03-30T21:23:16.690Z,FULLY_SHARED_UNIT_1-1-2-1,1,monitoring-unit-1,memory,0.04335784912109375
2022-03-30T21:23:26.691Z,FULLY_SHARED_UNIT_1-1-2-1,1,monitoring-unit-1,memory,0.04335784912109375
2022-03-30T21:23:36.691Z,FULLY_SHARED_UNIT_1-1-2-1,1,monitoring-unit-1,memory,0.044525146484375
2022-03-30T21:23:46.691Z,FULLY_SHARED_UNIT_1-1-2-1,1,monitoring-unit-1,memory,0.044525146484375
2022-03-30T21:23:56.691Z,FULLY_SHARED_UNIT_1-1-2-1,1,monitoring-unit-1,memory,0.043949127197265625
2022-03-30T21:24:06.691Z,FULLY_SHARED_UNIT_1-1-2-1,1,monitoring-unit-1,memory,0.043949127197265625
2022-03-30T21:24:16.691Z,FULLY_SHARED_UNIT_1-1-2-1,1,monitoring-unit-1,memory,0.043506622314453125
2022-03-30T21:24:26.690Z,FULLY_SHARED_UNIT_1-1-2-1,1,monitoring-unit-1,memory,0.043506622314453125
2022-03-30T21:24:36.690Z,FULLY_SHARED_UNIT_1-1-2-1,1,monitoring-unit-1,memory,0.043956756591796875
2022-03-30T21:24:46.690Z,FULLY_SHARED_UNIT_1-1-2-1,1,monitoring-unit-1,memory,0.0445709228515625
2022-03-30T21:24:56.691Z,FULLY_SHARED_UNIT_1-1-2-1,1,monitoring-unit-1,memory,0.0445709228515625
2022-03-30T21:25:06.690Z,FULLY_SHARED_UNIT_1-1-2-1,1,monitoring-unit-1,memory,0.0445709228515625
2022-03-30T21:25:16.690Z,FULLY_SHARED_UNIT_1-1-2-1,1,monitoring-unit-1,memory,0.045684814453125
2022-03-30T21:25:26.691Z,FULLY_SHARED_UNIT_1-1-2-1,1,monitoring-unit-1,memory,0.046962738037109375
2022-03-30T21:25:36.691Z,FULLY_SHARED_UNIT_1-1-2-1,1,monitoring-unit-1,memory,0.046962738037109375
2022-03-30T21:25:56.153Z,FULLY_SHARED_UNIT_1-1-2-1,2,monitoring-unit-1,memory,0.030792236328125
2022-03-30T21:26:06.154Z,FULLY_SHARED_UNIT_1-1-2-1,2,monitoring-unit-1,memory,0.0390625
2022-03-30T21:26:16.154Z,FULLY_SHARED_UNIT_1-1-2-1,2,monitoring-unit-1,memory,0.0390625
2022-03-30T21:26:26.153Z,FULLY_SHARED_UNIT_1-1-2-1,2,monitoring-unit-1,memory,0.0390625
2022-03-30T21:26:36.154Z,FULLY_SHARED_UNIT_1-1-2-1,2,monitoring-unit-1,memory,0.041454315185546875
2022-03-30T21:26:46.153Z,FULLY_SHARED_UNIT_1-1-2-1,2,monitoring-unit-1,memory,0.041454315185546875
2022-03-30T21:26:56.153Z,FULLY_SHARED_UNIT_1-1-2-1,2,monitoring-unit-1,memory,0.041534423828125
2022-03-30T21:27:06.154Z,FULLY_SHARED_UNIT_1-1-2-1,2,monitoring-unit-1,memory,0.0401763916015625
2022-03-30T21:27:16.154Z,FULLY_SHARED_UNIT_1-1-2-1,2,monitoring-unit-1,memory,0.0401763916015625
2022-03-30T21:27:26.154Z,FULLY_SHARED_UNIT_1-1-2-1,2,monitoring-unit-1,memory,0.0401763916015625
2022-03-30T21:27:36.154Z,FULLY_SHARED_UNIT_1-1-2-1,2,monitoring-unit-1,memory,0.04193878173828125
2022-03-30T21:27:46.154Z,FULLY_SHARED_UNIT_1-1-2-1,2,monitoring-unit-1,memory,0.042316436767578125
2022-03-30T21:27:56.154Z,FULLY_SHARED_UNIT_1-1-2-1,2,monitoring-unit-1,memory,0.042316436767578125
2022-03-30T21:28:06.154Z,FULLY_SHARED_UNIT_1-1-2-1,2,monitoring-unit-1,memory,0.043064117431640625
2022-03-30T21:28:16.153Z,FULLY_SHARED_UNIT_1-1-2-1,2,monitoring-unit-1,memory,0.043064117431640625
2022-03-30T21:28:26.154Z,FULLY_SHARED_UNIT_1-1-2-1,2,monitoring-unit-1,memory,0.044574737548828125
2022-03-30T21:28:36.154Z,FULLY_SHARED_UNIT_1-1-2-1,2,monitoring-unit-1,memory,0.044574737548828125
2022-03-30T21:28:46.154Z,FULLY_SHARED_UNIT_1-1-2-1,2,monitoring-unit-1,memory,0.044574737548828125
2022-03-30T21:28:56.153Z,FULLY_SHARED_UNIT_1-1-2-1,2,monitoring-unit-1,memory,0.044574737548828125
2022-03-30T21:29:06.154Z,FULLY_SHARED_UNIT_1-1-2-1,2,monitoring-unit-1,memory,0.04557037353515625
2022-03-30T21:29:16.153Z,FULLY_SHARED_UNIT_1-1-2-1,2,monitoring-unit-1,memory,0.04557037353515625
2022-03-30T21:29:26.154Z,FULLY_SHARED_UNIT_1-1-2-1,2,monitoring-unit-1,memory,0.044849395751953125
2022-03-30T21:29:36.153Z,FULLY_SHARED_UNIT_1-1-2-1,2,monitoring-unit-1,memory,0.044849395751953125
2022-03-30T21:29:46.153Z,FULLY_SHARED_UNIT_1-1-2-1,2,monitoring-unit-1,memory,0.04488372802734375
2022-03-30T21:29:56.154Z,FULLY_SHARED_UNIT_1-1-2-1,2,monitoring-unit-1,memory,0.04488372802734375
2022-03-30T21:30:06.154Z,FULLY_SHARED_UNIT_1-1-2-1,2,monitoring-unit-1,memory,0.04488372802734375
2022-03-30T21:30:16.154Z,FULLY_SHARED_UNIT_1-1-2-1,2,monitoring-unit-1,memory,0.043243408203125
2022-03-30T21:30:26.154Z,FULLY_SHARED_UNIT_1-1-2-1,2,monitoring-unit-1,memory,0.043243408203125
2022-03-30T21:30:36.154Z,FULLY_SHARED_UNIT_1-1-2-1,2,monitoring-unit-1,memory,0.044109344482421875
2022-03-30T21:30:46.153Z,FULLY_SHARED_UNIT_1-1-2-1,2,monitoring-unit-1,memory,0.044109344482421875
2022-03-30T21:30:56.154Z,FULLY_SHARED_UNIT_1-1-2-1,2,monitoring-unit-1,memory,0.039257049560546875
2022-03-30T21:31:06.153Z,FULLY_SHARED_UNIT_1-1-2-1,2,monitoring-unit-1,memory,0.039257049560546875
2022-03-30T21:31:16.154Z,FULLY_SHARED_UNIT_1-1-2-1,2,monitoring-unit-1,memory,0.040042877197265625
2022-03-30T21:31:26.154Z,FULLY_SHARED_UNIT_1-1-2-1,2,monitoring-unit-1,memory,0.040042877197265625
2022-03-30T21:31:36.154Z,FULLY_SHARED_UNIT_1-1-2-1,2,monitoring-unit-1,memory,0.040355682373046875
2022-03-30T21:31:46.154Z,FULLY_SHARED_UNIT_1-1-2-1,2,monitoring-unit-1,memory,0.041011810302734375
2022-03-30T21:31:56.153Z,FULLY_SHARED_UNIT_1-1-2-1,2,monitoring-unit-1,memory,0.041011810302734375
2022-03-30T21:32:06.154Z,FULLY_SHARED_UNIT_1-1-2-1,2,monitoring-unit-1,memory,0.039276123046875
2022-03-30T21:32:16.154Z,FULLY_SHARED_UNIT_1-1-2-1,2,monitoring-unit-1,memory,0.039276123046875
2022-03-30T21:32:26.154Z,FULLY_SHARED_UNIT_1-1-2-1,2,monitoring-unit-1,memory,0.04102325439453125
2022-03-30T21:32:36.154Z,FULLY_SHARED_UNIT_1-1-2-1,2,monitoring-unit-1,memory,0.04102325439453125
2022-03-30T21:32:46.154Z,FULLY_SHARED_UNIT_1-1-2-1,2,monitoring-unit-1,memory,0.04228973388671875
2022-03-30T21:32:56.154Z,FULLY_SHARED_UNIT_1-1-2-1,2,monitoring-unit-1,memory,0.04228973388671875
2022-03-30T21:33:06.154Z,FULLY_SHARED_UNIT_1-1-2-1,2,monitoring-unit-1,memory,0.0400848388671875
2022-03-30T21:33:16.153Z,FULLY_SHARED_UNIT_1-1-2-1,2,monitoring-unit-1,memory,0.0400848388671875
2022-03-30T21:33:26.154Z,FULLY_SHARED_UNIT_1-1-2-1,2,monitoring-unit-1,memory,0.04117584228515625
2022-03-30T21:33:36.154Z,FULLY_SHARED_UNIT_1-1-2-1,2,monitoring-unit-1,memory,0.039981842041015625
2022-03-30T21:33:46.153Z,FULLY_SHARED_UNIT_1-1-2-1,2,monitoring-unit-1,memory,0.039981842041015625
2022-03-30T21:33:56.154Z,FULLY_SHARED_UNIT_1-1-2-1,2,monitoring-unit-1,memory,0.041072845458984375
2022-03-30T21:34:06.154Z,FULLY_SHARED_UNIT_1-1-2-1,2,monitoring-unit-1,memory,0.04108428955078125
2022-03-30T21:34:16.154Z,FULLY_SHARED_UNIT_1-1-2-1,2,monitoring-unit-1,memory,0.04108428955078125
2022-03-30T21:34:26.153Z,FULLY_SHARED_UNIT_1-1-2-1,2,monitoring-unit-1,memory,0.04235076904296875
2022-03-30T21:34:36.154Z,FULLY_SHARED_UNIT_1-1-2-1,2,monitoring-unit-1,memory,0.041248321533203125
2022-03-30T21:34:46.154Z,FULLY_SHARED_UNIT_1-1-2-1,2,monitoring-unit-1,memory,0.041248321533203125
2022-03-30T21:34:56.153Z,FULLY_SHARED_UNIT_1-1-2-1,2,monitoring-unit-1,memory,0.042270660400390625
2022-03-30T21:35:06.154Z,FULLY_SHARED_UNIT_1-1-2-1,2,monitoring-unit-1,memory,0.042270660400390625
2022-03-30T21:35:16.153Z,FULLY_SHARED_UNIT_1-1-2-1,2,monitoring-unit-1,memory,0.042270660400390625
2022-03-30T21:35:26.153Z,FULLY_SHARED_UNIT_1-1-2-1,2,monitoring-unit-1,memory,0.04227447509765625
2022-03-30T21:35:36.154Z,FULLY_SHARED_UNIT_1-1-2-1,2,monitoring-unit-1,memory,0.0432281494140625
2022-03-30T21:35:46.153Z,FULLY_SHARED_UNIT_1-1-2-1,2,monitoring-unit-1,memory,0.0432281494140625
2022-03-30T21:36:06.283Z,FULLY_SHARED_UNIT_1-1-2-1,3,monitoring-unit-1,memory,0.03128814697265625
2022-03-30T21:36:16.283Z,FULLY_SHARED_UNIT_1-1-2-1,3,monitoring-unit-1,memory,0.039752960205078125
2022-03-30T21:36:26.284Z,FULLY_SHARED_UNIT_1-1-2-1,3,monitoring-unit-1,memory,0.040313720703125
2022-03-30T21:36:36.284Z,FULLY_SHARED_UNIT_1-1-2-1,3,monitoring-unit-1,memory,0.040313720703125
2022-03-30T21:36:46.283Z,FULLY_SHARED_UNIT_1-1-2-1,3,monitoring-unit-1,memory,0.041255950927734375
2022-03-30T21:36:56.284Z,FULLY_SHARED_UNIT_1-1-2-1,3,monitoring-unit-1,memory,0.041507720947265625
2022-03-30T21:37:06.284Z,FULLY_SHARED_UNIT_1-1-2-1,3,monitoring-unit-1,memory,0.041507720947265625
2022-03-30T21:37:16.283Z,FULLY_SHARED_UNIT_1-1-2-1,3,monitoring-unit-1,memory,0.041507720947265625
2022-03-30T21:37:26.283Z,FULLY_SHARED_UNIT_1-1-2-1,3,monitoring-unit-1,memory,0.043766021728515625
2022-03-30T21:37:36.283Z,FULLY_SHARED_UNIT_1-1-2-1,3,monitoring-unit-1,memory,0.043766021728515625
2022-03-30T21:37:46.284Z,FULLY_SHARED_UNIT_1-1-2-1,3,monitoring-unit-1,memory,0.044246673583984375
2022-03-30T21:37:56.283Z,FULLY_SHARED_UNIT_1-1-2-1,3,monitoring-unit-1,memory,0.044246673583984375
2022-03-30T21:38:06.284Z,FULLY_SHARED_UNIT_1-1-2-1,3,monitoring-unit-1,memory,0.04457855224609375
2022-03-30T21:38:16.283Z,FULLY_SHARED_UNIT_1-1-2-1,3,monitoring-unit-1,memory,0.04457855224609375
2022-03-30T21:38:26.283Z,FULLY_SHARED_UNIT_1-1-2-1,3,monitoring-unit-1,memory,0.04461669921875
2022-03-30T21:38:36.283Z,FULLY_SHARED_UNIT_1-1-2-1,3,monitoring-unit-1,memory,0.04461669921875
2022-03-30T21:38:46.284Z,FULLY_SHARED_UNIT_1-1-2-1,3,monitoring-unit-1,memory,0.0452880859375
2022-03-30T21:38:56.283Z,FULLY_SHARED_UNIT_1-1-2-1,3,monitoring-unit-1,memory,0.0452880859375
2022-03-30T21:39:06.284Z,FULLY_SHARED_UNIT_1-1-2-1,3,monitoring-unit-1,memory,0.045352935791015625
2022-03-30T21:39:16.284Z,FULLY_SHARED_UNIT_1-1-2-1,3,monitoring-unit-1,memory,0.0456695556640625
2022-03-30T21:39:26.283Z,FULLY_SHARED_UNIT_1-1-2-1,3,monitoring-unit-1,memory,0.0456695556640625
2022-03-30T21:39:36.284Z,FULLY_SHARED_UNIT_1-1-2-1,3,monitoring-unit-1,memory,0.0456695556640625
2022-03-30T21:39:46.283Z,FULLY_SHARED_UNIT_1-1-2-1,3,monitoring-unit-1,memory,0.0456695556640625
2022-03-30T21:39:56.284Z,FULLY_SHARED_UNIT_1-1-2-1,3,monitoring-unit-1,memory,0.045684814453125
2022-03-30T21:40:06.284Z,FULLY_SHARED_UNIT_1-1-2-1,3,monitoring-unit-1,memory,0.04564666748046875
2022-03-30T21:40:16.283Z,FULLY_SHARED_UNIT_1-1-2-1,3,monitoring-unit-1,memory,0.045658111572265625
2022-03-30T21:40:26.284Z,FULLY_SHARED_UNIT_1-1-2-1,3,monitoring-unit-1,memory,0.043426513671875
2022-03-30T21:40:36.284Z,FULLY_SHARED_UNIT_1-1-2-1,3,monitoring-unit-1,memory,0.043426513671875
2022-03-30T21:40:46.283Z,FULLY_SHARED_UNIT_1-1-2-1,3,monitoring-unit-1,memory,0.04345703125
2022-03-30T21:40:56.284Z,FULLY_SHARED_UNIT_1-1-2-1,3,monitoring-unit-1,memory,0.043880462646484375
2022-03-30T21:41:06.283Z,FULLY_SHARED_UNIT_1-1-2-1,3,monitoring-unit-1,memory,0.043880462646484375
2022-03-30T21:41:16.284Z,FULLY_SHARED_UNIT_1-1-2-1,3,monitoring-unit-1,memory,0.044857025146484375
2022-03-30T21:41:26.283Z,FULLY_SHARED_UNIT_1-1-2-1,3,monitoring-unit-1,memory,0.044857025146484375
2022-03-30T21:41:36.283Z,FULLY_SHARED_UNIT_1-1-2-1,3,monitoring-unit-1,memory,0.044891357421875
2022-03-30T21:41:46.283Z,FULLY_SHARED_UNIT_1-1-2-1,3,monitoring-unit-1,memory,0.044677734375
2022-03-30T21:41:56.283Z,FULLY_SHARED_UNIT_1-1-2-1,3,monitoring-unit-1,memory,0.044677734375
2022-03-30T21:42:06.284Z,FULLY_SHARED_UNIT_1-1-2-1,3,monitoring-unit-1,memory,0.044734954833984375
2022-03-30T21:42:16.283Z,FULLY_SHARED_UNIT_1-1-2-1,3,monitoring-unit-1,memory,0.044734954833984375
2022-03-30T21:42:26.283Z,FULLY_SHARED_UNIT_1-1-2-1,3,monitoring-unit-1,memory,0.044994354248046875
2022-03-30T21:42:36.284Z,FULLY_SHARED_UNIT_1-1-2-1,3,monitoring-unit-1,memory,0.04500579833984375
2022-03-30T21:42:46.283Z,FULLY_SHARED_UNIT_1-1-2-1,3,monitoring-unit-1,memory,0.04500579833984375
2022-03-30T21:42:56.284Z,FULLY_SHARED_UNIT_1-1-2-1,3,monitoring-unit-1,memory,0.0450286865234375
2022-03-30T21:43:06.284Z,FULLY_SHARED_UNIT_1-1-2-1,3,monitoring-unit-1,memory,0.043701171875
2022-03-30T21:43:16.283Z,FULLY_SHARED_UNIT_1-1-2-1,3,monitoring-unit-1,memory,0.043701171875
2022-03-30T21:43:26.284Z,FULLY_SHARED_UNIT_1-1-2-1,3,monitoring-unit-1,memory,0.04381561279296875
2022-03-30T21:43:36.283Z,FULLY_SHARED_UNIT_1-1-2-1,3,monitoring-unit-1,memory,0.04381561279296875
2022-03-30T21:43:46.284Z,FULLY_SHARED_UNIT_1-1-2-1,3,monitoring-unit-1,memory,0.040569305419921875
2022-03-30T21:43:56.284Z,FULLY_SHARED_UNIT_1-1-2-1,3,monitoring-unit-1,memory,0.041790008544921875
2022-03-30T21:44:06.283Z,FULLY_SHARED_UNIT_1-1-2-1,3,monitoring-unit-1,memory,0.040699005126953125
2022-03-30T21:44:16.283Z,FULLY_SHARED_UNIT_1-1-2-1,3,monitoring-unit-1,memory,0.040699005126953125
2022-03-30T21:44:26.283Z,FULLY_SHARED_UNIT_1-1-2-1,3,monitoring-unit-1,memory,0.041416168212890625
2022-03-30T21:44:36.283Z,FULLY_SHARED_UNIT_1-1-2-1,3,monitoring-unit-1,memory,0.04053497314453125
2022-03-30T21:44:46.284Z,FULLY_SHARED_UNIT_1-1-2-1,3,monitoring-unit-1,memory,0.04053497314453125
2022-03-30T21:44:56.284Z,FULLY_SHARED_UNIT_1-1-2-1,3,monitoring-unit-1,memory,0.040538787841796875
2022-03-30T21:45:06.283Z,FULLY_SHARED_UNIT_1-1-2-1,3,monitoring-unit-1,memory,0.040538787841796875
2022-03-30T21:45:16.284Z,FULLY_SHARED_UNIT_1-1-2-1,3,monitoring-unit-1,memory,0.04077911376953125
2022-03-30T21:45:26.284Z,FULLY_SHARED_UNIT_1-1-2-1,3,monitoring-unit-1,memory,0.04164886474609375
2022-03-30T21:45:36.283Z,FULLY_SHARED_UNIT_1-1-2-1,3,monitoring-unit-1,memory,0.04164886474609375
2022-03-30T21:45:46.284Z,FULLY_SHARED_UNIT_1-1-2-1,3,monitoring-unit-1,memory,0.041660308837890625
2022-03-30T21:45:56.283Z,FULLY_SHARED_UNIT_1-1-2-1,3,monitoring-unit-1,memory,0.041660308837890625
2022-03-30T21:46:16.178Z,FULLY_SHARED_UNIT_1-1-4-1,1,monitoring-unit-1,memory,0.031360626220703125
2022-03-30T21:46:26.177Z,FULLY_SHARED_UNIT_1-1-4-1,1,monitoring-unit-1,memory,0.031360626220703125
2022-03-30T21:46:36.177Z,FULLY_SHARED_UNIT_1-1-4-1,1,monitoring-unit-1,memory,0.038570404052734375
2022-03-30T21:46:46.178Z,FULLY_SHARED_UNIT_1-1-4-1,1,monitoring-unit-1,memory,0.038570404052734375
2022-03-30T21:46:56.177Z,FULLY_SHARED_UNIT_1-1-4-1,1,monitoring-unit-1,memory,0.038570404052734375
2022-03-30T21:47:06.178Z,FULLY_SHARED_UNIT_1-1-4-1,1,monitoring-unit-1,memory,0.0406951904296875
2022-03-30T21:47:16.177Z,FULLY_SHARED_UNIT_1-1-4-1,1,monitoring-unit-1,memory,0.0428924560546875
2022-03-30T21:47:26.177Z,FULLY_SHARED_UNIT_1-1-4-1,1,monitoring-unit-1,memory,0.0428924560546875
2022-03-30T21:47:36.177Z,FULLY_SHARED_UNIT_1-1-4-1,1,monitoring-unit-1,memory,0.042774200439453125
2022-03-30T21:47:46.178Z,FULLY_SHARED_UNIT_1-1-4-1,1,monitoring-unit-1,memory,0.040863037109375
2022-03-30T21:47:56.178Z,FULLY_SHARED_UNIT_1-1-4-1,1,monitoring-unit-1,memory,0.040863037109375
2022-03-30T21:48:06.177Z,FULLY_SHARED_UNIT_1-1-4-1,1,monitoring-unit-1,memory,0.040863037109375
2022-03-30T21:48:16.178Z,FULLY_SHARED_UNIT_1-1-4-1,1,monitoring-unit-1,memory,0.0419769287109375
2022-03-30T21:48:26.177Z,FULLY_SHARED_UNIT_1-1-4-1,1,monitoring-unit-1,memory,0.0419769287109375
2022-03-30T21:48:36.177Z,FULLY_SHARED_UNIT_1-1-4-1,1,monitoring-unit-1,memory,0.04198455810546875
2022-03-30T21:48:46.178Z,FULLY_SHARED_UNIT_1-1-4-1,1,monitoring-unit-1,memory,0.04337310791015625
2022-03-30T21:48:56.178Z,FULLY_SHARED_UNIT_1-1-4-1,1,monitoring-unit-1,memory,0.04337310791015625
2022-03-30T21:49:06.178Z,FULLY_SHARED_UNIT_1-1-4-1,1,monitoring-unit-1,memory,0.04106903076171875
2022-03-30T21:49:16.177Z,FULLY_SHARED_UNIT_1-1-4-1,1,monitoring-unit-1,memory,0.04193115234375
2022-03-30T21:49:26.177Z,FULLY_SHARED_UNIT_1-1-4-1,1,monitoring-unit-1,memory,0.04193115234375
2022-03-30T21:49:36.177Z,FULLY_SHARED_UNIT_1-1-4-1,1,monitoring-unit-1,memory,0.04193115234375
2022-03-30T21:49:46.177Z,FULLY_SHARED_UNIT_1-1-4-1,1,monitoring-unit-1,memory,0.042346954345703125
2022-03-30T21:49:56.177Z,FULLY_SHARED_UNIT_1-1-4-1,1,monitoring-unit-1,memory,0.042346954345703125
2022-03-30T21:50:06.178Z,FULLY_SHARED_UNIT_1-1-4-1,1,monitoring-unit-1,memory,0.042957305908203125
2022-03-30T21:50:16.177Z,FULLY_SHARED_UNIT_1-1-4-1,1,monitoring-unit-1,memory,0.042957305908203125
2022-03-30T21:50:26.178Z,FULLY_SHARED_UNIT_1-1-4-1,1,monitoring-unit-1,memory,0.041107177734375
2022-03-30T21:50:36.178Z,FULLY_SHARED_UNIT_1-1-4-1,1,monitoring-unit-1,memory,0.041107177734375
2022-03-30T21:50:46.177Z,FULLY_SHARED_UNIT_1-1-4-1,1,monitoring-unit-1,memory,0.042327880859375
2022-03-30T21:50:56.177Z,FULLY_SHARED_UNIT_1-1-4-1,1,monitoring-unit-1,memory,0.042327880859375
2022-03-30T21:51:06.178Z,FULLY_SHARED_UNIT_1-1-4-1,1,monitoring-unit-1,memory,0.04248046875
2022-03-30T21:51:16.177Z,FULLY_SHARED_UNIT_1-1-4-1,1,monitoring-unit-1,memory,0.04248046875
2022-03-30T21:51:26.178Z,FULLY_SHARED_UNIT_1-1-4-1,1,monitoring-unit-1,memory,0.041316986083984375
2022-03-30T21:51:36.177Z,FULLY_SHARED_UNIT_1-1-4-1,1,monitoring-unit-1,memory,0.041316986083984375
2022-03-30T21:51:46.177Z,FULLY_SHARED_UNIT_1-1-4-1,1,monitoring-unit-1,memory,0.041316986083984375
2022-03-30T21:51:56.177Z,FULLY_SHARED_UNIT_1-1-4-1,1,monitoring-unit-1,memory,0.04242706298828125
2022-03-30T21:52:06.178Z,FULLY_SHARED_UNIT_1-1-4-1,1,monitoring-unit-1,memory,0.04303741455078125
2022-03-30T21:52:16.177Z,FULLY_SHARED_UNIT_1-1-4-1,1,monitoring-unit-1,memory,0.04303741455078125
2022-03-30T21:52:26.178Z,FULLY_SHARED_UNIT_1-1-4-1,1,monitoring-unit-1,memory,0.04400634765625
2022-03-30T21:52:36.178Z,FULLY_SHARED_UNIT_1-1-4-1,1,monitoring-unit-1,memory,0.04137420654296875
2022-03-30T21:52:46.178Z,FULLY_SHARED_UNIT_1-1-4-1,1,monitoring-unit-1,memory,0.04254150390625
2022-03-30T21:52:56.177Z,FULLY_SHARED_UNIT_1-1-4-1,1,monitoring-unit-1,memory,0.04254150390625
2022-03-30T21:53:06.177Z,FULLY_SHARED_UNIT_1-1-4-1,1,monitoring-unit-1,memory,0.041961669921875
2022-03-30T21:53:16.178Z,FULLY_SHARED_UNIT_1-1-4-1,1,monitoring-unit-1,memory,0.042568206787109375
2022-03-30T21:53:26.177Z,FULLY_SHARED_UNIT_1-1-4-1,1,monitoring-unit-1,memory,0.042568206787109375
2022-03-30T21:53:36.177Z,FULLY_SHARED_UNIT_1-1-4-1,1,monitoring-unit-1,memory,0.042572021484375
2022-03-30T21:53:46.177Z,FULLY_SHARED_UNIT_1-1-4-1,1,monitoring-unit-1,memory,0.041782379150390625
2022-03-30T21:53:56.177Z,FULLY_SHARED_UNIT_1-1-4-1,1,monitoring-unit-1,memory,0.041782379150390625
2022-03-30T21:54:06.177Z,FULLY_SHARED_UNIT_1-1-4-1,1,monitoring-unit-1,memory,0.041782379150390625
2022-03-30T21:54:16.177Z,FULLY_SHARED_UNIT_1-1-4-1,1,monitoring-unit-1,memory,0.042083740234375
2022-03-30T21:54:26.177Z,FULLY_SHARED_UNIT_1-1-4-1,1,monitoring-unit-1,memory,0.041805267333984375
2022-03-30T21:54:36.177Z,FULLY_SHARED_UNIT_1-1-4-1,1,monitoring-unit-1,memory,0.041805267333984375
2022-03-30T21:54:46.178Z,FULLY_SHARED_UNIT_1-1-4-1,1,monitoring-unit-1,memory,0.042606353759765625
2022-03-30T21:54:56.177Z,FULLY_SHARED_UNIT_1-1-4-1,1,monitoring-unit-1,memory,0.042606353759765625
2022-03-30T21:55:06.177Z,FULLY_SHARED_UNIT_1-1-4-1,1,monitoring-unit-1,memory,0.042606353759765625
2022-03-30T21:55:16.177Z,FULLY_SHARED_UNIT_1-1-4-1,1,monitoring-unit-1,memory,0.041294097900390625
2022-03-30T21:55:26.177Z,FULLY_SHARED_UNIT_1-1-4-1,1,monitoring-unit-1,memory,0.041294097900390625
2022-03-30T21:55:36.177Z,FULLY_SHARED_UNIT_1-1-4-1,1,monitoring-unit-1,memory,0.042560577392578125
2022-03-30T21:55:46.177Z,FULLY_SHARED_UNIT_1-1-4-1,1,monitoring-unit-1,memory,0.042560577392578125
2022-03-30T21:55:56.178Z,FULLY_SHARED_UNIT_1-1-4-1,1,monitoring-unit-1,memory,0.042560577392578125
2022-03-30T21:56:06.177Z,FULLY_SHARED_UNIT_1-1-4-1,1,monitoring-unit-1,memory,0.042102813720703125
2022-03-30T21:56:27.390Z,FULLY_SHARED_UNIT_1-1-4-1,2,monitoring-unit-1,memory,0.03296661376953125
2022-03-30T21:56:37.390Z,FULLY_SHARED_UNIT_1-1-4-1,2,monitoring-unit-1,memory,0.03987884521484375
2022-03-30T21:56:47.389Z,FULLY_SHARED_UNIT_1-1-4-1,2,monitoring-unit-1,memory,0.03987884521484375
2022-03-30T21:56:57.390Z,FULLY_SHARED_UNIT_1-1-4-1,2,monitoring-unit-1,memory,0.041965484619140625
2022-03-30T21:57:07.390Z,FULLY_SHARED_UNIT_1-1-4-1,2,monitoring-unit-1,memory,0.043926239013671875
2022-03-30T21:57:17.390Z,FULLY_SHARED_UNIT_1-1-4-1,2,monitoring-unit-1,memory,0.043926239013671875
2022-03-30T21:57:27.390Z,FULLY_SHARED_UNIT_1-1-4-1,2,monitoring-unit-1,memory,0.0421142578125
2022-03-30T21:57:37.390Z,FULLY_SHARED_UNIT_1-1-4-1,2,monitoring-unit-1,memory,0.0421142578125
2022-03-30T21:57:47.390Z,FULLY_SHARED_UNIT_1-1-4-1,2,monitoring-unit-1,memory,0.043956756591796875
2022-03-30T21:57:57.390Z,FULLY_SHARED_UNIT_1-1-4-1,2,monitoring-unit-1,memory,0.04400634765625
2022-03-30T21:58:07.390Z,FULLY_SHARED_UNIT_1-1-4-1,2,monitoring-unit-1,memory,0.04400634765625
2022-03-30T21:58:17.390Z,FULLY_SHARED_UNIT_1-1-4-1,2,monitoring-unit-1,memory,0.04401397705078125
2022-03-30T21:58:27.390Z,FULLY_SHARED_UNIT_1-1-4-1,2,monitoring-unit-1,memory,0.044094085693359375
2022-03-30T21:58:37.390Z,FULLY_SHARED_UNIT_1-1-4-1,2,monitoring-unit-1,memory,0.044094085693359375
2022-03-30T21:58:47.390Z,FULLY_SHARED_UNIT_1-1-4-1,2,monitoring-unit-1,memory,0.044094085693359375
2022-03-30T21:58:57.390Z,FULLY_SHARED_UNIT_1-1-4-1,2,monitoring-unit-1,memory,0.045833587646484375
2022-03-30T21:59:07.390Z,FULLY_SHARED_UNIT_1-1-4-1,2,monitoring-unit-1,memory,0.045833587646484375
2022-03-30T21:59:17.390Z,FULLY_SHARED_UNIT_1-1-4-1,2,monitoring-unit-1,memory,0.047119140625
2022-03-30T21:59:27.390Z,FULLY_SHARED_UNIT_1-1-4-1,2,monitoring-unit-1,memory,0.0421600341796875
2022-03-30T21:59:37.390Z,FULLY_SHARED_UNIT_1-1-4-1,2,monitoring-unit-1,memory,0.0421600341796875
2022-03-30T21:59:47.390Z,FULLY_SHARED_UNIT_1-1-4-1,2,monitoring-unit-1,memory,0.04290008544921875
2022-03-30T21:59:57.390Z,FULLY_SHARED_UNIT_1-1-4-1,2,monitoring-unit-1,memory,0.04416656494140625
2022-03-30T22:00:07.390Z,FULLY_SHARED_UNIT_1-1-4-1,2,monitoring-unit-1,memory,0.04416656494140625
2022-03-30T22:00:17.390Z,FULLY_SHARED_UNIT_1-1-4-1,2,monitoring-unit-1,memory,0.04416656494140625
2022-03-30T22:00:27.390Z,FULLY_SHARED_UNIT_1-1-4-1,2,monitoring-unit-1,memory,0.04416656494140625
2022-03-30T22:00:37.390Z,FULLY_SHARED_UNIT_1-1-4-1,2,monitoring-unit-1,memory,0.04239654541015625
2022-03-30T22:00:47.390Z,FULLY_SHARED_UNIT_1-1-4-1,2,monitoring-unit-1,memory,0.04418182373046875
2022-03-30T22:00:57.390Z,FULLY_SHARED_UNIT_1-1-4-1,2,monitoring-unit-1,memory,0.04418182373046875
2022-03-30T22:01:07.390Z,FULLY_SHARED_UNIT_1-1-4-1,2,monitoring-unit-1,memory,0.04418182373046875
2022-03-30T22:01:17.390Z,FULLY_SHARED_UNIT_1-1-4-1,2,monitoring-unit-1,memory,0.043552398681640625
2022-03-30T22:01:27.390Z,FULLY_SHARED_UNIT_1-1-4-1,2,monitoring-unit-1,memory,0.044330596923828125
2022-03-30T22:01:37.389Z,FULLY_SHARED_UNIT_1-1-4-1,2,monitoring-unit-1,memory,0.044219970703125
2022-03-30T22:01:47.390Z,FULLY_SHARED_UNIT_1-1-4-1,2,monitoring-unit-1,memory,0.044219970703125
2022-03-30T22:01:57.390Z,FULLY_SHARED_UNIT_1-1-4-1,2,monitoring-unit-1,memory,0.044219970703125
2022-03-30T22:02:07.390Z,FULLY_SHARED_UNIT_1-1-4-1,2,monitoring-unit-1,memory,0.042449951171875
2022-03-30T22:02:17.390Z,FULLY_SHARED_UNIT_1-1-4-1,2,monitoring-unit-1,memory,0.04407501220703125
2022-03-30T22:02:27.390Z,FULLY_SHARED_UNIT_1-1-4-1,2,monitoring-unit-1,memory,0.04323577880859375
2022-03-30T22:02:37.389Z,FULLY_SHARED_UNIT_1-1-4-1,2,monitoring-unit-1,memory,0.04323577880859375
2022-03-30T22:02:47.389Z,FULLY_SHARED_UNIT_1-1-4-1,2,monitoring-unit-1,memory,0.0434722900390625
2022-03-30T22:02:57.390Z,FULLY_SHARED_UNIT_1-1-4-1,2,monitoring-unit-1,memory,0.0442047119140625
2022-03-30T22:03:07.390Z,FULLY_SHARED_UNIT_1-1-4-1,2,monitoring-unit-1,memory,0.0442047119140625
2022-03-30T22:03:17.389Z,FULLY_SHARED_UNIT_1-1-4-1,2,monitoring-unit-1,memory,0.04409027099609375
2022-03-30T22:03:27.390Z,FULLY_SHARED_UNIT_1-1-4-1,2,monitoring-unit-1,memory,0.045482635498046875
2022-03-30T22:03:37.390Z,FULLY_SHARED_UNIT_1-1-4-1,2,monitoring-unit-1,memory,0.045482635498046875
2022-03-30T22:03:47.390Z,FULLY_SHARED_UNIT_1-1-4-1,2,monitoring-unit-1,memory,0.04288482666015625
2022-03-30T22:03:57.390Z,FULLY_SHARED_UNIT_1-1-4-1,2,monitoring-unit-1,memory,0.04388427734375
2022-03-30T22:04:07.390Z,FULLY_SHARED_UNIT_1-1-4-1,2,monitoring-unit-1,memory,0.04388427734375
2022-03-30T22:04:17.390Z,FULLY_SHARED_UNIT_1-1-4-1,2,monitoring-unit-1,memory,0.04388427734375
2022-03-30T22:04:27.390Z,FULLY_SHARED_UNIT_1-1-4-1,2,monitoring-unit-1,memory,0.0441741943359375
2022-03-30T22:04:37.390Z,FULLY_SHARED_UNIT_1-1-4-1,2,monitoring-unit-1,memory,0.0441741943359375
2022-03-30T22:04:47.390Z,FULLY_SHARED_UNIT_1-1-4-1,2,monitoring-unit-1,memory,0.0441741943359375
2022-03-30T22:04:57.390Z,FULLY_SHARED_UNIT_1-1-4-1,2,monitoring-unit-1,memory,0.04566192626953125
2022-03-30T22:05:07.390Z,FULLY_SHARED_UNIT_1-1-4-1,2,monitoring-unit-1,memory,0.043201446533203125
2022-03-30T22:05:17.389Z,FULLY_SHARED_UNIT_1-1-4-1,2,monitoring-unit-1,memory,0.043201446533203125
2022-03-30T22:05:27.390Z,FULLY_SHARED_UNIT_1-1-4-1,2,monitoring-unit-1,memory,0.044158935546875
2022-03-30T22:05:37.390Z,FULLY_SHARED_UNIT_1-1-4-1,2,monitoring-unit-1,memory,0.043548583984375
2022-03-30T22:05:47.390Z,FULLY_SHARED_UNIT_1-1-4-1,2,monitoring-unit-1,memory,0.043548583984375
2022-03-30T22:05:57.390Z,FULLY_SHARED_UNIT_1-1-4-1,2,monitoring-unit-1,memory,0.04415130615234375
2022-03-30T22:06:07.390Z,FULLY_SHARED_UNIT_1-1-4-1,2,monitoring-unit-1,memory,0.044158935546875
2022-03-30T22:06:17.390Z,FULLY_SHARED_UNIT_1-1-4-1,2,monitoring-unit-1,memory,0.044158935546875
2022-03-30T22:06:37.956Z,FULLY_SHARED_UNIT_1-1-4-1,3,monitoring-unit-1,memory,0.03112030029296875
2022-03-30T22:06:47.956Z,FULLY_SHARED_UNIT_1-1-4-1,3,monitoring-unit-1,memory,0.03112030029296875
2022-03-30T22:06:57.956Z,FULLY_SHARED_UNIT_1-1-4-1,3,monitoring-unit-1,memory,0.03778076171875
2022-03-30T22:07:07.957Z,FULLY_SHARED_UNIT_1-1-4-1,3,monitoring-unit-1,memory,0.037784576416015625
2022-03-30T22:07:17.956Z,FULLY_SHARED_UNIT_1-1-4-1,3,monitoring-unit-1,memory,0.037784576416015625
2022-03-30T22:07:27.956Z,FULLY_SHARED_UNIT_1-1-4-1,3,monitoring-unit-1,memory,0.039821624755859375
2022-03-30T22:07:37.956Z,FULLY_SHARED_UNIT_1-1-4-1,3,monitoring-unit-1,memory,0.039859771728515625
2022-03-30T22:07:47.956Z,FULLY_SHARED_UNIT_1-1-4-1,3,monitoring-unit-1,memory,0.039859771728515625
2022-03-30T22:07:57.956Z,FULLY_SHARED_UNIT_1-1-4-1,3,monitoring-unit-1,memory,0.039859771728515625
2022-03-30T22:08:07.956Z,FULLY_SHARED_UNIT_1-1-4-1,3,monitoring-unit-1,memory,0.042438507080078125
2022-03-30T22:08:17.956Z,FULLY_SHARED_UNIT_1-1-4-1,3,monitoring-unit-1,memory,0.042438507080078125
2022-03-30T22:08:27.956Z,FULLY_SHARED_UNIT_1-1-4-1,3,monitoring-unit-1,memory,0.042568206787109375
2022-03-30T22:08:37.957Z,FULLY_SHARED_UNIT_1-1-4-1,3,monitoring-unit-1,memory,0.042568206787109375
2022-03-30T22:08:47.956Z,FULLY_SHARED_UNIT_1-1-4-1,3,monitoring-unit-1,memory,0.042568206787109375
2022-03-30T22:08:57.956Z,FULLY_SHARED_UNIT_1-1-4-1,3,monitoring-unit-1,memory,0.04052734375
2022-03-30T22:09:07.956Z,FULLY_SHARED_UNIT_1-1-4-1,3,monitoring-unit-1,memory,0.04052734375
2022-03-30T22:09:17.956Z,FULLY_SHARED_UNIT_1-1-4-1,3,monitoring-unit-1,memory,0.04180908203125
2022-03-30T22:09:27.956Z,FULLY_SHARED_UNIT_1-1-4-1,3,monitoring-unit-1,memory,0.04180908203125
2022-03-30T22:09:37.957Z,FULLY_SHARED_UNIT_1-1-4-1,3,monitoring-unit-1,memory,0.040584564208984375
2022-03-30T22:09:47.956Z,FULLY_SHARED_UNIT_1-1-4-1,3,monitoring-unit-1,memory,0.040584564208984375
2022-03-30T22:09:57.956Z,FULLY_SHARED_UNIT_1-1-4-1,3,monitoring-unit-1,memory,0.041118621826171875
2022-03-30T22:10:07.957Z,FULLY_SHARED_UNIT_1-1-4-1,3,monitoring-unit-1,memory,0.042003631591796875
2022-03-30T22:10:17.956Z,FULLY_SHARED_UNIT_1-1-4-1,3,monitoring-unit-1,memory,0.042003631591796875
2022-03-30T22:10:27.956Z,FULLY_SHARED_UNIT_1-1-4-1,3,monitoring-unit-1,memory,0.042003631591796875
2022-03-30T22:10:37.956Z,FULLY_SHARED_UNIT_1-1-4-1,3,monitoring-unit-1,memory,0.043117523193359375
2022-03-30T22:10:47.956Z,FULLY_SHARED_UNIT_1-1-4-1,3,monitoring-unit-1,memory,0.043117523193359375
2022-03-30T22:10:57.956Z,FULLY_SHARED_UNIT_1-1-4-1,3,monitoring-unit-1,memory,0.0412750244140625
2022-03-30T22:11:07.956Z,FULLY_SHARED_UNIT_1-1-4-1,3,monitoring-unit-1,memory,0.0412750244140625
2022-03-30T22:11:17.957Z,FULLY_SHARED_UNIT_1-1-4-1,3,monitoring-unit-1,memory,0.0422821044921875
2022-03-30T22:11:27.957Z,FULLY_SHARED_UNIT_1-1-4-1,3,monitoring-unit-1,memory,0.0422821044921875
2022-03-30T22:11:37.956Z,FULLY_SHARED_UNIT_1-1-4-1,3,monitoring-unit-1,memory,0.040985107421875
2022-03-30T22:11:47.957Z,FULLY_SHARED_UNIT_1-1-4-1,3,monitoring-unit-1,memory,0.040985107421875
2022-03-30T22:11:57.956Z,FULLY_SHARED_UNIT_1-1-4-1,3,monitoring-unit-1,memory,0.040985107421875
2022-03-30T22:12:07.956Z,FULLY_SHARED_UNIT_1-1-4-1,3,monitoring-unit-1,memory,0.04242706298828125
2022-03-30T22:12:17.956Z,FULLY_SHARED_UNIT_1-1-4-1,3,monitoring-unit-1,memory,0.04242706298828125
2022-03-30T22:12:27.956Z,FULLY_SHARED_UNIT_1-1-4-1,3,monitoring-unit-1,memory,0.04242706298828125
2022-03-30T22:12:37.957Z,FULLY_SHARED_UNIT_1-1-4-1,3,monitoring-unit-1,memory,0.040828704833984375
2022-03-30T22:12:47.956Z,FULLY_SHARED_UNIT_1-1-4-1,3,monitoring-unit-1,memory,0.040828704833984375
2022-03-30T22:12:57.956Z,FULLY_SHARED_UNIT_1-1-4-1,3,monitoring-unit-1,memory,0.041439056396484375
2022-03-30T22:13:07.956Z,FULLY_SHARED_UNIT_1-1-4-1,3,monitoring-unit-1,memory,0.041439056396484375
2022-03-30T22:13:17.956Z,FULLY_SHARED_UNIT_1-1-4-1,3,monitoring-unit-1,memory,0.042293548583984375
2022-03-30T22:13:27.956Z,FULLY_SHARED_UNIT_1-1-4-1,3,monitoring-unit-1,memory,0.042293548583984375
2022-03-30T22:13:37.957Z,FULLY_SHARED_UNIT_1-1-4-1,3,monitoring-unit-1,memory,0.04079437255859375
2022-03-30T22:13:47.956Z,FULLY_SHARED_UNIT_1-1-4-1,3,monitoring-unit-1,memory,0.04079437255859375
2022-03-30T22:13:57.956Z,FULLY_SHARED_UNIT_1-1-4-1,3,monitoring-unit-1,memory,0.042327880859375
2022-03-30T22:14:07.956Z,FULLY_SHARED_UNIT_1-1-4-1,3,monitoring-unit-1,memory,0.042327880859375
2022-03-30T22:14:17.956Z,FULLY_SHARED_UNIT_1-1-4-1,3,monitoring-unit-1,memory,0.042327880859375
2022-03-30T22:14:27.956Z,FULLY_SHARED_UNIT_1-1-4-1,3,monitoring-unit-1,memory,0.042354583740234375
2022-03-30T22:14:37.957Z,FULLY_SHARED_UNIT_1-1-4-1,3,monitoring-unit-1,memory,0.040966033935546875
2022-03-30T22:14:47.956Z,FULLY_SHARED_UNIT_1-1-4-1,3,monitoring-unit-1,memory,0.040966033935546875
2022-03-30T22:14:57.957Z,FULLY_SHARED_UNIT_1-1-4-1,3,monitoring-unit-1,memory,0.040966033935546875
2022-03-30T22:15:07.956Z,FULLY_SHARED_UNIT_1-1-4-1,3,monitoring-unit-1,memory,0.042369842529296875
2022-03-30T22:15:17.957Z,FULLY_SHARED_UNIT_1-1-4-1,3,monitoring-unit-1,memory,0.04218292236328125
2022-03-30T22:15:27.956Z,FULLY_SHARED_UNIT_1-1-4-1,3,monitoring-unit-1,memory,0.04218292236328125
2022-03-30T22:15:37.956Z,FULLY_SHARED_UNIT_1-1-4-1,3,monitoring-unit-1,memory,0.04370880126953125
2022-03-30T22:15:47.956Z,FULLY_SHARED_UNIT_1-1-4-1,3,monitoring-unit-1,memory,0.04370880126953125
2022-03-30T22:15:57.956Z,FULLY_SHARED_UNIT_1-1-4-1,3,monitoring-unit-1,memory,0.042697906494140625
2022-03-30T22:16:07.956Z,FULLY_SHARED_UNIT_1-1-4-1,3,monitoring-unit-1,memory,0.042697906494140625
2022-03-30T22:16:17.956Z,FULLY_SHARED_UNIT_1-1-4-1,3,monitoring-unit-1,memory,0.042697906494140625
2022-03-30T22:16:27.956Z,FULLY_SHARED_UNIT_1-1-4-1,3,monitoring-unit-1,memory,0.043842315673828125
2022-03-30T22:16:50.264Z,FULLY_SHARED_UNIT_1-1-8-1,1,monitoring-unit-1,memory,0.0272216796875
2022-03-30T22:17:00.265Z,FULLY_SHARED_UNIT_1-1-8-1,1,monitoring-unit-1,memory,0.036312103271484375
2022-03-30T22:17:10.265Z,FULLY_SHARED_UNIT_1-1-8-1,1,monitoring-unit-1,memory,0.036312103271484375
2022-03-30T22:17:20.265Z,FULLY_SHARED_UNIT_1-1-8-1,1,monitoring-unit-1,memory,0.036312103271484375
2022-03-30T22:17:30.265Z,FULLY_SHARED_UNIT_1-1-8-1,1,monitoring-unit-1,memory,0.038311004638671875
2022-03-30T22:17:40.264Z,FULLY_SHARED_UNIT_1-1-8-1,1,monitoring-unit-1,memory,0.038311004638671875
2022-03-30T22:17:50.264Z,FULLY_SHARED_UNIT_1-1-8-1,1,monitoring-unit-1,memory,0.04058837890625
2022-03-30T22:18:00.264Z,FULLY_SHARED_UNIT_1-1-8-1,1,monitoring-unit-1,memory,0.040599822998046875
2022-03-30T22:18:10.265Z,FULLY_SHARED_UNIT_1-1-8-1,1,monitoring-unit-1,memory,0.040599822998046875
2022-03-30T22:18:20.264Z,FULLY_SHARED_UNIT_1-1-8-1,1,monitoring-unit-1,memory,0.040599822998046875
2022-03-30T22:18:30.265Z,FULLY_SHARED_UNIT_1-1-8-1,1,monitoring-unit-1,memory,0.041534423828125
2022-03-30T22:18:40.265Z,FULLY_SHARED_UNIT_1-1-8-1,1,monitoring-unit-1,memory,0.041534423828125
2022-03-30T22:18:50.264Z,FULLY_SHARED_UNIT_1-1-8-1,1,monitoring-unit-1,memory,0.041534423828125
2022-03-30T22:19:00.264Z,FULLY_SHARED_UNIT_1-1-8-1,1,monitoring-unit-1,memory,0.041538238525390625
2022-03-30T22:19:10.265Z,FULLY_SHARED_UNIT_1-1-8-1,1,monitoring-unit-1,memory,0.039520263671875
2022-03-30T22:19:20.265Z,FULLY_SHARED_UNIT_1-1-8-1,1,monitoring-unit-1,memory,0.0406341552734375
2022-03-30T22:19:30.264Z,FULLY_SHARED_UNIT_1-1-8-1,1,monitoring-unit-1,memory,0.0406341552734375
2022-03-30T22:19:40.265Z,FULLY_SHARED_UNIT_1-1-8-1,1,monitoring-unit-1,memory,0.042057037353515625
2022-03-30T22:19:50.264Z,FULLY_SHARED_UNIT_1-1-8-1,1,monitoring-unit-1,memory,0.042057037353515625
2022-03-30T22:20:00.265Z,FULLY_SHARED_UNIT_1-1-8-1,1,monitoring-unit-1,memory,0.038936614990234375
2022-03-30T22:20:10.265Z,FULLY_SHARED_UNIT_1-1-8-1,1,monitoring-unit-1,memory,0.038936614990234375
2022-03-30T22:20:20.265Z,FULLY_SHARED_UNIT_1-1-8-1,1,monitoring-unit-1,memory,0.040821075439453125
2022-03-30T22:20:30.264Z,FULLY_SHARED_UNIT_1-1-8-1,1,monitoring-unit-1,memory,0.040821075439453125
2022-03-30T22:20:40.264Z,FULLY_SHARED_UNIT_1-1-8-1,1,monitoring-unit-1,memory,0.041423797607421875
2022-03-30T22:20:50.264Z,FULLY_SHARED_UNIT_1-1-8-1,1,monitoring-unit-1,memory,0.041423797607421875
2022-03-30T22:21:00.265Z,FULLY_SHARED_UNIT_1-1-8-1,1,monitoring-unit-1,memory,0.0393829345703125
2022-03-30T22:21:10.264Z,FULLY_SHARED_UNIT_1-1-8-1,1,monitoring-unit-1,memory,0.0393829345703125
2022-03-30T22:21:20.265Z,FULLY_SHARED_UNIT_1-1-8-1,1,monitoring-unit-1,memory,0.040966033935546875
2022-03-30T22:21:30.265Z,FULLY_SHARED_UNIT_1-1-8-1,1,monitoring-unit-1,memory,0.040966033935546875
2022-03-30T22:21:40.265Z,FULLY_SHARED_UNIT_1-1-8-1,1,monitoring-unit-1,memory,0.04228973388671875
2022-03-30T22:21:50.264Z,FULLY_SHARED_UNIT_1-1-8-1,1,monitoring-unit-1,memory,0.04228973388671875
2022-03-30T22:22:00.265Z,FULLY_SHARED_UNIT_1-1-8-1,1,monitoring-unit-1,memory,0.0418243408203125
2022-03-30T22:22:10.265Z,FULLY_SHARED_UNIT_1-1-8-1,1,monitoring-unit-1,memory,0.0418243408203125
2022-03-30T22:22:20.265Z,FULLY_SHARED_UNIT_1-1-8-1,1,monitoring-unit-1,memory,0.04282379150390625
2022-03-30T22:22:30.265Z,FULLY_SHARED_UNIT_1-1-8-1,1,monitoring-unit-1,memory,0.03900909423828125
2022-03-30T22:22:40.265Z,FULLY_SHARED_UNIT_1-1-8-1,1,monitoring-unit-1,memory,0.04138946533203125
2022-03-30T22:22:50.265Z,FULLY_SHARED_UNIT_1-1-8-1,1,monitoring-unit-1,memory,0.04138946533203125
2022-03-30T22:23:00.265Z,FULLY_SHARED_UNIT_1-1-8-1,1,monitoring-unit-1,memory,0.041400909423828125
2022-03-30T22:23:10.265Z,FULLY_SHARED_UNIT_1-1-8-1,1,monitoring-unit-1,memory,0.04267120361328125
2022-03-30T22:23:20.265Z,FULLY_SHARED_UNIT_1-1-8-1,1,monitoring-unit-1,memory,0.04267120361328125
2022-03-30T22:23:30.265Z,FULLY_SHARED_UNIT_1-1-8-1,1,monitoring-unit-1,memory,0.039928436279296875
2022-03-30T22:23:40.265Z,FULLY_SHARED_UNIT_1-1-8-1,1,monitoring-unit-1,memory,0.041538238525390625
2022-03-30T22:23:50.264Z,FULLY_SHARED_UNIT_1-1-8-1,1,monitoring-unit-1,memory,0.041538238525390625
2022-03-30T22:24:00.265Z,FULLY_SHARED_UNIT_1-1-8-1,1,monitoring-unit-1,memory,0.0390625
2022-03-30T22:24:10.265Z,FULLY_SHARED_UNIT_1-1-8-1,1,monitoring-unit-1,memory,0.0402069091796875
2022-03-30T22:24:20.265Z,FULLY_SHARED_UNIT_1-1-8-1,1,monitoring-unit-1,memory,0.0402069091796875
2022-03-30T22:24:30.265Z,FULLY_SHARED_UNIT_1-1-8-1,1,monitoring-unit-1,memory,0.0402069091796875
2022-03-30T22:24:40.265Z,FULLY_SHARED_UNIT_1-1-8-1,1,monitoring-unit-1,memory,0.043025970458984375
2022-03-30T22:24:50.264Z,FULLY_SHARED_UNIT_1-1-8-1,1,monitoring-unit-1,memory,0.043025970458984375
2022-03-30T22:25:00.265Z,FULLY_SHARED_UNIT_1-1-8-1,1,monitoring-unit-1,memory,0.039821624755859375
2022-03-30T22:25:10.265Z,FULLY_SHARED_UNIT_1-1-8-1,1,monitoring-unit-1,memory,0.040378570556640625
2022-03-30T22:25:20.264Z,FULLY_SHARED_UNIT_1-1-8-1,1,monitoring-unit-1,memory,0.040378570556640625
2022-03-30T22:25:30.265Z,FULLY_SHARED_UNIT_1-1-8-1,1,monitoring-unit-1,memory,0.041484832763671875
2022-03-30T22:25:40.265Z,FULLY_SHARED_UNIT_1-1-8-1,1,monitoring-unit-1,memory,0.041484832763671875
2022-03-30T22:25:50.264Z,FULLY_SHARED_UNIT_1-1-8-1,1,monitoring-unit-1,memory,0.041950225830078125
2022-03-30T22:26:00.265Z,FULLY_SHARED_UNIT_1-1-8-1,1,monitoring-unit-1,memory,0.040126800537109375
2022-03-30T22:26:10.265Z,FULLY_SHARED_UNIT_1-1-8-1,1,monitoring-unit-1,memory,0.040126800537109375
2022-03-30T22:26:20.265Z,FULLY_SHARED_UNIT_1-1-8-1,1,monitoring-unit-1,memory,0.041652679443359375
2022-03-30T22:26:30.265Z,FULLY_SHARED_UNIT_1-1-8-1,1,monitoring-unit-1,memory,0.041652679443359375
2022-03-30T22:26:40.265Z,FULLY_SHARED_UNIT_1-1-8-1,1,monitoring-unit-1,memory,0.040607452392578125
2022-03-30T22:27:05.414Z,FULLY_SHARED_UNIT_1-1-8-1,2,monitoring-unit-1,memory,0.031291961669921875
2022-03-30T22:27:15.413Z,FULLY_SHARED_UNIT_1-1-8-1,2,monitoring-unit-1,memory,0.031291961669921875
2022-03-30T22:27:25.414Z,FULLY_SHARED_UNIT_1-1-8-1,2,monitoring-unit-1,memory,0.03816986083984375
2022-03-30T22:27:35.413Z,FULLY_SHARED_UNIT_1-1-8-1,2,monitoring-unit-1,memory,0.03816986083984375
2022-03-30T22:27:45.414Z,FULLY_SHARED_UNIT_1-1-8-1,2,monitoring-unit-1,memory,0.040409088134765625
2022-03-30T22:27:55.414Z,FULLY_SHARED_UNIT_1-1-8-1,2,monitoring-unit-1,memory,0.0423583984375
2022-03-30T22:28:05.413Z,FULLY_SHARED_UNIT_1-1-8-1,2,monitoring-unit-1,memory,0.042392730712890625
2022-03-30T22:28:15.414Z,FULLY_SHARED_UNIT_1-1-8-1,2,monitoring-unit-1,memory,0.042392730712890625
2022-03-30T22:28:25.414Z,FULLY_SHARED_UNIT_1-1-8-1,2,monitoring-unit-1,memory,0.042392730712890625
2022-03-30T22:28:35.414Z,FULLY_SHARED_UNIT_1-1-8-1,2,monitoring-unit-1,memory,0.042736053466796875
2022-03-30T22:28:45.413Z,FULLY_SHARED_UNIT_1-1-8-1,2,monitoring-unit-1,memory,0.04276275634765625
2022-03-30T22:28:55.414Z,FULLY_SHARED_UNIT_1-1-8-1,2,monitoring-unit-1,memory,0.043727874755859375
2022-03-30T22:29:05.413Z,FULLY_SHARED_UNIT_1-1-8-1,2,monitoring-unit-1,memory,0.043727874755859375
2022-03-30T22:29:15.414Z,FULLY_SHARED_UNIT_1-1-8-1,2,monitoring-unit-1,memory,0.044109344482421875
2022-03-30T22:29:25.414Z,FULLY_SHARED_UNIT_1-1-8-1,2,monitoring-unit-1,memory,0.044109344482421875
2022-03-30T22:29:35.413Z,FULLY_SHARED_UNIT_1-1-8-1,2,monitoring-unit-1,memory,0.044109344482421875
2022-03-30T22:29:45.414Z,FULLY_SHARED_UNIT_1-1-8-1,2,monitoring-unit-1,memory,0.040496826171875
2022-03-30T22:29:55.414Z,FULLY_SHARED_UNIT_1-1-8-1,2,monitoring-unit-1,memory,0.040500640869140625
2022-03-30T22:30:05.414Z,FULLY_SHARED_UNIT_1-1-8-1,2,monitoring-unit-1,memory,0.040500640869140625
2022-03-30T22:30:15.414Z,FULLY_SHARED_UNIT_1-1-8-1,2,monitoring-unit-1,memory,0.04160308837890625
2022-03-30T22:30:25.414Z,FULLY_SHARED_UNIT_1-1-8-1,2,monitoring-unit-1,memory,0.04160308837890625
2022-03-30T22:30:35.414Z,FULLY_SHARED_UNIT_1-1-8-1,2,monitoring-unit-1,memory,0.0430755615234375
2022-03-30T22:30:45.414Z,FULLY_SHARED_UNIT_1-1-8-1,2,monitoring-unit-1,memory,0.0430755615234375
2022-03-30T22:30:55.413Z,FULLY_SHARED_UNIT_1-1-8-1,2,monitoring-unit-1,memory,0.0430755615234375
2022-03-30T22:31:05.414Z,FULLY_SHARED_UNIT_1-1-8-1,2,monitoring-unit-1,memory,0.04186248779296875
2022-03-30T22:31:15.414Z,FULLY_SHARED_UNIT_1-1-8-1,2,monitoring-unit-1,memory,0.041912078857421875
2022-03-30T22:31:25.414Z,FULLY_SHARED_UNIT_1-1-8-1,2,monitoring-unit-1,memory,0.041912078857421875
2022-03-30T22:31:35.414Z,FULLY_SHARED_UNIT_1-1-8-1,2,monitoring-unit-1,memory,0.043186187744140625
2022-03-30T22:31:45.414Z,FULLY_SHARED_UNIT_1-1-8-1,2,monitoring-unit-1,memory,0.043186187744140625
2022-03-30T22:31:55.414Z,FULLY_SHARED_UNIT_1-1-8-1,2,monitoring-unit-1,memory,0.039646148681640625
2022-03-30T22:32:05.414Z,FULLY_SHARED_UNIT_1-1-8-1,2,monitoring-unit-1,memory,0.039646148681640625
2022-03-30T22:32:15.414Z,FULLY_SHARED_UNIT_1-1-8-1,2,monitoring-unit-1,memory,0.041225433349609375
2022-03-30T22:32:25.414Z,FULLY_SHARED_UNIT_1-1-8-1,2,monitoring-unit-1,memory,0.041225433349609375
2022-03-30T22:32:35.414Z,FULLY_SHARED_UNIT_1-1-8-1,2,monitoring-unit-1,memory,0.041225433349609375
2022-03-30T22:32:45.414Z,FULLY_SHARED_UNIT_1-1-8-1,2,monitoring-unit-1,memory,0.039722442626953125
2022-03-30T22:32:55.414Z,FULLY_SHARED_UNIT_1-1-8-1,2,monitoring-unit-1,memory,0.040950775146484375
2022-03-30T22:33:05.414Z,FULLY_SHARED_UNIT_1-1-8-1,2,monitoring-unit-1,memory,0.040950775146484375
2022-03-30T22:33:15.414Z,FULLY_SHARED_UNIT_1-1-8-1,2,monitoring-unit-1,memory,0.0410919189453125
2022-03-30T22:33:25.413Z,FULLY_SHARED_UNIT_1-1-8-1,2,monitoring-unit-1,memory,0.0410919189453125
2022-03-30T22:33:35.414Z,FULLY_SHARED_UNIT_1-1-8-1,2,monitoring-unit-1,memory,0.04158782958984375
2022-03-30T22:33:45.413Z,FULLY_SHARED_UNIT_1-1-8-1,2,monitoring-unit-1,memory,0.041599273681640625
2022-03-30T22:33:55.414Z,FULLY_SHARED_UNIT_1-1-8-1,2,monitoring-unit-1,memory,0.042209625244140625
2022-03-30T22:34:05.414Z,FULLY_SHARED_UNIT_1-1-8-1,2,monitoring-unit-1,memory,0.042209625244140625
2022-03-30T22:34:15.414Z,FULLY_SHARED_UNIT_1-1-8-1,2,monitoring-unit-1,memory,0.03887176513671875
2022-03-30T22:34:25.414Z,FULLY_SHARED_UNIT_1-1-8-1,2,monitoring-unit-1,memory,0.03887176513671875
2022-03-30T22:34:35.414Z,FULLY_SHARED_UNIT_1-1-8-1,2,monitoring-unit-1,memory,0.04073333740234375
2022-03-30T22:34:45.413Z,FULLY_SHARED_UNIT_1-1-8-1,2,monitoring-unit-1,memory,0.039936065673828125
2022-03-30T22:34:55.414Z,FULLY_SHARED_UNIT_1-1-8-1,2,monitoring-unit-1,memory,0.039936065673828125
2022-03-30T22:35:05.414Z,FULLY_SHARED_UNIT_1-1-8-1,2,monitoring-unit-1,memory,0.039936065673828125
2022-03-30T22:35:15.414Z,FULLY_SHARED_UNIT_1-1-8-1,2,monitoring-unit-1,memory,0.040706634521484375
2022-03-30T22:35:25.413Z,FULLY_SHARED_UNIT_1-1-8-1,2,monitoring-unit-1,memory,0.040706634521484375
2022-03-30T22:35:35.414Z,FULLY_SHARED_UNIT_1-1-8-1,2,monitoring-unit-1,memory,0.042240142822265625
2022-03-30T22:35:45.414Z,FULLY_SHARED_UNIT_1-1-8-1,2,monitoring-unit-1,memory,0.042240142822265625
2022-03-30T22:35:55.414Z,FULLY_SHARED_UNIT_1-1-8-1,2,monitoring-unit-1,memory,0.039867401123046875
2022-03-30T22:36:05.414Z,FULLY_SHARED_UNIT_1-1-8-1,2,monitoring-unit-1,memory,0.0410308837890625
2022-03-30T22:36:15.414Z,FULLY_SHARED_UNIT_1-1-8-1,2,monitoring-unit-1,memory,0.041027069091796875
2022-03-30T22:36:25.413Z,FULLY_SHARED_UNIT_1-1-8-1,2,monitoring-unit-1,memory,0.041027069091796875
2022-03-30T22:36:35.414Z,FULLY_SHARED_UNIT_1-1-8-1,2,monitoring-unit-1,memory,0.041027069091796875
2022-03-30T22:36:45.413Z,FULLY_SHARED_UNIT_1-1-8-1,2,monitoring-unit-1,memory,0.04034423828125
2022-03-30T22:36:55.414Z,FULLY_SHARED_UNIT_1-1-8-1,2,monitoring-unit-1,memory,0.04103851318359375
2022-03-30T22:37:19.212Z,FULLY_SHARED_UNIT_1-1-8-1,3,monitoring-unit-1,memory,0.02892303466796875
2022-03-30T22:37:29.212Z,FULLY_SHARED_UNIT_1-1-8-1,3,monitoring-unit-1,memory,0.02892303466796875
2022-03-30T22:37:39.211Z,FULLY_SHARED_UNIT_1-1-8-1,3,monitoring-unit-1,memory,0.02892303466796875
2022-03-30T22:37:49.211Z,FULLY_SHARED_UNIT_1-1-8-1,3,monitoring-unit-1,memory,0.041423797607421875
2022-03-30T22:37:59.212Z,FULLY_SHARED_UNIT_1-1-8-1,3,monitoring-unit-1,memory,0.041423797607421875
2022-03-30T22:38:09.212Z,FULLY_SHARED_UNIT_1-1-8-1,3,monitoring-unit-1,memory,0.04205322265625
2022-03-30T22:38:19.211Z,FULLY_SHARED_UNIT_1-1-8-1,3,monitoring-unit-1,memory,0.04205322265625
2022-03-30T22:38:29.211Z,FULLY_SHARED_UNIT_1-1-8-1,3,monitoring-unit-1,memory,0.04302215576171875
2022-03-30T22:38:39.212Z,FULLY_SHARED_UNIT_1-1-8-1,3,monitoring-unit-1,memory,0.04314422607421875
2022-03-30T22:38:49.211Z,FULLY_SHARED_UNIT_1-1-8-1,3,monitoring-unit-1,memory,0.04314422607421875
2022-03-30T22:38:59.212Z,FULLY_SHARED_UNIT_1-1-8-1,3,monitoring-unit-1,memory,0.041473388671875
2022-03-30T22:39:09.211Z,FULLY_SHARED_UNIT_1-1-8-1,3,monitoring-unit-1,memory,0.041473388671875
2022-03-30T22:39:19.211Z,FULLY_SHARED_UNIT_1-1-8-1,3,monitoring-unit-1,memory,0.04203033447265625
2022-03-30T22:39:29.212Z,FULLY_SHARED_UNIT_1-1-8-1,3,monitoring-unit-1,memory,0.043315887451171875
2022-03-30T22:39:39.211Z,FULLY_SHARED_UNIT_1-1-8-1,3,monitoring-unit-1,memory,0.043315887451171875
2022-03-30T22:39:49.211Z,FULLY_SHARED_UNIT_1-1-8-1,3,monitoring-unit-1,memory,0.043315887451171875
2022-03-30T22:39:59.212Z,FULLY_SHARED_UNIT_1-1-8-1,3,monitoring-unit-1,memory,0.039867401123046875
2022-03-30T22:40:09.212Z,FULLY_SHARED_UNIT_1-1-8-1,3,monitoring-unit-1,memory,0.040256500244140625
2022-03-30T22:40:19.212Z,FULLY_SHARED_UNIT_1-1-8-1,3,monitoring-unit-1,memory,0.041271209716796875
2022-03-30T22:40:29.211Z,FULLY_SHARED_UNIT_1-1-8-1,3,monitoring-unit-1,memory,0.041271209716796875
2022-03-30T22:40:39.211Z,FULLY_SHARED_UNIT_1-1-8-1,3,monitoring-unit-1,memory,0.041751861572265625
2022-03-30T22:40:49.211Z,FULLY_SHARED_UNIT_1-1-8-1,3,monitoring-unit-1,memory,0.042865753173828125
2022-03-30T22:40:59.212Z,FULLY_SHARED_UNIT_1-1-8-1,3,monitoring-unit-1,memory,0.041851043701171875
2022-03-30T22:41:09.212Z,FULLY_SHARED_UNIT_1-1-8-1,3,monitoring-unit-1,memory,0.043430328369140625
2022-03-30T22:41:19.211Z,FULLY_SHARED_UNIT_1-1-8-1,3,monitoring-unit-1,memory,0.043430328369140625
2022-03-30T22:41:29.211Z,FULLY_SHARED_UNIT_1-1-8-1,3,monitoring-unit-1,memory,0.043460845947265625
2022-03-30T22:41:39.211Z,FULLY_SHARED_UNIT_1-1-8-1,3,monitoring-unit-1,memory,0.043460845947265625
2022-03-30T22:41:49.212Z,FULLY_SHARED_UNIT_1-1-8-1,3,monitoring-unit-1,memory,0.0449371337890625
2022-03-30T22:41:59.211Z,FULLY_SHARED_UNIT_1-1-8-1,3,monitoring-unit-1,memory,0.0449371337890625
2022-03-30T22:42:09.212Z,FULLY_SHARED_UNIT_1-1-8-1,3,monitoring-unit-1,memory,0.04241943359375
2022-03-30T22:42:19.211Z,FULLY_SHARED_UNIT_1-1-8-1,3,monitoring-unit-1,memory,0.04241943359375
2022-03-30T22:42:29.212Z,FULLY_SHARED_UNIT_1-1-8-1,3,monitoring-unit-1,memory,0.04266357421875
2022-03-30T22:42:39.211Z,FULLY_SHARED_UNIT_1-1-8-1,3,monitoring-unit-1,memory,0.04266357421875
2022-03-30T22:42:49.212Z,FULLY_SHARED_UNIT_1-1-8-1,3,monitoring-unit-1,memory,0.043682098388671875
2022-03-30T22:42:59.211Z,FULLY_SHARED_UNIT_1-1-8-1,3,monitoring-unit-1,memory,0.043682098388671875
2022-03-30T22:43:09.211Z,FULLY_SHARED_UNIT_1-1-8-1,3,monitoring-unit-1,memory,0.043567657470703125
2022-03-30T22:43:19.212Z,FULLY_SHARED_UNIT_1-1-8-1,3,monitoring-unit-1,memory,0.043567657470703125
2022-03-30T22:43:29.212Z,FULLY_SHARED_UNIT_1-1-8-1,3,monitoring-unit-1,memory,0.041988372802734375
2022-03-30T22:43:39.211Z,FULLY_SHARED_UNIT_1-1-8-1,3,monitoring-unit-1,memory,0.041988372802734375
2022-03-30T22:43:49.211Z,FULLY_SHARED_UNIT_1-1-8-1,3,monitoring-unit-1,memory,0.0436553955078125
2022-03-30T22:43:59.211Z,FULLY_SHARED_UNIT_1-1-8-1,3,monitoring-unit-1,memory,0.0436553955078125
2022-03-30T22:44:09.211Z,FULLY_SHARED_UNIT_1-1-8-1,3,monitoring-unit-1,memory,0.0436553955078125
2022-03-30T22:44:19.212Z,FULLY_SHARED_UNIT_1-1-8-1,3,monitoring-unit-1,memory,0.045230865478515625
2022-03-30T22:44:29.211Z,FULLY_SHARED_UNIT_1-1-8-1,3,monitoring-unit-1,memory,0.045230865478515625
2022-03-30T22:44:39.211Z,FULLY_SHARED_UNIT_1-1-8-1,3,monitoring-unit-1,memory,0.0427398681640625
2022-03-30T22:44:49.212Z,FULLY_SHARED_UNIT_1-1-8-1,3,monitoring-unit-1,memory,0.043670654296875
2022-03-30T22:44:59.211Z,FULLY_SHARED_UNIT_1-1-8-1,3,monitoring-unit-1,memory,0.043670654296875
2022-03-30T22:45:09.212Z,FULLY_SHARED_UNIT_1-1-8-1,3,monitoring-unit-1,memory,0.043682098388671875
2022-03-30T22:45:19.212Z,FULLY_SHARED_UNIT_1-1-8-1,3,monitoring-unit-1,memory,0.043682098388671875
2022-03-30T22:45:29.212Z,FULLY_SHARED_UNIT_1-1-8-1,3,monitoring-unit-1,memory,0.04228973388671875
2022-03-30T22:45:39.212Z,FULLY_SHARED_UNIT_1-1-8-1,3,monitoring-unit-1,memory,0.04228973388671875
2022-03-30T22:45:49.212Z,FULLY_SHARED_UNIT_1-1-8-1,3,monitoring-unit-1,memory,0.042572021484375
2022-03-30T22:45:59.211Z,FULLY_SHARED_UNIT_1-1-8-1,3,monitoring-unit-1,memory,0.042572021484375
2022-03-30T22:46:09.211Z,FULLY_SHARED_UNIT_1-1-8-1,3,monitoring-unit-1,memory,0.045131683349609375
2022-03-30T22:46:19.212Z,FULLY_SHARED_UNIT_1-1-8-1,3,monitoring-unit-1,memory,0.045131683349609375
2022-03-30T22:46:29.212Z,FULLY_SHARED_UNIT_1-1-8-1,3,monitoring-unit-1,memory,0.042308807373046875
2022-03-30T22:46:39.212Z,FULLY_SHARED_UNIT_1-1-8-1,3,monitoring-unit-1,memory,0.042308807373046875
2022-03-30T22:46:49.211Z,FULLY_SHARED_UNIT_1-1-8-1,3,monitoring-unit-1,memory,0.042308807373046875
2022-03-30T22:46:59.212Z,FULLY_SHARED_UNIT_1-1-8-1,3,monitoring-unit-1,memory,0.043701171875
2022-03-30T22:47:09.212Z,FULLY_SHARED_UNIT_1-1-8-1,3,monitoring-unit-1,memory,0.042957305908203125
2022-03-30T22:47:55.037Z,FULLY_SHARED_UNIT_1-1-16-1,1,monitoring-unit-1,memory,0.0383453369140625
2022-03-30T22:48:05.037Z,FULLY_SHARED_UNIT_1-1-16-1,1,monitoring-unit-1,memory,0.0383453369140625
2022-03-30T22:48:15.037Z,FULLY_SHARED_UNIT_1-1-16-1,1,monitoring-unit-1,memory,0.040355682373046875
2022-03-30T22:48:25.037Z,FULLY_SHARED_UNIT_1-1-16-1,1,monitoring-unit-1,memory,0.040355682373046875
2022-03-30T22:48:35.037Z,FULLY_SHARED_UNIT_1-1-16-1,1,monitoring-unit-1,memory,0.04071044921875
2022-03-30T22:48:45.037Z,FULLY_SHARED_UNIT_1-1-16-1,1,monitoring-unit-1,memory,0.04071044921875
2022-03-30T22:48:55.036Z,FULLY_SHARED_UNIT_1-1-16-1,1,monitoring-unit-1,memory,0.041393280029296875
2022-03-30T22:49:05.037Z,FULLY_SHARED_UNIT_1-1-16-1,1,monitoring-unit-1,memory,0.042011260986328125
2022-03-30T22:49:15.037Z,FULLY_SHARED_UNIT_1-1-16-1,1,monitoring-unit-1,memory,0.042011260986328125
2022-03-30T22:49:25.037Z,FULLY_SHARED_UNIT_1-1-16-1,1,monitoring-unit-1,memory,0.0442047119140625
2022-03-30T22:49:35.037Z,FULLY_SHARED_UNIT_1-1-16-1,1,monitoring-unit-1,memory,0.0442047119140625
2022-03-30T22:49:45.037Z,FULLY_SHARED_UNIT_1-1-16-1,1,monitoring-unit-1,memory,0.04421234130859375
2022-03-30T22:49:55.037Z,FULLY_SHARED_UNIT_1-1-16-1,1,monitoring-unit-1,memory,0.04421234130859375
2022-03-30T22:50:05.036Z,FULLY_SHARED_UNIT_1-1-16-1,1,monitoring-unit-1,memory,0.04172515869140625
2022-03-30T22:50:15.037Z,FULLY_SHARED_UNIT_1-1-16-1,1,monitoring-unit-1,memory,0.04172515869140625
2022-03-30T22:50:25.037Z,FULLY_SHARED_UNIT_1-1-16-1,1,monitoring-unit-1,memory,0.041744232177734375
2022-03-30T22:50:35.037Z,FULLY_SHARED_UNIT_1-1-16-1,1,monitoring-unit-1,memory,0.041744232177734375
2022-03-30T22:50:45.037Z,FULLY_SHARED_UNIT_1-1-16-1,1,monitoring-unit-1,memory,0.043041229248046875
2022-03-30T22:50:55.037Z,FULLY_SHARED_UNIT_1-1-16-1,1,monitoring-unit-1,memory,0.043041229248046875
2022-03-30T22:51:05.036Z,FULLY_SHARED_UNIT_1-1-16-1,1,monitoring-unit-1,memory,0.041805267333984375
2022-03-30T22:51:15.037Z,FULLY_SHARED_UNIT_1-1-16-1,1,monitoring-unit-1,memory,0.041805267333984375
2022-03-30T22:51:25.036Z,FULLY_SHARED_UNIT_1-1-16-1,1,monitoring-unit-1,memory,0.041805267333984375
2022-03-30T22:51:35.037Z,FULLY_SHARED_UNIT_1-1-16-1,1,monitoring-unit-1,memory,0.043285369873046875
2022-03-30T22:51:45.037Z,FULLY_SHARED_UNIT_1-1-16-1,1,monitoring-unit-1,memory,0.040744781494140625
2022-03-30T22:51:55.037Z,FULLY_SHARED_UNIT_1-1-16-1,1,monitoring-unit-1,memory,0.040744781494140625
2022-03-30T22:52:05.037Z,FULLY_SHARED_UNIT_1-1-16-1,1,monitoring-unit-1,memory,0.040958404541015625
2022-03-30T22:52:15.037Z,FULLY_SHARED_UNIT_1-1-16-1,1,monitoring-unit-1,memory,0.041843414306640625
2022-03-30T22:52:25.037Z,FULLY_SHARED_UNIT_1-1-16-1,1,monitoring-unit-1,memory,0.041843414306640625
2022-03-30T22:52:35.037Z,FULLY_SHARED_UNIT_1-1-16-1,1,monitoring-unit-1,memory,0.04245758056640625
2022-03-30T22:52:45.037Z,FULLY_SHARED_UNIT_1-1-16-1,1,monitoring-unit-1,memory,0.04245758056640625
2022-03-30T22:52:55.037Z,FULLY_SHARED_UNIT_1-1-16-1,1,monitoring-unit-1,memory,0.040836334228515625
2022-03-30T22:53:05.037Z,FULLY_SHARED_UNIT_1-1-16-1,1,monitoring-unit-1,memory,0.040836334228515625
2022-03-30T22:53:15.037Z,FULLY_SHARED_UNIT_1-1-16-1,1,monitoring-unit-1,memory,0.0421295166015625
2022-03-30T22:53:25.036Z,FULLY_SHARED_UNIT_1-1-16-1,1,monitoring-unit-1,memory,0.0421295166015625
2022-03-30T22:53:35.037Z,FULLY_SHARED_UNIT_1-1-16-1,1,monitoring-unit-1,memory,0.042144775390625
2022-03-30T22:53:45.037Z,FULLY_SHARED_UNIT_1-1-16-1,1,monitoring-unit-1,memory,0.042144775390625
2022-03-30T22:53:55.037Z,FULLY_SHARED_UNIT_1-1-16-1,1,monitoring-unit-1,memory,0.039196014404296875
2022-03-30T22:54:05.036Z,FULLY_SHARED_UNIT_1-1-16-1,1,monitoring-unit-1,memory,0.039196014404296875
2022-03-30T22:54:15.036Z,FULLY_SHARED_UNIT_1-1-16-1,1,monitoring-unit-1,memory,0.04172515869140625
2022-03-30T22:54:25.037Z,FULLY_SHARED_UNIT_1-1-16-1,1,monitoring-unit-1,memory,0.042339324951171875
2022-03-30T22:54:35.036Z,FULLY_SHARED_UNIT_1-1-16-1,1,monitoring-unit-1,memory,0.042339324951171875
2022-03-30T22:54:45.037Z,FULLY_SHARED_UNIT_1-1-16-1,1,monitoring-unit-1,memory,0.043300628662109375
2022-03-30T22:54:55.037Z,FULLY_SHARED_UNIT_1-1-16-1,1,monitoring-unit-1,memory,0.043300628662109375
2022-03-30T22:55:05.037Z,FULLY_SHARED_UNIT_1-1-16-1,1,monitoring-unit-1,memory,0.040973663330078125
2022-03-30T22:55:15.037Z,FULLY_SHARED_UNIT_1-1-16-1,1,monitoring-unit-1,memory,0.040973663330078125
2022-03-30T22:55:25.037Z,FULLY_SHARED_UNIT_1-1-16-1,1,monitoring-unit-1,memory,0.04209136962890625
2022-03-30T22:55:35.037Z,FULLY_SHARED_UNIT_1-1-16-1,1,monitoring-unit-1,memory,0.042713165283203125
2022-03-30T22:55:45.037Z,FULLY_SHARED_UNIT_1-1-16-1,1,monitoring-unit-1,memory,0.04068756103515625
2022-03-30T22:55:55.037Z,FULLY_SHARED_UNIT_1-1-16-1,1,monitoring-unit-1,memory,0.04068756103515625
2022-03-30T22:56:05.036Z,FULLY_SHARED_UNIT_1-1-16-1,1,monitoring-unit-1,memory,0.04068756103515625
2022-03-30T22:56:15.036Z,FULLY_SHARED_UNIT_1-1-16-1,1,monitoring-unit-1,memory,0.040920257568359375
2022-03-30T22:56:25.036Z,FULLY_SHARED_UNIT_1-1-16-1,1,monitoring-unit-1,memory,0.042034149169921875
2022-03-30T22:56:35.037Z,FULLY_SHARED_UNIT_1-1-16-1,1,monitoring-unit-1,memory,0.0433197021484375
2022-03-30T22:56:45.037Z,FULLY_SHARED_UNIT_1-1-16-1,1,monitoring-unit-1,memory,0.0433197021484375
2022-03-30T22:56:55.036Z,FULLY_SHARED_UNIT_1-1-16-1,1,monitoring-unit-1,memory,0.0410919189453125
2022-03-30T22:57:05.037Z,FULLY_SHARED_UNIT_1-1-16-1,1,monitoring-unit-1,memory,0.0410919189453125
2022-03-30T22:57:15.037Z,FULLY_SHARED_UNIT_1-1-16-1,1,monitoring-unit-1,memory,0.0419464111328125
2022-03-30T22:57:25.037Z,FULLY_SHARED_UNIT_1-1-16-1,1,monitoring-unit-1,memory,0.0419464111328125
2022-03-30T22:57:35.037Z,FULLY_SHARED_UNIT_1-1-16-1,1,monitoring-unit-1,memory,0.042476654052734375
2022-03-30T22:58:07.633Z,FULLY_SHARED_UNIT_1-1-16-1,2,monitoring-unit-1,memory,0.03130340576171875
2022-03-30T22:58:17.632Z,FULLY_SHARED_UNIT_1-1-16-1,2,monitoring-unit-1,memory,0.03130340576171875
2022-03-30T22:58:27.633Z,FULLY_SHARED_UNIT_1-1-16-1,2,monitoring-unit-1,memory,0.04245758056640625
2022-03-30T22:58:37.632Z,FULLY_SHARED_UNIT_1-1-16-1,2,monitoring-unit-1,memory,0.04245758056640625
2022-03-30T22:58:47.633Z,FULLY_SHARED_UNIT_1-1-16-1,2,monitoring-unit-1,memory,0.042682647705078125
2022-03-30T22:58:57.632Z,FULLY_SHARED_UNIT_1-1-16-1,2,monitoring-unit-1,memory,0.042682647705078125
2022-03-30T22:59:07.633Z,FULLY_SHARED_UNIT_1-1-16-1,2,monitoring-unit-1,memory,0.042682647705078125
2022-03-30T22:59:17.632Z,FULLY_SHARED_UNIT_1-1-16-1,2,monitoring-unit-1,memory,0.042682647705078125
2022-03-30T22:59:27.632Z,FULLY_SHARED_UNIT_1-1-16-1,2,monitoring-unit-1,memory,0.0432281494140625
2022-03-30T22:59:37.633Z,FULLY_SHARED_UNIT_1-1-16-1,2,monitoring-unit-1,memory,0.043498992919921875
2022-03-30T22:59:47.633Z,FULLY_SHARED_UNIT_1-1-16-1,2,monitoring-unit-1,memory,0.043498992919921875
2022-03-30T22:59:57.632Z,FULLY_SHARED_UNIT_1-1-16-1,2,monitoring-unit-1,memory,0.043498992919921875
2022-03-30T23:00:07.632Z,FULLY_SHARED_UNIT_1-1-16-1,2,monitoring-unit-1,memory,0.043537139892578125
2022-03-30T23:00:17.632Z,FULLY_SHARED_UNIT_1-1-16-1,2,monitoring-unit-1,memory,0.043537139892578125
2022-03-30T23:00:27.632Z,FULLY_SHARED_UNIT_1-1-16-1,2,monitoring-unit-1,memory,0.043537139892578125
2022-03-30T23:00:37.633Z,FULLY_SHARED_UNIT_1-1-16-1,2,monitoring-unit-1,memory,0.04354095458984375
2022-03-30T23:00:47.632Z,FULLY_SHARED_UNIT_1-1-16-1,2,monitoring-unit-1,memory,0.04354095458984375
2022-03-30T23:00:57.632Z,FULLY_SHARED_UNIT_1-1-16-1,2,monitoring-unit-1,memory,0.043651580810546875
2022-03-30T23:01:07.632Z,FULLY_SHARED_UNIT_1-1-16-1,2,monitoring-unit-1,memory,0.043651580810546875
2022-03-30T23:01:17.632Z,FULLY_SHARED_UNIT_1-1-16-1,2,monitoring-unit-1,memory,0.043651580810546875
2022-03-30T23:01:27.633Z,FULLY_SHARED_UNIT_1-1-16-1,2,monitoring-unit-1,memory,0.0439300537109375
2022-03-30T23:01:37.633Z,FULLY_SHARED_UNIT_1-1-16-1,2,monitoring-unit-1,memory,0.044525146484375
2022-03-30T23:01:47.632Z,FULLY_SHARED_UNIT_1-1-16-1,2,monitoring-unit-1,memory,0.044525146484375
2022-03-30T23:01:57.632Z,FULLY_SHARED_UNIT_1-1-16-1,2,monitoring-unit-1,memory,0.040943145751953125
2022-03-30T23:02:07.633Z,FULLY_SHARED_UNIT_1-1-16-1,2,monitoring-unit-1,memory,0.041324615478515625
2022-03-30T23:02:17.632Z,FULLY_SHARED_UNIT_1-1-16-1,2,monitoring-unit-1,memory,0.041324615478515625
2022-03-30T23:02:27.633Z,FULLY_SHARED_UNIT_1-1-16-1,2,monitoring-unit-1,memory,0.042449951171875
2022-03-30T23:02:37.633Z,FULLY_SHARED_UNIT_1-1-16-1,2,monitoring-unit-1,memory,0.042449951171875
2022-03-30T23:02:47.632Z,FULLY_SHARED_UNIT_1-1-16-1,2,monitoring-unit-1,memory,0.042453765869140625
2022-03-30T23:02:57.633Z,FULLY_SHARED_UNIT_1-1-16-1,2,monitoring-unit-1,memory,0.04372406005859375
2022-03-30T23:03:07.632Z,FULLY_SHARED_UNIT_1-1-16-1,2,monitoring-unit-1,memory,0.04372406005859375
2022-03-30T23:03:17.632Z,FULLY_SHARED_UNIT_1-1-16-1,2,monitoring-unit-1,memory,0.0427093505859375
2022-03-30T23:03:27.632Z,FULLY_SHARED_UNIT_1-1-16-1,2,monitoring-unit-1,memory,0.0427093505859375
2022-03-30T23:03:37.632Z,FULLY_SHARED_UNIT_1-1-16-1,2,monitoring-unit-1,memory,0.042713165283203125
2022-03-30T23:03:47.632Z,FULLY_SHARED_UNIT_1-1-16-1,2,monitoring-unit-1,memory,0.044048309326171875
2022-03-30T23:03:57.633Z,FULLY_SHARED_UNIT_1-1-16-1,2,monitoring-unit-1,memory,0.041217803955078125
2022-03-30T23:04:07.633Z,FULLY_SHARED_UNIT_1-1-16-1,2,monitoring-unit-1,memory,0.041217803955078125
2022-03-30T23:04:17.633Z,FULLY_SHARED_UNIT_1-1-16-1,2,monitoring-unit-1,memory,0.041217803955078125
2022-03-30T23:04:27.632Z,FULLY_SHARED_UNIT_1-1-16-1,2,monitoring-unit-1,memory,0.04248809814453125
2022-03-30T23:04:37.633Z,FULLY_SHARED_UNIT_1-1-16-1,2,monitoring-unit-1,memory,0.043102264404296875
2022-03-30T23:04:47.633Z,FULLY_SHARED_UNIT_1-1-16-1,2,monitoring-unit-1,memory,0.043102264404296875
2022-03-30T23:04:57.632Z,FULLY_SHARED_UNIT_1-1-16-1,2,monitoring-unit-1,memory,0.041149139404296875
2022-03-30T23:05:07.632Z,FULLY_SHARED_UNIT_1-1-16-1,2,monitoring-unit-1,memory,0.04259490966796875
2022-03-30T23:05:17.632Z,FULLY_SHARED_UNIT_1-1-16-1,2,monitoring-unit-1,memory,0.04259490966796875
2022-03-30T23:05:27.632Z,FULLY_SHARED_UNIT_1-1-16-1,2,monitoring-unit-1,memory,0.04259490966796875
2022-03-30T23:05:37.633Z,FULLY_SHARED_UNIT_1-1-16-1,2,monitoring-unit-1,memory,0.043212890625
2022-03-30T23:05:47.633Z,FULLY_SHARED_UNIT_1-1-16-1,2,monitoring-unit-1,memory,0.043212890625
2022-03-30T23:05:57.633Z,FULLY_SHARED_UNIT_1-1-16-1,2,monitoring-unit-1,memory,0.0440826416015625
2022-03-30T23:06:07.632Z,FULLY_SHARED_UNIT_1-1-16-1,2,monitoring-unit-1,memory,0.0440826416015625
2022-03-30T23:06:17.632Z,FULLY_SHARED_UNIT_1-1-16-1,2,monitoring-unit-1,memory,0.042888641357421875
2022-03-30T23:06:27.633Z,FULLY_SHARED_UNIT_1-1-16-1,2,monitoring-unit-1,memory,0.042888641357421875
2022-03-30T23:06:37.632Z,FULLY_SHARED_UNIT_1-1-16-1,2,monitoring-unit-1,memory,0.042888641357421875
2022-03-30T23:06:47.632Z,FULLY_SHARED_UNIT_1-1-16-1,2,monitoring-unit-1,memory,0.04388427734375
2022-03-30T23:06:57.633Z,FULLY_SHARED_UNIT_1-1-16-1,2,monitoring-unit-1,memory,0.041408538818359375
2022-03-30T23:07:07.633Z,FULLY_SHARED_UNIT_1-1-16-1,2,monitoring-unit-1,memory,0.041408538818359375
2022-03-30T23:07:17.632Z,FULLY_SHARED_UNIT_1-1-16-1,2,monitoring-unit-1,memory,0.041408538818359375
2022-03-30T23:07:27.633Z,FULLY_SHARED_UNIT_1-1-16-1,2,monitoring-unit-1,memory,0.042675018310546875
2022-03-30T23:07:37.632Z,FULLY_SHARED_UNIT_1-1-16-1,2,monitoring-unit-1,memory,0.042675018310546875
2022-03-30T23:07:47.633Z,FULLY_SHARED_UNIT_1-1-16-1,2,monitoring-unit-1,memory,0.043949127197265625
2022-03-30T23:07:57.633Z,FULLY_SHARED_UNIT_1-1-16-1,2,monitoring-unit-1,memory,0.043949127197265625
2022-03-30T23:08:29.895Z,FULLY_SHARED_UNIT_1-1-16-1,3,monitoring-unit-1,memory,0.031330108642578125
2022-03-30T23:08:39.896Z,FULLY_SHARED_UNIT_1-1-16-1,3,monitoring-unit-1,memory,0.038295745849609375
2022-03-30T23:08:49.895Z,FULLY_SHARED_UNIT_1-1-16-1,3,monitoring-unit-1,memory,0.038295745849609375
2022-03-30T23:08:59.896Z,FULLY_SHARED_UNIT_1-1-16-1,3,monitoring-unit-1,memory,0.0404052734375
2022-03-30T23:09:09.896Z,FULLY_SHARED_UNIT_1-1-16-1,3,monitoring-unit-1,memory,0.0404052734375
2022-03-30T23:09:19.895Z,FULLY_SHARED_UNIT_1-1-16-1,3,monitoring-unit-1,memory,0.0404052734375
2022-03-30T23:09:29.895Z,FULLY_SHARED_UNIT_1-1-16-1,3,monitoring-unit-1,memory,0.040409088134765625
2022-03-30T23:09:39.895Z,FULLY_SHARED_UNIT_1-1-16-1,3,monitoring-unit-1,memory,0.042438507080078125
2022-03-30T23:09:49.895Z,FULLY_SHARED_UNIT_1-1-16-1,3,monitoring-unit-1,memory,0.04247283935546875
2022-03-30T23:09:59.896Z,FULLY_SHARED_UNIT_1-1-16-1,3,monitoring-unit-1,memory,0.043590545654296875
2022-03-30T23:10:09.896Z,FULLY_SHARED_UNIT_1-1-16-1,3,monitoring-unit-1,memory,0.043590545654296875
2022-03-30T23:10:19.895Z,FULLY_SHARED_UNIT_1-1-16-1,3,monitoring-unit-1,memory,0.043743133544921875
2022-03-30T23:10:29.895Z,FULLY_SHARED_UNIT_1-1-16-1,3,monitoring-unit-1,memory,0.043743133544921875
2022-03-30T23:10:39.895Z,FULLY_SHARED_UNIT_1-1-16-1,3,monitoring-unit-1,memory,0.044734954833984375
2022-03-30T23:10:49.896Z,FULLY_SHARED_UNIT_1-1-16-1,3,monitoring-unit-1,memory,0.04076385498046875
2022-03-30T23:10:59.895Z,FULLY_SHARED_UNIT_1-1-16-1,3,monitoring-unit-1,memory,0.04076385498046875
2022-03-30T23:11:09.896Z,FULLY_SHARED_UNIT_1-1-16-1,3,monitoring-unit-1,memory,0.04204559326171875
2022-03-30T23:11:19.895Z,FULLY_SHARED_UNIT_1-1-16-1,3,monitoring-unit-1,memory,0.04204559326171875
2022-03-30T23:11:29.895Z,FULLY_SHARED_UNIT_1-1-16-1,3,monitoring-unit-1,memory,0.043048858642578125
2022-03-30T23:11:39.895Z,FULLY_SHARED_UNIT_1-1-16-1,3,monitoring-unit-1,memory,0.041118621826171875
2022-03-30T23:11:49.895Z,FULLY_SHARED_UNIT_1-1-16-1,3,monitoring-unit-1,memory,0.041118621826171875
2022-03-30T23:11:59.896Z,FULLY_SHARED_UNIT_1-1-16-1,3,monitoring-unit-1,memory,0.042236328125
2022-03-30T23:12:09.895Z,FULLY_SHARED_UNIT_1-1-16-1,3,monitoring-unit-1,memory,0.042236328125
2022-03-30T23:12:19.895Z,FULLY_SHARED_UNIT_1-1-16-1,3,monitoring-unit-1,memory,0.042270660400390625
2022-03-30T23:12:29.895Z,FULLY_SHARED_UNIT_1-1-16-1,3,monitoring-unit-1,memory,0.04360198974609375
2022-03-30T23:12:39.896Z,FULLY_SHARED_UNIT_1-1-16-1,3,monitoring-unit-1,memory,0.04360198974609375
2022-03-30T23:12:49.895Z,FULLY_SHARED_UNIT_1-1-16-1,3,monitoring-unit-1,memory,0.04360198974609375
2022-03-30T23:12:59.895Z,FULLY_SHARED_UNIT_1-1-16-1,3,monitoring-unit-1,memory,0.04230499267578125
2022-03-30T23:13:09.896Z,FULLY_SHARED_UNIT_1-1-16-1,3,monitoring-unit-1,memory,0.04230499267578125
2022-03-30T23:13:19.895Z,FULLY_SHARED_UNIT_1-1-16-1,3,monitoring-unit-1,memory,0.04230499267578125
2022-03-30T23:13:29.896Z,FULLY_SHARED_UNIT_1-1-16-1,3,monitoring-unit-1,memory,0.0436248779296875
2022-03-30T23:13:39.896Z,FULLY_SHARED_UNIT_1-1-16-1,3,monitoring-unit-1,memory,0.0436248779296875
2022-03-30T23:13:49.896Z,FULLY_SHARED_UNIT_1-1-16-1,3,monitoring-unit-1,memory,0.04242706298828125
2022-03-30T23:13:59.896Z,FULLY_SHARED_UNIT_1-1-16-1,3,monitoring-unit-1,memory,0.04242706298828125
2022-03-30T23:14:09.895Z,FULLY_SHARED_UNIT_1-1-16-1,3,monitoring-unit-1,memory,0.04233551025390625
2022-03-30T23:14:19.896Z,FULLY_SHARED_UNIT_1-1-16-1,3,monitoring-unit-1,memory,0.043811798095703125
2022-03-30T23:14:29.895Z,FULLY_SHARED_UNIT_1-1-16-1,3,monitoring-unit-1,memory,0.043811798095703125
2022-03-30T23:14:39.896Z,FULLY_SHARED_UNIT_1-1-16-1,3,monitoring-unit-1,memory,0.0410003662109375
2022-03-30T23:14:49.896Z,FULLY_SHARED_UNIT_1-1-16-1,3,monitoring-unit-1,memory,0.041606903076171875
2022-03-30T23:14:59.895Z,FULLY_SHARED_UNIT_1-1-16-1,3,monitoring-unit-1,memory,0.041606903076171875
2022-03-30T23:15:09.896Z,FULLY_SHARED_UNIT_1-1-16-1,3,monitoring-unit-1,memory,0.04236602783203125
2022-03-30T23:15:19.895Z,FULLY_SHARED_UNIT_1-1-16-1,3,monitoring-unit-1,memory,0.04236602783203125
2022-03-30T23:15:29.895Z,FULLY_SHARED_UNIT_1-1-16-1,3,monitoring-unit-1,memory,0.043842315673828125
2022-03-30T23:15:39.895Z,FULLY_SHARED_UNIT_1-1-16-1,3,monitoring-unit-1,memory,0.041015625
2022-03-30T23:15:49.895Z,FULLY_SHARED_UNIT_1-1-16-1,3,monitoring-unit-1,memory,0.041015625
2022-03-30T23:15:59.895Z,FULLY_SHARED_UNIT_1-1-16-1,3,monitoring-unit-1,memory,0.042232513427734375
2022-03-30T23:16:09.896Z,FULLY_SHARED_UNIT_1-1-16-1,3,monitoring-unit-1,memory,0.042232513427734375
2022-03-30T23:16:19.896Z,FULLY_SHARED_UNIT_1-1-16-1,3,monitoring-unit-1,memory,0.043548583984375
2022-03-30T23:16:29.896Z,FULLY_SHARED_UNIT_1-1-16-1,3,monitoring-unit-1,memory,0.039455413818359375
2022-03-30T23:16:39.896Z,FULLY_SHARED_UNIT_1-1-16-1,3,monitoring-unit-1,memory,0.039455413818359375
2022-03-30T23:16:49.896Z,FULLY_SHARED_UNIT_1-1-16-1,3,monitoring-unit-1,memory,0.041690826416015625
2022-03-30T23:16:59.896Z,FULLY_SHARED_UNIT_1-1-16-1,3,monitoring-unit-1,memory,0.041690826416015625
2022-03-30T23:17:09.895Z,FULLY_SHARED_UNIT_1-1-16-1,3,monitoring-unit-1,memory,0.041690826416015625
2022-03-30T23:17:19.896Z,FULLY_SHARED_UNIT_1-1-16-1,3,monitoring-unit-1,memory,0.04215240478515625
2022-03-30T23:17:29.896Z,FULLY_SHARED_UNIT_1-1-16-1,3,monitoring-unit-1,memory,0.043079376220703125
2022-03-30T23:17:39.896Z,FULLY_SHARED_UNIT_1-1-16-1,3,monitoring-unit-1,memory,0.043079376220703125
2022-03-30T23:17:49.895Z,FULLY_SHARED_UNIT_1-1-16-1,3,monitoring-unit-1,memory,0.0418548583984375
2022-03-30T23:17:59.896Z,FULLY_SHARED_UNIT_1-1-16-1,3,monitoring-unit-1,memory,0.0418548583984375
2022-03-30T23:18:09.896Z,FULLY_SHARED_UNIT_1-1-16-1,3,monitoring-unit-1,memory,0.0418548583984375
2022-03-30T23:18:19.896Z,FULLY_SHARED_UNIT_1-1-16-1,3,monitoring-unit-1,memory,0.041858673095703125
