timestamp,key,run_id,resource,metric,value
2022-03-30T16:15:27.917Z,FULLY_SHARED_UNIT_1-1-1-1,1,monitoring-unit-1,network_out,0.06605243682861328
2022-03-30T16:25:36.230Z,FULLY_SHARED_UNIT_1-1-1-1,2,monitoring-unit-1,network_out,0.06494140625
2022-03-30T16:35:44.364Z,FULLY_SHARED_UNIT_1-1-1-1,3,monitoring-unit-1,network_out,0.06558036804199219
2022-03-30T22:57:35.037Z,FULLY_SHARED_UNIT_1-1-16-1,1,monitoring-unit-1,network_out,0.33150672912597656
2022-03-30T23:07:57.633Z,FULLY_SHARED_UNIT_1-1-16-1,2,monitoring-unit-1,network_out,0.34809303283691406
2022-03-30T23:18:19.896Z,FULLY_SHARED_UNIT_1-1-16-1,3,monitoring-unit-1,network_out,0.3487529754638672
2022-03-30T21:25:36.691Z,FULLY_SHARED_UNIT_1-1-2-1,1,monitoring-unit-1,network_out,0.08720207214355469
2022-03-30T21:35:46.153Z,FULLY_SHARED_UNIT_1-1-2-1,2,monitoring-unit-1,network_out,0.0868234634399414
2022-03-30T21:45:56.283Z,FULLY_SHARED_UNIT_1-1-2-1,3,monitoring-unit-1,network_out,0.08704566955566406
2022-03-30T21:56:06.177Z,FULLY_SHARED_UNIT_1-1-4-1,1,monitoring-unit-1,network_out,0.1258678436279297
2022-03-30T22:06:17.390Z,FULLY_SHARED_UNIT_1-1-4-1,2,monitoring-unit-1,network_out,0.12444210052490234
2022-03-30T22:16:27.956Z,FULLY_SHARED_UNIT_1-1-4-1,3,monitoring-unit-1,network_out,0.1242380142211914
2022-03-30T22:26:40.265Z,FULLY_SHARED_UNIT_1-1-8-1,1,monitoring-unit-1,network_out,0.2030353546142578
2022-03-30T22:36:55.414Z,FULLY_SHARED_UNIT_1-1-8-1,2,monitoring-unit-1,network_out,0.20328044891357422
2022-03-30T22:47:09.212Z,FULLY_SHARED_UNIT_1-1-8-1,3,monitoring-unit-1,network_out,0.20278072357177734
