timestamp,key,run_id,resource,metric,value
2022-03-30T16:15:27.917Z,FULLY_SHARED_UNIT_1-1-1-1,1,monitoring-unit-1,network_in,0.04465198516845703
2022-03-30T16:25:36.230Z,FULLY_SHARED_UNIT_1-1-1-1,2,monitoring-unit-1,network_in,0.03582763671875
2022-03-30T16:35:44.364Z,FULLY_SHARED_UNIT_1-1-1-1,3,monitoring-unit-1,network_in,0.04373359680175781
2022-03-30T22:57:35.037Z,FULLY_SHARED_UNIT_1-1-16-1,1,monitoring-unit-1,network_in,0.33576393127441406
2022-03-30T23:07:57.633Z,FULLY_SHARED_UNIT_1-1-16-1,2,monitoring-unit-1,network_in,0.3613758087158203
2022-03-30T23:18:19.896Z,FULLY_SHARED_UNIT_1-1-16-1,3,monitoring-unit-1,network_in,0.3622121810913086
2022-03-30T21:25:36.691Z,FULLY_SHARED_UNIT_1-1-2-1,1,monitoring-unit-1,network_in,0.0659170150756836
2022-03-30T21:35:46.153Z,FULLY_SHARED_UNIT_1-1-2-1,2,monitoring-unit-1,network_in,0.0629873275756836
2022-03-30T21:45:56.283Z,FULLY_SHARED_UNIT_1-1-2-1,3,monitoring-unit-1,network_in,0.06431770324707031
2022-03-30T21:56:06.177Z,FULLY_SHARED_UNIT_1-1-4-1,1,monitoring-unit-1,network_in,0.10791873931884766
2022-03-30T22:06:17.390Z,FULLY_SHARED_UNIT_1-1-4-1,2,monitoring-unit-1,network_in,0.10659122467041016
2022-03-30T22:16:27.956Z,FULLY_SHARED_UNIT_1-1-4-1,3,monitoring-unit-1,network_in,0.10681438446044922
2022-03-30T22:26:40.265Z,FULLY_SHARED_UNIT_1-1-8-1,1,monitoring-unit-1,network_in,0.1985912322998047
2022-03-30T22:36:55.414Z,FULLY_SHARED_UNIT_1-1-8-1,2,monitoring-unit-1,network_in,0.19867801666259766
2022-03-30T22:47:09.212Z,FULLY_SHARED_UNIT_1-1-8-1,3,monitoring-unit-1,network_in,0.19876384735107422
