timestamp,key,run_id,resource,metric,value
2022-05-26T10:32:23.741Z,SHARED_SIDECAR_MULTI_PROBE-1-1-1,1,target-1,network_in,0.4824028015136719
2022-05-26T10:44:09.122Z,SHARED_SIDECAR_MULTI_PROBE-1-1-1,2,target-1,network_in,0.42030906677246094
2022-05-26T10:55:52.548Z,SHARED_SIDECAR_MULTI_PROBE-1-1-1,3,target-1,network_in,0.4159717559814453
2021-06-07T16:28:32.172Z,SHARED_SIDECAR_MULTI_PROBE-1-1-16,1,target-1,network_in,1.6655826568603516
2021-06-07T16:44:29.431Z,SHARED_SIDECAR_MULTI_PROBE-1-1-16,2,target-1,network_in,1.6047439575195312
2021-06-07T17:00:29.453Z,SHARED_SIDECAR_MULTI_PROBE-1-1-16,3,target-1,network_in,1.640951156616211
2021-06-07T14:30:44.470Z,SHARED_SIDECAR_MULTI_PROBE-1-1-2,1,target-1,network_in,1.4633455276489258
2021-06-07T14:42:48.986Z,SHARED_SIDECAR_MULTI_PROBE-1-1-2,2,target-1,network_in,1.4632787704467773
2021-06-07T14:54:49.480Z,SHARED_SIDECAR_MULTI_PROBE-1-1-2,3,target-1,network_in,1.4528532028198242
2021-06-07T15:07:20.606Z,SHARED_SIDECAR_MULTI_PROBE-1-1-4,1,target-1,network_in,1.4969720840454102
2021-06-07T15:19:55.205Z,SHARED_SIDECAR_MULTI_PROBE-1-1-4,2,target-1,network_in,1.4938468933105469
2021-06-07T15:32:25.360Z,SHARED_SIDECAR_MULTI_PROBE-1-1-4,3,target-1,network_in,1.4921703338623047
2021-06-07T15:45:46.899Z,SHARED_SIDECAR_MULTI_PROBE-1-1-8,1,target-1,network_in,1.5443897247314453
2021-06-07T15:59:15.011Z,SHARED_SIDECAR_MULTI_PROBE-1-1-8,2,target-1,network_in,1.5350513458251953
2021-06-07T16:12:59.772Z,SHARED_SIDECAR_MULTI_PROBE-1-1-8,3,target-1,network_in,1.548990249633789
