2023-07-14T12:36:44.684Z,orders,memory,289468416
2023-07-14T12:36:55.198Z,user-login,memory,2973696
2023-07-14T12:36:44.684Z,carts-post,memory,295342080
2023-07-14T12:36:55.198Z,carts-delete,memory,305164288
2023-07-14T12:37:05.199Z,orders,memory,301072384
2023-07-14T12:37:05.199Z,carts-get,memory,299827200
2023-07-14T12:37:15.199Z,orders,memory,303054848
2023-07-14T12:37:15.199Z,carts-delete,memory,306614272
2023-07-14T12:37:25.198Z,orders,memory,303054848
2023-07-14T12:37:25.198Z,carts-delete,memory,306614272
2023-07-14T12:36:44.684Z,carts-get,memory,283660288
2023-07-14T12:36:44.684Z,carts-delete,memory,293441536
2023-07-14T12:36:55.198Z,carts-get,memory,289357824
2023-07-14T12:36:55.198Z,orders,memory,301072384
2023-07-14T12:37:05.199Z,user,memory,2895872
2023-07-14T12:37:05.199Z,carts-post,memory,306327552
2023-07-14T12:37:15.199Z,carts-post,memory,314998784
2023-07-14T12:37:15.199Z,user-login,memory,3018752
2023-07-14T12:37:15.199Z,carts-get,memory,299827200
2023-07-14T12:37:25.198Z,carts-post,memory,314998784
2023-07-14T12:37:25.198Z,user-login,memory,3018752
2023-07-14T12:37:25.198Z,carts-get,memory,299827200
2023-07-14T12:36:44.684Z,user-login,memory,2801664
2023-07-14T12:36:44.684Z,user,memory,2813952
2023-07-14T12:36:55.198Z,carts-post,memory,306327552
2023-07-14T12:36:55.198Z,user,memory,2813952
2023-07-14T12:37:05.199Z,user-login,memory,2973696
2023-07-14T12:37:05.199Z,carts-delete,memory,305164288
2023-07-14T12:37:15.199Z,user,memory,2920448
2023-07-14T12:37:25.198Z,user,memory,2920448
2023-07-14T12:37:05.238Z,carts-get,memory,303697920
2023-07-14T12:37:05.238Z,carts-get,memory,312184832
2023-07-14T12:37:15.238Z,carts-get,memory,294924288
2023-07-14T12:36:44.724Z,shipping,memory,282976256
2023-07-14T12:36:44.724Z,carts-get,memory,273059840
2023-07-14T12:37:25.237Z,carts-get,memory,303697920
2023-07-14T12:36:55.240Z,carts-get,memory,312184832
2023-07-14T12:37:15.238Z,carts-get,memory,313253888
2023-07-14T12:37:15.238Z,shipping,memory,300183552
2023-07-14T12:37:25.237Z,carts-get,memory,294924288
2023-07-14T12:36:55.240Z,carts-get,memory,300163072
2023-07-14T12:36:55.240Z,carts-get,memory,308559872
2023-07-14T12:36:55.240Z,shipping,memory,282976256
2023-07-14T12:37:05.238Z,carts-get,memory,300163072
2023-07-14T12:37:05.238Z,shipping,memory,300183552
2023-07-14T12:37:15.238Z,carts-get,memory,303697920
2023-07-14T12:37:25.237Z,carts-get,memory,313253888
2023-07-14T12:37:25.237Z,shipping,memory,300183552
2023-07-14T12:37:35.199Z,user-login,memory,3620864
2023-07-14T12:37:35.199Z,carts-delete,memory,306958336
2023-07-14T12:37:35.199Z,user,memory,2990080
2023-07-14T12:37:35.238Z,shipping,memory,304058368
2023-07-14T12:37:35.199Z,orders,memory,307245056
2023-07-14T12:37:35.199Z,carts-post,memory,312950784
2023-07-14T12:37:35.199Z,carts-get,memory,312537088
2023-07-14T12:37:35.238Z,carts-get,memory,313171968
2023-07-14T12:37:35.238Z,carts-get,memory,294793216
2023-07-14T12:37:35.238Z,carts-get,memory,321667072
2023-07-14T12:36:44.818Z,payment,memory,2400256
2023-07-14T12:37:05.335Z,catalogue,memory,2662400
2023-07-14T12:37:05.335Z,user-register,memory,3067904
2023-07-14T12:37:05.335Z,carts-get,memory,296738816
2023-07-14T12:37:15.335Z,catalogue,memory,2686976
2023-07-14T12:37:35.335Z,user-register,memory,3149824
2023-07-14T12:37:35.335Z,carts-get,memory,307159040
2023-07-14T12:36:44.818Z,carts,memory,303472640
2023-07-14T12:36:44.818Z,catalogue,memory,2662400
2023-07-14T12:36:55.337Z,user-register,memory,3067904
2023-07-14T12:36:55.337Z,payment,memory,2400256
2023-07-14T12:37:05.335Z,payment,memory,2400256
2023-07-14T12:37:15.335Z,user-register,memory,3149824
2023-07-14T12:37:15.335Z,payment,memory,2465792
2023-07-14T12:37:25.335Z,payment,memory,2465792
2023-07-14T12:37:25.335Z,carts,memory,305905664
2023-07-14T12:37:25.335Z,queue-master,memory,271695872
2023-07-14T12:36:44.818Z,carts-get,memory,286605312
2023-07-14T12:36:44.818Z,queue-master,memory,272404480
2023-07-14T12:36:44.818Z,user-register,memory,3067904
2023-07-14T12:36:55.337Z,catalogue,memory,2662400
2023-07-14T12:36:55.337Z,carts,memory,303472640
2023-07-14T12:36:55.337Z,carts-get,memory,296738816
2023-07-14T12:36:55.337Z,carts-get,memory,287551488
2023-07-14T12:37:05.335Z,queue-master,memory,272404480
2023-07-14T12:37:15.335Z,carts-get,memory,310915072
2023-07-14T12:37:25.335Z,carts-get,memory,313511936
2023-07-14T12:37:25.335Z,catalogue,memory,2715648
2023-07-14T12:37:35.335Z,payment,memory,2465792
2023-07-14T12:37:35.335Z,carts,memory,305905664
2023-07-14T12:37:35.335Z,queue-master,memory,271695872
2023-07-14T12:36:44.818Z,carts-get,memory,276840448
2023-07-14T12:36:55.337Z,queue-master,memory,272404480
2023-07-14T12:37:05.335Z,carts,memory,303472640
2023-07-14T12:37:05.335Z,carts-get,memory,287551488
2023-07-14T12:37:15.335Z,carts-get,memory,313511936
2023-07-14T12:37:15.335Z,carts,memory,305905664
2023-07-14T12:37:15.335Z,queue-master,memory,271695872
2023-07-14T12:37:25.335Z,user-register,memory,3149824
2023-07-14T12:37:25.335Z,carts-get,memory,307159040
2023-07-14T12:37:35.335Z,carts-get,memory,313511936
2023-07-14T12:37:35.335Z,catalogue,memory,2715648
2023-07-14T12:37:45.237Z,carts-get,memory,321667072
2023-07-14T12:37:45.335Z,catalogue,memory,3420160
2023-07-14T12:37:45.335Z,carts-get,memory,304447488
2023-07-14T12:37:45.199Z,carts-post,memory,313147392
2023-07-14T12:37:45.199Z,user,memory,2990080
2023-07-14T12:37:45.237Z,carts-get,memory,313737216
2023-07-14T12:37:45.335Z,carts-get,memory,307466240
2023-07-14T12:37:45.199Z,carts-get,memory,312537088
2023-07-14T12:37:45.237Z,shipping,memory,304058368
2023-07-14T12:37:45.237Z,carts-get,memory,295329792
2023-07-14T12:37:45.335Z,user-register,memory,3198976
2023-07-14T12:37:45.199Z,user-login,memory,3690496
2023-07-14T12:37:45.199Z,carts-delete,memory,307503104
2023-07-14T12:37:45.199Z,orders,memory,307380224
2023-07-14T12:37:45.335Z,queue-master,memory,271704064
2023-07-14T12:37:45.335Z,payment,memory,2486272
2023-07-14T12:37:45.335Z,carts,memory,306176000
2023-07-14T12:37:55.199Z,carts-post,memory,315432960
2023-07-14T12:37:55.238Z,shipping,memory,304349184
2023-07-14T12:37:55.335Z,payment,memory,2486272
2023-07-14T12:37:55.335Z,queue-master,memory,271773696
2023-07-14T12:37:55.199Z,carts-get,memory,313081856
2023-07-14T12:37:55.199Z,orders,memory,307531776
2023-07-14T12:37:55.238Z,carts-get,memory,322240512
2023-07-14T12:37:55.199Z,user,memory,3641344
2023-07-14T12:37:55.199Z,carts-delete,memory,307503104
2023-07-14T12:37:55.238Z,carts-get,memory,295337984
2023-07-14T12:37:55.335Z,carts,memory,306176000
2023-07-14T12:37:55.335Z,carts-get,memory,304742400
2023-07-14T12:37:55.335Z,catalogue,memory,3420160
2023-07-14T12:37:55.335Z,carts-get,memory,307466240
2023-07-14T12:37:55.199Z,user-login,memory,3751936
2023-07-14T12:37:55.238Z,carts-get,memory,314003456
2023-07-14T12:37:55.335Z,user-register,memory,3629056
2023-07-14T12:38:05.198Z,user-login,memory,3751936
2023-07-14T12:38:05.238Z,carts-get,memory,314003456
2023-07-14T12:38:05.198Z,carts-get,memory,313081856
2023-07-14T12:38:05.198Z,orders,memory,307531776
2023-07-14T12:38:05.238Z,carts-get,memory,322240512
2023-07-14T12:38:05.198Z,user,memory,3641344
2023-07-14T12:38:05.198Z,carts-delete,memory,307503104
2023-07-14T12:38:05.238Z,carts-get,memory,295337984
2023-07-14T12:38:05.198Z,carts-post,memory,315432960
2023-07-14T12:38:05.238Z,shipping,memory,304349184
2023-07-14T12:38:05.335Z,carts-get,memory,307716096
2023-07-14T12:38:05.335Z,catalogue,memory,3444736
2023-07-14T12:38:05.335Z,carts-get,memory,304885760
2023-07-14T12:38:05.335Z,carts,memory,306483200
2023-07-14T12:38:05.335Z,user-register,memory,3264512
2023-07-14T12:38:05.335Z,queue-master,memory,271785984
2023-07-14T12:38:05.335Z,payment,memory,3141632
2023-07-14T12:38:15.238Z,shipping,memory,303706112
2023-07-14T12:38:15.199Z,user-login,memory,3760128
2023-07-14T12:38:15.199Z,carts-get,memory,312377344
2023-07-14T12:38:15.238Z,carts-get,memory,295411712
2023-07-14T12:38:15.335Z,carts-get,memory,307728384
2023-07-14T12:38:15.335Z,catalogue,memory,3514368
2023-07-14T12:38:15.199Z,carts-post,memory,315473920
2023-07-14T12:38:15.199Z,carts-delete,memory,307228672
2023-07-14T12:38:15.238Z,carts-get,memory,314052608
2023-07-14T12:38:15.335Z,queue-master,memory,271798272
2023-07-14T12:38:15.335Z,payment,memory,3137536
2023-07-14T12:38:15.199Z,user,memory,3674112
2023-07-14T12:38:15.199Z,orders,memory,306409472
2023-07-14T12:38:15.238Z,carts-get,memory,322277376
2023-07-14T12:38:15.335Z,carts-get,memory,304898048
2023-07-14T12:38:15.335Z,carts,memory,306483200
2023-07-14T12:38:15.335Z,user-register,memory,3350528
2023-07-14T12:38:25.198Z,carts-get,memory,312397824
2023-07-14T12:38:25.198Z,carts-delete,memory,306577408
2023-07-14T12:38:25.336Z,queue-master,memory,271839232
2023-07-14T12:38:25.336Z,carts-get,memory,307744768
2023-07-14T12:38:25.198Z,user-login,memory,3805184
2023-07-14T12:38:25.198Z,orders,memory,306696192
2023-07-14T12:38:25.238Z,carts-get,memory,314081280
2023-07-14T12:38:25.336Z,user-register,memory,3366912
2023-07-14T12:38:25.198Z,carts-post,memory,315473920
2023-07-14T12:38:25.336Z,carts-get,memory,304898048
2023-07-14T12:38:25.198Z,user,memory,3842048
2023-07-14T12:38:25.238Z,carts-get,memory,322289664
2023-07-14T12:38:25.238Z,carts-get,memory,295432192
2023-07-14T12:38:25.238Z,shipping,memory,303034368
2023-07-14T12:38:25.336Z,payment,memory,3158016
2023-07-14T12:38:25.336Z,catalogue,memory,3534848
2023-07-14T12:38:25.336Z,carts,memory,306520064
2023-07-14T12:38:35.198Z,orders,memory,306724864
2023-07-14T12:38:35.198Z,carts-post,memory,315510784
2023-07-14T12:38:35.198Z,user,memory,3907584
2023-07-14T12:38:35.335Z,carts,memory,306520064
2023-07-14T12:38:35.198Z,carts-get,memory,312397824
2023-07-14T12:38:35.335Z,payment,memory,3158016
2023-07-14T12:38:35.335Z,user-register,memory,3366912
2023-07-14T12:38:35.198Z,user-login,memory,3858432
2023-07-14T12:38:35.198Z,carts-delete,memory,305692672
2023-07-14T12:38:35.238Z,carts-get,memory,295432192
2023-07-14T12:38:35.238Z,shipping,memory,303034368
2023-07-14T12:38:35.238Z,carts-get,memory,322289664
2023-07-14T12:38:35.238Z,carts-get,memory,312356864
2023-07-14T12:38:35.335Z,queue-master,memory,271839232
2023-07-14T12:38:35.335Z,carts-get,memory,307744768
2023-07-14T12:38:35.335Z,carts-get,memory,304898048
2023-07-14T12:38:35.335Z,catalogue,memory,3534848
2023-07-14T12:38:45.237Z,carts-get,memory,312356864
2023-07-14T12:38:45.198Z,orders,memory,306724864
2023-07-14T12:38:45.198Z,carts-post,memory,315510784
2023-07-14T12:38:45.198Z,carts-get,memory,312397824
2023-07-14T12:38:45.198Z,user-login,memory,3858432
2023-07-14T12:38:45.198Z,user,memory,3907584
2023-07-14T12:38:45.198Z,carts-delete,memory,305692672
2023-07-14T12:38:45.237Z,carts-get,memory,295432192
2023-07-14T12:38:45.237Z,shipping,memory,303034368
2023-07-14T12:38:45.237Z,carts-get,memory,322289664
2023-07-14T12:38:45.335Z,carts-get,memory,307019776
2023-07-14T12:38:45.335Z,queue-master,memory,271876096
2023-07-14T12:38:45.335Z,carts-get,memory,302092288
2023-07-14T12:38:45.335Z,carts,memory,306540544
2023-07-14T12:38:45.335Z,catalogue,memory,3538944
2023-07-14T12:38:45.335Z,user-register,memory,3416064
2023-07-14T12:38:45.335Z,payment,memory,3207168
2023-07-14T12:38:55.240Z,carts-get,memory,312799232
2023-07-14T12:38:55.335Z,carts-get,memory,302092288
2023-07-14T12:38:55.335Z,user-register,memory,3416064
2023-07-14T12:38:55.199Z,user-login,memory,3919872
2023-07-14T12:38:55.240Z,carts-get,memory,296120320
2023-07-14T12:38:55.335Z,carts-get,memory,307019776
2023-07-14T12:38:55.335Z,payment,memory,3207168
2023-07-14T12:38:55.199Z,user,memory,4001792
2023-07-14T12:38:55.199Z,carts-get,memory,310398976
2023-07-14T12:38:55.240Z,shipping,memory,303075328
2023-07-14T12:38:55.335Z,catalogue,memory,3538944
2023-07-14T12:38:55.199Z,orders,memory,306782208
2023-07-14T12:38:55.199Z,carts-post,memory,314535936
2023-07-14T12:38:55.199Z,carts-delete,memory,305713152
2023-07-14T12:38:55.240Z,carts-get,memory,320802816
2023-07-14T12:38:55.335Z,queue-master,memory,271876096
2023-07-14T12:38:55.335Z,carts,memory,306540544
2023-07-14T12:39:05.198Z,carts-delete,memory,305754112
2023-07-14T12:39:05.198Z,orders,memory,306782208
2023-07-14T12:39:05.198Z,carts-get,memory,310398976
2023-07-14T12:39:05.198Z,user,memory,4001792
2023-07-14T12:39:05.198Z,carts-post,memory,314265600
2023-07-14T12:39:05.335Z,carts,memory,306655232
2023-07-14T12:39:05.238Z,carts-get,memory,312799232
2023-07-14T12:39:05.238Z,carts-get,memory,320802816
2023-07-14T12:39:05.335Z,user-register,memory,3461120
2023-07-14T12:39:05.335Z,carts-get,memory,302120960
2023-07-14T12:39:05.335Z,payment,memory,3260416
2023-07-14T12:39:05.198Z,user-login,memory,3944448
2023-07-14T12:39:05.238Z,shipping,memory,303075328
2023-07-14T12:39:05.238Z,carts-get,memory,295575552
2023-07-14T12:39:05.335Z,carts-get,memory,306536448
2023-07-14T12:39:05.335Z,queue-master,memory,272039936
2023-07-14T12:39:05.335Z,catalogue,memory,3551232
2023-07-14T12:39:15.238Z,carts-get,memory,320442368
2023-07-14T12:39:15.335Z,user-register,memory,3493888
2023-07-14T12:39:15.198Z,user-login,memory,3944448
2023-07-14T12:39:15.335Z,carts-get,memory,306274304
2023-07-14T12:39:15.335Z,carts,memory,305864704
2023-07-14T12:39:15.198Z,carts-delete,memory,305754112
2023-07-14T12:39:15.238Z,carts-get,memory,312479744
2023-07-14T12:39:15.335Z,catalogue,memory,3555328
2023-07-14T12:39:15.335Z,carts-get,memory,302440448
2023-07-14T12:39:15.198Z,user,memory,4034560
2023-07-14T12:39:15.198Z,carts-post,memory,313606144
2023-07-14T12:39:15.198Z,orders,memory,305639424
2023-07-14T12:39:15.198Z,carts-get,memory,310427648
2023-07-14T12:39:15.238Z,carts-get,memory,295587840
2023-07-14T12:39:15.238Z,shipping,memory,303099904
2023-07-14T12:39:15.335Z,queue-master,memory,272039936
2023-07-14T12:39:15.335Z,payment,memory,3276800
2023-07-14T12:39:25.199Z,carts-post,memory,313606144
2023-07-14T12:39:25.199Z,user-login,memory,3960832
2023-07-14T12:39:25.238Z,carts-get,memory,320442368
2023-07-14T12:39:25.199Z,user,memory,4067328
2023-07-14T12:39:25.238Z,carts-get,memory,295587840
2023-07-14T12:39:25.238Z,shipping,memory,303099904
2023-07-14T12:39:25.199Z,carts-delete,memory,305836032
2023-07-14T12:39:25.199Z,carts-get,memory,310427648
2023-07-14T12:39:25.199Z,orders,memory,305639424
2023-07-14T12:39:25.238Z,carts-get,memory,312479744
2023-07-14T12:39:25.335Z,queue-master,memory,272384000
2023-07-14T12:39:25.335Z,carts-get,memory,302538752
2023-07-14T12:39:25.335Z,carts-get,memory,306364416
2023-07-14T12:39:25.335Z,carts,memory,305033216
2023-07-14T12:39:25.335Z,catalogue,memory,3575808
2023-07-14T12:39:25.335Z,payment,memory,3280896
2023-07-14T12:39:25.335Z,user-register,memory,5292032
2023-07-14T12:39:35.198Z,user,memory,4067328
2023-07-14T12:39:35.238Z,carts-get,memory,320458752
2023-07-14T12:39:35.238Z,carts-get,memory,295464960
2023-07-14T12:39:35.238Z,shipping,memory,301219840
2023-07-14T12:39:35.335Z,carts-get,memory,302538752
2023-07-14T12:39:35.335Z,carts,memory,305033216
2023-07-14T12:39:35.335Z,payment,memory,3280896
2023-07-14T12:39:35.198Z,carts-post,memory,313606144
2023-07-14T12:39:35.198Z,user-login,memory,3960832
2023-07-14T12:39:35.238Z,carts-get,memory,312672256
2023-07-14T12:39:35.198Z,carts-delete,memory,305836032
2023-07-14T12:39:35.198Z,carts-get,memory,310427648
2023-07-14T12:39:35.198Z,orders,memory,305639424
2023-07-14T12:39:35.335Z,queue-master,memory,272384000
2023-07-14T12:39:35.335Z,carts-get,memory,306364416
2023-07-14T12:39:35.335Z,catalogue,memory,3575808
2023-07-14T12:39:35.335Z,user-register,memory,5292032
2023-07-14T12:39:45.238Z,shipping,memory,301228032
2023-07-14T12:39:45.199Z,carts-post,memory,312459264
2023-07-14T12:39:45.335Z,carts,memory,305041408
2023-07-14T12:39:45.335Z,carts-get,memory,302604288
2023-07-14T12:39:45.238Z,carts-get,memory,312672256
2023-07-14T12:39:45.238Z,carts-get,memory,320458752
2023-07-14T12:39:45.199Z,carts-delete,memory,306999296
2023-07-14T12:39:45.335Z,user-register,memory,5292032
2023-07-14T12:39:45.335Z,payment,memory,3293184
2023-07-14T12:39:45.238Z,carts-get,memory,295518208
2023-07-14T12:39:45.199Z,user,memory,4100096
2023-07-14T12:39:45.199Z,user-login,memory,4038656
2023-07-14T12:39:45.199Z,orders,memory,305987584
2023-07-14T12:39:45.335Z,catalogue,memory,3575808
2023-07-14T12:39:45.335Z,carts-get,memory,305684480
2023-07-14T12:39:45.199Z,carts-get,memory,310497280
2023-07-14T12:39:45.335Z,queue-master,memory,272429056
2023-07-14T12:39:55.198Z,carts-post,memory,312479744
2023-07-14T12:39:55.335Z,user-register,memory,5296128
2023-07-14T12:39:55.198Z,carts-get,memory,310628352
2023-07-14T12:39:55.198Z,carts-delete,memory,309043200
2023-07-14T12:39:55.238Z,carts-get,memory,295608320
2023-07-14T12:39:55.335Z,catalogue,memory,3612672
2023-07-14T12:39:55.198Z,user-login,memory,4038656
2023-07-14T12:39:55.198Z,user,memory,4141056
2023-07-14T12:39:55.238Z,carts-get,memory,312729600
2023-07-14T12:39:55.238Z,carts-get,memory,320126976
2023-07-14T12:39:55.335Z,carts,memory,304492544
2023-07-14T12:39:55.335Z,payment,memory,3309568
2023-07-14T12:39:55.198Z,orders,memory,305987584
2023-07-14T12:39:55.238Z,shipping,memory,301232128
2023-07-14T12:39:55.335Z,carts-get,memory,302612480
2023-07-14T12:39:55.335Z,carts-get,memory,305684480
2023-07-14T12:39:55.335Z,queue-master,memory,272429056
2023-07-14T12:40:05.198Z,carts-get,memory,310628352
2023-07-14T12:40:05.238Z,carts-get,memory,295608320
2023-07-14T12:40:05.198Z,user,memory,4153344
2023-07-14T12:40:05.198Z,carts-post,memory,312479744
2023-07-14T12:40:05.198Z,user-login,memory,4108288
2023-07-14T12:40:05.238Z,shipping,memory,301232128
2023-07-14T12:40:05.198Z,orders,memory,306552832
2023-07-14T12:40:05.198Z,carts-delete,memory,309043200
2023-07-14T12:40:05.238Z,carts-get,memory,312729600
2023-07-14T12:40:05.238Z,carts-get,memory,320126976
2023-07-14T12:40:05.335Z,user-register,memory,5300224
2023-07-14T12:40:05.335Z,carts,memory,306810880
2023-07-14T12:40:05.335Z,carts-get,memory,305717248
2023-07-14T12:40:05.335Z,queue-master,memory,272474112
2023-07-14T12:40:05.335Z,catalogue,memory,3624960
2023-07-14T12:40:05.335Z,payment,memory,3330048
2023-07-14T12:40:05.335Z,carts-get,memory,302534656
2023-07-14T12:40:15.199Z,carts-post,memory,312508416
2023-07-14T12:40:15.335Z,queue-master,memory,272474112
2023-07-14T12:40:15.199Z,user-login,memory,4108288
2023-07-14T12:40:15.335Z,carts-get,memory,305733632
2023-07-14T12:40:15.335Z,carts,memory,306835456
2023-07-14T12:40:15.199Z,user,memory,4153344
2023-07-14T12:40:15.199Z,carts-delete,memory,312233984
2023-07-14T12:40:15.238Z,shipping,memory,304054272
2023-07-14T12:40:15.335Z,catalogue,memory,3653632
2023-07-14T12:40:15.335Z,carts-get,memory,303075328
2023-07-14T12:40:15.199Z,carts-get,memory,310321152
2023-07-14T12:40:15.199Z,orders,memory,306573312
2023-07-14T12:40:15.238Z,carts-get,memory,295804928
2023-07-14T12:40:15.238Z,carts-get,memory,320081920
2023-07-14T12:40:15.238Z,carts-get,memory,312864768
2023-07-14T12:40:15.335Z,user-register,memory,5300224
2023-07-14T12:40:15.335Z,payment,memory,3338240
2023-07-14T12:40:25.198Z,carts-post,memory,312508416
2023-07-14T12:40:25.238Z,carts-get,memory,320118784
2023-07-14T12:40:25.335Z,carts-get,memory,305733632
2023-07-14T12:40:25.335Z,queue-master,memory,272474112
2023-07-14T12:40:25.198Z,user-login,memory,4108288
2023-07-14T12:40:25.238Z,shipping,memory,304132096
2023-07-14T12:40:25.335Z,catalogue,memory,3653632
2023-07-14T12:40:25.335Z,carts-get,memory,303075328
2023-07-14T12:40:25.335Z,carts,memory,306835456
2023-07-14T12:40:25.198Z,user,memory,4153344
2023-07-14T12:40:25.198Z,carts-delete,memory,312233984
2023-07-14T12:40:25.238Z,carts-get,memory,312905728
2023-07-14T12:40:25.335Z,payment,memory,3338240
2023-07-14T12:40:25.198Z,carts-get,memory,310321152
2023-07-14T12:40:25.198Z,orders,memory,306573312
2023-07-14T12:40:25.238Z,carts-get,memory,295804928
2023-07-14T12:40:25.335Z,user-register,memory,5300224
2023-07-14T12:40:35.238Z,carts-get,memory,312905728
2023-07-14T12:40:35.335Z,carts,memory,305942528
2023-07-14T12:40:35.335Z,queue-master,memory,272498688
2023-07-14T12:40:35.238Z,shipping,memory,304132096
2023-07-14T12:40:35.238Z,carts-get,memory,320118784
2023-07-14T12:40:35.335Z,carts-get,memory,303214592
2023-07-14T12:40:35.335Z,catalogue,memory,3661824
2023-07-14T12:40:35.335Z,carts-get,memory,305733632
2023-07-14T12:40:35.198Z,carts-get,memory,310542336
2023-07-14T12:40:35.198Z,carts-delete,memory,318529536
2023-07-14T12:40:35.198Z,carts-post,memory,312565760
2023-07-14T12:40:35.198Z,user,memory,4231168
2023-07-14T12:40:35.238Z,carts-get,memory,295956480
2023-07-14T12:40:35.335Z,user-register,memory,5300224
2023-07-14T12:40:35.198Z,orders,memory,306216960
2023-07-14T12:40:35.198Z,user-login,memory,4169728
2023-07-14T12:40:35.335Z,payment,memory,3350528
2023-07-14T12:40:45.198Z,carts-post,memory,312225792
2023-07-14T12:40:45.335Z,user-register,memory,5300224
2023-07-14T12:40:45.198Z,carts-get,memory,310542336
2023-07-14T12:40:45.198Z,carts-delete,memory,326103040
2023-07-14T12:40:45.335Z,carts-get,memory,303214592
2023-07-14T12:40:45.335Z,payment,memory,3350528
2023-07-14T12:40:45.198Z,orders,memory,306216960
2023-07-14T12:40:45.237Z,shipping,memory,303808512
2023-07-14T12:40:45.335Z,carts-get,memory,305934336
2023-07-14T12:40:45.335Z,queue-master,memory,272510976
2023-07-14T12:40:45.335Z,catalogue,memory,3661824
2023-07-14T12:40:45.198Z,user-login,memory,4177920
2023-07-14T12:40:45.198Z,user,memory,4239360
2023-07-14T12:40:45.237Z,carts-get,memory,320274432
2023-07-14T12:40:45.237Z,carts-get,memory,295956480
2023-07-14T12:40:45.237Z,carts-get,memory,312692736
2023-07-14T12:40:45.335Z,carts,memory,305942528
2023-07-14T12:40:55.198Z,carts-get,memory,310587392
2023-07-14T12:40:55.198Z,carts-delete,memory,326197248
2023-07-14T12:40:55.237Z,shipping,memory,303812608
2023-07-14T12:40:55.335Z,carts-get,memory,305987584
2023-07-14T12:40:55.335Z,catalogue,memory,3682304
2023-07-14T12:40:55.198Z,carts-post,memory,312225792
2023-07-14T12:40:55.237Z,carts-get,memory,312705024
2023-07-14T12:40:55.198Z,orders,memory,306401280
2023-07-14T12:40:55.335Z,queue-master,memory,272510976
2023-07-14T12:40:55.335Z,user-register,memory,5308416
2023-07-14T12:40:55.198Z,user,memory,4354048
2023-07-14T12:40:55.198Z,user-login,memory,4239360
2023-07-14T12:40:55.237Z,carts-get,memory,295960576
2023-07-14T12:40:55.237Z,carts-get,memory,320405504
2023-07-14T12:40:55.335Z,payment,memory,3354624
2023-07-14T12:40:55.335Z,carts,memory,305983488
2023-07-14T12:40:55.335Z,carts-get,memory,303501312
2023-07-14T12:41:05.198Z,orders,memory,306401280
2023-07-14T12:41:05.198Z,user,memory,4354048
2023-07-14T12:41:05.198Z,user-login,memory,4239360
2023-07-14T12:41:05.198Z,carts-get,memory,310587392
2023-07-14T12:41:05.198Z,carts-delete,memory,326197248
2023-07-14T12:41:05.237Z,carts-get,memory,296075264
2023-07-14T12:41:05.198Z,carts-post,memory,312225792
2023-07-14T12:41:05.237Z,carts-get,memory,320434176
2023-07-14T12:41:05.237Z,carts-get,memory,312705024
2023-07-14T12:41:05.237Z,shipping,memory,303824896
2023-07-14T12:41:05.335Z,queue-master,memory,272674816
2023-07-14T12:41:05.335Z,carts-get,memory,306065408
2023-07-14T12:41:05.335Z,user-register,memory,5312512
2023-07-14T12:41:05.335Z,payment,memory,3366912
2023-07-14T12:41:05.335Z,catalogue,memory,3690496
2023-07-14T12:41:05.335Z,carts-get,memory,303538176
2023-07-14T12:41:05.335Z,carts,memory,305991680
2023-07-14T12:41:15.199Z,carts-delete,memory,328339456
2023-07-14T12:41:15.335Z,carts,memory,305991680
2023-07-14T12:41:15.238Z,carts-get,memory,312733696
2023-07-14T12:41:15.335Z,carts-get,memory,306065408
2023-07-14T12:41:15.335Z,payment,memory,3366912
2023-07-14T12:41:15.238Z,carts-get,memory,296099840
2023-07-14T12:41:15.199Z,carts-post,memory,312131584
2023-07-14T12:41:15.335Z,catalogue,memory,3690496
2023-07-14T12:41:15.335Z,carts-get,memory,303538176
2023-07-14T12:41:15.335Z,queue-master,memory,272674816
2023-07-14T12:41:15.238Z,carts-get,memory,320434176
2023-07-14T12:41:15.238Z,shipping,memory,303824896
2023-07-14T12:41:15.199Z,orders,memory,306450432
2023-07-14T12:41:15.199Z,carts-get,memory,310562816
2023-07-14T12:41:15.199Z,user-login,memory,4255744
2023-07-14T12:41:15.199Z,user,memory,4390912
2023-07-14T12:41:15.335Z,user-register,memory,5312512
2023-07-14T12:41:25.199Z,carts-get,memory,310607872
2023-07-14T12:41:25.335Z,carts-get,memory,303468544
2023-07-14T12:41:25.335Z,carts,memory,305991680
2023-07-14T12:41:25.237Z,carts-get,memory,296099840
2023-07-14T12:41:25.199Z,carts-delete,memory,329428992
2023-07-14T12:41:25.335Z,user-register,memory,5308416
2023-07-14T12:41:25.237Z,carts-get,memory,312733696
2023-07-14T12:41:25.199Z,user-login,memory,4255744
2023-07-14T12:41:25.199Z,orders,memory,306450432
2023-07-14T12:41:25.335Z,catalogue,memory,3698688
2023-07-14T12:41:25.237Z,carts-get,memory,320434176
2023-07-14T12:41:25.237Z,shipping,memory,303824896
2023-07-14T12:41:25.199Z,carts-post,memory,312156160
2023-07-14T12:41:25.199Z,user,memory,4390912
2023-07-14T12:41:25.335Z,queue-master,memory,272322560
2023-07-14T12:41:25.335Z,payment,memory,3366912
2023-07-14T12:41:25.335Z,carts-get,memory,306065408
2023-07-14T12:41:35.199Z,user-login,memory,4296704
2023-07-14T12:41:35.238Z,shipping,memory,303837184
2023-07-14T12:41:35.335Z,carts-get,memory,303583232
2023-07-14T12:41:35.335Z,catalogue,memory,3698688
2023-07-14T12:41:35.199Z,carts-get,memory,310652928
2023-07-14T12:41:35.199Z,orders,memory,306294784
2023-07-14T12:41:35.238Z,carts-get,memory,312815616
2023-07-14T12:41:35.335Z,user-register,memory,5308416
2023-07-14T12:41:35.335Z,carts-get,memory,303869952
2023-07-14T12:41:35.199Z,user,memory,4419584
2023-07-14T12:41:35.199Z,carts-post,memory,312156160
2023-07-14T12:41:35.335Z,payment,memory,3403776
2023-07-14T12:41:35.199Z,carts-delete,memory,329428992
2023-07-14T12:41:35.238Z,carts-get,memory,296296448
2023-07-14T12:41:35.238Z,carts-get,memory,318775296
2023-07-14T12:41:35.335Z,queue-master,memory,272322560
2023-07-14T12:41:35.335Z,carts,memory,306003968
2023-07-14T12:41:45.199Z,carts-delete,memory,329523200
2023-07-14T12:41:45.199Z,user,memory,4419584
2023-07-14T12:41:45.238Z,carts-get,memory,318791680
2023-07-14T12:41:45.335Z,queue-master,memory,272756736
2023-07-14T12:41:45.199Z,user-login,memory,4304896
2023-07-14T12:41:45.335Z,carts-get,memory,303583232
2023-07-14T12:41:45.335Z,carts,memory,306122752
2023-07-14T12:41:45.238Z,shipping,memory,303837184
2023-07-14T12:41:45.238Z,carts-get,memory,312815616
2023-07-14T12:41:45.335Z,carts-get,memory,303886336
2023-07-14T12:41:45.335Z,user-register,memory,5308416
2023-07-14T12:41:45.335Z,catalogue,memory,3751936
2023-07-14T12:41:45.199Z,orders,memory,306397184
2023-07-14T12:41:45.199Z,carts-post,memory,312229888
2023-07-14T12:41:45.199Z,carts-get,memory,310747136
2023-07-14T12:41:45.238Z,carts-get,memory,296296448
2023-07-14T12:41:45.335Z,payment,memory,3403776
2023-07-14T12:41:55.335Z,payment,memory,3416064
2023-07-14T12:41:55.335Z,carts,memory,306122752
2023-07-14T12:41:55.335Z,user-register,memory,5312512
2023-07-14T12:41:55.238Z,carts-get,memory,312455168
2023-07-14T12:41:55.335Z,queue-master,memory,272756736
2023-07-14T12:41:55.335Z,carts-get,memory,303931392
2023-07-14T12:41:55.199Z,user,memory,4419584
2023-07-14T12:41:55.238Z,carts-get,memory,318791680
2023-07-14T12:41:55.238Z,shipping,memory,303878144
2023-07-14T12:41:55.335Z,catalogue,memory,3756032
2023-07-14T12:41:55.199Z,orders,memory,306397184
2023-07-14T12:41:55.199Z,carts-delete,memory,329523200
2023-07-14T12:41:55.199Z,carts-post,memory,312229888
2023-07-14T12:41:55.199Z,carts-get,memory,310747136
2023-07-14T12:41:55.199Z,user-login,memory,4304896
2023-07-14T12:41:55.238Z,carts-get,memory,296067072
2023-07-14T12:41:55.335Z,carts-get,memory,303652864
2023-07-14T12:42:05.238Z,carts-get,memory,312455168
2023-07-14T12:42:05.199Z,carts-post,memory,311902208
2023-07-14T12:42:05.199Z,carts-get,memory,310755328
2023-07-14T12:42:05.238Z,carts-get,memory,318791680
2023-07-14T12:42:05.238Z,shipping,memory,303878144
2023-07-14T12:42:05.199Z,carts-delete,memory,329728000
2023-07-14T12:42:05.238Z,carts-get,memory,296067072
2023-07-14T12:42:05.199Z,user-login,memory,4370432
2023-07-14T12:42:05.199Z,orders,memory,305180672
2023-07-14T12:42:05.199Z,user,memory,4501504
2023-07-14T12:42:05.335Z,carts-get,memory,303579136
2023-07-14T12:42:05.335Z,carts-get,memory,303763456
2023-07-14T12:42:05.335Z,user-register,memory,5312512
2023-07-14T12:42:05.335Z,queue-master,memory,273018880
2023-07-14T12:42:05.335Z,carts,memory,311455744
2023-07-14T12:42:05.335Z,payment,memory,3461120
2023-07-14T12:42:05.335Z,catalogue,memory,3792896
2023-07-14T12:42:15.199Z,carts-post,memory,311930880
2023-07-14T12:42:15.335Z,user-register,memory,5312512
2023-07-14T12:42:15.335Z,carts,memory,311455744
2023-07-14T12:42:15.199Z,carts-delete,memory,329728000
2023-07-14T12:42:15.199Z,user-login,memory,4370432
2023-07-14T12:42:15.335Z,carts-get,memory,303579136
2023-07-14T12:42:15.335Z,payment,memory,3461120
2023-07-14T12:42:15.199Z,user,memory,4501504
2023-07-14T12:42:15.199Z,orders,memory,305291264
2023-07-14T12:42:15.237Z,carts-get,memory,311115776
2023-07-14T12:42:15.335Z,carts-get,memory,303763456
2023-07-14T12:42:15.335Z,queue-master,memory,273018880
2023-07-14T12:42:15.199Z,carts-get,memory,310755328
2023-07-14T12:42:15.237Z,carts-get,memory,318951424
2023-07-14T12:42:15.237Z,carts-get,memory,296062976
2023-07-14T12:42:15.237Z,shipping,memory,303919104
2023-07-14T12:42:15.335Z,catalogue,memory,3792896
2023-07-14T12:42:25.199Z,carts-delete,memory,329879552
2023-07-14T12:42:25.199Z,carts-get,memory,310771712
2023-07-14T12:42:25.199Z,user,memory,4505600
2023-07-14T12:42:25.238Z,carts-get,memory,311140352
2023-07-14T12:42:25.199Z,orders,memory,305291264
2023-07-14T12:42:25.335Z,carts-get,memory,303579136
2023-07-14T12:42:25.335Z,queue-master,memory,273018880
2023-07-14T12:42:25.199Z,carts-post,memory,312029184
2023-07-14T12:42:25.238Z,carts-get,memory,318984192
2023-07-14T12:42:25.335Z,catalogue,memory,3801088
2023-07-14T12:42:25.335Z,user-register,memory,5312512
2023-07-14T12:42:25.335Z,carts-get,memory,303763456
2023-07-14T12:42:25.335Z,carts,memory,311455744
2023-07-14T12:42:25.199Z,user-login,memory,4419584
2023-07-14T12:42:25.238Z,carts-get,memory,296062976
2023-07-14T12:42:25.238Z,shipping,memory,303931392
2023-07-14T12:42:25.335Z,payment,memory,3477504
2023-07-14T12:42:35.198Z,carts-get,memory,310775808
2023-07-14T12:42:35.335Z,queue-master,memory,273027072
2023-07-14T12:42:35.335Z,user-register,memory,5312512
2023-07-14T12:42:35.198Z,carts-delete,memory,329879552
2023-07-14T12:42:35.239Z,carts-get,memory,296144896
2023-07-14T12:42:35.335Z,carts-get,memory,303833088
2023-07-14T12:42:35.335Z,catalogue,memory,3801088
2023-07-14T12:42:35.198Z,user,memory,4689920
2023-07-14T12:42:35.198Z,carts-post,memory,312029184
2023-07-14T12:42:35.239Z,shipping,memory,303931392
2023-07-14T12:42:35.335Z,payment,memory,3477504
2023-07-14T12:42:35.335Z,carts,memory,314568704
2023-07-14T12:42:35.335Z,carts-get,memory,303722496
2023-07-14T12:42:35.198Z,orders,memory,305328128
2023-07-14T12:42:35.198Z,user-login,memory,4435968
2023-07-14T12:42:35.239Z,carts-get,memory,317165568
2023-07-14T12:42:35.239Z,carts-get,memory,311140352
2023-07-14T12:42:45.198Z,user-login,memory,4435968
2023-07-14T12:42:45.198Z,carts-delete,memory,329895936
2023-07-14T12:42:45.238Z,carts-get,memory,317165568
2023-07-14T12:42:45.238Z,carts-get,memory,311140352
2023-07-14T12:42:45.198Z,carts-post,memory,312066048
2023-07-14T12:42:45.198Z,orders,memory,305393664
2023-07-14T12:42:45.238Z,carts-get,memory,296144896
2023-07-14T12:42:45.198Z,user,memory,4689920
2023-07-14T12:42:45.198Z,carts-get,memory,310775808
2023-07-14T12:42:45.238Z,shipping,memory,303931392
2023-07-14T12:42:45.336Z,carts,memory,320307200
2023-07-14T12:42:45.336Z,carts-get,memory,303857664
2023-07-14T12:42:45.336Z,user-register,memory,5316608
2023-07-14T12:42:45.336Z,queue-master,memory,273121280
2023-07-14T12:42:45.336Z,carts-get,memory,303796224
2023-07-14T12:42:45.336Z,payment,memory,3502080
2023-07-14T12:42:45.336Z,catalogue,memory,3842048
2023-07-14T12:42:55.238Z,carts-get,memory,316907520
2023-07-14T12:42:55.238Z,carts-get,memory,296210432
2023-07-14T12:42:55.335Z,user-register,memory,5316608
2023-07-14T12:42:55.335Z,payment,memory,3502080
2023-07-14T12:42:55.335Z,carts,memory,320307200
2023-07-14T12:42:55.199Z,carts-get,memory,310132736
2023-07-14T12:42:55.199Z,user,memory,4562944
2023-07-14T12:42:55.199Z,user-login,memory,4497408
2023-07-14T12:42:55.199Z,carts-post,memory,312270848
2023-07-14T12:42:55.238Z,carts-get,memory,311230464
2023-07-14T12:42:55.199Z,carts-delete,memory,329986048
2023-07-14T12:42:55.199Z,orders,memory,305393664
2023-07-14T12:42:55.238Z,shipping,memory,303767552
2023-07-14T12:42:55.335Z,carts-get,memory,303857664
2023-07-14T12:42:55.335Z,queue-master,memory,273121280
2023-07-14T12:42:55.335Z,carts-get,memory,303796224
2023-07-14T12:42:55.335Z,catalogue,memory,3842048
2023-07-14T12:43:05.238Z,carts-get,memory,316981248
2023-07-14T12:43:05.335Z,carts-get,memory,303915008
2023-07-14T12:43:05.335Z,carts,memory,320307200
2023-07-14T12:43:05.199Z,carts-delete,memory,330006528
2023-07-14T12:43:05.199Z,user-login,memory,4497408
2023-07-14T12:43:05.199Z,carts-get,memory,310132736
2023-07-14T12:43:05.335Z,carts-get,memory,304070656
2023-07-14T12:43:05.199Z,orders,memory,305401856
2023-07-14T12:43:05.199Z,carts-post,memory,312270848
2023-07-14T12:43:05.199Z,user,memory,4640768
2023-07-14T12:43:05.238Z,shipping,memory,303767552
2023-07-14T12:43:05.335Z,queue-master,memory,273158144
2023-07-14T12:43:05.335Z,payment,memory,3514368
2023-07-14T12:43:05.335Z,user-register,memory,5341184
2023-07-14T12:43:05.238Z,carts-get,memory,311545856
2023-07-14T12:43:05.238Z,carts-get,memory,296607744
2023-07-14T12:43:05.335Z,catalogue,memory,3842048
2023-07-14T12:43:15.237Z,shipping,memory,303304704
2023-07-14T12:43:15.237Z,carts-get,memory,314716160
2023-07-14T12:43:15.237Z,carts-get,memory,311545856
2023-07-14T12:43:15.237Z,carts-get,memory,296611840
2023-07-14T12:43:15.199Z,user,memory,4640768
2023-07-14T12:43:15.199Z,user-login,memory,4530176
2023-07-14T12:43:15.199Z,orders,memory,305401856
2023-07-14T12:43:15.199Z,carts-post,memory,312156160
2023-07-14T12:43:15.199Z,carts-get,memory,310136832
2023-07-14T12:43:15.199Z,carts-delete,memory,330014720
2023-07-14T12:43:15.335Z,catalogue,memory,3850240
2023-07-14T12:43:15.335Z,queue-master,memory,272875520
2023-07-14T12:43:15.335Z,carts-get,memory,304054272
2023-07-14T12:43:15.335Z,user-register,memory,5369856
2023-07-14T12:43:15.335Z,carts-get,memory,303841280
2023-07-14T12:43:15.335Z,payment,memory,3522560
2023-07-14T12:43:15.335Z,carts,memory,322625536
2023-07-14T12:43:25.199Z,user,memory,4640768
2023-07-14T12:43:25.335Z,queue-master,memory,272875520
2023-07-14T12:43:25.335Z,carts-get,memory,304054272
2023-07-14T12:43:25.199Z,carts-delete,memory,330014720
2023-07-14T12:43:25.238Z,carts-get,memory,313749504
2023-07-14T12:43:25.335Z,payment,memory,3522560
2023-07-14T12:43:25.335Z,carts,memory,322625536
2023-07-14T12:43:25.335Z,catalogue,memory,3850240
2023-07-14T12:43:25.199Z,user-login,memory,4530176
2023-07-14T12:43:25.199Z,orders,memory,305401856
2023-07-14T12:43:25.199Z,carts-get,memory,310136832
2023-07-14T12:43:25.238Z,carts-get,memory,311590912
2023-07-14T12:43:25.238Z,carts-get,memory,296611840
2023-07-14T12:43:25.335Z,carts-get,memory,303841280
2023-07-14T12:43:25.199Z,carts-post,memory,312156160
2023-07-14T12:43:25.238Z,shipping,memory,303304704
2023-07-14T12:43:25.335Z,user-register,memory,5369856
2023-07-14T12:43:35.198Z,orders,memory,305410048
2023-07-14T12:43:35.335Z,queue-master,memory,272879616
2023-07-14T12:43:35.335Z,carts-get,memory,304074752
2023-07-14T12:43:35.238Z,shipping,memory,303312896
2023-07-14T12:43:35.238Z,carts-get,memory,311590912
2023-07-14T12:43:35.335Z,carts-get,memory,303874048
2023-07-14T12:43:35.238Z,carts-get,memory,313749504
2023-07-14T12:43:35.198Z,carts-get,memory,309747712
2023-07-14T12:43:35.198Z,carts-post,memory,312315904
2023-07-14T12:43:35.198Z,carts-delete,memory,330117120
2023-07-14T12:43:35.198Z,user-login,memory,4608000
2023-07-14T12:43:35.198Z,user,memory,4706304
2023-07-14T12:43:35.335Z,user-register,memory,5398528
2023-07-14T12:43:35.238Z,carts-get,memory,296652800
2023-07-14T12:43:35.335Z,catalogue,memory,3870720
2023-07-14T12:43:35.335Z,payment,memory,3522560
2023-07-14T12:43:35.335Z,carts,memory,322625536
2023-07-14T12:43:45.238Z,carts-get,memory,311672832
2023-07-14T12:43:45.198Z,carts-get,memory,309747712
2023-07-14T12:43:45.198Z,carts-delete,memory,330145792
2023-07-14T12:43:45.198Z,user-login,memory,4608000
2023-07-14T12:43:45.198Z,orders,memory,305487872
2023-07-14T12:43:45.198Z,carts-post,memory,312315904
2023-07-14T12:43:45.198Z,user,memory,4755456
2023-07-14T12:43:45.238Z,carts-get,memory,296681472
2023-07-14T12:43:45.238Z,carts-get,memory,313786368
2023-07-14T12:43:45.238Z,shipping,memory,303312896
2023-07-14T12:43:45.335Z,carts-get,memory,304128000
2023-07-14T12:43:45.335Z,queue-master,memory,272916480
2023-07-14T12:43:45.335Z,carts-get,memory,303988736
2023-07-14T12:43:45.335Z,catalogue,memory,3907584
2023-07-14T12:43:45.335Z,payment,memory,3571712
2023-07-14T12:43:45.335Z,carts,memory,325005312
2023-07-14T12:43:45.335Z,user-register,memory,5406720
2023-07-14T12:43:55.335Z,queue-master,memory,272916480
2023-07-14T12:43:55.238Z,carts-get,memory,311672832
2023-07-14T12:43:55.335Z,catalogue,memory,3907584
2023-07-14T12:43:55.335Z,carts,memory,325005312
2023-07-14T12:43:55.238Z,shipping,memory,303312896
2023-07-14T12:43:55.335Z,carts-get,memory,304128000
2023-07-14T12:43:55.198Z,carts-delete,memory,330145792
2023-07-14T12:43:55.198Z,carts-post,memory,310927360
2023-07-14T12:43:55.198Z,user,memory,4780032
2023-07-14T12:43:55.198Z,user-login,memory,4636672
2023-07-14T12:43:55.198Z,carts-get,memory,307093504
2023-07-14T12:43:55.198Z,orders,memory,305487872
2023-07-14T12:43:55.238Z,carts-get,memory,296681472
2023-07-14T12:43:55.238Z,carts-get,memory,313786368
2023-07-14T12:43:55.335Z,carts-get,memory,303988736
2023-07-14T12:43:55.335Z,payment,memory,3571712
2023-07-14T12:43:55.335Z,user-register,memory,5406720
2023-07-14T12:44:05.199Z,user,memory,4780032
2023-07-14T12:44:05.239Z,carts-get,memory,311246848
2023-07-14T12:44:05.239Z,carts-get,memory,295743488
2023-07-14T12:44:05.335Z,user-register,memory,5443584
2023-07-14T12:44:05.239Z,carts-get,memory,312778752
2023-07-14T12:44:05.239Z,shipping,memory,303325184
2023-07-14T12:44:05.335Z,queue-master,memory,273240064
2023-07-14T12:44:05.335Z,carts-get,memory,304406528
2023-07-14T12:44:05.199Z,user-login,memory,4636672
2023-07-14T12:44:05.199Z,carts-post,memory,310960128
2023-07-14T12:44:05.335Z,carts,memory,325005312
2023-07-14T12:44:05.199Z,carts-get,memory,307118080
2023-07-14T12:44:05.199Z,carts-delete,memory,330199040
2023-07-14T12:44:05.199Z,orders,memory,305516544
2023-07-14T12:44:05.335Z,payment,memory,3579904
2023-07-14T12:44:05.335Z,carts-get,memory,303939584
2023-07-14T12:44:05.335Z,catalogue,memory,3915776
2023-07-14T12:44:15.238Z,carts-get,memory,295792640
2023-07-14T12:44:15.335Z,payment,memory,3592192
2023-07-14T12:44:15.335Z,catalogue,memory,3915776
2023-07-14T12:44:15.335Z,carts,memory,325189632
2023-07-14T12:44:15.198Z,carts-get,memory,307118080
2023-07-14T12:44:15.198Z,user-login,memory,4636672
2023-07-14T12:44:15.198Z,carts-delete,memory,330199040
2023-07-14T12:44:15.198Z,orders,memory,305516544
2023-07-14T12:44:15.198Z,carts-post,memory,310960128
2023-07-14T12:44:15.198Z,user,memory,4780032
2023-07-14T12:44:15.238Z,shipping,memory,301346816
2023-07-14T12:44:15.335Z,carts-get,memory,303767552
2023-07-14T12:44:15.335Z,carts-get,memory,303996928
2023-07-14T12:44:15.335Z,queue-master,memory,273268736
2023-07-14T12:44:15.238Z,carts-get,memory,312778752
2023-07-14T12:44:15.238Z,carts-get,memory,311246848
2023-07-14T12:44:15.335Z,user-register,memory,5455872
2023-07-14T12:44:25.238Z,carts-get,memory,310595584
2023-07-14T12:44:25.238Z,carts-get,memory,311283712
2023-07-14T12:44:25.199Z,user-login,memory,4714496
2023-07-14T12:44:25.238Z,carts-get,memory,295821312
2023-07-14T12:44:25.199Z,carts-get,memory,307236864
2023-07-14T12:44:25.199Z,carts-delete,memory,330321920
2023-07-14T12:44:25.238Z,shipping,memory,301346816
2023-07-14T12:44:25.199Z,orders,memory,305803264
2023-07-14T12:44:25.199Z,carts-post,memory,310128640
2023-07-14T12:44:25.199Z,user,memory,4792320
2023-07-14T12:44:25.335Z,carts-get,memory,303996928
2023-07-14T12:44:25.335Z,payment,memory,3600384
2023-07-14T12:44:25.335Z,carts-get,memory,303767552
2023-07-14T12:44:25.335Z,queue-master,memory,273326080
2023-07-14T12:44:25.335Z,user-register,memory,5505024
2023-07-14T12:44:25.335Z,catalogue,memory,3948544
2023-07-14T12:44:25.335Z,carts,memory,325189632
2023-07-14T12:44:35.335Z,payment,memory,3600384
2023-07-14T12:44:35.335Z,user-register,memory,5505024
2023-07-14T12:44:35.198Z,carts-post,memory,310132736
2023-07-14T12:44:35.198Z,user-login,memory,4751360
2023-07-14T12:44:35.238Z,carts-get,memory,310607872
2023-07-14T12:44:35.238Z,carts-get,memory,295821312
2023-07-14T12:44:35.335Z,carts-get,memory,303767552
2023-07-14T12:44:35.198Z,carts-get,memory,307236864
2023-07-14T12:44:35.198Z,carts-delete,memory,330342400
2023-07-14T12:44:35.238Z,shipping,memory,301367296
2023-07-14T12:44:35.335Z,queue-master,memory,273326080
2023-07-14T12:44:35.335Z,catalogue,memory,3948544
2023-07-14T12:44:35.335Z,carts,memory,325189632
2023-07-14T12:44:35.198Z,user,memory,4849664
2023-07-14T12:44:35.198Z,orders,memory,308011008
2023-07-14T12:44:35.238Z,carts-get,memory,311291904
2023-07-14T12:44:35.335Z,carts-get,memory,303996928
2023-07-14T12:44:45.198Z,carts-post,memory,310140928
2023-07-14T12:44:45.198Z,carts-delete,memory,330371072
2023-07-14T12:44:45.198Z,carts-get,memory,307269632
2023-07-14T12:44:45.238Z,carts-get,memory,295841792
2023-07-14T12:44:45.335Z,queue-master,memory,273326080
2023-07-14T12:44:45.335Z,carts-get,memory,303771648
2023-07-14T12:44:45.198Z,user-login,memory,4751360
2023-07-14T12:44:45.238Z,carts-get,memory,311291904
2023-07-14T12:44:45.238Z,carts-get,memory,310607872
2023-07-14T12:44:45.335Z,catalogue,memory,3948544
2023-07-14T12:44:45.335Z,payment,memory,3620864
2023-07-14T12:44:45.335Z,carts-get,memory,303869952
2023-07-14T12:44:45.198Z,orders,memory,311218176
2023-07-14T12:44:45.198Z,user,memory,4866048
2023-07-14T12:44:45.238Z,shipping,memory,301453312
2023-07-14T12:44:45.335Z,user-register,memory,5505024
2023-07-14T12:44:45.335Z,carts,memory,325246976
2023-07-14T12:44:55.335Z,carts,memory,325279744
2023-07-14T12:44:55.237Z,shipping,memory,301453312
2023-07-14T12:44:55.335Z,user-register,memory,5537792
2023-07-14T12:44:55.335Z,catalogue,memory,3973120
2023-07-14T12:44:55.237Z,carts-get,memory,311291904
2023-07-14T12:44:55.237Z,carts-get,memory,310607872
2023-07-14T12:44:55.335Z,payment,memory,3620864
2023-07-14T12:44:55.199Z,carts-post,memory,310140928
2023-07-14T12:44:55.199Z,user,memory,4866048
2023-07-14T12:44:55.199Z,carts-get,memory,307269632
2023-07-14T12:44:55.199Z,carts-delete,memory,330371072
2023-07-14T12:44:55.199Z,user-login,memory,4820992
2023-07-14T12:44:55.199Z,orders,memory,311218176
2023-07-14T12:44:55.237Z,carts-get,memory,295841792
2023-07-14T12:44:55.335Z,carts-get,memory,303915008
2023-07-14T12:44:55.335Z,queue-master,memory,273350656
2023-07-14T12:44:55.335Z,carts-get,memory,303771648
2023-07-14T12:45:05.237Z,shipping,memory,301465600
2023-07-14T12:45:05.335Z,catalogue,memory,3981312
2023-07-14T12:45:05.335Z,carts-get,memory,303779840
2023-07-14T12:45:05.335Z,carts,memory,325304320
2023-07-14T12:45:05.237Z,carts-get,memory,310247424
2023-07-14T12:45:05.335Z,queue-master,memory,272883712
2023-07-14T12:45:05.237Z,carts-get,memory,295870464
2023-07-14T12:45:05.335Z,carts-get,memory,303935488
2023-07-14T12:45:05.335Z,payment,memory,3661824
2023-07-14T12:45:05.198Z,carts-post,memory,310140928
2023-07-14T12:45:05.198Z,user,memory,4866048
2023-07-14T12:45:05.198Z,carts-get,memory,307269632
2023-07-14T12:45:05.198Z,carts-delete,memory,330371072
2023-07-14T12:45:05.198Z,user-login,memory,4820992
2023-07-14T12:45:05.198Z,orders,memory,311218176
2023-07-14T12:45:05.237Z,carts-get,memory,311300096
2023-07-14T12:45:05.335Z,user-register,memory,5562368
2023-07-14T12:45:15.199Z,user-login,memory,4841472
2023-07-14T12:45:15.199Z,orders,memory,320696320
2023-07-14T12:45:15.238Z,shipping,memory,301121536
2023-07-14T12:45:15.238Z,carts-get,memory,295895040
2023-07-14T12:45:15.199Z,carts-get,memory,307322880
2023-07-14T12:45:15.199Z,carts-post,memory,309805056
2023-07-14T12:45:15.238Z,carts-get,memory,311369728
2023-07-14T12:45:15.238Z,carts-get,memory,310386688
2023-07-14T12:45:15.199Z,user,memory,4939776
2023-07-14T12:45:15.199Z,carts-delete,memory,330461184
2023-07-14T12:45:15.335Z,carts,memory,325324800
2023-07-14T12:45:15.335Z,carts-get,memory,303996928
2023-07-14T12:45:15.335Z,queue-master,memory,272973824
2023-07-14T12:45:15.335Z,carts-get,memory,303796224
2023-07-14T12:45:15.335Z,catalogue,memory,3985408
2023-07-14T12:45:15.335Z,user-register,memory,5591040
2023-07-14T12:45:15.335Z,payment,memory,3678208
2023-07-14T12:45:25.198Z,user,memory,4964352
2023-07-14T12:45:25.198Z,carts-delete,memory,330522624
2023-07-14T12:45:25.198Z,carts-get,memory,307322880
2023-07-14T12:45:25.198Z,carts-post,memory,309805056
2023-07-14T12:45:25.198Z,user-login,memory,4857856
2023-07-14T12:45:25.198Z,orders,memory,321171456
2023-07-14T12:45:25.237Z,carts-get,memory,311369728
2023-07-14T12:45:25.237Z,carts-get,memory,310386688
2023-07-14T12:45:25.237Z,shipping,memory,301121536
2023-07-14T12:45:25.237Z,carts-get,memory,295895040
2023-07-14T12:45:25.336Z,carts,memory,325353472
2023-07-14T12:45:25.336Z,payment,memory,3690496
2023-07-14T12:45:25.336Z,carts-get,memory,303996928
2023-07-14T12:45:25.336Z,carts-get,memory,303796224
2023-07-14T12:45:25.336Z,catalogue,memory,3993600
2023-07-14T12:45:25.336Z,user-register,memory,5591040
2023-07-14T12:45:25.336Z,queue-master,memory,273633280
2023-07-14T12:45:35.238Z,carts-get,memory,311414784
2023-07-14T12:45:35.336Z,payment,memory,3715072
2023-07-14T12:45:35.336Z,queue-master,memory,273633280
2023-07-14T12:45:35.238Z,carts-get,memory,295907328
2023-07-14T12:45:35.199Z,carts-delete,memory,330522624
2023-07-14T12:45:35.199Z,user-login,memory,4894720
2023-07-14T12:45:35.199Z,carts-post,memory,309891072
2023-07-14T12:45:35.199Z,user,memory,5005312
2023-07-14T12:45:35.199Z,orders,memory,321171456
2023-07-14T12:45:35.199Z,carts-get,memory,307425280
2023-07-14T12:45:35.238Z,shipping,memory,301162496
2023-07-14T12:45:35.336Z,catalogue,memory,3993600
2023-07-14T12:45:35.336Z,carts,memory,325353472
2023-07-14T12:45:35.238Z,carts-get,memory,310427648
2023-07-14T12:45:35.336Z,user-register,memory,5648384
2023-07-14T12:45:35.336Z,carts-get,memory,304001024
2023-07-14T12:45:35.336Z,carts-get,memory,303812608
2023-07-14T12:45:45.335Z,queue-master,memory,273633280
2023-07-14T12:45:45.335Z,carts-get,memory,303812608
2023-07-14T12:45:45.238Z,carts-get,memory,311869440
2023-07-14T12:45:45.335Z,user-register,memory,5648384
2023-07-14T12:45:45.335Z,carts,memory,325353472
2023-07-14T12:45:45.238Z,carts-get,memory,296284160
2023-07-14T12:45:45.335Z,payment,memory,3715072
2023-07-14T12:45:45.335Z,carts-get,memory,304001024
2023-07-14T12:45:45.198Z,carts-delete,memory,330522624
2023-07-14T12:45:45.198Z,user-login,memory,4894720
2023-07-14T12:45:45.198Z,carts-post,memory,309891072
2023-07-14T12:45:45.198Z,user,memory,5005312
2023-07-14T12:45:45.198Z,orders,memory,321171456
2023-07-14T12:45:45.198Z,carts-get,memory,307425280
2023-07-14T12:45:45.238Z,carts-get,memory,310472704
2023-07-14T12:45:45.238Z,shipping,memory,301187072
2023-07-14T12:45:45.335Z,catalogue,memory,3993600
2023-07-14T12:45:55.237Z,carts-get,memory,296284160
2023-07-14T12:45:55.237Z,carts-get,memory,310472704
2023-07-14T12:45:55.335Z,carts-get,memory,304013312
2023-07-14T12:45:55.199Z,user,memory,5025792
2023-07-14T12:45:55.335Z,catalogue,memory,4038656
2023-07-14T12:45:55.199Z,carts-get,memory,307458048
2023-07-14T12:45:55.237Z,shipping,memory,301187072
2023-07-14T12:45:55.237Z,carts-get,memory,311869440
2023-07-14T12:45:55.199Z,carts-post,memory,309891072
2023-07-14T12:45:55.199Z,carts-delete,memory,330846208
2023-07-14T12:45:55.199Z,orders,memory,327254016
2023-07-14T12:45:55.199Z,user-login,memory,4927488
2023-07-14T12:45:55.335Z,user-register,memory,5672960
2023-07-14T12:45:55.335Z,carts,memory,325373952
2023-07-14T12:45:55.335Z,queue-master,memory,275460096
2023-07-14T12:45:55.335Z,carts-get,memory,304357376
2023-07-14T12:45:55.335Z,payment,memory,3715072
2023-07-14T12:46:05.198Z,user,memory,5087232
2023-07-14T12:46:05.198Z,carts-delete,memory,330850304
2023-07-14T12:46:05.335Z,carts-get,memory,304021504
2023-07-14T12:46:05.198Z,user-login,memory,4968448
2023-07-14T12:46:05.198Z,carts-get,memory,307519488
2023-07-14T12:46:05.238Z,carts-get,memory,310202368
2023-07-14T12:46:05.238Z,carts-get,memory,296148992
2023-07-14T12:46:05.335Z,catalogue,memory,4046848
2023-07-14T12:46:05.335Z,queue-master,memory,282652672
2023-07-14T12:46:05.198Z,orders,memory,327254016
2023-07-14T12:46:05.198Z,carts-post,memory,310009856
2023-07-14T12:46:05.335Z,carts-get,memory,304357376
2023-07-14T12:46:05.335Z,carts,memory,325373952
2023-07-14T12:46:05.335Z,payment,memory,3727360
2023-07-14T12:46:05.238Z,carts-get,memory,311885824
2023-07-14T12:46:05.238Z,shipping,memory,301305856
2023-07-14T12:46:05.335Z,user-register,memory,5672960
2023-07-14T12:46:15.238Z,carts-get,memory,296165376
2023-07-14T12:46:15.199Z,orders,memory,327532544
2023-07-14T12:46:15.199Z,user-login,memory,4976640
2023-07-14T12:46:15.199Z,carts-post,memory,310009856
2023-07-14T12:46:15.238Z,shipping,memory,301305856
2023-07-14T12:46:15.238Z,carts-get,memory,310202368
2023-07-14T12:46:15.238Z,carts-get,memory,311939072
2023-07-14T12:46:15.199Z,carts-delete,memory,330895360
2023-07-14T12:46:15.199Z,carts-get,memory,307519488
2023-07-14T12:46:15.199Z,user,memory,5087232
2023-07-14T12:46:15.335Z,payment,memory,3731456
2023-07-14T12:46:15.335Z,queue-master,memory,283123712
2023-07-14T12:46:15.335Z,carts-get,memory,304373760
2023-07-14T12:46:15.335Z,carts,memory,325566464
2023-07-14T12:46:15.335Z,carts-get,memory,304033792
2023-07-14T12:46:15.335Z,user-register,memory,5746688
2023-07-14T12:46:15.335Z,catalogue,memory,4063232
2023-07-14T12:46:25.237Z,carts-get,memory,296165376
2023-07-14T12:46:25.198Z,orders,memory,327540736
2023-07-14T12:46:25.198Z,carts-post,memory,309747712
2023-07-14T12:46:25.198Z,carts-get,memory,307544064
2023-07-14T12:46:25.198Z,carts-delete,memory,330895360
2023-07-14T12:46:25.198Z,user,memory,5107712
2023-07-14T12:46:25.198Z,user-login,memory,4976640
2023-07-14T12:46:25.237Z,shipping,memory,301305856
2023-07-14T12:46:25.237Z,carts-get,memory,310202368
2023-07-14T12:46:25.237Z,carts-get,memory,311939072
2023-07-14T12:46:25.335Z,catalogue,memory,4063232
2023-07-14T12:46:25.335Z,carts,memory,325566464
2023-07-14T12:46:25.335Z,payment,memory,3756032
2023-07-14T12:46:25.335Z,user-register,memory,5746688
2023-07-14T12:46:25.335Z,queue-master,memory,283115520
2023-07-14T12:46:25.335Z,carts-get,memory,303939584
2023-07-14T12:46:25.335Z,carts-get,memory,304046080
2023-07-14T12:46:35.238Z,carts-get,memory,310214656
2023-07-14T12:46:35.335Z,carts-get,memory,304046080
2023-07-14T12:46:35.199Z,carts-get,memory,307671040
2023-07-14T12:46:35.238Z,shipping,memory,301301760
2023-07-14T12:46:35.335Z,catalogue,memory,4063232
2023-07-14T12:46:35.335Z,payment,memory,3756032
2023-07-14T12:46:35.335Z,queue-master,memory,283115520
2023-07-14T12:46:35.199Z,user,memory,5140480
2023-07-14T12:46:35.199Z,carts-delete,memory,331071488
2023-07-14T12:46:35.199Z,user-login,memory,5029888
2023-07-14T12:46:35.238Z,carts-get,memory,296345600
2023-07-14T12:46:35.335Z,user-register,memory,5746688
2023-07-14T12:46:35.199Z,orders,memory,327352320
2023-07-14T12:46:35.199Z,carts-post,memory,309796864
2023-07-14T12:46:35.238Z,carts-get,memory,312070144
2023-07-14T12:46:35.335Z,carts,memory,325566464
2023-07-14T12:46:35.335Z,carts-get,memory,303939584
2023-07-14T12:46:45.335Z,queue-master,memory,283115520
2023-07-14T12:46:45.335Z,carts,memory,325632000
2023-07-14T12:46:45.335Z,carts-get,memory,304173056
2023-07-14T12:46:45.335Z,catalogue,memory,4071424
2023-07-14T12:46:45.237Z,shipping,memory,301486080
2023-07-14T12:46:45.237Z,carts-get,memory,310218752
2023-07-14T12:46:45.335Z,carts-get,memory,303939584
2023-07-14T12:46:45.335Z,user-register,memory,5783552
2023-07-14T12:46:45.199Z,carts-get,memory,307671040
2023-07-14T12:46:45.199Z,user,memory,5140480
2023-07-14T12:46:45.199Z,orders,memory,327352320
2023-07-14T12:46:45.199Z,carts-delete,memory,331071488
2023-07-14T12:46:45.199Z,carts-post,memory,309796864
2023-07-14T12:46:45.199Z,user-login,memory,5029888
2023-07-14T12:46:45.237Z,carts-get,memory,296648704
2023-07-14T12:46:45.237Z,carts-get,memory,312070144
2023-07-14T12:46:45.335Z,payment,memory,3768320
2023-07-14T12:46:55.237Z,carts-get,memory,312078336
2023-07-14T12:46:55.237Z,shipping,memory,301506560
2023-07-14T12:46:55.199Z,user-login,memory,5054464
2023-07-14T12:46:55.199Z,orders,memory,331624448
2023-07-14T12:46:55.199Z,carts-delete,memory,331083776
2023-07-14T12:46:55.237Z,carts-get,memory,310235136
2023-07-14T12:46:55.237Z,carts-get,memory,296648704
2023-07-14T12:46:55.199Z,carts-post,memory,307920896
2023-07-14T12:46:55.199Z,carts-get,memory,307400704
2023-07-14T12:46:55.199Z,user,memory,5193728
2023-07-14T12:46:55.335Z,queue-master,memory,290181120
2023-07-14T12:46:55.335Z,carts-get,memory,304410624
2023-07-14T12:46:55.335Z,catalogue,memory,4096000
2023-07-14T12:46:55.335Z,carts,memory,325971968
2023-07-14T12:46:55.335Z,carts-get,memory,304152576
2023-07-14T12:46:55.335Z,user-register,memory,5795840
2023-07-14T12:46:55.335Z,payment,memory,3805184
2023-07-14T12:47:05.335Z,catalogue,memory,4096000
2023-07-14T12:47:05.335Z,payment,memory,3805184
2023-07-14T12:47:05.238Z,carts-get,memory,296652800
2023-07-14T12:47:05.335Z,user-register,memory,5795840
2023-07-14T12:47:05.335Z,carts-get,memory,304152576
2023-07-14T12:47:05.238Z,carts-get,memory,312094720
2023-07-14T12:47:05.238Z,shipping,memory,301506560
2023-07-14T12:47:05.238Z,carts-get,memory,310394880
2023-07-14T12:47:05.335Z,carts,memory,325971968
2023-07-14T12:47:05.335Z,carts-get,memory,304410624
2023-07-14T12:47:05.199Z,user-login,memory,5103616
2023-07-14T12:47:05.199Z,carts-post,memory,307924992
2023-07-14T12:47:05.199Z,carts-delete,memory,331370496
2023-07-14T12:47:05.199Z,orders,memory,330080256
2023-07-14T12:47:05.199Z,user,memory,5210112
2023-07-14T12:47:05.199Z,carts-get,memory,307400704
2023-07-14T12:47:05.335Z,queue-master,memory,290181120
