2023-07-20T12:57:46.414Z,checkoutservice,network_in,491554531
2023-07-20T12:57:48.186Z,adservice,network_in,533466510
2023-07-20T12:57:48.565Z,probe-holder,network_in,210002759
2023-07-20T12:57:46.924Z,emailservice,network_in,308670509
2023-07-20T12:57:49.064Z,currencyservice,network_in,306806902
2023-07-20T12:57:50.849Z,recommendationservice-1,network_in,308663971
2023-07-20T12:57:44.900Z,shippingservice,network_in,489598169
2023-07-20T12:57:50.063Z,cartservice,network_in,444070962
2023-07-20T12:57:51.650Z,productcatalogservice,network_in,490817608
2023-07-20T12:57:52.633Z,paymentservice,network_in,305565116
2023-07-20T12:57:54.901Z,shippingservice,network_in,489607037
2023-07-20T12:57:56.415Z,checkoutservice,network_in,491564021
2023-07-20T12:57:56.924Z,emailservice,network_in,308675674
2023-07-20T12:57:58.186Z,adservice,network_in,533474921
2023-07-20T12:57:58.565Z,probe-holder,network_in,210049024
2023-07-20T12:57:59.065Z,currencyservice,network_in,306815543
2023-07-20T12:58:00.849Z,recommendationservice-1,network_in,308673122
2023-07-20T12:58:00.063Z,cartservice,network_in,444080134
2023-07-20T12:58:01.650Z,productcatalogservice,network_in,490826653
2023-07-20T12:58:02.634Z,paymentservice,network_in,305573044
2023-07-20T12:58:04.901Z,shippingservice,network_in,489616079
2023-07-20T12:58:06.415Z,checkoutservice,network_in,491569349
2023-07-20T12:58:06.924Z,emailservice,network_in,308684096
2023-07-20T12:58:08.186Z,adservice,network_in,533479281
2023-07-20T12:58:08.565Z,probe-holder,network_in,210095522
2023-07-20T12:58:09.065Z,currencyservice,network_in,306819959
2023-07-20T12:58:10.849Z,recommendationservice-1,network_in,308678384
2023-07-20T12:58:10.063Z,cartservice,network_in,444089023
2023-07-20T12:58:11.650Z,productcatalogservice,network_in,490836457
2023-07-20T12:58:12.633Z,paymentservice,network_in,305580972
2023-07-20T12:58:14.900Z,shippingservice,network_in,489621021
2023-07-20T12:58:16.415Z,checkoutservice,network_in,491583209
2023-07-20T12:58:16.925Z,emailservice,network_in,308692516
2023-07-20T12:58:18.186Z,adservice,network_in,533492059
2023-07-20T12:58:18.565Z,probe-holder,network_in,210137898
2023-07-20T12:58:19.065Z,currencyservice,network_in,306832755
2023-07-20T12:58:20.849Z,recommendationservice-1,network_in,308687385
2023-07-20T12:58:20.063Z,cartservice,network_in,444094264
2023-07-20T12:58:21.650Z,productcatalogservice,network_in,490845077
2023-07-20T12:58:22.633Z,paymentservice,network_in,305585230
2023-07-20T12:58:24.901Z,shippingservice,network_in,489634494
2023-07-20T12:58:26.415Z,checkoutservice,network_in,491592125
2023-07-20T12:58:26.924Z,emailservice,network_in,308697702
2023-07-20T12:58:28.186Z,adservice,network_in,533500542
2023-07-20T12:58:28.565Z,probe-holder,network_in,210189002
2023-07-20T12:58:29.065Z,currencyservice,network_in,306840762
2023-07-20T12:58:30.849Z,recommendationservice-1,network_in,308696815
2023-07-20T12:58:30.063Z,cartservice,network_in,444103573
2023-07-20T12:58:31.650Z,productcatalogservice,network_in,490853698
2023-07-20T12:58:32.633Z,paymentservice,network_in,305593580
2023-07-20T12:58:34.901Z,shippingservice,network_in,489643106
2023-07-20T12:58:36.415Z,checkoutservice,network_in,491597457
2023-07-20T12:58:36.924Z,emailservice,network_in,308706119
2023-07-20T12:58:38.186Z,adservice,network_in,533504902
2023-07-20T12:58:38.565Z,probe-holder,network_in,210235176
2023-07-20T12:58:39.065Z,currencyservice,network_in,306845092
2023-07-20T12:58:40.849Z,recommendationservice-1,network_in,308702074
2023-07-20T12:58:40.063Z,cartservice,network_in,444117284
2023-07-20T12:58:41.650Z,productcatalogservice,network_in,490858598
2023-07-20T12:58:42.633Z,paymentservice,network_in,305606358
2023-07-20T12:58:44.901Z,shippingservice,network_in,489648309
2023-07-20T12:58:46.415Z,checkoutservice,network_in,491606721
2023-07-20T12:58:46.924Z,emailservice,network_in,308719631
2023-07-20T12:58:48.186Z,adservice,network_in,533513131
2023-07-20T12:58:48.565Z,probe-holder,network_in,210278004
2023-07-20T12:58:49.065Z,currencyservice,network_in,306853325
2023-07-20T12:58:50.849Z,recommendationservice-1,network_in,308716268
2023-07-20T12:58:50.063Z,cartservice,network_in,444122785
2023-07-20T12:58:51.650Z,productcatalogservice,network_in,490867476
2023-07-20T12:58:52.633Z,paymentservice,network_in,305610866
2023-07-20T12:58:54.901Z,shippingservice,network_in,489656925
2023-07-20T12:58:56.415Z,checkoutservice,network_in,491616066
2023-07-20T12:58:56.924Z,emailservice,network_in,308724398
2023-07-20T12:58:58.186Z,adservice,network_in,533521126
2023-07-20T12:58:58.565Z,probe-holder,network_in,210323896
2023-07-20T12:58:59.065Z,currencyservice,network_in,306861754
2023-07-20T12:59:00.849Z,recommendationservice-1,network_in,308725271
2023-07-20T12:59:00.063Z,cartservice,network_in,444131675
2023-07-20T12:59:01.650Z,productcatalogservice,network_in,490878673
2023-07-20T12:59:02.633Z,paymentservice,network_in,305618794
2023-07-20T12:59:04.900Z,shippingservice,network_in,489665965
2023-07-20T12:59:06.415Z,checkoutservice,network_in,491621393
2023-07-20T12:59:06.925Z,emailservice,network_in,308732820
2023-07-20T12:59:08.186Z,adservice,network_in,533525486
2023-07-20T12:59:08.565Z,probe-holder,network_in,210370305
2023-07-20T12:59:09.065Z,currencyservice,network_in,306866084
2023-07-20T12:59:10.849Z,recommendationservice-1,network_in,308730534
2023-07-20T12:59:10.063Z,cartservice,network_in,444140565
2023-07-20T12:59:11.650Z,productcatalogservice,network_in,490888477
2023-07-20T12:59:12.633Z,paymentservice,network_in,305626722
2023-07-20T12:59:14.901Z,shippingservice,network_in,489670902
2023-07-20T12:59:16.415Z,checkoutservice,network_in,491635252
2023-07-20T12:59:16.924Z,emailservice,network_in,308741242
2023-07-20T12:59:18.186Z,adservice,network_in,533538264
2023-07-20T12:59:18.565Z,probe-holder,network_in,210412790
2023-07-20T12:59:19.065Z,currencyservice,network_in,306878880
2023-07-20T12:59:20.849Z,recommendationservice-1,network_in,308739541
2023-07-20T12:59:20.063Z,cartservice,network_in,444145808
2023-07-20T12:59:21.650Z,productcatalogservice,network_in,490897100
2023-07-20T12:59:22.634Z,paymentservice,network_in,305630980
2023-07-20T12:59:24.901Z,shippingservice,network_in,489684375
2023-07-20T12:59:26.415Z,checkoutservice,network_in,491644166
2023-07-20T12:59:26.924Z,emailservice,network_in,308746431
2023-07-20T12:59:28.186Z,adservice,network_in,533546681
2023-07-20T12:59:28.565Z,probe-holder,network_in,210463700
2023-07-20T12:59:29.065Z,currencyservice,network_in,306886887
2023-07-20T12:59:30.849Z,recommendationservice-1,network_in,308748967
2023-07-20T12:59:30.063Z,cartservice,network_in,444155124
2023-07-20T12:59:31.650Z,productcatalogservice,network_in,490905722
2023-07-20T12:59:32.633Z,paymentservice,network_in,305639330
2023-07-20T12:59:34.900Z,shippingservice,network_in,489692997
2023-07-20T12:59:36.415Z,checkoutservice,network_in,491649496
2023-07-20T12:59:36.924Z,emailservice,network_in,308754858
2023-07-20T12:59:38.186Z,adservice,network_in,533551041
2023-07-20T12:59:38.565Z,probe-holder,network_in,210506046
2023-07-20T12:59:39.065Z,currencyservice,network_in,306891217
2023-07-20T12:59:40.849Z,recommendationservice-1,network_in,308754232
2023-07-20T12:59:40.063Z,cartservice,network_in,444168905
2023-07-20T12:59:41.650Z,productcatalogservice,network_in,490910625
2023-07-20T12:59:42.634Z,paymentservice,network_in,305652108
2023-07-20T12:59:44.900Z,shippingservice,network_in,489697934
2023-07-20T12:59:46.416Z,checkoutservice,network_in,491658500
2023-07-20T12:59:46.924Z,emailservice,network_in,308768113
2023-07-20T12:59:48.186Z,adservice,network_in,533559012
2023-07-20T12:59:48.565Z,probe-holder,network_in,210551945
2023-07-20T12:59:49.065Z,currencyservice,network_in,306899200
2023-07-20T12:59:50.849Z,recommendationservice-1,network_in,308768168
2023-07-20T12:59:50.063Z,cartservice,network_in,444174146
2023-07-20T12:59:51.650Z,productcatalogservice,network_in,490919245
2023-07-20T12:59:52.634Z,paymentservice,network_in,305656366
2023-07-20T12:59:54.901Z,shippingservice,network_in,489706558
2023-07-20T12:59:56.417Z,checkoutservice,network_in,491667832
2023-07-20T12:59:56.924Z,emailservice,network_in,308772878
2023-07-20T12:59:58.186Z,adservice,network_in,533567007
2023-07-20T12:59:58.565Z,probe-holder,network_in,210597682
2023-07-20T12:59:59.065Z,currencyservice,network_in,306907629
2023-07-20T13:00:00.849Z,recommendationservice-1,network_in,308777173
2023-07-20T13:00:00.063Z,cartservice,network_in,444183033
2023-07-20T13:00:01.650Z,productcatalogservice,network_in,490928371
2023-07-20T13:00:02.634Z,paymentservice,network_in,305664294
2023-07-20T13:00:04.900Z,shippingservice,network_in,489715592
2023-07-20T13:00:06.418Z,checkoutservice,network_in,491673156
2023-07-20T13:00:06.925Z,emailservice,network_in,308781297
2023-07-20T13:00:08.186Z,adservice,network_in,533571367
2023-07-20T13:00:08.565Z,probe-holder,network_in,210640171
2023-07-20T13:00:09.065Z,currencyservice,network_in,306911959
2023-07-20T13:00:10.849Z,recommendationservice-1,network_in,308782434
2023-07-20T13:00:10.063Z,cartservice,network_in,444191920
2023-07-20T13:00:11.650Z,productcatalogservice,network_in,490938174
2023-07-20T13:00:12.634Z,paymentservice,network_in,305672222
2023-07-20T13:00:14.901Z,shippingservice,network_in,489720531
2023-07-20T13:00:16.415Z,checkoutservice,network_in,491687015
2023-07-20T13:00:16.925Z,emailservice,network_in,308789717
2023-07-20T13:00:18.186Z,adservice,network_in,533584145
2023-07-20T13:00:18.565Z,probe-holder,network_in,210686399
2023-07-20T13:00:19.065Z,currencyservice,network_in,306924875
2023-07-20T13:00:20.849Z,recommendationservice-1,network_in,308791438
2023-07-20T13:00:20.063Z,cartservice,network_in,444197166
2023-07-20T13:00:21.650Z,productcatalogservice,network_in,490946796
2023-07-20T13:00:22.634Z,paymentservice,network_in,305676566
2023-07-20T13:00:24.900Z,shippingservice,network_in,489734088
2023-07-20T13:00:26.415Z,checkoutservice,network_in,491695931
2023-07-20T13:00:26.925Z,emailservice,network_in,308794909
2023-07-20T13:00:28.186Z,adservice,network_in,533592562
2023-07-20T13:00:28.565Z,probe-holder,network_in,210737318
2023-07-20T13:00:29.065Z,currencyservice,network_in,306932882
2023-07-20T13:00:30.849Z,recommendationservice-1,network_in,308800869
2023-07-20T13:00:30.063Z,cartservice,network_in,444206479
2023-07-20T13:00:31.650Z,productcatalogservice,network_in,490955417
2023-07-20T13:00:32.634Z,paymentservice,network_in,305684916
2023-07-20T13:00:34.901Z,shippingservice,network_in,489742701
2023-07-20T13:00:36.415Z,checkoutservice,network_in,491701260
2023-07-20T13:00:36.924Z,emailservice,network_in,308803332
2023-07-20T13:00:38.186Z,adservice,network_in,533596922
2023-07-20T13:00:38.565Z,probe-holder,network_in,210779465
2023-07-20T13:00:39.065Z,currencyservice,network_in,306937212
2023-07-20T13:00:40.849Z,recommendationservice-1,network_in,308806132
2023-07-20T13:00:40.065Z,cartservice,network_in,444220194
2023-07-20T13:00:41.650Z,productcatalogservice,network_in,490960319
2023-07-20T13:00:42.633Z,paymentservice,network_in,305697694
2023-07-20T13:00:44.901Z,shippingservice,network_in,489747642
2023-07-20T13:00:46.415Z,checkoutservice,network_in,491710262
2023-07-20T13:00:46.924Z,emailservice,network_in,308816594
2023-07-20T13:00:48.186Z,adservice,network_in,533604893
2023-07-20T13:00:48.565Z,probe-holder,network_in,210825642
2023-07-20T13:00:49.065Z,currencyservice,network_in,306945195
2023-07-20T13:00:50.849Z,recommendationservice-1,network_in,308820130
2023-07-20T13:00:50.063Z,cartservice,network_in,444225434
2023-07-20T13:00:51.650Z,productcatalogservice,network_in,490968938
2023-07-20T13:00:52.633Z,paymentservice,network_in,305702018
2023-07-20T13:00:54.901Z,shippingservice,network_in,489756257
2023-07-20T13:00:56.415Z,checkoutservice,network_in,491719598
2023-07-20T13:00:56.924Z,emailservice,network_in,308821358
2023-07-20T13:00:58.186Z,adservice,network_in,533612888
2023-07-20T13:00:58.565Z,probe-holder,network_in,210871577
2023-07-20T13:00:59.065Z,currencyservice,network_in,306953624
2023-07-20T13:01:00.849Z,recommendationservice-1,network_in,308829135
2023-07-20T13:01:00.063Z,cartservice,network_in,444234326
2023-07-20T13:01:01.650Z,productcatalogservice,network_in,490977983
2023-07-20T13:01:02.634Z,paymentservice,network_in,305709946
2023-07-20T13:01:04.901Z,shippingservice,network_in,489765294
2023-07-20T13:01:06.415Z,checkoutservice,network_in,491724923
2023-07-20T13:01:06.925Z,emailservice,network_in,308829779
2023-07-20T13:01:08.186Z,adservice,network_in,533617248
2023-07-20T13:01:08.565Z,probe-holder,network_in,210913890
2023-07-20T13:01:09.065Z,currencyservice,network_in,306957954
2023-07-20T13:01:10.849Z,recommendationservice-1,network_in,308834397
2023-07-20T13:01:10.063Z,cartservice,network_in,444243220
2023-07-20T13:01:11.650Z,productcatalogservice,network_in,490987789
2023-07-20T13:01:12.634Z,paymentservice,network_in,305717874
2023-07-20T13:01:14.900Z,shippingservice,network_in,489770357
2023-07-20T13:01:16.415Z,checkoutservice,network_in,491738719
2023-07-20T13:01:16.924Z,emailservice,network_in,308838205
2023-07-20T13:01:18.186Z,adservice,network_in,533630026
2023-07-20T13:01:18.565Z,probe-holder,network_in,210960444
2023-07-20T13:01:19.065Z,currencyservice,network_in,306970750
2023-07-20T13:01:20.849Z,recommendationservice-1,network_in,308843402
2023-07-20T13:01:20.063Z,cartservice,network_in,444248549
2023-07-20T13:01:21.650Z,productcatalogservice,network_in,490996541
2023-07-20T13:01:22.634Z,paymentservice,network_in,305722132
2023-07-20T13:01:24.901Z,shippingservice,network_in,489783948
2023-07-20T13:01:26.415Z,checkoutservice,network_in,491747702
2023-07-20T13:01:26.924Z,emailservice,network_in,308843395
2023-07-20T13:01:28.186Z,adservice,network_in,533638876
2023-07-20T13:01:28.565Z,probe-holder,network_in,211011221
2023-07-20T13:01:29.065Z,currencyservice,network_in,306978757
2023-07-20T13:01:30.849Z,recommendationservice-1,network_in,308852828
2023-07-20T13:01:30.063Z,cartservice,network_in,444257861
2023-07-20T13:01:31.650Z,productcatalogservice,network_in,491005523
2023-07-20T13:01:32.634Z,paymentservice,network_in,305730482
2023-07-20T13:01:34.901Z,shippingservice,network_in,489792624
2023-07-20T13:01:36.415Z,checkoutservice,network_in,491753029
2023-07-20T13:01:36.924Z,emailservice,network_in,308851816
2023-07-20T13:01:38.186Z,adservice,network_in,533643236
2023-07-20T13:01:38.565Z,probe-holder,network_in,211053583
2023-07-20T13:01:39.065Z,currencyservice,network_in,306983087
2023-07-20T13:01:40.849Z,recommendationservice-1,network_in,308858092
2023-07-20T13:01:40.063Z,cartservice,network_in,444271586
2023-07-20T13:01:41.650Z,productcatalogservice,network_in,491010423
2023-07-20T13:01:42.634Z,paymentservice,network_in,305743260
2023-07-20T13:01:44.901Z,shippingservice,network_in,489797804
2023-07-20T13:01:46.415Z,checkoutservice,network_in,491761902
2023-07-20T13:01:46.925Z,emailservice,network_in,308865072
2023-07-20T13:01:48.186Z,adservice,network_in,533651207
2023-07-20T13:01:48.565Z,probe-holder,network_in,211099641
2023-07-20T13:01:49.065Z,currencyservice,network_in,306991070
2023-07-20T13:01:50.849Z,recommendationservice-1,network_in,308872180
2023-07-20T13:01:50.063Z,cartservice,network_in,444276832
2023-07-20T13:01:51.650Z,productcatalogservice,network_in,491019046
2023-07-20T13:01:52.634Z,paymentservice,network_in,305747604
2023-07-20T13:01:54.901Z,shippingservice,network_in,489806421
2023-07-20T13:01:56.417Z,checkoutservice,network_in,491767269
2023-07-20T13:01:56.925Z,emailservice,network_in,308869839
2023-07-20T13:01:58.186Z,adservice,network_in,533659202
2023-07-20T13:01:58.565Z,probe-holder,network_in,211145494
2023-07-20T13:01:59.065Z,currencyservice,network_in,306999499
2023-07-20T13:02:00.849Z,recommendationservice-1,network_in,308881182
2023-07-20T13:02:00.063Z,cartservice,network_in,444285723
2023-07-20T13:02:01.650Z,productcatalogservice,network_in,491028087
2023-07-20T13:02:02.633Z,paymentservice,network_in,305755532
2023-07-20T13:02:04.900Z,shippingservice,network_in,489815459
2023-07-20T13:02:06.415Z,checkoutservice,network_in,491776692
2023-07-20T13:02:06.925Z,emailservice,network_in,308878261
2023-07-20T13:02:08.186Z,adservice,network_in,533663562
2023-07-20T13:02:08.565Z,probe-holder,network_in,211187735
2023-07-20T13:02:09.065Z,currencyservice,network_in,307003829
2023-07-20T13:02:10.849Z,recommendationservice-1,network_in,308886446
2023-07-20T13:02:10.063Z,cartservice,network_in,444294611
2023-07-20T13:02:11.650Z,productcatalogservice,network_in,491037889
2023-07-20T13:02:12.634Z,paymentservice,network_in,305763460
2023-07-20T13:02:14.901Z,shippingservice,network_in,489820755
2023-07-20T13:02:16.415Z,checkoutservice,network_in,491790418
2023-07-20T13:02:16.924Z,emailservice,network_in,308886683
2023-07-20T13:02:18.186Z,adservice,network_in,533676298
2023-07-20T13:02:18.565Z,probe-holder,network_in,211234177
2023-07-20T13:02:19.065Z,currencyservice,network_in,307016625
2023-07-20T13:02:20.849Z,recommendationservice-1,network_in,308895454
2023-07-20T13:02:20.063Z,cartservice,network_in,444299854
2023-07-20T13:02:21.650Z,productcatalogservice,network_in,491046510
2023-07-20T13:02:22.633Z,paymentservice,network_in,305767718
2023-07-20T13:02:24.901Z,shippingservice,network_in,489834297
2023-07-20T13:02:26.415Z,checkoutservice,network_in,491795784
2023-07-20T13:02:26.925Z,emailservice,network_in,308891872
2023-07-20T13:02:28.186Z,adservice,network_in,533684757
2023-07-20T13:02:28.565Z,probe-holder,network_in,211285045
2023-07-20T13:02:29.065Z,currencyservice,network_in,307024674
2023-07-20T13:02:30.849Z,recommendationservice-1,network_in,308904966
2023-07-20T13:02:30.063Z,cartservice,network_in,444309251
2023-07-20T13:02:31.650Z,productcatalogservice,network_in,491055128
2023-07-20T13:02:32.633Z,paymentservice,network_in,305776154
2023-07-20T13:02:34.901Z,shippingservice,network_in,489839234
2023-07-20T13:02:36.415Z,checkoutservice,network_in,491804788
2023-07-20T13:02:36.924Z,emailservice,network_in,308900293
2023-07-20T13:02:38.186Z,adservice,network_in,533689117
2023-07-20T13:02:38.565Z,probe-holder,network_in,211327425
2023-07-20T13:02:39.065Z,currencyservice,network_in,307029004
2023-07-20T13:02:40.849Z,recommendationservice-1,network_in,308910225
2023-07-20T13:02:40.063Z,cartservice,network_in,444323032
2023-07-20T13:02:41.650Z,productcatalogservice,network_in,491060030
2023-07-20T13:02:42.634Z,paymentservice,network_in,305788932
2023-07-20T13:02:44.901Z,shippingservice,network_in,489847915
2023-07-20T13:02:46.415Z,checkoutservice,network_in,491813662
2023-07-20T13:02:46.924Z,emailservice,network_in,308913544
2023-07-20T13:02:48.186Z,adservice,network_in,533697046
2023-07-20T13:02:48.565Z,probe-holder,network_in,211373551
2023-07-20T13:02:49.065Z,currencyservice,network_in,307036945
2023-07-20T13:02:50.849Z,recommendationservice-1,network_in,308924159
2023-07-20T13:02:50.063Z,cartservice,network_in,444328273
2023-07-20T13:02:51.650Z,productcatalogservice,network_in,491068652
2023-07-20T13:02:52.633Z,paymentservice,network_in,305793190
2023-07-20T13:02:54.901Z,shippingservice,network_in,489856865
2023-07-20T13:02:56.415Z,checkoutservice,network_in,491819034
2023-07-20T13:02:56.925Z,emailservice,network_in,308918312
2023-07-20T13:02:58.186Z,adservice,network_in,533705041
2023-07-20T13:02:58.565Z,probe-holder,network_in,211419495
2023-07-20T13:02:59.065Z,currencyservice,network_in,307045374
2023-07-20T13:03:00.849Z,recommendationservice-1,network_in,308933165
2023-07-20T13:03:00.063Z,cartservice,network_in,444337162
2023-07-20T13:03:01.650Z,productcatalogservice,network_in,491074060
2023-07-20T13:03:02.634Z,paymentservice,network_in,305801118
2023-07-20T13:03:04.900Z,shippingservice,network_in,489861921
2023-07-20T13:03:06.415Z,checkoutservice,network_in,491828460
2023-07-20T13:03:06.925Z,emailservice,network_in,308926733
2023-07-20T13:03:08.186Z,adservice,network_in,533709401
2023-07-20T13:03:08.565Z,probe-holder,network_in,211461990
2023-07-20T13:03:09.065Z,currencyservice,network_in,307049704
2023-07-20T13:03:10.849Z,recommendationservice-1,network_in,308938428
2023-07-20T13:03:10.063Z,cartservice,network_in,444346056
2023-07-20T13:03:11.650Z,productcatalogservice,network_in,491087584
2023-07-20T13:03:12.634Z,paymentservice,network_in,305805376
2023-07-20T13:03:14.901Z,shippingservice,network_in,489871146
2023-07-20T13:03:16.415Z,checkoutservice,network_in,491842186
2023-07-20T13:03:16.924Z,emailservice,network_in,308935157
2023-07-20T13:03:18.186Z,adservice,network_in,533722179
2023-07-20T13:03:18.565Z,probe-holder,network_in,211508428
2023-07-20T13:03:19.065Z,currencyservice,network_in,307062542
2023-07-20T13:03:20.849Z,recommendationservice-1,network_in,308947431
2023-07-20T13:03:20.063Z,cartservice,network_in,444351296
2023-07-20T13:03:21.650Z,productcatalogservice,network_in,491096202
2023-07-20T13:03:22.633Z,paymentservice,network_in,305813304
2023-07-20T13:03:24.901Z,shippingservice,network_in,489884616
2023-07-20T13:03:26.416Z,checkoutservice,network_in,491847555
2023-07-20T13:03:26.924Z,emailservice,network_in,308940429
2023-07-20T13:03:28.186Z,adservice,network_in,533730596
2023-07-20T13:03:28.565Z,probe-holder,network_in,211559263
2023-07-20T13:03:29.065Z,currencyservice,network_in,307070549
2023-07-20T13:03:30.849Z,recommendationservice-1,network_in,308955329
2023-07-20T13:03:30.063Z,cartservice,network_in,444360607
2023-07-20T13:03:31.650Z,productcatalogservice,network_in,491101103
2023-07-20T13:03:32.634Z,paymentservice,network_in,305821654
2023-07-20T13:03:34.900Z,shippingservice,network_in,489889772
2023-07-20T13:03:36.415Z,checkoutservice,network_in,491856562
2023-07-20T13:03:36.924Z,emailservice,network_in,308948855
2023-07-20T13:03:38.186Z,adservice,network_in,533734956
2023-07-20T13:03:38.565Z,probe-holder,network_in,211601551
2023-07-20T13:03:39.065Z,currencyservice,network_in,307074879
2023-07-20T13:03:40.849Z,recommendationservice-1,network_in,308962125
2023-07-20T13:03:40.063Z,cartservice,network_in,444374325
2023-07-20T13:03:41.650Z,productcatalogservice,network_in,491109727
2023-07-20T13:03:42.634Z,paymentservice,network_in,305830762
2023-07-20T13:03:44.901Z,shippingservice,network_in,489898512
2023-07-20T13:03:46.415Z,checkoutservice,network_in,491865438
2023-07-20T13:03:46.925Z,emailservice,network_in,308962181
2023-07-20T13:03:48.186Z,adservice,network_in,533742885
2023-07-20T13:03:48.565Z,probe-holder,network_in,211647487
2023-07-20T13:03:49.065Z,currencyservice,network_in,307082820
2023-07-20T13:03:50.849Z,recommendationservice-1,network_in,308976150
2023-07-20T13:03:50.063Z,cartservice,network_in,444379569
2023-07-20T13:03:51.650Z,productcatalogservice,network_in,491118349
2023-07-20T13:03:52.633Z,paymentservice,network_in,305838690
2023-07-20T13:03:54.901Z,shippingservice,network_in,489907248
2023-07-20T13:03:56.415Z,checkoutservice,network_in,491870806
2023-07-20T13:03:56.924Z,emailservice,network_in,308967035
2023-07-20T13:03:58.186Z,adservice,network_in,533750922
2023-07-20T13:03:58.565Z,probe-holder,network_in,211693535
2023-07-20T13:03:59.065Z,currencyservice,network_in,307090258
2023-07-20T13:04:00.849Z,recommendationservice-1,network_in,308981411
2023-07-20T13:04:00.063Z,cartservice,network_in,444388461
2023-07-20T13:04:01.650Z,productcatalogservice,network_in,491123672
2023-07-20T13:04:02.634Z,paymentservice,network_in,305846618
2023-07-20T13:04:04.900Z,shippingservice,network_in,489912188
2023-07-20T13:04:06.415Z,checkoutservice,network_in,491880233
2023-07-20T13:04:06.924Z,emailservice,network_in,308975455
2023-07-20T13:04:08.186Z,adservice,network_in,533755282
2023-07-20T13:04:08.565Z,probe-holder,network_in,211735766
2023-07-20T13:04:09.065Z,currencyservice,network_in,307095621
2023-07-20T13:04:10.849Z,recommendationservice-1,network_in,308990418
2023-07-20T13:04:10.063Z,cartservice,network_in,444397351
2023-07-20T13:04:11.650Z,productcatalogservice,network_in,491137193
2023-07-20T13:04:12.633Z,paymentservice,network_in,305850876
2023-07-20T13:04:14.901Z,shippingservice,network_in,489921413
2023-07-20T13:04:16.415Z,checkoutservice,network_in,491893972
2023-07-20T13:04:16.925Z,emailservice,network_in,308983961
2023-07-20T13:04:18.186Z,adservice,network_in,533768018
2023-07-20T13:04:18.565Z,probe-holder,network_in,211782103
2023-07-20T13:04:19.065Z,currencyservice,network_in,307108417
2023-07-20T13:04:20.849Z,recommendationservice-1,network_in,308999420
2023-07-20T13:04:20.063Z,cartservice,network_in,444402592
2023-07-20T13:04:21.650Z,productcatalogservice,network_in,491145812
2023-07-20T13:04:22.634Z,paymentservice,network_in,305858804
2023-07-20T13:04:24.901Z,shippingservice,network_in,489935124
2023-07-20T13:04:26.415Z,checkoutservice,network_in,491899337
2023-07-20T13:04:26.925Z,emailservice,network_in,308989148
2023-07-20T13:04:28.186Z,adservice,network_in,533772800
2023-07-20T13:04:28.565Z,probe-holder,network_in,211833006
2023-07-20T13:04:29.065Z,currencyservice,network_in,307112747
2023-07-20T13:04:30.849Z,recommendationservice-1,network_in,309004681
2023-07-20T13:04:30.063Z,cartservice,network_in,444411904
2023-07-20T13:04:31.650Z,productcatalogservice,network_in,491150713
2023-07-20T13:04:32.633Z,paymentservice,network_in,305867154
2023-07-20T13:04:34.901Z,shippingservice,network_in,489940064
2023-07-20T13:04:36.415Z,checkoutservice,network_in,491908342
2023-07-20T13:04:36.925Z,emailservice,network_in,308997580
2023-07-20T13:04:38.186Z,adservice,network_in,533780881
2023-07-20T13:04:38.565Z,probe-holder,network_in,211875200
2023-07-20T13:04:39.065Z,currencyservice,network_in,307120754
2023-07-20T13:04:40.849Z,recommendationservice-1,network_in,309014108
2023-07-20T13:04:40.063Z,cartservice,network_in,444421971
2023-07-20T13:04:41.650Z,productcatalogservice,network_in,491159332
2023-07-20T13:04:42.633Z,paymentservice,network_in,305876262
2023-07-20T13:04:44.901Z,shippingservice,network_in,489948680
2023-07-20T13:04:46.415Z,checkoutservice,network_in,491917214
2023-07-20T13:04:46.924Z,emailservice,network_in,309010834
2023-07-20T13:04:48.186Z,adservice,network_in,533788852
2023-07-20T13:04:48.565Z,probe-holder,network_in,211921161
2023-07-20T13:04:49.065Z,currencyservice,network_in,307128737
2023-07-20T13:04:50.849Z,recommendationservice-1,network_in,309028040
2023-07-20T13:04:50.063Z,cartservice,network_in,444430861
2023-07-20T13:04:51.650Z,productcatalogservice,network_in,491167951
2023-07-20T13:04:52.633Z,paymentservice,network_in,305884190
2023-07-20T13:04:54.900Z,shippingservice,network_in,489957297
2023-07-20T13:04:56.415Z,checkoutservice,network_in,491922587
2023-07-20T13:04:56.924Z,emailservice,network_in,309015600
2023-07-20T13:04:58.186Z,adservice,network_in,533793212
2023-07-20T13:04:58.565Z,probe-holder,network_in,211967108
2023-07-20T13:04:59.065Z,currencyservice,network_in,307133489
2023-07-20T13:05:00.849Z,recommendationservice-1,network_in,309033309
2023-07-20T13:05:00.063Z,cartservice,network_in,444439756
2023-07-20T13:05:01.650Z,productcatalogservice,network_in,491175299
2023-07-20T13:05:02.634Z,paymentservice,network_in,305892118
2023-07-20T13:05:04.901Z,shippingservice,network_in,489962303
2023-07-20T13:05:06.415Z,checkoutservice,network_in,491932014
2023-07-20T13:05:06.925Z,emailservice,network_in,309024088
2023-07-20T13:05:08.186Z,adservice,network_in,533801207
2023-07-20T13:05:08.565Z,probe-holder,network_in,212009428
2023-07-20T13:05:09.065Z,currencyservice,network_in,307141496
2023-07-20T13:05:10.849Z,recommendationservice-1,network_in,309042319
2023-07-20T13:05:10.063Z,cartservice,network_in,444445001
2023-07-20T13:05:11.650Z,productcatalogservice,network_in,491188831
2023-07-20T13:05:12.633Z,paymentservice,network_in,305896376
2023-07-20T13:05:14.901Z,shippingservice,network_in,489971635
2023-07-20T13:05:16.415Z,checkoutservice,network_in,491945742
2023-07-20T13:05:16.925Z,emailservice,network_in,309032508
2023-07-20T13:05:18.186Z,adservice,network_in,533813943
2023-07-20T13:05:18.565Z,probe-holder,network_in,212055826
2023-07-20T13:05:19.065Z,currencyservice,network_in,307154292
2023-07-20T13:05:20.849Z,recommendationservice-1,network_in,309051327
2023-07-20T13:05:20.063Z,cartservice,network_in,444453894
2023-07-20T13:05:21.650Z,productcatalogservice,network_in,491197450
2023-07-20T13:05:22.634Z,paymentservice,network_in,305904304
2023-07-20T13:05:24.900Z,shippingservice,network_in,489985225
2023-07-20T13:05:26.415Z,checkoutservice,network_in,491951198
2023-07-20T13:05:26.924Z,emailservice,network_in,309037698
2023-07-20T13:05:28.186Z,adservice,network_in,533818767
2023-07-20T13:05:28.565Z,probe-holder,network_in,212106405
2023-07-20T13:05:29.065Z,currencyservice,network_in,307158664
2023-07-20T13:05:30.849Z,recommendationservice-1,network_in,309056591
2023-07-20T13:05:30.063Z,cartservice,network_in,444463208
2023-07-20T13:05:31.650Z,productcatalogservice,network_in,491202353
2023-07-20T13:05:32.634Z,paymentservice,network_in,305912740
2023-07-20T13:05:34.901Z,shippingservice,network_in,489990164
2023-07-20T13:05:36.415Z,checkoutservice,network_in,491960203
2023-07-20T13:05:36.925Z,emailservice,network_in,309046122
2023-07-20T13:05:38.186Z,adservice,network_in,533826762
2023-07-20T13:05:38.565Z,probe-holder,network_in,212148634
2023-07-20T13:05:39.065Z,currencyservice,network_in,307166671
2023-07-20T13:05:40.849Z,recommendationservice-1,network_in,309066019
2023-07-20T13:05:40.063Z,cartservice,network_in,444473344
2023-07-20T13:05:41.650Z,productcatalogservice,network_in,491210975
2023-07-20T13:05:42.634Z,paymentservice,network_in,305921848
2023-07-20T13:05:44.900Z,shippingservice,network_in,489998780
2023-07-20T13:05:46.417Z,checkoutservice,network_in,491969074
2023-07-20T13:05:46.924Z,emailservice,network_in,309059442
2023-07-20T13:05:48.186Z,adservice,network_in,533834757
2023-07-20T13:05:48.565Z,probe-holder,network_in,212194657
2023-07-20T13:05:49.065Z,currencyservice,network_in,307174612
2023-07-20T13:05:50.849Z,recommendationservice-1,network_in,309079955
2023-07-20T13:05:50.063Z,cartservice,network_in,444482235
2023-07-20T13:05:51.650Z,productcatalogservice,network_in,491219596
2023-07-20T13:05:52.634Z,paymentservice,network_in,305929776
2023-07-20T13:05:54.900Z,shippingservice,network_in,490007395
2023-07-20T13:05:56.415Z,checkoutservice,network_in,491974447
2023-07-20T13:05:56.925Z,emailservice,network_in,309064210
2023-07-20T13:05:58.186Z,adservice,network_in,533839117
2023-07-20T13:05:58.565Z,probe-holder,network_in,212240550
2023-07-20T13:05:59.065Z,currencyservice,network_in,307179364
2023-07-20T13:06:00.849Z,recommendationservice-1,network_in,309085219
2023-07-20T13:06:00.063Z,cartservice,network_in,444491128
2023-07-20T13:06:01.650Z,productcatalogservice,network_in,491224921
2023-07-20T13:06:02.634Z,paymentservice,network_in,305937704
2023-07-20T13:06:04.901Z,shippingservice,network_in,490012336
2023-07-20T13:06:06.415Z,checkoutservice,network_in,491983944
2023-07-20T13:06:06.924Z,emailservice,network_in,309072642
2023-07-20T13:06:08.186Z,adservice,network_in,533847112
2023-07-20T13:06:08.565Z,probe-holder,network_in,212282923
2023-07-20T13:06:09.065Z,currencyservice,network_in,307187371
2023-07-20T13:06:10.849Z,recommendationservice-1,network_in,309094232
2023-07-20T13:06:10.063Z,cartservice,network_in,444496367
2023-07-20T13:06:11.650Z,productcatalogservice,network_in,491238443
2023-07-20T13:06:12.634Z,paymentservice,network_in,305941962
2023-07-20T13:06:14.900Z,shippingservice,network_in,490021372
2023-07-20T13:06:16.415Z,checkoutservice,network_in,491997668
2023-07-20T13:06:16.924Z,emailservice,network_in,309081150
2023-07-20T13:06:18.186Z,adservice,network_in,533859890
2023-07-20T13:06:18.565Z,probe-holder,network_in,212329429
2023-07-20T13:06:19.065Z,currencyservice,network_in,307200209
2023-07-20T13:06:20.849Z,recommendationservice-1,network_in,309103236
2023-07-20T13:06:20.063Z,cartservice,network_in,444505254
2023-07-20T13:06:21.650Z,productcatalogservice,network_in,491247059
2023-07-20T13:06:22.634Z,paymentservice,network_in,305949890
2023-07-20T13:06:24.901Z,shippingservice,network_in,490034905
2023-07-20T13:06:26.415Z,checkoutservice,network_in,492003036
2023-07-20T13:06:26.924Z,emailservice,network_in,309086338
2023-07-20T13:06:28.186Z,adservice,network_in,533864672
2023-07-20T13:06:28.565Z,probe-holder,network_in,212380407
2023-07-20T13:06:29.065Z,currencyservice,network_in,307204539
2023-07-20T13:06:30.849Z,recommendationservice-1,network_in,309108498
2023-07-20T13:06:30.063Z,cartservice,network_in,444514564
2023-07-20T13:06:31.650Z,productcatalogservice,network_in,491251962
2023-07-20T13:06:32.634Z,paymentservice,network_in,305958240
2023-07-20T13:06:34.900Z,shippingservice,network_in,490039907
2023-07-20T13:06:36.415Z,checkoutservice,network_in,492012033
2023-07-20T13:06:36.925Z,emailservice,network_in,309094758
2023-07-20T13:06:38.186Z,adservice,network_in,533872733
2023-07-20T13:06:38.565Z,probe-holder,network_in,212422574
2023-07-20T13:06:39.065Z,currencyservice,network_in,307212546
2023-07-20T13:06:40.849Z,recommendationservice-1,network_in,309117923
2023-07-20T13:06:40.063Z,cartservice,network_in,444524625
2023-07-20T13:06:41.650Z,productcatalogservice,network_in,491260665
2023-07-20T13:06:42.633Z,paymentservice,network_in,305967414
2023-07-20T13:06:44.900Z,shippingservice,network_in,490048642
2023-07-20T13:06:46.415Z,checkoutservice,network_in,492020907
2023-07-20T13:06:46.924Z,emailservice,network_in,309108009
2023-07-20T13:06:48.186Z,adservice,network_in,533880662
2023-07-20T13:06:48.565Z,probe-holder,network_in,212468646
2023-07-20T13:06:49.065Z,currencyservice,network_in,307220487
2023-07-20T13:06:50.849Z,recommendationservice-1,network_in,309131922
2023-07-20T13:06:50.063Z,cartservice,network_in,444533516
2023-07-20T13:06:51.650Z,productcatalogservice,network_in,491269287
2023-07-20T13:06:52.633Z,paymentservice,network_in,305975342
2023-07-20T13:06:54.901Z,shippingservice,network_in,490057543
2023-07-20T13:06:56.415Z,checkoutservice,network_in,492026277
2023-07-20T13:06:56.924Z,emailservice,network_in,309112776
2023-07-20T13:06:58.186Z,adservice,network_in,533885064
2023-07-20T13:06:58.565Z,probe-holder,network_in,212514520
2023-07-20T13:06:59.065Z,currencyservice,network_in,307225281
2023-07-20T13:07:00.849Z,recommendationservice-1,network_in,309137189
2023-07-20T13:07:00.063Z,cartservice,network_in,444542419
2023-07-20T13:07:01.650Z,productcatalogservice,network_in,491274613
2023-07-20T13:07:02.634Z,paymentservice,network_in,305983270
2023-07-20T13:07:04.901Z,shippingservice,network_in,490062482
2023-07-20T13:07:06.415Z,checkoutservice,network_in,492035703
2023-07-20T13:07:06.924Z,emailservice,network_in,309121200
2023-07-20T13:07:08.186Z,adservice,network_in,533893059
2023-07-20T13:07:08.565Z,probe-holder,network_in,212556788
2023-07-20T13:07:09.065Z,currencyservice,network_in,307233288
2023-07-20T13:07:10.849Z,recommendationservice-1,network_in,309146196
2023-07-20T13:07:10.063Z,cartservice,network_in,444547662
2023-07-20T13:07:11.650Z,productcatalogservice,network_in,491288136
2023-07-20T13:07:12.634Z,paymentservice,network_in,305987528
2023-07-20T13:07:14.901Z,shippingservice,network_in,490071521
2023-07-20T13:07:16.415Z,checkoutservice,network_in,492049433
2023-07-20T13:07:16.925Z,emailservice,network_in,309125968
2023-07-20T13:07:18.186Z,adservice,network_in,533905795
2023-07-20T13:07:18.565Z,probe-holder,network_in,212603115
2023-07-20T13:07:19.065Z,currencyservice,network_in,307246084
2023-07-20T13:07:20.849Z,recommendationservice-1,network_in,309155200
2023-07-20T13:07:20.063Z,cartservice,network_in,444556556
2023-07-20T13:07:21.650Z,productcatalogservice,network_in,491296758
2023-07-20T13:07:22.634Z,paymentservice,network_in,305995456
2023-07-20T13:07:24.900Z,shippingservice,network_in,490085061
2023-07-20T13:07:26.415Z,checkoutservice,network_in,492054803
2023-07-20T13:07:26.924Z,emailservice,network_in,309134813
2023-07-20T13:07:28.186Z,adservice,network_in,533910577
2023-07-20T13:07:28.565Z,probe-holder,network_in,212654071
2023-07-20T13:07:29.065Z,currencyservice,network_in,307250414
2023-07-20T13:07:30.849Z,recommendationservice-1,network_in,309160464
2023-07-20T13:07:30.063Z,cartservice,network_in,444565868
2023-07-20T13:07:31.650Z,productcatalogservice,network_in,491301657
2023-07-20T13:07:32.633Z,paymentservice,network_in,306003806
2023-07-20T13:07:34.901Z,shippingservice,network_in,490090000
2023-07-20T13:07:36.415Z,checkoutservice,network_in,492063806
2023-07-20T13:07:36.924Z,emailservice,network_in,309143233
2023-07-20T13:07:38.186Z,adservice,network_in,533918548
2023-07-20T13:07:38.565Z,probe-holder,network_in,212696399
2023-07-20T13:07:39.065Z,currencyservice,network_in,307258421
2023-07-20T13:07:40.849Z,recommendationservice-1,network_in,309169890
2023-07-20T13:07:40.063Z,cartservice,network_in,444575933
2023-07-20T13:07:41.650Z,productcatalogservice,network_in,491310279
2023-07-20T13:07:42.634Z,paymentservice,network_in,306012914
2023-07-20T13:07:44.901Z,shippingservice,network_in,490100478
2023-07-20T13:07:46.415Z,checkoutservice,network_in,492072677
2023-07-20T13:07:46.925Z,emailservice,network_in,309152831
2023-07-20T13:07:48.186Z,adservice,network_in,533926629
2023-07-20T13:07:48.565Z,probe-holder,network_in,212742347
2023-07-20T13:07:49.065Z,currencyservice,network_in,307266404
2023-07-20T13:07:50.849Z,recommendationservice-1,network_in,309183825
2023-07-20T13:07:50.063Z,cartservice,network_in,444584824
2023-07-20T13:07:51.650Z,productcatalogservice,network_in,491318901
2023-07-20T13:07:52.634Z,paymentservice,network_in,306020908
2023-07-20T13:07:54.901Z,shippingservice,network_in,490111161
2023-07-20T13:07:58.565Z,probe-holder,network_in,212792311
