2023-07-14T13:00:19.351Z,cadvisor-zb8hs,cpu,11024636
2023-07-14T13:01:19.869Z,cadvisor-zb8hs,cpu,9468948
2023-07-14T13:00:49.869Z,cadvisor-zb8hs,cpu,10409847
2023-07-14T13:00:59.869Z,cadvisor-zb8hs,cpu,9047871
2023-07-14T13:01:09.869Z,cadvisor-zb8hs,cpu,10440477
2023-07-14T13:00:29.869Z,cadvisor-zb8hs,cpu,11024636
2023-07-14T13:00:39.869Z,cadvisor-zb8hs,cpu,10409847
2023-07-14T13:01:29.869Z,cadvisor-zb8hs,cpu,9468948
2023-07-14T13:01:39.869Z,cadvisor-zb8hs,cpu,9496009
2023-07-14T13:01:49.871Z,cadvisor-zb8hs,cpu,9496009
2023-07-14T13:00:19.230Z,cadvisor-skxs4,cpu,10658614
2023-07-14T13:00:39.759Z,cadvisor-skxs4,cpu,8927956
2023-07-14T13:01:39.759Z,cadvisor-skxs4,cpu,9247730
2023-07-14T13:01:49.759Z,cadvisor-skxs4,cpu,9247730
2023-07-14T13:00:59.759Z,cadvisor-skxs4,cpu,8993586
2023-07-14T13:01:29.759Z,cadvisor-skxs4,cpu,7339917
2023-07-14T13:00:29.760Z,cadvisor-skxs4,cpu,8927956
2023-07-14T13:00:49.759Z,cadvisor-skxs4,cpu,8993586
2023-07-14T13:01:09.758Z,cadvisor-skxs4,cpu,7339917
2023-07-14T13:01:19.759Z,cadvisor-skxs4,cpu,7339917
2023-07-14T13:01:59.869Z,cadvisor-zb8hs,cpu,9673477
2023-07-14T13:01:59.759Z,cadvisor-skxs4,cpu,9876118
2023-07-14T13:01:09.661Z,cadvisor-xnqq4,cpu,9981046
2023-07-14T13:01:49.657Z,cadvisor-xnqq4,cpu,11560350
2023-07-14T13:01:59.657Z,cadvisor-xnqq4,cpu,10977689
2023-07-14T13:00:29.657Z,cadvisor-xnqq4,cpu,11799867
2023-07-14T13:00:39.659Z,cadvisor-xnqq4,cpu,11799867
2023-07-14T13:00:49.657Z,cadvisor-xnqq4,cpu,11799867
2023-07-14T13:00:59.657Z,cadvisor-xnqq4,cpu,9981046
2023-07-14T13:01:29.657Z,cadvisor-xnqq4,cpu,9707063
2023-07-14T13:01:39.657Z,cadvisor-xnqq4,cpu,11560350
2023-07-14T13:00:19.145Z,cadvisor-xnqq4,cpu,6863699
2023-07-14T13:01:19.660Z,cadvisor-xnqq4,cpu,9707063
2023-07-14T13:02:09.758Z,cadvisor-skxs4,cpu,9876118
2023-07-14T13:02:09.869Z,cadvisor-zb8hs,cpu,8818174
2023-07-14T13:02:09.657Z,cadvisor-xnqq4,cpu,10977689
2023-07-14T13:02:19.657Z,cadvisor-xnqq4,cpu,10977689
2023-07-14T13:02:19.758Z,cadvisor-skxs4,cpu,9876118
2023-07-14T13:02:19.869Z,cadvisor-zb8hs,cpu,8818174
2023-07-14T13:02:29.869Z,cadvisor-zb8hs,cpu,9258188
2023-07-14T13:02:29.658Z,cadvisor-xnqq4,cpu,9196407
2023-07-14T13:02:29.759Z,cadvisor-skxs4,cpu,9247526
2023-07-14T13:02:39.870Z,cadvisor-zb8hs,cpu,8052086
2023-07-14T13:02:39.658Z,cadvisor-xnqq4,cpu,10271373
2023-07-14T13:02:39.758Z,cadvisor-skxs4,cpu,9247526
2023-07-14T13:02:49.759Z,cadvisor-skxs4,cpu,10044315
2023-07-14T13:02:49.657Z,cadvisor-xnqq4,cpu,10271373
2023-07-14T13:02:49.870Z,cadvisor-zb8hs,cpu,10649420
2023-07-14T13:02:59.657Z,cadvisor-xnqq4,cpu,12503085
2023-07-14T13:02:59.869Z,cadvisor-zb8hs,cpu,10649420
2023-07-14T13:02:59.759Z,cadvisor-skxs4,cpu,10044315
2023-07-14T13:03:09.657Z,cadvisor-xnqq4,cpu,9440504
2023-07-14T13:03:09.869Z,cadvisor-zb8hs,cpu,7764360
2023-07-14T13:03:09.759Z,cadvisor-skxs4,cpu,10259309
2023-07-14T13:03:19.657Z,cadvisor-xnqq4,cpu,9440504
2023-07-14T13:03:19.759Z,cadvisor-skxs4,cpu,10013095
2023-07-14T13:03:19.869Z,cadvisor-zb8hs,cpu,11234942
2023-07-14T13:03:29.869Z,cadvisor-zb8hs,cpu,8634931
2023-07-14T13:03:29.758Z,cadvisor-skxs4,cpu,10013095
2023-07-14T13:03:29.657Z,cadvisor-xnqq4,cpu,10643697
2023-07-14T13:03:39.657Z,cadvisor-xnqq4,cpu,12729645
2023-07-14T13:03:39.758Z,cadvisor-skxs4,cpu,10013095
2023-07-14T13:03:39.869Z,cadvisor-zb8hs,cpu,8634931
2023-07-14T13:03:49.657Z,cadvisor-xnqq4,cpu,12729645
2023-07-14T13:03:49.759Z,cadvisor-skxs4,cpu,9220463
2023-07-14T13:03:49.869Z,cadvisor-zb8hs,cpu,8340027
2023-07-14T13:03:59.870Z,cadvisor-zb8hs,cpu,8743442
2023-07-14T13:03:59.657Z,cadvisor-xnqq4,cpu,12729645
2023-07-14T13:03:59.759Z,cadvisor-skxs4,cpu,9220463
2023-07-14T13:04:09.657Z,cadvisor-xnqq4,cpu,9192105
2023-07-14T13:04:09.759Z,cadvisor-skxs4,cpu,10325610
2023-07-14T13:04:09.869Z,cadvisor-zb8hs,cpu,9463120
2023-07-14T13:04:19.758Z,cadvisor-skxs4,cpu,10325610
2023-07-14T13:04:19.657Z,cadvisor-xnqq4,cpu,9192105
2023-07-14T13:04:19.869Z,cadvisor-zb8hs,cpu,9463120
2023-07-14T13:04:29.657Z,cadvisor-xnqq4,cpu,11122465
2023-07-14T13:04:29.869Z,cadvisor-zb8hs,cpu,9463120
2023-07-14T13:04:29.758Z,cadvisor-skxs4,cpu,7788222
2023-07-14T13:04:39.657Z,cadvisor-xnqq4,cpu,11122465
2023-07-14T13:04:39.869Z,cadvisor-zb8hs,cpu,9105627
2023-07-14T13:04:39.759Z,cadvisor-skxs4,cpu,11273524
2023-07-14T13:04:49.657Z,cadvisor-xnqq4,cpu,10934296
2023-07-14T13:04:49.869Z,cadvisor-zb8hs,cpu,7629834
2023-07-14T13:04:49.759Z,cadvisor-skxs4,cpu,9730077
2023-07-14T13:04:59.657Z,cadvisor-xnqq4,cpu,11354750
2023-07-14T13:04:59.869Z,cadvisor-zb8hs,cpu,7629834
2023-07-14T13:04:59.758Z,cadvisor-skxs4,cpu,9730077
2023-07-14T13:05:09.869Z,cadvisor-zb8hs,cpu,10230507
2023-07-14T13:05:09.657Z,cadvisor-xnqq4,cpu,11354750
2023-07-14T13:05:09.759Z,cadvisor-skxs4,cpu,8826565
2023-07-14T13:05:19.657Z,cadvisor-xnqq4,cpu,9578751
2023-07-14T13:05:19.759Z,cadvisor-skxs4,cpu,7359087
2023-07-14T13:05:19.870Z,cadvisor-zb8hs,cpu,8671527
2023-07-14T13:05:29.657Z,cadvisor-xnqq4,cpu,9440257
2023-07-14T13:05:29.759Z,cadvisor-skxs4,cpu,9791868
2023-07-14T13:05:29.869Z,cadvisor-zb8hs,cpu,8671527
2023-07-14T13:05:39.758Z,cadvisor-skxs4,cpu,9791868
2023-07-14T13:05:39.657Z,cadvisor-xnqq4,cpu,9440257
2023-07-14T13:05:39.869Z,cadvisor-zb8hs,cpu,8295938
2023-07-14T13:05:49.870Z,cadvisor-zb8hs,cpu,9254425
2023-07-14T13:05:49.658Z,cadvisor-xnqq4,cpu,11233321
2023-07-14T13:05:49.758Z,cadvisor-skxs4,cpu,8586751
2023-07-14T13:05:59.759Z,cadvisor-skxs4,cpu,12108279
2023-07-14T13:05:59.657Z,cadvisor-xnqq4,cpu,9974959
2023-07-14T13:05:59.869Z,cadvisor-zb8hs,cpu,9254425
2023-07-14T13:06:09.758Z,cadvisor-skxs4,cpu,12108279
2023-07-14T13:06:09.658Z,cadvisor-xnqq4,cpu,9974959
2023-07-14T13:06:09.869Z,cadvisor-zb8hs,cpu,10233983
2023-07-14T13:06:19.759Z,cadvisor-skxs4,cpu,9407228
2023-07-14T13:06:19.657Z,cadvisor-xnqq4,cpu,10579380
2023-07-14T13:06:19.869Z,cadvisor-zb8hs,cpu,10220325
2023-07-14T13:06:29.869Z,cadvisor-zb8hs,cpu,10659761
2023-07-14T13:06:29.657Z,cadvisor-xnqq4,cpu,10579380
2023-07-14T13:06:29.758Z,cadvisor-skxs4,cpu,9407228
2023-07-14T13:06:39.657Z,cadvisor-xnqq4,cpu,10579380
2023-07-14T13:06:39.869Z,cadvisor-zb8hs,cpu,10659761
2023-07-14T13:06:39.759Z,cadvisor-skxs4,cpu,8598229
2023-07-14T13:06:49.869Z,cadvisor-zb8hs,cpu,7977308
2023-07-14T13:06:49.759Z,cadvisor-skxs4,cpu,9989515
2023-07-14T13:06:49.657Z,cadvisor-xnqq4,cpu,9714460
2023-07-14T13:06:59.758Z,cadvisor-skxs4,cpu,9989515
2023-07-14T13:06:59.657Z,cadvisor-xnqq4,cpu,10147376
2023-07-14T13:06:59.869Z,cadvisor-zb8hs,cpu,7977308
2023-07-14T13:07:09.657Z,cadvisor-xnqq4,cpu,10147376
2023-07-14T13:07:09.869Z,cadvisor-zb8hs,cpu,11902477
2023-07-14T13:07:09.759Z,cadvisor-skxs4,cpu,9572790
2023-07-14T13:07:19.657Z,cadvisor-xnqq4,cpu,10147376
2023-07-14T13:07:19.869Z,cadvisor-zb8hs,cpu,8036445
2023-07-14T13:07:19.759Z,cadvisor-skxs4,cpu,9359296
2023-07-14T13:07:29.759Z,cadvisor-skxs4,cpu,9359296
2023-07-14T13:07:29.869Z,cadvisor-zb8hs,cpu,8036445
2023-07-14T13:07:29.658Z,cadvisor-xnqq4,cpu,10941532
2023-07-14T13:07:39.658Z,cadvisor-xnqq4,cpu,11033653
2023-07-14T13:07:39.759Z,cadvisor-skxs4,cpu,9619197
2023-07-14T13:07:39.869Z,cadvisor-zb8hs,cpu,9724876
2023-07-14T13:07:49.869Z,cadvisor-zb8hs,cpu,9724876
2023-07-14T13:07:49.657Z,cadvisor-xnqq4,cpu,9520187
2023-07-14T13:07:49.758Z,cadvisor-skxs4,cpu,9619197
2023-07-14T13:07:59.657Z,cadvisor-xnqq4,cpu,9520187
2023-07-14T13:07:59.870Z,cadvisor-zb8hs,cpu,9844438
2023-07-14T13:07:59.759Z,cadvisor-skxs4,cpu,10894761
2023-07-14T13:08:09.657Z,cadvisor-xnqq4,cpu,10836150
2023-07-14T13:08:09.759Z,cadvisor-skxs4,cpu,10894761
2023-07-14T13:08:09.869Z,cadvisor-zb8hs,cpu,9844438
2023-07-14T13:08:19.657Z,cadvisor-xnqq4,cpu,10836150
2023-07-14T13:08:19.869Z,cadvisor-zb8hs,cpu,7556440
2023-07-14T13:08:19.759Z,cadvisor-skxs4,cpu,8556431
2023-07-14T13:08:29.657Z,cadvisor-xnqq4,cpu,9988465
2023-07-14T13:08:29.869Z,cadvisor-zb8hs,cpu,7556440
2023-07-14T13:08:29.759Z,cadvisor-skxs4,cpu,10387850
2023-07-14T13:08:39.869Z,cadvisor-zb8hs,cpu,11227309
2023-07-14T13:08:39.657Z,cadvisor-xnqq4,cpu,13143600
2023-07-14T13:08:39.759Z,cadvisor-skxs4,cpu,10387850
2023-07-14T13:08:49.657Z,cadvisor-xnqq4,cpu,13143600
2023-07-14T13:08:49.869Z,cadvisor-zb8hs,cpu,8104141
2023-07-14T13:08:49.759Z,cadvisor-skxs4,cpu,9495607
2023-07-14T13:08:59.758Z,cadvisor-skxs4,cpu,9495607
2023-07-14T13:08:59.869Z,cadvisor-zb8hs,cpu,8104141
2023-07-14T13:08:59.657Z,cadvisor-xnqq4,cpu,13143600
2023-07-14T13:09:09.657Z,cadvisor-xnqq4,cpu,11000648
2023-07-14T13:09:09.758Z,cadvisor-skxs4,cpu,10536943
2023-07-14T13:09:09.870Z,cadvisor-zb8hs,cpu,9031227
2023-07-14T13:09:19.657Z,cadvisor-xnqq4,cpu,11000648
2023-07-14T13:09:19.759Z,cadvisor-skxs4,cpu,8833011
2023-07-14T13:09:19.869Z,cadvisor-zb8hs,cpu,8555627
2023-07-14T13:09:29.869Z,cadvisor-zb8hs,cpu,8555627
2023-07-14T13:09:29.657Z,cadvisor-xnqq4,cpu,10908831
2023-07-14T13:09:29.759Z,cadvisor-skxs4,cpu,8833011
2023-07-14T13:09:39.657Z,cadvisor-xnqq4,cpu,10908831
2023-07-14T13:09:39.759Z,cadvisor-skxs4,cpu,10688603
2023-07-14T13:09:39.869Z,cadvisor-zb8hs,cpu,10328582
2023-07-14T13:09:49.869Z,cadvisor-zb8hs,cpu,9831884
2023-07-14T13:09:49.759Z,cadvisor-skxs4,cpu,8911461
2023-07-14T13:09:49.657Z,cadvisor-xnqq4,cpu,13302493
2023-07-14T13:09:59.657Z,cadvisor-xnqq4,cpu,13302493
2023-07-14T13:09:59.869Z,cadvisor-zb8hs,cpu,9779364
2023-07-14T13:09:59.759Z,cadvisor-skxs4,cpu,9387392
2023-07-14T13:10:09.869Z,cadvisor-zb8hs,cpu,9779364
2023-07-14T13:10:09.657Z,cadvisor-xnqq4,cpu,13302493
2023-07-14T13:10:09.758Z,cadvisor-skxs4,cpu,9387392
2023-07-14T13:10:19.657Z,cadvisor-xnqq4,cpu,7999712
2023-07-14T13:10:19.869Z,cadvisor-zb8hs,cpu,9779364
2023-07-14T13:10:19.758Z,cadvisor-skxs4,cpu,9387392
2023-07-14T13:10:29.658Z,cadvisor-xnqq4,cpu,10094443
2023-07-14T13:10:29.759Z,cadvisor-skxs4,cpu,10407267
2023-07-14T13:10:29.869Z,cadvisor-zb8hs,cpu,8363892
2023-07-14T13:10:39.758Z,cadvisor-skxs4,cpu,10407267
2023-07-14T13:10:39.869Z,cadvisor-zb8hs,cpu,8255213
2023-07-14T13:10:39.657Z,cadvisor-xnqq4,cpu,10094443
