2023-07-14T13:00:19.351Z,carts-get,network_in,14051
2023-07-14T13:00:29.869Z,catalogue,network_in,17345
2023-07-14T13:00:29.869Z,carts-get,network_in,7173
2023-07-14T13:00:29.869Z,carts-get,network_in,14051
2023-07-14T13:00:39.869Z,catalogue,network_in,18521
2023-07-14T13:00:59.869Z,carts-get,network_in,21303
2023-07-14T13:01:19.869Z,shipping,network_in,10206
2023-07-14T13:01:29.869Z,carts-get,network_in,30877
2023-07-14T13:01:29.869Z,carts-get,network_in,38072
2023-07-14T13:00:19.351Z,catalogue,network_in,17345
2023-07-14T13:00:19.351Z,carts-get,network_in,8339
2023-07-14T13:00:19.351Z,carts-get,network_in,2528
2023-07-14T13:00:29.869Z,shipping,network_in,3806
2023-07-14T13:00:39.869Z,carts-get,network_in,15603
2023-07-14T13:00:39.869Z,shipping,network_in,4346
2023-07-14T13:00:49.869Z,catalogue,network_in,18521
2023-07-14T13:01:09.869Z,catalogue,network_in,20421
2023-07-14T13:01:09.869Z,carts-get,network_in,32389
2023-07-14T13:01:09.869Z,carts-get,network_in,24879
2023-07-14T13:01:19.869Z,carts-get,network_in,48740
2023-07-14T13:01:29.869Z,shipping,network_in,10206
2023-07-14T13:00:49.869Z,carts-get,network_in,9895
2023-07-14T13:00:49.869Z,carts-get,network_in,7854
2023-07-14T13:00:59.869Z,shipping,network_in,8018
2023-07-14T13:01:09.869Z,shipping,network_in,10206
2023-07-14T13:01:19.869Z,carts-get,network_in,30877
2023-07-14T13:01:19.869Z,carts-get,network_in,38072
2023-07-14T13:01:29.869Z,catalogue,network_in,22349
2023-07-14T13:00:19.351Z,shipping,network_in,3806
2023-07-14T13:00:29.869Z,carts-get,network_in,8339
2023-07-14T13:00:39.869Z,carts-get,network_in,9895
2023-07-14T13:00:39.869Z,carts-get,network_in,7854
2023-07-14T13:00:49.869Z,carts-get,network_in,15603
2023-07-14T13:00:49.869Z,shipping,network_in,4346
2023-07-14T13:00:59.869Z,carts-get,network_in,32169
2023-07-14T13:00:59.869Z,catalogue,network_in,20421
2023-07-14T13:00:59.869Z,carts-get,network_in,24879
2023-07-14T13:01:09.869Z,carts-get,network_in,37580
2023-07-14T13:01:19.869Z,catalogue,network_in,22349
2023-07-14T13:01:29.869Z,carts-get,network_in,48740
2023-07-14T13:01:39.869Z,carts-get,network_in,49512
2023-07-14T13:01:39.869Z,catalogue,network_in,24561
2023-07-14T13:01:39.869Z,shipping,network_in,13846
2023-07-14T13:01:39.869Z,carts-get,network_in,36630
2023-07-14T13:01:39.869Z,carts-get,network_in,55018
2023-07-14T13:01:49.871Z,carts-get,network_in,49512
2023-07-14T13:01:49.871Z,catalogue,network_in,26423
2023-07-14T13:01:49.871Z,carts-get,network_in,65723
2023-07-14T13:01:49.871Z,carts-get,network_in,47611
2023-07-14T13:01:49.871Z,shipping,network_in,15096
2023-07-14T13:00:19.230Z,carts-get,network_in,7907
2023-07-14T13:00:19.230Z,user-login,network_in,11511
2023-07-14T13:00:19.230Z,carts-get,network_in,7544
2023-07-14T13:00:19.230Z,orders,network_in,7659
2023-07-14T13:00:29.760Z,carts-get,network_in,9357
2023-07-14T13:00:49.759Z,user-login,network_in,17569
2023-07-14T13:00:59.759Z,user-login,network_in,17569
2023-07-14T13:00:59.759Z,orders,network_in,8927
2023-07-14T13:01:09.758Z,carts-get,network_in,33506
2023-07-14T13:01:09.758Z,carts-delete,network_in,40059
2023-07-14T13:01:19.759Z,orders,network_in,22268
2023-07-14T13:01:19.759Z,carts-get,network_in,33506
2023-07-14T13:01:29.759Z,carts-get,network_in,37067
2023-07-14T13:01:39.759Z,carts-delete,network_in,57229
2023-07-14T13:01:39.759Z,orders,network_in,34845
2023-07-14T13:00:39.759Z,user-login,network_in,16012
2023-07-14T13:00:49.759Z,carts-delete,network_in,12022
2023-07-14T13:00:59.759Z,carts-delete,network_in,12022
2023-07-14T13:01:19.759Z,carts-delete,network_in,46057
2023-07-14T13:01:29.759Z,carts-delete,network_in,46057
2023-07-14T13:01:29.759Z,user-login,network_in,22977
2023-07-14T13:00:29.760Z,orders,network_in,7659
2023-07-14T13:00:29.760Z,user-login,network_in,16012
2023-07-14T13:00:39.759Z,carts-delete,network_in,10680
2023-07-14T13:00:39.759Z,carts-get,network_in,7544
2023-07-14T13:00:39.759Z,carts-get,network_in,9357
2023-07-14T13:00:49.759Z,carts-get,network_in,20711
2023-07-14T13:00:59.759Z,carts-get,network_in,20711
2023-07-14T13:01:19.759Z,carts-get,network_in,37067
2023-07-14T13:01:29.759Z,carts-get,network_in,33506
2023-07-14T13:01:39.759Z,carts-get,network_in,48305
2023-07-14T13:01:39.759Z,carts-get,network_in,50283
2023-07-14T13:01:49.759Z,carts-get,network_in,50283
2023-07-14T13:01:49.759Z,orders,network_in,34845
2023-07-14T13:00:29.760Z,carts-delete,network_in,10680
2023-07-14T13:00:29.760Z,carts-get,network_in,7544
2023-07-14T13:00:39.759Z,orders,network_in,7659
2023-07-14T13:00:49.759Z,carts-get,network_in,10034
2023-07-14T13:00:49.759Z,orders,network_in,8927
2023-07-14T13:00:59.759Z,carts-get,network_in,10034
2023-07-14T13:01:09.758Z,user-login,network_in,20200
2023-07-14T13:01:09.758Z,orders,network_in,19246
2023-07-14T13:01:09.758Z,carts-get,network_in,26296
2023-07-14T13:01:19.759Z,user-login,network_in,22977
2023-07-14T13:01:29.759Z,orders,network_in,22268
2023-07-14T13:01:39.759Z,user-login,network_in,27164
2023-07-14T13:01:49.759Z,user-login,network_in,27164
2023-07-14T13:01:49.759Z,carts-get,network_in,48305
2023-07-14T13:01:49.759Z,carts-delete,network_in,57229
2023-07-14T13:01:59.869Z,carts-get,network_in,47611
2023-07-14T13:01:59.759Z,carts-get,network_in,59197
2023-07-14T13:01:59.759Z,carts-get,network_in,61128
2023-07-14T13:01:59.759Z,orders,network_in,40648
2023-07-14T13:01:59.869Z,catalogue,network_in,26423
2023-07-14T13:01:59.759Z,carts-delete,network_in,62842
2023-07-14T13:01:59.869Z,shipping,network_in,15096
2023-07-14T13:01:59.869Z,carts-get,network_in,65723
2023-07-14T13:01:59.869Z,carts-get,network_in,60015
2023-07-14T13:01:59.759Z,user-login,network_in,28791
2023-07-14T13:00:19.145Z,user,network_in,9274
2023-07-14T13:00:19.145Z,carts,network_in,5330
2023-07-14T13:00:29.657Z,queue-master,network_in,8880
2023-07-14T13:00:29.657Z,carts-get,network_in,8098
2023-07-14T13:00:49.657Z,carts,network_in,11001
2023-07-14T13:00:59.657Z,user,network_in,14202
2023-07-14T13:00:59.657Z,payment,network_in,14512
2023-07-14T13:01:19.660Z,carts,network_in,25022
2023-07-14T13:01:19.660Z,carts-get,network_in,28032
2023-07-14T13:01:49.657Z,queue-master,network_in,16338
2023-07-14T13:01:49.657Z,user-register,network_in,26218
2023-07-14T13:01:59.657Z,queue-master,network_in,19830
2023-07-14T13:00:19.145Z,user-register,network_in,11810
2023-07-14T13:00:29.657Z,carts,network_in,10180
2023-07-14T13:00:39.659Z,carts-get,network_in,9316
2023-07-14T13:00:39.659Z,user-register,network_in,17050
2023-07-14T13:00:49.657Z,carts-post,network_in,13722
2023-07-14T13:00:49.657Z,user-register,network_in,17050
2023-07-14T13:00:59.657Z,carts,network_in,12339
2023-07-14T13:01:09.661Z,carts-get,network_in,28032
2023-07-14T13:01:09.661Z,queue-master,network_in,13590
2023-07-14T13:01:09.661Z,user-register,network_in,19635
2023-07-14T13:01:19.660Z,user,network_in,20041
2023-07-14T13:01:19.660Z,carts-post,network_in,37582
2023-07-14T13:01:29.657Z,user-register,network_in,24295
2023-07-14T13:01:29.657Z,carts-post,network_in,49424
2023-07-14T13:01:29.657Z,user,network_in,20041
2023-07-14T13:01:39.657Z,queue-master,network_in,16338
2023-07-14T13:01:39.657Z,user-register,network_in,26218
2023-07-14T13:01:49.657Z,carts-post,network_in,55209
2023-07-14T13:01:49.657Z,carts,network_in,42773
2023-07-14T13:00:19.145Z,carts-get,network_in,3234
2023-07-14T13:00:29.657Z,carts-post,network_in,11968
2023-07-14T13:00:29.657Z,user-register,network_in,14785
2023-07-14T13:00:39.659Z,carts,network_in,11001
2023-07-14T13:00:39.659Z,payment,network_in,13616
2023-07-14T13:00:39.659Z,user,network_in,12213
2023-07-14T13:00:49.657Z,queue-master,network_in,11200
2023-07-14T13:00:49.657Z,user,network_in,12213
2023-07-14T13:00:59.657Z,user-register,network_in,19635
2023-07-14T13:01:09.661Z,payment,network_in,16374
2023-07-14T13:01:19.660Z,user-register,network_in,22832
2023-07-14T13:01:19.660Z,payment,network_in,16374
2023-07-14T13:01:29.657Z,carts,network_in,36463
2023-07-14T13:01:29.657Z,queue-master,network_in,16338
2023-07-14T13:01:39.657Z,carts-post,network_in,55209
2023-07-14T13:01:39.657Z,carts,network_in,42773
2023-07-14T13:01:49.657Z,payment,network_in,19618
2023-07-14T13:01:49.657Z,user,network_in,23308
2023-07-14T13:01:49.657Z,carts-get,network_in,39742
2023-07-14T13:01:59.657Z,user-register,network_in,28815
2023-07-14T13:01:59.657Z,user,network_in,24701
2023-07-14T13:01:59.657Z,carts-post,network_in,66771
2023-07-14T13:00:19.145Z,carts-post,network_in,11968
2023-07-14T13:00:19.145Z,payment,network_in,9994
2023-07-14T13:00:29.657Z,payment,network_in,11618
2023-07-14T13:00:29.657Z,user,network_in,12213
2023-07-14T13:00:39.659Z,carts-post,network_in,13722
2023-07-14T13:00:39.659Z,queue-master,network_in,11200
2023-07-14T13:00:49.657Z,carts-get,network_in,9316
2023-07-14T13:00:49.657Z,payment,network_in,13616
2023-07-14T13:00:59.657Z,carts-get,network_in,22185
2023-07-14T13:00:59.657Z,carts-post,network_in,26094
2023-07-14T13:00:59.657Z,queue-master,network_in,12360
2023-07-14T13:01:09.661Z,carts-post,network_in,37582
2023-07-14T13:01:09.661Z,user,network_in,16655
2023-07-14T13:01:09.661Z,carts,network_in,25022
2023-07-14T13:01:19.660Z,queue-master,network_in,13590
2023-07-14T13:01:29.657Z,carts-get,network_in,39742
2023-07-14T13:01:29.657Z,payment,network_in,17616
2023-07-14T13:01:39.657Z,payment,network_in,19618
2023-07-14T13:01:39.657Z,user,network_in,23308
2023-07-14T13:01:39.657Z,carts-get,network_in,39742
2023-07-14T13:01:59.657Z,carts,network_in,48760
2023-07-14T13:01:59.657Z,payment,network_in,20654
2023-07-14T13:01:59.657Z,carts-get,network_in,50845
2023-07-14T13:02:09.758Z,carts-get,network_in,59197
2023-07-14T13:02:09.758Z,orders,network_in,40648
2023-07-14T13:02:09.869Z,catalogue,network_in,28215
2023-07-14T13:02:09.869Z,carts-get,network_in,58697
2023-07-14T13:02:09.657Z,carts,network_in,59719
2023-07-14T13:02:09.657Z,queue-master,network_in,20924
2023-07-14T13:02:09.657Z,carts-post,network_in,66771
2023-07-14T13:02:09.758Z,carts-get,network_in,61128
2023-07-14T13:02:09.657Z,user,network_in,27688
2023-07-14T13:02:09.657Z,carts-get,network_in,56953
2023-07-14T13:02:09.657Z,user-register,network_in,31802
2023-07-14T13:02:09.758Z,user-login,network_in,28791
2023-07-14T13:02:09.869Z,carts-get,network_in,71519
2023-07-14T13:02:09.657Z,payment,network_in,22446
2023-07-14T13:02:09.758Z,carts-delete,network_in,62842
2023-07-14T13:02:09.869Z,carts-get,network_in,65811
2023-07-14T13:02:09.869Z,shipping,network_in,17392
2023-07-14T13:02:19.657Z,carts,network_in,59719
2023-07-14T13:02:19.657Z,queue-master,network_in,20924
2023-07-14T13:02:19.657Z,carts-post,network_in,66771
2023-07-14T13:02:19.758Z,orders,network_in,51966
2023-07-14T13:02:19.657Z,payment,network_in,22446
2023-07-14T13:02:19.758Z,carts-get,network_in,59197
2023-07-14T13:02:19.758Z,carts-delete,network_in,68319
2023-07-14T13:02:19.869Z,carts-get,network_in,65811
2023-07-14T13:02:19.869Z,shipping,network_in,17392
2023-07-14T13:02:19.758Z,user-login,network_in,32628
2023-07-14T13:02:19.869Z,catalogue,network_in,28215
2023-07-14T13:02:19.869Z,carts-get,network_in,58697
2023-07-14T13:02:19.657Z,user,network_in,27688
2023-07-14T13:02:19.657Z,carts-get,network_in,56953
2023-07-14T13:02:19.657Z,user-register,network_in,31802
2023-07-14T13:02:19.758Z,carts-get,network_in,66990
2023-07-14T13:02:19.869Z,carts-get,network_in,71519
2023-07-14T13:02:29.759Z,carts-get,network_in,78080
2023-07-14T13:02:29.759Z,carts-get,network_in,64993
2023-07-14T13:02:29.759Z,user-login,network_in,36690
2023-07-14T13:02:29.658Z,carts-get,network_in,68309
2023-07-14T13:02:29.658Z,user,network_in,28941
2023-07-14T13:02:29.658Z,carts,network_in,71141
2023-07-14T13:02:29.869Z,carts-get,network_in,82220
2023-07-14T13:02:29.658Z,queue-master,network_in,23252
2023-07-14T13:02:29.759Z,carts-delete,network_in,84237
2023-07-14T13:02:29.869Z,carts-get,network_in,76446
2023-07-14T13:02:29.658Z,carts-post,network_in,78127
2023-07-14T13:02:29.658Z,user-register,network_in,33055
2023-07-14T13:02:29.658Z,payment,network_in,23342
2023-07-14T13:02:29.759Z,orders,network_in,62767
2023-07-14T13:02:29.869Z,carts-get,network_in,70168
2023-07-14T13:02:29.869Z,catalogue,network_in,29111
2023-07-14T13:02:29.869Z,shipping,network_in,18646
2023-07-14T13:02:39.758Z,orders,network_in,62767
2023-07-14T13:02:39.758Z,carts-get,network_in,78080
2023-07-14T13:02:39.870Z,catalogue,network_in,30007
2023-07-14T13:02:39.870Z,carts-get,network_in,81857
2023-07-14T13:02:39.658Z,carts-post,network_in,89417
2023-07-14T13:02:39.658Z,carts-get,network_in,79136
2023-07-14T13:02:39.658Z,payment,network_in,23342
2023-07-14T13:02:39.658Z,user-register,network_in,36042
2023-07-14T13:02:39.658Z,user,network_in,28941
2023-07-14T13:02:39.758Z,carts-get,network_in,64993
2023-07-14T13:02:39.758Z,user-login,network_in,36690
2023-07-14T13:02:39.870Z,carts-get,network_in,75579
2023-07-14T13:02:39.658Z,queue-master,network_in,24280
2023-07-14T13:02:39.658Z,carts,network_in,82431
2023-07-14T13:02:39.758Z,carts-delete,network_in,84237
2023-07-14T13:02:39.870Z,shipping,network_in,20834
2023-07-14T13:02:39.870Z,carts-get,network_in,93108
2023-07-14T13:02:49.657Z,carts,network_in,88208
2023-07-14T13:02:49.657Z,carts-post,network_in,95194
2023-07-14T13:02:49.870Z,catalogue,network_in,30007
2023-07-14T13:02:49.870Z,carts-get,network_in,92877
2023-07-14T13:02:49.759Z,carts-delete,network_in,90165
2023-07-14T13:02:49.870Z,carts-get,network_in,86148
2023-07-14T13:02:49.759Z,carts-get,network_in,83491
2023-07-14T13:02:49.759Z,carts-get,network_in,86322
2023-07-14T13:02:49.657Z,carts-get,network_in,79136
2023-07-14T13:02:49.657Z,user-register,network_in,36042
2023-07-14T13:02:49.657Z,user,network_in,31928
2023-07-14T13:02:49.657Z,queue-master,network_in,24280
2023-07-14T13:02:49.657Z,payment,network_in,25266
2023-07-14T13:02:49.870Z,shipping,network_in,20834
2023-07-14T13:02:49.870Z,carts-get,network_in,98651
2023-07-14T13:02:49.759Z,user-login,network_in,39575
2023-07-14T13:02:49.759Z,orders,network_in,68815
2023-07-14T13:02:59.759Z,carts-get,network_in,86322
2023-07-14T13:02:59.869Z,shipping,network_in,20834
2023-07-14T13:02:59.869Z,carts-get,network_in,98651
2023-07-14T13:02:59.759Z,user-login,network_in,42080
2023-07-14T13:02:59.657Z,carts-post,network_in,101041
2023-07-14T13:02:59.657Z,carts-get,network_in,85376
2023-07-14T13:02:59.657Z,user,network_in,33247
2023-07-14T13:02:59.869Z,carts-get,network_in,86148
2023-07-14T13:02:59.759Z,orders,network_in,79682
2023-07-14T13:02:59.657Z,carts,network_in,88208
2023-07-14T13:02:59.657Z,user-register,network_in,37295
2023-07-14T13:02:59.657Z,payment,network_in,26162
2023-07-14T13:02:59.657Z,queue-master,network_in,26534
2023-07-14T13:02:59.869Z,catalogue,network_in,30007
2023-07-14T13:02:59.869Z,carts-get,network_in,92877
2023-07-14T13:02:59.759Z,carts-get,network_in,94192
2023-07-14T13:02:59.759Z,carts-delete,network_in,95642
2023-07-14T13:03:09.657Z,carts-get,network_in,85376
2023-07-14T13:03:09.657Z,queue-master,network_in,27632
2023-07-14T13:03:09.657Z,user-register,network_in,40492
2023-07-14T13:03:09.657Z,carts-post,network_in,101041
2023-07-14T13:03:09.657Z,user,network_in,33247
2023-07-14T13:03:09.657Z,payment,network_in,27198
2023-07-14T13:03:09.657Z,carts,network_in,93923
2023-07-14T13:03:09.759Z,carts-get,network_in,94192
2023-07-14T13:03:09.759Z,carts-get,network_in,97276
2023-07-14T13:03:09.759Z,orders,network_in,79682
2023-07-14T13:03:09.759Z,carts-delete,network_in,106211
2023-07-14T13:03:09.869Z,carts-get,network_in,109473
2023-07-14T13:03:09.869Z,catalogue,network_in,33661
2023-07-14T13:03:09.869Z,carts-get,network_in,98875
2023-07-14T13:03:09.759Z,user-login,network_in,44965
2023-07-14T13:03:09.869Z,carts-get,network_in,92014
2023-07-14T13:03:09.869Z,shipping,network_in,24206
2023-07-14T13:03:19.657Z,carts-get,network_in,85376
2023-07-14T13:03:19.657Z,queue-master,network_in,27632
2023-07-14T13:03:19.657Z,user-register,network_in,40492
2023-07-14T13:03:19.657Z,carts-post,network_in,101041
2023-07-14T13:03:19.657Z,user,network_in,33247
2023-07-14T13:03:19.657Z,payment,network_in,27198
2023-07-14T13:03:19.657Z,carts,network_in,93923
2023-07-14T13:03:19.869Z,catalogue,network_in,34627
2023-07-14T13:03:19.869Z,carts-get,network_in,102653
2023-07-14T13:03:19.759Z,user-login,network_in,44965
2023-07-14T13:03:19.869Z,carts-get,network_in,98875
2023-07-14T13:03:19.759Z,carts-delete,network_in,112143
2023-07-14T13:03:19.759Z,carts-get,network_in,105080
2023-07-14T13:03:19.869Z,shipping,network_in,25452
2023-07-14T13:03:19.869Z,carts-get,network_in,115020
2023-07-14T13:03:19.759Z,orders,network_in,90934
2023-07-14T13:03:19.759Z,carts-get,network_in,102757
2023-07-14T13:03:29.657Z,carts-post,network_in,118252
2023-07-14T13:03:29.657Z,carts-get,network_in,102723
2023-07-14T13:03:29.657Z,user,network_in,38901
2023-07-14T13:03:29.758Z,carts-get,network_in,105080
2023-07-14T13:03:29.869Z,carts-get,network_in,102653
2023-07-14T13:03:29.657Z,carts,network_in,105489
2023-07-14T13:03:29.657Z,user-register,network_in,42949
2023-07-14T13:03:29.758Z,user-login,network_in,44965
2023-07-14T13:03:29.869Z,shipping,network_in,25452
2023-07-14T13:03:29.657Z,payment,network_in,30026
2023-07-14T13:03:29.657Z,queue-master,network_in,30104
2023-07-14T13:03:29.758Z,carts-delete,network_in,112143
2023-07-14T13:03:29.869Z,carts-get,network_in,109518
2023-07-14T13:03:29.758Z,orders,network_in,90934
2023-07-14T13:03:29.758Z,carts-get,network_in,102757
2023-07-14T13:03:29.869Z,carts-get,network_in,115020
2023-07-14T13:03:29.869Z,catalogue,network_in,34627
2023-07-14T13:03:39.657Z,carts-post,network_in,118252
2023-07-14T13:03:39.758Z,carts-delete,network_in,112143
2023-07-14T13:03:39.869Z,carts-get,network_in,109518
2023-07-14T13:03:39.657Z,carts-get,network_in,108438
2023-07-14T13:03:39.869Z,carts-get,network_in,115020
2023-07-14T13:03:39.869Z,catalogue,network_in,34627
2023-07-14T13:03:39.657Z,user-register,network_in,42949
2023-07-14T13:03:39.657Z,queue-master,network_in,31202
2023-07-14T13:03:39.657Z,carts,network_in,117183
2023-07-14T13:03:39.758Z,orders,network_in,97052
2023-07-14T13:03:39.758Z,user-login,network_in,47610
2023-07-14T13:03:39.758Z,carts-get,network_in,102757
2023-07-14T13:03:39.869Z,carts-get,network_in,102653
2023-07-14T13:03:39.657Z,user,network_in,38901
2023-07-14T13:03:39.657Z,payment,network_in,30026
2023-07-14T13:03:39.758Z,carts-get,network_in,116174
2023-07-14T13:03:39.869Z,shipping,network_in,25452
2023-07-14T13:03:49.657Z,queue-master,network_in,32366
2023-07-14T13:03:49.657Z,carts-get,network_in,108438
2023-07-14T13:03:49.657Z,carts,network_in,117183
2023-07-14T13:03:49.657Z,user-register,network_in,44872
2023-07-14T13:03:49.657Z,payment,network_in,31888
2023-07-14T13:03:49.657Z,carts-post,network_in,124430
2023-07-14T13:03:49.657Z,user,network_in,41009
2023-07-14T13:03:49.759Z,carts-get,network_in,119600
2023-07-14T13:03:49.869Z,carts-get,network_in,126635
2023-07-14T13:03:49.759Z,user-login,network_in,49279
2023-07-14T13:03:49.759Z,orders,network_in,108378
2023-07-14T13:03:49.869Z,shipping,network_in,28824
2023-07-14T13:03:49.759Z,carts-delete,network_in,128403
2023-07-14T13:03:49.869Z,carts-get,network_in,113813
2023-07-14T13:03:49.759Z,carts-get,network_in,121655
2023-07-14T13:03:49.869Z,catalogue,network_in,36629
2023-07-14T13:03:49.869Z,carts-get,network_in,115454
2023-07-14T13:03:59.759Z,carts-delete,network_in,128403
2023-07-14T13:03:59.759Z,orders,network_in,108378
2023-07-14T13:03:59.870Z,shipping,network_in,30062
2023-07-14T13:03:59.657Z,queue-master,network_in,32366
2023-07-14T13:03:59.657Z,carts-get,network_in,108438
2023-07-14T13:03:59.759Z,carts-get,network_in,119600
2023-07-14T13:03:59.657Z,carts-post,network_in,124430
2023-07-14T13:03:59.657Z,user,network_in,41009
2023-07-14T13:03:59.759Z,user-login,network_in,49279
2023-07-14T13:03:59.870Z,catalogue,network_in,38627
2023-07-14T13:03:59.657Z,carts,network_in,117183
2023-07-14T13:03:59.657Z,user-register,network_in,44872
2023-07-14T13:03:59.657Z,payment,network_in,31888
2023-07-14T13:03:59.759Z,carts-get,network_in,121655
2023-07-14T13:03:59.870Z,carts-get,network_in,137546
2023-07-14T13:03:59.870Z,carts-get,network_in,126167
2023-07-14T13:03:59.870Z,carts-get,network_in,119951
2023-07-14T13:04:09.657Z,user,network_in,43742
2023-07-14T13:04:09.657Z,carts-post,network_in,135988
2023-07-14T13:04:09.657Z,carts,network_in,129410
2023-07-14T13:04:09.657Z,queue-master,network_in,34492
2023-07-14T13:04:09.657Z,carts-get,network_in,131298
2023-07-14T13:04:09.657Z,user-register,network_in,47448
2023-07-14T13:04:09.657Z,payment,network_in,33064
2023-07-14T13:04:09.869Z,carts-get,network_in,132095
2023-07-14T13:04:09.869Z,carts-get,network_in,143093
2023-07-14T13:04:09.869Z,carts-get,network_in,125362
2023-07-14T13:04:09.869Z,catalogue,network_in,38627
2023-07-14T13:04:09.759Z,carts-get,network_in,125011
2023-07-14T13:04:09.759Z,carts-delete,network_in,133814
2023-07-14T13:04:09.759Z,carts-get,network_in,127587
2023-07-14T13:04:09.759Z,orders,network_in,113971
2023-07-14T13:04:09.759Z,user-login,network_in,53144
2023-07-14T13:04:09.869Z,shipping,network_in,30062
2023-07-14T13:04:19.758Z,user-login,network_in,53144
2023-07-14T13:04:19.869Z,shipping,network_in,31226
2023-07-14T13:04:19.869Z,carts-get,network_in,137572
2023-07-14T13:04:19.657Z,carts-get,network_in,131298
2023-07-14T13:04:19.657Z,carts,network_in,129410
2023-07-14T13:04:19.758Z,carts-get,network_in,125011
2023-07-14T13:04:19.657Z,payment,network_in,34856
2023-07-14T13:04:19.657Z,user,network_in,43742
2023-07-14T13:04:19.657Z,user-register,network_in,49392
2023-07-14T13:04:19.758Z,orders,network_in,113971
2023-07-14T13:04:19.869Z,carts-get,network_in,143093
2023-07-14T13:04:19.657Z,carts-post,network_in,147091
2023-07-14T13:04:19.657Z,queue-master,network_in,35792
2023-07-14T13:04:19.758Z,carts-delete,network_in,133814
2023-07-14T13:04:19.758Z,carts-get,network_in,127587
2023-07-14T13:04:19.869Z,catalogue,network_in,39593
2023-07-14T13:04:19.869Z,carts-get,network_in,130843
2023-07-14T13:04:29.657Z,carts-get,network_in,142261
2023-07-14T13:04:29.657Z,payment,network_in,34856
2023-07-14T13:04:29.758Z,carts-get,network_in,138288
2023-07-14T13:04:29.657Z,carts,network_in,140770
2023-07-14T13:04:29.869Z,catalogue,network_in,39593
2023-07-14T13:04:29.869Z,carts-get,network_in,130843
2023-07-14T13:04:29.657Z,carts-post,network_in,152806
2023-07-14T13:04:29.657Z,queue-master,network_in,37162
2023-07-14T13:04:29.657Z,user,network_in,46799
2023-07-14T13:04:29.758Z,carts-get,network_in,130807
2023-07-14T13:04:29.758Z,orders,network_in,125091
2023-07-14T13:04:29.869Z,carts-get,network_in,143093
2023-07-14T13:04:29.657Z,user-register,network_in,51849
2023-07-14T13:04:29.758Z,carts-delete,network_in,139742
2023-07-14T13:04:29.758Z,user-login,network_in,55963
2023-07-14T13:04:29.869Z,shipping,network_in,31226
2023-07-14T13:04:29.869Z,carts-get,network_in,137572
2023-07-14T13:04:39.657Z,user-register,network_in,51849
2023-07-14T13:04:39.657Z,carts-get,network_in,142261
2023-07-14T13:04:39.657Z,payment,network_in,34856
2023-07-14T13:04:39.657Z,carts-post,network_in,152806
2023-07-14T13:04:39.657Z,queue-master,network_in,37162
2023-07-14T13:04:39.657Z,user,network_in,46799
2023-07-14T13:04:39.657Z,carts,network_in,140770
2023-07-14T13:04:39.759Z,orders,network_in,136553
2023-07-14T13:04:39.869Z,carts-get,network_in,148075
2023-07-14T13:04:39.869Z,carts-get,network_in,141412
2023-07-14T13:04:39.869Z,catalogue,network_in,42281
2023-07-14T13:04:39.869Z,carts-get,network_in,159590
2023-07-14T13:04:39.759Z,user-login,network_in,59940
2023-07-14T13:04:39.759Z,carts-get,network_in,149903
2023-07-14T13:04:39.759Z,carts-delete,network_in,150704
2023-07-14T13:04:39.759Z,carts-get,network_in,141769
2023-07-14T13:04:39.869Z,shipping,network_in,33600
2023-07-14T13:04:49.657Z,user,network_in,49786
2023-07-14T13:04:49.657Z,user-register,network_in,53702
2023-07-14T13:04:49.869Z,shipping,network_in,36006
2023-07-14T13:04:49.869Z,carts-get,network_in,147274
2023-07-14T13:04:49.657Z,carts-get,network_in,153551
2023-07-14T13:04:49.657Z,carts-post,network_in,159046
2023-07-14T13:04:49.759Z,orders,network_in,142212
2023-07-14T13:04:49.759Z,carts-delete,network_in,156115
2023-07-14T13:04:49.657Z,payment,network_in,37614
2023-07-14T13:04:49.759Z,user-login,network_in,62717
2023-07-14T13:04:49.759Z,carts-get,network_in,149903
2023-07-14T13:04:49.759Z,carts-get,network_in,152272
2023-07-14T13:04:49.657Z,carts,network_in,151597
2023-07-14T13:04:49.657Z,queue-master,network_in,38190
2023-07-14T13:04:49.869Z,carts-get,network_in,159161
2023-07-14T13:04:49.869Z,carts-get,network_in,159590
2023-07-14T13:04:49.869Z,catalogue,network_in,42281
2023-07-14T13:04:59.657Z,carts,network_in,157837
2023-07-14T13:04:59.657Z,carts-post,network_in,170005
2023-07-14T13:04:59.657Z,carts-get,network_in,159659
2023-07-14T13:04:59.758Z,orders,network_in,142212
2023-07-14T13:04:59.758Z,user-login,network_in,62717
2023-07-14T13:04:59.758Z,carts-delete,network_in,156115
2023-07-14T13:04:59.869Z,carts-get,network_in,159161
2023-07-14T13:04:59.869Z,carts-get,network_in,159590
2023-07-14T13:04:59.869Z,catalogue,network_in,42281
2023-07-14T13:04:59.657Z,queue-master,network_in,40510
2023-07-14T13:04:59.657Z,payment,network_in,38510
2023-07-14T13:04:59.657Z,user-register,network_in,56089
2023-07-14T13:04:59.657Z,user,network_in,52173
2023-07-14T13:04:59.758Z,carts-get,network_in,149903
2023-07-14T13:04:59.758Z,carts-get,network_in,152272
2023-07-14T13:04:59.869Z,shipping,network_in,36006
2023-07-14T13:04:59.869Z,carts-get,network_in,147274
2023-07-14T13:05:09.657Z,carts-post,network_in,170005
2023-07-14T13:05:09.759Z,user-login,network_in,65222
2023-07-14T13:05:09.869Z,carts-get,network_in,170676
2023-07-14T13:05:09.657Z,payment,network_in,38510
2023-07-14T13:05:09.657Z,carts,network_in,168928
2023-07-14T13:05:09.759Z,carts-get,network_in,160472
2023-07-14T13:05:09.657Z,user-register,network_in,56089
2023-07-14T13:05:09.657Z,carts-get,network_in,159659
2023-07-14T13:05:09.759Z,carts-get,network_in,152272
2023-07-14T13:05:09.759Z,carts-delete,network_in,156115
2023-07-14T13:05:09.869Z,carts-get,network_in,157975
2023-07-14T13:05:09.657Z,queue-master,network_in,41604
2023-07-14T13:05:09.657Z,user,network_in,52173
2023-07-14T13:05:09.759Z,orders,network_in,142212
2023-07-14T13:05:09.869Z,catalogue,network_in,43177
2023-07-14T13:05:09.869Z,carts-get,network_in,164572
2023-07-14T13:05:09.869Z,shipping,network_in,37034
2023-07-14T13:05:19.657Z,user,network_in,55279
2023-07-14T13:05:19.657Z,carts-post,network_in,181427
2023-07-14T13:05:19.657Z,user-register,network_in,57942
2023-07-14T13:05:19.657Z,queue-master,network_in,41604
2023-07-14T13:05:19.657Z,carts-get,network_in,165304
2023-07-14T13:05:19.657Z,payment,network_in,40302
2023-07-14T13:05:19.657Z,carts,network_in,168928
2023-07-14T13:05:19.870Z,carts-get,network_in,170434
2023-07-14T13:05:19.870Z,carts-get,network_in,176604
2023-07-14T13:05:19.759Z,user-login,network_in,66709
2023-07-14T13:05:19.759Z,carts-get,network_in,168703
2023-07-14T13:05:19.870Z,shipping,network_in,39168
2023-07-14T13:05:19.870Z,carts-get,network_in,163903
2023-07-14T13:05:19.759Z,carts-get,network_in,176903
2023-07-14T13:05:19.759Z,carts-delete,network_in,178089
2023-07-14T13:05:19.759Z,orders,network_in,158925
2023-07-14T13:05:19.870Z,catalogue,network_in,44969
2023-07-14T13:05:29.657Z,carts-get,network_in,176594
2023-07-14T13:05:29.657Z,user,network_in,56413
2023-07-14T13:05:29.759Z,carts-get,network_in,174499
2023-07-14T13:05:29.869Z,carts-get,network_in,170434
2023-07-14T13:05:29.657Z,user-register,network_in,57942
2023-07-14T13:05:29.657Z,carts,network_in,180416
2023-07-14T13:05:29.759Z,carts-get,network_in,176903
2023-07-14T13:05:29.869Z,carts-get,network_in,163903
2023-07-14T13:05:29.657Z,payment,network_in,40302
2023-07-14T13:05:29.657Z,carts-post,network_in,181427
2023-07-14T13:05:29.759Z,user-login,network_in,66709
2023-07-14T13:05:29.759Z,orders,network_in,164584
2023-07-14T13:05:29.869Z,carts-get,network_in,176604
2023-07-14T13:05:29.869Z,shipping,network_in,40370
2023-07-14T13:05:29.657Z,queue-master,network_in,43998
2023-07-14T13:05:29.759Z,carts-delete,network_in,178089
2023-07-14T13:05:29.869Z,catalogue,network_in,46761
2023-07-14T13:05:39.657Z,payment,network_in,40302
2023-07-14T13:05:39.657Z,carts-post,network_in,181427
2023-07-14T13:05:39.758Z,user-login,network_in,66709
2023-07-14T13:05:39.657Z,queue-master,network_in,43998
2023-07-14T13:05:39.869Z,carts-get,network_in,174857
2023-07-14T13:05:39.869Z,shipping,network_in,40370
2023-07-14T13:05:39.657Z,user-register,network_in,57942
2023-07-14T13:05:39.657Z,carts,network_in,180416
2023-07-14T13:05:39.758Z,carts-get,network_in,174499
2023-07-14T13:05:39.758Z,carts-get,network_in,176903
2023-07-14T13:05:39.869Z,carts-get,network_in,187426
2023-07-14T13:05:39.657Z,carts-get,network_in,176594
2023-07-14T13:05:39.657Z,user,network_in,56413
2023-07-14T13:05:39.758Z,carts-delete,network_in,178089
2023-07-14T13:05:39.758Z,orders,network_in,164584
2023-07-14T13:05:39.869Z,catalogue,network_in,46761
2023-07-14T13:05:39.869Z,carts-get,network_in,181069
2023-07-14T13:05:49.658Z,payment,network_in,42990
2023-07-14T13:05:49.658Z,carts,network_in,186193
2023-07-14T13:05:49.658Z,carts-post,network_in,198494
2023-07-14T13:05:49.870Z,catalogue,network_in,48553
2023-07-14T13:05:49.870Z,carts-get,network_in,186865
2023-07-14T13:05:49.658Z,user-register,network_in,63435
2023-07-14T13:05:49.870Z,carts-get,network_in,197995
2023-07-14T13:05:49.758Z,carts-delete,network_in,183632
2023-07-14T13:05:49.658Z,queue-master,network_in,45026
2023-07-14T13:05:49.658Z,user,network_in,58266
2023-07-14T13:05:49.758Z,user-login,network_in,72033
2023-07-14T13:05:49.758Z,carts-get,network_in,179910
2023-07-14T13:05:49.758Z,carts-get,network_in,188242
2023-07-14T13:05:49.658Z,carts-get,network_in,187884
2023-07-14T13:05:49.870Z,shipping,network_in,41530
2023-07-14T13:05:49.870Z,carts-get,network_in,174857
2023-07-14T13:05:49.758Z,orders,network_in,175770
2023-07-14T13:05:59.657Z,carts-post,network_in,198494
2023-07-14T13:05:59.759Z,carts-get,network_in,188242
2023-07-14T13:05:59.657Z,user,network_in,59519
2023-07-14T13:05:59.657Z,user-register,network_in,63435
2023-07-14T13:05:59.869Z,shipping,network_in,41530
2023-07-14T13:05:59.869Z,carts-get,network_in,174857
2023-07-14T13:05:59.759Z,carts-get,network_in,190413
2023-07-14T13:05:59.657Z,queue-master,network_in,47280
2023-07-14T13:05:59.869Z,carts-get,network_in,197995
2023-07-14T13:05:59.759Z,user-login,network_in,72033
2023-07-14T13:05:59.759Z,orders,network_in,181429
2023-07-14T13:05:59.657Z,payment,network_in,42990
2023-07-14T13:05:59.657Z,carts,network_in,197549
2023-07-14T13:05:59.657Z,carts-get,network_in,187884
2023-07-14T13:05:59.869Z,catalogue,network_in,48553
2023-07-14T13:05:59.869Z,carts-get,network_in,186865
2023-07-14T13:05:59.759Z,carts-delete,network_in,194652
2023-07-14T13:06:09.658Z,user-register,network_in,64688
2023-07-14T13:06:09.869Z,carts-get,network_in,203923
2023-07-14T13:06:09.869Z,carts-get,network_in,190903
2023-07-14T13:06:09.658Z,user,network_in,59519
2023-07-14T13:06:09.758Z,carts-get,network_in,188242
2023-07-14T13:06:09.869Z,shipping,network_in,42908
2023-07-14T13:06:09.658Z,queue-master,network_in,48374
2023-07-14T13:06:09.658Z,payment,network_in,43886
2023-07-14T13:06:09.758Z,carts-delete,network_in,194652
2023-07-14T13:06:09.758Z,user-login,network_in,72033
2023-07-14T13:06:09.869Z,carts-get,network_in,197819
2023-07-14T13:06:09.658Z,carts-post,network_in,209982
2023-07-14T13:06:09.658Z,carts,network_in,197549
2023-07-14T13:06:09.658Z,carts-get,network_in,198711
2023-07-14T13:06:09.758Z,carts-get,network_in,190413
2023-07-14T13:06:09.758Z,orders,network_in,181429
2023-07-14T13:06:09.869Z,catalogue,network_in,49449
2023-07-14T13:06:19.657Z,user,network_in,62506
2023-07-14T13:06:19.657Z,user-register,network_in,64688
2023-07-14T13:06:19.657Z,carts,network_in,203789
2023-07-14T13:06:19.657Z,payment,network_in,44782
2023-07-14T13:06:19.869Z,shipping,network_in,45096
2023-07-14T13:06:19.759Z,carts-get,network_in,201235
2023-07-14T13:06:19.759Z,carts-get,network_in,204673
2023-07-14T13:06:19.657Z,carts-get,network_in,204819
2023-07-14T13:06:19.869Z,catalogue,network_in,51241
2023-07-14T13:06:19.869Z,carts-get,network_in,190903
2023-07-14T13:06:19.759Z,user-login,network_in,77423
2023-07-14T13:06:19.759Z,carts-delete,network_in,200129
2023-07-14T13:06:19.657Z,carts-post,network_in,215627
2023-07-14T13:06:19.657Z,queue-master,network_in,48374
2023-07-14T13:06:19.869Z,carts-get,network_in,208322
2023-07-14T13:06:19.869Z,carts-get,network_in,203923
2023-07-14T13:06:19.759Z,orders,network_in,192747
2023-07-14T13:06:29.869Z,catalogue,network_in,51241
2023-07-14T13:06:29.657Z,carts,network_in,203789
2023-07-14T13:06:29.657Z,user,network_in,63759
2023-07-14T13:06:29.758Z,carts-get,network_in,201235
2023-07-14T13:06:29.869Z,carts-get,network_in,208322
2023-07-14T13:06:29.657Z,user-register,network_in,67675
2023-07-14T13:06:29.657Z,carts-post,network_in,215627
2023-07-14T13:06:29.758Z,carts-get,network_in,204673
2023-07-14T13:06:29.758Z,orders,network_in,192747
2023-07-14T13:06:29.869Z,shipping,network_in,47272
2023-07-14T13:06:29.869Z,carts-get,network_in,201989
2023-07-14T13:06:29.657Z,carts-get,network_in,204819
2023-07-14T13:06:29.657Z,payment,network_in,45744
2023-07-14T13:06:29.657Z,queue-master,network_in,50702
2023-07-14T13:06:29.758Z,user-login,network_in,77423
2023-07-14T13:06:29.758Z,carts-delete,network_in,200129
2023-07-14T13:06:29.869Z,carts-get,network_in,214943
2023-07-14T13:06:39.657Z,carts-get,network_in,204819
2023-07-14T13:06:39.657Z,payment,network_in,45744
2023-07-14T13:06:39.759Z,user-login,network_in,79928
2023-07-14T13:06:39.869Z,carts-get,network_in,214184
2023-07-14T13:06:39.657Z,user-register,network_in,67675
2023-07-14T13:06:39.759Z,carts-delete,network_in,211083
2023-07-14T13:06:39.869Z,catalogue,network_in,52137
2023-07-14T13:06:39.869Z,carts-get,network_in,220420
2023-07-14T13:06:39.657Z,carts,network_in,203789
2023-07-14T13:06:39.657Z,user,network_in,63759
2023-07-14T13:06:39.759Z,carts-get,network_in,204673
2023-07-14T13:06:39.759Z,carts-get,network_in,201235
2023-07-14T13:06:39.869Z,shipping,network_in,47272
2023-07-14T13:06:39.657Z,carts-post,network_in,215627
2023-07-14T13:06:39.657Z,queue-master,network_in,50702
2023-07-14T13:06:39.759Z,orders,network_in,203680
2023-07-14T13:06:39.869Z,carts-get,network_in,212877
2023-07-14T13:06:49.657Z,carts-get,network_in,221824
2023-07-14T13:06:49.657Z,carts,network_in,226306
2023-07-14T13:06:49.657Z,carts-post,network_in,226917
2023-07-14T13:06:49.657Z,queue-master,network_in,52824
2023-07-14T13:06:49.869Z,shipping,network_in,48300
2023-07-14T13:06:49.869Z,carts-get,network_in,214184
2023-07-14T13:06:49.869Z,carts-get,network_in,230923
2023-07-14T13:06:49.759Z,user-login,network_in,82771
2023-07-14T13:06:49.657Z,user-register,network_in,68928
2023-07-14T13:06:49.869Z,carts-get,network_in,212877
2023-07-14T13:06:49.759Z,carts-get,network_in,217600
2023-07-14T13:06:49.657Z,payment,network_in,48568
2023-07-14T13:06:49.657Z,user,network_in,66865
2023-07-14T13:06:49.869Z,catalogue,network_in,53033
2023-07-14T13:06:49.759Z,orders,network_in,209724
2023-07-14T13:06:49.759Z,carts-delete,network_in,227580
2023-07-14T13:06:49.759Z,carts-get,network_in,221038
2023-07-14T13:06:59.869Z,shipping,network_in,48300
2023-07-14T13:06:59.869Z,catalogue,network_in,53033
2023-07-14T13:06:59.758Z,user-login,network_in,82771
2023-07-14T13:06:59.758Z,carts-delete,network_in,227580
2023-07-14T13:06:59.758Z,carts-get,network_in,221038
2023-07-14T13:06:59.758Z,carts-get,network_in,217600
2023-07-14T13:06:59.657Z,queue-master,network_in,53988
2023-07-14T13:06:59.657Z,carts-get,network_in,221824
2023-07-14T13:06:59.657Z,carts,network_in,232083
2023-07-14T13:06:59.657Z,user,network_in,69133
2023-07-14T13:06:59.657Z,payment,network_in,48568
2023-07-14T13:06:59.869Z,carts-get,network_in,214184
2023-07-14T13:06:59.869Z,carts-get,network_in,230923
2023-07-14T13:06:59.657Z,user-register,network_in,71985
2023-07-14T13:06:59.657Z,carts-post,network_in,233095
2023-07-14T13:06:59.758Z,orders,network_in,209724
2023-07-14T13:06:59.869Z,carts-get,network_in,212877
2023-07-14T13:07:09.657Z,queue-master,network_in,53988
2023-07-14T13:07:09.657Z,user-register,network_in,73378
2023-07-14T13:07:09.657Z,payment,network_in,50570
2023-07-14T13:07:09.657Z,user,network_in,71196
2023-07-14T13:07:09.657Z,carts-post,network_in,244128
2023-07-14T13:07:09.657Z,carts-get,network_in,232861
2023-07-14T13:07:09.657Z,carts,network_in,232083
2023-07-14T13:07:09.869Z,carts-get,network_in,223839
2023-07-14T13:07:09.869Z,catalogue,network_in,54965
2023-07-14T13:07:09.869Z,shipping,network_in,52010
2023-07-14T13:07:09.759Z,orders,network_in,220910
2023-07-14T13:07:09.759Z,carts-delete,network_in,233057
2023-07-14T13:07:09.869Z,carts-get,network_in,225344
2023-07-14T13:07:09.759Z,carts-get,network_in,223462
2023-07-14T13:07:09.869Z,carts-get,network_in,236789
2023-07-14T13:07:09.759Z,user-login,network_in,86805
2023-07-14T13:07:09.759Z,carts-get,network_in,232058
2023-07-14T13:07:19.657Z,user,network_in,71196
2023-07-14T13:07:19.657Z,carts-post,network_in,244128
2023-07-14T13:07:19.657Z,queue-master,network_in,53988
2023-07-14T13:07:19.657Z,user-register,network_in,73378
2023-07-14T13:07:19.657Z,carts-get,network_in,232861
2023-07-14T13:07:19.657Z,payment,network_in,50570
2023-07-14T13:07:19.657Z,carts,network_in,232083
2023-07-14T13:07:19.759Z,user-login,network_in,88095
2023-07-14T13:07:19.759Z,orders,network_in,220910
2023-07-14T13:07:19.869Z,carts-get,network_in,247296
2023-07-14T13:07:19.869Z,shipping,network_in,52010
2023-07-14T13:07:19.869Z,carts-get,network_in,229701
2023-07-14T13:07:19.759Z,carts-delete,network_in,238468
2023-07-14T13:07:19.869Z,catalogue,network_in,55931
2023-07-14T13:07:19.869Z,carts-get,network_in,235983
2023-07-14T13:07:19.759Z,carts-get,network_in,237469
2023-07-14T13:07:19.759Z,carts-get,network_in,228873
2023-07-14T13:07:29.658Z,payment,network_in,51466
2023-07-14T13:07:29.658Z,carts-get,network_in,238969
2023-07-14T13:07:29.759Z,orders,network_in,220910
2023-07-14T13:07:29.658Z,carts,network_in,249558
2023-07-14T13:07:29.658Z,user,network_in,72449
2023-07-14T13:07:29.759Z,carts-get,network_in,228873
2023-07-14T13:07:29.869Z,catalogue,network_in,55931
2023-07-14T13:07:29.869Z,carts-get,network_in,235983
2023-07-14T13:07:29.658Z,user-register,network_in,76365
2023-07-14T13:07:29.759Z,user-login,network_in,88095
2023-07-14T13:07:29.759Z,carts-delete,network_in,238468
2023-07-14T13:07:29.658Z,carts-post,network_in,250302
2023-07-14T13:07:29.658Z,queue-master,network_in,58648
2023-07-14T13:07:29.759Z,carts-get,network_in,237469
2023-07-14T13:07:29.869Z,carts-get,network_in,247296
2023-07-14T13:07:29.869Z,shipping,network_in,52010
2023-07-14T13:07:29.869Z,carts-get,network_in,229701
2023-07-14T13:07:39.658Z,user,network_in,73702
2023-07-14T13:07:39.658Z,carts-post,network_in,255947
2023-07-14T13:07:39.658Z,queue-master,network_in,58648
2023-07-14T13:07:39.658Z,carts-get,network_in,250391
2023-07-14T13:07:39.658Z,user-register,network_in,78752
2023-07-14T13:07:39.658Z,carts,network_in,249558
2023-07-14T13:07:39.658Z,payment,network_in,53258
2023-07-14T13:07:39.869Z,carts-get,network_in,241845
2023-07-14T13:07:39.759Z,carts-get,network_in,245374
2023-07-14T13:07:39.759Z,carts-get,network_in,248038
2023-07-14T13:07:39.869Z,catalogue,network_in,57723
2023-07-14T13:07:39.869Z,carts-get,network_in,258184
2023-07-14T13:07:39.869Z,shipping,network_in,54252
2023-07-14T13:07:39.759Z,orders,network_in,237825
2023-07-14T13:07:39.759Z,carts-delete,network_in,249488
2023-07-14T13:07:39.759Z,user-login,network_in,89582
2023-07-14T13:07:39.869Z,carts-get,network_in,240138
2023-07-14T13:07:49.657Z,payment,network_in,54154
2023-07-14T13:07:49.657Z,queue-master,network_in,59676
2023-07-14T13:07:49.758Z,orders,network_in,237825
2023-07-14T13:07:49.758Z,user-login,network_in,89582
2023-07-14T13:07:49.758Z,carts-get,network_in,248038
2023-07-14T13:07:49.657Z,carts,network_in,255798
2023-07-14T13:07:49.657Z,carts-post,network_in,266774
2023-07-14T13:07:49.758Z,carts-delete,network_in,249488
2023-07-14T13:07:49.869Z,carts-get,network_in,252733
2023-07-14T13:07:49.657Z,user,network_in,73702
2023-07-14T13:07:49.657Z,user-register,network_in,78752
2023-07-14T13:07:49.657Z,carts-get,network_in,256036
2023-07-14T13:07:49.758Z,carts-get,network_in,245374
2023-07-14T13:07:49.869Z,shipping,network_in,56658
2023-07-14T13:07:49.869Z,carts-get,network_in,258184
2023-07-14T13:07:49.869Z,carts-get,network_in,245934
2023-07-14T13:07:49.869Z,catalogue,network_in,59581
2023-07-14T13:07:59.657Z,carts-get,network_in,256036
2023-07-14T13:07:59.657Z,payment,network_in,54154
2023-07-14T13:07:59.657Z,user,network_in,76759
2023-07-14T13:07:59.657Z,user-register,network_in,80675
2023-07-14T13:07:59.657Z,carts,network_in,266761
2023-07-14T13:07:59.657Z,queue-master,network_in,59676
2023-07-14T13:07:59.657Z,carts-post,network_in,266774
2023-07-14T13:07:59.870Z,carts-get,network_in,258416
2023-07-14T13:07:59.759Z,carts-get,network_in,258860
2023-07-14T13:07:59.870Z,carts-get,network_in,256511
2023-07-14T13:07:59.759Z,carts-delete,network_in,260722
2023-07-14T13:07:59.759Z,carts-get,network_in,251127
2023-07-14T13:07:59.870Z,carts-get,network_in,264046
2023-07-14T13:07:59.870Z,catalogue,network_in,59581
2023-07-14T13:07:59.870Z,shipping,network_in,57888
2023-07-14T13:07:59.759Z,orders,network_in,249221
2023-07-14T13:07:59.759Z,user-login,network_in,93489
2023-07-14T13:08:09.657Z,carts,network_in,266761
2023-07-14T13:08:09.759Z,carts-delete,network_in,260722
2023-07-14T13:08:09.759Z,orders,network_in,249221
2023-07-14T13:08:09.759Z,user-login,network_in,93489
2023-07-14T13:08:09.869Z,catalogue,network_in,59581
2023-07-14T13:08:09.869Z,shipping,network_in,57888
2023-07-14T13:08:09.657Z,carts-get,network_in,266933
2023-07-14T13:08:09.869Z,carts-get,network_in,256511
2023-07-14T13:08:09.657Z,carts-post,network_in,273018
2023-07-14T13:08:09.657Z,user,network_in,78012
2023-07-14T13:08:09.759Z,carts-get,network_in,258860
2023-07-14T13:08:09.869Z,carts-get,network_in,264046
2023-07-14T13:08:09.657Z,queue-master,network_in,62066
2023-07-14T13:08:09.657Z,payment,network_in,55050
2023-07-14T13:08:09.657Z,user-register,network_in,81928
2023-07-14T13:08:09.759Z,carts-get,network_in,251127
2023-07-14T13:08:09.869Z,carts-get,network_in,258416
2023-07-14T13:08:19.657Z,carts,network_in,266761
2023-07-14T13:08:19.657Z,carts-post,network_in,273018
2023-07-14T13:08:19.657Z,user,network_in,78012
2023-07-14T13:08:19.657Z,queue-master,network_in,62066
2023-07-14T13:08:19.657Z,payment,network_in,55050
2023-07-14T13:08:19.657Z,user-register,network_in,81928
2023-07-14T13:08:19.657Z,carts-get,network_in,266933
2023-07-14T13:08:19.759Z,carts-delete,network_in,271357
2023-07-14T13:08:19.759Z,user-login,network_in,100313
2023-07-14T13:08:19.869Z,carts-get,network_in,268853
2023-07-14T13:08:19.869Z,shipping,network_in,60022
2023-07-14T13:08:19.759Z,carts-get,network_in,264866
2023-07-14T13:08:19.869Z,carts-get,network_in,262054
2023-07-14T13:08:19.869Z,catalogue,network_in,61513
2023-07-14T13:08:19.759Z,carts-get,network_in,267360
2023-07-14T13:08:19.759Z,orders,network_in,260407
2023-07-14T13:08:19.869Z,carts-get,network_in,280232
2023-07-14T13:08:29.657Z,user,network_in,81139
2023-07-14T13:08:29.657Z,queue-master,network_in,63234
2023-07-14T13:08:29.657Z,carts,network_in,273009
2023-07-14T13:08:29.657Z,carts-post,network_in,284117
2023-07-14T13:08:29.869Z,carts-get,network_in,274264
2023-07-14T13:08:29.869Z,shipping,network_in,60022
2023-07-14T13:08:29.759Z,carts-delete,network_in,282315
2023-07-14T13:08:29.759Z,user-login,network_in,101870
2023-07-14T13:08:29.869Z,catalogue,network_in,62409
2023-07-14T13:08:29.759Z,carts-get,network_in,267360
2023-07-14T13:08:29.759Z,orders,network_in,266000
2023-07-14T13:08:29.869Z,carts-get,network_in,267916
2023-07-14T13:08:29.657Z,carts-get,network_in,278363
2023-07-14T13:08:29.657Z,payment,network_in,56982
2023-07-14T13:08:29.657Z,user-register,network_in,83802
2023-07-14T13:08:29.759Z,carts-get,network_in,275571
2023-07-14T13:08:29.869Z,carts-get,network_in,280232
2023-07-14T13:08:39.657Z,user-register,network_in,86308
2023-07-14T13:08:39.869Z,carts-get,network_in,274264
2023-07-14T13:08:39.869Z,shipping,network_in,62326
2023-07-14T13:08:39.657Z,payment,network_in,58774
2023-07-14T13:08:39.759Z,user-login,network_in,101870
2023-07-14T13:08:39.657Z,user,network_in,82392
2023-07-14T13:08:39.657Z,queue-master,network_in,65694
2023-07-14T13:08:39.657Z,carts-post,network_in,295539
2023-07-14T13:08:39.759Z,carts-get,network_in,275571
2023-07-14T13:08:39.759Z,carts-get,network_in,267360
2023-07-14T13:08:39.869Z,carts-get,network_in,267916
2023-07-14T13:08:39.869Z,carts-get,network_in,286300
2023-07-14T13:08:39.657Z,carts-get,network_in,278363
2023-07-14T13:08:39.657Z,carts,network_in,284100
2023-07-14T13:08:39.759Z,carts-delete,network_in,282315
2023-07-14T13:08:39.759Z,orders,network_in,266000
2023-07-14T13:08:39.869Z,catalogue,network_in,64341
2023-07-14T13:08:49.657Z,queue-master,network_in,66788
2023-07-14T13:08:49.657Z,payment,network_in,59740
2023-07-14T13:08:49.657Z,user-register,network_in,89365
2023-07-14T13:08:49.657Z,user,network_in,82392
2023-07-14T13:08:49.657Z,carts,network_in,295526
2023-07-14T13:08:49.657Z,carts-post,network_in,295539
2023-07-14T13:08:49.657Z,carts-get,network_in,284471
2023-07-14T13:08:49.869Z,carts-get,network_in,279076
2023-07-14T13:08:49.759Z,user-login,network_in,105749
2023-07-14T13:08:49.759Z,carts-delete,network_in,287792
2023-07-14T13:08:49.869Z,carts-get,network_in,285358
2023-07-14T13:08:49.869Z,catalogue,network_in,64341
2023-07-14T13:08:49.759Z,carts-get,network_in,286844
2023-07-14T13:08:49.869Z,shipping,network_in,63642
2023-07-14T13:08:49.869Z,carts-get,network_in,286300
2023-07-14T13:08:49.759Z,carts-get,network_in,278065
2023-07-14T13:08:49.759Z,orders,network_in,277252
2023-07-14T13:08:59.657Z,payment,network_in,59740
2023-07-14T13:08:59.657Z,carts,network_in,295526
2023-07-14T13:08:59.758Z,carts-delete,network_in,287792
2023-07-14T13:08:59.657Z,carts-post,network_in,295539
2023-07-14T13:08:59.657Z,queue-master,network_in,66788
2023-07-14T13:08:59.758Z,orders,network_in,277252
2023-07-14T13:08:59.869Z,carts-get,network_in,285358
2023-07-14T13:08:59.869Z,catalogue,network_in,64341
2023-07-14T13:08:59.657Z,carts-get,network_in,284471
2023-07-14T13:08:59.758Z,user-login,network_in,105749
2023-07-14T13:08:59.758Z,carts-get,network_in,278065
2023-07-14T13:08:59.758Z,carts-get,network_in,286844
2023-07-14T13:08:59.869Z,carts-get,network_in,279076
2023-07-14T13:08:59.657Z,user,network_in,82392
2023-07-14T13:08:59.657Z,user-register,network_in,89365
2023-07-14T13:08:59.869Z,shipping,network_in,63642
2023-07-14T13:08:59.869Z,carts-get,network_in,286300
2023-07-14T13:09:09.657Z,carts-post,network_in,312816
2023-07-14T13:09:09.870Z,carts-get,network_in,302801
2023-07-14T13:09:09.870Z,catalogue,network_in,66133
2023-07-14T13:09:09.657Z,carts,network_in,301373
2023-07-14T13:09:09.758Z,orders,network_in,288185
2023-07-14T13:09:09.758Z,carts-get,network_in,297479
2023-07-14T13:09:09.758Z,carts-get,network_in,294364
2023-07-14T13:09:09.758Z,user-login,network_in,107236
2023-07-14T13:09:09.870Z,carts-get,network_in,290905
2023-07-14T13:09:09.870Z,shipping,network_in,65834
2023-07-14T13:09:09.657Z,payment,network_in,60776
2023-07-14T13:09:09.657Z,queue-master,network_in,69314
2023-07-14T13:09:09.657Z,user-register,network_in,90758
2023-07-14T13:09:09.657Z,carts-get,network_in,296033
2023-07-14T13:09:09.657Z,user,network_in,86908
2023-07-14T13:09:09.758Z,carts-delete,network_in,304476
2023-07-14T13:09:09.870Z,carts-get,network_in,289583
2023-07-14T13:09:19.657Z,queue-master,network_in,70408
2023-07-14T13:09:19.657Z,user-register,network_in,90758
2023-07-14T13:09:19.657Z,carts-get,network_in,307058
2023-07-14T13:09:19.657Z,payment,network_in,61672
2023-07-14T13:09:19.657Z,user,network_in,89895
2023-07-14T13:09:19.657Z,carts-post,network_in,312816
2023-07-14T13:09:19.657Z,carts,network_in,307481
2023-07-14T13:09:19.759Z,carts-get,network_in,300230
2023-07-14T13:09:19.759Z,carts-get,network_in,308705
2023-07-14T13:09:19.759Z,carts-delete,network_in,304476
2023-07-14T13:09:19.759Z,user-login,network_in,109853
2023-07-14T13:09:19.869Z,carts-get,network_in,295449
2023-07-14T13:09:19.759Z,orders,network_in,299445
2023-07-14T13:09:19.869Z,catalogue,network_in,67099
2023-07-14T13:09:19.869Z,carts-get,network_in,313506
2023-07-14T13:09:19.869Z,carts-get,network_in,301727
2023-07-14T13:09:19.869Z,shipping,network_in,66982
2023-07-14T13:09:29.759Z,carts-get,network_in,308705
2023-07-14T13:09:29.869Z,carts-get,network_in,300926
2023-07-14T13:09:29.657Z,payment,network_in,63530
2023-07-14T13:09:29.869Z,carts-get,network_in,313506
2023-07-14T13:09:29.869Z,carts-get,network_in,307204
2023-07-14T13:09:29.657Z,carts,network_in,307481
2023-07-14T13:09:29.657Z,user-register,network_in,93745
2023-07-14T13:09:29.657Z,user,network_in,89895
2023-07-14T13:09:29.657Z,carts-get,network_in,312703
2023-07-14T13:09:29.759Z,user-login,network_in,109853
2023-07-14T13:09:29.759Z,orders,network_in,299445
2023-07-14T13:09:29.869Z,catalogue,network_in,68891
2023-07-14T13:09:29.657Z,carts-post,network_in,324172
2023-07-14T13:09:29.657Z,queue-master,network_in,71708
2023-07-14T13:09:29.759Z,carts-delete,network_in,304476
2023-07-14T13:09:29.759Z,carts-get,network_in,300230
2023-07-14T13:09:29.869Z,shipping,network_in,66982
2023-07-14T13:09:39.657Z,carts-post,network_in,324172
2023-07-14T13:09:39.657Z,queue-master,network_in,71708
2023-07-14T13:09:39.657Z,payment,network_in,63530
2023-07-14T13:09:39.657Z,carts,network_in,307481
2023-07-14T13:09:39.657Z,user-register,network_in,93745
2023-07-14T13:09:39.657Z,user,network_in,89895
2023-07-14T13:09:39.657Z,carts-get,network_in,312703
2023-07-14T13:09:39.869Z,carts-get,network_in,300926
2023-07-14T13:09:39.759Z,carts-get,network_in,314571
2023-07-14T13:09:39.869Z,shipping,network_in,68010
2023-07-14T13:09:39.869Z,carts-get,network_in,307204
2023-07-14T13:09:39.869Z,carts-get,network_in,319302
2023-07-14T13:09:39.759Z,carts-delete,network_in,315570
2023-07-14T13:09:39.869Z,catalogue,network_in,68891
2023-07-14T13:09:39.759Z,user-login,network_in,113784
2023-07-14T13:09:39.759Z,orders,network_in,310767
2023-07-14T13:09:39.759Z,carts-get,network_in,311254
2023-07-14T13:09:49.657Z,carts-get,network_in,318811
2023-07-14T13:09:49.657Z,carts-post,network_in,335660
2023-07-14T13:09:49.869Z,carts-get,network_in,311561
2023-07-14T13:09:49.759Z,carts-get,network_in,320048
2023-07-14T13:09:49.759Z,carts-get,network_in,311254
2023-07-14T13:09:49.657Z,queue-master,network_in,73962
2023-07-14T13:09:49.657Z,user,network_in,92282
2023-07-14T13:09:49.869Z,shipping,network_in,70482
2023-07-14T13:09:49.869Z,carts-get,network_in,318290
2023-07-14T13:09:49.657Z,payment,network_in,65392
2023-07-14T13:09:49.869Z,carts-get,network_in,329937
2023-07-14T13:09:49.759Z,user-login,network_in,116800
2023-07-14T13:09:49.759Z,orders,network_in,310767
2023-07-14T13:09:49.657Z,user-register,network_in,96132
2023-07-14T13:09:49.657Z,carts,network_in,318572
2023-07-14T13:09:49.869Z,catalogue,network_in,69787
2023-07-14T13:09:49.759Z,carts-delete,network_in,326205
2023-07-14T13:09:59.657Z,user-register,network_in,99189
2023-07-14T13:09:59.657Z,user,network_in,94205
2023-07-14T13:09:59.657Z,carts-get,network_in,330171
2023-07-14T13:09:59.657Z,carts,network_in,330130
2023-07-14T13:09:59.657Z,queue-master,network_in,75192
2023-07-14T13:09:59.657Z,carts-post,network_in,335660
2023-07-14T13:09:59.657Z,payment,network_in,66288
2023-07-14T13:09:59.869Z,shipping,network_in,70482
2023-07-14T13:09:59.869Z,catalogue,network_in,71579
2023-07-14T13:09:59.869Z,carts-get,network_in,329937
2023-07-14T13:09:59.759Z,carts-delete,network_in,326205
2023-07-14T13:09:59.869Z,carts-get,network_in,311561
2023-07-14T13:09:59.759Z,carts-get,network_in,330551
2023-07-14T13:09:59.759Z,carts-get,network_in,316797
2023-07-14T13:09:59.869Z,carts-get,network_in,324152
2023-07-14T13:09:59.759Z,user-login,network_in,119108
2023-07-14T13:09:59.759Z,orders,network_in,316294
2023-07-14T13:10:09.657Z,carts,network_in,330130
2023-07-14T13:10:09.657Z,queue-master,network_in,75192
2023-07-14T13:10:09.758Z,carts-delete,network_in,326205
2023-07-14T13:10:09.869Z,catalogue,network_in,72475
2023-07-14T13:10:09.869Z,carts-get,network_in,340759
2023-07-14T13:10:09.758Z,user-login,network_in,119108
2023-07-14T13:10:09.758Z,orders,network_in,316294
2023-07-14T13:10:09.869Z,shipping,network_in,72604
2023-07-14T13:10:09.657Z,user-register,network_in,99189
2023-07-14T13:10:09.657Z,carts-post,network_in,335660
2023-07-14T13:10:09.657Z,payment,network_in,66288
2023-07-14T13:10:09.869Z,carts-get,network_in,322449
2023-07-14T13:10:09.869Z,carts-get,network_in,329629
2023-07-14T13:10:09.657Z,user,network_in,94205
2023-07-14T13:10:09.657Z,carts-get,network_in,330171
2023-07-14T13:10:09.758Z,carts-get,network_in,330551
2023-07-14T13:10:09.758Z,carts-get,network_in,316797
2023-07-14T13:10:19.657Z,user-register,network_in,101042
2023-07-14T13:10:19.657Z,carts-post,network_in,347152
2023-07-14T13:10:19.758Z,carts-delete,network_in,337159
2023-07-14T13:10:19.758Z,carts-get,network_in,330551
2023-07-14T13:10:19.869Z,shipping,network_in,72604
2023-07-14T13:10:19.657Z,carts-get,network_in,335816
2023-07-14T13:10:19.758Z,orders,network_in,322206
2023-07-14T13:10:19.869Z,catalogue,network_in,72475
2023-07-14T13:10:19.869Z,carts-get,network_in,340759
2023-07-14T13:10:19.657Z,payment,network_in,67184
2023-07-14T13:10:19.869Z,carts-get,network_in,322449
2023-07-14T13:10:19.869Z,carts-get,network_in,329629
2023-07-14T13:10:19.657Z,queue-master,network_in,77314
2023-07-14T13:10:19.657Z,carts,network_in,336370
2023-07-14T13:10:19.657Z,user,network_in,98643
2023-07-14T13:10:19.758Z,user-login,network_in,119108
2023-07-14T13:10:19.758Z,carts-get,network_in,327751
2023-07-14T13:10:29.658Z,carts-post,network_in,353326
2023-07-14T13:10:29.658Z,user-register,network_in,103495
2023-07-14T13:10:29.658Z,carts,network_in,347924
2023-07-14T13:10:29.759Z,carts-get,network_in,338386
2023-07-14T13:10:29.658Z,carts-get,network_in,341461
2023-07-14T13:10:29.759Z,carts-get,network_in,336413
2023-07-14T13:10:29.869Z,carts-get,network_in,351581
2023-07-14T13:10:29.869Z,carts-get,network_in,333337
2023-07-14T13:10:29.658Z,queue-master,network_in,78614
2023-07-14T13:10:29.759Z,user-login,network_in,123456
2023-07-14T13:10:29.869Z,carts-get,network_in,340066
2023-07-14T13:10:29.869Z,shipping,network_in,73884
2023-07-14T13:10:29.658Z,user,network_in,99777
2023-07-14T13:10:29.658Z,payment,network_in,68080
2023-07-14T13:10:29.759Z,orders,network_in,327733
2023-07-14T13:10:29.759Z,carts-delete,network_in,343021
2023-07-14T13:10:29.869Z,catalogue,network_in,74333
2023-07-14T13:10:39.657Z,carts,network_in,347924
2023-07-14T13:10:39.869Z,carts-get,network_in,345928
2023-07-14T13:10:39.657Z,carts-get,network_in,352420
2023-07-14T13:10:39.657Z,user-register,network_in,103495
2023-07-14T13:10:39.758Z,carts-delete,network_in,343021
2023-07-14T13:10:39.758Z,user-login,network_in,123456
2023-07-14T13:10:39.869Z,catalogue,network_in,74333
2023-07-14T13:10:39.869Z,carts-get,network_in,338748
2023-07-14T13:10:39.657Z,payment,network_in,68080
2023-07-14T13:10:39.657Z,carts-post,network_in,364285
2023-07-14T13:10:39.657Z,queue-master,network_in,80934
2023-07-14T13:10:39.657Z,user,network_in,99777
2023-07-14T13:10:39.758Z,orders,network_in,327733
2023-07-14T13:10:39.758Z,carts-get,network_in,336413
2023-07-14T13:10:39.758Z,carts-get,network_in,338386
2023-07-14T13:10:39.869Z,carts-get,network_in,351581
2023-07-14T13:10:39.869Z,shipping,network_in,75940
