2023-07-04T19:15:27.829Z,emailservice,network_out,2492
2023-07-04T19:15:27.841Z,redis-cart,network_out,48481
2023-07-04T19:15:27.858Z,shippingservice,network_out,15299
2023-07-04T19:15:27.841Z,cartservice,network_out,50408
2023-07-04T19:15:27.841Z,currencyservice,network_out,102877
2023-07-04T19:15:27.858Z,checkoutservice,network_out,22129
2023-07-04T19:15:27.841Z,paymentservice,network_out,2368
2023-07-04T19:15:27.841Z,recommendationservice,network_out,39788
2023-07-04T19:15:27.829Z,adservice,network_out,12791
2023-07-04T19:15:27.858Z,frontend,network_out,1145752
2023-07-04T19:15:27.858Z,cartservice,network_out,1399
2023-07-04T19:15:38.196Z,paymentservice,network_out,3529
2023-07-04T19:15:38.181Z,adservice,network_out,12791
2023-07-04T19:15:38.196Z,currencyservice,network_out,123146
2023-07-04T19:15:38.196Z,recommendationservice,network_out,56569
2023-07-04T19:15:38.196Z,redis-cart,network_out,92567
2023-07-04T19:15:38.196Z,cartservice,network_out,50408
2023-07-04T19:15:38.181Z,emailservice,network_out,3674
2023-07-04T19:15:38.368Z,shippingservice,network_out,15299
2023-07-04T19:15:38.368Z,checkoutservice,network_out,22129
2023-07-04T19:15:38.368Z,frontend,network_out,1145752
2023-07-04T19:15:38.368Z,productcatalogservice,network_out,450506
2023-07-04T19:15:38.368Z,cartservice,network_out,2168
2023-07-04T19:15:48.180Z,adservice,network_out,12791
2023-07-04T19:15:48.196Z,paymentservice,network_out,3529
2023-07-04T19:15:48.180Z,emailservice,network_out,3674
2023-07-04T19:15:48.196Z,currencyservice,network_out,123146
2023-07-04T19:15:48.196Z,recommendationservice,network_out,56569
2023-07-04T19:15:48.196Z,redis-cart,network_out,92567
2023-07-04T19:15:48.196Z,cartservice,network_out,50408
2023-07-04T19:15:48.368Z,shippingservice,network_out,19390
2023-07-04T19:15:48.368Z,cartservice,network_out,2168
2023-07-04T19:15:48.368Z,checkoutservice,network_out,22789
2023-07-04T19:15:48.368Z,frontend,network_out,1588486
2023-07-04T19:15:48.368Z,productcatalogservice,network_out,658555
2023-07-04T19:15:58.195Z,redis-cart,network_out,101290
2023-07-04T19:15:58.181Z,emailservice,network_out,3740
2023-07-04T19:15:58.195Z,paymentservice,network_out,4541
2023-07-04T19:15:58.181Z,adservice,network_out,23762
2023-07-04T19:15:58.195Z,currencyservice,network_out,164432
2023-07-04T19:15:58.195Z,cartservice,network_out,78904
2023-07-04T19:15:58.195Z,recommendationservice,network_out,76960
2023-07-04T19:15:58.368Z,shippingservice,network_out,19390
2023-07-04T19:15:58.368Z,productcatalogservice,network_out,658555
2023-07-04T19:15:58.368Z,checkoutservice,network_out,22789
2023-07-04T19:15:58.368Z,cartservice,network_out,2168
2023-07-04T19:15:58.368Z,frontend,network_out,1588486
2023-07-04T19:16:08.181Z,emailservice,network_out,3782
2023-07-04T19:16:08.196Z,currencyservice,network_out,185570
2023-07-04T19:16:08.181Z,adservice,network_out,28855
2023-07-04T19:16:08.196Z,paymentservice,network_out,4541
2023-07-04T19:16:08.196Z,recommendationservice,network_out,94894
2023-07-04T19:16:08.196Z,cartservice,network_out,89843
2023-07-04T19:16:08.196Z,redis-cart,network_out,142736
2023-07-04T19:16:08.368Z,cartservice,network_out,2168
2023-07-04T19:16:08.368Z,shippingservice,network_out,21034
2023-07-04T19:16:08.368Z,productcatalogservice,network_out,658555
2023-07-04T19:16:08.368Z,frontend,network_out,1974823
2023-07-04T19:16:08.368Z,checkoutservice,network_out,24111
2023-07-04T19:16:18.195Z,currencyservice,network_out,185570
2023-07-04T19:16:18.195Z,paymentservice,network_out,4541
2023-07-04T19:16:18.195Z,cartservice,network_out,89843
2023-07-04T19:16:18.181Z,emailservice,network_out,3782
2023-07-04T19:16:18.181Z,adservice,network_out,28855
2023-07-04T19:16:18.195Z,recommendationservice,network_out,94894
2023-07-04T19:16:18.195Z,redis-cart,network_out,142736
2023-07-04T19:16:18.369Z,checkoutservice,network_out,28332
2023-07-04T19:16:18.369Z,cartservice,network_out,2885
2023-07-04T19:16:18.369Z,frontend,network_out,2503072
2023-07-04T19:16:18.369Z,shippingservice,network_out,26704
2023-07-04T19:16:18.369Z,productcatalogservice,network_out,938569
2023-07-04T19:16:28.181Z,emailservice,network_out,5092
2023-07-04T19:16:28.181Z,adservice,network_out,38890
2023-07-04T19:16:28.196Z,cartservice,network_out,106496
2023-07-04T19:16:28.196Z,currencyservice,network_out,218713
2023-07-04T19:16:28.196Z,recommendationservice,network_out,113274
2023-07-04T19:16:28.196Z,redis-cart,network_out,152834
2023-07-04T19:16:28.196Z,paymentservice,network_out,5840
2023-07-04T19:16:28.368Z,frontend,network_out,2503072
2023-07-04T19:16:28.368Z,checkoutservice,network_out,28332
2023-07-04T19:16:28.368Z,shippingservice,network_out,26704
2023-07-04T19:16:28.368Z,productcatalogservice,network_out,938569
2023-07-04T19:16:28.368Z,cartservice,network_out,2885
2023-07-04T19:16:38.195Z,redis-cart,network_out,152834
2023-07-04T19:16:38.195Z,paymentservice,network_out,5840
2023-07-04T19:16:38.181Z,emailservice,network_out,6729
2023-07-04T19:16:38.181Z,adservice,network_out,43961
2023-07-04T19:16:38.195Z,recommendationservice,network_out,113274
2023-07-04T19:16:38.195Z,cartservice,network_out,106496
2023-07-04T19:16:38.195Z,currencyservice,network_out,218713
2023-07-04T19:16:38.369Z,checkoutservice,network_out,29887
2023-07-04T19:16:38.369Z,frontend,network_out,2503072
2023-07-04T19:16:38.369Z,cartservice,network_out,2885
2023-07-04T19:16:38.369Z,productcatalogservice,network_out,1071830
2023-07-04T19:16:38.369Z,shippingservice,network_out,26704
2023-07-04T19:16:48.195Z,cartservice,network_out,124840
2023-07-04T19:16:48.195Z,currencyservice,network_out,258330
2023-07-04T19:16:48.195Z,recommendationservice,network_out,130895
2023-07-04T19:16:48.181Z,emailservice,network_out,6729
2023-07-04T19:16:48.181Z,adservice,network_out,52698
2023-07-04T19:16:48.195Z,paymentservice,network_out,7707
2023-07-04T19:16:48.195Z,redis-cart,network_out,192179
2023-07-04T19:16:48.369Z,frontend,network_out,3402932
2023-07-04T19:16:48.369Z,cartservice,network_out,3737
2023-07-04T19:16:48.369Z,shippingservice,network_out,30671
2023-07-04T19:16:48.369Z,productcatalogservice,network_out,1304196
2023-07-04T19:16:48.369Z,checkoutservice,network_out,46609
2023-07-04T19:16:58.196Z,recommendationservice,network_out,150060
2023-07-04T19:16:58.180Z,emailservice,network_out,6729
2023-07-04T19:16:58.180Z,adservice,network_out,52698
2023-07-04T19:16:58.196Z,paymentservice,network_out,7707
2023-07-04T19:16:58.196Z,currencyservice,network_out,314429
2023-07-04T19:16:58.196Z,redis-cart,network_out,205770
2023-07-04T19:16:58.196Z,cartservice,network_out,148022
2023-07-04T19:16:58.368Z,frontend,network_out,3402932
2023-07-04T19:16:58.368Z,shippingservice,network_out,30671
2023-07-04T19:16:58.368Z,productcatalogservice,network_out,1304196
2023-07-04T19:16:58.368Z,checkoutservice,network_out,46609
2023-07-04T19:16:58.368Z,cartservice,network_out,3737
2023-07-04T19:17:08.181Z,emailservice,network_out,7638
2023-07-04T19:17:08.196Z,paymentservice,network_out,8652
2023-07-04T19:17:08.181Z,adservice,network_out,57375
2023-07-04T19:17:08.196Z,cartservice,network_out,171310
2023-07-04T19:17:08.196Z,recommendationservice,network_out,150060
2023-07-04T19:17:08.196Z,currencyservice,network_out,359009
2023-07-04T19:17:08.196Z,redis-cart,network_out,205770
2023-07-04T19:17:08.369Z,productcatalogservice,network_out,1304196
2023-07-04T19:17:08.369Z,checkoutservice,network_out,46609
2023-07-04T19:17:08.369Z,cartservice,network_out,3737
2023-07-04T19:17:08.369Z,frontend,network_out,3845324
2023-07-04T19:17:08.369Z,shippingservice,network_out,41169
2023-07-04T19:17:18.195Z,recommendationservice,network_out,150060
2023-07-04T19:17:18.195Z,paymentservice,network_out,8652
2023-07-04T19:17:18.181Z,adservice,network_out,57375
2023-07-04T19:17:18.195Z,currencyservice,network_out,359009
2023-07-04T19:17:18.195Z,redis-cart,network_out,205770
2023-07-04T19:17:18.181Z,emailservice,network_out,7638
2023-07-04T19:17:18.195Z,cartservice,network_out,171310
2023-07-04T19:17:18.369Z,productcatalogservice,network_out,1681214
2023-07-04T19:17:18.369Z,shippingservice,network_out,52598
2023-07-04T19:17:18.369Z,cartservice,network_out,4520
2023-07-04T19:17:18.369Z,frontend,network_out,4343021
2023-07-04T19:17:18.369Z,checkoutservice,network_out,67684
2023-07-04T19:17:28.196Z,cartservice,network_out,185642
2023-07-04T19:17:28.180Z,adservice,network_out,71503
2023-07-04T19:17:28.196Z,currencyservice,network_out,387773
2023-07-04T19:17:28.196Z,redis-cart,network_out,264578
2023-07-04T19:17:28.180Z,emailservice,network_out,9552
2023-07-04T19:17:28.196Z,paymentservice,network_out,9843
2023-07-04T19:17:28.196Z,recommendationservice,network_out,173356
2023-07-04T19:17:28.369Z,shippingservice,network_out,58055
2023-07-04T19:17:28.369Z,cartservice,network_out,4520
2023-07-04T19:17:28.369Z,frontend,network_out,4756879
2023-07-04T19:17:28.369Z,productcatalogservice,network_out,1836461
2023-07-04T19:17:28.369Z,checkoutservice,network_out,67684
2023-07-04T19:17:38.196Z,paymentservice,network_out,10266
2023-07-04T19:17:38.196Z,cartservice,network_out,205031
2023-07-04T19:17:38.180Z,adservice,network_out,71503
2023-07-04T19:17:38.180Z,emailservice,network_out,10383
2023-07-04T19:17:38.196Z,recommendationservice,network_out,193503
2023-07-04T19:17:38.196Z,redis-cart,network_out,264578
2023-07-04T19:17:38.196Z,currencyservice,network_out,428327
2023-07-04T19:17:38.369Z,shippingservice,network_out,58055
2023-07-04T19:17:38.369Z,productcatalogservice,network_out,1836461
2023-07-04T19:17:38.369Z,frontend,network_out,4756879
2023-07-04T19:17:38.369Z,cartservice,network_out,4520
2023-07-04T19:17:38.369Z,checkoutservice,network_out,67684
2023-07-04T19:17:48.195Z,paymentservice,network_out,10266
2023-07-04T19:17:48.195Z,currencyservice,network_out,428327
2023-07-04T19:17:48.195Z,recommendationservice,network_out,193503
2023-07-04T19:17:48.195Z,cartservice,network_out,205031
2023-07-04T19:17:48.181Z,emailservice,network_out,10383
2023-07-04T19:17:48.195Z,redis-cart,network_out,264578
2023-07-04T19:17:48.181Z,adservice,network_out,78905
2023-07-04T19:17:48.369Z,checkoutservice,network_out,73234
2023-07-04T19:17:48.369Z,frontend,network_out,4997288
2023-07-04T19:17:48.369Z,cartservice,network_out,4520
2023-07-04T19:17:48.369Z,shippingservice,network_out,61463
2023-07-04T19:17:48.369Z,productcatalogservice,network_out,1836461
2023-07-04T19:17:58.195Z,cartservice,network_out,218222
2023-07-04T19:17:58.180Z,adservice,network_out,78905
2023-07-04T19:17:58.195Z,recommendationservice,network_out,218710
2023-07-04T19:17:58.195Z,paymentservice,network_out,11232
2023-07-04T19:17:58.180Z,emailservice,network_out,10383
2023-07-04T19:17:58.195Z,redis-cart,network_out,311183
2023-07-04T19:17:58.195Z,currencyservice,network_out,461280
2023-07-04T19:17:58.368Z,frontend,network_out,5414719
2023-07-04T19:17:58.368Z,productcatalogservice,network_out,2072936
2023-07-04T19:17:58.368Z,checkoutservice,network_out,74771
2023-07-04T19:17:58.368Z,cartservice,network_out,5087
2023-07-04T19:17:58.368Z,shippingservice,network_out,66751
2023-07-04T19:18:08.195Z,recommendationservice,network_out,218710
2023-07-04T19:18:08.195Z,cartservice,network_out,218222
2023-07-04T19:18:08.195Z,currencyservice,network_out,461280
2023-07-04T19:18:08.181Z,emailservice,network_out,10449
2023-07-04T19:18:08.181Z,adservice,network_out,82479
2023-07-04T19:18:08.195Z,redis-cart,network_out,311183
2023-07-04T19:18:08.195Z,paymentservice,network_out,11232
2023-07-04T19:18:08.368Z,cartservice,network_out,5087
2023-07-04T19:18:08.368Z,checkoutservice,network_out,79718
2023-07-04T19:18:08.368Z,frontend,network_out,5907063
2023-07-04T19:18:08.368Z,productcatalogservice,network_out,2312654
2023-07-04T19:18:08.368Z,shippingservice,network_out,71116
2023-07-04T19:18:18.195Z,currencyservice,network_out,534053
2023-07-04T19:18:18.195Z,recommendationservice,network_out,244416
2023-07-04T19:18:18.181Z,adservice,network_out,82479
2023-07-04T19:18:18.195Z,paymentservice,network_out,13095
2023-07-04T19:18:18.195Z,cartservice,network_out,236044
2023-07-04T19:18:18.181Z,emailservice,network_out,10449
2023-07-04T19:18:18.195Z,redis-cart,network_out,355740
2023-07-04T19:18:18.369Z,checkoutservice,network_out,100337
2023-07-04T19:18:18.369Z,frontend,network_out,6659054
2023-07-04T19:18:18.369Z,shippingservice,network_out,87479
2023-07-04T19:18:18.369Z,productcatalogservice,network_out,2312654
2023-07-04T19:18:18.369Z,cartservice,network_out,5087
2023-07-04T19:18:28.196Z,cartservice,network_out,269890
2023-07-04T19:18:28.196Z,redis-cart,network_out,367046
2023-07-04T19:18:28.196Z,recommendationservice,network_out,263707
2023-07-04T19:18:28.180Z,emailservice,network_out,13685
2023-07-04T19:18:28.180Z,adservice,network_out,94200
2023-07-04T19:18:28.196Z,paymentservice,network_out,14647
2023-07-04T19:18:28.196Z,currencyservice,network_out,534053
2023-07-04T19:18:28.369Z,checkoutservice,network_out,100337
2023-07-04T19:18:28.369Z,shippingservice,network_out,87479
2023-07-04T19:18:28.369Z,cartservice,network_out,5087
2023-07-04T19:18:28.369Z,productcatalogservice,network_out,2312654
2023-07-04T19:18:28.369Z,frontend,network_out,6659054
2023-07-04T19:18:38.195Z,recommendationservice,network_out,263707
2023-07-04T19:18:38.181Z,adservice,network_out,100631
2023-07-04T19:18:38.195Z,cartservice,network_out,269890
2023-07-04T19:18:38.195Z,paymentservice,network_out,14647
2023-07-04T19:18:38.195Z,redis-cart,network_out,367046
2023-07-04T19:18:38.195Z,currencyservice,network_out,534053
2023-07-04T19:18:38.181Z,emailservice,network_out,13685
2023-07-04T19:18:38.368Z,frontend,network_out,6659054
2023-07-04T19:18:38.368Z,checkoutservice,network_out,123274
2023-07-04T19:18:38.368Z,cartservice,network_out,5696
2023-07-04T19:18:38.368Z,productcatalogservice,network_out,2549891
2023-07-04T19:18:38.368Z,shippingservice,network_out,87479
2023-07-04T19:18:48.181Z,adservice,network_out,100631
2023-07-04T19:18:48.181Z,emailservice,network_out,13685
2023-07-04T19:18:48.195Z,currencyservice,network_out,598436
2023-07-04T19:18:48.195Z,recommendationservice,network_out,278186
2023-07-04T19:18:48.195Z,paymentservice,network_out,16219
2023-07-04T19:18:48.195Z,cartservice,network_out,290984
2023-07-04T19:18:48.195Z,redis-cart,network_out,417022
2023-07-04T19:18:48.369Z,productcatalogservice,network_out,2680608
2023-07-04T19:18:48.369Z,shippingservice,network_out,100231
2023-07-04T19:18:48.369Z,checkoutservice,network_out,128158
2023-07-04T19:18:48.369Z,frontend,network_out,7396086
2023-07-04T19:18:48.369Z,cartservice,network_out,6548
2023-07-04T19:18:58.181Z,emailservice,network_out,15412
2023-07-04T19:18:58.196Z,currencyservice,network_out,626818
2023-07-04T19:18:58.196Z,cartservice,network_out,304931
2023-07-04T19:18:58.181Z,adservice,network_out,106184
2023-07-04T19:18:58.196Z,paymentservice,network_out,16285
2023-07-04T19:18:58.196Z,recommendationservice,network_out,278186
2023-07-04T19:18:58.196Z,redis-cart,network_out,417022
2023-07-04T19:18:58.369Z,frontend,network_out,7834406
2023-07-04T19:18:58.369Z,shippingservice,network_out,103013
2023-07-04T19:18:58.369Z,checkoutservice,network_out,128956
2023-07-04T19:18:58.369Z,productcatalogservice,network_out,2820811
2023-07-04T19:18:58.369Z,cartservice,network_out,6548
2023-07-04T19:19:08.196Z,cartservice,network_out,304931
2023-07-04T19:19:08.181Z,adservice,network_out,106184
2023-07-04T19:19:08.196Z,recommendationservice,network_out,278186
2023-07-04T19:19:08.196Z,paymentservice,network_out,16285
2023-07-04T19:19:08.181Z,emailservice,network_out,15412
2023-07-04T19:19:08.196Z,currencyservice,network_out,626818
2023-07-04T19:19:08.196Z,redis-cart,network_out,417022
2023-07-04T19:19:08.369Z,checkoutservice,network_out,128956
2023-07-04T19:19:08.369Z,frontend,network_out,7834406
2023-07-04T19:19:08.369Z,shippingservice,network_out,103013
2023-07-04T19:19:08.369Z,productcatalogservice,network_out,2820811
2023-07-04T19:19:08.369Z,cartservice,network_out,6548
2023-07-04T19:19:18.181Z,emailservice,network_out,16351
2023-07-04T19:19:18.195Z,redis-cart,network_out,465094
2023-07-04T19:19:18.195Z,cartservice,network_out,321712
2023-07-04T19:19:18.195Z,paymentservice,network_out,17297
2023-07-04T19:19:18.181Z,adservice,network_out,113872
2023-07-04T19:19:18.195Z,currencyservice,network_out,691766
2023-07-04T19:19:18.195Z,recommendationservice,network_out,312120
2023-07-04T19:19:18.368Z,shippingservice,network_out,103013
2023-07-04T19:19:18.368Z,productcatalogservice,network_out,2820811
2023-07-04T19:19:18.368Z,checkoutservice,network_out,129616
2023-07-04T19:19:18.368Z,frontend,network_out,7834406
2023-07-04T19:19:18.368Z,cartservice,network_out,7289
2023-07-04T19:19:28.196Z,redis-cart,network_out,465094
2023-07-04T19:19:28.181Z,adservice,network_out,113872
2023-07-04T19:19:28.196Z,paymentservice,network_out,17297
2023-07-04T19:19:28.196Z,currencyservice,network_out,691766
2023-07-04T19:19:28.181Z,emailservice,network_out,16351
2023-07-04T19:19:28.196Z,cartservice,network_out,339279
2023-07-04T19:19:28.196Z,recommendationservice,network_out,324292
2023-07-04T19:19:28.369Z,frontend,network_out,8333309
2023-07-04T19:19:28.369Z,checkoutservice,network_out,135972
2023-07-04T19:19:28.369Z,shippingservice,network_out,110631
2023-07-04T19:19:28.369Z,cartservice,network_out,7289
2023-07-04T19:19:28.369Z,productcatalogservice,network_out,3130911
2023-07-04T19:19:38.181Z,emailservice,network_out,17876
2023-07-04T19:19:38.196Z,currencyservice,network_out,691766
2023-07-04T19:19:38.196Z,cartservice,network_out,339279
2023-07-04T19:19:38.196Z,redis-cart,network_out,465094
2023-07-04T19:19:38.196Z,paymentservice,network_out,17297
2023-07-04T19:19:38.196Z,recommendationservice,network_out,324292
2023-07-04T19:19:38.181Z,adservice,network_out,122383
2023-07-04T19:19:38.369Z,cartservice,network_out,8005
2023-07-04T19:19:38.369Z,checkoutservice,network_out,135972
2023-07-04T19:19:38.369Z,shippingservice,network_out,120998
2023-07-04T19:19:38.369Z,productcatalogservice,network_out,3325812
2023-07-04T19:19:38.369Z,frontend,network_out,8878234
2023-07-04T19:19:48.181Z,emailservice,network_out,17876
2023-07-04T19:19:48.196Z,recommendationservice,network_out,340716
2023-07-04T19:19:48.196Z,cartservice,network_out,366066
2023-07-04T19:19:48.181Z,adservice,network_out,122383
2023-07-04T19:19:48.196Z,currencyservice,network_out,730601
2023-07-04T19:19:48.196Z,paymentservice,network_out,19814
2023-07-04T19:19:48.196Z,redis-cart,network_out,517205
2023-07-04T19:19:48.368Z,frontend,network_out,8878234
2023-07-04T19:19:48.368Z,cartservice,network_out,8005
2023-07-04T19:19:48.368Z,checkoutservice,network_out,135972
2023-07-04T19:19:48.368Z,productcatalogservice,network_out,3325812
2023-07-04T19:19:48.368Z,shippingservice,network_out,120998
2023-07-04T19:19:58.196Z,currencyservice,network_out,781129
2023-07-04T19:19:58.196Z,recommendationservice,network_out,355192
2023-07-04T19:19:58.196Z,cartservice,network_out,381450
2023-07-04T19:19:58.196Z,paymentservice,network_out,20444
2023-07-04T19:19:58.181Z,adservice,network_out,138086
2023-07-04T19:19:58.181Z,emailservice,network_out,18761
2023-07-04T19:19:58.196Z,redis-cart,network_out,517205
2023-07-04T19:19:58.369Z,frontend,network_out,8878234
2023-07-04T19:19:58.369Z,shippingservice,network_out,120998
2023-07-04T19:19:58.369Z,checkoutservice,network_out,153723
2023-07-04T19:19:58.369Z,cartservice,network_out,8005
2023-07-04T19:19:58.369Z,productcatalogservice,network_out,3325812
2023-07-04T19:20:08.196Z,cartservice,network_out,381450
2023-07-04T19:20:08.196Z,recommendationservice,network_out,355192
2023-07-04T19:20:08.181Z,adservice,network_out,144057
2023-07-04T19:20:08.181Z,emailservice,network_out,20633
2023-07-04T19:20:08.196Z,currencyservice,network_out,781129
2023-07-04T19:20:08.196Z,paymentservice,network_out,20444
2023-07-04T19:20:08.196Z,redis-cart,network_out,517205
2023-07-04T19:20:08.369Z,cartservice,network_out,8721
2023-07-04T19:20:08.369Z,frontend,network_out,9541752
2023-07-04T19:20:08.369Z,checkoutservice,network_out,170867
2023-07-04T19:20:08.369Z,shippingservice,network_out,126831
2023-07-04T19:20:08.369Z,productcatalogservice,network_out,3531502
2023-07-04T19:20:18.196Z,redis-cart,network_out,569891
2023-07-04T19:20:18.196Z,recommendationservice,network_out,384096
2023-07-04T19:20:18.196Z,paymentservice,network_out,22223
2023-07-04T19:20:18.180Z,emailservice,network_out,20633
2023-07-04T19:20:18.180Z,adservice,network_out,144057
2023-07-04T19:20:18.196Z,currencyservice,network_out,817665
2023-07-04T19:20:18.196Z,cartservice,network_out,396645
2023-07-04T19:20:18.369Z,shippingservice,network_out,132273
2023-07-04T19:20:18.369Z,frontend,network_out,10519192
2023-07-04T19:20:18.369Z,checkoutservice,network_out,180108
2023-07-04T19:20:18.369Z,productcatalogservice,network_out,3695444
2023-07-04T19:20:18.369Z,cartservice,network_out,8763
2023-07-04T19:20:28.195Z,currencyservice,network_out,817665
2023-07-04T19:20:28.195Z,cartservice,network_out,396645
2023-07-04T19:20:28.180Z,emailservice,network_out,21584
2023-07-04T19:20:28.195Z,redis-cart,network_out,569891
2023-07-04T19:20:28.195Z,recommendationservice,network_out,384096
2023-07-04T19:20:28.195Z,paymentservice,network_out,22223
2023-07-04T19:20:28.180Z,adservice,network_out,151197
2023-07-04T19:20:28.368Z,frontend,network_out,10519192
2023-07-04T19:20:28.368Z,shippingservice,network_out,132273
2023-07-04T19:20:28.368Z,cartservice,network_out,8763
2023-07-04T19:20:28.368Z,checkoutservice,network_out,180108
2023-07-04T19:20:28.368Z,productcatalogservice,network_out,3695444
2023-07-04T19:20:38.196Z,recommendationservice,network_out,406495
2023-07-04T19:20:38.196Z,redis-cart,network_out,620405
2023-07-04T19:20:38.196Z,cartservice,network_out,439700
2023-07-04T19:20:38.181Z,adservice,network_out,160289
2023-07-04T19:20:38.181Z,emailservice,network_out,21584
2023-07-04T19:20:38.196Z,paymentservice,network_out,22538
2023-07-04T19:20:38.196Z,currencyservice,network_out,867570
2023-07-04T19:20:38.369Z,frontend,network_out,10519192
2023-07-04T19:20:38.369Z,shippingservice,network_out,141733
2023-07-04T19:20:38.369Z,cartservice,network_out,8763
2023-07-04T19:20:38.369Z,productcatalogservice,network_out,3946451
2023-07-04T19:20:38.369Z,checkoutservice,network_out,185058
2023-07-04T19:20:48.195Z,redis-cart,network_out,620405
2023-07-04T19:20:48.195Z,cartservice,network_out,439700
2023-07-04T19:20:48.181Z,adservice,network_out,160289
2023-07-04T19:20:48.195Z,recommendationservice,network_out,406495
2023-07-04T19:20:48.195Z,paymentservice,network_out,22538
2023-07-04T19:20:48.195Z,currencyservice,network_out,867570
2023-07-04T19:20:48.181Z,emailservice,network_out,23217
2023-07-04T19:20:48.368Z,frontend,network_out,11404359
2023-07-04T19:20:48.368Z,checkoutservice,network_out,189875
2023-07-04T19:20:48.368Z,shippingservice,network_out,150558
2023-07-04T19:20:48.368Z,productcatalogservice,network_out,4106494
2023-07-04T19:20:48.368Z,cartservice,network_out,8763
2023-07-04T19:20:58.195Z,currencyservice,network_out,939140
2023-07-04T19:20:58.181Z,emailservice,network_out,23217
2023-07-04T19:20:58.195Z,recommendationservice,network_out,419238
2023-07-04T19:20:58.181Z,adservice,network_out,160289
2023-07-04T19:20:58.195Z,paymentservice,network_out,24110
2023-07-04T19:20:58.195Z,redis-cart,network_out,628702
2023-07-04T19:20:58.195Z,cartservice,network_out,459294
2023-07-04T19:20:58.368Z,cartservice,network_out,9479
2023-07-04T19:20:58.368Z,shippingservice,network_out,150558
2023-07-04T19:20:58.368Z,productcatalogservice,network_out,4314411
2023-07-04T19:20:58.368Z,checkoutservice,network_out,189875
2023-07-04T19:20:58.368Z,frontend,network_out,11404359
2023-07-04T19:21:08.195Z,currencyservice,network_out,939140
2023-07-04T19:21:08.195Z,cartservice,network_out,459294
2023-07-04T19:21:08.195Z,paymentservice,network_out,24110
2023-07-04T19:21:08.180Z,adservice,network_out,176176
2023-07-04T19:21:08.195Z,recommendationservice,network_out,419238
2023-07-04T19:21:08.195Z,redis-cart,network_out,628702
2023-07-04T19:21:08.180Z,emailservice,network_out,24850
2023-07-04T19:21:08.369Z,productcatalogservice,network_out,4314411
2023-07-04T19:21:08.369Z,shippingservice,network_out,161476
2023-07-04T19:21:08.369Z,checkoutservice,network_out,207942
2023-07-04T19:21:08.369Z,cartservice,network_out,9479
2023-07-04T19:21:08.369Z,frontend,network_out,11977525
2023-07-04T19:21:18.181Z,emailservice,network_out,25544
2023-07-04T19:21:18.195Z,recommendationservice,network_out,445082
2023-07-04T19:21:18.195Z,cartservice,network_out,483825
2023-07-04T19:21:18.181Z,adservice,network_out,182159
2023-07-04T19:21:18.195Z,currencyservice,network_out,980080
2023-07-04T19:21:18.195Z,paymentservice,network_out,26138
2023-07-04T19:21:18.195Z,redis-cart,network_out,678909
2023-07-04T19:21:18.368Z,shippingservice,network_out,161476
2023-07-04T19:21:18.368Z,cartservice,network_out,9479
2023-07-04T19:21:18.368Z,frontend,network_out,11977525
2023-07-04T19:21:18.368Z,checkoutservice,network_out,207942
2023-07-04T19:21:18.368Z,productcatalogservice,network_out,4314411
2023-07-04T19:21:28.195Z,paymentservice,network_out,26138
2023-07-04T19:21:28.180Z,adservice,network_out,182159
2023-07-04T19:21:28.180Z,emailservice,network_out,25544
2023-07-04T19:21:28.195Z,currencyservice,network_out,980080
2023-07-04T19:21:28.195Z,recommendationservice,network_out,445082
2023-07-04T19:21:28.195Z,cartservice,network_out,483825
2023-07-04T19:21:28.195Z,redis-cart,network_out,678909
2023-07-04T19:21:28.369Z,frontend,network_out,11977525
2023-07-04T19:21:28.369Z,cartservice,network_out,10237
2023-07-04T19:21:28.369Z,checkoutservice,network_out,219126
2023-07-04T19:21:28.369Z,productcatalogservice,network_out,4545513
2023-07-04T19:21:28.369Z,shippingservice,network_out,161476
2023-07-04T19:21:38.196Z,recommendationservice,network_out,483137
2023-07-04T19:21:38.196Z,redis-cart,network_out,684826
2023-07-04T19:21:38.181Z,adservice,network_out,192367
2023-07-04T19:21:38.196Z,paymentservice,network_out,28547
2023-07-04T19:21:38.181Z,emailservice,network_out,27937
2023-07-04T19:21:38.196Z,cartservice,network_out,525480
2023-07-04T19:21:38.196Z,currencyservice,network_out,1044663
2023-07-04T19:21:38.369Z,cartservice,network_out,10887
2023-07-04T19:21:38.369Z,checkoutservice,network_out,244013
2023-07-04T19:21:38.369Z,shippingservice,network_out,177490
2023-07-04T19:21:38.369Z,productcatalogservice,network_out,4715357
2023-07-04T19:21:38.369Z,frontend,network_out,13054737
2023-07-04T19:21:48.195Z,cartservice,network_out,525480
2023-07-04T19:21:48.180Z,emailservice,network_out,27937
2023-07-04T19:21:48.180Z,adservice,network_out,192367
2023-07-04T19:21:48.195Z,recommendationservice,network_out,483137
2023-07-04T19:21:48.195Z,currencyservice,network_out,1044663
2023-07-04T19:21:48.195Z,paymentservice,network_out,28547
2023-07-04T19:21:48.195Z,redis-cart,network_out,684826
2023-07-04T19:21:48.369Z,checkoutservice,network_out,244013
2023-07-04T19:21:48.369Z,cartservice,network_out,10887
2023-07-04T19:21:48.369Z,frontend,network_out,13054737
2023-07-04T19:21:48.369Z,shippingservice,network_out,177490
2023-07-04T19:21:48.369Z,productcatalogservice,network_out,4715357
2023-07-04T19:21:58.196Z,paymentservice,network_out,28970
2023-07-04T19:21:58.181Z,emailservice,network_out,27979
2023-07-04T19:21:58.181Z,adservice,network_out,201685
2023-07-04T19:21:58.196Z,currencyservice,network_out,1074262
2023-07-04T19:21:58.196Z,redis-cart,network_out,733093
2023-07-04T19:21:58.196Z,recommendationservice,network_out,493435
2023-07-04T19:21:58.196Z,cartservice,network_out,543472
2023-07-04T19:21:58.369Z,cartservice,network_out,11603
2023-07-04T19:21:58.369Z,productcatalogservice,network_out,4964112
2023-07-04T19:21:58.369Z,checkoutservice,network_out,249833
2023-07-04T19:21:58.369Z,frontend,network_out,13589739
2023-07-04T19:21:58.369Z,shippingservice,network_out,182993
2023-07-04T19:22:08.195Z,redis-cart,network_out,733093
2023-07-04T19:22:08.195Z,cartservice,network_out,543472
2023-07-04T19:22:08.195Z,paymentservice,network_out,28970
2023-07-04T19:22:08.181Z,adservice,network_out,201685
2023-07-04T19:22:08.181Z,emailservice,network_out,27979
2023-07-04T19:22:08.195Z,currencyservice,network_out,1074262
2023-07-04T19:22:08.195Z,recommendationservice,network_out,493435
2023-07-04T19:22:08.369Z,productcatalogservice,network_out,4964112
2023-07-04T19:22:08.369Z,checkoutservice,network_out,257310
2023-07-04T19:22:08.369Z,shippingservice,network_out,189026
2023-07-04T19:22:08.369Z,frontend,network_out,14004687
2023-07-04T19:22:08.369Z,cartservice,network_out,11645
2023-07-04T19:22:18.181Z,emailservice,network_out,29893
2023-07-04T19:22:18.196Z,cartservice,network_out,573556
2023-07-04T19:22:18.196Z,currencyservice,network_out,1136539
2023-07-04T19:22:18.196Z,recommendationservice,network_out,521057
2023-07-04T19:22:18.196Z,redis-cart,network_out,785485
2023-07-04T19:22:18.181Z,adservice,network_out,207223
2023-07-04T19:22:18.196Z,paymentservice,network_out,30077
2023-07-04T19:22:18.368Z,shippingservice,network_out,189026
2023-07-04T19:22:18.368Z,frontend,network_out,14004687
2023-07-04T19:22:18.368Z,checkoutservice,network_out,257310
2023-07-04T19:22:18.368Z,cartservice,network_out,11645
2023-07-04T19:22:18.368Z,productcatalogservice,network_out,4964112
2023-07-04T19:22:28.196Z,recommendationservice,network_out,521057
2023-07-04T19:22:28.180Z,emailservice,network_out,29893
2023-07-04T19:22:28.180Z,adservice,network_out,207223
2023-07-04T19:22:28.196Z,currencyservice,network_out,1159243
2023-07-04T19:22:28.196Z,paymentservice,network_out,30476
2023-07-04T19:22:28.196Z,redis-cart,network_out,785485
2023-07-04T19:22:28.196Z,cartservice,network_out,573556
2023-07-04T19:22:28.369Z,cartservice,network_out,11645
2023-07-04T19:22:28.369Z,shippingservice,network_out,189026
2023-07-04T19:22:28.369Z,checkoutservice,network_out,257310
2023-07-04T19:22:28.369Z,frontend,network_out,14004687
2023-07-04T19:22:28.369Z,productcatalogservice,network_out,5187500
2023-07-04T19:22:38.196Z,cartservice,network_out,589368
2023-07-04T19:22:38.180Z,emailservice,network_out,30856
2023-07-04T19:22:38.196Z,currencyservice,network_out,1193308
2023-07-04T19:22:38.196Z,paymentservice,network_out,30476
2023-07-04T19:22:38.180Z,adservice,network_out,223049
2023-07-04T19:22:38.196Z,recommendationservice,network_out,541372
2023-07-04T19:22:38.196Z,redis-cart,network_out,827736
2023-07-04T19:22:38.369Z,productcatalogservice,network_out,5312984
2023-07-04T19:22:38.369Z,shippingservice,network_out,195457
2023-07-04T19:22:38.369Z,frontend,network_out,14450831
2023-07-04T19:22:38.369Z,checkoutservice,network_out,262409
2023-07-04T19:22:38.369Z,cartservice,network_out,11645
2023-07-04T19:22:48.195Z,currencyservice,network_out,1193308
2023-07-04T19:22:48.181Z,adservice,network_out,229744
2023-07-04T19:22:48.195Z,paymentservice,network_out,30476
2023-07-04T19:22:48.181Z,emailservice,network_out,30898
2023-07-04T19:22:48.195Z,redis-cart,network_out,827736
2023-07-04T19:22:48.195Z,recommendationservice,network_out,541372
2023-07-04T19:22:48.195Z,cartservice,network_out,589368
2023-07-04T19:22:48.368Z,frontend,network_out,14969308
2023-07-04T19:22:48.368Z,shippingservice,network_out,201368
2023-07-04T19:22:48.368Z,productcatalogservice,network_out,5542906
2023-07-04T19:22:48.368Z,cartservice,network_out,12278
2023-07-04T19:22:48.368Z,checkoutservice,network_out,263069
2023-07-04T19:22:58.195Z,cartservice,network_out,605729
2023-07-04T19:22:58.195Z,currencyservice,network_out,1239088
2023-07-04T19:22:58.195Z,recommendationservice,network_out,555849
2023-07-04T19:22:58.180Z,emailservice,network_out,30898
2023-07-04T19:22:58.180Z,adservice,network_out,229744
2023-07-04T19:22:58.195Z,paymentservice,network_out,31376
2023-07-04T19:22:58.195Z,redis-cart,network_out,836826
2023-07-04T19:22:58.368Z,checkoutservice,network_out,264457
2023-07-04T19:22:58.368Z,shippingservice,network_out,201368
2023-07-04T19:22:58.368Z,productcatalogservice,network_out,5751727
2023-07-04T19:22:58.368Z,cartservice,network_out,12981
2023-07-04T19:22:58.368Z,frontend,network_out,15328290
2023-07-04T19:23:08.195Z,recommendationservice,network_out,569518
2023-07-04T19:23:08.195Z,redis-cart,network_out,836826
2023-07-04T19:23:08.195Z,paymentservice,network_out,31508
2023-07-04T19:23:08.195Z,cartservice,network_out,625789
2023-07-04T19:23:08.195Z,currencyservice,network_out,1267169
2023-07-04T19:23:08.181Z,emailservice,network_out,32386
2023-07-04T19:23:08.181Z,adservice,network_out,237563
2023-07-04T19:23:08.369Z,frontend,network_out,15754900
2023-07-04T19:23:08.369Z,checkoutservice,network_out,265201
2023-07-04T19:23:08.369Z,cartservice,network_out,12981
2023-07-04T19:23:08.369Z,productcatalogservice,network_out,5751727
2023-07-04T19:23:08.369Z,shippingservice,network_out,205947
2023-07-04T19:23:18.180Z,adservice,network_out,237563
2023-07-04T19:23:18.196Z,cartservice,network_out,638387
2023-07-04T19:23:18.180Z,emailservice,network_out,32386
2023-07-04T19:23:18.196Z,redis-cart,network_out,883144
2023-07-04T19:23:18.196Z,paymentservice,network_out,33056
2023-07-04T19:23:18.196Z,currencyservice,network_out,1267169
2023-07-04T19:23:18.196Z,recommendationservice,network_out,588405
2023-07-04T19:23:18.368Z,shippingservice,network_out,205947
2023-07-04T19:23:18.368Z,cartservice,network_out,12981
2023-07-04T19:23:18.368Z,frontend,network_out,15754900
2023-07-04T19:23:18.368Z,checkoutservice,network_out,265201
2023-07-04T19:23:18.368Z,productcatalogservice,network_out,5751727
2023-07-04T19:23:28.196Z,paymentservice,network_out,33056
2023-07-04T19:23:28.181Z,adservice,network_out,244972
2023-07-04T19:23:28.196Z,recommendationservice,network_out,588405
2023-07-04T19:23:28.181Z,emailservice,network_out,32386
2023-07-04T19:23:28.196Z,currencyservice,network_out,1288076
2023-07-04T19:23:28.196Z,redis-cart,network_out,891588
2023-07-04T19:23:28.196Z,cartservice,network_out,650613
2023-07-04T19:23:28.369Z,shippingservice,network_out,210210
2023-07-04T19:23:28.369Z,cartservice,network_out,13023
2023-07-04T19:23:28.369Z,checkoutservice,network_out,265201
2023-07-04T19:23:28.369Z,frontend,network_out,15754900
2023-07-04T19:23:28.369Z,productcatalogservice,network_out,5907638
2023-07-04T19:23:38.195Z,currencyservice,network_out,1288076
2023-07-04T19:23:38.180Z,adservice,network_out,253270
2023-07-04T19:23:38.195Z,paymentservice,network_out,33056
2023-07-04T19:23:38.195Z,recommendationservice,network_out,588405
2023-07-04T19:23:38.195Z,redis-cart,network_out,891588
2023-07-04T19:23:38.195Z,cartservice,network_out,650613
2023-07-04T19:23:38.180Z,emailservice,network_out,33540
2023-07-04T19:23:38.368Z,cartservice,network_out,13023
2023-07-04T19:23:38.368Z,frontend,network_out,16163900
2023-07-04T19:23:38.368Z,productcatalogservice,network_out,6051267
2023-07-04T19:23:38.368Z,checkoutservice,network_out,276694
2023-07-04T19:23:38.368Z,shippingservice,network_out,210210
2023-07-04T19:23:48.196Z,cartservice,network_out,663379
2023-07-04T19:23:48.196Z,redis-cart,network_out,936098
2023-07-04T19:23:48.196Z,paymentservice,network_out,33956
2023-07-04T19:23:48.196Z,currencyservice,network_out,1334992
2023-07-04T19:23:48.196Z,recommendationservice,network_out,607846
2023-07-04T19:23:48.181Z,emailservice,network_out,33540
2023-07-04T19:23:48.181Z,adservice,network_out,253270
2023-07-04T19:23:48.369Z,frontend,network_out,16891343
2023-07-04T19:23:48.369Z,cartservice,network_out,13764
2023-07-04T19:23:48.369Z,productcatalogservice,network_out,6220345
2023-07-04T19:23:48.369Z,checkoutservice,network_out,277354
2023-07-04T19:23:48.369Z,shippingservice,network_out,216566
2023-07-04T19:23:58.196Z,recommendationservice,network_out,623538
2023-07-04T19:23:58.181Z,adservice,network_out,262316
2023-07-04T19:23:58.196Z,paymentservice,network_out,34449
2023-07-04T19:23:58.196Z,cartservice,network_out,685574
2023-07-04T19:23:58.196Z,currencyservice,network_out,1372607
2023-07-04T19:23:58.181Z,emailservice,network_out,33672
2023-07-04T19:23:58.196Z,redis-cart,network_out,936098
2023-07-04T19:23:58.369Z,shippingservice,network_out,216566
2023-07-04T19:23:58.369Z,productcatalogservice,network_out,6220345
2023-07-04T19:23:58.369Z,frontend,network_out,16891343
2023-07-04T19:23:58.369Z,checkoutservice,network_out,277354
2023-07-04T19:23:58.369Z,cartservice,network_out,13764
2023-07-04T19:24:08.195Z,recommendationservice,network_out,623538
2023-07-04T19:24:08.195Z,cartservice,network_out,685574
2023-07-04T19:24:08.195Z,currencyservice,network_out,1372607
2023-07-04T19:24:08.181Z,adservice,network_out,262316
2023-07-04T19:24:08.181Z,emailservice,network_out,33672
2023-07-04T19:24:08.195Z,paymentservice,network_out,34449
2023-07-04T19:24:08.195Z,redis-cart,network_out,936098
2023-07-04T19:24:08.369Z,checkoutservice,network_out,278825
2023-07-04T19:24:08.369Z,cartservice,network_out,13764
2023-07-04T19:24:08.369Z,shippingservice,network_out,221324
2023-07-04T19:24:08.369Z,productcatalogservice,network_out,6408078
2023-07-04T19:24:08.369Z,frontend,network_out,16891343
2023-07-04T19:24:18.180Z,emailservice,network_out,35718
2023-07-04T19:24:18.195Z,redis-cart,network_out,987872
2023-07-04T19:24:18.195Z,cartservice,network_out,706409
2023-07-04T19:24:18.195Z,currencyservice,network_out,1421939
2023-07-04T19:24:18.195Z,recommendationservice,network_out,653670
2023-07-04T19:24:18.180Z,adservice,network_out,278013
2023-07-04T19:24:18.195Z,paymentservice,network_out,36139
2023-07-04T19:24:18.369Z,cartservice,network_out,13764
2023-07-04T19:24:18.369Z,shippingservice,network_out,225958
2023-07-04T19:24:18.369Z,productcatalogservice,network_out,6408078
2023-07-04T19:24:18.369Z,checkoutservice,network_out,301295
2023-07-04T19:24:18.369Z,frontend,network_out,17322482
2023-07-04T19:24:28.195Z,redis-cart,network_out,987872
2023-07-04T19:24:28.180Z,adservice,network_out,283958
2023-07-04T19:24:28.195Z,paymentservice,network_out,36139
2023-07-04T19:24:28.195Z,recommendationservice,network_out,653670
2023-07-04T19:24:28.195Z,currencyservice,network_out,1421939
2023-07-04T19:24:28.195Z,cartservice,network_out,706409
2023-07-04T19:24:28.180Z,emailservice,network_out,35718
2023-07-04T19:24:28.369Z,checkoutservice,network_out,301295
2023-07-04T19:24:28.369Z,shippingservice,network_out,231977
2023-07-04T19:24:28.369Z,frontend,network_out,17801338
2023-07-04T19:24:28.369Z,productcatalogservice,network_out,6592527
2023-07-04T19:24:28.369Z,cartservice,network_out,14564
2023-07-04T19:24:38.195Z,currencyservice,network_out,1456130
2023-07-04T19:24:38.195Z,recommendationservice,network_out,664850
2023-07-04T19:24:38.195Z,redis-cart,network_out,1030789
2023-07-04T19:24:38.195Z,paymentservice,network_out,36520
2023-07-04T19:24:38.181Z,emailservice,network_out,36938
2023-07-04T19:24:38.181Z,adservice,network_out,283958
2023-07-04T19:24:38.195Z,cartservice,network_out,720712
2023-07-04T19:24:38.369Z,productcatalogservice,network_out,6592527
2023-07-04T19:24:38.369Z,shippingservice,network_out,231977
2023-07-04T19:24:38.369Z,checkoutservice,network_out,302172
2023-07-04T19:24:38.369Z,cartservice,network_out,14564
2023-07-04T19:24:38.369Z,frontend,network_out,17801338
2023-07-04T19:24:48.195Z,paymentservice,network_out,36520
2023-07-04T19:24:48.181Z,emailservice,network_out,36938
2023-07-04T19:24:48.181Z,adservice,network_out,283958
2023-07-04T19:24:48.195Z,cartservice,network_out,720712
2023-07-04T19:24:48.195Z,redis-cart,network_out,1030789
2023-07-04T19:24:48.195Z,currencyservice,network_out,1456130
2023-07-04T19:24:48.195Z,recommendationservice,network_out,664850
2023-07-04T19:24:48.368Z,shippingservice,network_out,240827
2023-07-04T19:24:48.368Z,productcatalogservice,network_out,6923679
2023-07-04T19:24:48.368Z,checkoutservice,network_out,312472
2023-07-04T19:24:48.368Z,cartservice,network_out,15305
2023-07-04T19:24:48.368Z,frontend,network_out,18588874
2023-07-04T19:24:58.181Z,adservice,network_out,292754
2023-07-04T19:24:58.196Z,redis-cart,network_out,1039732
2023-07-04T19:24:58.196Z,cartservice,network_out,760364
2023-07-04T19:24:58.181Z,emailservice,network_out,37285
2023-07-04T19:24:58.196Z,paymentservice,network_out,37735
2023-07-04T19:24:58.196Z,currencyservice,network_out,1488396
2023-07-04T19:24:58.196Z,recommendationservice,network_out,684217
2023-07-04T19:24:58.368Z,shippingservice,network_out,240827
2023-07-04T19:24:58.368Z,productcatalogservice,network_out,6923679
2023-07-04T19:24:58.368Z,cartservice,network_out,15305
2023-07-04T19:24:58.368Z,checkoutservice,network_out,312472
2023-07-04T19:24:58.368Z,frontend,network_out,18588874
2023-07-04T19:25:08.195Z,redis-cart,network_out,1039732
2023-07-04T19:25:08.195Z,paymentservice,network_out,37735
2023-07-04T19:25:08.195Z,recommendationservice,network_out,684217
2023-07-04T19:25:08.181Z,adservice,network_out,302806
2023-07-04T19:25:08.195Z,currencyservice,network_out,1488396
2023-07-04T19:25:08.181Z,emailservice,network_out,38786
2023-07-04T19:25:08.195Z,cartservice,network_out,760364
2023-07-04T19:25:08.369Z,cartservice,network_out,15305
2023-07-04T19:25:08.369Z,productcatalogservice,network_out,6923679
2023-07-04T19:25:08.369Z,frontend,network_out,19058126
2023-07-04T19:25:08.369Z,checkoutservice,network_out,314009
2023-07-04T19:25:08.369Z,shippingservice,network_out,245199
2023-07-04T19:25:18.195Z,redis-cart,network_out,1083203
2023-07-04T19:25:18.181Z,emailservice,network_out,38786
2023-07-04T19:25:18.195Z,currencyservice,network_out,1571313
2023-07-04T19:25:18.181Z,adservice,network_out,302806
2023-07-04T19:25:18.195Z,cartservice,network_out,776785
2023-07-04T19:25:18.195Z,recommendationservice,network_out,707425
2023-07-04T19:25:18.195Z,paymentservice,network_out,39133
2023-07-04T19:25:18.369Z,cartservice,network_out,16022
2023-07-04T19:25:18.369Z,shippingservice,network_out,245199
2023-07-04T19:25:18.369Z,frontend,network_out,19408956
2023-07-04T19:25:18.369Z,checkoutservice,network_out,324582
2023-07-04T19:25:18.369Z,productcatalogservice,network_out,7120642
2023-07-04T19:25:28.195Z,currencyservice,network_out,1571313
2023-07-04T19:25:28.195Z,cartservice,network_out,776785
2023-07-04T19:25:28.195Z,redis-cart,network_out,1083203
2023-07-04T19:25:28.195Z,recommendationservice,network_out,707425
2023-07-04T19:25:28.195Z,paymentservice,network_out,39133
2023-07-04T19:25:28.180Z,adservice,network_out,314597
2023-07-04T19:25:28.180Z,emailservice,network_out,38852
2023-07-04T19:25:28.369Z,shippingservice,network_out,254115
2023-07-04T19:25:28.369Z,frontend,network_out,19829796
2023-07-04T19:25:28.369Z,productcatalogservice,network_out,7294219
2023-07-04T19:25:28.369Z,checkoutservice,network_out,325970
2023-07-04T19:25:28.369Z,cartservice,network_out,16022
2023-07-04T19:25:38.181Z,emailservice,network_out,38852
2023-07-04T19:25:38.181Z,adservice,network_out,320671
2023-07-04T19:25:38.195Z,paymentservice,network_out,39199
2023-07-04T19:25:38.195Z,recommendationservice,network_out,735663
2023-07-04T19:25:38.195Z,cartservice,network_out,807145
2023-07-04T19:25:38.195Z,redis-cart,network_out,1135780
2023-07-04T19:25:38.195Z,currencyservice,network_out,1608785
2023-07-04T19:25:38.368Z,shippingservice,network_out,254115
2023-07-04T19:25:38.368Z,checkoutservice,network_out,325970
2023-07-04T19:25:38.368Z,frontend,network_out,19829796
2023-07-04T19:25:38.368Z,productcatalogservice,network_out,7294219
2023-07-04T19:25:38.368Z,cartservice,network_out,16022
2023-07-04T19:25:48.195Z,recommendationservice,network_out,735663
2023-07-04T19:25:48.195Z,redis-cart,network_out,1135780
2023-07-04T19:25:48.195Z,cartservice,network_out,807145
2023-07-04T19:25:48.181Z,adservice,network_out,327242
2023-07-04T19:25:48.195Z,currencyservice,network_out,1608785
2023-07-04T19:25:48.181Z,emailservice,network_out,40138
2023-07-04T19:25:48.195Z,paymentservice,network_out,39199
2023-07-04T19:25:48.368Z,checkoutservice,network_out,332913
2023-07-04T19:25:48.368Z,cartservice,network_out,16022
2023-07-04T19:25:48.368Z,shippingservice,network_out,259582
2023-07-04T19:25:48.368Z,productcatalogservice,network_out,7481880
2023-07-04T19:25:48.368Z,frontend,network_out,19829796
