2023-07-04T19:15:27.841Z,blackbox-exporter,network_in,48806
2023-07-04T19:15:27.829Z,redis-exporter-dev-team,network_in,20978
2023-07-04T19:15:27.841Z,redis-exporter-dbops-team,network_in,22330
2023-07-04T19:15:38.181Z,redis-exporter-dev-team,network_in,38728
2023-07-04T19:15:38.196Z,blackbox-exporter,network_in,57898
2023-07-04T19:15:38.196Z,redis-exporter-dbops-team,network_in,39303
2023-07-04T19:15:48.196Z,redis-exporter-dbops-team,network_in,39303
2023-07-04T19:15:48.180Z,redis-exporter-dev-team,network_in,38728
2023-07-04T19:15:48.196Z,blackbox-exporter,network_in,57898
2023-07-04T19:15:58.195Z,redis-exporter-dbops-team,network_in,39761
2023-07-04T19:15:58.181Z,redis-exporter-dev-team,network_in,38728
2023-07-04T19:15:58.195Z,blackbox-exporter,network_in,74913
2023-07-04T19:16:08.196Z,redis-exporter-dbops-team,network_in,56858
2023-07-04T19:16:08.181Z,redis-exporter-dev-team,network_in,56445
2023-07-04T19:16:08.196Z,blackbox-exporter,network_in,74913
2023-07-04T19:16:18.195Z,redis-exporter-dbops-team,network_in,56858
2023-07-04T19:16:18.181Z,redis-exporter-dev-team,network_in,56445
2023-07-04T19:16:18.195Z,blackbox-exporter,network_in,74913
2023-07-04T19:16:28.196Z,redis-exporter-dbops-team,network_in,56990
2023-07-04T19:16:28.196Z,blackbox-exporter,network_in,85713
2023-07-04T19:16:28.181Z,redis-exporter-dev-team,network_in,56709
2023-07-04T19:16:38.181Z,redis-exporter-dev-team,network_in,74542
2023-07-04T19:16:38.195Z,redis-exporter-dbops-team,network_in,56990
2023-07-04T19:16:38.195Z,blackbox-exporter,network_in,85713
2023-07-04T19:16:48.195Z,redis-exporter-dbops-team,network_in,74070
2023-07-04T19:16:48.181Z,redis-exporter-dev-team,network_in,74542
2023-07-04T19:16:48.195Z,blackbox-exporter,network_in,108516
2023-07-04T19:16:58.180Z,redis-exporter-dev-team,network_in,74542
2023-07-04T19:16:58.196Z,blackbox-exporter,network_in,127109
2023-07-04T19:16:58.196Z,redis-exporter-dbops-team,network_in,74566
2023-07-04T19:17:08.196Z,redis-exporter-dbops-team,network_in,91672
2023-07-04T19:17:08.196Z,blackbox-exporter,network_in,138409
2023-07-04T19:17:08.181Z,redis-exporter-dev-team,network_in,92318
2023-07-04T19:17:18.181Z,redis-exporter-dev-team,network_in,92318
2023-07-04T19:17:18.195Z,redis-exporter-dbops-team,network_in,91672
2023-07-04T19:17:18.195Z,blackbox-exporter,network_in,138409
2023-07-04T19:17:28.196Z,redis-exporter-dbops-team,network_in,91804
2023-07-04T19:17:28.196Z,blackbox-exporter,network_in,154367
2023-07-04T19:17:28.180Z,redis-exporter-dev-team,network_in,92582
2023-07-04T19:17:38.196Z,blackbox-exporter,network_in,154367
2023-07-04T19:17:38.180Z,redis-exporter-dev-team,network_in,110110
2023-07-04T19:17:38.196Z,redis-exporter-dbops-team,network_in,91804
2023-07-04T19:17:48.195Z,redis-exporter-dbops-team,network_in,91804
2023-07-04T19:17:48.195Z,blackbox-exporter,network_in,154367
2023-07-04T19:17:48.181Z,redis-exporter-dev-team,network_in,110374
2023-07-04T19:17:58.195Z,blackbox-exporter,network_in,182792
2023-07-04T19:17:58.180Z,redis-exporter-dev-team,network_in,110374
2023-07-04T19:17:58.195Z,redis-exporter-dbops-team,network_in,109112
2023-07-04T19:18:08.195Z,redis-exporter-dbops-team,network_in,109112
2023-07-04T19:18:08.195Z,blackbox-exporter,network_in,182792
2023-07-04T19:18:08.181Z,redis-exporter-dev-team,network_in,127904
2023-07-04T19:18:18.181Z,redis-exporter-dev-team,network_in,127904
2023-07-04T19:18:18.195Z,blackbox-exporter,network_in,192612
2023-07-04T19:18:18.195Z,redis-exporter-dbops-team,network_in,126213
2023-07-04T19:18:28.196Z,blackbox-exporter,network_in,208941
2023-07-04T19:18:28.180Z,redis-exporter-dev-team,network_in,128238
2023-07-04T19:18:28.196Z,redis-exporter-dbops-team,network_in,126387
2023-07-04T19:18:38.195Z,blackbox-exporter,network_in,208941
2023-07-04T19:18:38.181Z,redis-exporter-dev-team,network_in,128238
2023-07-04T19:18:38.195Z,redis-exporter-dbops-team,network_in,126387
2023-07-04T19:18:48.181Z,redis-exporter-dev-team,network_in,128238
2023-07-04T19:18:48.195Z,blackbox-exporter,network_in,222839
2023-07-04T19:18:48.195Z,redis-exporter-dbops-team,network_in,143405
2023-07-04T19:18:58.181Z,redis-exporter-dev-team,network_in,146321
2023-07-04T19:18:58.196Z,redis-exporter-dbops-team,network_in,143691
2023-07-04T19:18:58.196Z,blackbox-exporter,network_in,236723
2023-07-04T19:19:08.196Z,blackbox-exporter,network_in,236723
2023-07-04T19:19:08.181Z,redis-exporter-dev-team,network_in,146321
2023-07-04T19:19:08.196Z,redis-exporter-dbops-team,network_in,143691
2023-07-04T19:19:18.195Z,redis-exporter-dbops-team,network_in,161165
2023-07-04T19:19:18.181Z,redis-exporter-dev-team,network_in,163862
2023-07-04T19:19:18.195Z,blackbox-exporter,network_in,263580
2023-07-04T19:19:28.196Z,redis-exporter-dbops-team,network_in,161165
2023-07-04T19:19:28.181Z,redis-exporter-dev-team,network_in,163862
2023-07-04T19:19:28.196Z,blackbox-exporter,network_in,268402
2023-07-04T19:19:38.196Z,blackbox-exporter,network_in,268402
2023-07-04T19:19:38.196Z,redis-exporter-dbops-team,network_in,161165
2023-07-04T19:19:38.181Z,redis-exporter-dev-team,network_in,164126
2023-07-04T19:19:48.181Z,redis-exporter-dev-team,network_in,164126
2023-07-04T19:19:48.196Z,redis-exporter-dbops-team,network_in,178373
2023-07-04T19:19:48.196Z,blackbox-exporter,network_in,278743
2023-07-04T19:19:58.181Z,redis-exporter-dev-team,network_in,181983
2023-07-04T19:19:58.196Z,redis-exporter-dbops-team,network_in,178505
2023-07-04T19:19:58.196Z,blackbox-exporter,network_in,294012
2023-07-04T19:20:08.196Z,redis-exporter-dbops-team,network_in,178505
2023-07-04T19:20:08.196Z,blackbox-exporter,network_in,294012
2023-07-04T19:20:08.181Z,redis-exporter-dev-team,network_in,181983
2023-07-04T19:20:18.196Z,blackbox-exporter,network_in,306591
2023-07-04T19:20:18.180Z,redis-exporter-dev-team,network_in,181983
2023-07-04T19:20:18.196Z,redis-exporter-dbops-team,network_in,195604
2023-07-04T19:20:28.195Z,blackbox-exporter,network_in,306591
2023-07-04T19:20:28.180Z,redis-exporter-dev-team,network_in,199603
2023-07-04T19:20:28.195Z,redis-exporter-dbops-team,network_in,195604
2023-07-04T19:20:38.196Z,blackbox-exporter,network_in,324049
2023-07-04T19:20:38.196Z,redis-exporter-dbops-team,network_in,212837
2023-07-04T19:20:38.181Z,redis-exporter-dev-team,network_in,217447
2023-07-04T19:20:48.195Z,redis-exporter-dbops-team,network_in,212837
2023-07-04T19:20:48.195Z,blackbox-exporter,network_in,324049
2023-07-04T19:20:48.181Z,redis-exporter-dev-team,network_in,217795
2023-07-04T19:20:58.181Z,redis-exporter-dev-team,network_in,217795
2023-07-04T19:20:58.195Z,blackbox-exporter,network_in,347262
2023-07-04T19:20:58.195Z,redis-exporter-dbops-team,network_in,213011
2023-07-04T19:21:08.180Z,redis-exporter-dev-team,network_in,235376
2023-07-04T19:21:08.195Z,redis-exporter-dbops-team,network_in,213011
2023-07-04T19:21:08.195Z,blackbox-exporter,network_in,347262
2023-07-04T19:21:18.181Z,redis-exporter-dev-team,network_in,235460
2023-07-04T19:21:18.195Z,blackbox-exporter,network_in,357603
2023-07-04T19:21:18.195Z,redis-exporter-dbops-team,network_in,230071
2023-07-04T19:21:28.180Z,redis-exporter-dev-team,network_in,235460
2023-07-04T19:21:28.195Z,redis-exporter-dbops-team,network_in,230071
2023-07-04T19:21:28.195Z,blackbox-exporter,network_in,357603
2023-07-04T19:21:38.196Z,redis-exporter-dbops-team,network_in,247366
2023-07-04T19:21:38.196Z,blackbox-exporter,network_in,387444
2023-07-04T19:21:38.181Z,redis-exporter-dev-team,network_in,253322
2023-07-04T19:21:48.180Z,redis-exporter-dev-team,network_in,253322
2023-07-04T19:21:48.195Z,redis-exporter-dbops-team,network_in,247366
2023-07-04T19:21:48.195Z,blackbox-exporter,network_in,387444
2023-07-04T19:21:58.196Z,blackbox-exporter,network_in,403773
2023-07-04T19:21:58.196Z,redis-exporter-dbops-team,network_in,247540
2023-07-04T19:21:58.181Z,redis-exporter-dev-team,network_in,253322
2023-07-04T19:22:08.195Z,redis-exporter-dbops-team,network_in,247540
2023-07-04T19:22:08.181Z,redis-exporter-dev-team,network_in,253322
2023-07-04T19:22:08.195Z,blackbox-exporter,network_in,403773
2023-07-04T19:22:18.181Z,redis-exporter-dev-team,network_in,271279
2023-07-04T19:22:18.196Z,blackbox-exporter,network_in,417970
2023-07-04T19:22:18.196Z,redis-exporter-dbops-team,network_in,264670
2023-07-04T19:22:28.196Z,redis-exporter-dbops-team,network_in,264844
2023-07-04T19:22:28.196Z,blackbox-exporter,network_in,431853
2023-07-04T19:22:28.180Z,redis-exporter-dev-team,network_in,271279
2023-07-04T19:22:38.196Z,redis-exporter-dbops-team,network_in,282017
2023-07-04T19:22:38.180Z,redis-exporter-dev-team,network_in,271585
2023-07-04T19:22:38.196Z,blackbox-exporter,network_in,444764
2023-07-04T19:22:48.195Z,blackbox-exporter,network_in,444764
2023-07-04T19:22:48.181Z,redis-exporter-dev-team,network_in,289447
2023-07-04T19:22:48.195Z,redis-exporter-dbops-team,network_in,282017
2023-07-04T19:22:58.180Z,redis-exporter-dev-team,network_in,289447
2023-07-04T19:22:58.195Z,blackbox-exporter,network_in,459784
2023-07-04T19:22:58.195Z,redis-exporter-dbops-team,network_in,282149
2023-07-04T19:23:08.181Z,redis-exporter-dev-team,network_in,307546
2023-07-04T19:23:08.195Z,blackbox-exporter,network_in,471278
2023-07-04T19:23:08.195Z,redis-exporter-dbops-team,network_in,299281
2023-07-04T19:23:18.196Z,redis-exporter-dbops-team,network_in,299281
2023-07-04T19:23:18.180Z,redis-exporter-dev-team,network_in,307546
2023-07-04T19:23:18.196Z,blackbox-exporter,network_in,487632
2023-07-04T19:23:28.196Z,redis-exporter-dbops-team,network_in,299455
2023-07-04T19:23:28.196Z,blackbox-exporter,network_in,487632
2023-07-04T19:23:28.181Z,redis-exporter-dev-team,network_in,307546
2023-07-04T19:23:38.195Z,redis-exporter-dbops-team,network_in,299455
2023-07-04T19:23:38.195Z,blackbox-exporter,network_in,487632
2023-07-04T19:23:38.180Z,redis-exporter-dev-team,network_in,325423
2023-07-04T19:23:48.196Z,blackbox-exporter,network_in,501427
2023-07-04T19:23:48.181Z,redis-exporter-dev-team,network_in,325423
2023-07-04T19:23:48.196Z,redis-exporter-dbops-team,network_in,316688
2023-07-04T19:23:58.181Z,redis-exporter-dev-team,network_in,325771
2023-07-04T19:23:58.196Z,redis-exporter-dbops-team,network_in,317072
2023-07-04T19:23:58.196Z,blackbox-exporter,network_in,515562
2023-07-04T19:24:08.181Z,redis-exporter-dev-team,network_in,325771
2023-07-04T19:24:08.195Z,blackbox-exporter,network_in,515562
2023-07-04T19:24:08.195Z,redis-exporter-dbops-team,network_in,317072
2023-07-04T19:24:18.195Z,blackbox-exporter,network_in,529474
2023-07-04T19:24:18.180Z,redis-exporter-dev-team,network_in,343473
2023-07-04T19:24:18.195Z,redis-exporter-dbops-team,network_in,334169
2023-07-04T19:24:28.195Z,blackbox-exporter,network_in,529474
2023-07-04T19:24:28.195Z,redis-exporter-dbops-team,network_in,334169
2023-07-04T19:24:28.180Z,redis-exporter-dev-team,network_in,343737
2023-07-04T19:24:38.195Z,blackbox-exporter,network_in,554941
2023-07-04T19:24:38.181Z,redis-exporter-dev-team,network_in,343737
2023-07-04T19:24:38.195Z,redis-exporter-dbops-team,network_in,334385
2023-07-04T19:24:48.181Z,redis-exporter-dev-team,network_in,343737
2023-07-04T19:24:48.195Z,blackbox-exporter,network_in,554941
2023-07-04T19:24:48.195Z,redis-exporter-dbops-team,network_in,334385
2023-07-04T19:24:58.196Z,blackbox-exporter,network_in,571388
2023-07-04T19:24:58.181Z,redis-exporter-dev-team,network_in,361662
2023-07-04T19:24:58.196Z,redis-exporter-dbops-team,network_in,351811
2023-07-04T19:25:08.181Z,redis-exporter-dev-team,network_in,361662
2023-07-04T19:25:08.195Z,redis-exporter-dbops-team,network_in,351811
2023-07-04T19:25:08.195Z,blackbox-exporter,network_in,571388
2023-07-04T19:25:18.181Z,redis-exporter-dev-team,network_in,361662
2023-07-04T19:25:18.195Z,blackbox-exporter,network_in,584981
2023-07-04T19:25:18.195Z,redis-exporter-dbops-team,network_in,368935
2023-07-04T19:25:28.180Z,redis-exporter-dev-team,network_in,361662
2023-07-04T19:25:28.195Z,blackbox-exporter,network_in,584981
2023-07-04T19:25:28.195Z,redis-exporter-dbops-team,network_in,368935
2023-07-04T19:25:38.195Z,blackbox-exporter,network_in,612553
2023-07-04T19:25:38.181Z,redis-exporter-dev-team,network_in,379570
2023-07-04T19:25:38.195Z,redis-exporter-dbops-team,network_in,386194
2023-07-04T19:25:48.195Z,blackbox-exporter,network_in,612553
2023-07-04T19:25:48.195Z,redis-exporter-dbops-team,network_in,386194
2023-07-04T19:25:48.181Z,redis-exporter-dev-team,network_in,397522
