timestamp,key,run_id,resource,metric,value
2022-03-31T09:09:47.442Z,FULLY_SHARED_SIDECAR_1-1-1-1,1,monitoring-unit-1,network_out,0.06582832336425781
2022-03-31T09:19:45.538Z,FULLY_SHARED_SIDECAR_1-1-1-1,2,monitoring-unit-1,network_out,0.0650186538696289
2022-03-31T09:29:52.424Z,FULLY_SHARED_SIDECAR_1-1-1-1,3,monitoring-unit-1,network_out,0.0639495849609375
2022-03-31T21:03:06.613Z,FULLY_SHARED_SIDECAR_1-16-1-16,1,monitoring-unit-1,network_out,0.06718063354492188
2022-03-31T21:03:06.465Z,FULLY_SHARED_SIDECAR_1-16-1-16,1,monitoring-unit-10,network_out,0.06875801086425781
2022-03-31T21:03:06.613Z,FULLY_SHARED_SIDECAR_1-16-1-16,1,monitoring-unit-11,network_out,0.06669998168945312
2022-03-31T21:03:06.613Z,FULLY_SHARED_SIDECAR_1-16-1-16,1,monitoring-unit-12,network_out,0.0654916763305664
2022-03-31T21:03:06.348Z,FULLY_SHARED_SIDECAR_1-16-1-16,1,monitoring-unit-13,network_out,0.06643199920654297
2022-03-31T21:03:06.613Z,FULLY_SHARED_SIDECAR_1-16-1-16,1,monitoring-unit-14,network_out,0.06540870666503906
2022-03-31T21:03:06.465Z,FULLY_SHARED_SIDECAR_1-16-1-16,1,monitoring-unit-15,network_out,0.0669565200805664
2022-03-31T21:03:06.348Z,FULLY_SHARED_SIDECAR_1-16-1-16,1,monitoring-unit-16,network_out,0.06558990478515625
2022-03-31T21:03:06.613Z,FULLY_SHARED_SIDECAR_1-16-1-16,1,monitoring-unit-2,network_out,0.067626953125
2022-03-31T21:03:06.613Z,FULLY_SHARED_SIDECAR_1-16-1-16,1,monitoring-unit-3,network_out,0.06692981719970703
2022-03-31T21:03:06.348Z,FULLY_SHARED_SIDECAR_1-16-1-16,1,monitoring-unit-4,network_out,0.05704975128173828
2022-03-31T21:03:06.348Z,FULLY_SHARED_SIDECAR_1-16-1-16,1,monitoring-unit-5,network_out,0.0677652359008789
2022-03-31T21:03:06.348Z,FULLY_SHARED_SIDECAR_1-16-1-16,1,monitoring-unit-6,network_out,0.05878257751464844
2022-03-31T21:03:06.613Z,FULLY_SHARED_SIDECAR_1-16-1-16,1,monitoring-unit-7,network_out,0.06631088256835938
2022-03-31T21:03:06.348Z,FULLY_SHARED_SIDECAR_1-16-1-16,1,monitoring-unit-8,network_out,0.056900978088378906
2022-03-31T21:03:06.465Z,FULLY_SHARED_SIDECAR_1-16-1-16,1,monitoring-unit-9,network_out,0.06676006317138672
2022-03-31T21:13:42.098Z,FULLY_SHARED_SIDECAR_1-16-1-16,2,monitoring-unit-1,network_out,0.059386253356933594
2022-03-31T21:13:42.098Z,FULLY_SHARED_SIDECAR_1-16-1-16,2,monitoring-unit-10,network_out,0.058829307556152344
2022-03-31T21:13:40.758Z,FULLY_SHARED_SIDECAR_1-16-1-16,2,monitoring-unit-11,network_out,0.06607723236083984
2022-03-31T21:13:42.098Z,FULLY_SHARED_SIDECAR_1-16-1-16,2,monitoring-unit-12,network_out,0.06716060638427734
2022-03-31T21:13:40.799Z,FULLY_SHARED_SIDECAR_1-16-1-16,2,monitoring-unit-13,network_out,0.06674385070800781
2022-03-31T21:13:40.799Z,FULLY_SHARED_SIDECAR_1-16-1-16,2,monitoring-unit-14,network_out,0.0663595199584961
2022-03-31T21:13:42.098Z,FULLY_SHARED_SIDECAR_1-16-1-16,2,monitoring-unit-15,network_out,0.066436767578125
2022-03-31T21:13:40.758Z,FULLY_SHARED_SIDECAR_1-16-1-16,2,monitoring-unit-16,network_out,0.06636619567871094
2022-03-31T21:13:42.098Z,FULLY_SHARED_SIDECAR_1-16-1-16,2,monitoring-unit-2,network_out,0.06058311462402344
2022-03-31T21:13:40.799Z,FULLY_SHARED_SIDECAR_1-16-1-16,2,monitoring-unit-3,network_out,0.06732845306396484
2022-03-31T21:13:40.799Z,FULLY_SHARED_SIDECAR_1-16-1-16,2,monitoring-unit-4,network_out,0.06637287139892578
2022-03-31T21:13:40.799Z,FULLY_SHARED_SIDECAR_1-16-1-16,2,monitoring-unit-5,network_out,0.06743240356445312
2022-03-31T21:13:40.799Z,FULLY_SHARED_SIDECAR_1-16-1-16,2,monitoring-unit-6,network_out,0.06620121002197266
2022-03-31T21:13:40.758Z,FULLY_SHARED_SIDECAR_1-16-1-16,2,monitoring-unit-7,network_out,0.06757164001464844
2022-03-31T21:13:42.098Z,FULLY_SHARED_SIDECAR_1-16-1-16,2,monitoring-unit-8,network_out,0.05967235565185547
2022-03-31T21:13:40.799Z,FULLY_SHARED_SIDECAR_1-16-1-16,2,monitoring-unit-9,network_out,0.0654754638671875
2022-03-31T21:24:14.032Z,FULLY_SHARED_SIDECAR_1-16-1-16,3,monitoring-unit-1,network_out,0.06736087799072266
2022-03-31T21:24:13.999Z,FULLY_SHARED_SIDECAR_1-16-1-16,3,monitoring-unit-10,network_out,0.06612873077392578
2022-03-31T21:24:14.057Z,FULLY_SHARED_SIDECAR_1-16-1-16,3,monitoring-unit-11,network_out,0.06711292266845703
2022-03-31T21:24:13.999Z,FULLY_SHARED_SIDECAR_1-16-1-16,3,monitoring-unit-12,network_out,0.05852508544921875
2022-03-31T21:24:14.032Z,FULLY_SHARED_SIDECAR_1-16-1-16,3,monitoring-unit-13,network_out,0.05871009826660156
2022-03-31T21:24:14.057Z,FULLY_SHARED_SIDECAR_1-16-1-16,3,monitoring-unit-14,network_out,0.06702518463134766
2022-03-31T21:24:13.999Z,FULLY_SHARED_SIDECAR_1-16-1-16,3,monitoring-unit-15,network_out,0.06725120544433594
2022-03-31T21:24:14.032Z,FULLY_SHARED_SIDECAR_1-16-1-16,3,monitoring-unit-16,network_out,0.0666351318359375
2022-03-31T21:24:13.999Z,FULLY_SHARED_SIDECAR_1-16-1-16,3,monitoring-unit-2,network_out,0.06821632385253906
2022-03-31T21:24:14.032Z,FULLY_SHARED_SIDECAR_1-16-1-16,3,monitoring-unit-3,network_out,0.06757926940917969
2022-03-31T21:24:13.999Z,FULLY_SHARED_SIDECAR_1-16-1-16,3,monitoring-unit-4,network_out,0.06799602508544922
2022-03-31T21:24:13.999Z,FULLY_SHARED_SIDECAR_1-16-1-16,3,monitoring-unit-5,network_out,0.06746578216552734
2022-03-31T21:24:14.032Z,FULLY_SHARED_SIDECAR_1-16-1-16,3,monitoring-unit-6,network_out,0.0674905776977539
2022-03-31T21:24:14.032Z,FULLY_SHARED_SIDECAR_1-16-1-16,3,monitoring-unit-7,network_out,0.06667709350585938
2022-03-31T21:24:13.999Z,FULLY_SHARED_SIDECAR_1-16-1-16,3,monitoring-unit-8,network_out,0.06775474548339844
2022-03-31T21:24:14.057Z,FULLY_SHARED_SIDECAR_1-16-1-16,3,monitoring-unit-9,network_out,0.05681133270263672
2022-03-31T12:14:30.113Z,FULLY_SHARED_SIDECAR_1-2-1-2,1,monitoring-unit-1,network_out,0.06698799133300781
2022-03-31T12:14:30.113Z,FULLY_SHARED_SIDECAR_1-2-1-2,1,monitoring-unit-2,network_out,0.06670093536376953
2022-03-31T12:24:38.162Z,FULLY_SHARED_SIDECAR_1-2-1-2,2,monitoring-unit-1,network_out,0.06581974029541016
2022-03-31T12:24:38.090Z,FULLY_SHARED_SIDECAR_1-2-1-2,2,monitoring-unit-2,network_out,0.06610870361328125
2022-03-31T12:34:48.108Z,FULLY_SHARED_SIDECAR_1-2-1-2,3,monitoring-unit-1,network_out,0.06609821319580078
2022-03-31T12:34:48.108Z,FULLY_SHARED_SIDECAR_1-2-1-2,3,monitoring-unit-2,network_out,0.0673074722290039
2022-03-31T20:01:14.788Z,FULLY_SHARED_SIDECAR_1-4-1-4,1,monitoring-unit-1,network_out,0.06726741790771484
2022-03-31T20:01:14.698Z,FULLY_SHARED_SIDECAR_1-4-1-4,1,monitoring-unit-2,network_out,0.06602287292480469
2022-03-31T20:01:14.698Z,FULLY_SHARED_SIDECAR_1-4-1-4,1,monitoring-unit-3,network_out,0.06692314147949219
2022-03-31T20:01:14.788Z,FULLY_SHARED_SIDECAR_1-4-1-4,1,monitoring-unit-4,network_out,0.06691932678222656
2022-03-31T20:11:27.106Z,FULLY_SHARED_SIDECAR_1-4-1-4,2,monitoring-unit-1,network_out,0.06712055206298828
2022-03-31T20:11:27.106Z,FULLY_SHARED_SIDECAR_1-4-1-4,2,monitoring-unit-2,network_out,0.06589698791503906
2022-03-31T20:11:27.163Z,FULLY_SHARED_SIDECAR_1-4-1-4,2,monitoring-unit-3,network_out,0.06636905670166016
2022-03-31T20:11:27.163Z,FULLY_SHARED_SIDECAR_1-4-1-4,2,monitoring-unit-4,network_out,0.0665884017944336
2022-03-31T20:21:41.460Z,FULLY_SHARED_SIDECAR_1-4-1-4,3,monitoring-unit-1,network_out,0.06750011444091797
2022-03-31T20:21:41.460Z,FULLY_SHARED_SIDECAR_1-4-1-4,3,monitoring-unit-2,network_out,0.06724929809570312
2022-03-31T20:21:41.376Z,FULLY_SHARED_SIDECAR_1-4-1-4,3,monitoring-unit-3,network_out,0.06725788116455078
2022-03-31T20:21:41.376Z,FULLY_SHARED_SIDECAR_1-4-1-4,3,monitoring-unit-4,network_out,0.06716632843017578
2022-03-31T20:31:55.097Z,FULLY_SHARED_SIDECAR_1-8-1-8,1,monitoring-unit-1,network_out,0.06696414947509766
2022-03-31T20:31:55.097Z,FULLY_SHARED_SIDECAR_1-8-1-8,1,monitoring-unit-2,network_out,0.06625652313232422
2022-03-31T20:31:55.097Z,FULLY_SHARED_SIDECAR_1-8-1-8,1,monitoring-unit-3,network_out,0.06690311431884766
2022-03-31T20:31:55.196Z,FULLY_SHARED_SIDECAR_1-8-1-8,1,monitoring-unit-4,network_out,0.0652627944946289
2022-03-31T20:31:55.097Z,FULLY_SHARED_SIDECAR_1-8-1-8,1,monitoring-unit-5,network_out,0.06708621978759766
2022-03-31T20:31:55.196Z,FULLY_SHARED_SIDECAR_1-8-1-8,1,monitoring-unit-6,network_out,0.0654611587524414
2022-03-31T20:31:55.196Z,FULLY_SHARED_SIDECAR_1-8-1-8,1,monitoring-unit-7,network_out,0.06541252136230469
2022-03-31T20:31:55.196Z,FULLY_SHARED_SIDECAR_1-8-1-8,1,monitoring-unit-8,network_out,0.06535625457763672
2022-03-31T20:42:16.818Z,FULLY_SHARED_SIDECAR_1-8-1-8,2,monitoring-unit-1,network_out,0.06735515594482422
2022-03-31T20:42:16.818Z,FULLY_SHARED_SIDECAR_1-8-1-8,2,monitoring-unit-2,network_out,0.06610965728759766
2022-03-31T20:42:16.818Z,FULLY_SHARED_SIDECAR_1-8-1-8,2,monitoring-unit-3,network_out,0.06707286834716797
2022-03-31T20:42:16.818Z,FULLY_SHARED_SIDECAR_1-8-1-8,2,monitoring-unit-4,network_out,0.0674123764038086
2022-03-31T20:42:16.818Z,FULLY_SHARED_SIDECAR_1-8-1-8,2,monitoring-unit-5,network_out,0.06581592559814453
2022-03-31T20:42:15.575Z,FULLY_SHARED_SIDECAR_1-8-1-8,2,monitoring-unit-6,network_out,0.06536197662353516
2022-03-31T20:42:15.575Z,FULLY_SHARED_SIDECAR_1-8-1-8,2,monitoring-unit-7,network_out,0.06425762176513672
2022-03-31T20:42:15.575Z,FULLY_SHARED_SIDECAR_1-8-1-8,2,monitoring-unit-8,network_out,0.06522464752197266
2022-03-31T20:52:36.821Z,FULLY_SHARED_SIDECAR_1-8-1-8,3,monitoring-unit-1,network_out,0.06491565704345703
2022-03-31T20:52:36.821Z,FULLY_SHARED_SIDECAR_1-8-1-8,3,monitoring-unit-2,network_out,0.06527423858642578
2022-03-31T20:52:36.821Z,FULLY_SHARED_SIDECAR_1-8-1-8,3,monitoring-unit-3,network_out,0.06498336791992188
2022-03-31T20:52:36.821Z,FULLY_SHARED_SIDECAR_1-8-1-8,3,monitoring-unit-4,network_out,0.06494331359863281
2022-03-31T20:52:35.931Z,FULLY_SHARED_SIDECAR_1-8-1-8,3,monitoring-unit-5,network_out,0.06652069091796875
2022-03-31T20:52:35.931Z,FULLY_SHARED_SIDECAR_1-8-1-8,3,monitoring-unit-6,network_out,0.06666183471679688
2022-03-31T20:52:35.931Z,FULLY_SHARED_SIDECAR_1-8-1-8,3,monitoring-unit-7,network_out,0.0660696029663086
2022-03-31T20:52:35.931Z,FULLY_SHARED_SIDECAR_1-8-1-8,3,monitoring-unit-8,network_out,0.06699943542480469
