2023-07-04T18:04:29.822Z,frontend,network_in,354151
2023-07-04T18:04:29.865Z,redis-cart,network_in,12254
2023-07-04T18:04:29.865Z,cartservice,network_in,29750
2023-07-04T18:04:29.822Z,redis-cart,network_in,14941
2023-07-04T18:04:29.856Z,paymentservice,network_in,9719
2023-07-04T18:04:29.865Z,redis-cart,network_in,14385
2023-07-04T18:04:29.865Z,currencyservice,network_in,69224
2023-07-04T18:04:29.856Z,redis-cart,network_in,11326
2023-07-04T18:04:29.822Z,recommendationservice,network_in,62502
2023-07-04T18:04:29.856Z,redis-cart,network_in,12132
2023-07-04T18:04:29.865Z,redis-cart,network_in,13393
2023-07-04T18:04:29.856Z,shippingservice,network_in,14469
2023-07-04T18:04:29.822Z,redis-cart,network_in,12139
2023-07-04T18:04:29.822Z,redis-cart,network_in,12128
2023-07-04T18:04:29.822Z,redis-cart,network_in,14179
2023-07-04T18:04:29.865Z,redis-cart,network_in,13701
2023-07-04T18:04:29.856Z,adservice,network_in,23047
2023-07-04T18:04:29.856Z,emailservice,network_in,10990
2023-07-04T18:04:40.209Z,redis-cart,network_in,19190
2023-07-04T18:04:40.194Z,checkoutservice,network_in,37613
2023-07-04T18:04:40.215Z,redis-cart,network_in,14385
2023-07-04T18:04:40.215Z,redis-cart,network_in,15393
2023-07-04T18:04:40.215Z,redis-cart,network_in,13393
2023-07-04T18:04:40.209Z,paymentservice,network_in,9719
2023-07-04T18:04:40.194Z,recommendationservice,network_in,123869
2023-07-04T18:04:40.194Z,redis-cart,network_in,14816
2023-07-04T18:04:40.194Z,redis-cart,network_in,17940
2023-07-04T18:04:40.209Z,redis-cart,network_in,16445
2023-07-04T18:04:40.194Z,redis-cart,network_in,14051
2023-07-04T18:04:40.209Z,adservice,network_in,23047
2023-07-04T18:04:40.215Z,redis-cart,network_in,14779
2023-07-04T18:04:40.194Z,redis-cart,network_in,14985
2023-07-04T18:04:40.215Z,currencyservice,network_in,91734
2023-07-04T18:04:40.209Z,redis-cart,network_in,17434
2023-07-04T18:04:40.209Z,emailservice,network_in,13221
2023-07-04T18:04:40.209Z,redis-cart,network_in,14605
2023-07-04T18:04:40.194Z,productcatalogservice,network_in,272106
2023-07-04T18:04:40.209Z,shippingservice,network_in,14469
2023-07-04T18:04:40.194Z,frontend,network_in,508023
2023-07-04T18:04:40.215Z,redis-cart,network_in,13701
2023-07-04T18:04:40.209Z,redis-cart,network_in,29814
2023-07-04T18:04:40.215Z,cartservice,network_in,44933
2023-07-04T18:04:40.194Z,redis-cart,network_in,16354
2023-07-04T18:04:40.194Z,redis-cart,network_in,14179
2023-07-04T18:04:50.194Z,redis-cart,network_in,14179
2023-07-04T18:04:50.209Z,redis-cart,network_in,43964
2023-07-04T18:04:50.209Z,paymentservice,network_in,12071
2023-07-04T18:04:50.209Z,redis-cart,network_in,19190
2023-07-04T18:04:50.209Z,redis-cart,network_in,18522
2023-07-04T18:04:50.209Z,adservice,network_in,30358
2023-07-04T18:04:50.215Z,currencyservice,network_in,116447
2023-07-04T18:04:50.215Z,cartservice,network_in,44933
2023-07-04T18:04:50.215Z,redis-cart,network_in,16980
2023-07-04T18:04:50.215Z,redis-cart,network_in,15393
2023-07-04T18:04:50.194Z,redis-cart,network_in,16354
2023-07-04T18:04:50.209Z,redis-cart,network_in,20741
2023-07-04T18:04:50.209Z,redis-cart,network_in,14605
2023-07-04T18:04:50.215Z,redis-cart,network_in,17398
2023-07-04T18:04:50.215Z,redis-cart,network_in,14779
2023-07-04T18:04:50.194Z,redis-cart,network_in,14051
2023-07-04T18:04:50.194Z,checkoutservice,network_in,37613
2023-07-04T18:04:50.194Z,productcatalogservice,network_in,272106
2023-07-04T18:04:50.194Z,redis-cart,network_in,14985
2023-07-04T18:04:50.209Z,shippingservice,network_in,20789
2023-07-04T18:04:50.194Z,redis-cart,network_in,17940
2023-07-04T18:04:50.194Z,frontend,network_in,508023
2023-07-04T18:04:50.194Z,recommendationservice,network_in,123869
2023-07-04T18:04:50.194Z,redis-cart,network_in,14816
2023-07-04T18:04:50.209Z,emailservice,network_in,13221
2023-07-04T18:04:50.215Z,redis-cart,network_in,18348
2023-07-04T18:05:00.194Z,redis-cart,network_in,18095
2023-07-04T18:05:00.194Z,productcatalogservice,network_in,272106
2023-07-04T18:05:00.194Z,redis-cart,network_in,18264
2023-07-04T18:05:00.194Z,recommendationservice,network_in,174649
2023-07-04T18:05:00.209Z,emailservice,network_in,14105
2023-07-04T18:05:00.194Z,redis-cart,network_in,18615
2023-07-04T18:05:00.194Z,redis-cart,network_in,16354
2023-07-04T18:05:00.194Z,redis-cart,network_in,21149
2023-07-04T18:05:00.215Z,redis-cart,network_in,18348
2023-07-04T18:05:00.209Z,paymentservice,network_in,12922
2023-07-04T18:05:00.209Z,redis-cart,network_in,43964
2023-07-04T18:05:00.209Z,redis-cart,network_in,18522
2023-07-04T18:05:00.194Z,frontend,network_in,508023
2023-07-04T18:05:00.194Z,redis-cart,network_in,16646
2023-07-04T18:05:00.215Z,currencyservice,network_in,116447
2023-07-04T18:05:00.215Z,redis-cart,network_in,15393
2023-07-04T18:05:00.215Z,redis-cart,network_in,14779
2023-07-04T18:05:00.209Z,redis-cart,network_in,20741
2023-07-04T18:05:00.209Z,adservice,network_in,37387
2023-07-04T18:05:00.194Z,checkoutservice,network_in,47149
2023-07-04T18:05:00.215Z,cartservice,network_in,44933
2023-07-04T18:05:00.215Z,redis-cart,network_in,16980
2023-07-04T18:05:00.215Z,redis-cart,network_in,17398
2023-07-04T18:05:00.209Z,shippingservice,network_in,20789
2023-07-04T18:05:00.209Z,redis-cart,network_in,23290
2023-07-04T18:05:00.209Z,redis-cart,network_in,19417
2023-07-04T18:05:10.215Z,redis-cart,network_in,20635
2023-07-04T18:05:10.208Z,redis-cart,network_in,20741
2023-07-04T18:05:10.194Z,redis-cart,network_in,21053
2023-07-04T18:05:10.194Z,productcatalogservice,network_in,499945
2023-07-04T18:05:10.194Z,frontend,network_in,844308
2023-07-04T18:05:10.208Z,paymentservice,network_in,12922
2023-07-04T18:05:10.208Z,redis-cart,network_in,18522
2023-07-04T18:05:10.215Z,redis-cart,network_in,20163
2023-07-04T18:05:10.194Z,redis-cart,network_in,24084
2023-07-04T18:05:10.194Z,redis-cart,network_in,22282
2023-07-04T18:05:10.208Z,redis-cart,network_in,43964
2023-07-04T18:05:10.208Z,redis-cart,network_in,19417
2023-07-04T18:05:10.215Z,redis-cart,network_in,19769
2023-07-04T18:05:10.215Z,cartservice,network_in,55944
2023-07-04T18:05:10.194Z,redis-cart,network_in,19435
2023-07-04T18:05:10.194Z,checkoutservice,network_in,55822
2023-07-04T18:05:10.208Z,shippingservice,network_in,20789
2023-07-04T18:05:10.208Z,emailservice,network_in,14105
2023-07-04T18:05:10.208Z,redis-cart,network_in,23290
2023-07-04T18:05:10.215Z,redis-cart,network_in,17398
2023-07-04T18:05:10.215Z,currencyservice,network_in,116447
2023-07-04T18:05:10.215Z,redis-cart,network_in,17638
2023-07-04T18:05:10.208Z,adservice,network_in,37387
2023-07-04T18:05:10.194Z,redis-cart,network_in,20884
2023-07-04T18:05:10.194Z,redis-cart,network_in,19703
2023-07-04T18:05:10.194Z,recommendationservice,network_in,237622
2023-07-04T18:05:20.194Z,redis-cart,network_in,23370
2023-07-04T18:05:20.215Z,cartservice,network_in,80915
2023-07-04T18:05:20.215Z,redis-cart,network_in,22976
2023-07-04T18:05:20.209Z,redis-cart,network_in,66901
2023-07-04T18:05:20.194Z,productcatalogservice,network_in,588758
2023-07-04T18:05:20.209Z,redis-cart,network_in,22750
2023-07-04T18:05:20.215Z,redis-cart,network_in,24259
2023-07-04T18:05:20.194Z,redis-cart,network_in,23381
2023-07-04T18:05:20.194Z,checkoutservice,network_in,57577
2023-07-04T18:05:20.215Z,redis-cart,network_in,22672
2023-07-04T18:05:20.194Z,redis-cart,network_in,23673
2023-07-04T18:05:20.194Z,frontend,network_in,982011
2023-07-04T18:05:20.194Z,recommendationservice,network_in,308565
2023-07-04T18:05:20.209Z,redis-cart,network_in,24184
2023-07-04T18:05:20.215Z,redis-cart,network_in,25125
2023-07-04T18:05:20.209Z,redis-cart,network_in,22415
2023-07-04T18:05:20.209Z,paymentservice,network_in,13947
2023-07-04T18:05:20.215Z,currencyservice,network_in,171130
2023-07-04T18:05:20.209Z,emailservice,network_in,16483
2023-07-04T18:05:20.209Z,adservice,network_in,45804
2023-07-04T18:05:20.194Z,redis-cart,network_in,24193
2023-07-04T18:05:20.194Z,redis-cart,network_in,24084
2023-07-04T18:05:20.215Z,redis-cart,network_in,22952
2023-07-04T18:05:20.209Z,redis-cart,network_in,26623
2023-07-04T18:05:20.194Z,redis-cart,network_in,24386
2023-07-04T18:05:20.209Z,shippingservice,network_in,29383
2023-07-04T18:05:30.194Z,redis-cart,network_in,23673
2023-07-04T18:05:30.194Z,redis-cart,network_in,23370
2023-07-04T18:05:30.216Z,redis-cart,network_in,26355
2023-07-04T18:05:30.194Z,productcatalogservice,network_in,588758
2023-07-04T18:05:30.194Z,redis-cart,network_in,23381
2023-07-04T18:05:30.208Z,redis-cart,network_in,22415
2023-07-04T18:05:30.208Z,paymentservice,network_in,13947
2023-07-04T18:05:30.216Z,redis-cart,network_in,26897
2023-07-04T18:05:30.194Z,redis-cart,network_in,24193
2023-07-04T18:05:30.194Z,redis-cart,network_in,24084
2023-07-04T18:05:30.194Z,checkoutservice,network_in,57577
2023-07-04T18:05:30.208Z,redis-cart,network_in,24184
2023-07-04T18:05:30.208Z,redis-cart,network_in,26623
2023-07-04T18:05:30.216Z,currencyservice,network_in,171130
2023-07-04T18:05:30.194Z,frontend,network_in,982011
2023-07-04T18:05:30.194Z,recommendationservice,network_in,308565
2023-07-04T18:05:30.194Z,redis-cart,network_in,24386
2023-07-04T18:05:30.208Z,emailservice,network_in,16483
2023-07-04T18:05:30.208Z,redis-cart,network_in,22750
2023-07-04T18:05:30.208Z,adservice,network_in,45804
2023-07-04T18:05:30.208Z,shippingservice,network_in,29383
2023-07-04T18:05:30.208Z,redis-cart,network_in,66901
2023-07-04T18:05:30.216Z,cartservice,network_in,90922
2023-07-04T18:05:30.216Z,redis-cart,network_in,22976
2023-07-04T18:05:30.216Z,redis-cart,network_in,24259
2023-07-04T18:05:30.216Z,redis-cart,network_in,22672
2023-07-04T18:05:40.194Z,checkoutservice,network_in,57647
2023-07-04T18:05:40.194Z,redis-cart,network_in,23381
2023-07-04T18:05:40.209Z,redis-cart,network_in,81805
2023-07-04T18:05:40.209Z,redis-cart,network_in,29632
2023-07-04T18:05:40.209Z,paymentservice,network_in,14083
2023-07-04T18:05:40.209Z,shippingservice,network_in,38119
2023-07-04T18:05:40.194Z,redis-cart,network_in,24386
2023-07-04T18:05:40.194Z,productcatalogservice,network_in,672510
2023-07-04T18:05:40.209Z,redis-cart,network_in,28385
2023-07-04T18:05:40.216Z,redis-cart,network_in,27258
2023-07-04T18:05:40.216Z,redis-cart,network_in,26355
2023-07-04T18:05:40.216Z,redis-cart,network_in,25905
2023-07-04T18:05:40.194Z,redis-cart,network_in,23673
2023-07-04T18:05:40.194Z,redis-cart,network_in,25281
2023-07-04T18:05:40.194Z,redis-cart,network_in,27456
2023-07-04T18:05:40.194Z,recommendationservice,network_in,308565
2023-07-04T18:05:40.209Z,redis-cart,network_in,25149
2023-07-04T18:05:40.209Z,emailservice,network_in,16941
2023-07-04T18:05:40.209Z,redis-cart,network_in,27435
2023-07-04T18:05:40.216Z,redis-cart,network_in,26897
2023-07-04T18:05:40.194Z,frontend,network_in,1118428
2023-07-04T18:05:40.194Z,redis-cart,network_in,27417
2023-07-04T18:05:40.209Z,adservice,network_in,56250
2023-07-04T18:05:40.216Z,cartservice,network_in,108912
2023-07-04T18:05:40.216Z,redis-cart,network_in,24514
2023-07-04T18:05:40.216Z,currencyservice,network_in,205219
2023-07-04T18:05:50.194Z,redis-cart,network_in,25837
2023-07-04T18:05:50.194Z,recommendationservice,network_in,395813
2023-07-04T18:05:50.208Z,adservice,network_in,56250
2023-07-04T18:05:50.208Z,emailservice,network_in,16941
2023-07-04T18:05:50.208Z,redis-cart,network_in,27435
2023-07-04T18:05:50.208Z,shippingservice,network_in,38119
2023-07-04T18:05:50.194Z,productcatalogservice,network_in,672510
2023-07-04T18:05:50.208Z,redis-cart,network_in,28385
2023-07-04T18:05:50.208Z,redis-cart,network_in,81805
2023-07-04T18:05:50.208Z,redis-cart,network_in,25149
2023-07-04T18:05:50.208Z,redis-cart,network_in,29632
2023-07-04T18:05:50.208Z,paymentservice,network_in,14083
2023-07-04T18:05:50.194Z,redis-cart,network_in,27456
2023-07-04T18:05:50.194Z,checkoutservice,network_in,62857
2023-07-04T18:05:50.194Z,redis-cart,network_in,26841
2023-07-04T18:05:50.215Z,redis-cart,network_in,27258
2023-07-04T18:05:50.215Z,currencyservice,network_in,205219
2023-07-04T18:05:50.194Z,redis-cart,network_in,27146
2023-07-04T18:05:50.194Z,redis-cart,network_in,27876
2023-07-04T18:05:50.194Z,frontend,network_in,1118428
2023-07-04T18:05:50.194Z,redis-cart,network_in,30012
2023-07-04T18:05:50.215Z,cartservice,network_in,108912
2023-07-04T18:05:50.215Z,redis-cart,network_in,24514
2023-07-04T18:05:50.215Z,redis-cart,network_in,26355
2023-07-04T18:05:50.215Z,redis-cart,network_in,25905
2023-07-04T18:05:50.215Z,redis-cart,network_in,26897
2023-07-04T18:06:00.215Z,redis-cart,network_in,31263
2023-07-04T18:06:00.194Z,redis-cart,network_in,33625
2023-07-04T18:06:00.194Z,frontend,network_in,1719602
2023-07-04T18:06:00.209Z,emailservice,network_in,20950
2023-07-04T18:06:00.215Z,currencyservice,network_in,254295
2023-07-04T18:06:00.215Z,redis-cart,network_in,28810
2023-07-04T18:06:00.209Z,redis-cart,network_in,35380
2023-07-04T18:06:00.215Z,redis-cart,network_in,30327
2023-07-04T18:06:00.215Z,cartservice,network_in,108912
2023-07-04T18:06:00.194Z,redis-cart,network_in,32103
2023-07-04T18:06:00.194Z,redis-cart,network_in,31039
2023-07-04T18:06:00.194Z,redis-cart,network_in,32909
2023-07-04T18:06:00.194Z,checkoutservice,network_in,68202
2023-07-04T18:06:00.194Z,redis-cart,network_in,30677
2023-07-04T18:06:00.194Z,recommendationservice,network_in,542699
2023-07-04T18:06:00.194Z,redis-cart,network_in,33594
2023-07-04T18:06:00.194Z,productcatalogservice,network_in,1028363
2023-07-04T18:06:00.209Z,redis-cart,network_in,95796
2023-07-04T18:06:00.215Z,redis-cart,network_in,30108
2023-07-04T18:06:00.215Z,redis-cart,network_in,29086
2023-07-04T18:06:00.209Z,redis-cart,network_in,32013
2023-07-04T18:06:00.209Z,adservice,network_in,75803
2023-07-04T18:06:00.209Z,shippingservice,network_in,42809
2023-07-04T18:06:00.209Z,redis-cart,network_in,30574
2023-07-04T18:06:00.209Z,redis-cart,network_in,32723
2023-07-04T18:06:00.209Z,paymentservice,network_in,16379
2023-07-04T18:06:10.209Z,adservice,network_in,75803
2023-07-04T18:06:10.194Z,checkoutservice,network_in,87323
2023-07-04T18:06:10.215Z,cartservice,network_in,153570
2023-07-04T18:06:10.209Z,redis-cart,network_in,32013
2023-07-04T18:06:10.209Z,shippingservice,network_in,42809
2023-07-04T18:06:10.209Z,emailservice,network_in,20950
2023-07-04T18:06:10.209Z,redis-cart,network_in,35380
2023-07-04T18:06:10.194Z,frontend,network_in,1883766
2023-07-04T18:06:10.194Z,redis-cart,network_in,37787
2023-07-04T18:06:10.194Z,redis-cart,network_in,32103
2023-07-04T18:06:10.215Z,redis-cart,network_in,29968
2023-07-04T18:06:10.209Z,redis-cart,network_in,32723
2023-07-04T18:06:10.209Z,paymentservice,network_in,16379
2023-07-04T18:06:10.194Z,redis-cart,network_in,31835
2023-07-04T18:06:10.194Z,redis-cart,network_in,33594
2023-07-04T18:06:10.194Z,recommendationservice,network_in,542699
2023-07-04T18:06:10.215Z,redis-cart,network_in,35210
2023-07-04T18:06:10.215Z,redis-cart,network_in,32099
2023-07-04T18:06:10.209Z,redis-cart,network_in,30574
2023-07-04T18:06:10.209Z,redis-cart,network_in,95796
2023-07-04T18:06:10.194Z,redis-cart,network_in,32909
2023-07-04T18:06:10.194Z,redis-cart,network_in,31039
2023-07-04T18:06:10.194Z,productcatalogservice,network_in,1028363
2023-07-04T18:06:10.215Z,currencyservice,network_in,301708
2023-07-04T18:06:10.215Z,redis-cart,network_in,31471
2023-07-04T18:06:10.215Z,redis-cart,network_in,33037
2023-07-04T18:06:20.209Z,redis-cart,network_in,35692
2023-07-04T18:06:20.194Z,checkoutservice,network_in,87323
2023-07-04T18:06:20.215Z,redis-cart,network_in,35282
2023-07-04T18:06:20.215Z,redis-cart,network_in,34458
2023-07-04T18:06:20.194Z,productcatalogservice,network_in,1189204
2023-07-04T18:06:20.194Z,redis-cart,network_in,31835
2023-07-04T18:06:20.209Z,redis-cart,network_in,122457
2023-07-04T18:06:20.194Z,recommendationservice,network_in,630016
2023-07-04T18:06:20.215Z,redis-cart,network_in,34344
2023-07-04T18:06:20.215Z,redis-cart,network_in,35210
2023-07-04T18:06:20.215Z,cartservice,network_in,153570
2023-07-04T18:06:20.209Z,redis-cart,network_in,36126
2023-07-04T18:06:20.209Z,shippingservice,network_in,52475
2023-07-04T18:06:20.209Z,redis-cart,network_in,34258
2023-07-04T18:06:20.194Z,redis-cart,network_in,36049
2023-07-04T18:06:20.194Z,redis-cart,network_in,35698
2023-07-04T18:06:20.194Z,frontend,network_in,1883766
2023-07-04T18:06:20.209Z,redis-cart,network_in,38783
2023-07-04T18:06:20.194Z,redis-cart,network_in,37787
2023-07-04T18:06:20.209Z,adservice,network_in,84135
2023-07-04T18:06:20.194Z,redis-cart,network_in,35529
2023-07-04T18:06:20.209Z,paymentservice,network_in,19119
2023-07-04T18:06:20.209Z,emailservice,network_in,23891
2023-07-04T18:06:20.215Z,redis-cart,network_in,34846
2023-07-04T18:06:20.215Z,currencyservice,network_in,301708
2023-07-04T18:06:20.194Z,redis-cart,network_in,35226
2023-07-04T18:06:30.194Z,redis-cart,network_in,31835
2023-07-04T18:06:30.194Z,redis-cart,network_in,37787
2023-07-04T18:06:30.194Z,recommendationservice,network_in,630016
2023-07-04T18:06:30.216Z,redis-cart,network_in,34458
2023-07-04T18:06:30.194Z,checkoutservice,network_in,87323
2023-07-04T18:06:30.194Z,redis-cart,network_in,35698
2023-07-04T18:06:30.209Z,redis-cart,network_in,36126
2023-07-04T18:06:30.209Z,redis-cart,network_in,35692
2023-07-04T18:06:30.209Z,redis-cart,network_in,122457
2023-07-04T18:06:30.209Z,paymentservice,network_in,19119
2023-07-04T18:06:30.209Z,emailservice,network_in,23891
2023-07-04T18:06:30.216Z,redis-cart,network_in,37635
2023-07-04T18:06:30.216Z,redis-cart,network_in,36589
2023-07-04T18:06:30.216Z,currencyservice,network_in,358360
2023-07-04T18:06:30.216Z,redis-cart,network_in,38041
2023-07-04T18:06:30.194Z,productcatalogservice,network_in,1189204
2023-07-04T18:06:30.194Z,redis-cart,network_in,36049
2023-07-04T18:06:30.194Z,redis-cart,network_in,35226
2023-07-04T18:06:30.209Z,adservice,network_in,84135
2023-07-04T18:06:30.194Z,redis-cart,network_in,35529
2023-07-04T18:06:30.194Z,frontend,network_in,1883766
2023-07-04T18:06:30.209Z,shippingservice,network_in,52475
2023-07-04T18:06:30.209Z,redis-cart,network_in,34258
2023-07-04T18:06:30.209Z,redis-cart,network_in,38783
2023-07-04T18:06:30.216Z,cartservice,network_in,176095
2023-07-04T18:06:30.216Z,redis-cart,network_in,37527
2023-07-04T18:06:40.194Z,frontend,network_in,2147518
2023-07-04T18:06:40.194Z,redis-cart,network_in,37943
2023-07-04T18:06:40.215Z,redis-cart,network_in,38041
2023-07-04T18:06:40.209Z,emailservice,network_in,27512
2023-07-04T18:06:40.194Z,productcatalogservice,network_in,1189204
2023-07-04T18:06:40.194Z,redis-cart,network_in,36325
2023-07-04T18:06:40.215Z,redis-cart,network_in,37635
2023-07-04T18:06:40.209Z,shippingservice,network_in,67201
2023-07-04T18:06:40.194Z,checkoutservice,network_in,96088
2023-07-04T18:06:40.194Z,redis-cart,network_in,39963
2023-07-04T18:06:40.194Z,recommendationservice,network_in,630016
2023-07-04T18:06:40.215Z,currencyservice,network_in,358360
2023-07-04T18:06:40.215Z,redis-cart,network_in,37527
2023-07-04T18:06:40.209Z,redis-cart,network_in,136337
2023-07-04T18:06:40.209Z,paymentservice,network_in,21967
2023-07-04T18:06:40.209Z,redis-cart,network_in,41656
2023-07-04T18:06:40.194Z,redis-cart,network_in,39172
2023-07-04T18:06:40.194Z,redis-cart,network_in,37161
2023-07-04T18:06:40.194Z,redis-cart,network_in,36049
2023-07-04T18:06:40.215Z,redis-cart,network_in,36589
2023-07-04T18:06:40.215Z,redis-cart,network_in,34458
2023-07-04T18:06:40.215Z,cartservice,network_in,176095
2023-07-04T18:06:40.209Z,redis-cart,network_in,40045
2023-07-04T18:06:40.209Z,redis-cart,network_in,37675
2023-07-04T18:06:40.209Z,redis-cart,network_in,38481
2023-07-04T18:06:40.209Z,adservice,network_in,94590
2023-07-04T18:06:50.194Z,redis-cart,network_in,39963
2023-07-04T18:06:50.194Z,redis-cart,network_in,36325
2023-07-04T18:06:50.209Z,paymentservice,network_in,21967
2023-07-04T18:06:50.209Z,emailservice,network_in,27512
2023-07-04T18:06:50.209Z,adservice,network_in,94590
2023-07-04T18:06:50.216Z,currencyservice,network_in,398577
2023-07-04T18:06:50.194Z,redis-cart,network_in,40188
2023-07-04T18:06:50.194Z,productcatalogservice,network_in,1375076
2023-07-04T18:06:50.209Z,redis-cart,network_in,41656
2023-07-04T18:06:50.209Z,shippingservice,network_in,67201
2023-07-04T18:06:50.216Z,cartservice,network_in,176095
2023-07-04T18:06:50.216Z,redis-cart,network_in,36090
2023-07-04T18:06:50.194Z,redis-cart,network_in,38838
2023-07-04T18:06:50.194Z,frontend,network_in,2147518
2023-07-04T18:06:50.194Z,recommendationservice,network_in,753058
2023-07-04T18:06:50.209Z,redis-cart,network_in,40045
2023-07-04T18:06:50.209Z,redis-cart,network_in,37675
2023-07-04T18:06:50.216Z,redis-cart,network_in,36589
2023-07-04T18:06:50.216Z,redis-cart,network_in,40830
2023-07-04T18:06:50.216Z,redis-cart,network_in,37635
2023-07-04T18:06:50.194Z,redis-cart,network_in,37161
2023-07-04T18:06:50.194Z,checkoutservice,network_in,121328
2023-07-04T18:06:50.194Z,redis-cart,network_in,39172
2023-07-04T18:06:50.209Z,redis-cart,network_in,136337
2023-07-04T18:06:50.209Z,redis-cart,network_in,38481
2023-07-04T18:06:50.216Z,redis-cart,network_in,40316
2023-07-04T18:07:00.209Z,shippingservice,network_in,73769
2023-07-04T18:07:00.194Z,checkoutservice,network_in,121328
2023-07-04T18:07:00.209Z,redis-cart,network_in,44101
2023-07-04T18:07:00.216Z,currencyservice,network_in,447282
2023-07-04T18:07:00.216Z,redis-cart,network_in,40036
2023-07-04T18:07:00.209Z,redis-cart,network_in,46230
2023-07-04T18:07:00.216Z,redis-cart,network_in,40424
2023-07-04T18:07:00.194Z,redis-cart,network_in,40804
2023-07-04T18:07:00.209Z,emailservice,network_in,30007
2023-07-04T18:07:00.216Z,cartservice,network_in,230702
2023-07-04T18:07:00.216Z,redis-cart,network_in,43619
2023-07-04T18:07:00.194Z,frontend,network_in,2496239
2023-07-04T18:07:00.194Z,recommendationservice,network_in,753058
2023-07-04T18:07:00.194Z,productcatalogservice,network_in,1502319
2023-07-04T18:07:00.194Z,redis-cart,network_in,42171
2023-07-04T18:07:00.194Z,redis-cart,network_in,43909
2023-07-04T18:07:00.194Z,redis-cart,network_in,39406
2023-07-04T18:07:00.194Z,redis-cart,network_in,40188
2023-07-04T18:07:00.194Z,redis-cart,network_in,39114
2023-07-04T18:07:00.209Z,redis-cart,network_in,43991
2023-07-04T18:07:00.209Z,paymentservice,network_in,23147
2023-07-04T18:07:00.209Z,redis-cart,network_in,152174
2023-07-04T18:07:00.209Z,redis-cart,network_in,42751
2023-07-04T18:07:00.216Z,redis-cart,network_in,43105
2023-07-04T18:07:00.209Z,adservice,network_in,107597
2023-07-04T18:07:00.216Z,redis-cart,network_in,42167
2023-07-04T18:07:10.209Z,redis-cart,network_in,44101
2023-07-04T18:07:10.216Z,redis-cart,network_in,43213
2023-07-04T18:07:10.216Z,redis-cart,network_in,45894
2023-07-04T18:07:10.194Z,recommendationservice,network_in,905184
2023-07-04T18:07:10.194Z,redis-cart,network_in,41820
2023-07-04T18:07:10.209Z,shippingservice,network_in,73769
2023-07-04T18:07:10.209Z,redis-cart,network_in,42751
2023-07-04T18:07:10.216Z,cartservice,network_in,230702
2023-07-04T18:07:10.194Z,frontend,network_in,2734897
2023-07-04T18:07:10.194Z,productcatalogservice,network_in,1698021
2023-07-04T18:07:10.194Z,redis-cart,network_in,42447
2023-07-04T18:07:10.209Z,paymentservice,network_in,23147
2023-07-04T18:07:10.209Z,emailservice,network_in,30007
2023-07-04T18:07:10.209Z,redis-cart,network_in,46230
2023-07-04T18:07:10.194Z,redis-cart,network_in,44750
2023-07-04T18:07:10.216Z,currencyservice,network_in,474286
2023-07-04T18:07:10.216Z,redis-cart,network_in,43619
2023-07-04T18:07:10.216Z,redis-cart,network_in,41124
2023-07-04T18:07:10.209Z,redis-cart,network_in,43991
2023-07-04T18:07:10.209Z,redis-cart,network_in,152174
2023-07-04T18:07:10.209Z,adservice,network_in,107597
2023-07-04T18:07:10.194Z,redis-cart,network_in,44960
2023-07-04T18:07:10.194Z,redis-cart,network_in,47388
2023-07-04T18:07:10.194Z,checkoutservice,network_in,134096
2023-07-04T18:07:10.194Z,redis-cart,network_in,42195
2023-07-04T18:07:10.216Z,redis-cart,network_in,44956
2023-07-04T18:07:20.208Z,redis-cart,network_in,42751
2023-07-04T18:07:20.208Z,adservice,network_in,116402
2023-07-04T18:07:20.208Z,emailservice,network_in,30007
2023-07-04T18:07:20.208Z,redis-cart,network_in,45665
2023-07-04T18:07:20.208Z,shippingservice,network_in,78179
2023-07-04T18:07:20.194Z,redis-cart,network_in,46463
2023-07-04T18:07:20.194Z,checkoutservice,network_in,135917
2023-07-04T18:07:20.194Z,redis-cart,network_in,46685
2023-07-04T18:07:20.194Z,frontend,network_in,2926167
2023-07-04T18:07:20.194Z,productcatalogservice,network_in,1698021
2023-07-04T18:07:20.208Z,redis-cart,network_in,46430
2023-07-04T18:07:20.208Z,redis-cart,network_in,48406
2023-07-04T18:07:20.208Z,paymentservice,network_in,24574
2023-07-04T18:07:20.216Z,redis-cart,network_in,44956
2023-07-04T18:07:20.216Z,currencyservice,network_in,496231
2023-07-04T18:07:20.216Z,cartservice,network_in,251264
2023-07-04T18:07:20.216Z,redis-cart,network_in,46982
2023-07-04T18:07:20.216Z,redis-cart,network_in,48109
2023-07-04T18:07:20.208Z,redis-cart,network_in,166392
2023-07-04T18:07:20.216Z,redis-cart,network_in,46044
2023-07-04T18:07:20.216Z,redis-cart,network_in,45070
2023-07-04T18:07:20.194Z,redis-cart,network_in,47388
2023-07-04T18:07:20.194Z,redis-cart,network_in,44960
2023-07-04T18:07:20.194Z,recommendationservice,network_in,957511
2023-07-04T18:07:20.194Z,redis-cart,network_in,46452
2023-07-04T18:07:20.194Z,redis-cart,network_in,46310
2023-07-04T18:07:30.216Z,redis-cart,network_in,44956
2023-07-04T18:07:30.209Z,redis-cart,network_in,182165
2023-07-04T18:07:30.209Z,emailservice,network_in,31238
2023-07-04T18:07:30.216Z,redis-cart,network_in,48109
2023-07-04T18:07:30.194Z,redis-cart,network_in,47819
2023-07-04T18:07:30.194Z,redis-cart,network_in,46685
2023-07-04T18:07:30.194Z,redis-cart,network_in,46452
2023-07-04T18:07:30.209Z,redis-cart,network_in,52506
2023-07-04T18:07:30.194Z,recommendationservice,network_in,957511
2023-07-04T18:07:30.194Z,checkoutservice,network_in,135917
2023-07-04T18:07:30.216Z,redis-cart,network_in,46044
2023-07-04T18:07:30.216Z,currencyservice,network_in,496231
2023-07-04T18:07:30.194Z,redis-cart,network_in,46463
2023-07-04T18:07:30.194Z,redis-cart,network_in,47468
2023-07-04T18:07:30.194Z,frontend,network_in,3142699
2023-07-04T18:07:30.209Z,shippingservice,network_in,81881
2023-07-04T18:07:30.194Z,productcatalogservice,network_in,1848584
2023-07-04T18:07:30.209Z,redis-cart,network_in,50947
2023-07-04T18:07:30.216Z,redis-cart,network_in,45070
2023-07-04T18:07:30.216Z,cartservice,network_in,251264
2023-07-04T18:07:30.216Z,redis-cart,network_in,46982
2023-07-04T18:07:30.194Z,redis-cart,network_in,50791
2023-07-04T18:07:30.209Z,redis-cart,network_in,48483
2023-07-04T18:07:30.209Z,adservice,network_in,121313
2023-07-04T18:07:30.209Z,redis-cart,network_in,49833
2023-07-04T18:07:30.209Z,paymentservice,network_in,24710
2023-07-04T18:07:40.194Z,redis-cart,network_in,50791
2023-07-04T18:07:40.194Z,redis-cart,network_in,47819
2023-07-04T18:07:40.194Z,recommendationservice,network_in,957511
2023-07-04T18:07:40.215Z,redis-cart,network_in,46982
2023-07-04T18:07:40.194Z,redis-cart,network_in,46685
2023-07-04T18:07:40.194Z,checkoutservice,network_in,135917
2023-07-04T18:07:40.215Z,redis-cart,network_in,46228
2023-07-04T18:07:40.215Z,redis-cart,network_in,49811
2023-07-04T18:07:40.209Z,redis-cart,network_in,182165
2023-07-04T18:07:40.194Z,redis-cart,network_in,47468
2023-07-04T18:07:40.215Z,redis-cart,network_in,46044
2023-07-04T18:07:40.215Z,cartservice,network_in,251264
2023-07-04T18:07:40.209Z,adservice,network_in,132035
2023-07-04T18:07:40.209Z,redis-cart,network_in,49833
2023-07-04T18:07:40.209Z,redis-cart,network_in,52506
2023-07-04T18:07:40.209Z,shippingservice,network_in,89439
2023-07-04T18:07:40.194Z,redis-cart,network_in,46463
2023-07-04T18:07:40.194Z,frontend,network_in,3142699
2023-07-04T18:07:40.194Z,redis-cart,network_in,46452
2023-07-04T18:07:40.194Z,productcatalogservice,network_in,1848584
2023-07-04T18:07:40.215Z,currencyservice,network_in,496231
2023-07-04T18:07:40.215Z,redis-cart,network_in,47815
2023-07-04T18:07:40.209Z,redis-cart,network_in,50947
2023-07-04T18:07:40.209Z,emailservice,network_in,31238
2023-07-04T18:07:40.209Z,paymentservice,network_in,27464
2023-07-04T18:07:40.209Z,redis-cart,network_in,49711
2023-07-04T18:07:50.194Z,redis-cart,network_in,54947
2023-07-04T18:07:50.194Z,redis-cart,network_in,50088
2023-07-04T18:07:50.209Z,redis-cart,network_in,53628
2023-07-04T18:07:50.216Z,redis-cart,network_in,49911
2023-07-04T18:07:50.216Z,redis-cart,network_in,54037
2023-07-04T18:07:50.194Z,redis-cart,network_in,51012
2023-07-04T18:07:50.194Z,redis-cart,network_in,50678
2023-07-04T18:07:50.209Z,emailservice,network_in,35356
2023-07-04T18:07:50.209Z,redis-cart,network_in,198809
2023-07-04T18:07:50.209Z,redis-cart,network_in,53946
2023-07-04T18:07:50.216Z,redis-cart,network_in,50130
2023-07-04T18:07:50.194Z,frontend,network_in,3142699
2023-07-04T18:07:50.194Z,redis-cart,network_in,48709
2023-07-04T18:07:50.194Z,productcatalogservice,network_in,2030371
2023-07-04T18:07:50.209Z,adservice,network_in,132035
2023-07-04T18:07:50.209Z,shippingservice,network_in,96623
2023-07-04T18:07:50.209Z,paymentservice,network_in,27464
2023-07-04T18:07:50.194Z,recommendationservice,network_in,1043533
2023-07-04T18:07:50.194Z,redis-cart,network_in,51484
2023-07-04T18:07:50.194Z,checkoutservice,network_in,140737
2023-07-04T18:07:50.209Z,redis-cart,network_in,49711
2023-07-04T18:07:50.209Z,redis-cart,network_in,56189
2023-07-04T18:07:50.216Z,redis-cart,network_in,50928
2023-07-04T18:07:50.216Z,redis-cart,network_in,51902
2023-07-04T18:07:50.216Z,cartservice,network_in,292275
2023-07-04T18:07:50.216Z,currencyservice,network_in,526231
2023-07-04T18:08:00.194Z,recommendationservice,network_in,1043533
2023-07-04T18:08:00.194Z,frontend,network_in,3395595
2023-07-04T18:08:00.215Z,redis-cart,network_in,49911
2023-07-04T18:08:00.215Z,redis-cart,network_in,54037
2023-07-04T18:08:00.194Z,redis-cart,network_in,53063
2023-07-04T18:08:00.215Z,redis-cart,network_in,50928
2023-07-04T18:08:00.215Z,redis-cart,network_in,50130
2023-07-04T18:08:00.209Z,paymentservice,network_in,27975
2023-07-04T18:08:00.209Z,redis-cart,network_in,55943
2023-07-04T18:08:00.194Z,redis-cart,network_in,52473
2023-07-04T18:08:00.194Z,checkoutservice,network_in,164619
2023-07-04T18:08:00.194Z,productcatalogservice,network_in,2126351
2023-07-04T18:08:00.215Z,currencyservice,network_in,526231
2023-07-04T18:08:00.209Z,adservice,network_in,144274
2023-07-04T18:08:00.209Z,redis-cart,network_in,52822
2023-07-04T18:08:00.209Z,redis-cart,network_in,58588
2023-07-04T18:08:00.209Z,redis-cart,network_in,213662
2023-07-04T18:08:00.194Z,redis-cart,network_in,54947
2023-07-04T18:08:00.194Z,redis-cart,network_in,52784
2023-07-04T18:08:00.194Z,redis-cart,network_in,51024
2023-07-04T18:08:00.194Z,redis-cart,network_in,53326
2023-07-04T18:08:00.215Z,redis-cart,network_in,51902
2023-07-04T18:08:00.215Z,cartservice,network_in,292275
2023-07-04T18:08:00.209Z,redis-cart,network_in,56373
2023-07-04T18:08:00.209Z,shippingservice,network_in,96623
2023-07-04T18:08:00.209Z,emailservice,network_in,35356
2023-07-04T18:08:10.194Z,redis-cart,network_in,56649
2023-07-04T18:08:10.194Z,frontend,network_in,3395595
2023-07-04T18:08:10.209Z,paymentservice,network_in,27975
2023-07-04T18:08:10.209Z,shippingservice,network_in,96623
2023-07-04T18:08:10.209Z,redis-cart,network_in,52822
2023-07-04T18:08:10.209Z,redis-cart,network_in,58588
2023-07-04T18:08:10.216Z,redis-cart,network_in,54037
2023-07-04T18:08:10.216Z,redis-cart,network_in,53524
2023-07-04T18:08:10.216Z,currencyservice,network_in,583455
2023-07-04T18:08:10.194Z,redis-cart,network_in,54221
2023-07-04T18:08:10.194Z,productcatalogservice,network_in,2214969
2023-07-04T18:08:10.194Z,recommendationservice,network_in,1120130
2023-07-04T18:08:10.194Z,checkoutservice,network_in,168919
2023-07-04T18:08:10.194Z,redis-cart,network_in,55641
2023-07-04T18:08:10.209Z,adservice,network_in,144274
2023-07-04T18:08:10.209Z,redis-cart,network_in,213662
2023-07-04T18:08:10.216Z,redis-cart,network_in,50928
2023-07-04T18:08:10.194Z,redis-cart,network_in,53953
2023-07-04T18:08:10.194Z,redis-cart,network_in,53701
2023-07-04T18:08:10.194Z,redis-cart,network_in,52784
2023-07-04T18:08:10.209Z,redis-cart,network_in,56373
2023-07-04T18:08:10.209Z,emailservice,network_in,35356
2023-07-04T18:08:10.209Z,redis-cart,network_in,55943
2023-07-04T18:08:10.216Z,redis-cart,network_in,53673
2023-07-04T18:08:10.216Z,redis-cart,network_in,51902
2023-07-04T18:08:10.216Z,cartservice,network_in,308336
2023-07-04T18:08:20.215Z,redis-cart,network_in,54761
2023-07-04T18:08:20.215Z,redis-cart,network_in,55769
2023-07-04T18:08:20.209Z,redis-cart,network_in,58080
2023-07-04T18:08:20.193Z,redis-cart,network_in,61969
2023-07-04T18:08:20.193Z,redis-cart,network_in,58570
2023-07-04T18:08:20.193Z,redis-cart,network_in,56882
2023-07-04T18:08:20.215Z,cartservice,network_in,308336
2023-07-04T18:08:20.209Z,redis-cart,network_in,224837
2023-07-04T18:08:20.209Z,redis-cart,network_in,58005
2023-07-04T18:08:20.209Z,emailservice,network_in,37805
2023-07-04T18:08:20.193Z,redis-cart,network_in,58028
2023-07-04T18:08:20.215Z,redis-cart,network_in,53174
2023-07-04T18:08:20.209Z,adservice,network_in,153405
2023-07-04T18:08:20.193Z,productcatalogservice,network_in,2339290
2023-07-04T18:08:20.193Z,recommendationservice,network_in,1246963
2023-07-04T18:08:20.193Z,redis-cart,network_in,55946
2023-07-04T18:08:20.215Z,currencyservice,network_in,612320
2023-07-04T18:08:20.215Z,redis-cart,network_in,56325
2023-07-04T18:08:20.215Z,redis-cart,network_in,56742
2023-07-04T18:08:20.209Z,shippingservice,network_in,106183
2023-07-04T18:08:20.209Z,paymentservice,network_in,29475
2023-07-04T18:08:20.209Z,redis-cart,network_in,61921
2023-07-04T18:08:20.209Z,redis-cart,network_in,58956
2023-07-04T18:08:20.193Z,redis-cart,network_in,58851
2023-07-04T18:08:20.193Z,frontend,network_in,3788189
2023-07-04T18:08:20.193Z,checkoutservice,network_in,174741
2023-07-04T18:08:30.193Z,redis-cart,network_in,61969
2023-07-04T18:08:30.193Z,recommendationservice,network_in,1246963
2023-07-04T18:08:30.209Z,emailservice,network_in,37805
2023-07-04T18:08:30.193Z,redis-cart,network_in,58851
2023-07-04T18:08:30.193Z,frontend,network_in,3788189
2023-07-04T18:08:30.215Z,currencyservice,network_in,643337
2023-07-04T18:08:30.193Z,productcatalogservice,network_in,2339290
2023-07-04T18:08:30.193Z,redis-cart,network_in,58570
2023-07-04T18:08:30.215Z,redis-cart,network_in,59312
2023-07-04T18:08:30.215Z,cartservice,network_in,337869
2023-07-04T18:08:30.215Z,redis-cart,network_in,60117
2023-07-04T18:08:30.215Z,redis-cart,network_in,56856
2023-07-04T18:08:30.193Z,redis-cart,network_in,56882
2023-07-04T18:08:30.193Z,redis-cart,network_in,55946
2023-07-04T18:08:30.193Z,redis-cart,network_in,58028
2023-07-04T18:08:30.193Z,checkoutservice,network_in,174741
2023-07-04T18:08:30.209Z,redis-cart,network_in,224837
2023-07-04T18:08:30.209Z,redis-cart,network_in,58080
2023-07-04T18:08:30.209Z,shippingservice,network_in,106183
2023-07-04T18:08:30.209Z,paymentservice,network_in,29475
2023-07-04T18:08:30.209Z,adservice,network_in,153405
2023-07-04T18:08:30.209Z,redis-cart,network_in,61921
2023-07-04T18:08:30.209Z,redis-cart,network_in,58005
2023-07-04T18:08:30.209Z,redis-cart,network_in,58956
2023-07-04T18:08:30.215Z,redis-cart,network_in,58987
2023-07-04T18:08:30.215Z,redis-cart,network_in,61025
2023-07-04T18:08:40.195Z,checkoutservice,network_in,180821
2023-07-04T18:08:40.195Z,redis-cart,network_in,60343
2023-07-04T18:08:40.208Z,adservice,network_in,164289
2023-07-04T18:08:40.208Z,redis-cart,network_in,64934
2023-07-04T18:08:40.216Z,currencyservice,network_in,680306
2023-07-04T18:08:40.195Z,recommendationservice,network_in,1246963
2023-07-04T18:08:40.195Z,redis-cart,network_in,58875
2023-07-04T18:08:40.195Z,redis-cart,network_in,56882
2023-07-04T18:08:40.208Z,paymentservice,network_in,30285
2023-07-04T18:08:40.216Z,cartservice,network_in,354548
2023-07-04T18:08:40.195Z,frontend,network_in,4039915
2023-07-04T18:08:40.195Z,redis-cart,network_in,61969
2023-07-04T18:08:40.208Z,shippingservice,network_in,111235
2023-07-04T18:08:40.208Z,redis-cart,network_in,240054
2023-07-04T18:08:40.216Z,redis-cart,network_in,60075
2023-07-04T18:08:40.216Z,redis-cart,network_in,60117
2023-07-04T18:08:40.216Z,redis-cart,network_in,58488
2023-07-04T18:08:40.195Z,productcatalogservice,network_in,2457332
2023-07-04T18:08:40.195Z,redis-cart,network_in,58851
2023-07-04T18:08:40.195Z,redis-cart,network_in,58570
2023-07-04T18:08:40.208Z,redis-cart,network_in,62133
2023-07-04T18:08:40.208Z,redis-cart,network_in,62401
2023-07-04T18:08:40.208Z,redis-cart,network_in,61553
2023-07-04T18:08:40.208Z,emailservice,network_in,38476
2023-07-04T18:08:40.216Z,redis-cart,network_in,61025
2023-07-04T18:08:40.216Z,redis-cart,network_in,61557
2023-07-04T18:08:50.194Z,redis-cart,network_in,61903
2023-07-04T18:08:50.194Z,redis-cart,network_in,60343
2023-07-04T18:08:50.194Z,redis-cart,network_in,64828
2023-07-04T18:08:50.194Z,recommendationservice,network_in,1298534
2023-07-04T18:08:50.209Z,shippingservice,network_in,111235
2023-07-04T18:08:50.194Z,redis-cart,network_in,61734
2023-07-04T18:08:50.194Z,checkoutservice,network_in,186846
2023-07-04T18:08:50.216Z,redis-cart,network_in,63450
2023-07-04T18:08:50.216Z,redis-cart,network_in,64565
2023-07-04T18:08:50.194Z,redis-cart,network_in,62254
2023-07-04T18:08:50.194Z,frontend,network_in,4039915
2023-07-04T18:08:50.209Z,adservice,network_in,171305
2023-07-04T18:08:50.209Z,paymentservice,network_in,31414
2023-07-04T18:08:50.209Z,emailservice,network_in,40358
2023-07-04T18:08:50.209Z,redis-cart,network_in,65606
2023-07-04T18:08:50.216Z,redis-cart,network_in,62978
2023-07-04T18:08:50.216Z,cartservice,network_in,364660
2023-07-04T18:08:50.216Z,currencyservice,network_in,680306
2023-07-04T18:08:50.194Z,redis-cart,network_in,60285
2023-07-04T18:08:50.194Z,productcatalogservice,network_in,2552299
2023-07-04T18:08:50.209Z,redis-cart,network_in,64646
2023-07-04T18:08:50.209Z,redis-cart,network_in,240054
2023-07-04T18:08:50.209Z,redis-cart,network_in,61553
2023-07-04T18:08:50.209Z,redis-cart,network_in,67863
2023-07-04T18:08:50.216Z,redis-cart,network_in,65515
2023-07-04T18:08:50.216Z,redis-cart,network_in,61557
2023-07-04T18:09:00.208Z,shippingservice,network_in,111235
2023-07-04T18:09:00.208Z,redis-cart,network_in,61553
2023-07-04T18:09:00.215Z,redis-cart,network_in,63450
2023-07-04T18:09:00.215Z,currencyservice,network_in,680306
2023-07-04T18:09:00.194Z,redis-cart,network_in,63746
2023-07-04T18:09:00.208Z,redis-cart,network_in,64646
2023-07-04T18:09:00.208Z,redis-cart,network_in,67863
2023-07-04T18:09:00.215Z,redis-cart,network_in,62978
2023-07-04T18:09:00.215Z,redis-cart,network_in,65515
2023-07-04T18:09:00.194Z,checkoutservice,network_in,188625
2023-07-04T18:09:00.194Z,redis-cart,network_in,65113
2023-07-04T18:09:00.194Z,frontend,network_in,4325718
2023-07-04T18:09:00.208Z,redis-cart,network_in,240054
2023-07-04T18:09:00.208Z,redis-cart,network_in,65606
2023-07-04T18:09:00.215Z,cartservice,network_in,364660
2023-07-04T18:09:00.215Z,redis-cart,network_in,61557
2023-07-04T18:09:00.194Z,redis-cart,network_in,64762
2023-07-04T18:09:00.194Z,productcatalogservice,network_in,2688821
2023-07-04T18:09:00.208Z,adservice,network_in,171305
2023-07-04T18:09:00.208Z,paymentservice,network_in,31414
2023-07-04T18:09:00.208Z,emailservice,network_in,40358
2023-07-04T18:09:00.215Z,redis-cart,network_in,64565
2023-07-04T18:09:00.194Z,recommendationservice,network_in,1419619
2023-07-04T18:09:00.194Z,redis-cart,network_in,65137
2023-07-04T18:09:00.194Z,redis-cart,network_in,68231
2023-07-04T18:09:00.194Z,redis-cart,network_in,64301
2023-07-04T18:09:10.194Z,redis-cart,network_in,63746
2023-07-04T18:09:10.215Z,redis-cart,network_in,62978
2023-07-04T18:09:10.215Z,cartservice,network_in,378955
2023-07-04T18:09:10.209Z,redis-cart,network_in,64384
2023-07-04T18:09:10.194Z,redis-cart,network_in,64762
2023-07-04T18:09:10.194Z,productcatalogservice,network_in,2688821
2023-07-04T18:09:10.215Z,redis-cart,network_in,64565
2023-07-04T18:09:10.215Z,redis-cart,network_in,64346
2023-07-04T18:09:10.209Z,emailservice,network_in,40994
2023-07-04T18:09:10.209Z,redis-cart,network_in,67435
2023-07-04T18:09:10.209Z,redis-cart,network_in,254086
2023-07-04T18:09:10.194Z,checkoutservice,network_in,188625
2023-07-04T18:09:10.194Z,redis-cart,network_in,65113
2023-07-04T18:09:10.194Z,frontend,network_in,4325718
2023-07-04T18:09:10.215Z,redis-cart,network_in,66603
2023-07-04T18:09:10.215Z,redis-cart,network_in,65695
2023-07-04T18:09:10.209Z,paymentservice,network_in,31480
2023-07-04T18:09:10.209Z,redis-cart,network_in,68981
2023-07-04T18:09:10.194Z,recommendationservice,network_in,1419619
2023-07-04T18:09:10.194Z,redis-cart,network_in,65137
2023-07-04T18:09:10.194Z,redis-cart,network_in,68231
2023-07-04T18:09:10.194Z,redis-cart,network_in,64301
2023-07-04T18:09:10.215Z,currencyservice,network_in,708781
2023-07-04T18:09:10.209Z,shippingservice,network_in,115777
2023-07-04T18:09:10.209Z,redis-cart,network_in,70736
2023-07-04T18:09:10.209Z,adservice,network_in,178515
2023-07-04T18:09:20.194Z,frontend,network_in,4325718
2023-07-04T18:09:20.194Z,redis-cart,network_in,67902
2023-07-04T18:09:20.209Z,paymentservice,network_in,31480
2023-07-04T18:09:20.216Z,redis-cart,network_in,66603
2023-07-04T18:09:20.194Z,redis-cart,network_in,65933
2023-07-04T18:09:20.194Z,redis-cart,network_in,67551
2023-07-04T18:09:20.194Z,productcatalogservice,network_in,2688821
2023-07-04T18:09:20.209Z,emailservice,network_in,40994
2023-07-04T18:09:20.209Z,redis-cart,network_in,67435
2023-07-04T18:09:20.209Z,redis-cart,network_in,254086
2023-07-04T18:09:20.216Z,redis-cart,network_in,67354
2023-07-04T18:09:20.194Z,redis-cart,network_in,72323
2023-07-04T18:09:20.194Z,recommendationservice,network_in,1419619
2023-07-04T18:09:20.209Z,redis-cart,network_in,64384
2023-07-04T18:09:20.209Z,redis-cart,network_in,68981
2023-07-04T18:09:20.216Z,redis-cart,network_in,64610
2023-07-04T18:09:20.216Z,cartservice,network_in,378955
2023-07-04T18:09:20.216Z,redis-cart,network_in,67135
2023-07-04T18:09:20.216Z,currencyservice,network_in,744195
2023-07-04T18:09:20.194Z,redis-cart,network_in,68236
2023-07-04T18:09:20.194Z,redis-cart,network_in,67926
2023-07-04T18:09:20.194Z,checkoutservice,network_in,193600
2023-07-04T18:09:20.209Z,shippingservice,network_in,115777
2023-07-04T18:09:20.209Z,redis-cart,network_in,70736
2023-07-04T18:09:20.209Z,adservice,network_in,178515
2023-07-04T18:09:20.216Z,redis-cart,network_in,66783
2023-07-04T18:09:30.194Z,redis-cart,network_in,67926
2023-07-04T18:09:30.194Z,frontend,network_in,4595918
2023-07-04T18:09:30.209Z,redis-cart,network_in,73055
2023-07-04T18:09:30.215Z,cartservice,network_in,410999
2023-07-04T18:09:30.215Z,redis-cart,network_in,68640
2023-07-04T18:09:30.215Z,currencyservice,network_in,784553
2023-07-04T18:09:30.194Z,recommendationservice,network_in,1478682
2023-07-04T18:09:30.194Z,checkoutservice,network_in,202543
2023-07-04T18:09:30.209Z,redis-cart,network_in,74015
2023-07-04T18:09:30.209Z,shippingservice,network_in,124431
2023-07-04T18:09:30.209Z,redis-cart,network_in,269822
2023-07-04T18:09:30.215Z,redis-cart,network_in,71667
2023-07-04T18:09:30.194Z,redis-cart,network_in,73411
2023-07-04T18:09:30.194Z,redis-cart,network_in,69796
2023-07-04T18:09:30.209Z,redis-cart,network_in,74069
2023-07-04T18:09:30.209Z,redis-cart,network_in,71705
2023-07-04T18:09:30.215Z,redis-cart,network_in,71357
2023-07-04T18:09:30.194Z,redis-cart,network_in,67902
2023-07-04T18:09:30.194Z,redis-cart,network_in,69324
2023-07-04T18:09:30.194Z,productcatalogservice,network_in,2856050
2023-07-04T18:09:30.194Z,redis-cart,network_in,69335
2023-07-04T18:09:30.209Z,emailservice,network_in,43209
2023-07-04T18:09:30.209Z,paymentservice,network_in,33675
2023-07-04T18:09:30.209Z,adservice,network_in,197121
2023-07-04T18:09:30.215Z,redis-cart,network_in,71093
2023-07-04T18:09:30.215Z,redis-cart,network_in,70771
2023-07-04T18:09:40.209Z,redis-cart,network_in,74069
2023-07-04T18:09:40.209Z,redis-cart,network_in,71705
2023-07-04T18:09:40.194Z,redis-cart,network_in,70715
2023-07-04T18:09:40.215Z,redis-cart,network_in,73311
2023-07-04T18:09:40.209Z,redis-cart,network_in,73055
2023-07-04T18:09:40.209Z,redis-cart,network_in,74015
2023-07-04T18:09:40.194Z,redis-cart,network_in,71511
2023-07-04T18:09:40.194Z,redis-cart,network_in,73270
2023-07-04T18:09:40.215Z,redis-cart,network_in,74456
2023-07-04T18:09:40.215Z,redis-cart,network_in,73016
2023-07-04T18:09:40.209Z,redis-cart,network_in,269822
2023-07-04T18:09:40.194Z,productcatalogservice,network_in,2932998
2023-07-04T18:09:40.194Z,redis-cart,network_in,74286
2023-07-04T18:09:40.194Z,redis-cart,network_in,71235
2023-07-04T18:09:40.194Z,redis-cart,network_in,77901
2023-07-04T18:09:40.215Z,currencyservice,network_in,820838
2023-07-04T18:09:40.215Z,redis-cart,network_in,70272
2023-07-04T18:09:40.215Z,cartservice,network_in,410999
2023-07-04T18:09:40.209Z,emailservice,network_in,43209
2023-07-04T18:09:40.209Z,paymentservice,network_in,33675
2023-07-04T18:09:40.209Z,adservice,network_in,197121
2023-07-04T18:09:40.209Z,shippingservice,network_in,124431
2023-07-04T18:09:40.194Z,frontend,network_in,4881339
2023-07-04T18:09:40.194Z,checkoutservice,network_in,203335
2023-07-04T18:09:40.194Z,recommendationservice,network_in,1561029
2023-07-04T18:09:40.215Z,redis-cart,network_in,74146
2023-07-04T18:09:50.215Z,redis-cart,network_in,74146
2023-07-04T18:09:50.215Z,redis-cart,network_in,73311
2023-07-04T18:09:50.194Z,redis-cart,network_in,74913
2023-07-04T18:09:50.209Z,redis-cart,network_in,79103
2023-07-04T18:09:50.209Z,emailservice,network_in,44412
2023-07-04T18:09:50.209Z,redis-cart,network_in,75342
2023-07-04T18:09:50.209Z,paymentservice,network_in,34730
2023-07-04T18:09:50.215Z,redis-cart,network_in,74456
2023-07-04T18:09:50.215Z,redis-cart,network_in,70272
2023-07-04T18:09:50.215Z,cartservice,network_in,410999
2023-07-04T18:09:50.194Z,redis-cart,network_in,75918
2023-07-04T18:09:50.194Z,redis-cart,network_in,77901
2023-07-04T18:09:50.209Z,redis-cart,network_in,289971
2023-07-04T18:09:50.215Z,currencyservice,network_in,820838
2023-07-04T18:09:50.215Z,redis-cart,network_in,73016
2023-07-04T18:09:50.194Z,checkoutservice,network_in,205132
2023-07-04T18:09:50.194Z,productcatalogservice,network_in,3062383
2023-07-04T18:09:50.194Z,frontend,network_in,5030900
2023-07-04T18:09:50.194Z,redis-cart,network_in,75725
2023-07-04T18:09:50.209Z,adservice,network_in,208795
2023-07-04T18:09:50.209Z,redis-cart,network_in,76804
2023-07-04T18:09:50.194Z,redis-cart,network_in,74902
2023-07-04T18:09:50.194Z,recommendationservice,network_in,1594686
2023-07-04T18:09:50.194Z,redis-cart,network_in,75205
2023-07-04T18:09:50.209Z,redis-cart,network_in,75582
2023-07-04T18:09:50.209Z,shippingservice,network_in,128769
2023-07-04T18:10:00.194Z,redis-cart,network_in,74913
2023-07-04T18:10:00.209Z,adservice,network_in,208795
2023-07-04T18:10:00.209Z,redis-cart,network_in,75342
2023-07-04T18:10:00.209Z,redis-cart,network_in,76804
2023-07-04T18:10:00.215Z,redis-cart,network_in,75318
2023-07-04T18:10:00.194Z,redis-cart,network_in,75918
2023-07-04T18:10:00.194Z,redis-cart,network_in,77901
2023-07-04T18:10:00.209Z,redis-cart,network_in,289971
2023-07-04T18:10:00.209Z,redis-cart,network_in,75582
2023-07-04T18:10:00.215Z,cartservice,network_in,427405
2023-07-04T18:10:00.194Z,redis-cart,network_in,74902
2023-07-04T18:10:00.194Z,recommendationservice,network_in,1594686
2023-07-04T18:10:00.194Z,redis-cart,network_in,75205
2023-07-04T18:10:00.209Z,shippingservice,network_in,128769
2023-07-04T18:10:00.215Z,redis-cart,network_in,76713
2023-07-04T18:10:00.215Z,redis-cart,network_in,73016
2023-07-04T18:10:00.215Z,currencyservice,network_in,820838
2023-07-04T18:10:00.194Z,checkoutservice,network_in,205132
2023-07-04T18:10:00.194Z,productcatalogservice,network_in,3062383
2023-07-04T18:10:00.194Z,frontend,network_in,5030900
2023-07-04T18:10:00.194Z,redis-cart,network_in,75725
2023-07-04T18:10:00.209Z,redis-cart,network_in,79103
2023-07-04T18:10:00.209Z,emailservice,network_in,44412
2023-07-04T18:10:00.209Z,paymentservice,network_in,34730
2023-07-04T18:10:00.215Z,redis-cart,network_in,75586
2023-07-04T18:10:00.215Z,redis-cart,network_in,70272
2023-07-04T18:10:10.194Z,redis-cart,network_in,78163
2023-07-04T18:10:10.194Z,redis-cart,network_in,77994
2023-07-04T18:10:10.209Z,emailservice,network_in,46825
2023-07-04T18:10:10.209Z,redis-cart,network_in,80137
2023-07-04T18:10:10.209Z,shippingservice,network_in,136165
2023-07-04T18:10:10.215Z,redis-cart,network_in,80076
2023-07-04T18:10:10.194Z,productcatalogservice,network_in,3181099
2023-07-04T18:10:10.209Z,redis-cart,network_in,309018
2023-07-04T18:10:10.209Z,redis-cart,network_in,80962
2023-07-04T18:10:10.209Z,paymentservice,network_in,37057
2023-07-04T18:10:10.209Z,redis-cart,network_in,80072
2023-07-04T18:10:10.209Z,adservice,network_in,221063
2023-07-04T18:10:10.215Z,redis-cart,network_in,78107
2023-07-04T18:10:10.194Z,redis-cart,network_in,76001
2023-07-04T18:10:10.194Z,checkoutservice,network_in,210088
2023-07-04T18:10:10.194Z,redis-cart,network_in,79533
2023-07-04T18:10:10.209Z,redis-cart,network_in,81934
2023-07-04T18:10:10.215Z,cartservice,network_in,448136
2023-07-04T18:10:10.215Z,redis-cart,network_in,75889
2023-07-04T18:10:10.215Z,currencyservice,network_in,889521
2023-07-04T18:10:10.194Z,redis-cart,network_in,75725
2023-07-04T18:10:10.194Z,frontend,network_in,5229542
2023-07-04T18:10:10.194Z,redis-cart,network_in,78848
2023-07-04T18:10:10.194Z,recommendationservice,network_in,1594686
2023-07-04T18:10:10.215Z,redis-cart,network_in,74804
2023-07-04T18:10:10.215Z,redis-cart,network_in,78387
2023-07-04T18:10:20.194Z,redis-cart,network_in,79058
2023-07-04T18:10:20.194Z,redis-cart,network_in,78163
2023-07-04T18:10:20.209Z,paymentservice,network_in,37057
2023-07-04T18:10:20.209Z,emailservice,network_in,48068
2023-07-04T18:10:20.216Z,cartservice,network_in,463404
2023-07-04T18:10:20.216Z,redis-cart,network_in,82333
2023-07-04T18:10:20.194Z,productcatalogservice,network_in,3181099
2023-07-04T18:10:20.194Z,frontend,network_in,5229542
2023-07-04T18:10:20.194Z,redis-cart,network_in,83625
2023-07-04T18:10:20.209Z,shippingservice,network_in,143181
2023-07-04T18:10:20.194Z,redis-cart,network_in,79936
2023-07-04T18:10:20.209Z,adservice,network_in,221063
2023-07-04T18:10:20.209Z,redis-cart,network_in,86424
2023-07-04T18:10:20.209Z,redis-cart,network_in,80072
2023-07-04T18:10:20.216Z,redis-cart,network_in,78107
2023-07-04T18:10:20.216Z,redis-cart,network_in,79378
2023-07-04T18:10:20.194Z,recommendationservice,network_in,1703259
2023-07-04T18:10:20.194Z,checkoutservice,network_in,210088
2023-07-04T18:10:20.194Z,redis-cart,network_in,77089
2023-07-04T18:10:20.194Z,redis-cart,network_in,77994
2023-07-04T18:10:20.209Z,redis-cart,network_in,80962
2023-07-04T18:10:20.209Z,redis-cart,network_in,309018
2023-07-04T18:10:20.209Z,redis-cart,network_in,84083
2023-07-04T18:10:20.216Z,redis-cart,network_in,80076
2023-07-04T18:10:20.216Z,redis-cart,network_in,79306
2023-07-04T18:10:20.216Z,currencyservice,network_in,920562
2023-07-04T18:10:30.194Z,checkoutservice,network_in,224050
2023-07-04T18:10:30.194Z,frontend,network_in,5427630
2023-07-04T18:10:30.215Z,cartservice,network_in,463404
2023-07-04T18:10:30.215Z,redis-cart,network_in,82333
2023-07-04T18:10:30.194Z,redis-cart,network_in,80952
2023-07-04T18:10:30.194Z,redis-cart,network_in,83625
2023-07-04T18:10:30.194Z,recommendationservice,network_in,1782607
2023-07-04T18:10:30.208Z,paymentservice,network_in,37057
2023-07-04T18:10:30.215Z,redis-cart,network_in,79306
2023-07-04T18:10:30.215Z,currencyservice,network_in,920562
2023-07-04T18:10:30.194Z,redis-cart,network_in,81303
2023-07-04T18:10:30.194Z,redis-cart,network_in,79936
2023-07-04T18:10:30.208Z,redis-cart,network_in,80962
2023-07-04T18:10:30.208Z,redis-cart,network_in,86424
2023-07-04T18:10:30.208Z,redis-cart,network_in,80072
2023-07-04T18:10:30.208Z,shippingservice,network_in,143181
2023-07-04T18:10:30.215Z,redis-cart,network_in,78107
2023-07-04T18:10:30.194Z,redis-cart,network_in,81327
2023-07-04T18:10:30.194Z,productcatalogservice,network_in,3317394
2023-07-04T18:10:30.194Z,redis-cart,network_in,77089
2023-07-04T18:10:30.208Z,adservice,network_in,221063
2023-07-04T18:10:30.208Z,redis-cart,network_in,309018
2023-07-04T18:10:30.208Z,emailservice,network_in,48068
2023-07-04T18:10:30.208Z,redis-cart,network_in,84083
2023-07-04T18:10:30.215Z,redis-cart,network_in,80076
2023-07-04T18:10:30.215Z,redis-cart,network_in,79378
2023-07-04T18:10:40.194Z,redis-cart,network_in,81024
2023-07-04T18:10:40.209Z,redis-cart,network_in,85715
2023-07-04T18:10:40.194Z,redis-cart,network_in,83197
2023-07-04T18:10:40.194Z,checkoutservice,network_in,228200
2023-07-04T18:10:40.194Z,redis-cart,network_in,81579
2023-07-04T18:10:40.215Z,redis-cart,network_in,82907
2023-07-04T18:10:40.215Z,redis-cart,network_in,84007
2023-07-04T18:10:40.194Z,redis-cart,network_in,85257
2023-07-04T18:10:40.194Z,redis-cart,network_in,82391
2023-07-04T18:10:40.194Z,recommendationservice,network_in,1782607
2023-07-04T18:10:40.215Z,redis-cart,network_in,82095
2023-07-04T18:10:40.215Z,cartservice,network_in,481378
2023-07-04T18:10:40.209Z,redis-cart,network_in,336398
2023-07-04T18:10:40.209Z,redis-cart,network_in,82903
2023-07-04T18:10:40.209Z,redis-cart,network_in,88056
2023-07-04T18:10:40.209Z,emailservice,network_in,49151
2023-07-04T18:10:40.209Z,adservice,network_in,242384
2023-07-04T18:10:40.209Z,redis-cart,network_in,86582
2023-07-04T18:10:40.194Z,productcatalogservice,network_in,3475466
2023-07-04T18:10:40.194Z,redis-cart,network_in,81327
2023-07-04T18:10:40.194Z,frontend,network_in,5686695
2023-07-04T18:10:40.215Z,currencyservice,network_in,920562
2023-07-04T18:10:40.215Z,redis-cart,network_in,82681
2023-07-04T18:10:40.215Z,redis-cart,network_in,80466
2023-07-04T18:10:40.209Z,shippingservice,network_in,145521
2023-07-04T18:10:40.209Z,paymentservice,network_in,38507
2023-07-04T18:10:50.209Z,emailservice,network_in,49151
2023-07-04T18:10:50.209Z,redis-cart,network_in,86582
2023-07-04T18:10:50.194Z,recommendationservice,network_in,1912308
2023-07-04T18:10:50.194Z,redis-cart,network_in,85514
2023-07-04T18:10:50.216Z,redis-cart,network_in,86642
2023-07-04T18:10:50.209Z,redis-cart,network_in,336398
2023-07-04T18:10:50.209Z,redis-cart,network_in,82903
2023-07-04T18:10:50.209Z,paymentservice,network_in,38507
2023-07-04T18:10:50.194Z,checkoutservice,network_in,236670
2023-07-04T18:10:50.194Z,redis-cart,network_in,87074
2023-07-04T18:10:50.194Z,redis-cart,network_in,84660
2023-07-04T18:10:50.216Z,cartservice,network_in,506152
2023-07-04T18:10:50.216Z,redis-cart,network_in,81554
2023-07-04T18:10:50.209Z,redis-cart,network_in,88056
2023-07-04T18:10:50.209Z,adservice,network_in,242384
2023-07-04T18:10:50.194Z,redis-cart,network_in,86613
2023-07-04T18:10:50.194Z,productcatalogservice,network_in,3647563
2023-07-04T18:10:50.216Z,currencyservice,network_in,966304
2023-07-04T18:10:50.216Z,redis-cart,network_in,86669
2023-07-04T18:10:50.209Z,redis-cart,network_in,85715
2023-07-04T18:10:50.209Z,shippingservice,network_in,145521
2023-07-04T18:10:50.194Z,frontend,network_in,5860692
2023-07-04T18:10:50.194Z,redis-cart,network_in,85180
2023-07-04T18:10:50.194Z,redis-cart,network_in,89747
2023-07-04T18:10:50.216Z,redis-cart,network_in,86826
2023-07-04T18:10:50.216Z,redis-cart,network_in,88539
2023-07-04T18:11:00.216Z,redis-cart,network_in,86642
2023-07-04T18:11:00.194Z,recommendationservice,network_in,1912308
2023-07-04T18:11:00.194Z,checkoutservice,network_in,236670
2023-07-04T18:11:00.209Z,redis-cart,network_in,88481
2023-07-04T18:11:00.216Z,currencyservice,network_in,966304
2023-07-04T18:11:00.216Z,redis-cart,network_in,86669
2023-07-04T18:11:00.194Z,productcatalogservice,network_in,3647563
2023-07-04T18:11:00.194Z,redis-cart,network_in,88039
2023-07-04T18:11:00.194Z,redis-cart,network_in,87074
2023-07-04T18:11:00.194Z,redis-cart,network_in,92606
2023-07-04T18:11:00.209Z,paymentservice,network_in,39292
2023-07-04T18:11:00.209Z,redis-cart,network_in,92002
2023-07-04T18:11:00.216Z,cartservice,network_in,506152
2023-07-04T18:11:00.216Z,redis-cart,network_in,81554
2023-07-04T18:11:00.194Z,redis-cart,network_in,87216
2023-07-04T18:11:00.209Z,shippingservice,network_in,155917
2023-07-04T18:11:00.209Z,redis-cart,network_in,87670
2023-07-04T18:11:00.216Z,redis-cart,network_in,86826
2023-07-04T18:11:00.216Z,redis-cart,network_in,88539
2023-07-04T18:11:00.194Z,frontend,network_in,6031031
2023-07-04T18:11:00.194Z,redis-cart,network_in,86613
2023-07-04T18:11:00.194Z,redis-cart,network_in,86905
2023-07-04T18:11:00.209Z,redis-cart,network_in,356060
2023-07-04T18:11:00.209Z,redis-cart,network_in,89661
2023-07-04T18:11:00.209Z,emailservice,network_in,49855
2023-07-04T18:11:00.209Z,adservice,network_in,250029
2023-07-04T18:11:10.194Z,recommendationservice,network_in,1912308
2023-07-04T18:11:10.194Z,checkoutservice,network_in,236670
2023-07-04T18:11:10.208Z,redis-cart,network_in,88481
2023-07-04T18:11:10.216Z,cartservice,network_in,526818
2023-07-04T18:11:10.194Z,productcatalogservice,network_in,3647563
2023-07-04T18:11:10.194Z,redis-cart,network_in,87074
2023-07-04T18:11:10.194Z,redis-cart,network_in,92606
2023-07-04T18:11:10.208Z,redis-cart,network_in,356060
2023-07-04T18:11:10.208Z,shippingservice,network_in,155917
2023-07-04T18:11:10.208Z,redis-cart,network_in,89661
2023-07-04T18:11:10.208Z,emailservice,network_in,49855
2023-07-04T18:11:10.208Z,redis-cart,network_in,92002
2023-07-04T18:11:10.216Z,redis-cart,network_in,88301
2023-07-04T18:11:10.194Z,redis-cart,network_in,88039
2023-07-04T18:11:10.194Z,redis-cart,network_in,87216
2023-07-04T18:11:10.208Z,paymentservice,network_in,39292
2023-07-04T18:11:10.208Z,adservice,network_in,250029
2023-07-04T18:11:10.216Z,redis-cart,network_in,90171
2023-07-04T18:11:10.216Z,redis-cart,network_in,88887
2023-07-04T18:11:10.216Z,redis-cart,network_in,87174
2023-07-04T18:11:10.194Z,frontend,network_in,6031031
2023-07-04T18:11:10.194Z,redis-cart,network_in,86613
2023-07-04T18:11:10.194Z,redis-cart,network_in,86905
2023-07-04T18:11:10.208Z,redis-cart,network_in,87670
2023-07-04T18:11:10.216Z,currencyservice,network_in,1031458
2023-07-04T18:11:10.216Z,redis-cart,network_in,89615
2023-07-04T18:11:20.194Z,redis-cart,network_in,92606
2023-07-04T18:11:20.194Z,redis-cart,network_in,90238
2023-07-04T18:11:20.194Z,productcatalogservice,network_in,3831877
2023-07-04T18:11:20.215Z,cartservice,network_in,526818
2023-07-04T18:11:20.215Z,redis-cart,network_in,90171
2023-07-04T18:11:20.215Z,redis-cart,network_in,88301
2023-07-04T18:11:20.209Z,adservice,network_in,257801
2023-07-04T18:11:20.209Z,emailservice,network_in,51522
2023-07-04T18:11:20.194Z,frontend,network_in,6249705
2023-07-04T18:11:20.194Z,redis-cart,network_in,91634
2023-07-04T18:11:20.194Z,recommendationservice,network_in,1991302
2023-07-04T18:11:20.215Z,redis-cart,network_in,88887
2023-07-04T18:11:20.209Z,redis-cart,network_in,372309
2023-07-04T18:11:20.209Z,redis-cart,network_in,94765
2023-07-04T18:11:20.194Z,redis-cart,network_in,90828
2023-07-04T18:11:20.194Z,checkoutservice,network_in,243942
2023-07-04T18:11:20.194Z,redis-cart,network_in,91162
2023-07-04T18:11:20.215Z,redis-cart,network_in,89615
2023-07-04T18:11:20.215Z,redis-cart,network_in,87174
2023-07-04T18:11:20.209Z,redis-cart,network_in,89569
2023-07-04T18:11:20.209Z,shippingservice,network_in,162391
2023-07-04T18:11:20.194Z,redis-cart,network_in,87771
2023-07-04T18:11:20.215Z,currencyservice,network_in,1031458
2023-07-04T18:11:20.209Z,redis-cart,network_in,93634
2023-07-04T18:11:20.209Z,paymentservice,network_in,40675
2023-07-04T18:11:20.209Z,redis-cart,network_in,92202
2023-07-04T18:11:30.215Z,currencyservice,network_in,1031458
2023-07-04T18:11:30.215Z,redis-cart,network_in,94229
2023-07-04T18:11:30.194Z,redis-cart,network_in,95652
2023-07-04T18:11:30.194Z,frontend,network_in,6485132
2023-07-04T18:11:30.194Z,redis-cart,network_in,93349
2023-07-04T18:11:30.209Z,redis-cart,network_in,93904
2023-07-04T18:11:30.215Z,redis-cart,network_in,92516
2023-07-04T18:11:30.194Z,checkoutservice,network_in,254652
2023-07-04T18:11:30.194Z,redis-cart,network_in,94728
2023-07-04T18:11:30.209Z,shippingservice,network_in,162391
2023-07-04T18:11:30.209Z,redis-cart,network_in,92470
2023-07-04T18:11:30.209Z,paymentservice,network_in,41289
2023-07-04T18:11:30.209Z,redis-cart,network_in,96467
2023-07-04T18:11:30.209Z,emailservice,network_in,52875
2023-07-04T18:11:30.215Z,redis-cart,network_in,91244
2023-07-04T18:11:30.215Z,redis-cart,network_in,87174
2023-07-04T18:11:30.215Z,cartservice,network_in,543108
2023-07-04T18:11:30.194Z,redis-cart,network_in,96629
2023-07-04T18:11:30.194Z,recommendationservice,network_in,2093224
2023-07-04T18:11:30.194Z,productcatalogservice,network_in,3987934
2023-07-04T18:11:30.209Z,redis-cart,network_in,98236
2023-07-04T18:11:30.215Z,redis-cart,network_in,91202
2023-07-04T18:11:30.194Z,redis-cart,network_in,92722
2023-07-04T18:11:30.194Z,redis-cart,network_in,93073
2023-07-04T18:11:30.209Z,adservice,network_in,270024
2023-07-04T18:11:30.209Z,redis-cart,network_in,372309
2023-07-04T18:11:40.209Z,shippingservice,network_in,162391
2023-07-04T18:11:40.209Z,adservice,network_in,270024
2023-07-04T18:11:40.209Z,redis-cart,network_in,372309
2023-07-04T18:11:40.194Z,recommendationservice,network_in,2163088
2023-07-04T18:11:40.194Z,checkoutservice,network_in,267497
2023-07-04T18:11:40.215Z,currencyservice,network_in,1107906
2023-07-04T18:11:40.209Z,redis-cart,network_in,98236
2023-07-04T18:11:40.194Z,redis-cart,network_in,95652
2023-07-04T18:11:40.194Z,redis-cart,network_in,95511
2023-07-04T18:11:40.215Z,redis-cart,network_in,95317
2023-07-04T18:11:40.215Z,redis-cart,network_in,94033
2023-07-04T18:11:40.209Z,redis-cart,network_in,96467
2023-07-04T18:11:40.209Z,emailservice,network_in,52875
2023-07-04T18:11:40.194Z,productcatalogservice,network_in,4077590
2023-07-04T18:11:40.194Z,frontend,network_in,6700484
2023-07-04T18:11:40.215Z,redis-cart,network_in,94619
2023-07-04T18:11:40.215Z,redis-cart,network_in,95764
2023-07-04T18:11:40.209Z,redis-cart,network_in,93904
2023-07-04T18:11:40.209Z,redis-cart,network_in,92470
2023-07-04T18:11:40.209Z,paymentservice,network_in,41289
2023-07-04T18:11:40.194Z,redis-cart,network_in,96406
2023-07-04T18:11:40.194Z,redis-cart,network_in,100575
2023-07-04T18:11:40.194Z,redis-cart,network_in,94728
2023-07-04T18:11:40.194Z,redis-cart,network_in,93349
2023-07-04T18:11:40.215Z,cartservice,network_in,559181
2023-07-04T18:11:40.215Z,redis-cart,network_in,95305
2023-07-04T18:11:50.194Z,recommendationservice,network_in,2163088
2023-07-04T18:11:50.194Z,checkoutservice,network_in,267497
2023-07-04T18:11:50.194Z,redis-cart,network_in,93349
2023-07-04T18:11:50.209Z,redis-cart,network_in,96960
2023-07-04T18:11:50.209Z,redis-cart,network_in,384698
2023-07-04T18:11:50.209Z,emailservice,network_in,55525
2023-07-04T18:11:50.216Z,redis-cart,network_in,95305
2023-07-04T18:11:50.194Z,redis-cart,network_in,96406
2023-07-04T18:11:50.194Z,redis-cart,network_in,100575
2023-07-04T18:11:50.194Z,redis-cart,network_in,94728
2023-07-04T18:11:50.216Z,redis-cart,network_in,99333
2023-07-04T18:11:50.209Z,adservice,network_in,279084
2023-07-04T18:11:50.216Z,redis-cart,network_in,98133
2023-07-04T18:11:50.194Z,redis-cart,network_in,95652
2023-07-04T18:11:50.194Z,redis-cart,network_in,95511
2023-07-04T18:11:50.209Z,shippingservice,network_in,172283
2023-07-04T18:11:50.216Z,currencyservice,network_in,1107906
2023-07-04T18:11:50.194Z,productcatalogservice,network_in,4077590
2023-07-04T18:11:50.194Z,frontend,network_in,6700484
2023-07-04T18:11:50.209Z,redis-cart,network_in,99938
2023-07-04T18:11:50.209Z,redis-cart,network_in,101097
2023-07-04T18:11:50.209Z,paymentservice,network_in,43661
2023-07-04T18:11:50.209Z,redis-cart,network_in,97920
2023-07-04T18:11:50.216Z,cartservice,network_in,575419
2023-07-04T18:11:50.216Z,redis-cart,network_in,96864
2023-07-04T18:11:50.216Z,redis-cart,network_in,95764
2023-07-04T18:12:00.194Z,redis-cart,network_in,101873
2023-07-04T18:12:00.194Z,frontend,network_in,6700484
2023-07-04T18:12:00.209Z,paymentservice,network_in,43661
2023-07-04T18:12:00.209Z,redis-cart,network_in,384698
2023-07-04T18:12:00.215Z,redis-cart,network_in,95764
2023-07-04T18:12:00.194Z,redis-cart,network_in,98861
2023-07-04T18:12:00.194Z,recommendationservice,network_in,2163088
2023-07-04T18:12:00.209Z,shippingservice,network_in,172283
2023-07-04T18:12:00.215Z,redis-cart,network_in,99333
2023-07-04T18:12:00.215Z,redis-cart,network_in,98133
2023-07-04T18:12:00.194Z,redis-cart,network_in,95511
2023-07-04T18:12:00.194Z,productcatalogservice,network_in,4077590
2023-07-04T18:12:00.194Z,checkoutservice,network_in,276904
2023-07-04T18:12:00.194Z,redis-cart,network_in,97727
2023-07-04T18:12:00.209Z,redis-cart,network_in,96960
2023-07-04T18:12:00.209Z,redis-cart,network_in,99938
2023-07-04T18:12:00.209Z,redis-cart,network_in,101097
2023-07-04T18:12:00.209Z,redis-cart,network_in,97920
2023-07-04T18:12:00.209Z,adservice,network_in,279084
2023-07-04T18:12:00.209Z,emailservice,network_in,55525
2023-07-04T18:12:00.215Z,cartservice,network_in,575419
2023-07-04T18:12:00.194Z,redis-cart,network_in,97979
2023-07-04T18:12:00.194Z,redis-cart,network_in,97424
2023-07-04T18:12:00.215Z,currencyservice,network_in,1107906
2023-07-04T18:12:00.215Z,redis-cart,network_in,96864
2023-07-04T18:12:00.215Z,redis-cart,network_in,95305
2023-07-04T18:12:10.194Z,redis-cart,network_in,101650
2023-07-04T18:12:10.194Z,redis-cart,network_in,99611
2023-07-04T18:12:10.215Z,redis-cart,network_in,97508
2023-07-04T18:12:10.194Z,redis-cart,network_in,101914
2023-07-04T18:12:10.194Z,productcatalogservice,network_in,4259397
2023-07-04T18:12:10.194Z,checkoutservice,network_in,290859
2023-07-04T18:12:10.209Z,shippingservice,network_in,180467
2023-07-04T18:12:10.209Z,redis-cart,network_in,400724
2023-07-04T18:12:10.209Z,redis-cart,network_in,99692
2023-07-04T18:12:10.215Z,redis-cart,network_in,101147
2023-07-04T18:12:10.215Z,redis-cart,network_in,99807
2023-07-04T18:12:10.215Z,redis-cart,network_in,99765
2023-07-04T18:12:10.215Z,cartservice,network_in,596072
2023-07-04T18:12:10.194Z,redis-cart,network_in,101299
2023-07-04T18:12:10.194Z,frontend,network_in,6934778
2023-07-04T18:12:10.194Z,redis-cart,network_in,106509
2023-07-04T18:12:10.194Z,recommendationservice,network_in,2256174
2023-07-04T18:12:10.209Z,redis-cart,network_in,105866
2023-07-04T18:12:10.209Z,redis-cart,network_in,102185
2023-07-04T18:12:10.209Z,adservice,network_in,290168
2023-07-04T18:12:10.215Z,currencyservice,network_in,1138246
2023-07-04T18:12:10.215Z,redis-cart,network_in,98206
2023-07-04T18:12:10.194Z,redis-cart,network_in,98815
2023-07-04T18:12:10.209Z,paymentservice,network_in,46550
2023-07-04T18:12:10.209Z,emailservice,network_in,57415
2023-07-04T18:12:10.209Z,redis-cart,network_in,101187
2023-07-04T18:12:20.209Z,redis-cart,network_in,400724
2023-07-04T18:12:20.209Z,redis-cart,network_in,99692
2023-07-04T18:12:20.194Z,redis-cart,network_in,104158
2023-07-04T18:12:20.209Z,redis-cart,network_in,102185
2023-07-04T18:12:20.209Z,adservice,network_in,290168
2023-07-04T18:12:20.209Z,redis-cart,network_in,101187
2023-07-04T18:12:20.194Z,redis-cart,network_in,103002
2023-07-04T18:12:20.194Z,redis-cart,network_in,101650
2023-07-04T18:12:20.194Z,redis-cart,network_in,106509
2023-07-04T18:12:20.194Z,checkoutservice,network_in,290859
2023-07-04T18:12:20.215Z,redis-cart,network_in,105093
2023-07-04T18:12:20.209Z,redis-cart,network_in,105866
2023-07-04T18:12:20.209Z,paymentservice,network_in,46550
2023-07-04T18:12:20.194Z,productcatalogservice,network_in,4432588
2023-07-04T18:12:20.194Z,frontend,network_in,7205494
2023-07-04T18:12:20.215Z,currencyservice,network_in,1212386
2023-07-04T18:12:20.215Z,redis-cart,network_in,102152
2023-07-04T18:12:20.215Z,redis-cart,network_in,103434
2023-07-04T18:12:20.209Z,shippingservice,network_in,180467
2023-07-04T18:12:20.209Z,emailservice,network_in,57415
2023-07-04T18:12:20.194Z,redis-cart,network_in,103083
2023-07-04T18:12:20.194Z,redis-cart,network_in,103375
2023-07-04T18:12:20.194Z,recommendationservice,network_in,2318463
2023-07-04T18:12:20.215Z,redis-cart,network_in,104106
2023-07-04T18:12:20.215Z,cartservice,network_in,618065
2023-07-04T18:12:20.215Z,redis-cart,network_in,104549
2023-07-04T18:12:30.194Z,redis-cart,network_in,104509
2023-07-04T18:12:30.194Z,productcatalogservice,network_in,4565926
2023-07-04T18:12:30.217Z,redis-cart,network_in,104549
2023-07-04T18:12:30.217Z,redis-cart,network_in,106223
2023-07-04T18:12:30.217Z,redis-cart,network_in,106907
2023-07-04T18:12:30.209Z,shippingservice,network_in,190233
2023-07-04T18:12:30.194Z,frontend,network_in,7377308
2023-07-04T18:12:30.194Z,checkoutservice,network_in,296059
2023-07-04T18:12:30.194Z,redis-cart,network_in,103375
2023-07-04T18:12:30.194Z,redis-cart,network_in,103002
2023-07-04T18:12:30.217Z,currencyservice,network_in,1212386
2023-07-04T18:12:30.209Z,emailservice,network_in,61250
2023-07-04T18:12:30.209Z,paymentservice,network_in,46921
2023-07-04T18:12:30.209Z,adservice,network_in,309981
2023-07-04T18:12:30.209Z,redis-cart,network_in,106885
2023-07-04T18:12:30.217Z,redis-cart,network_in,103924
2023-07-04T18:12:30.194Z,redis-cart,network_in,108211
2023-07-04T18:12:30.194Z,recommendationservice,network_in,2369923
2023-07-04T18:12:30.209Z,redis-cart,network_in,106749
2023-07-04T18:12:30.209Z,redis-cart,network_in,429947
2023-07-04T18:12:30.209Z,redis-cart,network_in,104632
2023-07-04T18:12:30.209Z,redis-cart,network_in,110356
2023-07-04T18:12:30.194Z,redis-cart,network_in,104158
2023-07-04T18:12:30.194Z,redis-cart,network_in,104171
2023-07-04T18:12:30.217Z,cartservice,network_in,632314
2023-07-04T18:12:30.217Z,redis-cart,network_in,104106
2023-07-04T18:12:40.194Z,redis-cart,network_in,108211
2023-07-04T18:12:40.194Z,recommendationservice,network_in,2369923
2023-07-04T18:12:40.215Z,redis-cart,network_in,104549
2023-07-04T18:12:40.215Z,redis-cart,network_in,104106
2023-07-04T18:12:40.194Z,frontend,network_in,7377308
2023-07-04T18:12:40.194Z,checkoutservice,network_in,296059
2023-07-04T18:12:40.194Z,redis-cart,network_in,103375
2023-07-04T18:12:40.194Z,redis-cart,network_in,103002
2023-07-04T18:12:40.209Z,redis-cart,network_in,108578
2023-07-04T18:12:40.194Z,redis-cart,network_in,104509
2023-07-04T18:12:40.194Z,productcatalogservice,network_in,4565926
2023-07-04T18:12:40.215Z,currencyservice,network_in,1212386
2023-07-04T18:12:40.215Z,redis-cart,network_in,106907
2023-07-04T18:12:40.215Z,redis-cart,network_in,103924
2023-07-04T18:12:40.209Z,shippingservice,network_in,194075
2023-07-04T18:12:40.209Z,redis-cart,network_in,106749
2023-07-04T18:12:40.209Z,redis-cart,network_in,111444
2023-07-04T18:12:40.209Z,adservice,network_in,309981
2023-07-04T18:12:40.209Z,paymentservice,network_in,48416
2023-07-04T18:12:40.194Z,redis-cart,network_in,104158
2023-07-04T18:12:40.194Z,redis-cart,network_in,104171
2023-07-04T18:12:40.215Z,cartservice,network_in,632314
2023-07-04T18:12:40.215Z,redis-cart,network_in,106223
2023-07-04T18:12:40.209Z,redis-cart,network_in,107973
2023-07-04T18:12:40.209Z,redis-cart,network_in,429947
2023-07-04T18:12:40.209Z,emailservice,network_in,62321
2023-07-04T18:12:50.194Z,redis-cart,network_in,112227
2023-07-04T18:12:50.209Z,redis-cart,network_in,112463
2023-07-04T18:12:50.209Z,redis-cart,network_in,108578
2023-07-04T18:12:50.209Z,paymentservice,network_in,48920
2023-07-04T18:12:50.216Z,currencyservice,network_in,1245951
2023-07-04T18:12:50.216Z,redis-cart,network_in,110211
2023-07-04T18:12:50.194Z,redis-cart,network_in,104171
2023-07-04T18:12:50.194Z,redis-cart,network_in,106234
2023-07-04T18:12:50.194Z,frontend,network_in,7377308
2023-07-04T18:12:50.209Z,adservice,network_in,319729
2023-07-04T18:12:50.216Z,redis-cart,network_in,110853
2023-07-04T18:12:50.194Z,recommendationservice,network_in,2431982
2023-07-04T18:12:50.194Z,checkoutservice,network_in,300068
2023-07-04T18:12:50.209Z,emailservice,network_in,62321
2023-07-04T18:12:50.209Z,redis-cart,network_in,110124
2023-07-04T18:12:50.209Z,redis-cart,network_in,111444
2023-07-04T18:12:50.216Z,redis-cart,network_in,109640
2023-07-04T18:12:50.216Z,redis-cart,network_in,107439
2023-07-04T18:12:50.194Z,redis-cart,network_in,108718
2023-07-04T18:12:50.194Z,redis-cart,network_in,107632
2023-07-04T18:12:50.194Z,redis-cart,network_in,107842
2023-07-04T18:12:50.194Z,productcatalogservice,network_in,4565926
2023-07-04T18:12:50.209Z,redis-cart,network_in,443645
2023-07-04T18:12:50.209Z,shippingservice,network_in,194075
2023-07-04T18:12:50.216Z,cartservice,network_in,663788
2023-07-04T18:12:50.216Z,redis-cart,network_in,107912
2023-07-04T18:13:00.193Z,redis-cart,network_in,109264
2023-07-04T18:13:00.216Z,currencyservice,network_in,1288273
2023-07-04T18:13:00.216Z,redis-cart,network_in,110853
2023-07-04T18:13:00.193Z,frontend,network_in,7620044
2023-07-04T18:13:00.193Z,recommendationservice,network_in,2431982
2023-07-04T18:13:00.209Z,redis-cart,network_in,443645
2023-07-04T18:13:00.216Z,cartservice,network_in,663788
2023-07-04T18:13:00.193Z,checkoutservice,network_in,310261
2023-07-04T18:13:00.193Z,productcatalogservice,network_in,4689971
2023-07-04T18:13:00.193Z,redis-cart,network_in,107842
2023-07-04T18:13:00.209Z,adservice,network_in,319729
2023-07-04T18:13:00.216Z,redis-cart,network_in,109544
2023-07-04T18:13:00.216Z,redis-cart,network_in,111427
2023-07-04T18:13:00.193Z,redis-cart,network_in,112227
2023-07-04T18:13:00.193Z,redis-cart,network_in,108718
2023-07-04T18:13:00.193Z,redis-cart,network_in,107574
2023-07-04T18:13:00.193Z,redis-cart,network_in,109023
2023-07-04T18:13:00.209Z,redis-cart,network_in,112463
2023-07-04T18:13:00.209Z,shippingservice,network_in,194075
2023-07-04T18:13:00.209Z,emailservice,network_in,62321
2023-07-04T18:13:00.209Z,redis-cart,network_in,108578
2023-07-04T18:13:00.209Z,redis-cart,network_in,110124
2023-07-04T18:13:00.209Z,redis-cart,network_in,111444
2023-07-04T18:13:00.209Z,paymentservice,network_in,48920
2023-07-04T18:13:00.216Z,redis-cart,network_in,110211
2023-07-04T18:13:00.216Z,redis-cart,network_in,109640
2023-07-04T18:13:10.215Z,cartservice,network_in,663788
2023-07-04T18:13:10.194Z,redis-cart,network_in,109959
2023-07-04T18:13:10.194Z,productcatalogservice,network_in,4937807
2023-07-04T18:13:10.208Z,redis-cart,network_in,115976
2023-07-04T18:13:10.208Z,redis-cart,network_in,112595
2023-07-04T18:13:10.215Z,redis-cart,network_in,109544
2023-07-04T18:13:10.215Z,redis-cart,network_in,110853
2023-07-04T18:13:10.194Z,redis-cart,network_in,111952
2023-07-04T18:13:10.194Z,redis-cart,network_in,113929
2023-07-04T18:13:10.194Z,recommendationservice,network_in,2578255
2023-07-04T18:13:10.208Z,adservice,network_in,331191
2023-07-04T18:13:10.208Z,redis-cart,network_in,456697
2023-07-04T18:13:10.208Z,redis-cart,network_in,115340
2023-07-04T18:13:10.208Z,shippingservice,network_in,208495
2023-07-04T18:13:10.215Z,redis-cart,network_in,110211
2023-07-04T18:13:10.215Z,redis-cart,network_in,109640
2023-07-04T18:13:10.215Z,redis-cart,network_in,111427
2023-07-04T18:13:10.194Z,redis-cart,network_in,113350
2023-07-04T18:13:10.194Z,redis-cart,network_in,113892
2023-07-04T18:13:10.208Z,redis-cart,network_in,113551
2023-07-04T18:13:10.215Z,currencyservice,network_in,1288273
2023-07-04T18:13:10.194Z,redis-cart,network_in,113016
2023-07-04T18:13:10.194Z,checkoutservice,network_in,330470
2023-07-04T18:13:10.194Z,frontend,network_in,8088373
2023-07-04T18:13:10.208Z,emailservice,network_in,66241
2023-07-04T18:13:10.208Z,paymentservice,network_in,51407
2023-07-04T18:13:20.194Z,redis-cart,network_in,111952
2023-07-04T18:13:20.194Z,recommendationservice,network_in,2578255
2023-07-04T18:13:20.215Z,currencyservice,network_in,1343201
2023-07-04T18:13:20.215Z,cartservice,network_in,685650
2023-07-04T18:13:20.209Z,redis-cart,network_in,468518
2023-07-04T18:13:20.194Z,redis-cart,network_in,113350
2023-07-04T18:13:20.194Z,redis-cart,network_in,113892
2023-07-04T18:13:20.215Z,redis-cart,network_in,112429
2023-07-04T18:13:20.209Z,redis-cart,network_in,118905
2023-07-04T18:13:20.194Z,redis-cart,network_in,109959
2023-07-04T18:13:20.194Z,productcatalogservice,network_in,4937807
2023-07-04T18:13:20.215Z,redis-cart,network_in,109544
2023-07-04T18:13:20.215Z,redis-cart,network_in,113824
2023-07-04T18:13:20.215Z,redis-cart,network_in,114426
2023-07-04T18:13:20.215Z,redis-cart,network_in,114438
2023-07-04T18:13:20.209Z,shippingservice,network_in,208495
2023-07-04T18:13:20.209Z,emailservice,network_in,67553
2023-07-04T18:13:20.209Z,redis-cart,network_in,115340
2023-07-04T18:13:20.209Z,redis-cart,network_in,115426
2023-07-04T18:13:20.194Z,redis-cart,network_in,113016
2023-07-04T18:13:20.194Z,checkoutservice,network_in,330470
2023-07-04T18:13:20.194Z,redis-cart,network_in,113929
2023-07-04T18:13:20.194Z,frontend,network_in,8088373
2023-07-04T18:13:20.209Z,paymentservice,network_in,51918
2023-07-04T18:13:20.209Z,redis-cart,network_in,118181
2023-07-04T18:13:20.209Z,adservice,network_in,343088
2023-07-04T18:13:30.194Z,redis-cart,network_in,118565
2023-07-04T18:13:30.215Z,redis-cart,network_in,114398
2023-07-04T18:13:30.209Z,redis-cart,network_in,115426
2023-07-04T18:13:30.194Z,redis-cart,network_in,113040
2023-07-04T18:13:30.194Z,redis-cart,network_in,113292
2023-07-04T18:13:30.215Z,currencyservice,network_in,1368647
2023-07-04T18:13:30.215Z,redis-cart,network_in,116153
2023-07-04T18:13:30.209Z,redis-cart,network_in,116972
2023-07-04T18:13:30.209Z,redis-cart,network_in,121834
2023-07-04T18:13:30.209Z,paymentservice,network_in,52909
2023-07-04T18:13:30.194Z,redis-cart,network_in,115524
2023-07-04T18:13:30.194Z,redis-cart,network_in,114982
2023-07-04T18:13:30.194Z,productcatalogservice,network_in,4937807
2023-07-04T18:13:30.194Z,frontend,network_in,8088373
2023-07-04T18:13:30.215Z,redis-cart,network_in,115582
2023-07-04T18:13:30.209Z,adservice,network_in,343088
2023-07-04T18:13:30.209Z,redis-cart,network_in,118181
2023-07-04T18:13:30.209Z,shippingservice,network_in,214825
2023-07-04T18:13:30.194Z,recommendationservice,network_in,2639590
2023-07-04T18:13:30.194Z,redis-cart,network_in,115805
2023-07-04T18:13:30.194Z,checkoutservice,network_in,340515
2023-07-04T18:13:30.215Z,redis-cart,network_in,117269
2023-07-04T18:13:30.215Z,cartservice,network_in,701258
2023-07-04T18:13:30.215Z,redis-cart,network_in,116100
2023-07-04T18:13:30.209Z,emailservice,network_in,67553
2023-07-04T18:13:30.209Z,redis-cart,network_in,477089
2023-07-04T18:13:40.208Z,paymentservice,network_in,52909
2023-07-04T18:13:40.194Z,frontend,network_in,8387734
2023-07-04T18:13:40.194Z,checkoutservice,network_in,360431
2023-07-04T18:13:40.215Z,redis-cart,network_in,116030
2023-07-04T18:13:40.215Z,redis-cart,network_in,117241
2023-07-04T18:13:40.208Z,redis-cart,network_in,477089
2023-07-04T18:13:40.194Z,recommendationservice,network_in,2688551
2023-07-04T18:13:40.194Z,redis-cart,network_in,118120
2023-07-04T18:13:40.215Z,cartservice,network_in,723414
2023-07-04T18:13:40.208Z,adservice,network_in,343088
2023-07-04T18:13:40.208Z,redis-cart,network_in,118181
2023-07-04T18:13:40.208Z,shippingservice,network_in,214825
2023-07-04T18:13:40.208Z,redis-cart,network_in,115426
2023-07-04T18:13:40.194Z,redis-cart,network_in,120014
2023-07-04T18:13:40.194Z,redis-cart,network_in,121424
2023-07-04T18:13:40.215Z,redis-cart,network_in,118901
2023-07-04T18:13:40.215Z,currencyservice,network_in,1421229
2023-07-04T18:13:40.208Z,redis-cart,network_in,116972
2023-07-04T18:13:40.208Z,redis-cart,network_in,121834
2023-07-04T18:13:40.208Z,emailservice,network_in,67553
2023-07-04T18:13:40.194Z,redis-cart,network_in,115607
2023-07-04T18:13:40.194Z,productcatalogservice,network_in,5104606
2023-07-04T18:13:40.194Z,redis-cart,network_in,118144
2023-07-04T18:13:40.194Z,redis-cart,network_in,119542
2023-07-04T18:13:40.215Z,redis-cart,network_in,116100
2023-07-04T18:13:40.215Z,redis-cart,network_in,117827
2023-07-04T18:13:50.194Z,frontend,network_in,8387734
2023-07-04T18:13:50.194Z,productcatalogservice,network_in,5104606
2023-07-04T18:13:50.194Z,redis-cart,network_in,118144
2023-07-04T18:13:50.194Z,redis-cart,network_in,119542
2023-07-04T18:13:50.208Z,redis-cart,network_in,489352
2023-07-04T18:13:50.215Z,redis-cart,network_in,120700
2023-07-04T18:13:50.215Z,redis-cart,network_in,116030
2023-07-04T18:13:50.194Z,redis-cart,network_in,115607
2023-07-04T18:13:50.194Z,redis-cart,network_in,121424
2023-07-04T18:13:50.208Z,redis-cart,network_in,122922
2023-07-04T18:13:50.208Z,shippingservice,network_in,224725
2023-07-04T18:13:50.208Z,emailservice,network_in,70744
2023-07-04T18:13:50.215Z,redis-cart,network_in,117241
2023-07-04T18:13:50.215Z,cartservice,network_in,736201
2023-07-04T18:13:50.194Z,redis-cart,network_in,120014
2023-07-04T18:13:50.194Z,redis-cart,network_in,118120
2023-07-04T18:13:50.208Z,redis-cart,network_in,118355
2023-07-04T18:13:50.208Z,redis-cart,network_in,119953
2023-07-04T18:13:50.194Z,recommendationservice,network_in,2688551
2023-07-04T18:13:50.194Z,checkoutservice,network_in,360431
2023-07-04T18:13:50.208Z,paymentservice,network_in,54294
2023-07-04T18:13:50.208Z,adservice,network_in,361228
2023-07-04T18:13:50.208Z,redis-cart,network_in,121574
2023-07-04T18:13:50.215Z,redis-cart,network_in,120046
2023-07-04T18:13:50.215Z,currencyservice,network_in,1421229
2023-07-04T18:13:50.215Z,redis-cart,network_in,122889
2023-07-04T18:14:00.194Z,recommendationservice,network_in,2760572
2023-07-04T18:14:00.194Z,redis-cart,network_in,118940
2023-07-04T18:14:00.194Z,redis-cart,network_in,120365
2023-07-04T18:14:00.194Z,redis-cart,network_in,121102
2023-07-04T18:14:00.194Z,frontend,network_in,8554288
2023-07-04T18:14:00.209Z,redis-cart,network_in,124443
2023-07-04T18:14:00.209Z,emailservice,network_in,70744
2023-07-04T18:14:00.215Z,redis-cart,network_in,120700
2023-07-04T18:14:00.215Z,redis-cart,network_in,116030
2023-07-04T18:14:00.194Z,redis-cart,network_in,124213
2023-07-04T18:14:00.194Z,redis-cart,network_in,119542
2023-07-04T18:14:00.209Z,redis-cart,network_in,127412
2023-07-04T18:14:00.209Z,redis-cart,network_in,501785
2023-07-04T18:14:00.209Z,redis-cart,network_in,121144
2023-07-04T18:14:00.215Z,redis-cart,network_in,120046
2023-07-04T18:14:00.215Z,currencyservice,network_in,1421229
2023-07-04T18:14:00.194Z,checkoutservice,network_in,360431
2023-07-04T18:14:00.194Z,redis-cart,network_in,120933
2023-07-04T18:14:00.194Z,productcatalogservice,network_in,5276621
2023-07-04T18:14:00.209Z,paymentservice,network_in,54360
2023-07-04T18:14:00.209Z,redis-cart,network_in,124363
2023-07-04T18:14:00.209Z,shippingservice,network_in,224725
2023-07-04T18:14:00.209Z,adservice,network_in,361228
2023-07-04T18:14:00.215Z,redis-cart,network_in,117241
2023-07-04T18:14:00.215Z,cartservice,network_in,736201
2023-07-04T18:14:00.215Z,redis-cart,network_in,122889
2023-07-04T18:14:10.194Z,redis-cart,network_in,124213
2023-07-04T18:14:10.194Z,redis-cart,network_in,122611
2023-07-04T18:14:10.215Z,currencyservice,network_in,1462916
2023-07-04T18:14:10.215Z,cartservice,network_in,752558
2023-07-04T18:14:10.209Z,redis-cart,network_in,127412
2023-07-04T18:14:10.209Z,redis-cart,network_in,124363
2023-07-04T18:14:10.194Z,checkoutservice,network_in,362144
2023-07-04T18:14:10.194Z,frontend,network_in,8782398
2023-07-04T18:14:10.194Z,productcatalogservice,network_in,5418515
2023-07-04T18:14:10.215Z,redis-cart,network_in,122877
2023-07-04T18:14:10.209Z,emailservice,network_in,71827
2023-07-04T18:14:10.209Z,adservice,network_in,371934
2023-07-04T18:14:10.209Z,redis-cart,network_in,514901
2023-07-04T18:14:10.209Z,paymentservice,network_in,55295
2023-07-04T18:14:10.194Z,redis-cart,network_in,122401
2023-07-04T18:14:10.215Z,redis-cart,network_in,123489
2023-07-04T18:14:10.215Z,redis-cart,network_in,122889
2023-07-04T18:14:10.215Z,redis-cart,network_in,120562
2023-07-04T18:14:10.209Z,redis-cart,network_in,123933
2023-07-04T18:14:10.209Z,shippingservice,network_in,230085
2023-07-04T18:14:10.209Z,redis-cart,network_in,126075
2023-07-04T18:14:10.194Z,redis-cart,network_in,121255
2023-07-04T18:14:10.194Z,redis-cart,network_in,123248
2023-07-04T18:14:10.194Z,recommendationservice,network_in,2812543
2023-07-04T18:14:10.194Z,redis-cart,network_in,121102
2023-07-04T18:14:10.215Z,redis-cart,network_in,121815
2023-07-04T18:14:20.209Z,redis-cart,network_in,127412
2023-07-04T18:14:20.194Z,redis-cart,network_in,130007
2023-07-04T18:14:20.194Z,redis-cart,network_in,125118
2023-07-04T18:14:20.194Z,recommendationservice,network_in,2880150
2023-07-04T18:14:20.194Z,redis-cart,network_in,124646
2023-07-04T18:14:20.216Z,currencyservice,network_in,1495222
2023-07-04T18:14:20.216Z,redis-cart,network_in,123447
2023-07-04T18:14:20.216Z,redis-cart,network_in,124508
2023-07-04T18:14:20.216Z,redis-cart,network_in,125734
2023-07-04T18:14:20.209Z,redis-cart,network_in,514901
2023-07-04T18:14:20.209Z,redis-cart,network_in,124363
2023-07-04T18:14:20.209Z,paymentservice,network_in,55295
2023-07-04T18:14:20.194Z,redis-cart,network_in,126037
2023-07-04T18:14:20.194Z,redis-cart,network_in,126557
2023-07-04T18:14:20.216Z,redis-cart,network_in,128509
2023-07-04T18:14:20.216Z,cartservice,network_in,767173
2023-07-04T18:14:20.216Z,redis-cart,network_in,126252
2023-07-04T18:14:20.209Z,emailservice,network_in,71827
2023-07-04T18:14:20.194Z,productcatalogservice,network_in,5567812
2023-07-04T18:14:20.194Z,checkoutservice,network_in,364757
2023-07-04T18:14:20.194Z,frontend,network_in,9029461
2023-07-04T18:14:20.209Z,redis-cart,network_in,123933
2023-07-04T18:14:20.209Z,adservice,network_in,371934
2023-07-04T18:14:20.209Z,shippingservice,network_in,230085
2023-07-04T18:14:20.209Z,redis-cart,network_in,126075
2023-07-04T18:14:20.194Z,redis-cart,network_in,124044
2023-07-04T18:14:30.194Z,redis-cart,network_in,124044
2023-07-04T18:14:30.216Z,redis-cart,network_in,126182
2023-07-04T18:14:30.209Z,shippingservice,network_in,234717
2023-07-04T18:14:30.209Z,redis-cart,network_in,129397
2023-07-04T18:14:30.194Z,productcatalogservice,network_in,5567812
2023-07-04T18:14:30.194Z,checkoutservice,network_in,364757
2023-07-04T18:14:30.194Z,frontend,network_in,9029461
2023-07-04T18:14:30.216Z,cartservice,network_in,785799
2023-07-04T18:14:30.209Z,redis-cart,network_in,132990
2023-07-04T18:14:30.209Z,redis-cart,network_in,528029
2023-07-04T18:14:30.194Z,redis-cart,network_in,130007
2023-07-04T18:14:30.194Z,redis-cart,network_in,125118
2023-07-04T18:14:30.194Z,recommendationservice,network_in,2880150
2023-07-04T18:14:30.194Z,redis-cart,network_in,124646
2023-07-04T18:14:30.216Z,redis-cart,network_in,129041
2023-07-04T18:14:30.216Z,redis-cart,network_in,128509
2023-07-04T18:14:30.209Z,redis-cart,network_in,130565
2023-07-04T18:14:30.209Z,redis-cart,network_in,126722
2023-07-04T18:14:30.194Z,redis-cart,network_in,126037
2023-07-04T18:14:30.194Z,redis-cart,network_in,126557
2023-07-04T18:14:30.216Z,currencyservice,network_in,1539333
2023-07-04T18:14:30.216Z,redis-cart,network_in,127477
2023-07-04T18:14:30.216Z,redis-cart,network_in,129151
2023-07-04T18:14:30.209Z,emailservice,network_in,71893
2023-07-04T18:14:30.209Z,paymentservice,network_in,55361
2023-07-04T18:14:30.209Z,adservice,network_in,380967
2023-07-04T18:14:40.193Z,frontend,network_in,9196875
2023-07-04T18:14:40.209Z,redis-cart,network_in,129511
2023-07-04T18:14:40.209Z,adservice,network_in,389683
2023-07-04T18:14:40.216Z,redis-cart,network_in,131396
2023-07-04T18:14:40.216Z,redis-cart,network_in,126182
2023-07-04T18:14:40.193Z,redis-cart,network_in,127377
2023-07-04T18:14:40.193Z,redis-cart,network_in,130007
2023-07-04T18:14:40.209Z,emailservice,network_in,73054
2023-07-04T18:14:40.209Z,redis-cart,network_in,132186
2023-07-04T18:14:40.209Z,redis-cart,network_in,528029
2023-07-04T18:14:40.216Z,currencyservice,network_in,1539333
2023-07-04T18:14:40.193Z,redis-cart,network_in,126278
2023-07-04T18:14:40.193Z,redis-cart,network_in,126037
2023-07-04T18:14:40.193Z,productcatalogservice,network_in,5567812
2023-07-04T18:14:40.209Z,redis-cart,network_in,132990
2023-07-04T18:14:40.216Z,cartservice,network_in,785799
2023-07-04T18:14:40.216Z,redis-cart,network_in,130141
2023-07-04T18:14:40.216Z,redis-cart,network_in,129041
2023-07-04T18:14:40.193Z,redis-cart,network_in,126750
2023-07-04T18:14:40.193Z,recommendationservice,network_in,2964666
2023-07-04T18:14:40.193Z,checkoutservice,network_in,364757
2023-07-04T18:14:40.193Z,redis-cart,network_in,126557
2023-07-04T18:14:40.209Z,redis-cart,network_in,130565
2023-07-04T18:14:40.209Z,shippingservice,network_in,237129
2023-07-04T18:14:40.209Z,paymentservice,network_in,56386
2023-07-04T18:14:40.216Z,redis-cart,network_in,129109
2023-07-04T18:14:50.209Z,adservice,network_in,389683
2023-07-04T18:14:50.209Z,paymentservice,network_in,56386
2023-07-04T18:14:50.216Z,redis-cart,network_in,131396
2023-07-04T18:14:50.194Z,productcatalogservice,network_in,5782379
2023-07-04T18:14:50.194Z,redis-cart,network_in,131615
2023-07-04T18:14:50.194Z,redis-cart,network_in,130166
2023-07-04T18:14:50.194Z,frontend,network_in,9413645
2023-07-04T18:14:50.216Z,redis-cart,network_in,129041
2023-07-04T18:14:50.194Z,redis-cart,network_in,129890
2023-07-04T18:14:50.194Z,checkoutservice,network_in,364757
2023-07-04T18:14:50.209Z,redis-cart,network_in,130565
2023-07-04T18:14:50.209Z,emailservice,network_in,73054
2023-07-04T18:14:50.209Z,redis-cart,network_in,528029
2023-07-04T18:14:50.216Z,cartservice,network_in,785799
2023-07-04T18:14:50.216Z,currencyservice,network_in,1539333
2023-07-04T18:14:50.194Z,redis-cart,network_in,130768
2023-07-04T18:14:50.194Z,recommendationservice,network_in,3020184
2023-07-04T18:14:50.209Z,shippingservice,network_in,237129
2023-07-04T18:14:50.209Z,redis-cart,network_in,129511
2023-07-04T18:14:50.209Z,redis-cart,network_in,132186
2023-07-04T18:14:50.209Z,redis-cart,network_in,132990
2023-07-04T18:14:50.216Z,redis-cart,network_in,129109
2023-07-04T18:14:50.216Z,redis-cart,network_in,126182
2023-07-04T18:14:50.216Z,redis-cart,network_in,130141
2023-07-04T18:14:50.194Z,redis-cart,network_in,136129
2023-07-04T18:14:50.194Z,redis-cart,network_in,132328
