timestamp,key,run_id,resource,metric,value
2021-06-08T14:38:53.009Z,SHARED_GLOBAL_UNIT_MULTI_PROBE-2-1-1,1,target-1,network_in,1.5026922225952148
2021-06-08T14:50:27.703Z,SHARED_GLOBAL_UNIT_MULTI_PROBE-2-1-1,2,target-1,network_in,1.4742021560668945
2021-06-08T15:02:16.315Z,SHARED_GLOBAL_UNIT_MULTI_PROBE-2-1-1,3,target-1,network_in,1.4538860321044922
2021-06-08T22:51:20.157Z,SHARED_GLOBAL_UNIT_MULTI_PROBE-2-16-1,1,target-1,network_in,1.4445276260375977
2021-06-08T22:51:22.645Z,SHARED_GLOBAL_UNIT_MULTI_PROBE-2-16-1,1,target-10,network_in,1.456639289855957
2021-06-08T22:51:24.821Z,SHARED_GLOBAL_UNIT_MULTI_PROBE-2-16-1,1,target-11,network_in,1.4710445404052734
2021-06-08T22:51:24.038Z,SHARED_GLOBAL_UNIT_MULTI_PROBE-2-16-1,1,target-12,network_in,1.4691038131713867
2021-06-08T22:51:24.361Z,SHARED_GLOBAL_UNIT_MULTI_PROBE-2-16-1,1,target-13,network_in,1.4570751190185547
2021-06-08T22:51:24.124Z,SHARED_GLOBAL_UNIT_MULTI_PROBE-2-16-1,1,target-14,network_in,1.4657011032104492
2021-06-08T22:51:24.756Z,SHARED_GLOBAL_UNIT_MULTI_PROBE-2-16-1,1,target-15,network_in,1.4559030532836914
2021-06-08T22:51:26.189Z,SHARED_GLOBAL_UNIT_MULTI_PROBE-2-16-1,1,target-16,network_in,1.4703216552734375
2021-06-08T22:51:20.035Z,SHARED_GLOBAL_UNIT_MULTI_PROBE-2-16-1,1,target-2,network_in,1.4544916152954102
2021-06-08T22:51:20.643Z,SHARED_GLOBAL_UNIT_MULTI_PROBE-2-16-1,1,target-3,network_in,1.4538955688476562
2021-06-08T22:51:20.546Z,SHARED_GLOBAL_UNIT_MULTI_PROBE-2-16-1,1,target-4,network_in,1.4737319946289062
2021-06-08T22:51:20.276Z,SHARED_GLOBAL_UNIT_MULTI_PROBE-2-16-1,1,target-5,network_in,1.4655017852783203
2021-06-08T22:51:22.254Z,SHARED_GLOBAL_UNIT_MULTI_PROBE-2-16-1,1,target-6,network_in,1.464369773864746
2021-06-08T22:51:21.949Z,SHARED_GLOBAL_UNIT_MULTI_PROBE-2-16-1,1,target-7,network_in,1.4551477432250977
2021-06-08T22:51:22.200Z,SHARED_GLOBAL_UNIT_MULTI_PROBE-2-16-1,1,target-8,network_in,1.4661731719970703
2021-06-08T22:51:22.454Z,SHARED_GLOBAL_UNIT_MULTI_PROBE-2-16-1,1,target-9,network_in,1.4679880142211914
2021-06-08T23:06:06.695Z,SHARED_GLOBAL_UNIT_MULTI_PROBE-2-16-1,2,target-1,network_in,1.4521245956420898
2021-06-08T23:05:59.178Z,SHARED_GLOBAL_UNIT_MULTI_PROBE-2-16-1,2,target-10,network_in,1.456221580505371
2021-06-08T23:06:00.934Z,SHARED_GLOBAL_UNIT_MULTI_PROBE-2-16-1,2,target-11,network_in,1.4441184997558594
2021-06-08T23:06:00.668Z,SHARED_GLOBAL_UNIT_MULTI_PROBE-2-16-1,2,target-12,network_in,1.455911636352539
2021-06-08T23:06:00.898Z,SHARED_GLOBAL_UNIT_MULTI_PROBE-2-16-1,2,target-13,network_in,1.4389095306396484
2021-06-08T23:06:00.841Z,SHARED_GLOBAL_UNIT_MULTI_PROBE-2-16-1,2,target-14,network_in,1.4588747024536133
2021-06-08T23:06:01.359Z,SHARED_GLOBAL_UNIT_MULTI_PROBE-2-16-1,2,target-15,network_in,1.4522027969360352
2021-06-08T23:06:02.813Z,SHARED_GLOBAL_UNIT_MULTI_PROBE-2-16-1,2,target-16,network_in,1.4438447952270508
2021-06-08T23:06:06.679Z,SHARED_GLOBAL_UNIT_MULTI_PROBE-2-16-1,2,target-2,network_in,1.4410295486450195
2021-06-08T23:06:07.105Z,SHARED_GLOBAL_UNIT_MULTI_PROBE-2-16-1,2,target-3,network_in,1.4558477401733398
2021-06-08T23:06:06.981Z,SHARED_GLOBAL_UNIT_MULTI_PROBE-2-16-1,2,target-4,network_in,1.459376335144043
2021-06-08T23:06:06.756Z,SHARED_GLOBAL_UNIT_MULTI_PROBE-2-16-1,2,target-5,network_in,1.456411361694336
2021-06-08T23:05:58.853Z,SHARED_GLOBAL_UNIT_MULTI_PROBE-2-16-1,2,target-6,network_in,1.4429616928100586
2021-06-08T23:05:58.623Z,SHARED_GLOBAL_UNIT_MULTI_PROBE-2-16-1,2,target-7,network_in,1.4553709030151367
2021-06-08T23:05:58.744Z,SHARED_GLOBAL_UNIT_MULTI_PROBE-2-16-1,2,target-8,network_in,1.456512451171875
2021-06-08T23:05:58.881Z,SHARED_GLOBAL_UNIT_MULTI_PROBE-2-16-1,2,target-9,network_in,1.4560813903808594
2021-06-08T23:20:34.587Z,SHARED_GLOBAL_UNIT_MULTI_PROBE-2-16-1,3,target-1,network_in,1.4437904357910156
2021-06-08T23:20:36.887Z,SHARED_GLOBAL_UNIT_MULTI_PROBE-2-16-1,3,target-10,network_in,1.457259178161621
2021-06-08T23:20:38.940Z,SHARED_GLOBAL_UNIT_MULTI_PROBE-2-16-1,3,target-11,network_in,1.452702522277832
2021-06-08T23:20:38.181Z,SHARED_GLOBAL_UNIT_MULTI_PROBE-2-16-1,3,target-12,network_in,1.4419775009155273
2021-06-08T23:20:38.634Z,SHARED_GLOBAL_UNIT_MULTI_PROBE-2-16-1,3,target-13,network_in,1.4570198059082031
2021-06-08T23:20:38.199Z,SHARED_GLOBAL_UNIT_MULTI_PROBE-2-16-1,3,target-14,network_in,1.4447059631347656
2021-06-08T23:20:39.058Z,SHARED_GLOBAL_UNIT_MULTI_PROBE-2-16-1,3,target-15,network_in,1.4579582214355469
2021-06-08T23:20:40.309Z,SHARED_GLOBAL_UNIT_MULTI_PROBE-2-16-1,3,target-16,network_in,1.5210437774658203
2021-06-08T23:20:34.407Z,SHARED_GLOBAL_UNIT_MULTI_PROBE-2-16-1,3,target-2,network_in,1.4560909271240234
2021-06-08T23:20:34.896Z,SHARED_GLOBAL_UNIT_MULTI_PROBE-2-16-1,3,target-3,network_in,1.4519805908203125
2021-06-08T23:20:34.714Z,SHARED_GLOBAL_UNIT_MULTI_PROBE-2-16-1,3,target-4,network_in,1.4420280456542969
2021-06-08T23:20:34.342Z,SHARED_GLOBAL_UNIT_MULTI_PROBE-2-16-1,3,target-5,network_in,1.4475221633911133
2021-06-08T23:20:36.725Z,SHARED_GLOBAL_UNIT_MULTI_PROBE-2-16-1,3,target-6,network_in,1.4584503173828125
2021-06-08T23:20:36.119Z,SHARED_GLOBAL_UNIT_MULTI_PROBE-2-16-1,3,target-7,network_in,1.4549760818481445
2021-06-08T23:20:36.312Z,SHARED_GLOBAL_UNIT_MULTI_PROBE-2-16-1,3,target-8,network_in,1.4913196563720703
2021-06-08T23:20:36.603Z,SHARED_GLOBAL_UNIT_MULTI_PROBE-2-16-1,3,target-9,network_in,1.4424057006835938
2021-06-08T20:58:38.845Z,SHARED_GLOBAL_UNIT_MULTI_PROBE-2-2-1,1,target-1,network_in,1.4584312438964844
2021-06-08T20:58:38.569Z,SHARED_GLOBAL_UNIT_MULTI_PROBE-2-2-1,1,target-2,network_in,1.4553661346435547
2021-06-08T21:10:16.048Z,SHARED_GLOBAL_UNIT_MULTI_PROBE-2-2-1,2,target-1,network_in,1.4427881240844727
2021-06-08T21:10:15.865Z,SHARED_GLOBAL_UNIT_MULTI_PROBE-2-2-1,2,target-2,network_in,1.4559926986694336
2021-06-08T21:22:11.807Z,SHARED_GLOBAL_UNIT_MULTI_PROBE-2-2-1,3,target-1,network_in,1.4569091796875
2021-06-08T21:22:11.562Z,SHARED_GLOBAL_UNIT_MULTI_PROBE-2-2-1,3,target-2,network_in,1.4514055252075195
2021-06-08T21:34:14.443Z,SHARED_GLOBAL_UNIT_MULTI_PROBE-2-4-1,1,target-1,network_in,1.4442758560180664
2021-06-08T21:34:14.183Z,SHARED_GLOBAL_UNIT_MULTI_PROBE-2-4-1,1,target-2,network_in,1.437225341796875
2021-06-08T21:34:14.751Z,SHARED_GLOBAL_UNIT_MULTI_PROBE-2-4-1,1,target-3,network_in,1.4547834396362305
2021-06-08T21:34:14.619Z,SHARED_GLOBAL_UNIT_MULTI_PROBE-2-4-1,1,target-4,network_in,1.4562559127807617
2021-06-08T21:46:05.160Z,SHARED_GLOBAL_UNIT_MULTI_PROBE-2-4-1,2,target-1,network_in,1.4659662246704102
2021-06-08T21:46:15.008Z,SHARED_GLOBAL_UNIT_MULTI_PROBE-2-4-1,2,target-2,network_in,1.6033153533935547
2021-06-08T21:46:05.421Z,SHARED_GLOBAL_UNIT_MULTI_PROBE-2-4-1,2,target-3,network_in,1.471522331237793
2021-06-08T21:46:05.318Z,SHARED_GLOBAL_UNIT_MULTI_PROBE-2-4-1,2,target-4,network_in,1.4673118591308594
2021-06-08T21:58:12.648Z,SHARED_GLOBAL_UNIT_MULTI_PROBE-2-4-1,3,target-1,network_in,1.4592094421386719
2021-06-08T21:58:12.367Z,SHARED_GLOBAL_UNIT_MULTI_PROBE-2-4-1,3,target-2,network_in,1.5762395858764648
2021-06-08T21:58:12.876Z,SHARED_GLOBAL_UNIT_MULTI_PROBE-2-4-1,3,target-3,network_in,1.441645622253418
2021-06-08T21:58:12.763Z,SHARED_GLOBAL_UNIT_MULTI_PROBE-2-4-1,3,target-4,network_in,1.455124855041504
2021-06-08T22:11:08.905Z,SHARED_GLOBAL_UNIT_MULTI_PROBE-2-8-1,1,target-1,network_in,1.4443302154541016
2021-06-08T22:11:08.806Z,SHARED_GLOBAL_UNIT_MULTI_PROBE-2-8-1,1,target-2,network_in,1.5738763809204102
2021-06-08T22:11:09.315Z,SHARED_GLOBAL_UNIT_MULTI_PROBE-2-8-1,1,target-3,network_in,1.4555072784423828
2021-06-08T22:11:09.655Z,SHARED_GLOBAL_UNIT_MULTI_PROBE-2-8-1,1,target-4,network_in,1.4556407928466797
2021-06-08T22:11:08.973Z,SHARED_GLOBAL_UNIT_MULTI_PROBE-2-8-1,1,target-5,network_in,1.4618902206420898
2021-06-08T22:11:11.247Z,SHARED_GLOBAL_UNIT_MULTI_PROBE-2-8-1,1,target-6,network_in,1.5778112411499023
2021-06-08T22:11:10.723Z,SHARED_GLOBAL_UNIT_MULTI_PROBE-2-8-1,1,target-7,network_in,1.456258773803711
2021-06-08T22:11:10.907Z,SHARED_GLOBAL_UNIT_MULTI_PROBE-2-8-1,1,target-8,network_in,1.4754905700683594
2021-06-08T22:24:00.805Z,SHARED_GLOBAL_UNIT_MULTI_PROBE-2-8-1,2,target-1,network_in,1.440089225769043
2021-06-08T22:24:00.502Z,SHARED_GLOBAL_UNIT_MULTI_PROBE-2-8-1,2,target-2,network_in,1.4555292129516602
2021-06-08T22:24:01.071Z,SHARED_GLOBAL_UNIT_MULTI_PROBE-2-8-1,2,target-3,network_in,1.4542675018310547
2021-06-08T22:24:01.125Z,SHARED_GLOBAL_UNIT_MULTI_PROBE-2-8-1,2,target-4,network_in,1.4417400360107422
2021-06-08T22:24:00.619Z,SHARED_GLOBAL_UNIT_MULTI_PROBE-2-8-1,2,target-5,network_in,1.4421234130859375
2021-06-08T22:24:02.812Z,SHARED_GLOBAL_UNIT_MULTI_PROBE-2-8-1,2,target-6,network_in,1.5240230560302734
2021-06-08T22:24:02.325Z,SHARED_GLOBAL_UNIT_MULTI_PROBE-2-8-1,2,target-7,network_in,1.4553155899047852
2021-06-08T22:24:02.607Z,SHARED_GLOBAL_UNIT_MULTI_PROBE-2-8-1,2,target-8,network_in,1.455348014831543
2021-06-08T22:36:48.422Z,SHARED_GLOBAL_UNIT_MULTI_PROBE-2-8-1,3,target-1,network_in,1.4573278427124023
2021-06-08T22:36:48.206Z,SHARED_GLOBAL_UNIT_MULTI_PROBE-2-8-1,3,target-2,network_in,1.5030021667480469
2021-06-08T22:36:48.725Z,SHARED_GLOBAL_UNIT_MULTI_PROBE-2-8-1,3,target-3,network_in,1.5084857940673828
2021-06-08T22:36:48.810Z,SHARED_GLOBAL_UNIT_MULTI_PROBE-2-8-1,3,target-4,network_in,1.4850711822509766
2021-06-08T22:36:48.434Z,SHARED_GLOBAL_UNIT_MULTI_PROBE-2-8-1,3,target-5,network_in,1.505411148071289
2021-06-08T22:36:50.447Z,SHARED_GLOBAL_UNIT_MULTI_PROBE-2-8-1,3,target-6,network_in,1.5066423416137695
2021-06-08T22:36:50.034Z,SHARED_GLOBAL_UNIT_MULTI_PROBE-2-8-1,3,target-7,network_in,1.5042409896850586
2021-06-08T22:36:50.284Z,SHARED_GLOBAL_UNIT_MULTI_PROBE-2-8-1,3,target-8,network_in,1.4574880599975586
