timestamp,key,run_id,resource,metric,value
2021-06-03T22:00:54.593Z,RESERVED_SIDECAR_MULTI_PROBE-1-1-1,1,monitoring-unit-1,network_in,1.4823341369628906
2021-06-03T22:12:28.565Z,RESERVED_SIDECAR_MULTI_PROBE-1-1-1,2,monitoring-unit-1,network_in,1.480931282043457
2021-06-03T22:24:01.760Z,RESERVED_SIDECAR_MULTI_PROBE-1-1-1,3,monitoring-unit-1,network_in,1.486252784729004
2021-06-04T00:31:46.233Z,RESERVED_SIDECAR_MULTI_PROBE-1-1-16,1,monitoring-unit-1,network_in,2.0927486419677734
2021-06-04T00:47:22.316Z,RESERVED_SIDECAR_MULTI_PROBE-1-1-16,2,monitoring-unit-1,network_in,2.097811698913574
2021-06-04T01:03:00.939Z,RESERVED_SIDECAR_MULTI_PROBE-1-1-16,3,monitoring-unit-1,network_in,2.1206560134887695
2021-06-03T22:35:40.212Z,RESERVED_SIDECAR_MULTI_PROBE-1-1-2,1,monitoring-unit-1,network_in,1.5162944793701172
2021-06-03T22:47:42.051Z,RESERVED_SIDECAR_MULTI_PROBE-1-1-2,2,monitoring-unit-1,network_in,1.5223321914672852
2021-06-03T22:59:33.575Z,RESERVED_SIDECAR_MULTI_PROBE-1-1-2,3,monitoring-unit-1,network_in,1.5443792343139648
2021-06-03T23:11:40.110Z,RESERVED_SIDECAR_MULTI_PROBE-1-1-4,1,monitoring-unit-1,network_in,1.6176347732543945
2021-06-03T23:24:07.264Z,RESERVED_SIDECAR_MULTI_PROBE-1-1-4,2,monitoring-unit-1,network_in,1.6134529113769531
2021-06-03T23:36:26.521Z,RESERVED_SIDECAR_MULTI_PROBE-1-1-4,3,monitoring-unit-1,network_in,1.6115684509277344
2021-06-03T23:49:38.958Z,RESERVED_SIDECAR_MULTI_PROBE-1-1-8,1,monitoring-unit-1,network_in,1.7653093338012695
2021-06-04T00:03:11.479Z,RESERVED_SIDECAR_MULTI_PROBE-1-1-8,2,monitoring-unit-1,network_in,1.7847652435302734
2021-06-04T00:16:33.132Z,RESERVED_SIDECAR_MULTI_PROBE-1-1-8,3,monitoring-unit-1,network_in,1.7656641006469727
