2023-07-14T12:13:10.760Z,cadvisor-ct49c,network_out,274070
2023-07-14T12:13:41.278Z,cadvisor-ct49c,network_out,462060
2023-07-14T12:13:51.278Z,cadvisor-ct49c,network_out,462060
2023-07-14T12:13:21.278Z,cadvisor-ct49c,network_out,334962
2023-07-14T12:13:31.279Z,cadvisor-ct49c,network_out,462060
2023-07-14T12:14:01.278Z,cadvisor-ct49c,network_out,557343
2023-07-14T12:13:21.591Z,cadvisor-f8kbk,network_out,309429
2023-07-14T12:13:51.591Z,cadvisor-f8kbk,network_out,416812
2023-07-14T12:13:31.592Z,cadvisor-f8kbk,network_out,309429
2023-07-14T12:13:41.592Z,cadvisor-f8kbk,network_out,309429
2023-07-14T12:14:01.591Z,cadvisor-f8kbk,network_out,470449
2023-07-14T12:13:11.142Z,cadvisor-8dqp7,network_out,270076
2023-07-14T12:13:21.559Z,cadvisor-8dqp7,network_out,270076
2023-07-14T12:13:41.549Z,cadvisor-8dqp7,network_out,341016
2023-07-14T12:14:01.549Z,cadvisor-8dqp7,network_out,482851
2023-07-14T12:13:31.549Z,cadvisor-8dqp7,network_out,341016
2023-07-14T12:13:51.549Z,cadvisor-8dqp7,network_out,341016
2023-07-14T12:14:11.278Z,cadvisor-ct49c,network_out,684343
2023-07-14T12:14:11.592Z,cadvisor-f8kbk,network_out,470449
2023-07-14T12:14:11.549Z,cadvisor-8dqp7,network_out,482851
2023-07-14T12:14:21.278Z,cadvisor-ct49c,network_out,779622
2023-07-14T12:14:21.548Z,cadvisor-8dqp7,network_out,553790
2023-07-14T12:14:21.592Z,cadvisor-f8kbk,network_out,630769
2023-07-14T12:14:31.278Z,cadvisor-ct49c,network_out,779622
2023-07-14T12:14:31.549Z,cadvisor-8dqp7,network_out,624960
2023-07-14T12:14:31.592Z,cadvisor-f8kbk,network_out,711025
2023-07-14T12:14:41.278Z,cadvisor-ct49c,network_out,779622
2023-07-14T12:14:41.592Z,cadvisor-f8kbk,network_out,711025
2023-07-14T12:14:41.548Z,cadvisor-8dqp7,network_out,624960
2023-07-14T12:14:51.278Z,cadvisor-ct49c,network_out,874837
2023-07-14T12:14:51.591Z,cadvisor-f8kbk,network_out,711025
2023-07-14T12:14:51.549Z,cadvisor-8dqp7,network_out,695887
2023-07-14T12:15:01.278Z,cadvisor-ct49c,network_out,1001640
2023-07-14T12:15:01.592Z,cadvisor-f8kbk,network_out,791189
2023-07-14T12:15:01.549Z,cadvisor-8dqp7,network_out,766851
2023-07-14T12:15:11.279Z,cadvisor-ct49c,network_out,1001640
2023-07-14T12:15:11.592Z,cadvisor-f8kbk,network_out,897943
2023-07-14T12:15:11.549Z,cadvisor-8dqp7,network_out,766851
2023-07-14T12:15:21.278Z,cadvisor-ct49c,network_out,1001640
2023-07-14T12:15:21.549Z,cadvisor-8dqp7,network_out,766851
2023-07-14T12:15:21.592Z,cadvisor-f8kbk,network_out,951383
2023-07-14T12:15:31.278Z,cadvisor-ct49c,network_out,1096669
2023-07-14T12:15:31.592Z,cadvisor-f8kbk,network_out,1058307
2023-07-14T12:15:31.549Z,cadvisor-8dqp7,network_out,837821
2023-07-14T12:15:41.278Z,cadvisor-ct49c,network_out,1255382
2023-07-14T12:15:41.549Z,cadvisor-8dqp7,network_out,932430
2023-07-14T12:15:41.592Z,cadvisor-f8kbk,network_out,1058307
2023-07-14T12:15:51.278Z,cadvisor-ct49c,network_out,1255382
2023-07-14T12:15:51.592Z,cadvisor-f8kbk,network_out,1058307
2023-07-14T12:15:51.549Z,cadvisor-8dqp7,network_out,1027192
2023-07-14T12:16:01.278Z,cadvisor-ct49c,network_out,1255382
2023-07-14T12:16:01.592Z,cadvisor-f8kbk,network_out,1191900
2023-07-14T12:16:01.549Z,cadvisor-8dqp7,network_out,1027192
2023-07-14T12:16:11.278Z,cadvisor-ct49c,network_out,1350558
2023-07-14T12:16:11.548Z,cadvisor-8dqp7,network_out,1098083
2023-07-14T12:16:11.592Z,cadvisor-f8kbk,network_out,1245383
2023-07-14T12:16:21.278Z,cadvisor-ct49c,network_out,1350558
2023-07-14T12:16:21.549Z,cadvisor-8dqp7,network_out,1098083
2023-07-14T12:16:21.592Z,cadvisor-f8kbk,network_out,1245383
2023-07-14T12:16:31.278Z,cadvisor-ct49c,network_out,1604673
2023-07-14T12:16:31.549Z,cadvisor-8dqp7,network_out,1169108
2023-07-14T12:16:31.592Z,cadvisor-f8kbk,network_out,1325665
2023-07-14T12:16:41.279Z,cadvisor-ct49c,network_out,1604673
2023-07-14T12:16:41.591Z,cadvisor-f8kbk,network_out,1325665
2023-07-14T12:16:41.549Z,cadvisor-8dqp7,network_out,1169108
2023-07-14T12:16:51.278Z,cadvisor-ct49c,network_out,1604673
2023-07-14T12:16:51.592Z,cadvisor-f8kbk,network_out,1325665
2023-07-14T12:16:51.549Z,cadvisor-8dqp7,network_out,1240025
2023-07-14T12:17:01.278Z,cadvisor-ct49c,network_out,1763494
2023-07-14T12:17:01.549Z,cadvisor-8dqp7,network_out,1334612
2023-07-14T12:17:01.592Z,cadvisor-f8kbk,network_out,1432514
2023-07-14T12:17:11.278Z,cadvisor-ct49c,network_out,1763494
2023-07-14T12:17:11.549Z,cadvisor-8dqp7,network_out,1405589
2023-07-14T12:17:11.592Z,cadvisor-f8kbk,network_out,1432514
2023-07-14T12:17:21.278Z,cadvisor-ct49c,network_out,1763494
2023-07-14T12:17:21.592Z,cadvisor-f8kbk,network_out,1592757
2023-07-14T12:17:21.549Z,cadvisor-8dqp7,network_out,1405589
2023-07-14T12:17:31.278Z,cadvisor-ct49c,network_out,1954144
2023-07-14T12:17:31.592Z,cadvisor-f8kbk,network_out,1592757
2023-07-14T12:17:31.549Z,cadvisor-8dqp7,network_out,1476651
2023-07-14T12:17:41.278Z,cadvisor-ct49c,network_out,2049362
2023-07-14T12:17:41.549Z,cadvisor-8dqp7,network_out,1476651
2023-07-14T12:17:41.592Z,cadvisor-f8kbk,network_out,1672795
2023-07-14T12:17:51.278Z,cadvisor-ct49c,network_out,2049362
2023-07-14T12:17:51.549Z,cadvisor-8dqp7,network_out,1571385
2023-07-14T12:17:51.592Z,cadvisor-f8kbk,network_out,1726244
2023-07-14T12:18:01.278Z,cadvisor-ct49c,network_out,2112938
2023-07-14T12:18:01.548Z,cadvisor-8dqp7,network_out,1618800
2023-07-14T12:18:01.592Z,cadvisor-f8kbk,network_out,1726244
2023-07-14T12:18:11.278Z,cadvisor-ct49c,network_out,2176472
2023-07-14T12:18:11.592Z,cadvisor-f8kbk,network_out,1806332
2023-07-14T12:18:11.549Z,cadvisor-8dqp7,network_out,1689810
2023-07-14T12:18:21.278Z,cadvisor-ct49c,network_out,2271695
2023-07-14T12:18:21.549Z,cadvisor-8dqp7,network_out,1689810
2023-07-14T12:18:21.592Z,cadvisor-f8kbk,network_out,1886502
2023-07-14T12:18:31.278Z,cadvisor-ct49c,network_out,2335174
2023-07-14T12:18:31.591Z,cadvisor-f8kbk,network_out,1993288
2023-07-14T12:18:31.549Z,cadvisor-8dqp7,network_out,1737205
2023-07-14T12:18:41.278Z,cadvisor-ct49c,network_out,2335174
2023-07-14T12:18:41.549Z,cadvisor-8dqp7,network_out,1831876
2023-07-14T12:18:41.592Z,cadvisor-f8kbk,network_out,1993288
2023-07-14T12:18:51.278Z,cadvisor-ct49c,network_out,2335174
2023-07-14T12:18:51.549Z,cadvisor-8dqp7,network_out,1831876
2023-07-14T12:18:51.592Z,cadvisor-f8kbk,network_out,2073444
2023-07-14T12:19:01.278Z,cadvisor-ct49c,network_out,2462134
2023-07-14T12:19:01.592Z,cadvisor-f8kbk,network_out,2073444
2023-07-14T12:19:01.549Z,cadvisor-8dqp7,network_out,1831876
2023-07-14T12:19:11.278Z,cadvisor-ct49c,network_out,2557384
2023-07-14T12:19:11.549Z,cadvisor-8dqp7,network_out,1950351
2023-07-14T12:19:11.591Z,cadvisor-f8kbk,network_out,2153558
2023-07-14T12:19:21.278Z,cadvisor-ct49c,network_out,2557384
2023-07-14T12:19:21.592Z,cadvisor-f8kbk,network_out,2207027
2023-07-14T12:19:21.549Z,cadvisor-8dqp7,network_out,1950351
2023-07-14T12:19:31.278Z,cadvisor-ct49c,network_out,2684383
2023-07-14T12:19:31.548Z,cadvisor-8dqp7,network_out,2021404
2023-07-14T12:19:31.592Z,cadvisor-f8kbk,network_out,2313908
2023-07-14T12:19:41.278Z,cadvisor-ct49c,network_out,2684383
2023-07-14T12:19:41.549Z,cadvisor-8dqp7,network_out,2092370
2023-07-14T12:19:41.592Z,cadvisor-f8kbk,network_out,2313908
2023-07-14T12:19:51.278Z,cadvisor-ct49c,network_out,2843125
2023-07-14T12:19:51.549Z,cadvisor-8dqp7,network_out,2092370
2023-07-14T12:19:51.592Z,cadvisor-f8kbk,network_out,2394060
2023-07-14T12:20:01.279Z,cadvisor-ct49c,network_out,2843125
2023-07-14T12:20:01.592Z,cadvisor-f8kbk,network_out,2394060
2023-07-14T12:20:01.549Z,cadvisor-8dqp7,network_out,2187049
2023-07-14T12:20:11.278Z,cadvisor-ct49c,network_out,2843125
2023-07-14T12:20:11.549Z,cadvisor-8dqp7,network_out,2187049
2023-07-14T12:20:11.592Z,cadvisor-f8kbk,network_out,2527723
2023-07-14T12:20:21.278Z,cadvisor-ct49c,network_out,2938171
2023-07-14T12:20:21.593Z,cadvisor-f8kbk,network_out,2527723
2023-07-14T12:20:21.549Z,cadvisor-8dqp7,network_out,2187049
2023-07-14T12:20:31.278Z,cadvisor-ct49c,network_out,3065130
2023-07-14T12:20:31.549Z,cadvisor-8dqp7,network_out,2305475
2023-07-14T12:20:31.593Z,cadvisor-f8kbk,network_out,2527723
2023-07-14T12:20:41.278Z,cadvisor-ct49c,network_out,3065130
2023-07-14T12:20:41.549Z,cadvisor-8dqp7,network_out,2305475
2023-07-14T12:20:41.592Z,cadvisor-f8kbk,network_out,2634662
2023-07-14T12:20:51.278Z,cadvisor-ct49c,network_out,3160252
2023-07-14T12:20:51.591Z,cadvisor-f8kbk,network_out,2634662
2023-07-14T12:20:51.549Z,cadvisor-8dqp7,network_out,2400100
2023-07-14T12:21:01.278Z,cadvisor-ct49c,network_out,3287242
2023-07-14T12:21:01.549Z,cadvisor-8dqp7,network_out,2471209
2023-07-14T12:21:01.592Z,cadvisor-f8kbk,network_out,2714890
2023-07-14T12:21:11.278Z,cadvisor-ct49c,network_out,3287242
2023-07-14T12:21:11.591Z,cadvisor-f8kbk,network_out,2795121
2023-07-14T12:21:11.549Z,cadvisor-8dqp7,network_out,2471209
2023-07-14T12:21:21.279Z,cadvisor-ct49c,network_out,3382538
2023-07-14T12:21:21.591Z,cadvisor-f8kbk,network_out,2902027
2023-07-14T12:21:21.549Z,cadvisor-8dqp7,network_out,2471209
2023-07-14T12:21:31.278Z,cadvisor-ct49c,network_out,3382538
2023-07-14T12:21:31.592Z,cadvisor-f8kbk,network_out,2955502
2023-07-14T12:21:31.549Z,cadvisor-8dqp7,network_out,2613378
2023-07-14T12:21:41.279Z,cadvisor-ct49c,network_out,3541414
2023-07-14T12:21:41.592Z,cadvisor-f8kbk,network_out,2955502
2023-07-14T12:21:41.548Z,cadvisor-8dqp7,network_out,2613378
2023-07-14T12:21:51.278Z,cadvisor-ct49c,network_out,3541414
2023-07-14T12:21:51.549Z,cadvisor-8dqp7,network_out,2707947
2023-07-14T12:21:51.592Z,cadvisor-f8kbk,network_out,3062409
2023-07-14T12:22:01.278Z,cadvisor-ct49c,network_out,3668513
2023-07-14T12:22:01.549Z,cadvisor-8dqp7,network_out,2707947
2023-07-14T12:22:01.592Z,cadvisor-f8kbk,network_out,3062409
2023-07-14T12:22:11.278Z,cadvisor-ct49c,network_out,3668513
2023-07-14T12:22:11.549Z,cadvisor-8dqp7,network_out,2778970
2023-07-14T12:22:11.592Z,cadvisor-f8kbk,network_out,3115867
2023-07-14T12:22:21.278Z,cadvisor-ct49c,network_out,3668513
2023-07-14T12:22:21.549Z,cadvisor-8dqp7,network_out,2873715
2023-07-14T12:22:21.593Z,cadvisor-f8kbk,network_out,3196016
2023-07-14T12:22:31.279Z,cadvisor-ct49c,network_out,3763871
2023-07-14T12:22:31.549Z,cadvisor-8dqp7,network_out,2873715
2023-07-14T12:22:31.593Z,cadvisor-f8kbk,network_out,3196016
2023-07-14T12:22:41.278Z,cadvisor-ct49c,network_out,3890898
2023-07-14T12:22:41.549Z,cadvisor-8dqp7,network_out,2873715
2023-07-14T12:22:41.592Z,cadvisor-f8kbk,network_out,3302923
2023-07-14T12:22:51.278Z,cadvisor-ct49c,network_out,3954447
2023-07-14T12:22:51.549Z,cadvisor-8dqp7,network_out,2944860
2023-07-14T12:22:51.592Z,cadvisor-f8kbk,network_out,3383153
2023-07-14T12:23:01.278Z,cadvisor-ct49c,network_out,3954447
2023-07-14T12:23:01.592Z,cadvisor-f8kbk,network_out,3436565
2023-07-14T12:23:01.549Z,cadvisor-8dqp7,network_out,3039492
2023-07-14T12:23:11.278Z,cadvisor-ct49c,network_out,4049804
2023-07-14T12:23:11.549Z,cadvisor-8dqp7,network_out,3039492
2023-07-14T12:23:11.592Z,cadvisor-f8kbk,network_out,3436565
2023-07-14T12:23:21.278Z,cadvisor-ct49c,network_out,4049804
2023-07-14T12:23:21.549Z,cadvisor-8dqp7,network_out,3110555
2023-07-14T12:23:21.591Z,cadvisor-f8kbk,network_out,3489995
2023-07-14T12:23:31.278Z,cadvisor-ct49c,network_out,4176760
2023-07-14T12:23:31.548Z,cadvisor-8dqp7,network_out,3181549
2023-07-14T12:23:31.592Z,cadvisor-f8kbk,network_out,3596867
