timestamp,key,run_id,resource,metric,value
2021-06-08T11:17:14.282Z,SHARED_GLOBAL_UNIT_MULTI_PROBE-1-1-1,1,monitoring-unit-1,network_in,1.4777297973632812
2021-06-08T11:28:59.972Z,SHARED_GLOBAL_UNIT_MULTI_PROBE-1-1-1,2,monitoring-unit-1,network_in,1.5009374618530273
2021-06-08T11:40:44.625Z,SHARED_GLOBAL_UNIT_MULTI_PROBE-1-1-1,3,monitoring-unit-1,network_in,1.5103321075439453
2021-06-09T00:54:25.401Z,SHARED_GLOBAL_UNIT_MULTI_PROBE-16-1-1,1,monitoring-unit-1,network_in,1.4879264831542969
2021-06-09T01:06:11.033Z,SHARED_GLOBAL_UNIT_MULTI_PROBE-16-1-1,2,monitoring-unit-1,network_in,1.4929876327514648
2021-06-09T01:17:57.644Z,SHARED_GLOBAL_UNIT_MULTI_PROBE-16-1-1,3,monitoring-unit-1,network_in,1.4956636428833008
2021-06-08T14:38:53.613Z,SHARED_GLOBAL_UNIT_MULTI_PROBE-2-1-1,1,monitoring-unit-1,network_in,1.481431007385254
2021-06-08T14:50:32.513Z,SHARED_GLOBAL_UNIT_MULTI_PROBE-2-1-1,2,monitoring-unit-1,network_in,1.4959144592285156
2021-06-08T15:02:17.281Z,SHARED_GLOBAL_UNIT_MULTI_PROBE-2-1-1,3,monitoring-unit-1,network_in,1.4833660125732422
2021-06-08T23:43:47.852Z,SHARED_GLOBAL_UNIT_MULTI_PROBE-4-1-1,1,monitoring-unit-1,network_in,1.495549201965332
2021-06-08T23:55:32.709Z,SHARED_GLOBAL_UNIT_MULTI_PROBE-4-1-1,2,monitoring-unit-1,network_in,1.494619369506836
2021-06-09T00:07:21.772Z,SHARED_GLOBAL_UNIT_MULTI_PROBE-4-1-1,3,monitoring-unit-1,network_in,1.4868650436401367
2021-06-09T00:19:05.377Z,SHARED_GLOBAL_UNIT_MULTI_PROBE-8-1-1,1,monitoring-unit-1,network_in,1.4977197647094727
2021-06-09T00:30:48.549Z,SHARED_GLOBAL_UNIT_MULTI_PROBE-8-1-1,2,monitoring-unit-1,network_in,1.4916038513183594
2021-06-09T00:42:36.421Z,SHARED_GLOBAL_UNIT_MULTI_PROBE-8-1-1,3,monitoring-unit-1,network_in,1.4837913513183594
