timestamp,key,run_id,resource,metric,value
2021-06-04T01:17:55.743Z,RESERVED_SIDECAR_MULTI_PROBE-2-1-1,1,target-1,network_in,1.4601259231567383
2021-06-04T01:29:36.283Z,RESERVED_SIDECAR_MULTI_PROBE-2-1-1,2,target-1,network_in,1.4587182998657227
2021-06-04T01:41:18.954Z,RESERVED_SIDECAR_MULTI_PROBE-2-1-1,3,target-1,network_in,1.4431982040405273
2021-06-04T03:52:44.123Z,RESERVED_SIDECAR_MULTI_PROBE-2-1-16,1,target-1,network_in,1.969834327697754
2021-06-04T04:08:46.106Z,RESERVED_SIDECAR_MULTI_PROBE-2-1-16,2,target-1,network_in,2.4137306213378906
2021-06-04T04:24:59.673Z,RESERVED_SIDECAR_MULTI_PROBE-2-1-16,3,target-1,network_in,2.252378463745117
2021-06-04T01:53:07.688Z,RESERVED_SIDECAR_MULTI_PROBE-2-1-2,1,target-1,network_in,1.4895944595336914
2021-06-04T02:05:23.505Z,RESERVED_SIDECAR_MULTI_PROBE-2-1-2,2,target-1,network_in,1.4727048873901367
2021-06-04T02:17:33.972Z,RESERVED_SIDECAR_MULTI_PROBE-2-1-2,3,target-1,network_in,1.4852924346923828
2021-06-04T02:30:14.825Z,RESERVED_SIDECAR_MULTI_PROBE-2-1-4,1,target-1,network_in,1.5327653884887695
2021-06-04T02:42:59.773Z,RESERVED_SIDECAR_MULTI_PROBE-2-1-4,2,target-1,network_in,1.539036750793457
2021-06-04T02:55:43.513Z,RESERVED_SIDECAR_MULTI_PROBE-2-1-4,3,target-1,network_in,1.546041488647461
2021-06-04T03:09:18.661Z,RESERVED_SIDECAR_MULTI_PROBE-2-1-8,1,target-1,network_in,1.6520204544067383
2021-06-04T03:23:21.269Z,RESERVED_SIDECAR_MULTI_PROBE-2-1-8,2,target-1,network_in,1.637960433959961
2021-06-04T03:37:27.397Z,RESERVED_SIDECAR_MULTI_PROBE-2-1-8,3,target-1,network_in,1.6476173400878906
