timestamp,key,run_id,resource,metric,value
2022-05-13T06:33:02.638Z,PARTIALLY_SHARED_SIDECAR_STAR-1-1-1,1,target-1,network_out,3.181346893310547
2022-05-13T06:44:39.934Z,PARTIALLY_SHARED_SIDECAR_STAR-1-1-1,2,target-1,network_out,0.6218385696411133
2022-05-13T06:56:18.140Z,PARTIALLY_SHARED_SIDECAR_STAR-1-1-1,3,target-1,network_out,0.6354036331176758
2022-05-14T14:14:56.954Z,PARTIALLY_SHARED_SIDECAR_STAR-16-1-16,1,target-1,network_out,0.6243429183959961
2022-05-15T02:45:12.411Z,PARTIALLY_SHARED_SIDECAR_STAR-16-1-16,2,target-1,network_out,0.6385107040405273
2022-05-15T15:27:42.136Z,PARTIALLY_SHARED_SIDECAR_STAR-16-1-16,3,target-1,network_out,8.04713249206543
2022-05-13T10:29:47.910Z,PARTIALLY_SHARED_SIDECAR_STAR-2-1-2,1,target-1,network_out,0.6216888427734375
2022-05-13T10:42:13.529Z,PARTIALLY_SHARED_SIDECAR_STAR-2-1-2,2,target-1,network_out,0.6264886856079102
2022-05-13T10:54:49.140Z,PARTIALLY_SHARED_SIDECAR_STAR-2-1-2,3,target-1,network_out,6.893023490905762
2022-05-13T22:59:49.296Z,PARTIALLY_SHARED_SIDECAR_STAR-4-1-4,1,target-1,network_out,0.6211719512939453
2022-05-13T23:16:01.546Z,PARTIALLY_SHARED_SIDECAR_STAR-4-1-4,2,target-1,network_out,0.6234893798828125
2022-05-13T23:32:22.649Z,PARTIALLY_SHARED_SIDECAR_STAR-4-1-4,3,target-1,network_out,0.6834516525268555
2022-09-08T13:48:37.684Z,PARTIALLY_SHARED_SIDECAR_STAR-8-1-8,1,target-1,network_out,0.6382150650024414
2022-09-08T14:12:34.193Z,PARTIALLY_SHARED_SIDECAR_STAR-8-1-8,2,target-1,network_out,0.7793350219726562
2022-09-08T14:36:54.811Z,PARTIALLY_SHARED_SIDECAR_STAR-8-1-8,3,target-1,network_out,0.6179656982421875
