timestamp,key,run_id,resource,metric,value
2022-05-10T10:23:52.410Z,PARTIALLY_SHARED_UNIT_STAR-1-1-1,1,monitoring-unit-1,memory,0.3056373596191406
2022-05-10T10:24:02.411Z,PARTIALLY_SHARED_UNIT_STAR-1-1-1,1,monitoring-unit-1,memory,0.3075408935546875
2022-05-10T10:24:12.415Z,PARTIALLY_SHARED_UNIT_STAR-1-1-1,1,monitoring-unit-1,memory,0.3080558776855469
2022-05-10T10:24:22.411Z,PARTIALLY_SHARED_UNIT_STAR-1-1-1,1,monitoring-unit-1,memory,0.30828094482421875
2022-05-10T10:24:32.411Z,PARTIALLY_SHARED_UNIT_STAR-1-1-1,1,monitoring-unit-1,memory,0.3082733154296875
2022-05-10T10:24:42.410Z,PARTIALLY_SHARED_UNIT_STAR-1-1-1,1,monitoring-unit-1,memory,0.30828094482421875
2022-05-10T10:24:52.411Z,PARTIALLY_SHARED_UNIT_STAR-1-1-1,1,monitoring-unit-1,memory,0.3192863464355469
2022-05-10T10:25:02.410Z,PARTIALLY_SHARED_UNIT_STAR-1-1-1,1,monitoring-unit-1,memory,0.30864715576171875
2022-05-10T10:25:12.411Z,PARTIALLY_SHARED_UNIT_STAR-1-1-1,1,monitoring-unit-1,memory,0.30864715576171875
2022-05-10T10:25:22.410Z,PARTIALLY_SHARED_UNIT_STAR-1-1-1,1,monitoring-unit-1,memory,0.3086395263671875
2022-05-10T10:25:32.411Z,PARTIALLY_SHARED_UNIT_STAR-1-1-1,1,monitoring-unit-1,memory,0.3086395263671875
2022-05-10T10:25:42.411Z,PARTIALLY_SHARED_UNIT_STAR-1-1-1,1,monitoring-unit-1,memory,0.3086395263671875
2022-05-10T10:25:52.411Z,PARTIALLY_SHARED_UNIT_STAR-1-1-1,1,monitoring-unit-1,memory,0.3086433410644531
2022-05-10T10:26:02.411Z,PARTIALLY_SHARED_UNIT_STAR-1-1-1,1,monitoring-unit-1,memory,0.3088836669921875
2022-05-10T10:26:12.412Z,PARTIALLY_SHARED_UNIT_STAR-1-1-1,1,monitoring-unit-1,memory,0.3088836669921875
2022-05-10T10:26:22.411Z,PARTIALLY_SHARED_UNIT_STAR-1-1-1,1,monitoring-unit-1,memory,0.309356689453125
2022-05-10T10:26:32.411Z,PARTIALLY_SHARED_UNIT_STAR-1-1-1,1,monitoring-unit-1,memory,0.309356689453125
2022-05-10T10:26:42.412Z,PARTIALLY_SHARED_UNIT_STAR-1-1-1,1,monitoring-unit-1,memory,0.31179046630859375
2022-05-10T10:26:52.411Z,PARTIALLY_SHARED_UNIT_STAR-1-1-1,1,monitoring-unit-1,memory,0.3122596740722656
2022-05-10T10:27:02.411Z,PARTIALLY_SHARED_UNIT_STAR-1-1-1,1,monitoring-unit-1,memory,0.3122596740722656
2022-05-10T10:27:12.411Z,PARTIALLY_SHARED_UNIT_STAR-1-1-1,1,monitoring-unit-1,memory,0.310577392578125
2022-05-10T10:27:22.410Z,PARTIALLY_SHARED_UNIT_STAR-1-1-1,1,monitoring-unit-1,memory,0.31056976318359375
2022-05-10T10:27:32.411Z,PARTIALLY_SHARED_UNIT_STAR-1-1-1,1,monitoring-unit-1,memory,0.31056976318359375
2022-05-10T10:27:42.411Z,PARTIALLY_SHARED_UNIT_STAR-1-1-1,1,monitoring-unit-1,memory,0.31056976318359375
2022-05-10T10:27:52.411Z,PARTIALLY_SHARED_UNIT_STAR-1-1-1,1,monitoring-unit-1,memory,0.31104278564453125
2022-05-10T10:28:02.411Z,PARTIALLY_SHARED_UNIT_STAR-1-1-1,1,monitoring-unit-1,memory,0.3123664855957031
2022-05-10T10:28:12.413Z,PARTIALLY_SHARED_UNIT_STAR-1-1-1,1,monitoring-unit-1,memory,0.3112068176269531
2022-05-10T10:28:22.411Z,PARTIALLY_SHARED_UNIT_STAR-1-1-1,1,monitoring-unit-1,memory,0.311676025390625
2022-05-10T10:28:32.410Z,PARTIALLY_SHARED_UNIT_STAR-1-1-1,1,monitoring-unit-1,memory,0.311676025390625
2022-05-10T10:28:42.411Z,PARTIALLY_SHARED_UNIT_STAR-1-1-1,1,monitoring-unit-1,memory,0.311676025390625
2022-05-10T10:28:52.411Z,PARTIALLY_SHARED_UNIT_STAR-1-1-1,1,monitoring-unit-1,memory,0.3126373291015625
2022-05-10T10:29:02.411Z,PARTIALLY_SHARED_UNIT_STAR-1-1-1,1,monitoring-unit-1,memory,0.3126373291015625
2022-05-10T10:29:12.411Z,PARTIALLY_SHARED_UNIT_STAR-1-1-1,1,monitoring-unit-1,memory,0.3126373291015625
2022-05-10T10:29:22.411Z,PARTIALLY_SHARED_UNIT_STAR-1-1-1,1,monitoring-unit-1,memory,0.31262969970703125
2022-05-10T10:29:32.411Z,PARTIALLY_SHARED_UNIT_STAR-1-1-1,1,monitoring-unit-1,memory,0.31262969970703125
2022-05-10T10:29:42.411Z,PARTIALLY_SHARED_UNIT_STAR-1-1-1,1,monitoring-unit-1,memory,0.31262969970703125
2022-05-10T10:29:52.411Z,PARTIALLY_SHARED_UNIT_STAR-1-1-1,1,monitoring-unit-1,memory,0.3128623962402344
2022-05-10T10:30:02.410Z,PARTIALLY_SHARED_UNIT_STAR-1-1-1,1,monitoring-unit-1,memory,0.3128623962402344
2022-05-10T10:30:12.410Z,PARTIALLY_SHARED_UNIT_STAR-1-1-1,1,monitoring-unit-1,memory,0.31118011474609375
2022-05-10T10:30:22.411Z,PARTIALLY_SHARED_UNIT_STAR-1-1-1,1,monitoring-unit-1,memory,0.3111686706542969
2022-05-10T10:30:32.410Z,PARTIALLY_SHARED_UNIT_STAR-1-1-1,1,monitoring-unit-1,memory,0.3111686706542969
2022-05-10T10:30:42.412Z,PARTIALLY_SHARED_UNIT_STAR-1-1-1,1,monitoring-unit-1,memory,0.3111686706542969
2022-05-10T10:30:52.410Z,PARTIALLY_SHARED_UNIT_STAR-1-1-1,1,monitoring-unit-1,memory,0.3111610412597656
2022-05-10T10:31:02.411Z,PARTIALLY_SHARED_UNIT_STAR-1-1-1,1,monitoring-unit-1,memory,0.3111610412597656
2022-05-10T10:31:12.411Z,PARTIALLY_SHARED_UNIT_STAR-1-1-1,1,monitoring-unit-1,memory,0.3111610412597656
2022-05-10T10:31:22.411Z,PARTIALLY_SHARED_UNIT_STAR-1-1-1,1,monitoring-unit-1,memory,0.3111534118652344
2022-05-10T10:31:32.411Z,PARTIALLY_SHARED_UNIT_STAR-1-1-1,1,monitoring-unit-1,memory,0.3111534118652344
2022-05-10T10:31:42.411Z,PARTIALLY_SHARED_UNIT_STAR-1-1-1,1,monitoring-unit-1,memory,0.3111534118652344
2022-05-10T10:31:52.411Z,PARTIALLY_SHARED_UNIT_STAR-1-1-1,1,monitoring-unit-1,memory,0.31162261962890625
2022-05-10T10:32:02.411Z,PARTIALLY_SHARED_UNIT_STAR-1-1-1,1,monitoring-unit-1,memory,0.31162261962890625
2022-05-10T10:32:12.415Z,PARTIALLY_SHARED_UNIT_STAR-1-1-1,1,monitoring-unit-1,memory,0.31162261962890625
2022-05-10T10:32:22.411Z,PARTIALLY_SHARED_UNIT_STAR-1-1-1,1,monitoring-unit-1,memory,0.3118553161621094
2022-05-10T10:32:32.411Z,PARTIALLY_SHARED_UNIT_STAR-1-1-1,1,monitoring-unit-1,memory,0.3118553161621094
2022-05-10T10:32:42.410Z,PARTIALLY_SHARED_UNIT_STAR-1-1-1,1,monitoring-unit-1,memory,0.3118553161621094
2022-05-10T10:32:52.411Z,PARTIALLY_SHARED_UNIT_STAR-1-1-1,1,monitoring-unit-1,memory,0.3108863830566406
2022-05-10T10:33:02.410Z,PARTIALLY_SHARED_UNIT_STAR-1-1-1,1,monitoring-unit-1,memory,0.3108863830566406
2022-05-10T10:33:12.412Z,PARTIALLY_SHARED_UNIT_STAR-1-1-1,1,monitoring-unit-1,memory,0.3108863830566406
2022-05-10T10:33:22.411Z,PARTIALLY_SHARED_UNIT_STAR-1-1-1,1,monitoring-unit-1,memory,0.3108787536621094
2022-05-10T10:33:32.411Z,PARTIALLY_SHARED_UNIT_STAR-1-1-1,1,monitoring-unit-1,memory,0.3108787536621094
2022-05-10T10:33:42.411Z,PARTIALLY_SHARED_UNIT_STAR-1-1-1,1,monitoring-unit-1,memory,0.3108787536621094
2022-05-10T10:35:21.932Z,PARTIALLY_SHARED_UNIT_STAR-1-1-1,2,monitoring-unit-1,memory,0.3084831237792969
2022-05-10T10:35:31.932Z,PARTIALLY_SHARED_UNIT_STAR-1-1-1,2,monitoring-unit-1,memory,0.3104667663574219
2022-05-10T10:35:41.935Z,PARTIALLY_SHARED_UNIT_STAR-1-1-1,2,monitoring-unit-1,memory,0.3104057312011719
2022-05-10T10:35:51.932Z,PARTIALLY_SHARED_UNIT_STAR-1-1-1,2,monitoring-unit-1,memory,0.310394287109375
2022-05-10T10:36:01.932Z,PARTIALLY_SHARED_UNIT_STAR-1-1-1,2,monitoring-unit-1,memory,0.310394287109375
2022-05-10T10:36:11.933Z,PARTIALLY_SHARED_UNIT_STAR-1-1-1,2,monitoring-unit-1,memory,0.310394287109375
2022-05-10T10:36:21.932Z,PARTIALLY_SHARED_UNIT_STAR-1-1-1,2,monitoring-unit-1,memory,0.31038665771484375
2022-05-10T10:36:31.933Z,PARTIALLY_SHARED_UNIT_STAR-1-1-1,2,monitoring-unit-1,memory,0.31038665771484375
2022-05-10T10:36:41.933Z,PARTIALLY_SHARED_UNIT_STAR-1-1-1,2,monitoring-unit-1,memory,0.31038665771484375
2022-05-10T10:36:51.932Z,PARTIALLY_SHARED_UNIT_STAR-1-1-1,2,monitoring-unit-1,memory,0.31085968017578125
2022-05-10T10:37:01.932Z,PARTIALLY_SHARED_UNIT_STAR-1-1-1,2,monitoring-unit-1,memory,0.31085968017578125
2022-05-10T10:37:11.934Z,PARTIALLY_SHARED_UNIT_STAR-1-1-1,2,monitoring-unit-1,memory,0.31134033203125
2022-05-10T10:37:21.932Z,PARTIALLY_SHARED_UNIT_STAR-1-1-1,2,monitoring-unit-1,memory,0.3120536804199219
2022-05-10T10:37:31.932Z,PARTIALLY_SHARED_UNIT_STAR-1-1-1,2,monitoring-unit-1,memory,0.3120536804199219
2022-05-10T10:37:41.937Z,PARTIALLY_SHARED_UNIT_STAR-1-1-1,2,monitoring-unit-1,memory,0.3120536804199219
2022-05-10T10:37:51.933Z,PARTIALLY_SHARED_UNIT_STAR-1-1-1,2,monitoring-unit-1,memory,0.3118019104003906
2022-05-10T10:38:01.932Z,PARTIALLY_SHARED_UNIT_STAR-1-1-1,2,monitoring-unit-1,memory,0.3118019104003906
2022-05-10T10:38:11.933Z,PARTIALLY_SHARED_UNIT_STAR-1-1-1,2,monitoring-unit-1,memory,0.3118019104003906
2022-05-10T10:38:21.933Z,PARTIALLY_SHARED_UNIT_STAR-1-1-1,2,monitoring-unit-1,memory,0.3108329772949219
2022-05-10T10:38:31.933Z,PARTIALLY_SHARED_UNIT_STAR-1-1-1,2,monitoring-unit-1,memory,0.3108329772949219
2022-05-10T10:38:41.933Z,PARTIALLY_SHARED_UNIT_STAR-1-1-1,2,monitoring-unit-1,memory,0.3108329772949219
2022-05-10T10:38:51.933Z,PARTIALLY_SHARED_UNIT_STAR-1-1-1,2,monitoring-unit-1,memory,0.31058502197265625
2022-05-10T10:39:01.933Z,PARTIALLY_SHARED_UNIT_STAR-1-1-1,2,monitoring-unit-1,memory,0.31058502197265625
2022-05-10T10:39:11.933Z,PARTIALLY_SHARED_UNIT_STAR-1-1-1,2,monitoring-unit-1,memory,0.31058502197265625
2022-05-10T10:39:21.932Z,PARTIALLY_SHARED_UNIT_STAR-1-1-1,2,monitoring-unit-1,memory,0.3105735778808594
2022-05-10T10:39:31.932Z,PARTIALLY_SHARED_UNIT_STAR-1-1-1,2,monitoring-unit-1,memory,0.3105735778808594
2022-05-10T10:39:41.933Z,PARTIALLY_SHARED_UNIT_STAR-1-1-1,2,monitoring-unit-1,memory,0.3105735778808594
2022-05-10T10:39:51.933Z,PARTIALLY_SHARED_UNIT_STAR-1-1-1,2,monitoring-unit-1,memory,0.3105735778808594
2022-05-10T10:40:01.933Z,PARTIALLY_SHARED_UNIT_STAR-1-1-1,2,monitoring-unit-1,memory,0.3105735778808594
2022-05-10T10:40:11.933Z,PARTIALLY_SHARED_UNIT_STAR-1-1-1,2,monitoring-unit-1,memory,0.3105735778808594
2022-05-10T10:40:21.932Z,PARTIALLY_SHARED_UNIT_STAR-1-1-1,2,monitoring-unit-1,memory,0.3105278015136719
2022-05-10T10:40:31.933Z,PARTIALLY_SHARED_UNIT_STAR-1-1-1,2,monitoring-unit-1,memory,0.3105278015136719
2022-05-10T10:40:41.933Z,PARTIALLY_SHARED_UNIT_STAR-1-1-1,2,monitoring-unit-1,memory,0.3105278015136719
2022-05-10T10:40:51.933Z,PARTIALLY_SHARED_UNIT_STAR-1-1-1,2,monitoring-unit-1,memory,0.3114204406738281
2022-05-10T10:41:01.933Z,PARTIALLY_SHARED_UNIT_STAR-1-1-1,2,monitoring-unit-1,memory,0.3114204406738281
2022-05-10T10:41:11.933Z,PARTIALLY_SHARED_UNIT_STAR-1-1-1,2,monitoring-unit-1,memory,0.3114204406738281
2022-05-10T10:41:21.932Z,PARTIALLY_SHARED_UNIT_STAR-1-1-1,2,monitoring-unit-1,memory,0.31140899658203125
2022-05-10T10:41:31.933Z,PARTIALLY_SHARED_UNIT_STAR-1-1-1,2,monitoring-unit-1,memory,0.3106880187988281
2022-05-10T10:41:41.933Z,PARTIALLY_SHARED_UNIT_STAR-1-1-1,2,monitoring-unit-1,memory,0.3106880187988281
2022-05-10T10:41:51.932Z,PARTIALLY_SHARED_UNIT_STAR-1-1-1,2,monitoring-unit-1,memory,0.3106803894042969
2022-05-10T10:42:01.933Z,PARTIALLY_SHARED_UNIT_STAR-1-1-1,2,monitoring-unit-1,memory,0.3106803894042969
2022-05-10T10:42:11.933Z,PARTIALLY_SHARED_UNIT_STAR-1-1-1,2,monitoring-unit-1,memory,0.3106803894042969
2022-05-10T10:42:21.933Z,PARTIALLY_SHARED_UNIT_STAR-1-1-1,2,monitoring-unit-1,memory,0.3106727600097656
2022-05-10T10:42:31.933Z,PARTIALLY_SHARED_UNIT_STAR-1-1-1,2,monitoring-unit-1,memory,0.3109130859375
2022-05-10T10:42:41.934Z,PARTIALLY_SHARED_UNIT_STAR-1-1-1,2,monitoring-unit-1,memory,0.3109130859375
2022-05-10T10:42:51.933Z,PARTIALLY_SHARED_UNIT_STAR-1-1-1,2,monitoring-unit-1,memory,0.31162261962890625
2022-05-10T10:43:01.932Z,PARTIALLY_SHARED_UNIT_STAR-1-1-1,2,monitoring-unit-1,memory,0.31162261962890625
2022-05-10T10:43:11.933Z,PARTIALLY_SHARED_UNIT_STAR-1-1-1,2,monitoring-unit-1,memory,0.31066131591796875
2022-05-10T10:43:21.933Z,PARTIALLY_SHARED_UNIT_STAR-1-1-1,2,monitoring-unit-1,memory,0.3106536865234375
2022-05-10T10:43:31.933Z,PARTIALLY_SHARED_UNIT_STAR-1-1-1,2,monitoring-unit-1,memory,0.3106536865234375
2022-05-10T10:43:41.933Z,PARTIALLY_SHARED_UNIT_STAR-1-1-1,2,monitoring-unit-1,memory,0.3106536865234375
2022-05-10T10:43:51.933Z,PARTIALLY_SHARED_UNIT_STAR-1-1-1,2,monitoring-unit-1,memory,0.3108863830566406
2022-05-10T10:44:01.933Z,PARTIALLY_SHARED_UNIT_STAR-1-1-1,2,monitoring-unit-1,memory,0.3108863830566406
2022-05-10T10:44:11.932Z,PARTIALLY_SHARED_UNIT_STAR-1-1-1,2,monitoring-unit-1,memory,0.311126708984375
2022-05-10T10:44:21.932Z,PARTIALLY_SHARED_UNIT_STAR-1-1-1,2,monitoring-unit-1,memory,0.3115997314453125
2022-05-10T10:44:31.933Z,PARTIALLY_SHARED_UNIT_STAR-1-1-1,2,monitoring-unit-1,memory,0.3115997314453125
2022-05-10T10:44:41.939Z,PARTIALLY_SHARED_UNIT_STAR-1-1-1,2,monitoring-unit-1,memory,0.3115997314453125
2022-05-10T10:44:51.932Z,PARTIALLY_SHARED_UNIT_STAR-1-1-1,2,monitoring-unit-1,memory,0.3120689392089844
2022-05-10T10:45:01.933Z,PARTIALLY_SHARED_UNIT_STAR-1-1-1,2,monitoring-unit-1,memory,0.3120689392089844
2022-05-10T10:45:11.933Z,PARTIALLY_SHARED_UNIT_STAR-1-1-1,2,monitoring-unit-1,memory,0.3120689392089844
2022-05-10T10:46:51.953Z,PARTIALLY_SHARED_UNIT_STAR-1-1-1,3,monitoring-unit-1,memory,0.309295654296875
2022-05-10T10:47:01.953Z,PARTIALLY_SHARED_UNIT_STAR-1-1-1,3,monitoring-unit-1,memory,0.309295654296875
2022-05-10T10:47:11.956Z,PARTIALLY_SHARED_UNIT_STAR-1-1-1,3,monitoring-unit-1,memory,0.3096122741699219
2022-05-10T10:47:21.953Z,PARTIALLY_SHARED_UNIT_STAR-1-1-1,3,monitoring-unit-1,memory,0.3095893859863281
2022-05-10T10:47:31.953Z,PARTIALLY_SHARED_UNIT_STAR-1-1-1,3,monitoring-unit-1,memory,0.3095893859863281
2022-05-10T10:47:41.953Z,PARTIALLY_SHARED_UNIT_STAR-1-1-1,3,monitoring-unit-1,memory,0.3095893859863281
2022-05-10T10:47:51.953Z,PARTIALLY_SHARED_UNIT_STAR-1-1-1,3,monitoring-unit-1,memory,0.3095817565917969
2022-05-10T10:48:01.953Z,PARTIALLY_SHARED_UNIT_STAR-1-1-1,3,monitoring-unit-1,memory,0.3095817565917969
2022-05-10T10:48:11.954Z,PARTIALLY_SHARED_UNIT_STAR-1-1-1,3,monitoring-unit-1,memory,0.3095817565917969
2022-05-10T10:48:21.953Z,PARTIALLY_SHARED_UNIT_STAR-1-1-1,3,monitoring-unit-1,memory,0.3095741271972656
2022-05-10T10:48:31.953Z,PARTIALLY_SHARED_UNIT_STAR-1-1-1,3,monitoring-unit-1,memory,0.3095741271972656
2022-05-10T10:48:41.954Z,PARTIALLY_SHARED_UNIT_STAR-1-1-1,3,monitoring-unit-1,memory,0.3095741271972656
2022-05-10T10:48:51.953Z,PARTIALLY_SHARED_UNIT_STAR-1-1-1,3,monitoring-unit-1,memory,0.30956268310546875
2022-05-10T10:49:01.953Z,PARTIALLY_SHARED_UNIT_STAR-1-1-1,3,monitoring-unit-1,memory,0.30956268310546875
2022-05-10T10:49:11.954Z,PARTIALLY_SHARED_UNIT_STAR-1-1-1,3,monitoring-unit-1,memory,0.30956268310546875
2022-05-10T10:49:21.953Z,PARTIALLY_SHARED_UNIT_STAR-1-1-1,3,monitoring-unit-1,memory,0.3095550537109375
2022-05-10T10:49:31.953Z,PARTIALLY_SHARED_UNIT_STAR-1-1-1,3,monitoring-unit-1,memory,0.3095550537109375
2022-05-10T10:49:41.954Z,PARTIALLY_SHARED_UNIT_STAR-1-1-1,3,monitoring-unit-1,memory,0.3102760314941406
2022-05-10T10:49:51.953Z,PARTIALLY_SHARED_UNIT_STAR-1-1-1,3,monitoring-unit-1,memory,0.3104896545410156
2022-05-10T10:50:01.953Z,PARTIALLY_SHARED_UNIT_STAR-1-1-1,3,monitoring-unit-1,memory,0.3104896545410156
2022-05-10T10:50:11.958Z,PARTIALLY_SHARED_UNIT_STAR-1-1-1,3,monitoring-unit-1,memory,0.3104896545410156
2022-05-10T10:50:21.953Z,PARTIALLY_SHARED_UNIT_STAR-1-1-1,3,monitoring-unit-1,memory,0.3102378845214844
2022-05-10T10:50:31.953Z,PARTIALLY_SHARED_UNIT_STAR-1-1-1,3,monitoring-unit-1,memory,0.3102378845214844
2022-05-10T10:50:41.953Z,PARTIALLY_SHARED_UNIT_STAR-1-1-1,3,monitoring-unit-1,memory,0.3102378845214844
2022-05-10T10:50:51.953Z,PARTIALLY_SHARED_UNIT_STAR-1-1-1,3,monitoring-unit-1,memory,0.3097496032714844
2022-05-10T10:51:01.953Z,PARTIALLY_SHARED_UNIT_STAR-1-1-1,3,monitoring-unit-1,memory,0.3097496032714844
2022-05-10T10:51:11.954Z,PARTIALLY_SHARED_UNIT_STAR-1-1-1,3,monitoring-unit-1,memory,0.3097496032714844
2022-05-10T10:51:21.953Z,PARTIALLY_SHARED_UNIT_STAR-1-1-1,3,monitoring-unit-1,memory,0.3097381591796875
2022-05-10T10:51:31.953Z,PARTIALLY_SHARED_UNIT_STAR-1-1-1,3,monitoring-unit-1,memory,0.3097381591796875
2022-05-10T10:51:41.954Z,PARTIALLY_SHARED_UNIT_STAR-1-1-1,3,monitoring-unit-1,memory,0.3094978332519531
2022-05-10T10:51:51.953Z,PARTIALLY_SHARED_UNIT_STAR-1-1-1,3,monitoring-unit-1,memory,0.3097381591796875
2022-05-10T10:52:01.953Z,PARTIALLY_SHARED_UNIT_STAR-1-1-1,3,monitoring-unit-1,memory,0.3097381591796875
2022-05-10T10:52:11.954Z,PARTIALLY_SHARED_UNIT_STAR-1-1-1,3,monitoring-unit-1,memory,0.3097038269042969
2022-05-10T10:52:21.953Z,PARTIALLY_SHARED_UNIT_STAR-1-1-1,3,monitoring-unit-1,memory,0.309661865234375
2022-05-10T10:52:31.953Z,PARTIALLY_SHARED_UNIT_STAR-1-1-1,3,monitoring-unit-1,memory,0.309661865234375
2022-05-10T10:52:41.956Z,PARTIALLY_SHARED_UNIT_STAR-1-1-1,3,monitoring-unit-1,memory,0.309661865234375
2022-05-10T10:52:51.953Z,PARTIALLY_SHARED_UNIT_STAR-1-1-1,3,monitoring-unit-1,memory,0.30965423583984375
2022-05-10T10:53:01.953Z,PARTIALLY_SHARED_UNIT_STAR-1-1-1,3,monitoring-unit-1,memory,0.30965423583984375
2022-05-10T10:53:11.955Z,PARTIALLY_SHARED_UNIT_STAR-1-1-1,3,monitoring-unit-1,memory,0.30965423583984375
2022-05-10T10:53:21.953Z,PARTIALLY_SHARED_UNIT_STAR-1-1-1,3,monitoring-unit-1,memory,0.31060791015625
2022-05-10T10:53:31.953Z,PARTIALLY_SHARED_UNIT_STAR-1-1-1,3,monitoring-unit-1,memory,0.31060791015625
2022-05-10T10:53:41.954Z,PARTIALLY_SHARED_UNIT_STAR-1-1-1,3,monitoring-unit-1,memory,0.31060791015625
2022-05-10T10:53:51.953Z,PARTIALLY_SHARED_UNIT_STAR-1-1-1,3,monitoring-unit-1,memory,0.3108367919921875
2022-05-10T10:54:01.953Z,PARTIALLY_SHARED_UNIT_STAR-1-1-1,3,monitoring-unit-1,memory,0.3096351623535156
2022-05-10T10:54:11.954Z,PARTIALLY_SHARED_UNIT_STAR-1-1-1,3,monitoring-unit-1,memory,0.30987548828125
2022-05-10T10:54:21.953Z,PARTIALLY_SHARED_UNIT_STAR-1-1-1,3,monitoring-unit-1,memory,0.30986785888671875
2022-05-10T10:54:31.953Z,PARTIALLY_SHARED_UNIT_STAR-1-1-1,3,monitoring-unit-1,memory,0.30986785888671875
2022-05-10T10:54:41.955Z,PARTIALLY_SHARED_UNIT_STAR-1-1-1,3,monitoring-unit-1,memory,0.30986785888671875
2022-05-10T10:54:51.953Z,PARTIALLY_SHARED_UNIT_STAR-1-1-1,3,monitoring-unit-1,memory,0.3098602294921875
2022-05-10T10:55:01.953Z,PARTIALLY_SHARED_UNIT_STAR-1-1-1,3,monitoring-unit-1,memory,0.3101005554199219
2022-05-10T10:55:11.954Z,PARTIALLY_SHARED_UNIT_STAR-1-1-1,3,monitoring-unit-1,memory,0.31034088134765625
2022-05-10T10:55:21.953Z,PARTIALLY_SHARED_UNIT_STAR-1-1-1,3,monitoring-unit-1,memory,0.3110466003417969
2022-05-10T10:55:31.953Z,PARTIALLY_SHARED_UNIT_STAR-1-1-1,3,monitoring-unit-1,memory,0.3110466003417969
2022-05-10T10:55:41.954Z,PARTIALLY_SHARED_UNIT_STAR-1-1-1,3,monitoring-unit-1,memory,0.3110466003417969
2022-05-10T10:55:51.953Z,PARTIALLY_SHARED_UNIT_STAR-1-1-1,3,monitoring-unit-1,memory,0.3134040832519531
2022-05-10T10:56:01.953Z,PARTIALLY_SHARED_UNIT_STAR-1-1-1,3,monitoring-unit-1,memory,0.3134040832519531
2022-05-10T10:56:11.953Z,PARTIALLY_SHARED_UNIT_STAR-1-1-1,3,monitoring-unit-1,memory,0.3124427795410156
2022-05-10T10:56:21.953Z,PARTIALLY_SHARED_UNIT_STAR-1-1-1,3,monitoring-unit-1,memory,0.3124351501464844
2022-05-10T10:56:31.953Z,PARTIALLY_SHARED_UNIT_STAR-1-1-1,3,monitoring-unit-1,memory,0.3124351501464844
2022-05-10T10:56:41.953Z,PARTIALLY_SHARED_UNIT_STAR-1-1-1,3,monitoring-unit-1,memory,0.31219482421875
2022-05-11T12:08:59.376Z,PARTIALLY_SHARED_UNIT_STAR-1-2-1,1,monitoring-unit-1,memory,0.3140716552734375
2022-05-11T12:09:09.376Z,PARTIALLY_SHARED_UNIT_STAR-1-2-1,1,monitoring-unit-1,memory,0.3143119812011719
2022-05-11T12:09:19.377Z,PARTIALLY_SHARED_UNIT_STAR-1-2-1,1,monitoring-unit-1,memory,0.3146171569824219
2022-05-11T12:09:29.376Z,PARTIALLY_SHARED_UNIT_STAR-1-2-1,1,monitoring-unit-1,memory,0.31435394287109375
2022-05-11T12:09:39.376Z,PARTIALLY_SHARED_UNIT_STAR-1-2-1,1,monitoring-unit-1,memory,0.3145942687988281
2022-05-11T12:09:49.376Z,PARTIALLY_SHARED_UNIT_STAR-1-2-1,1,monitoring-unit-1,memory,0.3145942687988281
2022-05-11T12:09:59.376Z,PARTIALLY_SHARED_UNIT_STAR-1-2-1,1,monitoring-unit-1,memory,0.3145866394042969
2022-05-11T12:10:09.376Z,PARTIALLY_SHARED_UNIT_STAR-1-2-1,1,monitoring-unit-1,memory,0.3150672912597656
2022-05-11T12:10:19.379Z,PARTIALLY_SHARED_UNIT_STAR-1-2-1,1,monitoring-unit-1,memory,0.3153076171875
2022-05-11T12:10:29.376Z,PARTIALLY_SHARED_UNIT_STAR-1-2-1,1,monitoring-unit-1,memory,0.3153495788574219
2022-05-11T12:10:39.376Z,PARTIALLY_SHARED_UNIT_STAR-1-2-1,1,monitoring-unit-1,memory,0.3289299011230469
2022-05-11T12:10:49.375Z,PARTIALLY_SHARED_UNIT_STAR-1-2-1,1,monitoring-unit-1,memory,0.3162803649902344
2022-05-11T12:10:59.375Z,PARTIALLY_SHARED_UNIT_STAR-1-2-1,1,monitoring-unit-1,memory,0.31555938720703125
2022-05-11T12:11:09.375Z,PARTIALLY_SHARED_UNIT_STAR-1-2-1,1,monitoring-unit-1,memory,0.3155517578125
2022-05-11T12:11:19.376Z,PARTIALLY_SHARED_UNIT_STAR-1-2-1,1,monitoring-unit-1,memory,0.3155517578125
2022-05-11T12:11:29.376Z,PARTIALLY_SHARED_UNIT_STAR-1-2-1,1,monitoring-unit-1,memory,0.3155517578125
2022-05-11T12:11:39.376Z,PARTIALLY_SHARED_UNIT_STAR-1-2-1,1,monitoring-unit-1,memory,0.3155555725097656
2022-05-11T12:11:49.375Z,PARTIALLY_SHARED_UNIT_STAR-1-2-1,1,monitoring-unit-1,memory,0.3155555725097656
2022-05-11T12:11:59.376Z,PARTIALLY_SHARED_UNIT_STAR-1-2-1,1,monitoring-unit-1,memory,0.3155517578125
2022-05-11T12:12:09.375Z,PARTIALLY_SHARED_UNIT_STAR-1-2-1,1,monitoring-unit-1,memory,0.3157844543457031
2022-05-11T12:12:19.376Z,PARTIALLY_SHARED_UNIT_STAR-1-2-1,1,monitoring-unit-1,memory,0.3157844543457031
2022-05-11T12:12:29.375Z,PARTIALLY_SHARED_UNIT_STAR-1-2-1,1,monitoring-unit-1,memory,0.3157844543457031
2022-05-11T12:12:39.376Z,PARTIALLY_SHARED_UNIT_STAR-1-2-1,1,monitoring-unit-1,memory,0.3157768249511719
2022-05-11T12:12:49.375Z,PARTIALLY_SHARED_UNIT_STAR-1-2-1,1,monitoring-unit-1,memory,0.3157768249511719
2022-05-11T12:12:59.376Z,PARTIALLY_SHARED_UNIT_STAR-1-2-1,1,monitoring-unit-1,memory,0.3157768249511719
2022-05-11T12:13:09.375Z,PARTIALLY_SHARED_UNIT_STAR-1-2-1,1,monitoring-unit-1,memory,0.3157691955566406
2022-05-11T12:13:19.376Z,PARTIALLY_SHARED_UNIT_STAR-1-2-1,1,monitoring-unit-1,memory,0.3157691955566406
2022-05-11T12:13:29.376Z,PARTIALLY_SHARED_UNIT_STAR-1-2-1,1,monitoring-unit-1,memory,0.315765380859375
2022-05-11T12:13:39.376Z,PARTIALLY_SHARED_UNIT_STAR-1-2-1,1,monitoring-unit-1,memory,0.31575775146484375
2022-05-11T12:13:49.376Z,PARTIALLY_SHARED_UNIT_STAR-1-2-1,1,monitoring-unit-1,memory,0.31575775146484375
2022-05-11T12:13:59.376Z,PARTIALLY_SHARED_UNIT_STAR-1-2-1,1,monitoring-unit-1,memory,0.3157691955566406
2022-05-11T12:14:09.376Z,PARTIALLY_SHARED_UNIT_STAR-1-2-1,1,monitoring-unit-1,memory,0.3157615661621094
2022-05-11T12:14:19.375Z,PARTIALLY_SHARED_UNIT_STAR-1-2-1,1,monitoring-unit-1,memory,0.3157615661621094
2022-05-11T12:14:29.376Z,PARTIALLY_SHARED_UNIT_STAR-1-2-1,1,monitoring-unit-1,memory,0.3162422180175781
2022-05-11T12:14:39.376Z,PARTIALLY_SHARED_UNIT_STAR-1-2-1,1,monitoring-unit-1,memory,0.31647491455078125
2022-05-11T12:14:49.375Z,PARTIALLY_SHARED_UNIT_STAR-1-2-1,1,monitoring-unit-1,memory,0.31647491455078125
2022-05-11T12:14:59.376Z,PARTIALLY_SHARED_UNIT_STAR-1-2-1,1,monitoring-unit-1,memory,0.31647491455078125
2022-05-11T12:15:09.376Z,PARTIALLY_SHARED_UNIT_STAR-1-2-1,1,monitoring-unit-1,memory,0.3157463073730469
2022-05-11T12:15:19.376Z,PARTIALLY_SHARED_UNIT_STAR-1-2-1,1,monitoring-unit-1,memory,0.3157463073730469
2022-05-11T12:15:29.376Z,PARTIALLY_SHARED_UNIT_STAR-1-2-1,1,monitoring-unit-1,memory,0.31574249267578125
2022-05-11T12:15:39.376Z,PARTIALLY_SHARED_UNIT_STAR-1-2-1,1,monitoring-unit-1,memory,0.3159675598144531
2022-05-11T12:15:49.376Z,PARTIALLY_SHARED_UNIT_STAR-1-2-1,1,monitoring-unit-1,memory,0.3159675598144531
2022-05-11T12:15:59.376Z,PARTIALLY_SHARED_UNIT_STAR-1-2-1,1,monitoring-unit-1,memory,0.3159599304199219
2022-05-11T12:16:09.376Z,PARTIALLY_SHARED_UNIT_STAR-1-2-1,1,monitoring-unit-1,memory,0.316680908203125
2022-05-11T12:16:19.376Z,PARTIALLY_SHARED_UNIT_STAR-1-2-1,1,monitoring-unit-1,memory,0.316680908203125
2022-05-11T12:16:29.376Z,PARTIALLY_SHARED_UNIT_STAR-1-2-1,1,monitoring-unit-1,memory,0.31667327880859375
2022-05-11T12:16:39.376Z,PARTIALLY_SHARED_UNIT_STAR-1-2-1,1,monitoring-unit-1,memory,0.3169136047363281
2022-05-11T12:16:49.375Z,PARTIALLY_SHARED_UNIT_STAR-1-2-1,1,monitoring-unit-1,memory,0.3169136047363281
2022-05-11T12:16:59.376Z,PARTIALLY_SHARED_UNIT_STAR-1-2-1,1,monitoring-unit-1,memory,0.31885528564453125
2022-05-11T12:17:09.376Z,PARTIALLY_SHARED_UNIT_STAR-1-2-1,1,monitoring-unit-1,memory,0.3192253112792969
2022-05-11T12:17:19.375Z,PARTIALLY_SHARED_UNIT_STAR-1-2-1,1,monitoring-unit-1,memory,0.31850433349609375
2022-05-11T12:17:29.376Z,PARTIALLY_SHARED_UNIT_STAR-1-2-1,1,monitoring-unit-1,memory,0.3184967041015625
2022-05-11T12:17:39.376Z,PARTIALLY_SHARED_UNIT_STAR-1-2-1,1,monitoring-unit-1,memory,0.3187370300292969
2022-05-11T12:17:49.375Z,PARTIALLY_SHARED_UNIT_STAR-1-2-1,1,monitoring-unit-1,memory,0.3187370300292969
2022-05-11T12:17:59.375Z,PARTIALLY_SHARED_UNIT_STAR-1-2-1,1,monitoring-unit-1,memory,0.3187294006347656
2022-05-11T12:18:09.376Z,PARTIALLY_SHARED_UNIT_STAR-1-2-1,1,monitoring-unit-1,memory,0.3189697265625
2022-05-11T12:18:19.380Z,PARTIALLY_SHARED_UNIT_STAR-1-2-1,1,monitoring-unit-1,memory,0.3189697265625
2022-05-11T12:18:29.376Z,PARTIALLY_SHARED_UNIT_STAR-1-2-1,1,monitoring-unit-1,memory,0.31896209716796875
2022-05-11T12:18:39.376Z,PARTIALLY_SHARED_UNIT_STAR-1-2-1,1,monitoring-unit-1,memory,0.31896209716796875
2022-05-11T12:18:49.376Z,PARTIALLY_SHARED_UNIT_STAR-1-2-1,1,monitoring-unit-1,memory,0.31896209716796875
2022-05-11T12:20:32.987Z,PARTIALLY_SHARED_UNIT_STAR-1-2-1,2,monitoring-unit-1,memory,0.31304931640625
2022-05-11T12:20:42.987Z,PARTIALLY_SHARED_UNIT_STAR-1-2-1,2,monitoring-unit-1,memory,0.31695556640625
2022-05-11T12:20:52.990Z,PARTIALLY_SHARED_UNIT_STAR-1-2-1,2,monitoring-unit-1,memory,0.3177070617675781
2022-05-11T12:21:02.987Z,PARTIALLY_SHARED_UNIT_STAR-1-2-1,2,monitoring-unit-1,memory,0.31813812255859375
2022-05-11T12:21:12.987Z,PARTIALLY_SHARED_UNIT_STAR-1-2-1,2,monitoring-unit-1,memory,0.31813812255859375
2022-05-11T12:21:22.989Z,PARTIALLY_SHARED_UNIT_STAR-1-2-1,2,monitoring-unit-1,memory,0.31813812255859375
2022-05-11T12:21:32.987Z,PARTIALLY_SHARED_UNIT_STAR-1-2-1,2,monitoring-unit-1,memory,0.3183708190917969
2022-05-11T12:21:42.987Z,PARTIALLY_SHARED_UNIT_STAR-1-2-1,2,monitoring-unit-1,memory,0.3183708190917969
2022-05-11T12:21:52.988Z,PARTIALLY_SHARED_UNIT_STAR-1-2-1,2,monitoring-unit-1,memory,0.3183708190917969
2022-05-11T12:22:02.987Z,PARTIALLY_SHARED_UNIT_STAR-1-2-1,2,monitoring-unit-1,memory,0.3183631896972656
2022-05-11T12:22:12.987Z,PARTIALLY_SHARED_UNIT_STAR-1-2-1,2,monitoring-unit-1,memory,0.3183631896972656
2022-05-11T12:22:22.988Z,PARTIALLY_SHARED_UNIT_STAR-1-2-1,2,monitoring-unit-1,memory,0.3183631896972656
2022-05-11T12:22:32.987Z,PARTIALLY_SHARED_UNIT_STAR-1-2-1,2,monitoring-unit-1,memory,0.31884765625
2022-05-11T12:22:42.987Z,PARTIALLY_SHARED_UNIT_STAR-1-2-1,2,monitoring-unit-1,memory,0.3188323974609375
2022-05-11T12:22:52.989Z,PARTIALLY_SHARED_UNIT_STAR-1-2-1,2,monitoring-unit-1,memory,0.3190727233886719
2022-05-11T12:23:02.987Z,PARTIALLY_SHARED_UNIT_STAR-1-2-1,2,monitoring-unit-1,memory,0.3195457458496094
2022-05-11T12:23:12.987Z,PARTIALLY_SHARED_UNIT_STAR-1-2-1,2,monitoring-unit-1,memory,0.3195457458496094
2022-05-11T12:23:22.990Z,PARTIALLY_SHARED_UNIT_STAR-1-2-1,2,monitoring-unit-1,memory,0.3195457458496094
2022-05-11T12:23:32.987Z,PARTIALLY_SHARED_UNIT_STAR-1-2-1,2,monitoring-unit-1,memory,0.3195381164550781
2022-05-11T12:23:42.987Z,PARTIALLY_SHARED_UNIT_STAR-1-2-1,2,monitoring-unit-1,memory,0.3195381164550781
2022-05-11T12:23:52.989Z,PARTIALLY_SHARED_UNIT_STAR-1-2-1,2,monitoring-unit-1,memory,0.3195381164550781
2022-05-11T12:24:02.987Z,PARTIALLY_SHARED_UNIT_STAR-1-2-1,2,monitoring-unit-1,memory,0.31858062744140625
2022-05-11T12:24:12.987Z,PARTIALLY_SHARED_UNIT_STAR-1-2-1,2,monitoring-unit-1,memory,0.31856536865234375
2022-05-11T12:24:22.988Z,PARTIALLY_SHARED_UNIT_STAR-1-2-1,2,monitoring-unit-1,memory,0.31856536865234375
2022-05-11T12:24:32.987Z,PARTIALLY_SHARED_UNIT_STAR-1-2-1,2,monitoring-unit-1,memory,0.31856536865234375
2022-05-11T12:24:42.987Z,PARTIALLY_SHARED_UNIT_STAR-1-2-1,2,monitoring-unit-1,memory,0.3185577392578125
2022-05-11T12:24:52.989Z,PARTIALLY_SHARED_UNIT_STAR-1-2-1,2,monitoring-unit-1,memory,0.3185577392578125
2022-05-11T12:25:02.987Z,PARTIALLY_SHARED_UNIT_STAR-1-2-1,2,monitoring-unit-1,memory,0.31856536865234375
2022-05-11T12:25:12.987Z,PARTIALLY_SHARED_UNIT_STAR-1-2-1,2,monitoring-unit-1,memory,0.31855010986328125
2022-05-11T12:25:22.987Z,PARTIALLY_SHARED_UNIT_STAR-1-2-1,2,monitoring-unit-1,memory,0.318511962890625
2022-05-11T12:25:32.987Z,PARTIALLY_SHARED_UNIT_STAR-1-2-1,2,monitoring-unit-1,memory,0.3184967041015625
2022-05-11T12:25:42.987Z,PARTIALLY_SHARED_UNIT_STAR-1-2-1,2,monitoring-unit-1,memory,0.3184967041015625
2022-05-11T12:25:52.987Z,PARTIALLY_SHARED_UNIT_STAR-1-2-1,2,monitoring-unit-1,memory,0.3184967041015625
2022-05-11T12:26:02.987Z,PARTIALLY_SHARED_UNIT_STAR-1-2-1,2,monitoring-unit-1,memory,0.3184928894042969
2022-05-11T12:26:12.988Z,PARTIALLY_SHARED_UNIT_STAR-1-2-1,2,monitoring-unit-1,memory,0.3184776306152344
2022-05-11T12:26:22.988Z,PARTIALLY_SHARED_UNIT_STAR-1-2-1,2,monitoring-unit-1,memory,0.3184776306152344
2022-05-11T12:26:32.987Z,PARTIALLY_SHARED_UNIT_STAR-1-2-1,2,monitoring-unit-1,memory,0.3184776306152344
2022-05-11T12:26:42.987Z,PARTIALLY_SHARED_UNIT_STAR-1-2-1,2,monitoring-unit-1,memory,0.3184700012207031
2022-05-11T12:26:52.989Z,PARTIALLY_SHARED_UNIT_STAR-1-2-1,2,monitoring-unit-1,memory,0.3184700012207031
2022-05-11T12:27:02.987Z,PARTIALLY_SHARED_UNIT_STAR-1-2-1,2,monitoring-unit-1,memory,0.3194389343261719
2022-05-11T12:27:12.987Z,PARTIALLY_SHARED_UNIT_STAR-1-2-1,2,monitoring-unit-1,memory,0.3194236755371094
2022-05-11T12:27:22.991Z,PARTIALLY_SHARED_UNIT_STAR-1-2-1,2,monitoring-unit-1,memory,0.3194236755371094
2022-05-11T12:27:32.987Z,PARTIALLY_SHARED_UNIT_STAR-1-2-1,2,monitoring-unit-1,memory,0.3196601867675781
2022-05-11T12:27:42.987Z,PARTIALLY_SHARED_UNIT_STAR-1-2-1,2,monitoring-unit-1,memory,0.3186912536621094
2022-05-11T12:27:52.988Z,PARTIALLY_SHARED_UNIT_STAR-1-2-1,2,monitoring-unit-1,memory,0.3186912536621094
2022-05-11T12:28:02.987Z,PARTIALLY_SHARED_UNIT_STAR-1-2-1,2,monitoring-unit-1,memory,0.3186988830566406
2022-05-11T12:28:12.987Z,PARTIALLY_SHARED_UNIT_STAR-1-2-1,2,monitoring-unit-1,memory,0.3186836242675781
2022-05-11T12:28:22.987Z,PARTIALLY_SHARED_UNIT_STAR-1-2-1,2,monitoring-unit-1,memory,0.3186836242675781
2022-05-11T12:28:32.987Z,PARTIALLY_SHARED_UNIT_STAR-1-2-1,2,monitoring-unit-1,memory,0.3189239501953125
2022-05-11T12:28:42.988Z,PARTIALLY_SHARED_UNIT_STAR-1-2-1,2,monitoring-unit-1,memory,0.31891632080078125
2022-05-11T12:28:52.988Z,PARTIALLY_SHARED_UNIT_STAR-1-2-1,2,monitoring-unit-1,memory,0.31891632080078125
2022-05-11T12:29:02.987Z,PARTIALLY_SHARED_UNIT_STAR-1-2-1,2,monitoring-unit-1,memory,0.3196372985839844
2022-05-11T12:29:12.987Z,PARTIALLY_SHARED_UNIT_STAR-1-2-1,2,monitoring-unit-1,memory,0.3196296691894531
2022-05-11T12:29:22.989Z,PARTIALLY_SHARED_UNIT_STAR-1-2-1,2,monitoring-unit-1,memory,0.3186683654785156
2022-05-11T12:29:32.987Z,PARTIALLY_SHARED_UNIT_STAR-1-2-1,2,monitoring-unit-1,memory,0.31866455078125
2022-05-11T12:29:42.987Z,PARTIALLY_SHARED_UNIT_STAR-1-2-1,2,monitoring-unit-1,memory,0.31865692138671875
2022-05-11T12:29:52.987Z,PARTIALLY_SHARED_UNIT_STAR-1-2-1,2,monitoring-unit-1,memory,0.31865692138671875
2022-05-11T12:30:02.988Z,PARTIALLY_SHARED_UNIT_STAR-1-2-1,2,monitoring-unit-1,memory,0.31865692138671875
2022-05-11T12:30:12.987Z,PARTIALLY_SHARED_UNIT_STAR-1-2-1,2,monitoring-unit-1,memory,0.3186492919921875
2022-05-11T12:30:22.988Z,PARTIALLY_SHARED_UNIT_STAR-1-2-1,2,monitoring-unit-1,memory,0.31912994384765625
2022-05-11T12:32:04.777Z,PARTIALLY_SHARED_UNIT_STAR-1-2-1,3,monitoring-unit-1,memory,0.31720733642578125
2022-05-11T12:32:14.776Z,PARTIALLY_SHARED_UNIT_STAR-1-2-1,3,monitoring-unit-1,memory,0.31723785400390625
2022-05-11T12:32:24.781Z,PARTIALLY_SHARED_UNIT_STAR-1-2-1,3,monitoring-unit-1,memory,0.3174781799316406
2022-05-11T12:32:34.777Z,PARTIALLY_SHARED_UNIT_STAR-1-2-1,3,monitoring-unit-1,memory,0.3174781799316406
2022-05-11T12:32:44.777Z,PARTIALLY_SHARED_UNIT_STAR-1-2-1,3,monitoring-unit-1,memory,0.3174705505371094
2022-05-11T12:32:54.778Z,PARTIALLY_SHARED_UNIT_STAR-1-2-1,3,monitoring-unit-1,memory,0.3175010681152344
2022-05-11T12:33:04.777Z,PARTIALLY_SHARED_UNIT_STAR-1-2-1,3,monitoring-unit-1,memory,0.31749725341796875
2022-05-11T12:33:14.777Z,PARTIALLY_SHARED_UNIT_STAR-1-2-1,3,monitoring-unit-1,memory,0.3174896240234375
2022-05-11T12:33:24.778Z,PARTIALLY_SHARED_UNIT_STAR-1-2-1,3,monitoring-unit-1,memory,0.3174896240234375
2022-05-11T12:33:34.777Z,PARTIALLY_SHARED_UNIT_STAR-1-2-1,3,monitoring-unit-1,memory,0.3177299499511719
2022-05-11T12:33:44.777Z,PARTIALLY_SHARED_UNIT_STAR-1-2-1,3,monitoring-unit-1,memory,0.3177223205566406
2022-05-11T12:33:54.777Z,PARTIALLY_SHARED_UNIT_STAR-1-2-1,3,monitoring-unit-1,memory,0.31748199462890625
2022-05-11T12:34:04.777Z,PARTIALLY_SHARED_UNIT_STAR-1-2-1,3,monitoring-unit-1,memory,0.31748199462890625
2022-05-11T12:34:14.777Z,PARTIALLY_SHARED_UNIT_STAR-1-2-1,3,monitoring-unit-1,memory,0.317474365234375
2022-05-11T12:34:24.779Z,PARTIALLY_SHARED_UNIT_STAR-1-2-1,3,monitoring-unit-1,memory,0.3177146911621094
2022-05-11T12:34:34.776Z,PARTIALLY_SHARED_UNIT_STAR-1-2-1,3,monitoring-unit-1,memory,0.31867218017578125
2022-05-11T12:34:44.777Z,PARTIALLY_SHARED_UNIT_STAR-1-2-1,3,monitoring-unit-1,memory,0.31866455078125
2022-05-11T12:34:54.780Z,PARTIALLY_SHARED_UNIT_STAR-1-2-1,3,monitoring-unit-1,memory,0.31866455078125
2022-05-11T12:35:04.777Z,PARTIALLY_SHARED_UNIT_STAR-1-2-1,3,monitoring-unit-1,memory,0.31866455078125
2022-05-11T12:35:14.777Z,PARTIALLY_SHARED_UNIT_STAR-1-2-1,3,monitoring-unit-1,memory,0.31865692138671875
2022-05-11T12:35:24.778Z,PARTIALLY_SHARED_UNIT_STAR-1-2-1,3,monitoring-unit-1,memory,0.31865692138671875
2022-05-11T12:35:34.776Z,PARTIALLY_SHARED_UNIT_STAR-1-2-1,3,monitoring-unit-1,memory,0.31769561767578125
2022-05-11T12:35:44.776Z,PARTIALLY_SHARED_UNIT_STAR-1-2-1,3,monitoring-unit-1,memory,0.3176841735839844
2022-05-11T12:35:54.785Z,PARTIALLY_SHARED_UNIT_STAR-1-2-1,3,monitoring-unit-1,memory,0.3176841735839844
2022-05-11T12:36:04.777Z,PARTIALLY_SHARED_UNIT_STAR-1-2-1,3,monitoring-unit-1,memory,0.3174400329589844
2022-05-11T12:36:14.777Z,PARTIALLY_SHARED_UNIT_STAR-1-2-1,3,monitoring-unit-1,memory,0.3174324035644531
2022-05-11T12:36:24.777Z,PARTIALLY_SHARED_UNIT_STAR-1-2-1,3,monitoring-unit-1,memory,0.3174171447753906
2022-05-11T12:36:34.777Z,PARTIALLY_SHARED_UNIT_STAR-1-2-1,3,monitoring-unit-1,memory,0.3186149597167969
2022-05-11T12:36:44.776Z,PARTIALLY_SHARED_UNIT_STAR-1-2-1,3,monitoring-unit-1,memory,0.3186149597167969
2022-05-11T12:36:54.778Z,PARTIALLY_SHARED_UNIT_STAR-1-2-1,3,monitoring-unit-1,memory,0.3186149597167969
2022-05-11T12:37:04.777Z,PARTIALLY_SHARED_UNIT_STAR-1-2-1,3,monitoring-unit-1,memory,0.3186149597167969
2022-05-11T12:37:14.777Z,PARTIALLY_SHARED_UNIT_STAR-1-2-1,3,monitoring-unit-1,memory,0.3176536560058594
2022-05-11T12:37:24.778Z,PARTIALLY_SHARED_UNIT_STAR-1-2-1,3,monitoring-unit-1,memory,0.3176536560058594
2022-05-11T12:37:34.777Z,PARTIALLY_SHARED_UNIT_STAR-1-2-1,3,monitoring-unit-1,memory,0.3178863525390625
2022-05-11T12:37:44.776Z,PARTIALLY_SHARED_UNIT_STAR-1-2-1,3,monitoring-unit-1,memory,0.3178863525390625
2022-05-11T12:37:54.777Z,PARTIALLY_SHARED_UNIT_STAR-1-2-1,3,monitoring-unit-1,memory,0.3178863525390625
2022-05-11T12:38:04.776Z,PARTIALLY_SHARED_UNIT_STAR-1-2-1,3,monitoring-unit-1,memory,0.3178749084472656
2022-05-11T12:38:14.777Z,PARTIALLY_SHARED_UNIT_STAR-1-2-1,3,monitoring-unit-1,memory,0.318115234375
2022-05-11T12:38:24.778Z,PARTIALLY_SHARED_UNIT_STAR-1-2-1,3,monitoring-unit-1,memory,0.318115234375
2022-05-11T12:38:34.777Z,PARTIALLY_SHARED_UNIT_STAR-1-2-1,3,monitoring-unit-1,memory,0.3185882568359375
2022-05-11T12:38:44.777Z,PARTIALLY_SHARED_UNIT_STAR-1-2-1,3,monitoring-unit-1,memory,0.3185882568359375
2022-05-11T12:38:54.778Z,PARTIALLY_SHARED_UNIT_STAR-1-2-1,3,monitoring-unit-1,memory,0.317626953125
2022-05-11T12:39:04.776Z,PARTIALLY_SHARED_UNIT_STAR-1-2-1,3,monitoring-unit-1,memory,0.31761932373046875
2022-05-11T12:39:14.776Z,PARTIALLY_SHARED_UNIT_STAR-1-2-1,3,monitoring-unit-1,memory,0.31761932373046875
2022-05-11T12:39:24.778Z,PARTIALLY_SHARED_UNIT_STAR-1-2-1,3,monitoring-unit-1,memory,0.31761932373046875
2022-05-11T12:39:34.777Z,PARTIALLY_SHARED_UNIT_STAR-1-2-1,3,monitoring-unit-1,memory,0.3180885314941406
2022-05-11T12:39:44.776Z,PARTIALLY_SHARED_UNIT_STAR-1-2-1,3,monitoring-unit-1,memory,0.3180885314941406
2022-05-11T12:39:54.777Z,PARTIALLY_SHARED_UNIT_STAR-1-2-1,3,monitoring-unit-1,memory,0.31880950927734375
2022-05-11T12:40:04.777Z,PARTIALLY_SHARED_UNIT_STAR-1-2-1,3,monitoring-unit-1,memory,0.3190422058105469
2022-05-11T12:40:14.777Z,PARTIALLY_SHARED_UNIT_STAR-1-2-1,3,monitoring-unit-1,memory,0.3190422058105469
2022-05-11T12:40:24.781Z,PARTIALLY_SHARED_UNIT_STAR-1-2-1,3,monitoring-unit-1,memory,0.31928253173828125
2022-05-11T12:40:34.777Z,PARTIALLY_SHARED_UNIT_STAR-1-2-1,3,monitoring-unit-1,memory,0.31927490234375
2022-05-11T12:40:44.776Z,PARTIALLY_SHARED_UNIT_STAR-1-2-1,3,monitoring-unit-1,memory,0.31927490234375
2022-05-11T12:40:54.778Z,PARTIALLY_SHARED_UNIT_STAR-1-2-1,3,monitoring-unit-1,memory,0.31927490234375
2022-05-11T12:41:04.777Z,PARTIALLY_SHARED_UNIT_STAR-1-2-1,3,monitoring-unit-1,memory,0.3180656433105469
2022-05-11T12:41:14.777Z,PARTIALLY_SHARED_UNIT_STAR-1-2-1,3,monitoring-unit-1,memory,0.3180656433105469
2022-05-11T12:41:24.778Z,PARTIALLY_SHARED_UNIT_STAR-1-2-1,3,monitoring-unit-1,memory,0.3180656433105469
2022-05-11T12:41:34.777Z,PARTIALLY_SHARED_UNIT_STAR-1-2-1,3,monitoring-unit-1,memory,0.3178138732910156
2022-05-11T12:41:44.777Z,PARTIALLY_SHARED_UNIT_STAR-1-2-1,3,monitoring-unit-1,memory,0.3178138732910156
2022-05-11T12:41:54.777Z,PARTIALLY_SHARED_UNIT_STAR-1-2-1,3,monitoring-unit-1,memory,0.3178138732910156
2022-05-11T12:43:44.934Z,PARTIALLY_SHARED_UNIT_STAR-1-4-1,1,monitoring-unit-1,memory,0.31916046142578125
2022-05-11T12:43:54.934Z,PARTIALLY_SHARED_UNIT_STAR-1-4-1,1,monitoring-unit-1,memory,0.31916046142578125
2022-05-11T12:44:04.941Z,PARTIALLY_SHARED_UNIT_STAR-1-4-1,1,monitoring-unit-1,memory,0.3199043273925781
2022-05-11T12:44:14.934Z,PARTIALLY_SHARED_UNIT_STAR-1-4-1,1,monitoring-unit-1,memory,0.3199043273925781
2022-05-11T12:44:24.934Z,PARTIALLY_SHARED_UNIT_STAR-1-4-1,1,monitoring-unit-1,memory,0.3199043273925781
2022-05-11T12:44:34.942Z,PARTIALLY_SHARED_UNIT_STAR-1-4-1,1,monitoring-unit-1,memory,0.3201446533203125
2022-05-11T12:44:44.934Z,PARTIALLY_SHARED_UNIT_STAR-1-4-1,1,monitoring-unit-1,memory,0.32013702392578125
2022-05-11T12:44:54.934Z,PARTIALLY_SHARED_UNIT_STAR-1-4-1,1,monitoring-unit-1,memory,0.32013702392578125
2022-05-11T12:45:04.935Z,PARTIALLY_SHARED_UNIT_STAR-1-4-1,1,monitoring-unit-1,memory,0.32013702392578125
2022-05-11T12:45:14.934Z,PARTIALLY_SHARED_UNIT_STAR-1-4-1,1,monitoring-unit-1,memory,0.31988525390625
2022-05-11T12:45:24.934Z,PARTIALLY_SHARED_UNIT_STAR-1-4-1,1,monitoring-unit-1,memory,0.31988525390625
2022-05-11T12:45:34.934Z,PARTIALLY_SHARED_UNIT_STAR-1-4-1,1,monitoring-unit-1,memory,0.3203620910644531
2022-05-11T12:45:44.934Z,PARTIALLY_SHARED_UNIT_STAR-1-4-1,1,monitoring-unit-1,memory,0.3198738098144531
2022-05-11T12:45:54.934Z,PARTIALLY_SHARED_UNIT_STAR-1-4-1,1,monitoring-unit-1,memory,0.3198738098144531
2022-05-11T12:46:04.936Z,PARTIALLY_SHARED_UNIT_STAR-1-4-1,1,monitoring-unit-1,memory,0.32059478759765625
2022-05-11T12:46:14.934Z,PARTIALLY_SHARED_UNIT_STAR-1-4-1,1,monitoring-unit-1,memory,0.3199272155761719
2022-05-11T12:46:24.934Z,PARTIALLY_SHARED_UNIT_STAR-1-4-1,1,monitoring-unit-1,memory,0.3199272155761719
2022-05-11T12:46:34.935Z,PARTIALLY_SHARED_UNIT_STAR-1-4-1,1,monitoring-unit-1,memory,0.3208732604980469
2022-05-11T12:46:44.934Z,PARTIALLY_SHARED_UNIT_STAR-1-4-1,1,monitoring-unit-1,memory,0.32038116455078125
2022-05-11T12:46:54.934Z,PARTIALLY_SHARED_UNIT_STAR-1-4-1,1,monitoring-unit-1,memory,0.32038116455078125
2022-05-11T12:47:04.935Z,PARTIALLY_SHARED_UNIT_STAR-1-4-1,1,monitoring-unit-1,memory,0.32086181640625
2022-05-11T12:47:14.934Z,PARTIALLY_SHARED_UNIT_STAR-1-4-1,1,monitoring-unit-1,memory,0.3201332092285156
2022-05-11T12:47:24.934Z,PARTIALLY_SHARED_UNIT_STAR-1-4-1,1,monitoring-unit-1,memory,0.3201332092285156
2022-05-11T12:47:34.936Z,PARTIALLY_SHARED_UNIT_STAR-1-4-1,1,monitoring-unit-1,memory,0.32085418701171875
2022-05-11T12:47:44.934Z,PARTIALLY_SHARED_UNIT_STAR-1-4-1,1,monitoring-unit-1,memory,0.32036590576171875
2022-05-11T12:47:54.934Z,PARTIALLY_SHARED_UNIT_STAR-1-4-1,1,monitoring-unit-1,memory,0.32036590576171875
2022-05-11T12:48:04.935Z,PARTIALLY_SHARED_UNIT_STAR-1-4-1,1,monitoring-unit-1,memory,0.3210868835449219
2022-05-11T12:48:14.934Z,PARTIALLY_SHARED_UNIT_STAR-1-4-1,1,monitoring-unit-1,memory,0.3201179504394531
2022-05-11T12:48:24.934Z,PARTIALLY_SHARED_UNIT_STAR-1-4-1,1,monitoring-unit-1,memory,0.3201179504394531
2022-05-11T12:48:34.935Z,PARTIALLY_SHARED_UNIT_STAR-1-4-1,1,monitoring-unit-1,memory,0.3208045959472656
2022-05-11T12:48:44.934Z,PARTIALLY_SHARED_UNIT_STAR-1-4-1,1,monitoring-unit-1,memory,0.3205604553222656
2022-05-11T12:48:54.934Z,PARTIALLY_SHARED_UNIT_STAR-1-4-1,1,monitoring-unit-1,memory,0.3205604553222656
2022-05-11T12:49:04.935Z,PARTIALLY_SHARED_UNIT_STAR-1-4-1,1,monitoring-unit-1,memory,0.32080078125
2022-05-11T12:49:14.934Z,PARTIALLY_SHARED_UNIT_STAR-1-4-1,1,monitoring-unit-1,memory,0.32079315185546875
2022-05-11T12:49:24.934Z,PARTIALLY_SHARED_UNIT_STAR-1-4-1,1,monitoring-unit-1,memory,0.32079315185546875
2022-05-11T12:49:34.935Z,PARTIALLY_SHARED_UNIT_STAR-1-4-1,1,monitoring-unit-1,memory,0.3210334777832031
2022-05-11T12:49:44.934Z,PARTIALLY_SHARED_UNIT_STAR-1-4-1,1,monitoring-unit-1,memory,0.3210258483886719
2022-05-11T12:49:54.934Z,PARTIALLY_SHARED_UNIT_STAR-1-4-1,1,monitoring-unit-1,memory,0.32030487060546875
2022-05-11T12:50:04.935Z,PARTIALLY_SHARED_UNIT_STAR-1-4-1,1,monitoring-unit-1,memory,0.32030487060546875
2022-05-11T12:50:14.934Z,PARTIALLY_SHARED_UNIT_STAR-1-4-1,1,monitoring-unit-1,memory,0.3202934265136719
2022-05-11T12:50:24.934Z,PARTIALLY_SHARED_UNIT_STAR-1-4-1,1,monitoring-unit-1,memory,0.3202934265136719
2022-05-11T12:50:34.935Z,PARTIALLY_SHARED_UNIT_STAR-1-4-1,1,monitoring-unit-1,memory,0.3207740783691406
2022-05-11T12:50:44.934Z,PARTIALLY_SHARED_UNIT_STAR-1-4-1,1,monitoring-unit-1,memory,0.3207664489746094
2022-05-11T12:50:54.934Z,PARTIALLY_SHARED_UNIT_STAR-1-4-1,1,monitoring-unit-1,memory,0.3217277526855469
2022-05-11T12:51:04.935Z,PARTIALLY_SHARED_UNIT_STAR-1-4-1,1,monitoring-unit-1,memory,0.32196807861328125
2022-05-11T12:51:14.934Z,PARTIALLY_SHARED_UNIT_STAR-1-4-1,1,monitoring-unit-1,memory,0.32196044921875
2022-05-11T12:51:24.934Z,PARTIALLY_SHARED_UNIT_STAR-1-4-1,1,monitoring-unit-1,memory,0.32196044921875
2022-05-11T12:51:34.935Z,PARTIALLY_SHARED_UNIT_STAR-1-4-1,1,monitoring-unit-1,memory,0.320037841796875
2022-05-11T12:51:44.934Z,PARTIALLY_SHARED_UNIT_STAR-1-4-1,1,monitoring-unit-1,memory,0.3200225830078125
2022-05-11T12:51:54.933Z,PARTIALLY_SHARED_UNIT_STAR-1-4-1,1,monitoring-unit-1,memory,0.3202629089355469
2022-05-11T12:52:04.935Z,PARTIALLY_SHARED_UNIT_STAR-1-4-1,1,monitoring-unit-1,memory,0.32098388671875
2022-05-11T12:52:14.934Z,PARTIALLY_SHARED_UNIT_STAR-1-4-1,1,monitoring-unit-1,memory,0.3209724426269531
2022-05-11T12:52:24.934Z,PARTIALLY_SHARED_UNIT_STAR-1-4-1,1,monitoring-unit-1,memory,0.3209724426269531
2022-05-11T12:52:34.935Z,PARTIALLY_SHARED_UNIT_STAR-1-4-1,1,monitoring-unit-1,memory,0.3219337463378906
2022-05-11T12:52:44.933Z,PARTIALLY_SHARED_UNIT_STAR-1-4-1,1,monitoring-unit-1,memory,0.3219261169433594
2022-05-11T12:52:54.934Z,PARTIALLY_SHARED_UNIT_STAR-1-4-1,1,monitoring-unit-1,memory,0.3219261169433594
2022-05-11T12:53:04.937Z,PARTIALLY_SHARED_UNIT_STAR-1-4-1,1,monitoring-unit-1,memory,0.3219261169433594
2022-05-11T12:53:14.934Z,PARTIALLY_SHARED_UNIT_STAR-1-4-1,1,monitoring-unit-1,memory,0.321197509765625
2022-05-11T12:53:24.934Z,PARTIALLY_SHARED_UNIT_STAR-1-4-1,1,monitoring-unit-1,memory,0.321197509765625
2022-05-11T12:53:34.934Z,PARTIALLY_SHARED_UNIT_STAR-1-4-1,1,monitoring-unit-1,memory,0.321197509765625
2022-05-11T12:55:26.707Z,PARTIALLY_SHARED_UNIT_STAR-1-4-1,2,monitoring-unit-1,memory,0.31797027587890625
2022-05-11T12:55:36.707Z,PARTIALLY_SHARED_UNIT_STAR-1-4-1,2,monitoring-unit-1,memory,0.32004547119140625
2022-05-11T12:55:46.711Z,PARTIALLY_SHARED_UNIT_STAR-1-4-1,2,monitoring-unit-1,memory,0.31871795654296875
2022-05-11T12:55:56.707Z,PARTIALLY_SHARED_UNIT_STAR-1-4-1,2,monitoring-unit-1,memory,0.31847381591796875
2022-05-11T12:56:06.707Z,PARTIALLY_SHARED_UNIT_STAR-1-4-1,2,monitoring-unit-1,memory,0.31847381591796875
2022-05-11T12:56:16.710Z,PARTIALLY_SHARED_UNIT_STAR-1-4-1,2,monitoring-unit-1,memory,0.3187141418457031
2022-05-11T12:56:26.706Z,PARTIALLY_SHARED_UNIT_STAR-1-4-1,2,monitoring-unit-1,memory,0.3187370300292969
2022-05-11T12:56:36.707Z,PARTIALLY_SHARED_UNIT_STAR-1-4-1,2,monitoring-unit-1,memory,0.3200111389160156
2022-05-11T12:56:46.707Z,PARTIALLY_SHARED_UNIT_STAR-1-4-1,2,monitoring-unit-1,memory,0.31873321533203125
2022-05-11T12:56:56.707Z,PARTIALLY_SHARED_UNIT_STAR-1-4-1,2,monitoring-unit-1,memory,0.3184814453125
2022-05-11T12:57:06.706Z,PARTIALLY_SHARED_UNIT_STAR-1-4-1,2,monitoring-unit-1,memory,0.3184547424316406
2022-05-11T12:57:16.707Z,PARTIALLY_SHARED_UNIT_STAR-1-4-1,2,monitoring-unit-1,memory,0.3184547424316406
2022-05-11T12:57:26.707Z,PARTIALLY_SHARED_UNIT_STAR-1-4-1,2,monitoring-unit-1,memory,0.3184471130371094
2022-05-11T12:57:36.707Z,PARTIALLY_SHARED_UNIT_STAR-1-4-1,2,monitoring-unit-1,memory,0.3189277648925781
2022-05-11T12:57:46.707Z,PARTIALLY_SHARED_UNIT_STAR-1-4-1,2,monitoring-unit-1,memory,0.3189277648925781
2022-05-11T12:57:56.706Z,PARTIALLY_SHARED_UNIT_STAR-1-4-1,2,monitoring-unit-1,memory,0.3194007873535156
2022-05-11T12:58:06.706Z,PARTIALLY_SHARED_UNIT_STAR-1-4-1,2,monitoring-unit-1,memory,0.31964111328125
2022-05-11T12:58:16.706Z,PARTIALLY_SHARED_UNIT_STAR-1-4-1,2,monitoring-unit-1,memory,0.31964111328125
2022-05-11T12:58:26.706Z,PARTIALLY_SHARED_UNIT_STAR-1-4-1,2,monitoring-unit-1,memory,0.31963348388671875
2022-05-11T12:58:36.707Z,PARTIALLY_SHARED_UNIT_STAR-1-4-1,2,monitoring-unit-1,memory,0.31867218017578125
2022-05-11T12:58:46.706Z,PARTIALLY_SHARED_UNIT_STAR-1-4-1,2,monitoring-unit-1,memory,0.3189125061035156
2022-05-11T12:58:56.707Z,PARTIALLY_SHARED_UNIT_STAR-1-4-1,2,monitoring-unit-1,memory,0.3191375732421875
2022-05-11T12:59:06.707Z,PARTIALLY_SHARED_UNIT_STAR-1-4-1,2,monitoring-unit-1,memory,0.3193778991699219
2022-05-11T12:59:16.707Z,PARTIALLY_SHARED_UNIT_STAR-1-4-1,2,monitoring-unit-1,memory,0.3193778991699219
2022-05-11T12:59:26.706Z,PARTIALLY_SHARED_UNIT_STAR-1-4-1,2,monitoring-unit-1,memory,0.3193702697753906
2022-05-11T12:59:36.706Z,PARTIALLY_SHARED_UNIT_STAR-1-4-1,2,monitoring-unit-1,memory,0.3205718994140625
2022-05-11T12:59:46.706Z,PARTIALLY_SHARED_UNIT_STAR-1-4-1,2,monitoring-unit-1,memory,0.3205718994140625
2022-05-11T12:59:56.707Z,PARTIALLY_SHARED_UNIT_STAR-1-4-1,2,monitoring-unit-1,memory,0.32056427001953125
2022-05-11T13:00:06.707Z,PARTIALLY_SHARED_UNIT_STAR-1-4-1,2,monitoring-unit-1,memory,0.3204994201660156
2022-05-11T13:00:16.706Z,PARTIALLY_SHARED_UNIT_STAR-1-4-1,2,monitoring-unit-1,memory,0.32231903076171875
2022-05-11T13:00:26.707Z,PARTIALLY_SHARED_UNIT_STAR-1-4-1,2,monitoring-unit-1,memory,0.322296142578125
2022-05-11T13:00:36.707Z,PARTIALLY_SHARED_UNIT_STAR-1-4-1,2,monitoring-unit-1,memory,0.322296142578125
2022-05-11T13:00:46.707Z,PARTIALLY_SHARED_UNIT_STAR-1-4-1,2,monitoring-unit-1,memory,0.3213348388671875
2022-05-11T13:00:56.706Z,PARTIALLY_SHARED_UNIT_STAR-1-4-1,2,monitoring-unit-1,memory,0.32132720947265625
2022-05-11T13:01:06.707Z,PARTIALLY_SHARED_UNIT_STAR-1-4-1,2,monitoring-unit-1,memory,0.32132720947265625
2022-05-11T13:01:16.706Z,PARTIALLY_SHARED_UNIT_STAR-1-4-1,2,monitoring-unit-1,memory,0.32132720947265625
2022-05-11T13:01:26.706Z,PARTIALLY_SHARED_UNIT_STAR-1-4-1,2,monitoring-unit-1,memory,0.321319580078125
2022-05-11T13:01:36.707Z,PARTIALLY_SHARED_UNIT_STAR-1-4-1,2,monitoring-unit-1,memory,0.3215599060058594
2022-05-11T13:01:46.709Z,PARTIALLY_SHARED_UNIT_STAR-1-4-1,2,monitoring-unit-1,memory,0.3215599060058594
2022-05-11T13:01:56.707Z,PARTIALLY_SHARED_UNIT_STAR-1-4-1,2,monitoring-unit-1,memory,0.3215522766113281
2022-05-11T13:02:06.707Z,PARTIALLY_SHARED_UNIT_STAR-1-4-1,2,monitoring-unit-1,memory,0.3215522766113281
2022-05-11T13:02:16.706Z,PARTIALLY_SHARED_UNIT_STAR-1-4-1,2,monitoring-unit-1,memory,0.3215522766113281
2022-05-11T13:02:26.707Z,PARTIALLY_SHARED_UNIT_STAR-1-4-1,2,monitoring-unit-1,memory,0.322021484375
2022-05-11T13:02:36.706Z,PARTIALLY_SHARED_UNIT_STAR-1-4-1,2,monitoring-unit-1,memory,0.3222618103027344
2022-05-11T13:02:46.707Z,PARTIALLY_SHARED_UNIT_STAR-1-4-1,2,monitoring-unit-1,memory,0.3222618103027344
2022-05-11T13:02:56.707Z,PARTIALLY_SHARED_UNIT_STAR-1-4-1,2,monitoring-unit-1,memory,0.3222541809082031
2022-05-11T13:03:06.707Z,PARTIALLY_SHARED_UNIT_STAR-1-4-1,2,monitoring-unit-1,memory,0.3205718994140625
2022-05-11T13:03:16.706Z,PARTIALLY_SHARED_UNIT_STAR-1-4-1,2,monitoring-unit-1,memory,0.3205718994140625
2022-05-11T13:03:26.709Z,PARTIALLY_SHARED_UNIT_STAR-1-4-1,2,monitoring-unit-1,memory,0.32056427001953125
2022-05-11T13:03:36.707Z,PARTIALLY_SHARED_UNIT_STAR-1-4-1,2,monitoring-unit-1,memory,0.32056427001953125
2022-05-11T13:03:46.707Z,PARTIALLY_SHARED_UNIT_STAR-1-4-1,2,monitoring-unit-1,memory,0.32056427001953125
2022-05-11T13:03:56.707Z,PARTIALLY_SHARED_UNIT_STAR-1-4-1,2,monitoring-unit-1,memory,0.32079315185546875
2022-05-11T13:04:06.707Z,PARTIALLY_SHARED_UNIT_STAR-1-4-1,2,monitoring-unit-1,memory,0.3210334777832031
2022-05-11T13:04:16.707Z,PARTIALLY_SHARED_UNIT_STAR-1-4-1,2,monitoring-unit-1,memory,0.3210334777832031
2022-05-11T13:04:26.707Z,PARTIALLY_SHARED_UNIT_STAR-1-4-1,2,monitoring-unit-1,memory,0.3207855224609375
2022-05-11T13:04:36.706Z,PARTIALLY_SHARED_UNIT_STAR-1-4-1,2,monitoring-unit-1,memory,0.3207855224609375
2022-05-11T13:04:46.706Z,PARTIALLY_SHARED_UNIT_STAR-1-4-1,2,monitoring-unit-1,memory,0.3207855224609375
2022-05-11T13:04:56.706Z,PARTIALLY_SHARED_UNIT_STAR-1-4-1,2,monitoring-unit-1,memory,0.3210182189941406
2022-05-11T13:05:06.707Z,PARTIALLY_SHARED_UNIT_STAR-1-4-1,2,monitoring-unit-1,memory,0.321258544921875
2022-05-11T13:05:16.706Z,PARTIALLY_SHARED_UNIT_STAR-1-4-1,2,monitoring-unit-1,memory,0.321258544921875
2022-05-11T13:07:11.008Z,PARTIALLY_SHARED_UNIT_STAR-1-4-1,3,monitoring-unit-1,memory,0.3150482177734375
2022-05-11T13:07:21.008Z,PARTIALLY_SHARED_UNIT_STAR-1-4-1,3,monitoring-unit-1,memory,0.3170166015625
2022-05-11T13:07:31.011Z,PARTIALLY_SHARED_UNIT_STAR-1-4-1,3,monitoring-unit-1,memory,0.3172721862792969
2022-05-11T13:07:41.008Z,PARTIALLY_SHARED_UNIT_STAR-1-4-1,3,monitoring-unit-1,memory,0.3174858093261719
2022-05-11T13:07:51.008Z,PARTIALLY_SHARED_UNIT_STAR-1-4-1,3,monitoring-unit-1,memory,0.3174858093261719
2022-05-11T13:08:01.009Z,PARTIALLY_SHARED_UNIT_STAR-1-4-1,3,monitoring-unit-1,memory,0.3174858093261719
2022-05-11T13:08:11.008Z,PARTIALLY_SHARED_UNIT_STAR-1-4-1,3,monitoring-unit-1,memory,0.317718505859375
2022-05-11T13:08:21.008Z,PARTIALLY_SHARED_UNIT_STAR-1-4-1,3,monitoring-unit-1,memory,0.317718505859375
2022-05-11T13:08:31.009Z,PARTIALLY_SHARED_UNIT_STAR-1-4-1,3,monitoring-unit-1,memory,0.317718505859375
2022-05-11T13:08:41.008Z,PARTIALLY_SHARED_UNIT_STAR-1-4-1,3,monitoring-unit-1,memory,0.31771087646484375
2022-05-11T13:08:51.008Z,PARTIALLY_SHARED_UNIT_STAR-1-4-1,3,monitoring-unit-1,memory,0.31771087646484375
2022-05-11T13:09:01.009Z,PARTIALLY_SHARED_UNIT_STAR-1-4-1,3,monitoring-unit-1,memory,0.31771087646484375
2022-05-11T13:09:11.008Z,PARTIALLY_SHARED_UNIT_STAR-1-4-1,3,monitoring-unit-1,memory,0.3176994323730469
2022-05-11T13:09:21.008Z,PARTIALLY_SHARED_UNIT_STAR-1-4-1,3,monitoring-unit-1,memory,0.3176994323730469
2022-05-11T13:09:31.009Z,PARTIALLY_SHARED_UNIT_STAR-1-4-1,3,monitoring-unit-1,memory,0.31793975830078125
2022-05-11T13:09:41.008Z,PARTIALLY_SHARED_UNIT_STAR-1-4-1,3,monitoring-unit-1,memory,0.3181724548339844
2022-05-11T13:09:51.008Z,PARTIALLY_SHARED_UNIT_STAR-1-4-1,3,monitoring-unit-1,memory,0.3181724548339844
2022-05-11T13:10:01.009Z,PARTIALLY_SHARED_UNIT_STAR-1-4-1,3,monitoring-unit-1,memory,0.3186531066894531
2022-05-11T13:10:11.008Z,PARTIALLY_SHARED_UNIT_STAR-1-4-1,3,monitoring-unit-1,memory,0.31888580322265625
2022-05-11T13:10:21.008Z,PARTIALLY_SHARED_UNIT_STAR-1-4-1,3,monitoring-unit-1,memory,0.31888580322265625
2022-05-11T13:10:31.012Z,PARTIALLY_SHARED_UNIT_STAR-1-4-1,3,monitoring-unit-1,memory,0.31888580322265625
2022-05-11T13:10:41.008Z,PARTIALLY_SHARED_UNIT_STAR-1-4-1,3,monitoring-unit-1,memory,0.3188743591308594
2022-05-11T13:10:51.008Z,PARTIALLY_SHARED_UNIT_STAR-1-4-1,3,monitoring-unit-1,memory,0.33231353759765625
2022-05-11T13:11:01.008Z,PARTIALLY_SHARED_UNIT_STAR-1-4-1,3,monitoring-unit-1,memory,0.3190345764160156
2022-05-11T13:11:11.008Z,PARTIALLY_SHARED_UNIT_STAR-1-4-1,3,monitoring-unit-1,memory,0.3180656433105469
2022-05-11T13:11:21.008Z,PARTIALLY_SHARED_UNIT_STAR-1-4-1,3,monitoring-unit-1,memory,0.3180656433105469
2022-05-11T13:11:31.009Z,PARTIALLY_SHARED_UNIT_STAR-1-4-1,3,monitoring-unit-1,memory,0.3180656433105469
2022-05-11T13:11:41.008Z,PARTIALLY_SHARED_UNIT_STAR-1-4-1,3,monitoring-unit-1,memory,0.3180656433105469
2022-05-11T13:11:51.008Z,PARTIALLY_SHARED_UNIT_STAR-1-4-1,3,monitoring-unit-1,memory,0.3180274963378906
2022-05-11T13:12:01.009Z,PARTIALLY_SHARED_UNIT_STAR-1-4-1,3,monitoring-unit-1,memory,0.31800079345703125
2022-05-11T13:12:11.008Z,PARTIALLY_SHARED_UNIT_STAR-1-4-1,3,monitoring-unit-1,memory,0.3179969787597656
2022-05-11T13:12:21.008Z,PARTIALLY_SHARED_UNIT_STAR-1-4-1,3,monitoring-unit-1,memory,0.3179969787597656
2022-05-11T13:12:31.009Z,PARTIALLY_SHARED_UNIT_STAR-1-4-1,3,monitoring-unit-1,memory,0.3179969787597656
2022-05-11T13:12:41.008Z,PARTIALLY_SHARED_UNIT_STAR-1-4-1,3,monitoring-unit-1,memory,0.3179817199707031
2022-05-11T13:12:51.008Z,PARTIALLY_SHARED_UNIT_STAR-1-4-1,3,monitoring-unit-1,memory,0.3179817199707031
2022-05-11T13:13:01.008Z,PARTIALLY_SHARED_UNIT_STAR-1-4-1,3,monitoring-unit-1,memory,0.3179817199707031
2022-05-11T13:13:11.008Z,PARTIALLY_SHARED_UNIT_STAR-1-4-1,3,monitoring-unit-1,memory,0.3179740905761719
2022-05-11T13:13:21.008Z,PARTIALLY_SHARED_UNIT_STAR-1-4-1,3,monitoring-unit-1,memory,0.3179740905761719
2022-05-11T13:13:31.010Z,PARTIALLY_SHARED_UNIT_STAR-1-4-1,3,monitoring-unit-1,memory,0.3179740905761719
2022-05-11T13:13:41.008Z,PARTIALLY_SHARED_UNIT_STAR-1-4-1,3,monitoring-unit-1,memory,0.3179664611816406
2022-05-11T13:13:51.008Z,PARTIALLY_SHARED_UNIT_STAR-1-4-1,3,monitoring-unit-1,memory,0.3179664611816406
2022-05-11T13:14:01.009Z,PARTIALLY_SHARED_UNIT_STAR-1-4-1,3,monitoring-unit-1,memory,0.3179664611816406
2022-05-11T13:14:11.008Z,PARTIALLY_SHARED_UNIT_STAR-1-4-1,3,monitoring-unit-1,memory,0.31795501708984375
2022-05-11T13:14:21.008Z,PARTIALLY_SHARED_UNIT_STAR-1-4-1,3,monitoring-unit-1,memory,0.31795501708984375
2022-05-11T13:14:31.009Z,PARTIALLY_SHARED_UNIT_STAR-1-4-1,3,monitoring-unit-1,memory,0.31795501708984375
2022-05-11T13:14:41.008Z,PARTIALLY_SHARED_UNIT_STAR-1-4-1,3,monitoring-unit-1,memory,0.3179473876953125
2022-05-11T13:14:51.008Z,PARTIALLY_SHARED_UNIT_STAR-1-4-1,3,monitoring-unit-1,memory,0.3179473876953125
2022-05-11T13:15:01.009Z,PARTIALLY_SHARED_UNIT_STAR-1-4-1,3,monitoring-unit-1,memory,0.3179473876953125
2022-05-11T13:15:11.008Z,PARTIALLY_SHARED_UNIT_STAR-1-4-1,3,monitoring-unit-1,memory,0.31793975830078125
2022-05-11T13:15:21.008Z,PARTIALLY_SHARED_UNIT_STAR-1-4-1,3,monitoring-unit-1,memory,0.31793975830078125
2022-05-11T13:15:31.009Z,PARTIALLY_SHARED_UNIT_STAR-1-4-1,3,monitoring-unit-1,memory,0.31793975830078125
2022-05-11T13:15:41.008Z,PARTIALLY_SHARED_UNIT_STAR-1-4-1,3,monitoring-unit-1,memory,0.3179283142089844
2022-05-11T13:15:51.008Z,PARTIALLY_SHARED_UNIT_STAR-1-4-1,3,monitoring-unit-1,memory,0.3179283142089844
2022-05-11T13:16:01.009Z,PARTIALLY_SHARED_UNIT_STAR-1-4-1,3,monitoring-unit-1,memory,0.3179283142089844
2022-05-11T13:16:11.008Z,PARTIALLY_SHARED_UNIT_STAR-1-4-1,3,monitoring-unit-1,memory,0.3179206848144531
2022-05-11T13:16:21.008Z,PARTIALLY_SHARED_UNIT_STAR-1-4-1,3,monitoring-unit-1,memory,0.3179206848144531
2022-05-11T13:16:31.009Z,PARTIALLY_SHARED_UNIT_STAR-1-4-1,3,monitoring-unit-1,memory,0.3179206848144531
2022-05-11T13:16:41.008Z,PARTIALLY_SHARED_UNIT_STAR-1-4-1,3,monitoring-unit-1,memory,0.3179130554199219
2022-05-11T13:16:51.008Z,PARTIALLY_SHARED_UNIT_STAR-1-4-1,3,monitoring-unit-1,memory,0.3179130554199219
2022-05-11T13:17:01.009Z,PARTIALLY_SHARED_UNIT_STAR-1-4-1,3,monitoring-unit-1,memory,0.3179130554199219
2022-05-11T13:19:47.664Z,PARTIALLY_SHARED_UNIT_STAR-1-8-1,1,monitoring-unit-1,memory,0.31793212890625
2022-05-11T13:19:57.664Z,PARTIALLY_SHARED_UNIT_STAR-1-8-1,1,monitoring-unit-1,memory,0.31793212890625
2022-05-11T13:20:07.670Z,PARTIALLY_SHARED_UNIT_STAR-1-8-1,1,monitoring-unit-1,memory,0.3183631896972656
2022-05-11T13:20:17.664Z,PARTIALLY_SHARED_UNIT_STAR-1-8-1,1,monitoring-unit-1,memory,0.31838226318359375
2022-05-11T13:20:27.664Z,PARTIALLY_SHARED_UNIT_STAR-1-8-1,1,monitoring-unit-1,memory,0.31838226318359375
2022-05-11T13:20:37.665Z,PARTIALLY_SHARED_UNIT_STAR-1-8-1,1,monitoring-unit-1,memory,0.3186225891113281
2022-05-11T13:20:47.664Z,PARTIALLY_SHARED_UNIT_STAR-1-8-1,1,monitoring-unit-1,memory,0.31861114501953125
2022-05-11T13:20:57.664Z,PARTIALLY_SHARED_UNIT_STAR-1-8-1,1,monitoring-unit-1,memory,0.31861114501953125
2022-05-11T13:21:07.664Z,PARTIALLY_SHARED_UNIT_STAR-1-8-1,1,monitoring-unit-1,memory,0.319091796875
2022-05-11T13:21:17.664Z,PARTIALLY_SHARED_UNIT_STAR-1-8-1,1,monitoring-unit-1,memory,0.318603515625
2022-05-11T13:21:27.664Z,PARTIALLY_SHARED_UNIT_STAR-1-8-1,1,monitoring-unit-1,memory,0.318603515625
2022-05-11T13:21:37.663Z,PARTIALLY_SHARED_UNIT_STAR-1-8-1,1,monitoring-unit-1,memory,0.3188438415527344
2022-05-11T13:21:47.664Z,PARTIALLY_SHARED_UNIT_STAR-1-8-1,1,monitoring-unit-1,memory,0.31859588623046875
2022-05-11T13:21:57.664Z,PARTIALLY_SHARED_UNIT_STAR-1-8-1,1,monitoring-unit-1,memory,0.31859588623046875
2022-05-11T13:22:07.664Z,PARTIALLY_SHARED_UNIT_STAR-1-8-1,1,monitoring-unit-1,memory,0.3190765380859375
2022-05-11T13:22:17.664Z,PARTIALLY_SHARED_UNIT_STAR-1-8-1,1,monitoring-unit-1,memory,0.3193092346191406
2022-05-11T13:22:27.664Z,PARTIALLY_SHARED_UNIT_STAR-1-8-1,1,monitoring-unit-1,memory,0.3193092346191406
2022-05-11T13:22:37.663Z,PARTIALLY_SHARED_UNIT_STAR-1-8-1,1,monitoring-unit-1,memory,0.3197898864746094
2022-05-11T13:22:47.664Z,PARTIALLY_SHARED_UNIT_STAR-1-8-1,1,monitoring-unit-1,memory,0.3197784423828125
2022-05-11T13:22:57.664Z,PARTIALLY_SHARED_UNIT_STAR-1-8-1,1,monitoring-unit-1,memory,0.3185768127441406
2022-05-11T13:23:07.664Z,PARTIALLY_SHARED_UNIT_STAR-1-8-1,1,monitoring-unit-1,memory,0.31880950927734375
2022-05-11T13:23:17.664Z,PARTIALLY_SHARED_UNIT_STAR-1-8-1,1,monitoring-unit-1,memory,0.3190422058105469
2022-05-11T13:23:27.664Z,PARTIALLY_SHARED_UNIT_STAR-1-8-1,1,monitoring-unit-1,memory,0.3190422058105469
2022-05-11T13:23:37.663Z,PARTIALLY_SHARED_UNIT_STAR-1-8-1,1,monitoring-unit-1,memory,0.31928253173828125
2022-05-11T13:23:47.664Z,PARTIALLY_SHARED_UNIT_STAR-1-8-1,1,monitoring-unit-1,memory,0.31927490234375
2022-05-11T13:23:57.664Z,PARTIALLY_SHARED_UNIT_STAR-1-8-1,1,monitoring-unit-1,memory,0.3202362060546875
2022-05-11T13:24:07.666Z,PARTIALLY_SHARED_UNIT_STAR-1-8-1,1,monitoring-unit-1,memory,0.3204765319824219
2022-05-11T13:24:17.664Z,PARTIALLY_SHARED_UNIT_STAR-1-8-1,1,monitoring-unit-1,memory,0.320465087890625
2022-05-11T13:24:27.664Z,PARTIALLY_SHARED_UNIT_STAR-1-8-1,1,monitoring-unit-1,memory,0.320465087890625
2022-05-11T13:24:37.663Z,PARTIALLY_SHARED_UNIT_STAR-1-8-1,1,monitoring-unit-1,memory,0.320465087890625
2022-05-11T13:24:47.664Z,PARTIALLY_SHARED_UNIT_STAR-1-8-1,1,monitoring-unit-1,memory,0.320465087890625
2022-05-11T13:24:57.664Z,PARTIALLY_SHARED_UNIT_STAR-1-8-1,1,monitoring-unit-1,memory,0.3204307556152344
2022-05-11T13:25:07.663Z,PARTIALLY_SHARED_UNIT_STAR-1-8-1,1,monitoring-unit-1,memory,0.3204307556152344
2022-05-11T13:25:17.664Z,PARTIALLY_SHARED_UNIT_STAR-1-8-1,1,monitoring-unit-1,memory,0.3204231262207031
2022-05-11T13:25:27.664Z,PARTIALLY_SHARED_UNIT_STAR-1-8-1,1,monitoring-unit-1,memory,0.3204231262207031
2022-05-11T13:25:37.664Z,PARTIALLY_SHARED_UNIT_STAR-1-8-1,1,monitoring-unit-1,memory,0.3187408447265625
2022-05-11T13:25:47.664Z,PARTIALLY_SHARED_UNIT_STAR-1-8-1,1,monitoring-unit-1,memory,0.31873321533203125
2022-05-11T13:25:57.664Z,PARTIALLY_SHARED_UNIT_STAR-1-8-1,1,monitoring-unit-1,memory,0.31873321533203125
2022-05-11T13:26:07.663Z,PARTIALLY_SHARED_UNIT_STAR-1-8-1,1,monitoring-unit-1,memory,0.3199348449707031
2022-05-11T13:26:17.664Z,PARTIALLY_SHARED_UNIT_STAR-1-8-1,1,monitoring-unit-1,memory,0.31992340087890625
2022-05-11T13:26:27.664Z,PARTIALLY_SHARED_UNIT_STAR-1-8-1,1,monitoring-unit-1,memory,0.31992340087890625
2022-05-11T13:26:37.666Z,PARTIALLY_SHARED_UNIT_STAR-1-8-1,1,monitoring-unit-1,memory,0.320404052734375
2022-05-11T13:26:47.664Z,PARTIALLY_SHARED_UNIT_STAR-1-8-1,1,monitoring-unit-1,memory,0.3201560974121094
2022-05-11T13:26:57.664Z,PARTIALLY_SHARED_UNIT_STAR-1-8-1,1,monitoring-unit-1,memory,0.3201560974121094
2022-05-11T13:27:07.664Z,PARTIALLY_SHARED_UNIT_STAR-1-8-1,1,monitoring-unit-1,memory,0.3201560974121094
2022-05-11T13:27:17.664Z,PARTIALLY_SHARED_UNIT_STAR-1-8-1,1,monitoring-unit-1,memory,0.3203887939453125
2022-05-11T13:27:27.664Z,PARTIALLY_SHARED_UNIT_STAR-1-8-1,1,monitoring-unit-1,memory,0.3203887939453125
2022-05-11T13:27:37.664Z,PARTIALLY_SHARED_UNIT_STAR-1-8-1,1,monitoring-unit-1,memory,0.3206291198730469
2022-05-11T13:27:47.664Z,PARTIALLY_SHARED_UNIT_STAR-1-8-1,1,monitoring-unit-1,memory,0.32061767578125
2022-05-11T13:27:57.664Z,PARTIALLY_SHARED_UNIT_STAR-1-8-1,1,monitoring-unit-1,memory,0.32109832763671875
2022-05-11T13:28:07.663Z,PARTIALLY_SHARED_UNIT_STAR-1-8-1,1,monitoring-unit-1,memory,0.32109832763671875
2022-05-11T13:28:17.664Z,PARTIALLY_SHARED_UNIT_STAR-1-8-1,1,monitoring-unit-1,memory,0.3210906982421875
2022-05-11T13:28:27.664Z,PARTIALLY_SHARED_UNIT_STAR-1-8-1,1,monitoring-unit-1,memory,0.3210906982421875
2022-05-11T13:28:37.663Z,PARTIALLY_SHARED_UNIT_STAR-1-8-1,1,monitoring-unit-1,memory,0.3213310241699219
2022-05-11T13:28:47.664Z,PARTIALLY_SHARED_UNIT_STAR-1-8-1,1,monitoring-unit-1,memory,0.3213233947753906
2022-05-11T13:28:57.664Z,PARTIALLY_SHARED_UNIT_STAR-1-8-1,1,monitoring-unit-1,memory,0.3213233947753906
2022-05-11T13:29:07.664Z,PARTIALLY_SHARED_UNIT_STAR-1-8-1,1,monitoring-unit-1,memory,0.3213233947753906
2022-05-11T13:29:17.664Z,PARTIALLY_SHARED_UNIT_STAR-1-8-1,1,monitoring-unit-1,memory,0.3189125061035156
2022-05-11T13:29:27.664Z,PARTIALLY_SHARED_UNIT_STAR-1-8-1,1,monitoring-unit-1,memory,0.3189125061035156
2022-05-11T13:29:37.663Z,PARTIALLY_SHARED_UNIT_STAR-1-8-1,1,monitoring-unit-1,memory,0.31963348388671875
2022-05-11T13:32:33.257Z,PARTIALLY_SHARED_UNIT_STAR-1-8-1,2,monitoring-unit-1,memory,0.32076263427734375
2022-05-11T13:32:43.258Z,PARTIALLY_SHARED_UNIT_STAR-1-8-1,2,monitoring-unit-1,memory,0.3210029602050781
2022-05-11T13:32:53.261Z,PARTIALLY_SHARED_UNIT_STAR-1-8-1,2,monitoring-unit-1,memory,0.3210334777832031
2022-05-11T13:33:03.257Z,PARTIALLY_SHARED_UNIT_STAR-1-8-1,2,monitoring-unit-1,memory,0.32102203369140625
2022-05-11T13:33:13.257Z,PARTIALLY_SHARED_UNIT_STAR-1-8-1,2,monitoring-unit-1,memory,0.3212394714355469
2022-05-11T13:33:23.258Z,PARTIALLY_SHARED_UNIT_STAR-1-8-1,2,monitoring-unit-1,memory,0.3212394714355469
2022-05-11T13:33:33.257Z,PARTIALLY_SHARED_UNIT_STAR-1-8-1,2,monitoring-unit-1,memory,0.3212318420410156
2022-05-11T13:33:43.257Z,PARTIALLY_SHARED_UNIT_STAR-1-8-1,2,monitoring-unit-1,memory,0.3212318420410156
2022-05-11T13:33:53.258Z,PARTIALLY_SHARED_UNIT_STAR-1-8-1,2,monitoring-unit-1,memory,0.3212318420410156
2022-05-11T13:34:03.257Z,PARTIALLY_SHARED_UNIT_STAR-1-8-1,2,monitoring-unit-1,memory,0.3212242126464844
2022-05-11T13:34:13.258Z,PARTIALLY_SHARED_UNIT_STAR-1-8-1,2,monitoring-unit-1,memory,0.32146453857421875
2022-05-11T13:34:23.257Z,PARTIALLY_SHARED_UNIT_STAR-1-8-1,2,monitoring-unit-1,memory,0.32146453857421875
2022-05-11T13:34:33.257Z,PARTIALLY_SHARED_UNIT_STAR-1-8-1,2,monitoring-unit-1,memory,0.3214569091796875
2022-05-11T13:34:43.257Z,PARTIALLY_SHARED_UNIT_STAR-1-8-1,2,monitoring-unit-1,memory,0.3214569091796875
2022-05-11T13:34:53.258Z,PARTIALLY_SHARED_UNIT_STAR-1-8-1,2,monitoring-unit-1,memory,0.32193756103515625
2022-05-11T13:35:03.257Z,PARTIALLY_SHARED_UNIT_STAR-1-8-1,2,monitoring-unit-1,memory,0.3219261169433594
2022-05-11T13:35:13.257Z,PARTIALLY_SHARED_UNIT_STAR-1-8-1,2,monitoring-unit-1,memory,0.32216644287109375
2022-05-11T13:35:23.260Z,PARTIALLY_SHARED_UNIT_STAR-1-8-1,2,monitoring-unit-1,memory,0.32216644287109375
2022-05-11T13:35:33.257Z,PARTIALLY_SHARED_UNIT_STAR-1-8-1,2,monitoring-unit-1,memory,0.3221588134765625
2022-05-11T13:35:43.257Z,PARTIALLY_SHARED_UNIT_STAR-1-8-1,2,monitoring-unit-1,memory,0.3221588134765625
2022-05-11T13:35:53.258Z,PARTIALLY_SHARED_UNIT_STAR-1-8-1,2,monitoring-unit-1,memory,0.3221588134765625
2022-05-11T13:36:03.257Z,PARTIALLY_SHARED_UNIT_STAR-1-8-1,2,monitoring-unit-1,memory,0.3211860656738281
2022-05-11T13:36:13.257Z,PARTIALLY_SHARED_UNIT_STAR-1-8-1,2,monitoring-unit-1,memory,0.3211860656738281
2022-05-11T13:36:23.258Z,PARTIALLY_SHARED_UNIT_STAR-1-8-1,2,monitoring-unit-1,memory,0.3211860656738281
2022-05-11T13:36:33.257Z,PARTIALLY_SHARED_UNIT_STAR-1-8-1,2,monitoring-unit-1,memory,0.32117462158203125
2022-05-11T13:36:43.257Z,PARTIALLY_SHARED_UNIT_STAR-1-8-1,2,monitoring-unit-1,memory,0.32141876220703125
2022-05-11T13:36:53.257Z,PARTIALLY_SHARED_UNIT_STAR-1-8-1,2,monitoring-unit-1,memory,0.32141876220703125
2022-05-11T13:37:03.257Z,PARTIALLY_SHARED_UNIT_STAR-1-8-1,2,monitoring-unit-1,memory,0.3216514587402344
2022-05-11T13:37:13.257Z,PARTIALLY_SHARED_UNIT_STAR-1-8-1,2,monitoring-unit-1,memory,0.32189178466796875
2022-05-11T13:37:23.257Z,PARTIALLY_SHARED_UNIT_STAR-1-8-1,2,monitoring-unit-1,memory,0.32189178466796875
2022-05-11T13:37:33.257Z,PARTIALLY_SHARED_UNIT_STAR-1-8-1,2,monitoring-unit-1,memory,0.3218574523925781
2022-05-11T13:37:43.257Z,PARTIALLY_SHARED_UNIT_STAR-1-8-1,2,monitoring-unit-1,memory,0.321136474609375
2022-05-11T13:37:53.258Z,PARTIALLY_SHARED_UNIT_STAR-1-8-1,2,monitoring-unit-1,memory,0.321136474609375
2022-05-11T13:38:03.257Z,PARTIALLY_SHARED_UNIT_STAR-1-8-1,2,monitoring-unit-1,memory,0.32112884521484375
2022-05-11T13:38:13.257Z,PARTIALLY_SHARED_UNIT_STAR-1-8-1,2,monitoring-unit-1,memory,0.3213691711425781
2022-05-11T13:38:23.258Z,PARTIALLY_SHARED_UNIT_STAR-1-8-1,2,monitoring-unit-1,memory,0.3213691711425781
2022-05-11T13:38:33.257Z,PARTIALLY_SHARED_UNIT_STAR-1-8-1,2,monitoring-unit-1,memory,0.32135772705078125
2022-05-11T13:38:43.257Z,PARTIALLY_SHARED_UNIT_STAR-1-8-1,2,monitoring-unit-1,memory,0.3220787048339844
2022-05-11T13:38:53.257Z,PARTIALLY_SHARED_UNIT_STAR-1-8-1,2,monitoring-unit-1,memory,0.32231903076171875
2022-05-11T13:39:03.257Z,PARTIALLY_SHARED_UNIT_STAR-1-8-1,2,monitoring-unit-1,memory,0.3223114013671875
2022-05-11T13:39:13.257Z,PARTIALLY_SHARED_UNIT_STAR-1-8-1,2,monitoring-unit-1,memory,0.3223114013671875
2022-05-11T13:39:23.257Z,PARTIALLY_SHARED_UNIT_STAR-1-8-1,2,monitoring-unit-1,memory,0.32135009765625
2022-05-11T13:39:33.257Z,PARTIALLY_SHARED_UNIT_STAR-1-8-1,2,monitoring-unit-1,memory,0.32134246826171875
2022-05-11T13:39:43.257Z,PARTIALLY_SHARED_UNIT_STAR-1-8-1,2,monitoring-unit-1,memory,0.3215827941894531
2022-05-11T13:39:53.257Z,PARTIALLY_SHARED_UNIT_STAR-1-8-1,2,monitoring-unit-1,memory,0.3215827941894531
2022-05-11T13:40:03.257Z,PARTIALLY_SHARED_UNIT_STAR-1-8-1,2,monitoring-unit-1,memory,0.32157135009765625
2022-05-11T13:40:13.257Z,PARTIALLY_SHARED_UNIT_STAR-1-8-1,2,monitoring-unit-1,memory,0.32157135009765625
2022-05-11T13:40:23.258Z,PARTIALLY_SHARED_UNIT_STAR-1-8-1,2,monitoring-unit-1,memory,0.3213310241699219
2022-05-11T13:40:33.257Z,PARTIALLY_SHARED_UNIT_STAR-1-8-1,2,monitoring-unit-1,memory,0.3213157653808594
2022-05-11T13:40:43.257Z,PARTIALLY_SHARED_UNIT_STAR-1-8-1,2,monitoring-unit-1,memory,0.321563720703125
2022-05-11T13:40:53.258Z,PARTIALLY_SHARED_UNIT_STAR-1-8-1,2,monitoring-unit-1,memory,0.321563720703125
2022-05-11T13:41:03.257Z,PARTIALLY_SHARED_UNIT_STAR-1-8-1,2,monitoring-unit-1,memory,0.32155609130859375
2022-05-11T13:41:13.257Z,PARTIALLY_SHARED_UNIT_STAR-1-8-1,2,monitoring-unit-1,memory,0.32155609130859375
2022-05-11T13:41:23.257Z,PARTIALLY_SHARED_UNIT_STAR-1-8-1,2,monitoring-unit-1,memory,0.3220367431640625
2022-05-11T13:41:33.257Z,PARTIALLY_SHARED_UNIT_STAR-1-8-1,2,monitoring-unit-1,memory,0.32202911376953125
2022-05-11T13:41:43.257Z,PARTIALLY_SHARED_UNIT_STAR-1-8-1,2,monitoring-unit-1,memory,0.3222694396972656
2022-05-11T13:41:53.261Z,PARTIALLY_SHARED_UNIT_STAR-1-8-1,2,monitoring-unit-1,memory,0.322509765625
2022-05-11T13:42:03.257Z,PARTIALLY_SHARED_UNIT_STAR-1-8-1,2,monitoring-unit-1,memory,0.3227386474609375
2022-05-11T13:42:13.257Z,PARTIALLY_SHARED_UNIT_STAR-1-8-1,2,monitoring-unit-1,memory,0.3227386474609375
2022-05-11T13:42:23.259Z,PARTIALLY_SHARED_UNIT_STAR-1-8-1,2,monitoring-unit-1,memory,0.3227386474609375
2022-05-11T13:45:15.739Z,PARTIALLY_SHARED_UNIT_STAR-1-8-1,3,monitoring-unit-1,memory,0.3214454650878906
2022-05-11T13:45:25.739Z,PARTIALLY_SHARED_UNIT_STAR-1-8-1,3,monitoring-unit-1,memory,0.3214454650878906
2022-05-11T13:45:35.745Z,PARTIALLY_SHARED_UNIT_STAR-1-8-1,3,monitoring-unit-1,memory,0.3216400146484375
2022-05-11T13:45:45.739Z,PARTIALLY_SHARED_UNIT_STAR-1-8-1,3,monitoring-unit-1,memory,0.3216133117675781
2022-05-11T13:45:55.739Z,PARTIALLY_SHARED_UNIT_STAR-1-8-1,3,monitoring-unit-1,memory,0.3216133117675781
2022-05-11T13:46:05.741Z,PARTIALLY_SHARED_UNIT_STAR-1-8-1,3,monitoring-unit-1,memory,0.3218536376953125
2022-05-11T13:46:15.738Z,PARTIALLY_SHARED_UNIT_STAR-1-8-1,3,monitoring-unit-1,memory,0.3221244812011719
2022-05-11T13:46:25.739Z,PARTIALLY_SHARED_UNIT_STAR-1-8-1,3,monitoring-unit-1,memory,0.3221168518066406
2022-05-11T13:46:35.742Z,PARTIALLY_SHARED_UNIT_STAR-1-8-1,3,monitoring-unit-1,memory,0.3221168518066406
2022-05-11T13:46:45.739Z,PARTIALLY_SHARED_UNIT_STAR-1-8-1,3,monitoring-unit-1,memory,0.3221168518066406
2022-05-11T13:46:55.739Z,PARTIALLY_SHARED_UNIT_STAR-1-8-1,3,monitoring-unit-1,memory,0.3221092224121094
2022-05-11T13:47:05.738Z,PARTIALLY_SHARED_UNIT_STAR-1-8-1,3,monitoring-unit-1,memory,0.3221092224121094
2022-05-11T13:47:15.739Z,PARTIALLY_SHARED_UNIT_STAR-1-8-1,3,monitoring-unit-1,memory,0.321624755859375
2022-05-11T13:47:25.739Z,PARTIALLY_SHARED_UNIT_STAR-1-8-1,3,monitoring-unit-1,memory,0.32161712646484375
2022-05-11T13:47:35.739Z,PARTIALLY_SHARED_UNIT_STAR-1-8-1,3,monitoring-unit-1,memory,0.3218574523925781
2022-05-11T13:47:45.739Z,PARTIALLY_SHARED_UNIT_STAR-1-8-1,3,monitoring-unit-1,memory,0.3223915100097656
2022-05-11T13:47:55.739Z,PARTIALLY_SHARED_UNIT_STAR-1-8-1,3,monitoring-unit-1,memory,0.3220176696777344
2022-05-11T13:48:05.739Z,PARTIALLY_SHARED_UNIT_STAR-1-8-1,3,monitoring-unit-1,memory,0.3220176696777344
2022-05-11T13:48:15.739Z,PARTIALLY_SHARED_UNIT_STAR-1-8-1,3,monitoring-unit-1,memory,0.32177734375
2022-05-11T13:48:25.739Z,PARTIALLY_SHARED_UNIT_STAR-1-8-1,3,monitoring-unit-1,memory,0.32176971435546875
2022-05-11T13:48:35.739Z,PARTIALLY_SHARED_UNIT_STAR-1-8-1,3,monitoring-unit-1,memory,0.32176971435546875
2022-05-11T13:48:45.739Z,PARTIALLY_SHARED_UNIT_STAR-1-8-1,3,monitoring-unit-1,memory,0.3220062255859375
2022-05-11T13:48:55.739Z,PARTIALLY_SHARED_UNIT_STAR-1-8-1,3,monitoring-unit-1,memory,0.32198333740234375
2022-05-11T13:49:05.738Z,PARTIALLY_SHARED_UNIT_STAR-1-8-1,3,monitoring-unit-1,memory,0.32198333740234375
2022-05-11T13:49:15.739Z,PARTIALLY_SHARED_UNIT_STAR-1-8-1,3,monitoring-unit-1,memory,0.3217353820800781
2022-05-11T13:49:25.739Z,PARTIALLY_SHARED_UNIT_STAR-1-8-1,3,monitoring-unit-1,memory,0.3217353820800781
2022-05-11T13:49:35.739Z,PARTIALLY_SHARED_UNIT_STAR-1-8-1,3,monitoring-unit-1,memory,0.3219757080078125
2022-05-11T13:49:45.739Z,PARTIALLY_SHARED_UNIT_STAR-1-8-1,3,monitoring-unit-1,memory,0.32196807861328125
2022-05-11T13:49:55.739Z,PARTIALLY_SHARED_UNIT_STAR-1-8-1,3,monitoring-unit-1,memory,0.32196807861328125
2022-05-11T13:50:05.739Z,PARTIALLY_SHARED_UNIT_STAR-1-8-1,3,monitoring-unit-1,memory,0.3219337463378906
2022-05-11T13:50:15.739Z,PARTIALLY_SHARED_UNIT_STAR-1-8-1,3,monitoring-unit-1,memory,0.32169342041015625
2022-05-11T13:50:25.739Z,PARTIALLY_SHARED_UNIT_STAR-1-8-1,3,monitoring-unit-1,memory,0.32169342041015625
2022-05-11T13:50:35.739Z,PARTIALLY_SHARED_UNIT_STAR-1-8-1,3,monitoring-unit-1,memory,0.3219337463378906
2022-05-11T13:50:45.739Z,PARTIALLY_SHARED_UNIT_STAR-1-8-1,3,monitoring-unit-1,memory,0.32192230224609375
2022-05-11T13:50:55.739Z,PARTIALLY_SHARED_UNIT_STAR-1-8-1,3,monitoring-unit-1,memory,0.32192230224609375
2022-05-11T13:51:05.739Z,PARTIALLY_SHARED_UNIT_STAR-1-8-1,3,monitoring-unit-1,memory,0.32192230224609375
2022-05-11T13:51:15.739Z,PARTIALLY_SHARED_UNIT_STAR-1-8-1,3,monitoring-unit-1,memory,0.3216743469238281
2022-05-11T13:51:25.739Z,PARTIALLY_SHARED_UNIT_STAR-1-8-1,3,monitoring-unit-1,memory,0.3216743469238281
2022-05-11T13:51:35.739Z,PARTIALLY_SHARED_UNIT_STAR-1-8-1,3,monitoring-unit-1,memory,0.3219146728515625
2022-05-11T13:51:45.739Z,PARTIALLY_SHARED_UNIT_STAR-1-8-1,3,monitoring-unit-1,memory,0.32190704345703125
2022-05-11T13:51:55.738Z,PARTIALLY_SHARED_UNIT_STAR-1-8-1,3,monitoring-unit-1,memory,0.32190704345703125
2022-05-11T13:52:05.739Z,PARTIALLY_SHARED_UNIT_STAR-1-8-1,3,monitoring-unit-1,memory,0.32190704345703125
2022-05-11T13:52:15.739Z,PARTIALLY_SHARED_UNIT_STAR-1-8-1,3,monitoring-unit-1,memory,0.3216552734375
2022-05-11T13:52:25.739Z,PARTIALLY_SHARED_UNIT_STAR-1-8-1,3,monitoring-unit-1,memory,0.3216552734375
2022-05-11T13:52:35.739Z,PARTIALLY_SHARED_UNIT_STAR-1-8-1,3,monitoring-unit-1,memory,0.3218955993652344
2022-05-11T13:52:45.739Z,PARTIALLY_SHARED_UNIT_STAR-1-8-1,3,monitoring-unit-1,memory,0.3221282958984375
2022-05-11T13:52:55.739Z,PARTIALLY_SHARED_UNIT_STAR-1-8-1,3,monitoring-unit-1,memory,0.3221282958984375
2022-05-11T13:53:05.739Z,PARTIALLY_SHARED_UNIT_STAR-1-8-1,3,monitoring-unit-1,memory,0.3221282958984375
2022-05-11T13:53:15.739Z,PARTIALLY_SHARED_UNIT_STAR-1-8-1,3,monitoring-unit-1,memory,0.3216400146484375
2022-05-11T13:53:25.739Z,PARTIALLY_SHARED_UNIT_STAR-1-8-1,3,monitoring-unit-1,memory,0.3216400146484375
2022-05-11T13:53:35.739Z,PARTIALLY_SHARED_UNIT_STAR-1-8-1,3,monitoring-unit-1,memory,0.3218803405761719
2022-05-11T13:53:45.739Z,PARTIALLY_SHARED_UNIT_STAR-1-8-1,3,monitoring-unit-1,memory,0.322113037109375
2022-05-11T13:53:55.739Z,PARTIALLY_SHARED_UNIT_STAR-1-8-1,3,monitoring-unit-1,memory,0.322113037109375
2022-05-11T13:54:05.739Z,PARTIALLY_SHARED_UNIT_STAR-1-8-1,3,monitoring-unit-1,memory,0.322113037109375
2022-05-11T13:54:15.739Z,PARTIALLY_SHARED_UNIT_STAR-1-8-1,3,monitoring-unit-1,memory,0.3218536376953125
2022-05-11T13:54:25.739Z,PARTIALLY_SHARED_UNIT_STAR-1-8-1,3,monitoring-unit-1,memory,0.3218536376953125
2022-05-11T13:54:35.739Z,PARTIALLY_SHARED_UNIT_STAR-1-8-1,3,monitoring-unit-1,memory,0.3220939636230469
2022-05-11T13:54:45.739Z,PARTIALLY_SHARED_UNIT_STAR-1-8-1,3,monitoring-unit-1,memory,0.3220863342285156
2022-05-11T13:54:55.739Z,PARTIALLY_SHARED_UNIT_STAR-1-8-1,3,monitoring-unit-1,memory,0.3220863342285156
2022-05-11T13:55:05.738Z,PARTIALLY_SHARED_UNIT_STAR-1-8-1,3,monitoring-unit-1,memory,0.3220863342285156
2022-05-11T13:59:34.290Z,PARTIALLY_SHARED_UNIT_STAR-1-16-1,1,monitoring-unit-1,memory,0.3174018859863281
2022-05-11T13:59:44.290Z,PARTIALLY_SHARED_UNIT_STAR-1-16-1,1,monitoring-unit-1,memory,0.3195953369140625
2022-05-11T13:59:54.292Z,PARTIALLY_SHARED_UNIT_STAR-1-16-1,1,monitoring-unit-1,memory,0.3195953369140625
2022-05-11T14:00:04.290Z,PARTIALLY_SHARED_UNIT_STAR-1-16-1,1,monitoring-unit-1,memory,0.3195915222167969
2022-05-11T14:00:14.290Z,PARTIALLY_SHARED_UNIT_STAR-1-16-1,1,monitoring-unit-1,memory,0.3195915222167969
2022-05-11T14:00:24.291Z,PARTIALLY_SHARED_UNIT_STAR-1-16-1,1,monitoring-unit-1,memory,0.3195915222167969
2022-05-11T14:00:34.289Z,PARTIALLY_SHARED_UNIT_STAR-1-16-1,1,monitoring-unit-1,memory,0.3195838928222656
2022-05-11T14:00:44.290Z,PARTIALLY_SHARED_UNIT_STAR-1-16-1,1,monitoring-unit-1,memory,0.31982421875
2022-05-11T14:00:54.291Z,PARTIALLY_SHARED_UNIT_STAR-1-16-1,1,monitoring-unit-1,memory,0.31982421875
2022-05-11T14:01:04.290Z,PARTIALLY_SHARED_UNIT_STAR-1-16-1,1,monitoring-unit-1,memory,0.31981658935546875
2022-05-11T14:01:14.290Z,PARTIALLY_SHARED_UNIT_STAR-1-16-1,1,monitoring-unit-1,memory,0.31981658935546875
2022-05-11T14:01:24.291Z,PARTIALLY_SHARED_UNIT_STAR-1-16-1,1,monitoring-unit-1,memory,0.31981658935546875
2022-05-11T14:01:34.290Z,PARTIALLY_SHARED_UNIT_STAR-1-16-1,1,monitoring-unit-1,memory,0.3198051452636719
2022-05-11T14:01:44.290Z,PARTIALLY_SHARED_UNIT_STAR-1-16-1,1,monitoring-unit-1,memory,0.32004547119140625
2022-05-11T14:01:54.290Z,PARTIALLY_SHARED_UNIT_STAR-1-16-1,1,monitoring-unit-1,memory,0.32004547119140625
2022-05-11T14:02:04.289Z,PARTIALLY_SHARED_UNIT_STAR-1-16-1,1,monitoring-unit-1,memory,0.320037841796875
2022-05-11T14:02:14.290Z,PARTIALLY_SHARED_UNIT_STAR-1-16-1,1,monitoring-unit-1,memory,0.320037841796875
2022-05-11T14:02:24.291Z,PARTIALLY_SHARED_UNIT_STAR-1-16-1,1,monitoring-unit-1,memory,0.32051849365234375
2022-05-11T14:02:34.290Z,PARTIALLY_SHARED_UNIT_STAR-1-16-1,1,monitoring-unit-1,memory,0.3205108642578125
2022-05-11T14:02:44.290Z,PARTIALLY_SHARED_UNIT_STAR-1-16-1,1,monitoring-unit-1,memory,0.32099151611328125
2022-05-11T14:02:54.294Z,PARTIALLY_SHARED_UNIT_STAR-1-16-1,1,monitoring-unit-1,memory,0.32099151611328125
2022-05-11T14:03:04.289Z,PARTIALLY_SHARED_UNIT_STAR-1-16-1,1,monitoring-unit-1,memory,0.3210105895996094
2022-05-11T14:03:14.289Z,PARTIALLY_SHARED_UNIT_STAR-1-16-1,1,monitoring-unit-1,memory,0.3210105895996094
2022-05-11T14:03:24.290Z,PARTIALLY_SHARED_UNIT_STAR-1-16-1,1,monitoring-unit-1,memory,0.3210105895996094
2022-05-11T14:03:34.290Z,PARTIALLY_SHARED_UNIT_STAR-1-16-1,1,monitoring-unit-1,memory,0.3210029602050781
2022-05-11T14:03:44.290Z,PARTIALLY_SHARED_UNIT_STAR-1-16-1,1,monitoring-unit-1,memory,0.3210029602050781
2022-05-11T14:03:54.291Z,PARTIALLY_SHARED_UNIT_STAR-1-16-1,1,monitoring-unit-1,memory,0.3210029602050781
2022-05-11T14:04:04.290Z,PARTIALLY_SHARED_UNIT_STAR-1-16-1,1,monitoring-unit-1,memory,0.319793701171875
2022-05-11T14:04:14.290Z,PARTIALLY_SHARED_UNIT_STAR-1-16-1,1,monitoring-unit-1,memory,0.3197517395019531
2022-05-11T14:04:24.290Z,PARTIALLY_SHARED_UNIT_STAR-1-16-1,1,monitoring-unit-1,memory,0.3197517395019531
2022-05-11T14:04:34.290Z,PARTIALLY_SHARED_UNIT_STAR-1-16-1,1,monitoring-unit-1,memory,0.3197517395019531
2022-05-11T14:04:44.290Z,PARTIALLY_SHARED_UNIT_STAR-1-16-1,1,monitoring-unit-1,memory,0.3199920654296875
2022-05-11T14:04:54.290Z,PARTIALLY_SHARED_UNIT_STAR-1-16-1,1,monitoring-unit-1,memory,0.3199920654296875
2022-05-11T14:05:04.290Z,PARTIALLY_SHARED_UNIT_STAR-1-16-1,1,monitoring-unit-1,memory,0.3199729919433594
2022-05-11T14:05:14.290Z,PARTIALLY_SHARED_UNIT_STAR-1-16-1,1,monitoring-unit-1,memory,0.319732666015625
2022-05-11T14:05:24.291Z,PARTIALLY_SHARED_UNIT_STAR-1-16-1,1,monitoring-unit-1,memory,0.319732666015625
2022-05-11T14:05:34.290Z,PARTIALLY_SHARED_UNIT_STAR-1-16-1,1,monitoring-unit-1,memory,0.31972503662109375
2022-05-11T14:05:44.290Z,PARTIALLY_SHARED_UNIT_STAR-1-16-1,1,monitoring-unit-1,memory,0.3199615478515625
2022-05-11T14:05:54.290Z,PARTIALLY_SHARED_UNIT_STAR-1-16-1,1,monitoring-unit-1,memory,0.3199615478515625
2022-05-11T14:06:04.290Z,PARTIALLY_SHARED_UNIT_STAR-1-16-1,1,monitoring-unit-1,memory,0.3199501037597656
2022-05-11T14:06:14.290Z,PARTIALLY_SHARED_UNIT_STAR-1-16-1,1,monitoring-unit-1,memory,0.31970977783203125
2022-05-11T14:06:24.290Z,PARTIALLY_SHARED_UNIT_STAR-1-16-1,1,monitoring-unit-1,memory,0.31970977783203125
2022-05-11T14:06:34.289Z,PARTIALLY_SHARED_UNIT_STAR-1-16-1,1,monitoring-unit-1,memory,0.3196983337402344
2022-05-11T14:06:44.289Z,PARTIALLY_SHARED_UNIT_STAR-1-16-1,1,monitoring-unit-1,memory,0.31970977783203125
2022-05-11T14:06:54.291Z,PARTIALLY_SHARED_UNIT_STAR-1-16-1,1,monitoring-unit-1,memory,0.31970977783203125
2022-05-11T14:07:04.290Z,PARTIALLY_SHARED_UNIT_STAR-1-16-1,1,monitoring-unit-1,memory,0.3197021484375
2022-05-11T14:07:14.290Z,PARTIALLY_SHARED_UNIT_STAR-1-16-1,1,monitoring-unit-1,memory,0.3197021484375
2022-05-11T14:07:24.291Z,PARTIALLY_SHARED_UNIT_STAR-1-16-1,1,monitoring-unit-1,memory,0.3197021484375
2022-05-11T14:07:34.290Z,PARTIALLY_SHARED_UNIT_STAR-1-16-1,1,monitoring-unit-1,memory,0.31969451904296875
2022-05-11T14:07:44.289Z,PARTIALLY_SHARED_UNIT_STAR-1-16-1,1,monitoring-unit-1,memory,0.3199348449707031
2022-05-11T14:07:54.291Z,PARTIALLY_SHARED_UNIT_STAR-1-16-1,1,monitoring-unit-1,memory,0.3199348449707031
2022-05-11T14:08:04.290Z,PARTIALLY_SHARED_UNIT_STAR-1-16-1,1,monitoring-unit-1,memory,0.31992340087890625
2022-05-11T14:08:14.290Z,PARTIALLY_SHARED_UNIT_STAR-1-16-1,1,monitoring-unit-1,memory,0.3206443786621094
2022-05-11T14:08:24.291Z,PARTIALLY_SHARED_UNIT_STAR-1-16-1,1,monitoring-unit-1,memory,0.3206443786621094
2022-05-11T14:08:34.290Z,PARTIALLY_SHARED_UNIT_STAR-1-16-1,1,monitoring-unit-1,memory,0.3206367492675781
2022-05-11T14:08:44.289Z,PARTIALLY_SHARED_UNIT_STAR-1-16-1,1,monitoring-unit-1,memory,0.3208770751953125
2022-05-11T14:08:54.291Z,PARTIALLY_SHARED_UNIT_STAR-1-16-1,1,monitoring-unit-1,memory,0.319915771484375
2022-05-11T14:09:04.290Z,PARTIALLY_SHARED_UNIT_STAR-1-16-1,1,monitoring-unit-1,memory,0.31990814208984375
2022-05-11T14:09:14.290Z,PARTIALLY_SHARED_UNIT_STAR-1-16-1,1,monitoring-unit-1,memory,0.3203887939453125
2022-05-11T14:09:24.291Z,PARTIALLY_SHARED_UNIT_STAR-1-16-1,1,monitoring-unit-1,memory,0.3203887939453125
2022-05-11T14:14:12.948Z,PARTIALLY_SHARED_UNIT_STAR-1-16-1,2,monitoring-unit-1,memory,0.31621551513671875
2022-05-11T14:14:22.949Z,PARTIALLY_SHARED_UNIT_STAR-1-16-1,2,monitoring-unit-1,memory,0.31816864013671875
2022-05-11T14:14:32.951Z,PARTIALLY_SHARED_UNIT_STAR-1-16-1,2,monitoring-unit-1,memory,0.31824493408203125
2022-05-11T14:14:42.948Z,PARTIALLY_SHARED_UNIT_STAR-1-16-1,2,monitoring-unit-1,memory,0.3182258605957031
2022-05-11T14:14:52.948Z,PARTIALLY_SHARED_UNIT_STAR-1-16-1,2,monitoring-unit-1,memory,0.3182258605957031
2022-05-11T14:15:02.949Z,PARTIALLY_SHARED_UNIT_STAR-1-16-1,2,monitoring-unit-1,memory,0.3182258605957031
2022-05-11T14:15:12.948Z,PARTIALLY_SHARED_UNIT_STAR-1-16-1,2,monitoring-unit-1,memory,0.31821441650390625
2022-05-11T14:15:22.948Z,PARTIALLY_SHARED_UNIT_STAR-1-16-1,2,monitoring-unit-1,memory,0.31821441650390625
2022-05-11T14:15:32.950Z,PARTIALLY_SHARED_UNIT_STAR-1-16-1,2,monitoring-unit-1,memory,0.31821441650390625
2022-05-11T14:15:42.948Z,PARTIALLY_SHARED_UNIT_STAR-1-16-1,2,monitoring-unit-1,memory,0.318206787109375
2022-05-11T14:15:52.948Z,PARTIALLY_SHARED_UNIT_STAR-1-16-1,2,monitoring-unit-1,memory,0.318206787109375
2022-05-11T14:16:02.949Z,PARTIALLY_SHARED_UNIT_STAR-1-16-1,2,monitoring-unit-1,memory,0.31819915771484375
2022-05-11T14:16:12.948Z,PARTIALLY_SHARED_UNIT_STAR-1-16-1,2,monitoring-unit-1,memory,0.3184318542480469
2022-05-11T14:16:22.948Z,PARTIALLY_SHARED_UNIT_STAR-1-16-1,2,monitoring-unit-1,memory,0.3184318542480469
2022-05-11T14:16:32.950Z,PARTIALLY_SHARED_UNIT_STAR-1-16-1,2,monitoring-unit-1,memory,0.3184318542480469
2022-05-11T14:16:42.948Z,PARTIALLY_SHARED_UNIT_STAR-1-16-1,2,monitoring-unit-1,memory,0.3184242248535156
2022-05-11T14:16:52.948Z,PARTIALLY_SHARED_UNIT_STAR-1-16-1,2,monitoring-unit-1,memory,0.3184242248535156
2022-05-11T14:17:02.949Z,PARTIALLY_SHARED_UNIT_STAR-1-16-1,2,monitoring-unit-1,memory,0.3189048767089844
2022-05-11T14:17:12.948Z,PARTIALLY_SHARED_UNIT_STAR-1-16-1,2,monitoring-unit-1,memory,0.3188934326171875
2022-05-11T14:17:22.949Z,PARTIALLY_SHARED_UNIT_STAR-1-16-1,2,monitoring-unit-1,memory,0.3188934326171875
2022-05-11T14:17:32.953Z,PARTIALLY_SHARED_UNIT_STAR-1-16-1,2,monitoring-unit-1,memory,0.3188934326171875
2022-05-11T14:17:42.949Z,PARTIALLY_SHARED_UNIT_STAR-1-16-1,2,monitoring-unit-1,memory,0.3191261291503906
2022-05-11T14:17:52.948Z,PARTIALLY_SHARED_UNIT_STAR-1-16-1,2,monitoring-unit-1,memory,0.3191261291503906
2022-05-11T14:18:02.949Z,PARTIALLY_SHARED_UNIT_STAR-1-16-1,2,monitoring-unit-1,memory,0.3191261291503906
2022-05-11T14:18:12.948Z,PARTIALLY_SHARED_UNIT_STAR-1-16-1,2,monitoring-unit-1,memory,0.31839752197265625
2022-05-11T14:18:22.948Z,PARTIALLY_SHARED_UNIT_STAR-1-16-1,2,monitoring-unit-1,memory,0.31839752197265625
2022-05-11T14:18:32.949Z,PARTIALLY_SHARED_UNIT_STAR-1-16-1,2,monitoring-unit-1,memory,0.31839752197265625
2022-05-11T14:18:42.948Z,PARTIALLY_SHARED_UNIT_STAR-1-16-1,2,monitoring-unit-1,memory,0.31862640380859375
2022-05-11T14:18:52.948Z,PARTIALLY_SHARED_UNIT_STAR-1-16-1,2,monitoring-unit-1,memory,0.31862640380859375
2022-05-11T14:19:02.950Z,PARTIALLY_SHARED_UNIT_STAR-1-16-1,2,monitoring-unit-1,memory,0.31862640380859375
2022-05-11T14:19:12.948Z,PARTIALLY_SHARED_UNIT_STAR-1-16-1,2,monitoring-unit-1,memory,0.3185577392578125
2022-05-11T14:19:22.948Z,PARTIALLY_SHARED_UNIT_STAR-1-16-1,2,monitoring-unit-1,memory,0.3185577392578125
2022-05-11T14:19:32.949Z,PARTIALLY_SHARED_UNIT_STAR-1-16-1,2,monitoring-unit-1,memory,0.3185577392578125
2022-05-11T14:19:42.948Z,PARTIALLY_SHARED_UNIT_STAR-1-16-1,2,monitoring-unit-1,memory,0.3192710876464844
2022-05-11T14:19:52.948Z,PARTIALLY_SHARED_UNIT_STAR-1-16-1,2,monitoring-unit-1,memory,0.3192710876464844
2022-05-11T14:20:02.949Z,PARTIALLY_SHARED_UNIT_STAR-1-16-1,2,monitoring-unit-1,memory,0.3192710876464844
2022-05-11T14:20:12.948Z,PARTIALLY_SHARED_UNIT_STAR-1-16-1,2,monitoring-unit-1,memory,0.3192634582519531
2022-05-11T14:20:22.948Z,PARTIALLY_SHARED_UNIT_STAR-1-16-1,2,monitoring-unit-1,memory,0.3183021545410156
2022-05-11T14:20:32.949Z,PARTIALLY_SHARED_UNIT_STAR-1-16-1,2,monitoring-unit-1,memory,0.31854248046875
2022-05-11T14:20:42.948Z,PARTIALLY_SHARED_UNIT_STAR-1-16-1,2,monitoring-unit-1,memory,0.3187675476074219
2022-05-11T14:20:52.948Z,PARTIALLY_SHARED_UNIT_STAR-1-16-1,2,monitoring-unit-1,memory,0.3187675476074219
2022-05-11T14:21:02.949Z,PARTIALLY_SHARED_UNIT_STAR-1-16-1,2,monitoring-unit-1,memory,0.3187675476074219
2022-05-11T14:21:12.948Z,PARTIALLY_SHARED_UNIT_STAR-1-16-1,2,monitoring-unit-1,memory,0.3187522888183594
2022-05-11T14:21:22.949Z,PARTIALLY_SHARED_UNIT_STAR-1-16-1,2,monitoring-unit-1,memory,0.3192329406738281
2022-05-11T14:21:32.950Z,PARTIALLY_SHARED_UNIT_STAR-1-16-1,2,monitoring-unit-1,memory,0.3192329406738281
2022-05-11T14:21:42.948Z,PARTIALLY_SHARED_UNIT_STAR-1-16-1,2,monitoring-unit-1,memory,0.31946563720703125
2022-05-11T14:21:52.949Z,PARTIALLY_SHARED_UNIT_STAR-1-16-1,2,monitoring-unit-1,memory,0.31946563720703125
2022-05-11T14:22:02.949Z,PARTIALLY_SHARED_UNIT_STAR-1-16-1,2,monitoring-unit-1,memory,0.3199462890625
2022-05-11T14:22:12.949Z,PARTIALLY_SHARED_UNIT_STAR-1-16-1,2,monitoring-unit-1,memory,0.3201751708984375
2022-05-11T14:22:22.948Z,PARTIALLY_SHARED_UNIT_STAR-1-16-1,2,monitoring-unit-1,memory,0.3201751708984375
2022-05-11T14:22:32.949Z,PARTIALLY_SHARED_UNIT_STAR-1-16-1,2,monitoring-unit-1,memory,0.3172607421875
2022-05-11T14:22:42.948Z,PARTIALLY_SHARED_UNIT_STAR-1-16-1,2,monitoring-unit-1,memory,0.31725311279296875
2022-05-11T14:22:52.949Z,PARTIALLY_SHARED_UNIT_STAR-1-16-1,2,monitoring-unit-1,memory,0.31725311279296875
2022-05-11T14:23:02.952Z,PARTIALLY_SHARED_UNIT_STAR-1-16-1,2,monitoring-unit-1,memory,0.31725311279296875
2022-05-11T14:23:12.948Z,PARTIALLY_SHARED_UNIT_STAR-1-16-1,2,monitoring-unit-1,memory,0.3174858093261719
2022-05-11T14:23:22.948Z,PARTIALLY_SHARED_UNIT_STAR-1-16-1,2,monitoring-unit-1,memory,0.3174858093261719
2022-05-11T14:23:32.953Z,PARTIALLY_SHARED_UNIT_STAR-1-16-1,2,monitoring-unit-1,memory,0.3174858093261719
2022-05-11T14:23:42.948Z,PARTIALLY_SHARED_UNIT_STAR-1-16-1,2,monitoring-unit-1,memory,0.3174781799316406
2022-05-11T14:23:52.948Z,PARTIALLY_SHARED_UNIT_STAR-1-16-1,2,monitoring-unit-1,memory,0.3174781799316406
2022-05-11T14:24:02.949Z,PARTIALLY_SHARED_UNIT_STAR-1-16-1,2,monitoring-unit-1,memory,0.3174781799316406
2022-05-11T14:28:49.735Z,PARTIALLY_SHARED_UNIT_STAR-1-16-1,3,monitoring-unit-1,memory,0.3198394775390625
2022-05-11T14:28:59.735Z,PARTIALLY_SHARED_UNIT_STAR-1-16-1,3,monitoring-unit-1,memory,0.3198394775390625
2022-05-11T14:29:09.738Z,PARTIALLY_SHARED_UNIT_STAR-1-16-1,3,monitoring-unit-1,memory,0.3201103210449219
2022-05-11T14:29:19.735Z,PARTIALLY_SHARED_UNIT_STAR-1-16-1,3,monitoring-unit-1,memory,0.32010650634765625
2022-05-11T14:29:29.735Z,PARTIALLY_SHARED_UNIT_STAR-1-16-1,3,monitoring-unit-1,memory,0.3208274841308594
2022-05-11T14:29:39.736Z,PARTIALLY_SHARED_UNIT_STAR-1-16-1,3,monitoring-unit-1,memory,0.32106781005859375
2022-05-11T14:29:49.735Z,PARTIALLY_SHARED_UNIT_STAR-1-16-1,3,monitoring-unit-1,memory,0.3210563659667969
2022-05-11T14:29:59.735Z,PARTIALLY_SHARED_UNIT_STAR-1-16-1,3,monitoring-unit-1,memory,0.3210563659667969
2022-05-11T14:30:09.735Z,PARTIALLY_SHARED_UNIT_STAR-1-16-1,3,monitoring-unit-1,memory,0.3210868835449219
2022-05-11T14:30:19.735Z,PARTIALLY_SHARED_UNIT_STAR-1-16-1,3,monitoring-unit-1,memory,0.3210792541503906
2022-05-11T14:30:29.734Z,PARTIALLY_SHARED_UNIT_STAR-1-16-1,3,monitoring-unit-1,memory,0.3210792541503906
2022-05-11T14:30:39.735Z,PARTIALLY_SHARED_UNIT_STAR-1-16-1,3,monitoring-unit-1,memory,0.32083892822265625
2022-05-11T14:30:49.734Z,PARTIALLY_SHARED_UNIT_STAR-1-16-1,3,monitoring-unit-1,memory,0.320831298828125
2022-05-11T14:30:59.734Z,PARTIALLY_SHARED_UNIT_STAR-1-16-1,3,monitoring-unit-1,memory,0.320831298828125
2022-05-11T14:31:09.736Z,PARTIALLY_SHARED_UNIT_STAR-1-16-1,3,monitoring-unit-1,memory,0.320831298828125
2022-05-11T14:31:19.735Z,PARTIALLY_SHARED_UNIT_STAR-1-16-1,3,monitoring-unit-1,memory,0.3208198547363281
2022-05-11T14:31:29.735Z,PARTIALLY_SHARED_UNIT_STAR-1-16-1,3,monitoring-unit-1,memory,0.3208198547363281
2022-05-11T14:31:39.736Z,PARTIALLY_SHARED_UNIT_STAR-1-16-1,3,monitoring-unit-1,memory,0.32154083251953125
2022-05-11T14:31:49.735Z,PARTIALLY_SHARED_UNIT_STAR-1-16-1,3,monitoring-unit-1,memory,0.321533203125
2022-05-11T14:31:59.735Z,PARTIALLY_SHARED_UNIT_STAR-1-16-1,3,monitoring-unit-1,memory,0.321533203125
2022-05-11T14:32:09.739Z,PARTIALLY_SHARED_UNIT_STAR-1-16-1,3,monitoring-unit-1,memory,0.32152557373046875
2022-05-11T14:32:19.734Z,PARTIALLY_SHARED_UNIT_STAR-1-16-1,3,monitoring-unit-1,memory,0.3215179443359375
2022-05-11T14:32:29.735Z,PARTIALLY_SHARED_UNIT_STAR-1-16-1,3,monitoring-unit-1,memory,0.3215179443359375
2022-05-11T14:32:39.735Z,PARTIALLY_SHARED_UNIT_STAR-1-16-1,3,monitoring-unit-1,memory,0.3215179443359375
2022-05-11T14:32:49.735Z,PARTIALLY_SHARED_UNIT_STAR-1-16-1,3,monitoring-unit-1,memory,0.3212699890136719
2022-05-11T14:32:59.735Z,PARTIALLY_SHARED_UNIT_STAR-1-16-1,3,monitoring-unit-1,memory,0.3212699890136719
2022-05-11T14:33:09.735Z,PARTIALLY_SHARED_UNIT_STAR-1-16-1,3,monitoring-unit-1,memory,0.3212699890136719
2022-05-11T14:33:19.735Z,PARTIALLY_SHARED_UNIT_STAR-1-16-1,3,monitoring-unit-1,memory,0.3210182189941406
2022-05-11T14:33:29.734Z,PARTIALLY_SHARED_UNIT_STAR-1-16-1,3,monitoring-unit-1,memory,0.3210182189941406
2022-05-11T14:33:39.736Z,PARTIALLY_SHARED_UNIT_STAR-1-16-1,3,monitoring-unit-1,memory,0.3209877014160156
2022-05-11T14:33:49.734Z,PARTIALLY_SHARED_UNIT_STAR-1-16-1,3,monitoring-unit-1,memory,0.3209877014160156
2022-05-11T14:33:59.735Z,PARTIALLY_SHARED_UNIT_STAR-1-16-1,3,monitoring-unit-1,memory,0.32098388671875
2022-05-11T14:34:09.736Z,PARTIALLY_SHARED_UNIT_STAR-1-16-1,3,monitoring-unit-1,memory,0.32098388671875
2022-05-11T14:34:19.735Z,PARTIALLY_SHARED_UNIT_STAR-1-16-1,3,monitoring-unit-1,memory,0.3207359313964844
2022-05-11T14:34:29.735Z,PARTIALLY_SHARED_UNIT_STAR-1-16-1,3,monitoring-unit-1,memory,0.3207359313964844
2022-05-11T14:34:39.735Z,PARTIALLY_SHARED_UNIT_STAR-1-16-1,3,monitoring-unit-1,memory,0.32097625732421875
2022-05-11T14:34:49.735Z,PARTIALLY_SHARED_UNIT_STAR-1-16-1,3,monitoring-unit-1,memory,0.3209648132324219
2022-05-11T14:34:59.735Z,PARTIALLY_SHARED_UNIT_STAR-1-16-1,3,monitoring-unit-1,memory,0.3209648132324219
2022-05-11T14:35:09.735Z,PARTIALLY_SHARED_UNIT_STAR-1-16-1,3,monitoring-unit-1,memory,0.3209648132324219
2022-05-11T14:35:19.735Z,PARTIALLY_SHARED_UNIT_STAR-1-16-1,3,monitoring-unit-1,memory,0.32071685791015625
2022-05-11T14:35:29.735Z,PARTIALLY_SHARED_UNIT_STAR-1-16-1,3,monitoring-unit-1,memory,0.32071685791015625
2022-05-11T14:35:39.735Z,PARTIALLY_SHARED_UNIT_STAR-1-16-1,3,monitoring-unit-1,memory,0.3209571838378906
2022-05-11T14:35:49.734Z,PARTIALLY_SHARED_UNIT_STAR-1-16-1,3,monitoring-unit-1,memory,0.3209495544433594
2022-05-11T14:35:59.735Z,PARTIALLY_SHARED_UNIT_STAR-1-16-1,3,monitoring-unit-1,memory,0.3209495544433594
2022-05-11T14:36:09.735Z,PARTIALLY_SHARED_UNIT_STAR-1-16-1,3,monitoring-unit-1,memory,0.3209419250488281
2022-05-11T14:36:19.735Z,PARTIALLY_SHARED_UNIT_STAR-1-16-1,3,monitoring-unit-1,memory,0.32093048095703125
2022-05-11T14:36:29.735Z,PARTIALLY_SHARED_UNIT_STAR-1-16-1,3,monitoring-unit-1,memory,0.32093048095703125
2022-05-11T14:36:39.735Z,PARTIALLY_SHARED_UNIT_STAR-1-16-1,3,monitoring-unit-1,memory,0.3209342956542969
2022-05-11T14:36:49.735Z,PARTIALLY_SHARED_UNIT_STAR-1-16-1,3,monitoring-unit-1,memory,0.3209266662597656
2022-05-11T14:36:59.735Z,PARTIALLY_SHARED_UNIT_STAR-1-16-1,3,monitoring-unit-1,memory,0.3209266662597656
2022-05-11T14:37:09.736Z,PARTIALLY_SHARED_UNIT_STAR-1-16-1,3,monitoring-unit-1,memory,0.3209266662597656
2022-05-11T14:37:19.734Z,PARTIALLY_SHARED_UNIT_STAR-1-16-1,3,monitoring-unit-1,memory,0.3209114074707031
2022-05-11T14:37:29.735Z,PARTIALLY_SHARED_UNIT_STAR-1-16-1,3,monitoring-unit-1,memory,0.3209114074707031
2022-05-11T14:37:39.736Z,PARTIALLY_SHARED_UNIT_STAR-1-16-1,3,monitoring-unit-1,memory,0.3209114074707031
2022-05-11T14:37:49.735Z,PARTIALLY_SHARED_UNIT_STAR-1-16-1,3,monitoring-unit-1,memory,0.3209037780761719
2022-05-11T14:37:59.735Z,PARTIALLY_SHARED_UNIT_STAR-1-16-1,3,monitoring-unit-1,memory,0.3209037780761719
2022-05-11T14:38:09.735Z,PARTIALLY_SHARED_UNIT_STAR-1-16-1,3,monitoring-unit-1,memory,0.3209037780761719
2022-05-11T14:38:19.735Z,PARTIALLY_SHARED_UNIT_STAR-1-16-1,3,monitoring-unit-1,memory,0.320892333984375
2022-05-11T14:38:29.734Z,PARTIALLY_SHARED_UNIT_STAR-1-16-1,3,monitoring-unit-1,memory,0.320892333984375
2022-05-11T14:38:39.736Z,PARTIALLY_SHARED_UNIT_STAR-1-16-1,3,monitoring-unit-1,memory,0.320892333984375
