timestamp,key,run_id,resource,metric,value
2022-05-10T10:33:42.412Z,PARTIALLY_SHARED_UNIT_STAR-1-1-1,1,monitoring-unit-1,network_in,0.41313934326171875
2022-05-10T10:45:11.935Z,PARTIALLY_SHARED_UNIT_STAR-1-1-1,2,monitoring-unit-1,network_in,0.40712928771972656
2022-05-10T10:56:41.955Z,PARTIALLY_SHARED_UNIT_STAR-1-1-1,3,monitoring-unit-1,network_in,0.4022092819213867
2022-05-11T14:09:24.292Z,PARTIALLY_SHARED_UNIT_STAR-1-16-1,1,monitoring-unit-1,network_in,0.4255399703979492
2022-05-11T14:24:02.950Z,PARTIALLY_SHARED_UNIT_STAR-1-16-1,2,monitoring-unit-1,network_in,0.4096364974975586
2022-05-11T14:38:39.737Z,PARTIALLY_SHARED_UNIT_STAR-1-16-1,3,monitoring-unit-1,network_in,0.4074277877807617
2022-05-11T12:18:49.377Z,PARTIALLY_SHARED_UNIT_STAR-1-2-1,1,monitoring-unit-1,network_in,0.4335184097290039
2022-05-11T12:30:22.989Z,PARTIALLY_SHARED_UNIT_STAR-1-2-1,2,monitoring-unit-1,network_in,0.4022712707519531
2022-05-11T12:41:54.779Z,PARTIALLY_SHARED_UNIT_STAR-1-2-1,3,monitoring-unit-1,network_in,0.4070463180541992
2022-05-11T12:53:34.936Z,PARTIALLY_SHARED_UNIT_STAR-1-4-1,1,monitoring-unit-1,network_in,0.406707763671875
2022-05-11T13:05:16.709Z,PARTIALLY_SHARED_UNIT_STAR-1-4-1,2,monitoring-unit-1,network_in,0.4490528106689453
2022-05-11T13:17:01.011Z,PARTIALLY_SHARED_UNIT_STAR-1-4-1,3,monitoring-unit-1,network_in,0.42676448822021484
2022-05-11T13:29:37.666Z,PARTIALLY_SHARED_UNIT_STAR-1-8-1,1,monitoring-unit-1,network_in,0.4067211151123047
2022-05-11T13:42:23.258Z,PARTIALLY_SHARED_UNIT_STAR-1-8-1,2,monitoring-unit-1,network_in,0.4075498580932617
2022-05-11T13:55:05.742Z,PARTIALLY_SHARED_UNIT_STAR-1-8-1,3,monitoring-unit-1,network_in,0.4094257354736328
