2023-07-14T10:38:59.795Z,carts-delete,memory,280104960
2023-07-14T10:39:10.175Z,catalogue,memory,2420736
2023-07-14T10:38:59.795Z,user-login,memory,2973696
2023-07-14T10:39:10.175Z,user-login,memory,3211264
2023-07-14T10:39:10.175Z,orders,memory,253300736
2023-07-14T10:39:20.175Z,orders,memory,305098752
2023-07-14T10:39:20.175Z,catalogue,memory,2441216
2023-07-14T10:38:59.795Z,catalogue,memory,2420736
2023-07-14T10:39:10.175Z,carts-delete,memory,305623040
2023-07-14T10:39:20.175Z,carts-delete,memory,305623040
2023-07-14T10:39:20.175Z,user-login,memory,3211264
2023-07-14T10:38:59.938Z,user,memory,3096576
2023-07-14T10:38:59.938Z,user-register,memory,3256320
2023-07-14T10:39:20.490Z,user,memory,3211264
2023-07-14T10:38:59.938Z,carts-post,memory,294395904
2023-07-14T10:39:10.490Z,user,memory,3211264
2023-07-14T10:39:10.490Z,queue-master,memory,258002944
2023-07-14T10:39:20.490Z,queue-master,memory,258093056
2023-07-14T10:38:59.938Z,payment,memory,2351104
2023-07-14T10:39:10.490Z,user-register,memory,3350528
2023-07-14T10:39:10.490Z,payment,memory,2363392
2023-07-14T10:39:20.490Z,carts-post,memory,301580288
2023-07-14T10:39:20.490Z,user-register,memory,3350528
2023-07-14T10:39:20.490Z,payment,memory,2363392
2023-07-14T10:38:59.938Z,queue-master,memory,257421312
2023-07-14T10:39:10.490Z,carts-post,memory,301580288
2023-07-14T10:38:59.833Z,shipping,memory,251588608
2023-07-14T10:39:20.321Z,shipping,memory,277254144
2023-07-14T10:38:59.833Z,carts-get,memory,213467136
2023-07-14T10:39:20.321Z,carts-get,memory,272535552
2023-07-14T10:39:10.321Z,shipping,memory,257634304
2023-07-14T10:39:20.321Z,carts,memory,275394560
2023-07-14T10:38:59.833Z,carts,memory,194899968
2023-07-14T10:39:10.321Z,carts,memory,252903424
2023-07-14T10:39:10.321Z,carts-get,memory,244502528
2023-07-14T10:39:30.175Z,orders,memory,307871744
2023-07-14T10:39:30.321Z,shipping,memory,277254144
2023-07-14T10:39:30.175Z,catalogue,memory,2461696
2023-07-14T10:39:30.321Z,carts-get,memory,272535552
2023-07-14T10:39:30.175Z,carts-delete,memory,306556928
2023-07-14T10:39:30.321Z,carts,memory,275394560
2023-07-14T10:39:30.175Z,user-login,memory,3244032
2023-07-14T10:39:30.489Z,user-register,memory,3350528
2023-07-14T10:39:30.489Z,user,memory,3211264
2023-07-14T10:39:30.489Z,carts-post,memory,301580288
2023-07-14T10:39:30.489Z,queue-master,memory,258093056
2023-07-14T10:39:30.489Z,payment,memory,2363392
2023-07-14T10:39:40.175Z,user-login,memory,3276800
2023-07-14T10:39:40.175Z,catalogue,memory,2469888
2023-07-14T10:39:40.175Z,orders,memory,307871744
2023-07-14T10:39:40.175Z,carts-delete,memory,306556928
2023-07-14T10:39:40.323Z,carts,memory,311992320
2023-07-14T10:39:40.323Z,carts-get,memory,310611968
2023-07-14T10:39:40.323Z,shipping,memory,293822464
2023-07-14T10:39:40.489Z,user,memory,3260416
2023-07-14T10:39:40.489Z,carts-post,memory,306139136
2023-07-14T10:39:40.489Z,payment,memory,2473984
2023-07-14T10:39:40.489Z,user-register,memory,3432448
2023-07-14T10:39:40.489Z,queue-master,memory,258375680
2023-07-14T10:39:50.176Z,carts-delete,memory,306442240
2023-07-14T10:39:50.176Z,catalogue,memory,2469888
2023-07-14T10:39:50.176Z,user-login,memory,3338240
2023-07-14T10:39:50.176Z,orders,memory,309903360
2023-07-14T10:39:50.321Z,shipping,memory,293822464
2023-07-14T10:39:50.321Z,carts-get,memory,310611968
2023-07-14T10:39:50.321Z,carts,memory,311992320
2023-07-14T10:39:50.489Z,payment,memory,2510848
2023-07-14T10:39:50.489Z,queue-master,memory,258375680
2023-07-14T10:39:50.489Z,user-register,memory,3432448
2023-07-14T10:39:50.489Z,carts-post,memory,306139136
2023-07-14T10:39:50.489Z,user,memory,3293184
2023-07-14T10:40:00.175Z,carts-delete,memory,306442240
2023-07-14T10:40:00.175Z,catalogue,memory,2469888
2023-07-14T10:40:00.175Z,orders,memory,309903360
2023-07-14T10:40:00.175Z,user-login,memory,3338240
2023-07-14T10:40:00.321Z,carts-get,memory,321216512
2023-07-14T10:40:00.321Z,shipping,memory,298291200
2023-07-14T10:40:00.321Z,carts,memory,314335232
2023-07-14T10:40:00.489Z,user-register,memory,3481600
2023-07-14T10:40:00.489Z,carts-post,memory,306438144
2023-07-14T10:40:00.489Z,queue-master,memory,260505600
2023-07-14T10:40:00.489Z,payment,memory,2514944
2023-07-14T10:40:00.489Z,user,memory,3293184
2023-07-14T10:40:10.175Z,orders,memory,309923840
2023-07-14T10:40:10.175Z,catalogue,memory,2490368
2023-07-14T10:40:10.175Z,carts-delete,memory,305463296
2023-07-14T10:40:10.175Z,user-login,memory,3383296
2023-07-14T10:40:10.321Z,carts,memory,312479744
2023-07-14T10:40:10.321Z,carts-get,memory,321216512
2023-07-14T10:40:10.321Z,shipping,memory,304713728
2023-07-14T10:40:10.490Z,user-register,memory,3506176
2023-07-14T10:40:10.490Z,payment,memory,2514944
2023-07-14T10:40:10.490Z,user,memory,3354624
2023-07-14T10:40:10.490Z,queue-master,memory,260534272
2023-07-14T10:40:10.490Z,carts-post,memory,306438144
2023-07-14T10:40:20.175Z,catalogue,memory,2519040
2023-07-14T10:40:20.175Z,user-login,memory,3399680
2023-07-14T10:40:20.175Z,carts-delete,memory,305033216
2023-07-14T10:40:20.175Z,orders,memory,318173184
2023-07-14T10:40:20.321Z,shipping,memory,305319936
2023-07-14T10:40:20.321Z,carts,memory,312479744
2023-07-14T10:40:20.321Z,carts-get,memory,313028608
2023-07-14T10:40:20.489Z,user-register,memory,3506176
2023-07-14T10:40:20.489Z,payment,memory,2514944
2023-07-14T10:40:20.489Z,user,memory,3354624
2023-07-14T10:40:20.489Z,queue-master,memory,260534272
2023-07-14T10:40:20.489Z,carts-post,memory,306438144
2023-07-14T10:40:30.175Z,catalogue,memory,2519040
2023-07-14T10:40:30.175Z,user-login,memory,3399680
2023-07-14T10:40:30.175Z,carts-delete,memory,305033216
2023-07-14T10:40:30.175Z,orders,memory,318173184
2023-07-14T10:40:30.321Z,shipping,memory,305319936
2023-07-14T10:40:30.321Z,carts-get,memory,313159680
2023-07-14T10:40:30.321Z,carts,memory,312516608
2023-07-14T10:40:30.490Z,carts-post,memory,306733056
2023-07-14T10:40:30.490Z,user-register,memory,3555328
2023-07-14T10:40:30.490Z,user,memory,3424256
2023-07-14T10:40:30.490Z,queue-master,memory,263618560
2023-07-14T10:40:30.490Z,payment,memory,2605056
2023-07-14T10:40:40.321Z,carts-get,memory,313159680
2023-07-14T10:40:40.321Z,carts,memory,312516608
2023-07-14T10:40:40.175Z,carts-delete,memory,305033216
2023-07-14T10:40:40.175Z,orders,memory,312025088
2023-07-14T10:40:40.175Z,catalogue,memory,2547712
2023-07-14T10:40:40.175Z,user-login,memory,3428352
2023-07-14T10:40:40.321Z,shipping,memory,305319936
2023-07-14T10:40:40.489Z,queue-master,memory,263733248
2023-07-14T10:40:40.489Z,user-register,memory,3641344
2023-07-14T10:40:40.489Z,payment,memory,2605056
2023-07-14T10:40:40.489Z,user,memory,3424256
2023-07-14T10:40:40.489Z,carts-post,memory,306733056
2023-07-14T10:40:50.175Z,orders,memory,312037376
2023-07-14T10:40:50.321Z,carts-get,memory,313159680
2023-07-14T10:40:50.175Z,carts-delete,memory,305065984
2023-07-14T10:40:50.175Z,user-login,memory,3481600
2023-07-14T10:40:50.175Z,catalogue,memory,2564096
2023-07-14T10:40:50.321Z,carts,memory,312516608
2023-07-14T10:40:50.321Z,shipping,memory,305475584
2023-07-14T10:40:50.489Z,carts-post,memory,306806784
2023-07-14T10:40:50.489Z,user,memory,3432448
2023-07-14T10:40:50.489Z,user-register,memory,3678208
2023-07-14T10:40:50.489Z,payment,memory,2617344
2023-07-14T10:40:50.489Z,queue-master,memory,263733248
2023-07-14T10:41:00.175Z,user-login,memory,3493888
2023-07-14T10:41:00.175Z,catalogue,memory,2564096
2023-07-14T10:41:00.175Z,carts-delete,memory,305065984
2023-07-14T10:41:00.175Z,orders,memory,312037376
2023-07-14T10:41:00.321Z,shipping,memory,305496064
2023-07-14T10:41:00.321Z,carts,memory,312668160
2023-07-14T10:41:00.489Z,payment,memory,2637824
2023-07-14T10:41:00.489Z,user-register,memory,3678208
2023-07-14T10:41:00.489Z,queue-master,memory,260354048
2023-07-14T10:41:00.321Z,carts-get,memory,312184832
2023-07-14T10:41:00.489Z,user,memory,3493888
2023-07-14T10:41:00.489Z,carts-post,memory,306806784
2023-07-14T10:41:10.176Z,user-login,memory,3493888
2023-07-14T10:41:10.176Z,catalogue,memory,2588672
2023-07-14T10:41:10.176Z,carts-delete,memory,304058368
2023-07-14T10:41:10.176Z,orders,memory,312037376
2023-07-14T10:41:10.322Z,carts,memory,312700928
2023-07-14T10:41:10.322Z,carts-get,memory,312201216
2023-07-14T10:41:10.322Z,shipping,memory,305856512
2023-07-14T10:41:10.490Z,queue-master,memory,260354048
2023-07-14T10:41:10.490Z,carts-post,memory,306659328
2023-07-14T10:41:10.490Z,user,memory,3592192
2023-07-14T10:41:10.490Z,payment,memory,2637824
2023-07-14T10:41:10.490Z,user-register,memory,3735552
2023-07-14T10:41:20.175Z,catalogue,memory,2588672
2023-07-14T10:41:20.175Z,user-login,memory,3493888
2023-07-14T10:41:20.175Z,orders,memory,312037376
2023-07-14T10:41:20.175Z,carts-delete,memory,304058368
2023-07-14T10:41:20.321Z,shipping,memory,305856512
2023-07-14T10:41:20.321Z,carts-get,memory,312201216
2023-07-14T10:41:20.321Z,carts,memory,312700928
2023-07-14T10:41:20.489Z,queue-master,memory,260354048
2023-07-14T10:41:20.489Z,carts-post,memory,306659328
2023-07-14T10:41:20.489Z,user,memory,3592192
2023-07-14T10:41:20.489Z,payment,memory,2637824
2023-07-14T10:41:20.489Z,user-register,memory,3735552
2023-07-14T10:41:30.321Z,shipping,memory,305623040
2023-07-14T10:41:30.175Z,orders,memory,312082432
2023-07-14T10:41:30.175Z,catalogue,memory,2621440
2023-07-14T10:41:30.321Z,carts,memory,312700928
2023-07-14T10:41:30.175Z,user-login,memory,3559424
2023-07-14T10:41:30.175Z,carts-delete,memory,304087040
2023-07-14T10:41:30.321Z,carts-get,memory,312201216
2023-07-14T10:41:30.490Z,payment,memory,2666496
2023-07-14T10:41:30.490Z,user,memory,3616768
2023-07-14T10:41:30.490Z,carts-post,memory,314904576
2023-07-14T10:41:30.490Z,user-register,memory,3760128
2023-07-14T10:41:30.490Z,queue-master,memory,262115328
2023-07-14T10:41:40.175Z,catalogue,memory,2621440
2023-07-14T10:41:40.175Z,user-login,memory,3612672
2023-07-14T10:41:40.175Z,orders,memory,315629568
2023-07-14T10:41:40.175Z,carts-delete,memory,304119808
2023-07-14T10:41:40.322Z,shipping,memory,304771072
2023-07-14T10:41:40.322Z,carts,memory,311283712
2023-07-14T10:41:40.322Z,carts-get,memory,310415360
2023-07-14T10:41:40.490Z,user,memory,3661824
2023-07-14T10:41:40.490Z,user-register,memory,3801088
2023-07-14T10:41:40.490Z,payment,memory,2666496
2023-07-14T10:41:40.490Z,carts-post,memory,316661760
2023-07-14T10:41:40.490Z,queue-master,memory,262115328
2023-07-14T10:41:50.176Z,user-login,memory,3612672
2023-07-14T10:41:50.176Z,catalogue,memory,2646016
2023-07-14T10:41:50.176Z,carts-delete,memory,304136192
2023-07-14T10:41:50.176Z,orders,memory,311447552
2023-07-14T10:41:50.321Z,carts,memory,311283712
2023-07-14T10:41:50.321Z,carts-get,memory,310415360
2023-07-14T10:41:50.321Z,shipping,memory,304771072
2023-07-14T10:41:50.489Z,user-register,memory,3858432
2023-07-14T10:41:50.489Z,queue-master,memory,264564736
2023-07-14T10:41:50.489Z,carts-post,memory,316661760
2023-07-14T10:41:50.489Z,payment,memory,2682880
2023-07-14T10:41:50.489Z,user,memory,3661824
2023-07-14T10:42:00.175Z,user-login,memory,3612672
2023-07-14T10:42:00.175Z,orders,memory,311447552
2023-07-14T10:42:00.175Z,catalogue,memory,2646016
2023-07-14T10:42:00.175Z,carts-delete,memory,304136192
2023-07-14T10:42:00.321Z,carts,memory,312012800
2023-07-14T10:42:00.321Z,carts-get,memory,312340480
2023-07-14T10:42:00.321Z,shipping,memory,304791552
2023-07-14T10:42:00.489Z,user-register,memory,3858432
2023-07-14T10:42:00.489Z,queue-master,memory,264564736
2023-07-14T10:42:00.489Z,user,memory,3686400
2023-07-14T10:42:00.489Z,payment,memory,2695168
2023-07-14T10:42:00.489Z,carts-post,memory,316772352
2023-07-14T10:42:10.321Z,carts-get,memory,312340480
2023-07-14T10:42:10.176Z,catalogue,memory,2736128
2023-07-14T10:42:10.176Z,orders,memory,311164928
2023-07-14T10:42:10.176Z,user-login,memory,3715072
2023-07-14T10:42:10.176Z,carts-delete,memory,304160768
2023-07-14T10:42:10.321Z,shipping,memory,304791552
2023-07-14T10:42:10.321Z,carts,memory,312012800
2023-07-14T10:42:10.489Z,user-register,memory,3858432
2023-07-14T10:42:10.489Z,queue-master,memory,264564736
2023-07-14T10:42:10.489Z,user,memory,3686400
2023-07-14T10:42:10.489Z,payment,memory,2695168
2023-07-14T10:42:10.489Z,carts-post,memory,316772352
2023-07-14T10:42:20.175Z,carts-delete,memory,304160768
2023-07-14T10:42:20.175Z,user-login,memory,3715072
2023-07-14T10:42:20.175Z,orders,memory,311193600
2023-07-14T10:42:20.175Z,catalogue,memory,2879488
2023-07-14T10:42:20.322Z,shipping,memory,304840704
2023-07-14T10:42:20.322Z,carts,memory,311574528
2023-07-14T10:42:20.322Z,carts-get,memory,312340480
2023-07-14T10:42:20.489Z,payment,memory,2736128
2023-07-14T10:42:20.489Z,user,memory,3739648
2023-07-14T10:42:20.489Z,queue-master,memory,261066752
2023-07-14T10:42:20.489Z,user-register,memory,3899392
2023-07-14T10:42:20.489Z,carts-post,memory,319578112
2023-07-14T10:42:30.176Z,orders,memory,311193600
2023-07-14T10:42:30.176Z,catalogue,memory,2879488
2023-07-14T10:42:30.176Z,user-login,memory,3743744
2023-07-14T10:42:30.176Z,carts-delete,memory,304283648
2023-07-14T10:42:30.321Z,carts,memory,311263232
2023-07-14T10:42:30.321Z,carts-get,memory,312365056
2023-07-14T10:42:30.321Z,shipping,memory,304852992
2023-07-14T10:42:30.489Z,user-register,memory,3899392
2023-07-14T10:42:30.489Z,payment,memory,2736128
2023-07-14T10:42:30.489Z,user,memory,3739648
2023-07-14T10:42:30.489Z,queue-master,memory,261066752
2023-07-14T10:42:30.489Z,carts-post,memory,319537152
2023-07-14T10:42:40.175Z,orders,memory,311193600
2023-07-14T10:42:40.175Z,catalogue,memory,2879488
2023-07-14T10:42:40.175Z,user-login,memory,3743744
2023-07-14T10:42:40.175Z,carts-delete,memory,304283648
2023-07-14T10:42:40.322Z,shipping,memory,304852992
2023-07-14T10:42:40.322Z,carts,memory,311263232
2023-07-14T10:42:40.322Z,carts-get,memory,312074240
2023-07-14T10:42:40.489Z,queue-master,memory,260997120
2023-07-14T10:42:40.489Z,payment,memory,2736128
2023-07-14T10:42:40.489Z,user-register,memory,3985408
2023-07-14T10:42:40.489Z,carts-post,memory,319537152
2023-07-14T10:42:40.489Z,user,memory,3829760
2023-07-14T10:42:50.175Z,carts-delete,memory,304754688
2023-07-14T10:42:50.321Z,carts-get,memory,312074240
2023-07-14T10:42:50.175Z,user-login,memory,3809280
2023-07-14T10:42:50.321Z,shipping,memory,304852992
2023-07-14T10:42:50.175Z,orders,memory,309227520
2023-07-14T10:42:50.175Z,catalogue,memory,2887680
2023-07-14T10:42:50.321Z,carts,memory,311263232
2023-07-14T10:42:50.489Z,carts-post,memory,321040384
2023-07-14T10:42:50.489Z,payment,memory,2768896
2023-07-14T10:42:50.489Z,user,memory,3854336
2023-07-14T10:42:50.489Z,user-register,memory,3985408
2023-07-14T10:42:50.489Z,queue-master,memory,260997120
2023-07-14T10:43:00.175Z,carts-delete,memory,304754688
2023-07-14T10:43:00.175Z,user-login,memory,3858432
2023-07-14T10:43:00.175Z,catalogue,memory,2895872
2023-07-14T10:43:00.175Z,orders,memory,309248000
2023-07-14T10:43:00.321Z,carts,memory,311312384
2023-07-14T10:43:00.321Z,shipping,memory,304881664
2023-07-14T10:43:00.321Z,carts-get,memory,311095296
2023-07-14T10:43:00.489Z,user-register,memory,3985408
2023-07-14T10:43:00.489Z,payment,memory,2768896
2023-07-14T10:43:00.489Z,queue-master,memory,260997120
2023-07-14T10:43:00.489Z,carts-post,memory,321040384
2023-07-14T10:43:00.489Z,user,memory,3854336
2023-07-14T10:43:10.175Z,carts-delete,memory,304754688
2023-07-14T10:43:10.175Z,orders,memory,309248000
2023-07-14T10:43:10.175Z,user-login,memory,3858432
2023-07-14T10:43:10.175Z,catalogue,memory,2895872
2023-07-14T10:43:10.322Z,shipping,memory,304902144
2023-07-14T10:43:10.322Z,carts-get,memory,310804480
2023-07-14T10:43:10.322Z,carts,memory,310005760
2023-07-14T10:43:10.489Z,user-register,memory,3981312
2023-07-14T10:43:10.489Z,user,memory,3899392
2023-07-14T10:43:10.489Z,payment,memory,2818048
2023-07-14T10:43:10.489Z,carts-post,memory,321105920
2023-07-14T10:43:10.489Z,queue-master,memory,261017600
2023-07-14T10:43:20.175Z,carts-delete,memory,304975872
2023-07-14T10:43:20.322Z,carts,memory,310005760
2023-07-14T10:43:20.175Z,catalogue,memory,2920448
2023-07-14T10:43:20.322Z,carts-get,memory,310804480
2023-07-14T10:43:20.322Z,shipping,memory,304902144
2023-07-14T10:43:20.175Z,user-login,memory,3891200
2023-07-14T10:43:20.175Z,orders,memory,309301248
2023-07-14T10:43:20.489Z,payment,memory,2842624
2023-07-14T10:43:20.489Z,queue-master,memory,261017600
2023-07-14T10:43:20.489Z,carts-post,memory,321015808
2023-07-14T10:43:20.489Z,user-register,memory,4026368
2023-07-14T10:43:20.489Z,user,memory,3899392
2023-07-14T10:43:30.176Z,orders,memory,309334016
2023-07-14T10:43:30.176Z,user-login,memory,3919872
2023-07-14T10:43:30.176Z,carts-delete,memory,304975872
2023-07-14T10:43:30.322Z,carts-get,memory,310804480
2023-07-14T10:43:30.322Z,carts,memory,309960704
2023-07-14T10:43:30.176Z,catalogue,memory,2932736
2023-07-14T10:43:30.322Z,shipping,memory,303411200
2023-07-14T10:43:30.490Z,user-register,memory,4046848
2023-07-14T10:43:30.490Z,carts-post,memory,321081344
2023-07-14T10:43:30.490Z,queue-master,memory,261083136
2023-07-14T10:43:30.490Z,payment,memory,2859008
2023-07-14T10:43:30.490Z,user,memory,3923968
2023-07-14T10:43:40.175Z,carts-delete,memory,304979968
2023-07-14T10:43:40.175Z,catalogue,memory,2940928
2023-07-14T10:43:40.175Z,orders,memory,309334016
2023-07-14T10:43:40.175Z,user-login,memory,3944448
2023-07-14T10:43:40.321Z,shipping,memory,303419392
2023-07-14T10:43:40.321Z,carts,memory,310034432
2023-07-14T10:43:40.321Z,carts-get,memory,310833152
2023-07-14T10:43:40.489Z,user-register,memory,4046848
2023-07-14T10:43:40.489Z,carts-post,memory,321081344
2023-07-14T10:43:40.489Z,queue-master,memory,261083136
2023-07-14T10:43:40.489Z,payment,memory,2859008
2023-07-14T10:43:40.489Z,user,memory,3923968
2023-07-14T10:43:50.175Z,orders,memory,309342208
2023-07-14T10:43:50.175Z,carts-delete,memory,304975872
2023-07-14T10:43:50.175Z,catalogue,memory,2957312
2023-07-14T10:43:50.175Z,user-login,memory,3956736
2023-07-14T10:43:50.321Z,carts,memory,310034432
2023-07-14T10:43:50.321Z,shipping,memory,303419392
2023-07-14T10:43:50.321Z,carts-get,memory,310902784
2023-07-14T10:43:50.489Z,carts-post,memory,321228800
2023-07-14T10:43:50.489Z,payment,memory,2867200
2023-07-14T10:43:50.489Z,user-register,memory,4087808
2023-07-14T10:43:50.489Z,user,memory,3973120
2023-07-14T10:43:50.489Z,queue-master,memory,261079040
2023-07-14T10:44:00.175Z,orders,memory,309366784
2023-07-14T10:44:00.175Z,carts-delete,memory,305729536
2023-07-14T10:44:00.175Z,user-login,memory,3956736
2023-07-14T10:44:00.175Z,catalogue,memory,2957312
2023-07-14T10:44:00.321Z,carts-get,memory,310071296
2023-07-14T10:44:00.321Z,shipping,memory,303460352
2023-07-14T10:44:00.321Z,carts,memory,310083584
2023-07-14T10:44:00.490Z,carts-post,memory,321228800
2023-07-14T10:44:00.490Z,payment,memory,2879488
2023-07-14T10:44:00.490Z,user-register,memory,4120576
2023-07-14T10:44:00.490Z,user,memory,3989504
2023-07-14T10:44:00.490Z,queue-master,memory,261099520
2023-07-14T10:44:10.176Z,catalogue,memory,2973696
2023-07-14T10:44:10.176Z,user-login,memory,3989504
2023-07-14T10:44:10.176Z,carts-delete,memory,305631232
2023-07-14T10:44:10.176Z,orders,memory,309379072
2023-07-14T10:44:10.321Z,carts,memory,310083584
2023-07-14T10:44:10.321Z,shipping,memory,303460352
2023-07-14T10:44:10.321Z,carts-get,memory,310071296
2023-07-14T10:44:10.489Z,queue-master,memory,261099520
2023-07-14T10:44:10.489Z,user-register,memory,4120576
2023-07-14T10:44:10.489Z,user,memory,3989504
2023-07-14T10:44:10.489Z,carts-post,memory,321228800
2023-07-14T10:44:10.489Z,payment,memory,2879488
2023-07-14T10:44:20.175Z,catalogue,memory,2973696
2023-07-14T10:44:20.175Z,user-login,memory,3989504
2023-07-14T10:44:20.175Z,carts-delete,memory,305631232
2023-07-14T10:44:20.175Z,orders,memory,309379072
2023-07-14T10:44:20.322Z,carts-get,memory,310128640
2023-07-14T10:44:20.322Z,carts,memory,310083584
2023-07-14T10:44:20.322Z,shipping,memory,301281280
2023-07-14T10:44:20.489Z,queue-master,memory,261107712
2023-07-14T10:44:20.489Z,carts-post,memory,321277952
2023-07-14T10:44:20.489Z,user-register,memory,4182016
2023-07-14T10:44:20.489Z,user,memory,4030464
2023-07-14T10:44:20.489Z,payment,memory,2895872
2023-07-14T10:44:30.175Z,catalogue,memory,3002368
2023-07-14T10:44:30.321Z,carts,memory,310083584
2023-07-14T10:44:30.175Z,orders,memory,309420032
2023-07-14T10:44:30.175Z,user-login,memory,4042752
2023-07-14T10:44:30.321Z,shipping,memory,301281280
2023-07-14T10:44:30.175Z,carts-delete,memory,305672192
2023-07-14T10:44:30.321Z,carts-get,memory,310128640
2023-07-14T10:44:30.489Z,user,memory,4046848
2023-07-14T10:44:30.489Z,user-register,memory,4218880
2023-07-14T10:44:30.489Z,queue-master,memory,262651904
2023-07-14T10:44:30.489Z,payment,memory,2895872
2023-07-14T10:44:30.489Z,carts-post,memory,321277952
2023-07-14T10:44:40.322Z,carts,memory,310083584
2023-07-14T10:44:40.175Z,carts-delete,memory,305721344
2023-07-14T10:44:40.175Z,orders,memory,309444608
2023-07-14T10:44:40.322Z,shipping,memory,300285952
2023-07-14T10:44:40.175Z,user-login,memory,4042752
2023-07-14T10:44:40.175Z,catalogue,memory,3014656
2023-07-14T10:44:40.322Z,carts-get,memory,309665792
2023-07-14T10:44:40.489Z,user-register,memory,4218880
2023-07-14T10:44:40.489Z,carts-post,memory,321413120
2023-07-14T10:44:40.489Z,user,memory,4046848
2023-07-14T10:44:40.489Z,payment,memory,2912256
2023-07-14T10:44:40.489Z,queue-master,memory,262651904
2023-07-14T10:44:50.175Z,catalogue,memory,3022848
2023-07-14T10:44:50.175Z,user-login,memory,4112384
2023-07-14T10:44:50.175Z,carts-delete,memory,305840128
2023-07-14T10:44:50.175Z,orders,memory,309882880
2023-07-14T10:44:50.321Z,shipping,memory,300363776
2023-07-14T10:44:50.321Z,carts-get,memory,309727232
2023-07-14T10:44:50.321Z,carts,memory,310149120
2023-07-14T10:44:50.489Z,payment,memory,2924544
2023-07-14T10:44:50.489Z,user-register,memory,4382720
2023-07-14T10:44:50.489Z,carts-post,memory,321413120
2023-07-14T10:44:50.489Z,user,memory,4091904
2023-07-14T10:44:50.489Z,queue-master,memory,262672384
2023-07-14T10:45:00.175Z,catalogue,memory,3055616
2023-07-14T10:45:00.175Z,user-login,memory,4132864
2023-07-14T10:45:00.175Z,carts-delete,memory,305840128
2023-07-14T10:45:00.175Z,orders,memory,309882880
2023-07-14T10:45:00.321Z,carts-get,memory,309727232
2023-07-14T10:45:00.321Z,carts,memory,310149120
2023-07-14T10:45:00.321Z,shipping,memory,300363776
2023-07-14T10:45:00.489Z,user-register,memory,4382720
2023-07-14T10:45:00.489Z,user,memory,4091904
2023-07-14T10:45:00.489Z,queue-master,memory,262672384
2023-07-14T10:45:00.489Z,payment,memory,2924544
2023-07-14T10:45:00.489Z,carts-post,memory,321413120
2023-07-14T10:45:10.175Z,carts-delete,memory,305840128
2023-07-14T10:45:10.175Z,orders,memory,309882880
2023-07-14T10:45:10.175Z,catalogue,memory,3055616
2023-07-14T10:45:10.175Z,user-login,memory,4132864
2023-07-14T10:45:10.321Z,carts,memory,309956608
2023-07-14T10:45:10.321Z,shipping,memory,300371968
2023-07-14T10:45:10.321Z,carts-get,memory,309792768
2023-07-14T10:45:10.489Z,carts-post,memory,321646592
2023-07-14T10:45:10.489Z,queue-master,memory,264089600
2023-07-14T10:45:10.489Z,user,memory,4194304
2023-07-14T10:45:10.489Z,user-register,memory,4284416
2023-07-14T10:45:10.489Z,payment,memory,2940928
2023-07-14T10:45:20.175Z,orders,memory,309977088
2023-07-14T10:45:20.175Z,catalogue,memory,3055616
2023-07-14T10:45:20.175Z,carts-delete,memory,305766400
2023-07-14T10:45:20.175Z,user-login,memory,4182016
2023-07-14T10:45:20.321Z,carts-get,memory,309907456
2023-07-14T10:45:20.321Z,carts,memory,310177792
2023-07-14T10:45:20.321Z,shipping,memory,300445696
2023-07-14T10:45:20.489Z,user,memory,4231168
2023-07-14T10:45:20.489Z,payment,memory,2961408
2023-07-14T10:45:20.489Z,user-register,memory,4329472
2023-07-14T10:45:20.489Z,carts-post,memory,321691648
2023-07-14T10:45:20.489Z,queue-master,memory,279474176
2023-07-14T10:45:30.175Z,user-login,memory,4182016
2023-07-14T10:45:30.175Z,orders,memory,309977088
2023-07-14T10:45:30.175Z,carts-delete,memory,308576256
2023-07-14T10:45:30.175Z,catalogue,memory,3076096
2023-07-14T10:45:30.322Z,carts,memory,310177792
2023-07-14T10:45:30.322Z,carts-get,memory,309956608
2023-07-14T10:45:30.322Z,shipping,memory,300326912
2023-07-14T10:45:30.490Z,queue-master,memory,280977408
2023-07-14T10:45:30.490Z,payment,memory,2961408
2023-07-14T10:45:30.490Z,carts-post,memory,321691648
2023-07-14T10:45:30.490Z,user,memory,4231168
2023-07-14T10:45:30.490Z,user-register,memory,4374528
2023-07-14T10:45:40.176Z,catalogue,memory,3076096
2023-07-14T10:45:40.176Z,orders,memory,310104064
2023-07-14T10:45:40.176Z,user-login,memory,4206592
2023-07-14T10:45:40.176Z,carts-delete,memory,312172544
2023-07-14T10:45:40.321Z,carts-get,memory,309956608
2023-07-14T10:45:40.321Z,shipping,memory,300326912
2023-07-14T10:45:40.321Z,carts,memory,310177792
2023-07-14T10:45:40.489Z,user-register,memory,4374528
2023-07-14T10:45:40.489Z,queue-master,memory,280977408
2023-07-14T10:45:40.489Z,payment,memory,2961408
2023-07-14T10:45:40.489Z,carts-post,memory,321691648
2023-07-14T10:45:40.489Z,user,memory,4231168
2023-07-14T10:45:50.175Z,carts-delete,memory,312172544
2023-07-14T10:45:50.175Z,catalogue,memory,3076096
2023-07-14T10:45:50.175Z,orders,memory,310104064
2023-07-14T10:45:50.175Z,user-login,memory,4206592
2023-07-14T10:45:50.321Z,shipping,memory,300326912
2023-07-14T10:45:50.321Z,carts-get,memory,309956608
2023-07-14T10:45:50.321Z,carts,memory,310210560
2023-07-14T10:45:50.489Z,user,memory,4333568
2023-07-14T10:45:50.489Z,carts-post,memory,321867776
2023-07-14T10:45:50.489Z,queue-master,memory,281047040
2023-07-14T10:45:50.489Z,payment,memory,2973696
2023-07-14T10:45:50.489Z,user-register,memory,4403200
2023-07-14T10:46:00.175Z,carts-delete,memory,318922752
2023-07-14T10:46:00.175Z,catalogue,memory,3100672
2023-07-14T10:46:00.175Z,user-login,memory,4239360
2023-07-14T10:46:00.175Z,orders,memory,310300672
2023-07-14T10:46:00.321Z,carts,memory,310235136
2023-07-14T10:46:00.321Z,shipping,memory,300175360
2023-07-14T10:46:00.490Z,user-register,memory,4419584
2023-07-14T10:46:00.490Z,payment,memory,2994176
2023-07-14T10:46:00.490Z,queue-master,memory,281047040
2023-07-14T10:46:00.490Z,user,memory,4333568
2023-07-14T10:46:00.321Z,carts-get,memory,309866496
2023-07-14T10:46:00.490Z,carts-post,memory,321867776
2023-07-14T10:46:10.175Z,catalogue,memory,3100672
2023-07-14T10:46:10.175Z,orders,memory,310370304
2023-07-14T10:46:10.175Z,user-login,memory,4321280
2023-07-14T10:46:10.175Z,carts-delete,memory,318992384
2023-07-14T10:46:10.321Z,shipping,memory,300257280
2023-07-14T10:46:10.321Z,carts,memory,310689792
2023-07-14T10:46:10.321Z,carts-get,memory,309903360
2023-07-14T10:46:10.489Z,payment,memory,2994176
2023-07-14T10:46:10.489Z,queue-master,memory,281047040
2023-07-14T10:46:10.489Z,user-register,memory,4419584
2023-07-14T10:46:10.489Z,carts-post,memory,321867776
2023-07-14T10:46:10.489Z,user,memory,4333568
2023-07-14T10:46:20.175Z,catalogue,memory,3125248
2023-07-14T10:46:20.175Z,carts-delete,memory,319041536
2023-07-14T10:46:20.175Z,user-login,memory,4329472
2023-07-14T10:46:20.175Z,orders,memory,310370304
2023-07-14T10:46:20.321Z,shipping,memory,300347392
2023-07-14T10:46:20.321Z,carts-get,memory,309903360
2023-07-14T10:46:20.321Z,carts,memory,310689792
2023-07-14T10:46:20.490Z,payment,memory,3010560
2023-07-14T10:46:20.490Z,user,memory,4378624
2023-07-14T10:46:20.490Z,user-register,memory,4603904
2023-07-14T10:46:20.490Z,queue-master,memory,285405184
2023-07-14T10:46:20.490Z,carts-post,memory,321900544
2023-07-14T10:46:30.175Z,user-login,memory,4329472
2023-07-14T10:46:30.175Z,orders,memory,310083584
2023-07-14T10:46:30.175Z,carts-delete,memory,319041536
2023-07-14T10:46:30.175Z,catalogue,memory,3129344
2023-07-14T10:46:30.322Z,carts-get,memory,309952512
2023-07-14T10:46:30.322Z,carts,memory,310767616
2023-07-14T10:46:30.322Z,shipping,memory,300367872
2023-07-14T10:46:30.489Z,payment,memory,3039232
2023-07-14T10:46:30.489Z,user,memory,4415488
2023-07-14T10:46:30.489Z,carts-post,memory,321900544
2023-07-14T10:46:30.489Z,queue-master,memory,285405184
2023-07-14T10:46:30.489Z,user-register,memory,4481024
2023-07-14T10:46:40.175Z,carts-delete,memory,319041536
2023-07-14T10:46:40.175Z,catalogue,memory,3129344
2023-07-14T10:46:40.175Z,user-login,memory,4329472
2023-07-14T10:46:40.175Z,orders,memory,310083584
2023-07-14T10:46:40.321Z,carts,memory,310767616
2023-07-14T10:46:40.321Z,shipping,memory,300367872
2023-07-14T10:46:40.321Z,carts-get,memory,309952512
2023-07-14T10:46:40.489Z,user,memory,4444160
2023-07-14T10:46:40.489Z,payment,memory,3039232
2023-07-14T10:46:40.489Z,user-register,memory,4493312
2023-07-14T10:46:40.489Z,carts-post,memory,321921024
2023-07-14T10:46:40.489Z,queue-master,memory,285999104
2023-07-14T10:46:50.175Z,user-login,memory,4366336
2023-07-14T10:46:50.175Z,orders,memory,310140928
2023-07-14T10:46:50.175Z,carts-delete,memory,323760128
2023-07-14T10:46:50.175Z,catalogue,memory,3137536
2023-07-14T10:46:50.321Z,carts,memory,310521856
2023-07-14T10:46:50.321Z,shipping,memory,295223296
2023-07-14T10:46:50.321Z,carts-get,memory,309981184
2023-07-14T10:46:50.489Z,payment,memory,3067904
2023-07-14T10:46:50.489Z,queue-master,memory,285999104
2023-07-14T10:46:50.489Z,user,memory,4444160
2023-07-14T10:46:50.489Z,carts-post,memory,321921024
2023-07-14T10:46:50.489Z,user-register,memory,4526080
2023-07-14T10:47:00.176Z,user-login,memory,4415488
2023-07-14T10:47:00.176Z,catalogue,memory,3174400
2023-07-14T10:47:00.176Z,carts-delete,memory,323842048
2023-07-14T10:47:00.321Z,shipping,memory,295223296
2023-07-14T10:47:00.176Z,orders,memory,310042624
2023-07-14T10:47:00.321Z,carts,memory,310521856
2023-07-14T10:47:00.321Z,carts-get,memory,309981184
2023-07-14T10:47:00.489Z,payment,memory,3067904
2023-07-14T10:47:00.489Z,queue-master,memory,285999104
2023-07-14T10:47:00.489Z,user,memory,4444160
2023-07-14T10:47:00.489Z,carts-post,memory,321921024
2023-07-14T10:47:00.489Z,user-register,memory,4526080
2023-07-14T10:47:10.175Z,orders,memory,310042624
2023-07-14T10:47:10.175Z,carts-delete,memory,323842048
2023-07-14T10:47:10.175Z,catalogue,memory,3174400
2023-07-14T10:47:10.175Z,user-login,memory,4456448
2023-07-14T10:47:10.321Z,carts-get,memory,309608448
2023-07-14T10:47:10.321Z,shipping,memory,295223296
2023-07-14T10:47:10.321Z,carts,memory,310591488
2023-07-14T10:47:10.490Z,user-register,memory,4579328
2023-07-14T10:47:10.490Z,queue-master,memory,286257152
2023-07-14T10:47:10.490Z,carts-post,memory,321945600
2023-07-14T10:47:10.490Z,payment,memory,3080192
2023-07-14T10:47:10.490Z,user,memory,4489216
2023-07-14T10:47:20.176Z,catalogue,memory,3198976
2023-07-14T10:47:20.176Z,user-login,memory,4456448
2023-07-14T10:47:20.176Z,carts-delete,memory,323911680
2023-07-14T10:47:20.176Z,orders,memory,309977088
2023-07-14T10:47:20.322Z,carts-get,memory,309624832
2023-07-14T10:47:20.322Z,shipping,memory,295284736
2023-07-14T10:47:20.322Z,carts,memory,310616064
2023-07-14T10:47:20.490Z,user,memory,4505600
2023-07-14T10:47:20.490Z,user-register,memory,4599808
2023-07-14T10:47:20.490Z,payment,memory,3661824
2023-07-14T10:47:20.490Z,carts-post,memory,321945600
2023-07-14T10:47:20.490Z,queue-master,memory,286318592
2023-07-14T10:47:30.176Z,catalogue,memory,3198976
2023-07-14T10:47:30.176Z,user-login,memory,4456448
2023-07-14T10:47:30.176Z,carts-delete,memory,323911680
2023-07-14T10:47:30.176Z,orders,memory,309977088
2023-07-14T10:47:30.321Z,carts-get,memory,309624832
2023-07-14T10:47:30.321Z,shipping,memory,295284736
2023-07-14T10:47:30.321Z,carts,memory,310616064
2023-07-14T10:47:30.489Z,payment,memory,3682304
2023-07-14T10:47:30.489Z,queue-master,memory,286388224
2023-07-14T10:47:30.489Z,carts-post,memory,322109440
2023-07-14T10:47:30.489Z,user-register,memory,4624384
2023-07-14T10:47:30.489Z,user,memory,4513792
2023-07-14T10:47:40.175Z,orders,memory,309731328
2023-07-14T10:47:40.175Z,carts-delete,memory,323932160
2023-07-14T10:47:40.175Z,catalogue,memory,3235840
2023-07-14T10:47:40.175Z,user-login,memory,4501504
2023-07-14T10:47:40.321Z,carts,memory,310685696
2023-07-14T10:47:40.321Z,carts-get,memory,309616640
2023-07-14T10:47:40.321Z,shipping,memory,295280640
2023-07-14T10:47:40.489Z,user,memory,4558848
2023-07-14T10:47:40.489Z,carts-post,memory,322109440
2023-07-14T10:47:40.489Z,payment,memory,3682304
2023-07-14T10:47:40.489Z,user-register,memory,4624384
2023-07-14T10:47:40.489Z,queue-master,memory,286388224
2023-07-14T10:47:50.175Z,carts-delete,memory,324296704
2023-07-14T10:47:50.175Z,orders,memory,309620736
2023-07-14T10:47:50.175Z,user-login,memory,4546560
2023-07-14T10:47:50.175Z,catalogue,memory,3235840
2023-07-14T10:47:50.321Z,shipping,memory,295919616
2023-07-14T10:47:50.321Z,carts,memory,310710272
2023-07-14T10:47:50.321Z,carts-get,memory,309653504
2023-07-14T10:47:50.489Z,carts-post,memory,322109440
2023-07-14T10:47:50.489Z,payment,memory,3682304
2023-07-14T10:47:50.489Z,user-register,memory,4624384
2023-07-14T10:47:50.489Z,queue-master,memory,286388224
2023-07-14T10:47:50.489Z,user,memory,4558848
2023-07-14T10:48:00.175Z,carts-delete,memory,324304896
2023-07-14T10:48:00.175Z,orders,memory,309620736
2023-07-14T10:48:00.175Z,catalogue,memory,3248128
2023-07-14T10:48:00.175Z,user-login,memory,4546560
2023-07-14T10:48:00.321Z,carts,memory,310710272
2023-07-14T10:48:00.321Z,shipping,memory,295919616
2023-07-14T10:48:00.321Z,carts-get,memory,309653504
2023-07-14T10:48:00.489Z,user,memory,4603904
2023-07-14T10:48:00.489Z,carts-post,memory,322228224
2023-07-14T10:48:00.489Z,payment,memory,3694592
2023-07-14T10:48:00.489Z,queue-master,memory,286396416
2023-07-14T10:48:00.489Z,user-register,memory,4636672
2023-07-14T10:48:10.175Z,user-login,memory,4583424
2023-07-14T10:48:10.175Z,catalogue,memory,3268608
2023-07-14T10:48:10.175Z,carts-delete,memory,324304896
2023-07-14T10:48:10.175Z,orders,memory,309477376
2023-07-14T10:48:10.321Z,shipping,memory,295919616
2023-07-14T10:48:10.321Z,carts-get,memory,309653504
2023-07-14T10:48:10.321Z,carts,memory,310710272
2023-07-14T10:48:10.489Z,payment,memory,3694592
2023-07-14T10:48:10.489Z,queue-master,memory,286404608
2023-07-14T10:48:10.489Z,user-register,memory,4685824
2023-07-14T10:48:10.489Z,carts-post,memory,322228224
2023-07-14T10:48:10.489Z,user,memory,4612096
2023-07-14T10:48:20.175Z,user-login,memory,4583424
2023-07-14T10:48:20.175Z,carts-delete,memory,324304896
2023-07-14T10:48:20.175Z,orders,memory,309477376
2023-07-14T10:48:20.175Z,catalogue,memory,3268608
2023-07-14T10:48:20.321Z,shipping,memory,296038400
2023-07-14T10:48:20.321Z,carts,memory,310726656
2023-07-14T10:48:20.321Z,carts-get,memory,309915648
2023-07-14T10:48:20.489Z,user,memory,4657152
2023-07-14T10:48:20.489Z,carts-post,memory,322224128
2023-07-14T10:48:20.489Z,queue-master,memory,286404608
2023-07-14T10:48:20.489Z,user-register,memory,4747264
2023-07-14T10:48:20.489Z,payment,memory,3723264
2023-07-14T10:48:30.321Z,shipping,memory,296038400
2023-07-14T10:48:30.321Z,carts-get,memory,309915648
2023-07-14T10:48:30.175Z,catalogue,memory,3276800
2023-07-14T10:48:30.175Z,user-login,memory,4624384
2023-07-14T10:48:30.175Z,carts-delete,memory,324358144
2023-07-14T10:48:30.175Z,orders,memory,309534720
2023-07-14T10:48:30.321Z,carts,memory,310726656
2023-07-14T10:48:30.489Z,payment,memory,3723264
2023-07-14T10:48:30.489Z,carts-post,memory,322224128
2023-07-14T10:48:30.489Z,user-register,memory,4747264
2023-07-14T10:48:30.489Z,queue-master,memory,286404608
2023-07-14T10:48:30.489Z,user,memory,4657152
2023-07-14T10:48:40.175Z,orders,memory,309587968
2023-07-14T10:48:40.175Z,catalogue,memory,3276800
2023-07-14T10:48:40.175Z,carts-delete,memory,324415488
2023-07-14T10:48:40.175Z,user-login,memory,4657152
2023-07-14T10:48:40.321Z,carts,memory,310734848
2023-07-14T10:48:40.321Z,carts-get,memory,309719040
2023-07-14T10:48:40.321Z,shipping,memory,296038400
2023-07-14T10:48:40.490Z,payment,memory,3735552
2023-07-14T10:48:40.490Z,carts-post,memory,322252800
2023-07-14T10:48:40.490Z,queue-master,memory,286535680
2023-07-14T10:48:40.490Z,user,memory,4665344
2023-07-14T10:48:40.490Z,user-register,memory,4751360
2023-07-14T10:48:50.175Z,orders,memory,309592064
2023-07-14T10:48:50.175Z,carts-delete,memory,324431872
2023-07-14T10:48:50.175Z,user-login,memory,4657152
2023-07-14T10:48:50.175Z,catalogue,memory,3276800
2023-07-14T10:48:50.321Z,shipping,memory,296071168
2023-07-14T10:48:50.321Z,carts-get,memory,315027456
2023-07-14T10:48:50.321Z,carts,memory,310734848
2023-07-14T10:48:50.491Z,carts-post,memory,322252800
2023-07-14T10:48:50.491Z,queue-master,memory,286642176
2023-07-14T10:48:50.491Z,payment,memory,3764224
2023-07-14T10:48:50.491Z,user,memory,4702208
2023-07-14T10:48:50.491Z,user-register,memory,4808704
2023-07-14T10:49:00.175Z,user-login,memory,4689920
2023-07-14T10:49:00.175Z,catalogue,memory,3305472
2023-07-14T10:49:00.175Z,orders,memory,309288960
2023-07-14T10:49:00.175Z,carts-delete,memory,324431872
2023-07-14T10:49:00.321Z,shipping,memory,295890944
2023-07-14T10:49:00.321Z,carts-get,memory,329949184
2023-07-14T10:49:00.321Z,carts,memory,310734848
2023-07-14T10:49:00.489Z,payment,memory,3764224
2023-07-14T10:49:00.489Z,user,memory,4702208
2023-07-14T10:49:00.489Z,carts-post,memory,322252800
2023-07-14T10:49:00.489Z,queue-master,memory,286642176
2023-07-14T10:49:00.489Z,user-register,memory,4808704
2023-07-14T10:49:10.176Z,catalogue,memory,3330048
2023-07-14T10:49:10.176Z,user-login,memory,4710400
2023-07-14T10:49:10.176Z,orders,memory,309305344
2023-07-14T10:49:10.176Z,carts-delete,memory,324481024
2023-07-14T10:49:10.321Z,carts-get,memory,329949184
2023-07-14T10:49:10.321Z,carts,memory,310734848
2023-07-14T10:49:10.321Z,shipping,memory,295890944
2023-07-14T10:49:10.490Z,user-register,memory,6012928
2023-07-14T10:49:10.490Z,user,memory,5931008
2023-07-14T10:49:10.490Z,payment,memory,3768320
2023-07-14T10:49:10.490Z,queue-master,memory,287068160
2023-07-14T10:49:10.490Z,carts-post,memory,322420736
2023-07-14T10:49:20.175Z,user-login,memory,4710400
2023-07-14T10:49:20.175Z,catalogue,memory,3330048
2023-07-14T10:49:20.175Z,orders,memory,309305344
2023-07-14T10:49:20.175Z,carts-delete,memory,324481024
2023-07-14T10:49:20.322Z,shipping,memory,295886848
2023-07-14T10:49:20.322Z,carts-get,memory,330002432
2023-07-14T10:49:20.322Z,carts,memory,310005760
2023-07-14T10:49:20.489Z,payment,memory,3780608
2023-07-14T10:49:20.489Z,user,memory,5931008
2023-07-14T10:49:20.489Z,carts-post,memory,322420736
2023-07-14T10:49:20.489Z,queue-master,memory,287068160
2023-07-14T10:49:20.489Z,user-register,memory,6012928
