2023-07-14T10:38:59.795Z,cadvisor-pt5gd,network_out,148948
2023-07-14T10:39:10.175Z,cadvisor-pt5gd,network_out,248368
2023-07-14T10:39:20.175Z,cadvisor-pt5gd,network_out,326443
2023-07-14T10:38:59.938Z,cadvisor-dsbw5,network_out,210724
2023-07-14T10:39:10.490Z,cadvisor-dsbw5,network_out,210724
2023-07-14T10:39:20.490Z,cadvisor-dsbw5,network_out,284045
2023-07-14T10:39:20.321Z,cadvisor-2wjvn,network_out,244145
2023-07-14T10:38:59.833Z,cadvisor-2wjvn,network_out,153353
2023-07-14T10:39:10.321Z,cadvisor-2wjvn,network_out,244145
2023-07-14T10:39:30.175Z,cadvisor-pt5gd,network_out,404491
2023-07-14T10:39:30.321Z,cadvisor-2wjvn,network_out,244145
2023-07-14T10:39:30.489Z,cadvisor-dsbw5,network_out,284045
2023-07-14T10:39:40.175Z,cadvisor-pt5gd,network_out,404491
2023-07-14T10:39:40.323Z,cadvisor-2wjvn,network_out,315352
2023-07-14T10:39:40.489Z,cadvisor-dsbw5,network_out,357520
2023-07-14T10:39:50.176Z,cadvisor-pt5gd,network_out,482516
2023-07-14T10:39:50.321Z,cadvisor-2wjvn,network_out,315352
2023-07-14T10:39:50.489Z,cadvisor-dsbw5,network_out,455287
2023-07-14T10:40:00.175Z,cadvisor-pt5gd,network_out,482516
2023-07-14T10:40:00.321Z,cadvisor-2wjvn,network_out,410340
2023-07-14T10:40:00.489Z,cadvisor-dsbw5,network_out,455287
2023-07-14T10:40:10.175Z,cadvisor-pt5gd,network_out,560605
2023-07-14T10:40:10.321Z,cadvisor-2wjvn,network_out,505357
2023-07-14T10:40:10.490Z,cadvisor-dsbw5,network_out,553264
2023-07-14T10:40:20.175Z,cadvisor-pt5gd,network_out,638778
2023-07-14T10:40:20.321Z,cadvisor-2wjvn,network_out,576569
2023-07-14T10:40:20.489Z,cadvisor-dsbw5,network_out,553264
2023-07-14T10:40:30.175Z,cadvisor-pt5gd,network_out,638778
2023-07-14T10:40:30.321Z,cadvisor-2wjvn,network_out,576569
2023-07-14T10:40:30.490Z,cadvisor-dsbw5,network_out,626660
2023-07-14T10:40:40.321Z,cadvisor-2wjvn,network_out,576569
2023-07-14T10:40:40.175Z,cadvisor-pt5gd,network_out,690786
2023-07-14T10:40:40.489Z,cadvisor-dsbw5,network_out,700082
2023-07-14T10:40:50.321Z,cadvisor-2wjvn,network_out,647879
2023-07-14T10:40:50.175Z,cadvisor-pt5gd,network_out,768949
2023-07-14T10:40:50.489Z,cadvisor-dsbw5,network_out,700082
2023-07-14T10:41:00.175Z,cadvisor-pt5gd,network_out,847058
2023-07-14T10:41:00.489Z,cadvisor-dsbw5,network_out,773432
2023-07-14T10:41:00.321Z,cadvisor-2wjvn,network_out,742841
2023-07-14T10:41:10.176Z,cadvisor-pt5gd,network_out,925095
2023-07-14T10:41:10.322Z,cadvisor-2wjvn,network_out,837656
2023-07-14T10:41:10.490Z,cadvisor-dsbw5,network_out,846842
2023-07-14T10:41:20.175Z,cadvisor-pt5gd,network_out,925095
2023-07-14T10:41:20.321Z,cadvisor-2wjvn,network_out,837656
2023-07-14T10:41:20.489Z,cadvisor-dsbw5,network_out,846842
2023-07-14T10:41:30.175Z,cadvisor-pt5gd,network_out,1003228
2023-07-14T10:41:30.321Z,cadvisor-2wjvn,network_out,837656
2023-07-14T10:41:30.490Z,cadvisor-dsbw5,network_out,920306
2023-07-14T10:41:40.175Z,cadvisor-pt5gd,network_out,1003228
2023-07-14T10:41:40.322Z,cadvisor-2wjvn,network_out,956390
2023-07-14T10:41:40.490Z,cadvisor-dsbw5,network_out,993729
2023-07-14T10:41:50.176Z,cadvisor-pt5gd,network_out,1081300
2023-07-14T10:41:50.321Z,cadvisor-2wjvn,network_out,956390
2023-07-14T10:41:50.489Z,cadvisor-dsbw5,network_out,993729
2023-07-14T10:42:00.175Z,cadvisor-pt5gd,network_out,1081300
2023-07-14T10:42:00.321Z,cadvisor-2wjvn,network_out,1003818
2023-07-14T10:42:00.489Z,cadvisor-dsbw5,network_out,1067191
2023-07-14T10:42:10.176Z,cadvisor-pt5gd,network_out,1185434
2023-07-14T10:42:10.321Z,cadvisor-2wjvn,network_out,1003818
2023-07-14T10:42:10.489Z,cadvisor-dsbw5,network_out,1067191
2023-07-14T10:42:20.175Z,cadvisor-pt5gd,network_out,1263492
2023-07-14T10:42:20.322Z,cadvisor-2wjvn,network_out,1098967
2023-07-14T10:42:20.489Z,cadvisor-dsbw5,network_out,1165260
2023-07-14T10:42:30.176Z,cadvisor-pt5gd,network_out,1315572
2023-07-14T10:42:30.321Z,cadvisor-2wjvn,network_out,1146418
2023-07-14T10:42:30.489Z,cadvisor-dsbw5,network_out,1214215
2023-07-14T10:42:40.175Z,cadvisor-pt5gd,network_out,1315572
2023-07-14T10:42:40.322Z,cadvisor-2wjvn,network_out,1217680
2023-07-14T10:42:40.489Z,cadvisor-dsbw5,network_out,1287678
2023-07-14T10:42:50.175Z,cadvisor-pt5gd,network_out,1393562
2023-07-14T10:42:50.321Z,cadvisor-2wjvn,network_out,1217680
2023-07-14T10:42:50.489Z,cadvisor-dsbw5,network_out,1287678
2023-07-14T10:43:00.175Z,cadvisor-pt5gd,network_out,1471711
2023-07-14T10:43:00.321Z,cadvisor-2wjvn,network_out,1288919
2023-07-14T10:43:00.489Z,cadvisor-dsbw5,network_out,1287678
2023-07-14T10:43:10.175Z,cadvisor-pt5gd,network_out,1471711
2023-07-14T10:43:10.322Z,cadvisor-2wjvn,network_out,1384064
2023-07-14T10:43:10.489Z,cadvisor-dsbw5,network_out,1385673
2023-07-14T10:43:20.322Z,cadvisor-2wjvn,network_out,1384064
2023-07-14T10:43:20.175Z,cadvisor-pt5gd,network_out,1601853
2023-07-14T10:43:20.489Z,cadvisor-dsbw5,network_out,1459283
2023-07-14T10:43:30.176Z,cadvisor-pt5gd,network_out,1653916
2023-07-14T10:43:30.322Z,cadvisor-2wjvn,network_out,1384064
2023-07-14T10:43:30.490Z,cadvisor-dsbw5,network_out,1532697
2023-07-14T10:43:40.175Z,cadvisor-pt5gd,network_out,1653916
2023-07-14T10:43:40.321Z,cadvisor-2wjvn,network_out,1479169
2023-07-14T10:43:40.489Z,cadvisor-dsbw5,network_out,1532697
2023-07-14T10:43:50.175Z,cadvisor-pt5gd,network_out,1731905
2023-07-14T10:43:50.321Z,cadvisor-2wjvn,network_out,1574223
2023-07-14T10:43:50.489Z,cadvisor-dsbw5,network_out,1606176
2023-07-14T10:44:00.175Z,cadvisor-pt5gd,network_out,1731905
2023-07-14T10:44:00.321Z,cadvisor-2wjvn,network_out,1574223
2023-07-14T10:44:00.490Z,cadvisor-dsbw5,network_out,1679702
2023-07-14T10:44:10.176Z,cadvisor-pt5gd,network_out,1810007
2023-07-14T10:44:10.321Z,cadvisor-2wjvn,network_out,1574223
2023-07-14T10:44:10.489Z,cadvisor-dsbw5,network_out,1679702
2023-07-14T10:44:20.175Z,cadvisor-pt5gd,network_out,1810007
2023-07-14T10:44:20.322Z,cadvisor-2wjvn,network_out,1716801
2023-07-14T10:44:20.489Z,cadvisor-dsbw5,network_out,1753192
2023-07-14T10:44:30.175Z,cadvisor-pt5gd,network_out,1914178
2023-07-14T10:44:30.321Z,cadvisor-2wjvn,network_out,1716801
2023-07-14T10:44:30.489Z,cadvisor-dsbw5,network_out,1802226
2023-07-14T10:44:40.322Z,cadvisor-2wjvn,network_out,1788237
2023-07-14T10:44:40.175Z,cadvisor-pt5gd,network_out,1992293
2023-07-14T10:44:40.489Z,cadvisor-dsbw5,network_out,1851153
2023-07-14T10:44:50.175Z,cadvisor-pt5gd,network_out,2044405
2023-07-14T10:44:50.321Z,cadvisor-2wjvn,network_out,1859510
2023-07-14T10:44:50.489Z,cadvisor-dsbw5,network_out,1924508
2023-07-14T10:45:00.175Z,cadvisor-pt5gd,network_out,2122561
2023-07-14T10:45:00.321Z,cadvisor-2wjvn,network_out,1859510
2023-07-14T10:45:00.489Z,cadvisor-dsbw5,network_out,1924508
2023-07-14T10:45:10.175Z,cadvisor-pt5gd,network_out,2122561
2023-07-14T10:45:10.321Z,cadvisor-2wjvn,network_out,1859510
2023-07-14T10:45:10.489Z,cadvisor-dsbw5,network_out,1973385
2023-07-14T10:45:20.175Z,cadvisor-pt5gd,network_out,2200689
2023-07-14T10:45:20.321Z,cadvisor-2wjvn,network_out,2002058
2023-07-14T10:45:20.489Z,cadvisor-dsbw5,network_out,2071419
2023-07-14T10:45:30.175Z,cadvisor-pt5gd,network_out,2200689
2023-07-14T10:45:30.322Z,cadvisor-2wjvn,network_out,2073352
2023-07-14T10:45:30.490Z,cadvisor-dsbw5,network_out,2071419
2023-07-14T10:45:40.176Z,cadvisor-pt5gd,network_out,2278886
2023-07-14T10:45:40.321Z,cadvisor-2wjvn,network_out,2073352
2023-07-14T10:45:40.489Z,cadvisor-dsbw5,network_out,2071419
2023-07-14T10:45:50.175Z,cadvisor-pt5gd,network_out,2278886
2023-07-14T10:45:50.321Z,cadvisor-2wjvn,network_out,2073352
2023-07-14T10:45:50.489Z,cadvisor-dsbw5,network_out,2218390
2023-07-14T10:46:00.175Z,cadvisor-pt5gd,network_out,2357035
2023-07-14T10:46:00.321Z,cadvisor-2wjvn,network_out,2168489
2023-07-14T10:46:00.490Z,cadvisor-dsbw5,network_out,2218390
2023-07-14T10:46:10.175Z,cadvisor-pt5gd,network_out,2461252
2023-07-14T10:46:10.321Z,cadvisor-2wjvn,network_out,2168489
2023-07-14T10:46:10.489Z,cadvisor-dsbw5,network_out,2218390
2023-07-14T10:46:20.175Z,cadvisor-pt5gd,network_out,2461252
2023-07-14T10:46:20.321Z,cadvisor-2wjvn,network_out,2263649
2023-07-14T10:46:20.490Z,cadvisor-dsbw5,network_out,2341052
2023-07-14T10:46:30.175Z,cadvisor-pt5gd,network_out,2539451
2023-07-14T10:46:30.322Z,cadvisor-2wjvn,network_out,2334934
2023-07-14T10:46:30.489Z,cadvisor-dsbw5,network_out,2414524
2023-07-14T10:46:40.175Z,cadvisor-pt5gd,network_out,2539451
2023-07-14T10:46:40.321Z,cadvisor-2wjvn,network_out,2334934
2023-07-14T10:46:40.489Z,cadvisor-dsbw5,network_out,2414524
2023-07-14T10:46:50.175Z,cadvisor-pt5gd,network_out,2695879
2023-07-14T10:46:50.321Z,cadvisor-2wjvn,network_out,2406339
2023-07-14T10:46:50.489Z,cadvisor-dsbw5,network_out,2488075
2023-07-14T10:47:00.321Z,cadvisor-2wjvn,network_out,2406339
2023-07-14T10:47:00.176Z,cadvisor-pt5gd,network_out,2695879
2023-07-14T10:47:00.489Z,cadvisor-dsbw5,network_out,2488075
2023-07-14T10:47:10.175Z,cadvisor-pt5gd,network_out,2774078
2023-07-14T10:47:10.321Z,cadvisor-2wjvn,network_out,2453953
2023-07-14T10:47:10.490Z,cadvisor-dsbw5,network_out,2586152
2023-07-14T10:47:20.176Z,cadvisor-pt5gd,network_out,2852249
2023-07-14T10:47:20.322Z,cadvisor-2wjvn,network_out,2525305
2023-07-14T10:47:20.490Z,cadvisor-dsbw5,network_out,2659693
2023-07-14T10:47:30.176Z,cadvisor-pt5gd,network_out,2852249
2023-07-14T10:47:30.321Z,cadvisor-2wjvn,network_out,2525305
2023-07-14T10:47:30.489Z,cadvisor-dsbw5,network_out,2659693
2023-07-14T10:47:40.175Z,cadvisor-pt5gd,network_out,2930438
2023-07-14T10:47:40.321Z,cadvisor-2wjvn,network_out,2691902
2023-07-14T10:47:40.489Z,cadvisor-dsbw5,network_out,2757782
2023-07-14T10:47:50.175Z,cadvisor-pt5gd,network_out,2930438
2023-07-14T10:47:50.321Z,cadvisor-2wjvn,network_out,2691902
2023-07-14T10:47:50.489Z,cadvisor-dsbw5,network_out,2757782
2023-07-14T10:48:00.175Z,cadvisor-pt5gd,network_out,3025376
2023-07-14T10:48:00.321Z,cadvisor-2wjvn,network_out,2691902
2023-07-14T10:48:00.489Z,cadvisor-dsbw5,network_out,2855826
2023-07-14T10:48:10.175Z,cadvisor-pt5gd,network_out,3086766
2023-07-14T10:48:10.321Z,cadvisor-2wjvn,network_out,2763383
2023-07-14T10:48:10.489Z,cadvisor-dsbw5,network_out,2904873
2023-07-14T10:48:20.175Z,cadvisor-pt5gd,network_out,3086766
2023-07-14T10:48:20.321Z,cadvisor-2wjvn,network_out,2810901
2023-07-14T10:48:20.489Z,cadvisor-dsbw5,network_out,2904873
2023-07-14T10:48:30.321Z,cadvisor-2wjvn,network_out,2810901
2023-07-14T10:48:30.175Z,cadvisor-pt5gd,network_out,3164699
2023-07-14T10:48:30.489Z,cadvisor-dsbw5,network_out,2904873
2023-07-14T10:48:40.175Z,cadvisor-pt5gd,network_out,3216743
2023-07-14T10:48:40.321Z,cadvisor-2wjvn,network_out,2882222
2023-07-14T10:48:40.490Z,cadvisor-dsbw5,network_out,3051924
2023-07-14T10:48:50.175Z,cadvisor-pt5gd,network_out,3321022
2023-07-14T10:48:50.321Z,cadvisor-2wjvn,network_out,2977441
2023-07-14T10:48:50.491Z,cadvisor-dsbw5,network_out,3100930
2023-07-14T10:49:00.175Z,cadvisor-pt5gd,network_out,3321022
2023-07-14T10:49:00.321Z,cadvisor-2wjvn,network_out,3048849
2023-07-14T10:49:00.489Z,cadvisor-dsbw5,network_out,3100930
2023-07-14T10:49:10.176Z,cadvisor-pt5gd,network_out,3372976
2023-07-14T10:49:10.321Z,cadvisor-2wjvn,network_out,3048849
2023-07-14T10:49:10.490Z,cadvisor-dsbw5,network_out,3198946
2023-07-14T10:49:20.175Z,cadvisor-pt5gd,network_out,3372976
2023-07-14T10:49:20.322Z,cadvisor-2wjvn,network_out,3143949
2023-07-14T10:49:20.489Z,cadvisor-dsbw5,network_out,3198946
