timestamp,key,run_id,resource,metric,value
2022-03-30T16:05:37.917Z,FULLY_SHARED_UNIT_1-1-1-1,1,target-1,cpu,17651
2022-03-30T16:05:47.917Z,FULLY_SHARED_UNIT_1-1-1-1,1,target-1,cpu,17651
2022-03-30T16:05:57.917Z,FULLY_SHARED_UNIT_1-1-1-1,1,target-1,cpu,17651
2022-03-30T16:06:07.917Z,FULLY_SHARED_UNIT_1-1-1-1,1,target-1,cpu,14020
2022-03-30T16:06:17.916Z,FULLY_SHARED_UNIT_1-1-1-1,1,target-1,cpu,14020
2022-03-30T16:06:27.916Z,FULLY_SHARED_UNIT_1-1-1-1,1,target-1,cpu,23968
2022-03-30T16:06:37.917Z,FULLY_SHARED_UNIT_1-1-1-1,1,target-1,cpu,17454
2022-03-30T16:06:47.917Z,FULLY_SHARED_UNIT_1-1-1-1,1,target-1,cpu,17454
2022-03-30T16:06:57.916Z,FULLY_SHARED_UNIT_1-1-1-1,1,target-1,cpu,17454
2022-03-30T16:07:07.917Z,FULLY_SHARED_UNIT_1-1-1-1,1,target-1,cpu,29438
2022-03-30T16:07:17.917Z,FULLY_SHARED_UNIT_1-1-1-1,1,target-1,cpu,29438
2022-03-30T16:07:27.917Z,FULLY_SHARED_UNIT_1-1-1-1,1,target-1,cpu,15139
2022-03-30T16:07:37.916Z,FULLY_SHARED_UNIT_1-1-1-1,1,target-1,cpu,15139
2022-03-30T16:07:47.916Z,FULLY_SHARED_UNIT_1-1-1-1,1,target-1,cpu,29370
2022-03-30T16:07:57.917Z,FULLY_SHARED_UNIT_1-1-1-1,1,target-1,cpu,20288
2022-03-30T16:08:07.916Z,FULLY_SHARED_UNIT_1-1-1-1,1,target-1,cpu,20288
2022-03-30T16:08:17.916Z,FULLY_SHARED_UNIT_1-1-1-1,1,target-1,cpu,9403
2022-03-30T16:08:27.917Z,FULLY_SHARED_UNIT_1-1-1-1,1,target-1,cpu,171209
2022-03-30T16:08:37.916Z,FULLY_SHARED_UNIT_1-1-1-1,1,target-1,cpu,171209
2022-03-30T16:08:47.916Z,FULLY_SHARED_UNIT_1-1-1-1,1,target-1,cpu,22884
2022-03-30T16:08:57.917Z,FULLY_SHARED_UNIT_1-1-1-1,1,target-1,cpu,23089
2022-03-30T16:09:07.917Z,FULLY_SHARED_UNIT_1-1-1-1,1,target-1,cpu,23089
2022-03-30T16:09:17.917Z,FULLY_SHARED_UNIT_1-1-1-1,1,target-1,cpu,14219
2022-03-30T16:09:27.917Z,FULLY_SHARED_UNIT_1-1-1-1,1,target-1,cpu,14219
2022-03-30T16:09:37.917Z,FULLY_SHARED_UNIT_1-1-1-1,1,target-1,cpu,21534
2022-03-30T16:09:47.916Z,FULLY_SHARED_UNIT_1-1-1-1,1,target-1,cpu,21534
2022-03-30T16:09:57.916Z,FULLY_SHARED_UNIT_1-1-1-1,1,target-1,cpu,35199
2022-03-30T16:10:07.917Z,FULLY_SHARED_UNIT_1-1-1-1,1,target-1,cpu,12411
2022-03-30T16:10:17.917Z,FULLY_SHARED_UNIT_1-1-1-1,1,target-1,cpu,23160
2022-03-30T16:10:27.916Z,FULLY_SHARED_UNIT_1-1-1-1,1,target-1,cpu,23160
2022-03-30T16:10:37.917Z,FULLY_SHARED_UNIT_1-1-1-1,1,target-1,cpu,17482
2022-03-30T16:10:47.916Z,FULLY_SHARED_UNIT_1-1-1-1,1,target-1,cpu,17482
2022-03-30T16:10:57.917Z,FULLY_SHARED_UNIT_1-1-1-1,1,target-1,cpu,13243
2022-03-30T16:11:07.916Z,FULLY_SHARED_UNIT_1-1-1-1,1,target-1,cpu,13243
2022-03-30T16:11:17.917Z,FULLY_SHARED_UNIT_1-1-1-1,1,target-1,cpu,16269
2022-03-30T16:11:27.916Z,FULLY_SHARED_UNIT_1-1-1-1,1,target-1,cpu,16269
2022-03-30T16:11:37.916Z,FULLY_SHARED_UNIT_1-1-1-1,1,target-1,cpu,26457
2022-03-30T16:11:47.917Z,FULLY_SHARED_UNIT_1-1-1-1,1,target-1,cpu,22896
2022-03-30T16:11:57.916Z,FULLY_SHARED_UNIT_1-1-1-1,1,target-1,cpu,22896
2022-03-30T16:12:07.916Z,FULLY_SHARED_UNIT_1-1-1-1,1,target-1,cpu,12667
2022-03-30T16:12:17.917Z,FULLY_SHARED_UNIT_1-1-1-1,1,target-1,cpu,25137
2022-03-30T16:12:27.916Z,FULLY_SHARED_UNIT_1-1-1-1,1,target-1,cpu,25137
2022-03-30T16:12:37.916Z,FULLY_SHARED_UNIT_1-1-1-1,1,target-1,cpu,34126
2022-03-30T16:12:47.917Z,FULLY_SHARED_UNIT_1-1-1-1,1,target-1,cpu,14914
2022-03-30T16:12:57.917Z,FULLY_SHARED_UNIT_1-1-1-1,1,target-1,cpu,13831
2022-03-30T16:13:07.916Z,FULLY_SHARED_UNIT_1-1-1-1,1,target-1,cpu,13831
2022-03-30T16:13:17.916Z,FULLY_SHARED_UNIT_1-1-1-1,1,target-1,cpu,22678
2022-03-30T16:13:27.917Z,FULLY_SHARED_UNIT_1-1-1-1,1,target-1,cpu,22678
2022-03-30T16:13:37.916Z,FULLY_SHARED_UNIT_1-1-1-1,1,target-1,cpu,22678
2022-03-30T16:13:47.916Z,FULLY_SHARED_UNIT_1-1-1-1,1,target-1,cpu,19658
2022-03-30T16:13:57.917Z,FULLY_SHARED_UNIT_1-1-1-1,1,target-1,cpu,25239
2022-03-30T16:14:07.916Z,FULLY_SHARED_UNIT_1-1-1-1,1,target-1,cpu,25239
2022-03-30T16:14:17.916Z,FULLY_SHARED_UNIT_1-1-1-1,1,target-1,cpu,33342
2022-03-30T16:14:27.917Z,FULLY_SHARED_UNIT_1-1-1-1,1,target-1,cpu,34568
2022-03-30T16:14:37.917Z,FULLY_SHARED_UNIT_1-1-1-1,1,target-1,cpu,16250
2022-03-30T16:14:47.917Z,FULLY_SHARED_UNIT_1-1-1-1,1,target-1,cpu,16250
2022-03-30T16:14:57.917Z,FULLY_SHARED_UNIT_1-1-1-1,1,target-1,cpu,32841
2022-03-30T16:15:07.917Z,FULLY_SHARED_UNIT_1-1-1-1,1,target-1,cpu,14717
2022-03-30T16:15:17.917Z,FULLY_SHARED_UNIT_1-1-1-1,1,target-1,cpu,14717
2022-03-30T16:15:27.917Z,FULLY_SHARED_UNIT_1-1-1-1,1,target-1,cpu,30605
2022-03-30T16:15:46.164Z,FULLY_SHARED_UNIT_1-1-1-1,2,target-1,cpu,19864
2022-03-30T16:15:56.164Z,FULLY_SHARED_UNIT_1-1-1-1,2,target-1,cpu,26250
2022-03-30T16:16:06.163Z,FULLY_SHARED_UNIT_1-1-1-1,2,target-1,cpu,26250
2022-03-30T16:16:16.163Z,FULLY_SHARED_UNIT_1-1-1-1,2,target-1,cpu,26268
2022-03-30T16:16:26.163Z,FULLY_SHARED_UNIT_1-1-1-1,2,target-1,cpu,26268
2022-03-30T16:16:36.163Z,FULLY_SHARED_UNIT_1-1-1-1,2,target-1,cpu,19565
2022-03-30T16:16:46.163Z,FULLY_SHARED_UNIT_1-1-1-1,2,target-1,cpu,19565
2022-03-30T16:16:56.164Z,FULLY_SHARED_UNIT_1-1-1-1,2,target-1,cpu,30338
2022-03-30T16:17:06.163Z,FULLY_SHARED_UNIT_1-1-1-1,2,target-1,cpu,30338
2022-03-30T16:17:16.164Z,FULLY_SHARED_UNIT_1-1-1-1,2,target-1,cpu,19365
2022-03-30T16:17:26.163Z,FULLY_SHARED_UNIT_1-1-1-1,2,target-1,cpu,19365
2022-03-30T16:17:36.164Z,FULLY_SHARED_UNIT_1-1-1-1,2,target-1,cpu,15277
2022-03-30T16:17:46.163Z,FULLY_SHARED_UNIT_1-1-1-1,2,target-1,cpu,15277
2022-03-30T16:17:56.163Z,FULLY_SHARED_UNIT_1-1-1-1,2,target-1,cpu,21141
2022-03-30T16:18:06.164Z,FULLY_SHARED_UNIT_1-1-1-1,2,target-1,cpu,28704
2022-03-30T16:18:16.163Z,FULLY_SHARED_UNIT_1-1-1-1,2,target-1,cpu,28704
2022-03-30T16:18:26.164Z,FULLY_SHARED_UNIT_1-1-1-1,2,target-1,cpu,17571
2022-03-30T16:18:36.163Z,FULLY_SHARED_UNIT_1-1-1-1,2,target-1,cpu,17571
2022-03-30T16:18:46.164Z,FULLY_SHARED_UNIT_1-1-1-1,2,target-1,cpu,11863
2022-03-30T16:18:56.164Z,FULLY_SHARED_UNIT_1-1-1-1,2,target-1,cpu,11863
2022-03-30T16:19:06.164Z,FULLY_SHARED_UNIT_1-1-1-1,2,target-1,cpu,22586
2022-03-30T16:19:16.163Z,FULLY_SHARED_UNIT_1-1-1-1,2,target-1,cpu,22586
2022-03-30T16:19:26.164Z,FULLY_SHARED_UNIT_1-1-1-1,2,target-1,cpu,16207
2022-03-30T16:19:36.163Z,FULLY_SHARED_UNIT_1-1-1-1,2,target-1,cpu,16207
2022-03-30T16:19:46.164Z,FULLY_SHARED_UNIT_1-1-1-1,2,target-1,cpu,36930
2022-03-30T16:19:56.163Z,FULLY_SHARED_UNIT_1-1-1-1,2,target-1,cpu,36930
2022-03-30T16:20:06.163Z,FULLY_SHARED_UNIT_1-1-1-1,2,target-1,cpu,21757
2022-03-30T16:20:16.163Z,FULLY_SHARED_UNIT_1-1-1-1,2,target-1,cpu,14564
2022-03-30T16:20:26.163Z,FULLY_SHARED_UNIT_1-1-1-1,2,target-1,cpu,14564
2022-03-30T16:20:36.163Z,FULLY_SHARED_UNIT_1-1-1-1,2,target-1,cpu,35693
2022-03-30T16:20:46.163Z,FULLY_SHARED_UNIT_1-1-1-1,2,target-1,cpu,10746
2022-03-30T16:20:56.163Z,FULLY_SHARED_UNIT_1-1-1-1,2,target-1,cpu,35244
2022-03-30T16:21:06.163Z,FULLY_SHARED_UNIT_1-1-1-1,2,target-1,cpu,35244
2022-03-30T16:21:16.163Z,FULLY_SHARED_UNIT_1-1-1-1,2,target-1,cpu,17535
2022-03-30T16:21:26.164Z,FULLY_SHARED_UNIT_1-1-1-1,2,target-1,cpu,21099
2022-03-30T16:21:36.163Z,FULLY_SHARED_UNIT_1-1-1-1,2,target-1,cpu,21099
2022-03-30T16:21:46.164Z,FULLY_SHARED_UNIT_1-1-1-1,2,target-1,cpu,11685
2022-03-30T16:21:56.163Z,FULLY_SHARED_UNIT_1-1-1-1,2,target-1,cpu,11685
2022-03-30T16:22:06.163Z,FULLY_SHARED_UNIT_1-1-1-1,2,target-1,cpu,14955
2022-03-30T16:22:16.164Z,FULLY_SHARED_UNIT_1-1-1-1,2,target-1,cpu,14955
2022-03-30T16:22:26.163Z,FULLY_SHARED_UNIT_1-1-1-1,2,target-1,cpu,14955
2022-03-30T16:22:36.164Z,FULLY_SHARED_UNIT_1-1-1-1,2,target-1,cpu,12290
2022-03-30T16:22:46.164Z,FULLY_SHARED_UNIT_1-1-1-1,2,target-1,cpu,18254
2022-03-30T16:22:56.164Z,FULLY_SHARED_UNIT_1-1-1-1,2,target-1,cpu,18254
2022-03-30T16:23:06.163Z,FULLY_SHARED_UNIT_1-1-1-1,2,target-1,cpu,18254
2022-03-30T16:23:16.163Z,FULLY_SHARED_UNIT_1-1-1-1,2,target-1,cpu,14672
2022-03-30T16:23:26.164Z,FULLY_SHARED_UNIT_1-1-1-1,2,target-1,cpu,14672
2022-03-30T16:23:36.164Z,FULLY_SHARED_UNIT_1-1-1-1,2,target-1,cpu,14672
2022-03-30T16:23:46.163Z,FULLY_SHARED_UNIT_1-1-1-1,2,target-1,cpu,29975
2022-03-30T16:23:56.163Z,FULLY_SHARED_UNIT_1-1-1-1,2,target-1,cpu,13163
2022-03-30T16:24:06.163Z,FULLY_SHARED_UNIT_1-1-1-1,2,target-1,cpu,18822
2022-03-30T16:24:16.163Z,FULLY_SHARED_UNIT_1-1-1-1,2,target-1,cpu,18822
2022-03-30T16:24:26.163Z,FULLY_SHARED_UNIT_1-1-1-1,2,target-1,cpu,27730
2022-03-30T16:24:36.164Z,FULLY_SHARED_UNIT_1-1-1-1,2,target-1,cpu,27730
2022-03-30T16:24:46.164Z,FULLY_SHARED_UNIT_1-1-1-1,2,target-1,cpu,21763
2022-03-30T16:24:56.163Z,FULLY_SHARED_UNIT_1-1-1-1,2,target-1,cpu,21763
2022-03-30T16:25:06.164Z,FULLY_SHARED_UNIT_1-1-1-1,2,target-1,cpu,18187
2022-03-30T16:25:16.163Z,FULLY_SHARED_UNIT_1-1-1-1,2,target-1,cpu,18187
2022-03-30T16:25:26.163Z,FULLY_SHARED_UNIT_1-1-1-1,2,target-1,cpu,13144
2022-03-30T16:25:36.163Z,FULLY_SHARED_UNIT_1-1-1-1,2,target-1,cpu,13144
2022-03-30T16:25:54.363Z,FULLY_SHARED_UNIT_1-1-1-1,3,target-1,cpu,36477
2022-03-30T16:26:04.363Z,FULLY_SHARED_UNIT_1-1-1-1,3,target-1,cpu,36477
2022-03-30T16:26:14.363Z,FULLY_SHARED_UNIT_1-1-1-1,3,target-1,cpu,24885
2022-03-30T16:26:24.363Z,FULLY_SHARED_UNIT_1-1-1-1,3,target-1,cpu,24885
2022-03-30T16:26:34.363Z,FULLY_SHARED_UNIT_1-1-1-1,3,target-1,cpu,9772
2022-03-30T16:26:44.363Z,FULLY_SHARED_UNIT_1-1-1-1,3,target-1,cpu,12376
2022-03-30T16:26:54.365Z,FULLY_SHARED_UNIT_1-1-1-1,3,target-1,cpu,26028
2022-03-30T16:27:04.364Z,FULLY_SHARED_UNIT_1-1-1-1,3,target-1,cpu,26028
2022-03-30T16:27:14.364Z,FULLY_SHARED_UNIT_1-1-1-1,3,target-1,cpu,23518
2022-03-30T16:27:24.363Z,FULLY_SHARED_UNIT_1-1-1-1,3,target-1,cpu,23518
2022-03-30T16:27:34.364Z,FULLY_SHARED_UNIT_1-1-1-1,3,target-1,cpu,17673
2022-03-30T16:27:44.364Z,FULLY_SHARED_UNIT_1-1-1-1,3,target-1,cpu,17673
2022-03-30T16:27:54.364Z,FULLY_SHARED_UNIT_1-1-1-1,3,target-1,cpu,22459
2022-03-30T16:28:04.363Z,FULLY_SHARED_UNIT_1-1-1-1,3,target-1,cpu,22459
2022-03-30T16:28:14.364Z,FULLY_SHARED_UNIT_1-1-1-1,3,target-1,cpu,15589
2022-03-30T16:28:24.364Z,FULLY_SHARED_UNIT_1-1-1-1,3,target-1,cpu,21051
2022-03-30T16:28:34.363Z,FULLY_SHARED_UNIT_1-1-1-1,3,target-1,cpu,21051
2022-03-30T16:28:44.364Z,FULLY_SHARED_UNIT_1-1-1-1,3,target-1,cpu,21700
2022-03-30T16:28:54.363Z,FULLY_SHARED_UNIT_1-1-1-1,3,target-1,cpu,21700
2022-03-30T16:29:04.363Z,FULLY_SHARED_UNIT_1-1-1-1,3,target-1,cpu,17706
2022-03-30T16:29:14.364Z,FULLY_SHARED_UNIT_1-1-1-1,3,target-1,cpu,13803
2022-03-30T16:29:24.364Z,FULLY_SHARED_UNIT_1-1-1-1,3,target-1,cpu,13803
2022-03-30T16:29:34.363Z,FULLY_SHARED_UNIT_1-1-1-1,3,target-1,cpu,13803
2022-03-30T16:29:44.363Z,FULLY_SHARED_UNIT_1-1-1-1,3,target-1,cpu,19073
2022-03-30T16:29:54.363Z,FULLY_SHARED_UNIT_1-1-1-1,3,target-1,cpu,19073
2022-03-30T16:30:04.363Z,FULLY_SHARED_UNIT_1-1-1-1,3,target-1,cpu,12037
2022-03-30T16:30:14.364Z,FULLY_SHARED_UNIT_1-1-1-1,3,target-1,cpu,21893
2022-03-30T16:30:24.364Z,FULLY_SHARED_UNIT_1-1-1-1,3,target-1,cpu,21893
2022-03-30T16:30:34.363Z,FULLY_SHARED_UNIT_1-1-1-1,3,target-1,cpu,12367
2022-03-30T16:30:44.363Z,FULLY_SHARED_UNIT_1-1-1-1,3,target-1,cpu,12367
2022-03-30T16:30:54.363Z,FULLY_SHARED_UNIT_1-1-1-1,3,target-1,cpu,26309
2022-03-30T16:31:04.363Z,FULLY_SHARED_UNIT_1-1-1-1,3,target-1,cpu,26309
2022-03-30T16:31:14.363Z,FULLY_SHARED_UNIT_1-1-1-1,3,target-1,cpu,23378
2022-03-30T16:31:24.363Z,FULLY_SHARED_UNIT_1-1-1-1,3,target-1,cpu,23378
2022-03-30T16:31:34.364Z,FULLY_SHARED_UNIT_1-1-1-1,3,target-1,cpu,11630
2022-03-30T16:31:44.363Z,FULLY_SHARED_UNIT_1-1-1-1,3,target-1,cpu,11630
2022-03-30T16:31:54.364Z,FULLY_SHARED_UNIT_1-1-1-1,3,target-1,cpu,15466
2022-03-30T16:32:04.363Z,FULLY_SHARED_UNIT_1-1-1-1,3,target-1,cpu,15466
2022-03-30T16:32:14.363Z,FULLY_SHARED_UNIT_1-1-1-1,3,target-1,cpu,14215
2022-03-30T16:32:24.364Z,FULLY_SHARED_UNIT_1-1-1-1,3,target-1,cpu,19501
2022-03-30T16:32:34.364Z,FULLY_SHARED_UNIT_1-1-1-1,3,target-1,cpu,13682
2022-03-30T16:32:44.364Z,FULLY_SHARED_UNIT_1-1-1-1,3,target-1,cpu,13682
2022-03-30T16:32:54.363Z,FULLY_SHARED_UNIT_1-1-1-1,3,target-1,cpu,12511
2022-03-30T16:33:04.363Z,FULLY_SHARED_UNIT_1-1-1-1,3,target-1,cpu,12511
2022-03-30T16:33:14.364Z,FULLY_SHARED_UNIT_1-1-1-1,3,target-1,cpu,14089
2022-03-30T16:33:24.364Z,FULLY_SHARED_UNIT_1-1-1-1,3,target-1,cpu,14089
2022-03-30T16:33:34.363Z,FULLY_SHARED_UNIT_1-1-1-1,3,target-1,cpu,29412
2022-03-30T16:33:44.364Z,FULLY_SHARED_UNIT_1-1-1-1,3,target-1,cpu,10107
2022-03-30T16:33:54.363Z,FULLY_SHARED_UNIT_1-1-1-1,3,target-1,cpu,10107
2022-03-30T16:34:04.363Z,FULLY_SHARED_UNIT_1-1-1-1,3,target-1,cpu,17965
2022-03-30T16:34:14.363Z,FULLY_SHARED_UNIT_1-1-1-1,3,target-1,cpu,17965
2022-03-30T16:34:24.363Z,FULLY_SHARED_UNIT_1-1-1-1,3,target-1,cpu,13304
2022-03-30T16:34:34.363Z,FULLY_SHARED_UNIT_1-1-1-1,3,target-1,cpu,13304
2022-03-30T16:34:44.364Z,FULLY_SHARED_UNIT_1-1-1-1,3,target-1,cpu,13884
2022-03-30T16:34:54.364Z,FULLY_SHARED_UNIT_1-1-1-1,3,target-1,cpu,13884
2022-03-30T16:35:04.363Z,FULLY_SHARED_UNIT_1-1-1-1,3,target-1,cpu,20664
2022-03-30T16:35:14.364Z,FULLY_SHARED_UNIT_1-1-1-1,3,target-1,cpu,12138
2022-03-30T16:35:24.364Z,FULLY_SHARED_UNIT_1-1-1-1,3,target-1,cpu,12138
2022-03-30T16:35:34.363Z,FULLY_SHARED_UNIT_1-1-1-1,3,target-1,cpu,21848
2022-03-30T16:35:44.364Z,FULLY_SHARED_UNIT_1-1-1-1,3,target-1,cpu,20531
2022-03-30T16:36:02.635Z,FULLY_SHARED_UNIT_1-1-1-2,1,target-1,cpu,48281
2022-03-30T16:36:12.635Z,FULLY_SHARED_UNIT_1-1-1-2,1,target-1,cpu,48281
2022-03-30T16:36:22.636Z,FULLY_SHARED_UNIT_1-1-1-2,1,target-1,cpu,40934
2022-03-30T16:36:32.635Z,FULLY_SHARED_UNIT_1-1-1-2,1,target-1,cpu,40934
2022-03-30T16:36:42.635Z,FULLY_SHARED_UNIT_1-1-1-2,1,target-1,cpu,40934
2022-03-30T16:36:52.635Z,FULLY_SHARED_UNIT_1-1-1-2,1,target-1,cpu,79472
2022-03-30T16:37:02.635Z,FULLY_SHARED_UNIT_1-1-1-2,1,target-1,cpu,79472
2022-03-30T16:37:12.635Z,FULLY_SHARED_UNIT_1-1-1-2,1,target-1,cpu,31341
2022-03-30T16:37:22.635Z,FULLY_SHARED_UNIT_1-1-1-2,1,target-1,cpu,31341
2022-03-30T16:37:32.635Z,FULLY_SHARED_UNIT_1-1-1-2,1,target-1,cpu,39262
2022-03-30T16:37:42.635Z,FULLY_SHARED_UNIT_1-1-1-2,1,target-1,cpu,18769
2022-03-30T16:37:52.635Z,FULLY_SHARED_UNIT_1-1-1-2,1,target-1,cpu,18769
2022-03-30T16:38:02.635Z,FULLY_SHARED_UNIT_1-1-1-2,1,target-1,cpu,36558
2022-03-30T16:38:12.635Z,FULLY_SHARED_UNIT_1-1-1-2,1,target-1,cpu,36558
2022-03-30T16:38:22.635Z,FULLY_SHARED_UNIT_1-1-1-2,1,target-1,cpu,32519
2022-03-30T16:38:32.635Z,FULLY_SHARED_UNIT_1-1-1-2,1,target-1,cpu,32519
2022-03-30T16:38:42.635Z,FULLY_SHARED_UNIT_1-1-1-2,1,target-1,cpu,37122
2022-03-30T16:38:52.635Z,FULLY_SHARED_UNIT_1-1-1-2,1,target-1,cpu,37122
2022-03-30T16:39:02.635Z,FULLY_SHARED_UNIT_1-1-1-2,1,target-1,cpu,21529
2022-03-30T16:39:12.635Z,FULLY_SHARED_UNIT_1-1-1-2,1,target-1,cpu,21529
2022-03-30T16:39:22.635Z,FULLY_SHARED_UNIT_1-1-1-2,1,target-1,cpu,20055
2022-03-30T16:39:32.635Z,FULLY_SHARED_UNIT_1-1-1-2,1,target-1,cpu,20055
2022-03-30T16:39:42.635Z,FULLY_SHARED_UNIT_1-1-1-2,1,target-1,cpu,37329
2022-03-30T16:39:52.635Z,FULLY_SHARED_UNIT_1-1-1-2,1,target-1,cpu,37329
2022-03-30T16:40:02.635Z,FULLY_SHARED_UNIT_1-1-1-2,1,target-1,cpu,34242
2022-03-30T16:40:12.635Z,FULLY_SHARED_UNIT_1-1-1-2,1,target-1,cpu,34242
2022-03-30T16:40:22.635Z,FULLY_SHARED_UNIT_1-1-1-2,1,target-1,cpu,23799
2022-03-30T16:40:32.635Z,FULLY_SHARED_UNIT_1-1-1-2,1,target-1,cpu,23799
2022-03-30T16:40:42.636Z,FULLY_SHARED_UNIT_1-1-1-2,1,target-1,cpu,42823
2022-03-30T16:40:52.635Z,FULLY_SHARED_UNIT_1-1-1-2,1,target-1,cpu,42823
2022-03-30T16:41:02.635Z,FULLY_SHARED_UNIT_1-1-1-2,1,target-1,cpu,31920
2022-03-30T16:41:12.635Z,FULLY_SHARED_UNIT_1-1-1-2,1,target-1,cpu,31920
2022-03-30T16:41:22.636Z,FULLY_SHARED_UNIT_1-1-1-2,1,target-1,cpu,33642
2022-03-30T16:41:32.635Z,FULLY_SHARED_UNIT_1-1-1-2,1,target-1,cpu,33642
2022-03-30T16:41:42.636Z,FULLY_SHARED_UNIT_1-1-1-2,1,target-1,cpu,60876
2022-03-30T16:41:52.635Z,FULLY_SHARED_UNIT_1-1-1-2,1,target-1,cpu,39145
2022-03-30T16:42:02.635Z,FULLY_SHARED_UNIT_1-1-1-2,1,target-1,cpu,39145
2022-03-30T16:42:12.635Z,FULLY_SHARED_UNIT_1-1-1-2,1,target-1,cpu,45692
2022-03-30T16:42:22.635Z,FULLY_SHARED_UNIT_1-1-1-2,1,target-1,cpu,65413
2022-03-30T16:42:32.635Z,FULLY_SHARED_UNIT_1-1-1-2,1,target-1,cpu,65413
2022-03-30T16:42:42.635Z,FULLY_SHARED_UNIT_1-1-1-2,1,target-1,cpu,65413
2022-03-30T16:42:52.635Z,FULLY_SHARED_UNIT_1-1-1-2,1,target-1,cpu,47580
2022-03-30T16:43:02.635Z,FULLY_SHARED_UNIT_1-1-1-2,1,target-1,cpu,54300
2022-03-30T16:43:12.635Z,FULLY_SHARED_UNIT_1-1-1-2,1,target-1,cpu,54300
2022-03-30T16:43:22.636Z,FULLY_SHARED_UNIT_1-1-1-2,1,target-1,cpu,39312
2022-03-30T16:43:32.635Z,FULLY_SHARED_UNIT_1-1-1-2,1,target-1,cpu,39312
2022-03-30T16:43:42.635Z,FULLY_SHARED_UNIT_1-1-1-2,1,target-1,cpu,52290
2022-03-30T16:43:52.637Z,FULLY_SHARED_UNIT_1-1-1-2,1,target-1,cpu,27386
2022-03-30T16:44:02.635Z,FULLY_SHARED_UNIT_1-1-1-2,1,target-1,cpu,27386
2022-03-30T16:44:12.636Z,FULLY_SHARED_UNIT_1-1-1-2,1,target-1,cpu,48897
2022-03-30T16:44:22.635Z,FULLY_SHARED_UNIT_1-1-1-2,1,target-1,cpu,48897
2022-03-30T16:44:32.635Z,FULLY_SHARED_UNIT_1-1-1-2,1,target-1,cpu,38527
2022-03-30T16:44:42.635Z,FULLY_SHARED_UNIT_1-1-1-2,1,target-1,cpu,38527
2022-03-30T16:44:52.635Z,FULLY_SHARED_UNIT_1-1-1-2,1,target-1,cpu,38527
2022-03-30T16:45:02.635Z,FULLY_SHARED_UNIT_1-1-1-2,1,target-1,cpu,68705
2022-03-30T16:45:12.635Z,FULLY_SHARED_UNIT_1-1-1-2,1,target-1,cpu,68705
2022-03-30T16:45:22.636Z,FULLY_SHARED_UNIT_1-1-1-2,1,target-1,cpu,37839
2022-03-30T16:45:32.635Z,FULLY_SHARED_UNIT_1-1-1-2,1,target-1,cpu,37839
2022-03-30T16:45:42.635Z,FULLY_SHARED_UNIT_1-1-1-2,1,target-1,cpu,50078
2022-03-30T16:45:52.635Z,FULLY_SHARED_UNIT_1-1-1-2,1,target-1,cpu,50078
2022-03-30T16:46:12.931Z,FULLY_SHARED_UNIT_1-1-1-2,2,target-1,cpu,72980
2022-03-30T16:46:22.930Z,FULLY_SHARED_UNIT_1-1-1-2,2,target-1,cpu,72980
2022-03-30T16:46:32.930Z,FULLY_SHARED_UNIT_1-1-1-2,2,target-1,cpu,39033
2022-03-30T16:46:42.930Z,FULLY_SHARED_UNIT_1-1-1-2,2,target-1,cpu,51773
2022-03-30T16:46:52.930Z,FULLY_SHARED_UNIT_1-1-1-2,2,target-1,cpu,51773
2022-03-30T16:47:02.930Z,FULLY_SHARED_UNIT_1-1-1-2,2,target-1,cpu,28528
2022-03-30T16:47:12.930Z,FULLY_SHARED_UNIT_1-1-1-2,2,target-1,cpu,51863
2022-03-30T16:47:22.930Z,FULLY_SHARED_UNIT_1-1-1-2,2,target-1,cpu,51863
2022-03-30T16:47:32.931Z,FULLY_SHARED_UNIT_1-1-1-2,2,target-1,cpu,27585
2022-03-30T16:47:42.930Z,FULLY_SHARED_UNIT_1-1-1-2,2,target-1,cpu,27585
2022-03-30T16:47:52.930Z,FULLY_SHARED_UNIT_1-1-1-2,2,target-1,cpu,34375
2022-03-30T16:48:02.931Z,FULLY_SHARED_UNIT_1-1-1-2,2,target-1,cpu,67810
2022-03-30T16:48:12.930Z,FULLY_SHARED_UNIT_1-1-1-2,2,target-1,cpu,67810
2022-03-30T16:48:22.931Z,FULLY_SHARED_UNIT_1-1-1-2,2,target-1,cpu,33651
2022-03-30T16:48:32.930Z,FULLY_SHARED_UNIT_1-1-1-2,2,target-1,cpu,33651
2022-03-30T16:48:42.931Z,FULLY_SHARED_UNIT_1-1-1-2,2,target-1,cpu,35643
2022-03-30T16:48:52.930Z,FULLY_SHARED_UNIT_1-1-1-2,2,target-1,cpu,35643
2022-03-30T16:49:02.930Z,FULLY_SHARED_UNIT_1-1-1-2,2,target-1,cpu,39516
2022-03-30T16:49:12.930Z,FULLY_SHARED_UNIT_1-1-1-2,2,target-1,cpu,39516
2022-03-30T16:49:22.930Z,FULLY_SHARED_UNIT_1-1-1-2,2,target-1,cpu,38855
2022-03-30T16:49:32.930Z,FULLY_SHARED_UNIT_1-1-1-2,2,target-1,cpu,38855
2022-03-30T16:49:42.930Z,FULLY_SHARED_UNIT_1-1-1-2,2,target-1,cpu,38855
2022-03-30T16:49:52.930Z,FULLY_SHARED_UNIT_1-1-1-2,2,target-1,cpu,43355
2022-03-30T16:50:02.930Z,FULLY_SHARED_UNIT_1-1-1-2,2,target-1,cpu,43355
2022-03-30T16:50:12.930Z,FULLY_SHARED_UNIT_1-1-1-2,2,target-1,cpu,26805
2022-03-30T16:50:22.930Z,FULLY_SHARED_UNIT_1-1-1-2,2,target-1,cpu,40920
2022-03-30T16:50:32.930Z,FULLY_SHARED_UNIT_1-1-1-2,2,target-1,cpu,40920
2022-03-30T16:50:42.930Z,FULLY_SHARED_UNIT_1-1-1-2,2,target-1,cpu,43129
2022-03-30T16:50:52.930Z,FULLY_SHARED_UNIT_1-1-1-2,2,target-1,cpu,43129
2022-03-30T16:51:02.930Z,FULLY_SHARED_UNIT_1-1-1-2,2,target-1,cpu,43129
2022-03-30T16:51:12.930Z,FULLY_SHARED_UNIT_1-1-1-2,2,target-1,cpu,29978
2022-03-30T16:51:22.931Z,FULLY_SHARED_UNIT_1-1-1-2,2,target-1,cpu,51971
2022-03-30T16:51:32.930Z,FULLY_SHARED_UNIT_1-1-1-2,2,target-1,cpu,51971
2022-03-30T16:51:42.931Z,FULLY_SHARED_UNIT_1-1-1-2,2,target-1,cpu,32296
2022-03-30T16:51:52.930Z,FULLY_SHARED_UNIT_1-1-1-2,2,target-1,cpu,32296
2022-03-30T16:52:02.930Z,FULLY_SHARED_UNIT_1-1-1-2,2,target-1,cpu,51818
2022-03-30T16:52:12.930Z,FULLY_SHARED_UNIT_1-1-1-2,2,target-1,cpu,51818
2022-03-30T16:52:22.930Z,FULLY_SHARED_UNIT_1-1-1-2,2,target-1,cpu,38397
2022-03-30T16:52:32.930Z,FULLY_SHARED_UNIT_1-1-1-2,2,target-1,cpu,42267
2022-03-30T16:52:42.930Z,FULLY_SHARED_UNIT_1-1-1-2,2,target-1,cpu,44629
2022-03-30T16:52:52.931Z,FULLY_SHARED_UNIT_1-1-1-2,2,target-1,cpu,26317
2022-03-30T16:53:02.930Z,FULLY_SHARED_UNIT_1-1-1-2,2,target-1,cpu,26317
2022-03-30T16:53:12.931Z,FULLY_SHARED_UNIT_1-1-1-2,2,target-1,cpu,48884
2022-03-30T16:53:22.930Z,FULLY_SHARED_UNIT_1-1-1-2,2,target-1,cpu,48884
2022-03-30T16:53:32.930Z,FULLY_SHARED_UNIT_1-1-1-2,2,target-1,cpu,39025
2022-03-30T16:53:42.931Z,FULLY_SHARED_UNIT_1-1-1-2,2,target-1,cpu,54758
2022-03-30T16:53:52.930Z,FULLY_SHARED_UNIT_1-1-1-2,2,target-1,cpu,54758
2022-03-30T16:54:02.930Z,FULLY_SHARED_UNIT_1-1-1-2,2,target-1,cpu,19129
2022-03-30T16:54:12.930Z,FULLY_SHARED_UNIT_1-1-1-2,2,target-1,cpu,19129
2022-03-30T16:54:22.930Z,FULLY_SHARED_UNIT_1-1-1-2,2,target-1,cpu,43898
2022-03-30T16:54:32.930Z,FULLY_SHARED_UNIT_1-1-1-2,2,target-1,cpu,43898
2022-03-30T16:54:42.930Z,FULLY_SHARED_UNIT_1-1-1-2,2,target-1,cpu,37487
2022-03-30T16:54:52.931Z,FULLY_SHARED_UNIT_1-1-1-2,2,target-1,cpu,37487
2022-03-30T16:55:02.931Z,FULLY_SHARED_UNIT_1-1-1-2,2,target-1,cpu,37487
2022-03-30T16:55:12.930Z,FULLY_SHARED_UNIT_1-1-1-2,2,target-1,cpu,44966
2022-03-30T16:55:22.930Z,FULLY_SHARED_UNIT_1-1-1-2,2,target-1,cpu,44966
2022-03-30T16:55:32.930Z,FULLY_SHARED_UNIT_1-1-1-2,2,target-1,cpu,63032
2022-03-30T16:55:42.930Z,FULLY_SHARED_UNIT_1-1-1-2,2,target-1,cpu,63032
2022-03-30T16:55:52.930Z,FULLY_SHARED_UNIT_1-1-1-2,2,target-1,cpu,30448
2022-03-30T16:56:02.930Z,FULLY_SHARED_UNIT_1-1-1-2,2,target-1,cpu,31170
2022-03-30T16:56:22.250Z,FULLY_SHARED_UNIT_1-1-1-2,3,target-1,cpu,43952
2022-03-30T16:56:32.250Z,FULLY_SHARED_UNIT_1-1-1-2,3,target-1,cpu,43952
2022-03-30T16:56:42.249Z,FULLY_SHARED_UNIT_1-1-1-2,3,target-1,cpu,52516
2022-03-30T16:56:52.250Z,FULLY_SHARED_UNIT_1-1-1-2,3,target-1,cpu,52516
2022-03-30T16:57:02.249Z,FULLY_SHARED_UNIT_1-1-1-2,3,target-1,cpu,52516
2022-03-30T16:57:12.250Z,FULLY_SHARED_UNIT_1-1-1-2,3,target-1,cpu,37956
2022-03-30T16:57:22.250Z,FULLY_SHARED_UNIT_1-1-1-2,3,target-1,cpu,37956
2022-03-30T16:57:32.249Z,FULLY_SHARED_UNIT_1-1-1-2,3,target-1,cpu,43992
2022-03-30T16:57:42.250Z,FULLY_SHARED_UNIT_1-1-1-2,3,target-1,cpu,50412
2022-03-30T16:57:52.249Z,FULLY_SHARED_UNIT_1-1-1-2,3,target-1,cpu,50412
2022-03-30T16:58:02.249Z,FULLY_SHARED_UNIT_1-1-1-2,3,target-1,cpu,52859
2022-03-30T16:58:12.250Z,FULLY_SHARED_UNIT_1-1-1-2,3,target-1,cpu,52859
2022-03-30T16:58:22.250Z,FULLY_SHARED_UNIT_1-1-1-2,3,target-1,cpu,52859
2022-03-30T16:58:32.250Z,FULLY_SHARED_UNIT_1-1-1-2,3,target-1,cpu,52797
2022-03-30T16:58:42.250Z,FULLY_SHARED_UNIT_1-1-1-2,3,target-1,cpu,44583
2022-03-30T16:58:52.249Z,FULLY_SHARED_UNIT_1-1-1-2,3,target-1,cpu,44583
2022-03-30T16:59:02.250Z,FULLY_SHARED_UNIT_1-1-1-2,3,target-1,cpu,54641
2022-03-30T16:59:12.250Z,FULLY_SHARED_UNIT_1-1-1-2,3,target-1,cpu,42533
2022-03-30T16:59:22.250Z,FULLY_SHARED_UNIT_1-1-1-2,3,target-1,cpu,42533
2022-03-30T16:59:32.249Z,FULLY_SHARED_UNIT_1-1-1-2,3,target-1,cpu,59758
2022-03-30T16:59:42.250Z,FULLY_SHARED_UNIT_1-1-1-2,3,target-1,cpu,30912
2022-03-30T16:59:52.250Z,FULLY_SHARED_UNIT_1-1-1-2,3,target-1,cpu,30912
2022-03-30T17:00:02.250Z,FULLY_SHARED_UNIT_1-1-1-2,3,target-1,cpu,35857
2022-03-30T17:00:12.249Z,FULLY_SHARED_UNIT_1-1-1-2,3,target-1,cpu,35857
2022-03-30T17:00:22.249Z,FULLY_SHARED_UNIT_1-1-1-2,3,target-1,cpu,37051
2022-03-30T17:00:32.249Z,FULLY_SHARED_UNIT_1-1-1-2,3,target-1,cpu,45014
2022-03-30T17:00:42.249Z,FULLY_SHARED_UNIT_1-1-1-2,3,target-1,cpu,45014
2022-03-30T17:00:52.250Z,FULLY_SHARED_UNIT_1-1-1-2,3,target-1,cpu,39495
2022-03-30T17:01:02.249Z,FULLY_SHARED_UNIT_1-1-1-2,3,target-1,cpu,39495
2022-03-30T17:01:12.249Z,FULLY_SHARED_UNIT_1-1-1-2,3,target-1,cpu,30440
2022-03-30T17:01:22.250Z,FULLY_SHARED_UNIT_1-1-1-2,3,target-1,cpu,30440
2022-03-30T17:01:32.250Z,FULLY_SHARED_UNIT_1-1-1-2,3,target-1,cpu,30440
2022-03-30T17:01:42.249Z,FULLY_SHARED_UNIT_1-1-1-2,3,target-1,cpu,66666
2022-03-30T17:01:52.249Z,FULLY_SHARED_UNIT_1-1-1-2,3,target-1,cpu,34950
2022-03-30T17:02:02.249Z,FULLY_SHARED_UNIT_1-1-1-2,3,target-1,cpu,34950
2022-03-30T17:02:12.250Z,FULLY_SHARED_UNIT_1-1-1-2,3,target-1,cpu,61134
2022-03-30T17:02:22.250Z,FULLY_SHARED_UNIT_1-1-1-2,3,target-1,cpu,61134
2022-03-30T17:02:32.249Z,FULLY_SHARED_UNIT_1-1-1-2,3,target-1,cpu,38256
2022-03-30T17:02:42.249Z,FULLY_SHARED_UNIT_1-1-1-2,3,target-1,cpu,38256
2022-03-30T17:02:52.250Z,FULLY_SHARED_UNIT_1-1-1-2,3,target-1,cpu,22853
2022-03-30T17:03:02.249Z,FULLY_SHARED_UNIT_1-1-1-2,3,target-1,cpu,22853
2022-03-30T17:03:12.249Z,FULLY_SHARED_UNIT_1-1-1-2,3,target-1,cpu,38712
2022-03-30T17:03:22.249Z,FULLY_SHARED_UNIT_1-1-1-2,3,target-1,cpu,38712
2022-03-30T17:03:32.249Z,FULLY_SHARED_UNIT_1-1-1-2,3,target-1,cpu,33849
2022-03-30T17:03:42.250Z,FULLY_SHARED_UNIT_1-1-1-2,3,target-1,cpu,27696
2022-03-30T17:03:52.250Z,FULLY_SHARED_UNIT_1-1-1-2,3,target-1,cpu,27696
2022-03-30T17:04:02.250Z,FULLY_SHARED_UNIT_1-1-1-2,3,target-1,cpu,60631
2022-03-30T17:04:12.250Z,FULLY_SHARED_UNIT_1-1-1-2,3,target-1,cpu,44928
2022-03-30T17:04:22.249Z,FULLY_SHARED_UNIT_1-1-1-2,3,target-1,cpu,44928
2022-03-30T17:04:32.250Z,FULLY_SHARED_UNIT_1-1-1-2,3,target-1,cpu,49584
2022-03-30T17:04:42.250Z,FULLY_SHARED_UNIT_1-1-1-2,3,target-1,cpu,32802
2022-03-30T17:04:52.250Z,FULLY_SHARED_UNIT_1-1-1-2,3,target-1,cpu,48902
2022-03-30T17:05:02.250Z,FULLY_SHARED_UNIT_1-1-1-2,3,target-1,cpu,48902
2022-03-30T17:05:12.250Z,FULLY_SHARED_UNIT_1-1-1-2,3,target-1,cpu,67715
2022-03-30T17:05:22.249Z,FULLY_SHARED_UNIT_1-1-1-2,3,target-1,cpu,67715
2022-03-30T17:05:32.250Z,FULLY_SHARED_UNIT_1-1-1-2,3,target-1,cpu,41183
2022-03-30T17:05:42.249Z,FULLY_SHARED_UNIT_1-1-1-2,3,target-1,cpu,41183
2022-03-30T17:05:52.250Z,FULLY_SHARED_UNIT_1-1-1-2,3,target-1,cpu,31456
2022-03-30T17:06:02.250Z,FULLY_SHARED_UNIT_1-1-1-2,3,target-1,cpu,31456
2022-03-30T17:06:12.249Z,FULLY_SHARED_UNIT_1-1-1-2,3,target-1,cpu,31456
2022-03-30T17:06:33.590Z,FULLY_SHARED_UNIT_1-1-1-4,1,target-1,cpu,92087
2022-03-30T17:06:43.589Z,FULLY_SHARED_UNIT_1-1-1-4,1,target-1,cpu,92087
2022-03-30T17:06:53.589Z,FULLY_SHARED_UNIT_1-1-1-4,1,target-1,cpu,58043
2022-03-30T17:07:03.590Z,FULLY_SHARED_UNIT_1-1-1-4,1,target-1,cpu,58043
2022-03-30T17:07:13.589Z,FULLY_SHARED_UNIT_1-1-1-4,1,target-1,cpu,58043
2022-03-30T17:07:23.589Z,FULLY_SHARED_UNIT_1-1-1-4,1,target-1,cpu,67548
2022-03-30T17:07:33.589Z,FULLY_SHARED_UNIT_1-1-1-4,1,target-1,cpu,67548
2022-03-30T17:07:43.589Z,FULLY_SHARED_UNIT_1-1-1-4,1,target-1,cpu,67548
2022-03-30T17:07:53.589Z,FULLY_SHARED_UNIT_1-1-1-4,1,target-1,cpu,83632
2022-03-30T17:08:03.590Z,FULLY_SHARED_UNIT_1-1-1-4,1,target-1,cpu,83632
2022-03-30T17:08:13.589Z,FULLY_SHARED_UNIT_1-1-1-4,1,target-1,cpu,83632
2022-03-30T17:08:23.589Z,FULLY_SHARED_UNIT_1-1-1-4,1,target-1,cpu,85548
2022-03-30T17:08:33.589Z,FULLY_SHARED_UNIT_1-1-1-4,1,target-1,cpu,88179
2022-03-30T17:08:43.590Z,FULLY_SHARED_UNIT_1-1-1-4,1,target-1,cpu,88179
2022-03-30T17:08:53.589Z,FULLY_SHARED_UNIT_1-1-1-4,1,target-1,cpu,88179
2022-03-30T17:09:03.590Z,FULLY_SHARED_UNIT_1-1-1-4,1,target-1,cpu,85585
2022-03-30T17:09:13.589Z,FULLY_SHARED_UNIT_1-1-1-4,1,target-1,cpu,85585
2022-03-30T17:09:23.589Z,FULLY_SHARED_UNIT_1-1-1-4,1,target-1,cpu,82316
2022-03-30T17:09:33.589Z,FULLY_SHARED_UNIT_1-1-1-4,1,target-1,cpu,82316
2022-03-30T17:09:43.589Z,FULLY_SHARED_UNIT_1-1-1-4,1,target-1,cpu,92652
2022-03-30T17:09:53.590Z,FULLY_SHARED_UNIT_1-1-1-4,1,target-1,cpu,108773
2022-03-30T17:10:03.589Z,FULLY_SHARED_UNIT_1-1-1-4,1,target-1,cpu,108773
2022-03-30T17:10:13.589Z,FULLY_SHARED_UNIT_1-1-1-4,1,target-1,cpu,97556
2022-03-30T17:10:23.590Z,FULLY_SHARED_UNIT_1-1-1-4,1,target-1,cpu,86509
2022-03-30T17:10:33.590Z,FULLY_SHARED_UNIT_1-1-1-4,1,target-1,cpu,96450
2022-03-30T17:10:43.590Z,FULLY_SHARED_UNIT_1-1-1-4,1,target-1,cpu,96450
2022-03-30T17:10:53.589Z,FULLY_SHARED_UNIT_1-1-1-4,1,target-1,cpu,96450
2022-03-30T17:11:03.590Z,FULLY_SHARED_UNIT_1-1-1-4,1,target-1,cpu,96581
2022-03-30T17:11:13.589Z,FULLY_SHARED_UNIT_1-1-1-4,1,target-1,cpu,96581
2022-03-30T17:11:23.589Z,FULLY_SHARED_UNIT_1-1-1-4,1,target-1,cpu,98499
2022-03-30T17:11:33.589Z,FULLY_SHARED_UNIT_1-1-1-4,1,target-1,cpu,98499
2022-03-30T17:11:43.590Z,FULLY_SHARED_UNIT_1-1-1-4,1,target-1,cpu,53981
2022-03-30T17:11:53.590Z,FULLY_SHARED_UNIT_1-1-1-4,1,target-1,cpu,53981
2022-03-30T17:12:03.589Z,FULLY_SHARED_UNIT_1-1-1-4,1,target-1,cpu,110073
2022-03-30T17:12:13.589Z,FULLY_SHARED_UNIT_1-1-1-4,1,target-1,cpu,100987
2022-03-30T17:12:23.590Z,FULLY_SHARED_UNIT_1-1-1-4,1,target-1,cpu,100987
2022-03-30T17:12:33.589Z,FULLY_SHARED_UNIT_1-1-1-4,1,target-1,cpu,100987
2022-03-30T17:12:43.589Z,FULLY_SHARED_UNIT_1-1-1-4,1,target-1,cpu,104344
2022-03-30T17:12:53.590Z,FULLY_SHARED_UNIT_1-1-1-4,1,target-1,cpu,55320
2022-03-30T17:13:03.589Z,FULLY_SHARED_UNIT_1-1-1-4,1,target-1,cpu,55320
2022-03-30T17:13:13.590Z,FULLY_SHARED_UNIT_1-1-1-4,1,target-1,cpu,132699
2022-03-30T17:13:23.589Z,FULLY_SHARED_UNIT_1-1-1-4,1,target-1,cpu,132699
2022-03-30T17:13:33.590Z,FULLY_SHARED_UNIT_1-1-1-4,1,target-1,cpu,109332
2022-03-30T17:13:43.589Z,FULLY_SHARED_UNIT_1-1-1-4,1,target-1,cpu,109332
2022-03-30T17:13:53.589Z,FULLY_SHARED_UNIT_1-1-1-4,1,target-1,cpu,75441
2022-03-30T17:14:03.590Z,FULLY_SHARED_UNIT_1-1-1-4,1,target-1,cpu,91160
2022-03-30T17:14:13.589Z,FULLY_SHARED_UNIT_1-1-1-4,1,target-1,cpu,91160
2022-03-30T17:14:23.590Z,FULLY_SHARED_UNIT_1-1-1-4,1,target-1,cpu,61513
2022-03-30T17:14:33.590Z,FULLY_SHARED_UNIT_1-1-1-4,1,target-1,cpu,94435
2022-03-30T17:14:43.589Z,FULLY_SHARED_UNIT_1-1-1-4,1,target-1,cpu,94435
2022-03-30T17:14:53.589Z,FULLY_SHARED_UNIT_1-1-1-4,1,target-1,cpu,65331
2022-03-30T17:15:03.589Z,FULLY_SHARED_UNIT_1-1-1-4,1,target-1,cpu,65331
2022-03-30T17:15:13.590Z,FULLY_SHARED_UNIT_1-1-1-4,1,target-1,cpu,110528
2022-03-30T17:15:23.590Z,FULLY_SHARED_UNIT_1-1-1-4,1,target-1,cpu,110528
2022-03-30T17:15:33.590Z,FULLY_SHARED_UNIT_1-1-1-4,1,target-1,cpu,99003
2022-03-30T17:15:43.589Z,FULLY_SHARED_UNIT_1-1-1-4,1,target-1,cpu,99003
2022-03-30T17:15:53.589Z,FULLY_SHARED_UNIT_1-1-1-4,1,target-1,cpu,91671
2022-03-30T17:16:03.590Z,FULLY_SHARED_UNIT_1-1-1-4,1,target-1,cpu,93915
2022-03-30T17:16:13.589Z,FULLY_SHARED_UNIT_1-1-1-4,1,target-1,cpu,93915
2022-03-30T17:16:23.590Z,FULLY_SHARED_UNIT_1-1-1-4,1,target-1,cpu,74295
2022-03-30T17:16:48.295Z,FULLY_SHARED_UNIT_1-1-1-4,2,target-1,cpu,74125
2022-03-30T17:16:58.295Z,FULLY_SHARED_UNIT_1-1-1-4,2,target-1,cpu,74125
2022-03-30T17:17:08.294Z,FULLY_SHARED_UNIT_1-1-1-4,2,target-1,cpu,104540
2022-03-30T17:17:18.295Z,FULLY_SHARED_UNIT_1-1-1-4,2,target-1,cpu,95899
2022-03-30T17:17:28.295Z,FULLY_SHARED_UNIT_1-1-1-4,2,target-1,cpu,95899
2022-03-30T17:17:38.294Z,FULLY_SHARED_UNIT_1-1-1-4,2,target-1,cpu,66699
2022-03-30T17:17:48.294Z,FULLY_SHARED_UNIT_1-1-1-4,2,target-1,cpu,66699
2022-03-30T17:17:58.294Z,FULLY_SHARED_UNIT_1-1-1-4,2,target-1,cpu,88853
2022-03-30T17:18:08.295Z,FULLY_SHARED_UNIT_1-1-1-4,2,target-1,cpu,76495
2022-03-30T17:18:18.294Z,FULLY_SHARED_UNIT_1-1-1-4,2,target-1,cpu,76495
2022-03-30T17:18:28.294Z,FULLY_SHARED_UNIT_1-1-1-4,2,target-1,cpu,63861
2022-03-30T17:18:38.295Z,FULLY_SHARED_UNIT_1-1-1-4,2,target-1,cpu,63861
2022-03-30T17:18:48.295Z,FULLY_SHARED_UNIT_1-1-1-4,2,target-1,cpu,63861
2022-03-30T17:18:58.295Z,FULLY_SHARED_UNIT_1-1-1-4,2,target-1,cpu,69115
2022-03-30T17:19:08.295Z,FULLY_SHARED_UNIT_1-1-1-4,2,target-1,cpu,69115
2022-03-30T17:19:18.295Z,FULLY_SHARED_UNIT_1-1-1-4,2,target-1,cpu,97638
2022-03-30T17:19:28.294Z,FULLY_SHARED_UNIT_1-1-1-4,2,target-1,cpu,97638
2022-03-30T17:19:38.294Z,FULLY_SHARED_UNIT_1-1-1-4,2,target-1,cpu,60205
2022-03-30T17:19:48.295Z,FULLY_SHARED_UNIT_1-1-1-4,2,target-1,cpu,60205
2022-03-30T17:19:58.294Z,FULLY_SHARED_UNIT_1-1-1-4,2,target-1,cpu,60205
2022-03-30T17:20:08.294Z,FULLY_SHARED_UNIT_1-1-1-4,2,target-1,cpu,87148
2022-03-30T17:20:18.294Z,FULLY_SHARED_UNIT_1-1-1-4,2,target-1,cpu,93520
2022-03-30T17:20:28.295Z,FULLY_SHARED_UNIT_1-1-1-4,2,target-1,cpu,65394
2022-03-30T17:20:38.294Z,FULLY_SHARED_UNIT_1-1-1-4,2,target-1,cpu,65394
2022-03-30T17:20:48.295Z,FULLY_SHARED_UNIT_1-1-1-4,2,target-1,cpu,81734
2022-03-30T17:20:58.295Z,FULLY_SHARED_UNIT_1-1-1-4,2,target-1,cpu,81734
2022-03-30T17:21:08.295Z,FULLY_SHARED_UNIT_1-1-1-4,2,target-1,cpu,69254
2022-03-30T17:21:18.294Z,FULLY_SHARED_UNIT_1-1-1-4,2,target-1,cpu,69254
2022-03-30T17:21:28.295Z,FULLY_SHARED_UNIT_1-1-1-4,2,target-1,cpu,78934
2022-03-30T17:21:38.294Z,FULLY_SHARED_UNIT_1-1-1-4,2,target-1,cpu,78934
2022-03-30T17:21:48.295Z,FULLY_SHARED_UNIT_1-1-1-4,2,target-1,cpu,52615
2022-03-30T17:21:58.295Z,FULLY_SHARED_UNIT_1-1-1-4,2,target-1,cpu,52615
2022-03-30T17:22:08.294Z,FULLY_SHARED_UNIT_1-1-1-4,2,target-1,cpu,52615
2022-03-30T17:22:18.294Z,FULLY_SHARED_UNIT_1-1-1-4,2,target-1,cpu,90325
2022-03-30T17:22:28.295Z,FULLY_SHARED_UNIT_1-1-1-4,2,target-1,cpu,90325
2022-03-30T17:22:38.294Z,FULLY_SHARED_UNIT_1-1-1-4,2,target-1,cpu,90325
2022-03-30T17:22:48.295Z,FULLY_SHARED_UNIT_1-1-1-4,2,target-1,cpu,68757
2022-03-30T17:22:58.294Z,FULLY_SHARED_UNIT_1-1-1-4,2,target-1,cpu,68757
2022-03-30T17:23:08.294Z,FULLY_SHARED_UNIT_1-1-1-4,2,target-1,cpu,170773
2022-03-30T17:23:18.295Z,FULLY_SHARED_UNIT_1-1-1-4,2,target-1,cpu,170773
2022-03-30T17:23:28.295Z,FULLY_SHARED_UNIT_1-1-1-4,2,target-1,cpu,102979
2022-03-30T17:23:38.295Z,FULLY_SHARED_UNIT_1-1-1-4,2,target-1,cpu,102979
2022-03-30T17:23:48.295Z,FULLY_SHARED_UNIT_1-1-1-4,2,target-1,cpu,54331
2022-03-30T17:23:58.294Z,FULLY_SHARED_UNIT_1-1-1-4,2,target-1,cpu,54331
2022-03-30T17:24:08.295Z,FULLY_SHARED_UNIT_1-1-1-4,2,target-1,cpu,54447
2022-03-30T17:24:18.295Z,FULLY_SHARED_UNIT_1-1-1-4,2,target-1,cpu,54447
2022-03-30T17:24:28.295Z,FULLY_SHARED_UNIT_1-1-1-4,2,target-1,cpu,87263
2022-03-30T17:24:38.294Z,FULLY_SHARED_UNIT_1-1-1-4,2,target-1,cpu,87263
2022-03-30T17:24:48.295Z,FULLY_SHARED_UNIT_1-1-1-4,2,target-1,cpu,100015
2022-03-30T17:24:58.294Z,FULLY_SHARED_UNIT_1-1-1-4,2,target-1,cpu,100015
2022-03-30T17:25:08.294Z,FULLY_SHARED_UNIT_1-1-1-4,2,target-1,cpu,85880
2022-03-30T17:25:18.295Z,FULLY_SHARED_UNIT_1-1-1-4,2,target-1,cpu,52460
2022-03-30T17:25:28.295Z,FULLY_SHARED_UNIT_1-1-1-4,2,target-1,cpu,52460
2022-03-30T17:25:38.295Z,FULLY_SHARED_UNIT_1-1-1-4,2,target-1,cpu,66429
2022-03-30T17:25:48.295Z,FULLY_SHARED_UNIT_1-1-1-4,2,target-1,cpu,66429
2022-03-30T17:25:58.294Z,FULLY_SHARED_UNIT_1-1-1-4,2,target-1,cpu,97048
2022-03-30T17:26:08.294Z,FULLY_SHARED_UNIT_1-1-1-4,2,target-1,cpu,68092
2022-03-30T17:26:18.295Z,FULLY_SHARED_UNIT_1-1-1-4,2,target-1,cpu,83225
2022-03-30T17:26:28.294Z,FULLY_SHARED_UNIT_1-1-1-4,2,target-1,cpu,83225
2022-03-30T17:26:38.294Z,FULLY_SHARED_UNIT_1-1-1-4,2,target-1,cpu,82525
2022-03-30T17:27:01.803Z,FULLY_SHARED_UNIT_1-1-1-4,3,target-1,cpu,67935
2022-03-30T17:27:11.803Z,FULLY_SHARED_UNIT_1-1-1-4,3,target-1,cpu,67935
2022-03-30T17:27:21.802Z,FULLY_SHARED_UNIT_1-1-1-4,3,target-1,cpu,67935
2022-03-30T17:27:31.802Z,FULLY_SHARED_UNIT_1-1-1-4,3,target-1,cpu,90361
2022-03-30T17:27:41.802Z,FULLY_SHARED_UNIT_1-1-1-4,3,target-1,cpu,90361
2022-03-30T17:27:51.802Z,FULLY_SHARED_UNIT_1-1-1-4,3,target-1,cpu,90361
2022-03-30T17:28:01.802Z,FULLY_SHARED_UNIT_1-1-1-4,3,target-1,cpu,71180
2022-03-30T17:28:11.802Z,FULLY_SHARED_UNIT_1-1-1-4,3,target-1,cpu,79837
2022-03-30T17:28:21.802Z,FULLY_SHARED_UNIT_1-1-1-4,3,target-1,cpu,79837
2022-03-30T17:28:31.803Z,FULLY_SHARED_UNIT_1-1-1-4,3,target-1,cpu,89603
2022-03-30T17:28:41.802Z,FULLY_SHARED_UNIT_1-1-1-4,3,target-1,cpu,89603
2022-03-30T17:28:51.802Z,FULLY_SHARED_UNIT_1-1-1-4,3,target-1,cpu,105415
2022-03-30T17:29:01.802Z,FULLY_SHARED_UNIT_1-1-1-4,3,target-1,cpu,105415
2022-03-30T17:29:11.802Z,FULLY_SHARED_UNIT_1-1-1-4,3,target-1,cpu,74733
2022-03-30T17:29:21.802Z,FULLY_SHARED_UNIT_1-1-1-4,3,target-1,cpu,74733
2022-03-30T17:29:31.802Z,FULLY_SHARED_UNIT_1-1-1-4,3,target-1,cpu,74733
2022-03-30T17:29:41.803Z,FULLY_SHARED_UNIT_1-1-1-4,3,target-1,cpu,71199
2022-03-30T17:29:51.802Z,FULLY_SHARED_UNIT_1-1-1-4,3,target-1,cpu,71199
2022-03-30T17:30:01.802Z,FULLY_SHARED_UNIT_1-1-1-4,3,target-1,cpu,61660
2022-03-30T17:30:11.802Z,FULLY_SHARED_UNIT_1-1-1-4,3,target-1,cpu,63838
2022-03-30T17:30:21.802Z,FULLY_SHARED_UNIT_1-1-1-4,3,target-1,cpu,63838
2022-03-30T17:30:31.802Z,FULLY_SHARED_UNIT_1-1-1-4,3,target-1,cpu,113356
2022-03-30T17:30:41.802Z,FULLY_SHARED_UNIT_1-1-1-4,3,target-1,cpu,61197
2022-03-30T17:30:51.802Z,FULLY_SHARED_UNIT_1-1-1-4,3,target-1,cpu,82442
2022-03-30T17:31:01.802Z,FULLY_SHARED_UNIT_1-1-1-4,3,target-1,cpu,82442
2022-03-30T17:31:11.802Z,FULLY_SHARED_UNIT_1-1-1-4,3,target-1,cpu,93101
2022-03-30T17:31:21.803Z,FULLY_SHARED_UNIT_1-1-1-4,3,target-1,cpu,93101
2022-03-30T17:31:31.802Z,FULLY_SHARED_UNIT_1-1-1-4,3,target-1,cpu,93101
2022-03-30T17:31:41.803Z,FULLY_SHARED_UNIT_1-1-1-4,3,target-1,cpu,72693
2022-03-30T17:31:51.802Z,FULLY_SHARED_UNIT_1-1-1-4,3,target-1,cpu,72693
2022-03-30T17:32:01.802Z,FULLY_SHARED_UNIT_1-1-1-4,3,target-1,cpu,89691
2022-03-30T17:32:11.802Z,FULLY_SHARED_UNIT_1-1-1-4,3,target-1,cpu,89691
2022-03-30T17:32:21.802Z,FULLY_SHARED_UNIT_1-1-1-4,3,target-1,cpu,68825
2022-03-30T17:32:31.802Z,FULLY_SHARED_UNIT_1-1-1-4,3,target-1,cpu,68825
2022-03-30T17:32:41.802Z,FULLY_SHARED_UNIT_1-1-1-4,3,target-1,cpu,91802
2022-03-30T17:32:51.802Z,FULLY_SHARED_UNIT_1-1-1-4,3,target-1,cpu,66808
2022-03-30T17:33:01.803Z,FULLY_SHARED_UNIT_1-1-1-4,3,target-1,cpu,82137
2022-03-30T17:33:11.802Z,FULLY_SHARED_UNIT_1-1-1-4,3,target-1,cpu,82137
2022-03-30T17:33:21.802Z,FULLY_SHARED_UNIT_1-1-1-4,3,target-1,cpu,62947
2022-03-30T17:33:31.803Z,FULLY_SHARED_UNIT_1-1-1-4,3,target-1,cpu,87768
2022-03-30T17:33:41.802Z,FULLY_SHARED_UNIT_1-1-1-4,3,target-1,cpu,87768
2022-03-30T17:33:51.802Z,FULLY_SHARED_UNIT_1-1-1-4,3,target-1,cpu,104274
2022-03-30T17:34:01.802Z,FULLY_SHARED_UNIT_1-1-1-4,3,target-1,cpu,104274
2022-03-30T17:34:11.802Z,FULLY_SHARED_UNIT_1-1-1-4,3,target-1,cpu,67968
2022-03-30T17:34:21.802Z,FULLY_SHARED_UNIT_1-1-1-4,3,target-1,cpu,67968
2022-03-30T17:34:31.803Z,FULLY_SHARED_UNIT_1-1-1-4,3,target-1,cpu,68037
2022-03-30T17:34:41.802Z,FULLY_SHARED_UNIT_1-1-1-4,3,target-1,cpu,68037
2022-03-30T17:34:51.802Z,FULLY_SHARED_UNIT_1-1-1-4,3,target-1,cpu,113098
2022-03-30T17:35:01.802Z,FULLY_SHARED_UNIT_1-1-1-4,3,target-1,cpu,113098
2022-03-30T17:35:11.802Z,FULLY_SHARED_UNIT_1-1-1-4,3,target-1,cpu,53462
2022-03-30T17:35:21.802Z,FULLY_SHARED_UNIT_1-1-1-4,3,target-1,cpu,96961
2022-03-30T17:35:31.802Z,FULLY_SHARED_UNIT_1-1-1-4,3,target-1,cpu,96961
2022-03-30T17:35:41.802Z,FULLY_SHARED_UNIT_1-1-1-4,3,target-1,cpu,96961
2022-03-30T17:35:51.802Z,FULLY_SHARED_UNIT_1-1-1-4,3,target-1,cpu,70094
2022-03-30T17:36:01.802Z,FULLY_SHARED_UNIT_1-1-1-4,3,target-1,cpu,70094
2022-03-30T17:36:11.802Z,FULLY_SHARED_UNIT_1-1-1-4,3,target-1,cpu,49280
2022-03-30T17:36:21.803Z,FULLY_SHARED_UNIT_1-1-1-4,3,target-1,cpu,96864
2022-03-30T17:36:31.803Z,FULLY_SHARED_UNIT_1-1-1-4,3,target-1,cpu,96864
2022-03-30T17:36:41.803Z,FULLY_SHARED_UNIT_1-1-1-4,3,target-1,cpu,63530
2022-03-30T17:36:51.802Z,FULLY_SHARED_UNIT_1-1-1-4,3,target-1,cpu,63530
2022-03-30T17:37:16.718Z,FULLY_SHARED_UNIT_1-1-1-8,1,target-1,cpu,85833
2022-03-30T17:37:26.718Z,FULLY_SHARED_UNIT_1-1-1-8,1,target-1,cpu,180973
2022-03-30T17:37:36.719Z,FULLY_SHARED_UNIT_1-1-1-8,1,target-1,cpu,217342
2022-03-30T17:37:46.718Z,FULLY_SHARED_UNIT_1-1-1-8,1,target-1,cpu,217342
2022-03-30T17:37:56.718Z,FULLY_SHARED_UNIT_1-1-1-8,1,target-1,cpu,161170
2022-03-30T17:38:06.719Z,FULLY_SHARED_UNIT_1-1-1-8,1,target-1,cpu,188801
2022-03-30T17:38:16.718Z,FULLY_SHARED_UNIT_1-1-1-8,1,target-1,cpu,188801
2022-03-30T17:38:26.718Z,FULLY_SHARED_UNIT_1-1-1-8,1,target-1,cpu,190208
2022-03-30T17:38:36.718Z,FULLY_SHARED_UNIT_1-1-1-8,1,target-1,cpu,195831
2022-03-30T17:38:46.719Z,FULLY_SHARED_UNIT_1-1-1-8,1,target-1,cpu,195831
2022-03-30T17:38:56.718Z,FULLY_SHARED_UNIT_1-1-1-8,1,target-1,cpu,195831
2022-03-30T17:39:06.718Z,FULLY_SHARED_UNIT_1-1-1-8,1,target-1,cpu,187390
2022-03-30T17:39:16.718Z,FULLY_SHARED_UNIT_1-1-1-8,1,target-1,cpu,187390
2022-03-30T17:39:26.718Z,FULLY_SHARED_UNIT_1-1-1-8,1,target-1,cpu,179902
2022-03-30T17:39:36.718Z,FULLY_SHARED_UNIT_1-1-1-8,1,target-1,cpu,231352
2022-03-30T17:39:46.718Z,FULLY_SHARED_UNIT_1-1-1-8,1,target-1,cpu,231352
2022-03-30T17:39:56.718Z,FULLY_SHARED_UNIT_1-1-1-8,1,target-1,cpu,185119
2022-03-30T17:40:06.718Z,FULLY_SHARED_UNIT_1-1-1-8,1,target-1,cpu,185119
2022-03-30T17:40:16.718Z,FULLY_SHARED_UNIT_1-1-1-8,1,target-1,cpu,165513
2022-03-30T17:40:26.719Z,FULLY_SHARED_UNIT_1-1-1-8,1,target-1,cpu,195153
2022-03-30T17:40:36.718Z,FULLY_SHARED_UNIT_1-1-1-8,1,target-1,cpu,195153
2022-03-30T17:40:46.719Z,FULLY_SHARED_UNIT_1-1-1-8,1,target-1,cpu,187706
2022-03-30T17:40:56.719Z,FULLY_SHARED_UNIT_1-1-1-8,1,target-1,cpu,187706
2022-03-30T17:41:06.718Z,FULLY_SHARED_UNIT_1-1-1-8,1,target-1,cpu,163541
2022-03-30T17:41:16.718Z,FULLY_SHARED_UNIT_1-1-1-8,1,target-1,cpu,163541
2022-03-30T17:41:26.718Z,FULLY_SHARED_UNIT_1-1-1-8,1,target-1,cpu,133657
2022-03-30T17:41:36.718Z,FULLY_SHARED_UNIT_1-1-1-8,1,target-1,cpu,133657
2022-03-30T17:41:46.719Z,FULLY_SHARED_UNIT_1-1-1-8,1,target-1,cpu,167751
2022-03-30T17:41:56.718Z,FULLY_SHARED_UNIT_1-1-1-8,1,target-1,cpu,167751
2022-03-30T17:42:06.719Z,FULLY_SHARED_UNIT_1-1-1-8,1,target-1,cpu,170917
2022-03-30T17:42:16.718Z,FULLY_SHARED_UNIT_1-1-1-8,1,target-1,cpu,170917
2022-03-30T17:42:26.718Z,FULLY_SHARED_UNIT_1-1-1-8,1,target-1,cpu,163641
2022-03-30T17:42:36.718Z,FULLY_SHARED_UNIT_1-1-1-8,1,target-1,cpu,141291
2022-03-30T17:42:46.718Z,FULLY_SHARED_UNIT_1-1-1-8,1,target-1,cpu,141291
2022-03-30T17:42:56.718Z,FULLY_SHARED_UNIT_1-1-1-8,1,target-1,cpu,184495
2022-03-30T17:43:06.718Z,FULLY_SHARED_UNIT_1-1-1-8,1,target-1,cpu,184495
2022-03-30T17:43:16.718Z,FULLY_SHARED_UNIT_1-1-1-8,1,target-1,cpu,189767
2022-03-30T17:43:26.719Z,FULLY_SHARED_UNIT_1-1-1-8,1,target-1,cpu,182400
2022-03-30T17:43:36.718Z,FULLY_SHARED_UNIT_1-1-1-8,1,target-1,cpu,182400
2022-03-30T17:43:46.718Z,FULLY_SHARED_UNIT_1-1-1-8,1,target-1,cpu,193915
2022-03-30T17:43:56.718Z,FULLY_SHARED_UNIT_1-1-1-8,1,target-1,cpu,193915
2022-03-30T17:44:06.718Z,FULLY_SHARED_UNIT_1-1-1-8,1,target-1,cpu,215469
2022-03-30T17:44:16.718Z,FULLY_SHARED_UNIT_1-1-1-8,1,target-1,cpu,215469
2022-03-30T17:44:26.718Z,FULLY_SHARED_UNIT_1-1-1-8,1,target-1,cpu,164584
2022-03-30T17:44:36.718Z,FULLY_SHARED_UNIT_1-1-1-8,1,target-1,cpu,164584
2022-03-30T17:44:46.718Z,FULLY_SHARED_UNIT_1-1-1-8,1,target-1,cpu,204803
2022-03-30T17:44:56.718Z,FULLY_SHARED_UNIT_1-1-1-8,1,target-1,cpu,145593
2022-03-30T17:45:06.718Z,FULLY_SHARED_UNIT_1-1-1-8,1,target-1,cpu,200787
2022-03-30T17:45:16.718Z,FULLY_SHARED_UNIT_1-1-1-8,1,target-1,cpu,200787
2022-03-30T17:45:26.718Z,FULLY_SHARED_UNIT_1-1-1-8,1,target-1,cpu,185952
2022-03-30T17:45:36.719Z,FULLY_SHARED_UNIT_1-1-1-8,1,target-1,cpu,185952
2022-03-30T17:45:46.718Z,FULLY_SHARED_UNIT_1-1-1-8,1,target-1,cpu,185952
2022-03-30T17:45:56.718Z,FULLY_SHARED_UNIT_1-1-1-8,1,target-1,cpu,209788
2022-03-30T17:46:06.718Z,FULLY_SHARED_UNIT_1-1-1-8,1,target-1,cpu,209788
2022-03-30T17:46:16.718Z,FULLY_SHARED_UNIT_1-1-1-8,1,target-1,cpu,161122
2022-03-30T17:46:26.719Z,FULLY_SHARED_UNIT_1-1-1-8,1,target-1,cpu,161122
2022-03-30T17:46:36.718Z,FULLY_SHARED_UNIT_1-1-1-8,1,target-1,cpu,161122
2022-03-30T17:46:46.718Z,FULLY_SHARED_UNIT_1-1-1-8,1,target-1,cpu,190421
2022-03-30T17:46:56.719Z,FULLY_SHARED_UNIT_1-1-1-8,1,target-1,cpu,167586
2022-03-30T17:47:06.718Z,FULLY_SHARED_UNIT_1-1-1-8,1,target-1,cpu,167586
2022-03-30T17:47:39.161Z,FULLY_SHARED_UNIT_1-1-1-8,2,target-1,cpu,115163
2022-03-30T17:47:49.161Z,FULLY_SHARED_UNIT_1-1-1-8,2,target-1,cpu,115163
2022-03-30T17:47:59.161Z,FULLY_SHARED_UNIT_1-1-1-8,2,target-1,cpu,115163
2022-03-30T17:48:09.161Z,FULLY_SHARED_UNIT_1-1-1-8,2,target-1,cpu,183929
2022-03-30T17:48:19.162Z,FULLY_SHARED_UNIT_1-1-1-8,2,target-1,cpu,172906
2022-03-30T17:48:29.161Z,FULLY_SHARED_UNIT_1-1-1-8,2,target-1,cpu,172906
2022-03-30T17:48:39.162Z,FULLY_SHARED_UNIT_1-1-1-8,2,target-1,cpu,171506
2022-03-30T17:48:49.161Z,FULLY_SHARED_UNIT_1-1-1-8,2,target-1,cpu,171506
2022-03-30T17:48:59.161Z,FULLY_SHARED_UNIT_1-1-1-8,2,target-1,cpu,183528
2022-03-30T17:49:09.161Z,FULLY_SHARED_UNIT_1-1-1-8,2,target-1,cpu,183528
2022-03-30T17:49:19.161Z,FULLY_SHARED_UNIT_1-1-1-8,2,target-1,cpu,159092
2022-03-30T17:49:29.161Z,FULLY_SHARED_UNIT_1-1-1-8,2,target-1,cpu,163199
2022-03-30T17:49:39.161Z,FULLY_SHARED_UNIT_1-1-1-8,2,target-1,cpu,186346
2022-03-30T17:49:49.161Z,FULLY_SHARED_UNIT_1-1-1-8,2,target-1,cpu,189624
2022-03-30T17:49:59.161Z,FULLY_SHARED_UNIT_1-1-1-8,2,target-1,cpu,189624
2022-03-30T17:50:09.161Z,FULLY_SHARED_UNIT_1-1-1-8,2,target-1,cpu,148258
2022-03-30T17:50:19.161Z,FULLY_SHARED_UNIT_1-1-1-8,2,target-1,cpu,148258
2022-03-30T17:50:29.162Z,FULLY_SHARED_UNIT_1-1-1-8,2,target-1,cpu,201945
2022-03-30T17:50:39.162Z,FULLY_SHARED_UNIT_1-1-1-8,2,target-1,cpu,201945
2022-03-30T17:50:49.162Z,FULLY_SHARED_UNIT_1-1-1-8,2,target-1,cpu,177174
2022-03-30T17:50:59.161Z,FULLY_SHARED_UNIT_1-1-1-8,2,target-1,cpu,177174
2022-03-30T17:51:09.161Z,FULLY_SHARED_UNIT_1-1-1-8,2,target-1,cpu,174687
2022-03-30T17:51:19.161Z,FULLY_SHARED_UNIT_1-1-1-8,2,target-1,cpu,228925
2022-03-30T17:51:29.161Z,FULLY_SHARED_UNIT_1-1-1-8,2,target-1,cpu,228925
2022-03-30T17:51:39.161Z,FULLY_SHARED_UNIT_1-1-1-8,2,target-1,cpu,178882
2022-03-30T17:51:49.163Z,FULLY_SHARED_UNIT_1-1-1-8,2,target-1,cpu,184859
2022-03-30T17:51:59.162Z,FULLY_SHARED_UNIT_1-1-1-8,2,target-1,cpu,184859
2022-03-30T17:52:09.162Z,FULLY_SHARED_UNIT_1-1-1-8,2,target-1,cpu,182785
2022-03-30T17:52:19.161Z,FULLY_SHARED_UNIT_1-1-1-8,2,target-1,cpu,182785
2022-03-30T17:52:29.161Z,FULLY_SHARED_UNIT_1-1-1-8,2,target-1,cpu,179282
2022-03-30T17:52:39.161Z,FULLY_SHARED_UNIT_1-1-1-8,2,target-1,cpu,179282
2022-03-30T17:52:49.161Z,FULLY_SHARED_UNIT_1-1-1-8,2,target-1,cpu,166745
2022-03-30T17:52:59.161Z,FULLY_SHARED_UNIT_1-1-1-8,2,target-1,cpu,203927
2022-03-30T17:53:09.162Z,FULLY_SHARED_UNIT_1-1-1-8,2,target-1,cpu,174389
2022-03-30T17:53:19.161Z,FULLY_SHARED_UNIT_1-1-1-8,2,target-1,cpu,174389
2022-03-30T17:53:29.161Z,FULLY_SHARED_UNIT_1-1-1-8,2,target-1,cpu,162980
2022-03-30T17:53:39.162Z,FULLY_SHARED_UNIT_1-1-1-8,2,target-1,cpu,159724
2022-03-30T17:53:49.161Z,FULLY_SHARED_UNIT_1-1-1-8,2,target-1,cpu,159724
2022-03-30T17:53:59.162Z,FULLY_SHARED_UNIT_1-1-1-8,2,target-1,cpu,183382
2022-03-30T17:54:09.162Z,FULLY_SHARED_UNIT_1-1-1-8,2,target-1,cpu,208129
2022-03-30T17:54:19.161Z,FULLY_SHARED_UNIT_1-1-1-8,2,target-1,cpu,208129
2022-03-30T17:54:29.162Z,FULLY_SHARED_UNIT_1-1-1-8,2,target-1,cpu,171642
2022-03-30T17:54:39.162Z,FULLY_SHARED_UNIT_1-1-1-8,2,target-1,cpu,171642
2022-03-30T17:54:49.161Z,FULLY_SHARED_UNIT_1-1-1-8,2,target-1,cpu,201800
2022-03-30T17:54:59.162Z,FULLY_SHARED_UNIT_1-1-1-8,2,target-1,cpu,163562
2022-03-30T17:55:09.162Z,FULLY_SHARED_UNIT_1-1-1-8,2,target-1,cpu,185430
2022-03-30T17:55:19.161Z,FULLY_SHARED_UNIT_1-1-1-8,2,target-1,cpu,185430
2022-03-30T17:55:29.162Z,FULLY_SHARED_UNIT_1-1-1-8,2,target-1,cpu,164010
2022-03-30T17:55:39.161Z,FULLY_SHARED_UNIT_1-1-1-8,2,target-1,cpu,164010
2022-03-30T17:55:49.162Z,FULLY_SHARED_UNIT_1-1-1-8,2,target-1,cpu,185509
2022-03-30T17:55:59.161Z,FULLY_SHARED_UNIT_1-1-1-8,2,target-1,cpu,185509
2022-03-30T17:56:09.161Z,FULLY_SHARED_UNIT_1-1-1-8,2,target-1,cpu,183272
2022-03-30T17:56:19.162Z,FULLY_SHARED_UNIT_1-1-1-8,2,target-1,cpu,166496
2022-03-30T17:56:29.161Z,FULLY_SHARED_UNIT_1-1-1-8,2,target-1,cpu,166496
2022-03-30T17:56:39.161Z,FULLY_SHARED_UNIT_1-1-1-8,2,target-1,cpu,186787
2022-03-30T17:56:49.161Z,FULLY_SHARED_UNIT_1-1-1-8,2,target-1,cpu,186787
2022-03-30T17:56:59.162Z,FULLY_SHARED_UNIT_1-1-1-8,2,target-1,cpu,167752
2022-03-30T17:57:09.162Z,FULLY_SHARED_UNIT_1-1-1-8,2,target-1,cpu,167752
2022-03-30T17:57:19.162Z,FULLY_SHARED_UNIT_1-1-1-8,2,target-1,cpu,194131
2022-03-30T17:57:29.161Z,FULLY_SHARED_UNIT_1-1-1-8,2,target-1,cpu,194131
2022-03-30T17:58:01.503Z,FULLY_SHARED_UNIT_1-1-1-8,3,target-1,cpu,137383
2022-03-30T17:58:11.503Z,FULLY_SHARED_UNIT_1-1-1-8,3,target-1,cpu,133626
2022-03-30T17:58:21.502Z,FULLY_SHARED_UNIT_1-1-1-8,3,target-1,cpu,133626
2022-03-30T17:58:31.502Z,FULLY_SHARED_UNIT_1-1-1-8,3,target-1,cpu,164622
2022-03-30T17:58:41.503Z,FULLY_SHARED_UNIT_1-1-1-8,3,target-1,cpu,182996
2022-03-30T17:58:51.503Z,FULLY_SHARED_UNIT_1-1-1-8,3,target-1,cpu,182996
2022-03-30T17:59:01.502Z,FULLY_SHARED_UNIT_1-1-1-8,3,target-1,cpu,183108
2022-03-30T17:59:11.503Z,FULLY_SHARED_UNIT_1-1-1-8,3,target-1,cpu,179101
2022-03-30T17:59:21.502Z,FULLY_SHARED_UNIT_1-1-1-8,3,target-1,cpu,179101
2022-03-30T17:59:31.503Z,FULLY_SHARED_UNIT_1-1-1-8,3,target-1,cpu,174171
2022-03-30T17:59:41.503Z,FULLY_SHARED_UNIT_1-1-1-8,3,target-1,cpu,174171
2022-03-30T17:59:51.502Z,FULLY_SHARED_UNIT_1-1-1-8,3,target-1,cpu,235650
2022-03-30T18:00:01.503Z,FULLY_SHARED_UNIT_1-1-1-8,3,target-1,cpu,235650
2022-03-30T18:00:11.503Z,FULLY_SHARED_UNIT_1-1-1-8,3,target-1,cpu,235650
2022-03-30T18:00:21.502Z,FULLY_SHARED_UNIT_1-1-1-8,3,target-1,cpu,167267
2022-03-30T18:00:31.502Z,FULLY_SHARED_UNIT_1-1-1-8,3,target-1,cpu,177384
2022-03-30T18:00:41.502Z,FULLY_SHARED_UNIT_1-1-1-8,3,target-1,cpu,152966
2022-03-30T18:00:51.502Z,FULLY_SHARED_UNIT_1-1-1-8,3,target-1,cpu,152966
2022-03-30T18:01:01.502Z,FULLY_SHARED_UNIT_1-1-1-8,3,target-1,cpu,193095
2022-03-30T18:01:11.502Z,FULLY_SHARED_UNIT_1-1-1-8,3,target-1,cpu,193095
2022-03-30T18:01:21.503Z,FULLY_SHARED_UNIT_1-1-1-8,3,target-1,cpu,177902
2022-03-30T18:01:31.502Z,FULLY_SHARED_UNIT_1-1-1-8,3,target-1,cpu,177902
2022-03-30T18:01:41.503Z,FULLY_SHARED_UNIT_1-1-1-8,3,target-1,cpu,158351
2022-03-30T18:01:51.502Z,FULLY_SHARED_UNIT_1-1-1-8,3,target-1,cpu,158351
2022-03-30T18:02:01.503Z,FULLY_SHARED_UNIT_1-1-1-8,3,target-1,cpu,144467
2022-03-30T18:02:11.502Z,FULLY_SHARED_UNIT_1-1-1-8,3,target-1,cpu,144467
2022-03-30T18:02:21.503Z,FULLY_SHARED_UNIT_1-1-1-8,3,target-1,cpu,160577
2022-03-30T18:02:31.502Z,FULLY_SHARED_UNIT_1-1-1-8,3,target-1,cpu,160577
2022-03-30T18:02:41.502Z,FULLY_SHARED_UNIT_1-1-1-8,3,target-1,cpu,185353
2022-03-30T18:02:51.502Z,FULLY_SHARED_UNIT_1-1-1-8,3,target-1,cpu,174049
2022-03-30T18:03:01.502Z,FULLY_SHARED_UNIT_1-1-1-8,3,target-1,cpu,174049
2022-03-30T18:03:11.503Z,FULLY_SHARED_UNIT_1-1-1-8,3,target-1,cpu,131055
2022-03-30T18:03:21.502Z,FULLY_SHARED_UNIT_1-1-1-8,3,target-1,cpu,131055
2022-03-30T18:03:31.502Z,FULLY_SHARED_UNIT_1-1-1-8,3,target-1,cpu,198995
2022-03-30T18:03:41.502Z,FULLY_SHARED_UNIT_1-1-1-8,3,target-1,cpu,152177
2022-03-30T18:03:51.502Z,FULLY_SHARED_UNIT_1-1-1-8,3,target-1,cpu,152177
2022-03-30T18:04:01.502Z,FULLY_SHARED_UNIT_1-1-1-8,3,target-1,cpu,152177
2022-03-30T18:04:11.502Z,FULLY_SHARED_UNIT_1-1-1-8,3,target-1,cpu,164097
2022-03-30T18:04:21.503Z,FULLY_SHARED_UNIT_1-1-1-8,3,target-1,cpu,164097
2022-03-30T18:04:31.503Z,FULLY_SHARED_UNIT_1-1-1-8,3,target-1,cpu,157458
2022-03-30T18:04:41.502Z,FULLY_SHARED_UNIT_1-1-1-8,3,target-1,cpu,157458
2022-03-30T18:04:51.502Z,FULLY_SHARED_UNIT_1-1-1-8,3,target-1,cpu,160651
2022-03-30T18:05:01.502Z,FULLY_SHARED_UNIT_1-1-1-8,3,target-1,cpu,147479
2022-03-30T18:05:11.502Z,FULLY_SHARED_UNIT_1-1-1-8,3,target-1,cpu,146253
2022-03-30T18:05:21.503Z,FULLY_SHARED_UNIT_1-1-1-8,3,target-1,cpu,194027
2022-03-30T18:05:31.503Z,FULLY_SHARED_UNIT_1-1-1-8,3,target-1,cpu,194027
2022-03-30T18:05:41.503Z,FULLY_SHARED_UNIT_1-1-1-8,3,target-1,cpu,194027
2022-03-30T18:05:51.503Z,FULLY_SHARED_UNIT_1-1-1-8,3,target-1,cpu,203316
2022-03-30T18:06:01.503Z,FULLY_SHARED_UNIT_1-1-1-8,3,target-1,cpu,203316
2022-03-30T18:06:11.503Z,FULLY_SHARED_UNIT_1-1-1-8,3,target-1,cpu,160940
2022-03-30T18:06:21.503Z,FULLY_SHARED_UNIT_1-1-1-8,3,target-1,cpu,160940
2022-03-30T18:06:31.502Z,FULLY_SHARED_UNIT_1-1-1-8,3,target-1,cpu,164962
2022-03-30T18:06:41.502Z,FULLY_SHARED_UNIT_1-1-1-8,3,target-1,cpu,162870
2022-03-30T18:06:51.502Z,FULLY_SHARED_UNIT_1-1-1-8,3,target-1,cpu,162870
2022-03-30T18:07:01.502Z,FULLY_SHARED_UNIT_1-1-1-8,3,target-1,cpu,163786
2022-03-30T18:07:11.502Z,FULLY_SHARED_UNIT_1-1-1-8,3,target-1,cpu,163786
2022-03-30T18:07:21.503Z,FULLY_SHARED_UNIT_1-1-1-8,3,target-1,cpu,147847
2022-03-30T18:07:31.502Z,FULLY_SHARED_UNIT_1-1-1-8,3,target-1,cpu,147847
2022-03-30T18:07:41.502Z,FULLY_SHARED_UNIT_1-1-1-8,3,target-1,cpu,185103
2022-03-30T18:07:51.503Z,FULLY_SHARED_UNIT_1-1-1-8,3,target-1,cpu,172959
2022-03-30T18:08:33.848Z,FULLY_SHARED_UNIT_1-1-1-16,1,target-1,cpu,170180
2022-03-30T18:08:43.847Z,FULLY_SHARED_UNIT_1-1-1-16,1,target-1,cpu,170180
2022-03-30T18:08:53.847Z,FULLY_SHARED_UNIT_1-1-1-16,1,target-1,cpu,319494
2022-03-30T18:09:03.847Z,FULLY_SHARED_UNIT_1-1-1-16,1,target-1,cpu,319494
2022-03-30T18:09:13.848Z,FULLY_SHARED_UNIT_1-1-1-16,1,target-1,cpu,311302
2022-03-30T18:09:23.848Z,FULLY_SHARED_UNIT_1-1-1-16,1,target-1,cpu,311302
2022-03-30T18:09:33.847Z,FULLY_SHARED_UNIT_1-1-1-16,1,target-1,cpu,386630
2022-03-30T18:09:43.848Z,FULLY_SHARED_UNIT_1-1-1-16,1,target-1,cpu,386630
2022-03-30T18:09:53.848Z,FULLY_SHARED_UNIT_1-1-1-16,1,target-1,cpu,386630
2022-03-30T18:10:03.847Z,FULLY_SHARED_UNIT_1-1-1-16,1,target-1,cpu,285628
2022-03-30T18:10:13.847Z,FULLY_SHARED_UNIT_1-1-1-16,1,target-1,cpu,305921
2022-03-30T18:10:23.847Z,FULLY_SHARED_UNIT_1-1-1-16,1,target-1,cpu,305921
2022-03-30T18:10:33.847Z,FULLY_SHARED_UNIT_1-1-1-16,1,target-1,cpu,387962
2022-03-30T18:10:43.847Z,FULLY_SHARED_UNIT_1-1-1-16,1,target-1,cpu,387962
2022-03-30T18:10:53.848Z,FULLY_SHARED_UNIT_1-1-1-16,1,target-1,cpu,304819
2022-03-30T18:11:03.848Z,FULLY_SHARED_UNIT_1-1-1-16,1,target-1,cpu,320797
2022-03-30T18:11:13.847Z,FULLY_SHARED_UNIT_1-1-1-16,1,target-1,cpu,320797
2022-03-30T18:11:23.848Z,FULLY_SHARED_UNIT_1-1-1-16,1,target-1,cpu,340093
2022-03-30T18:11:33.848Z,FULLY_SHARED_UNIT_1-1-1-16,1,target-1,cpu,340093
2022-03-30T18:11:43.848Z,FULLY_SHARED_UNIT_1-1-1-16,1,target-1,cpu,305526
2022-03-30T18:11:53.848Z,FULLY_SHARED_UNIT_1-1-1-16,1,target-1,cpu,305526
2022-03-30T18:12:03.847Z,FULLY_SHARED_UNIT_1-1-1-16,1,target-1,cpu,312804
2022-03-30T18:12:13.847Z,FULLY_SHARED_UNIT_1-1-1-16,1,target-1,cpu,312804
2022-03-30T18:12:23.847Z,FULLY_SHARED_UNIT_1-1-1-16,1,target-1,cpu,336150
2022-03-30T18:12:33.847Z,FULLY_SHARED_UNIT_1-1-1-16,1,target-1,cpu,336150
2022-03-30T18:12:43.847Z,FULLY_SHARED_UNIT_1-1-1-16,1,target-1,cpu,317629
2022-03-30T18:12:53.848Z,FULLY_SHARED_UNIT_1-1-1-16,1,target-1,cpu,296440
2022-03-30T18:13:03.848Z,FULLY_SHARED_UNIT_1-1-1-16,1,target-1,cpu,302603
2022-03-30T18:13:13.847Z,FULLY_SHARED_UNIT_1-1-1-16,1,target-1,cpu,302603
2022-03-30T18:13:23.847Z,FULLY_SHARED_UNIT_1-1-1-16,1,target-1,cpu,319679
2022-03-30T18:13:33.848Z,FULLY_SHARED_UNIT_1-1-1-16,1,target-1,cpu,267321
2022-03-30T18:13:43.848Z,FULLY_SHARED_UNIT_1-1-1-16,1,target-1,cpu,281608
2022-03-30T18:13:53.847Z,FULLY_SHARED_UNIT_1-1-1-16,1,target-1,cpu,281608
2022-03-30T18:14:03.848Z,FULLY_SHARED_UNIT_1-1-1-16,1,target-1,cpu,302313
2022-03-30T18:14:13.847Z,FULLY_SHARED_UNIT_1-1-1-16,1,target-1,cpu,302313
2022-03-30T18:14:23.848Z,FULLY_SHARED_UNIT_1-1-1-16,1,target-1,cpu,366317
2022-03-30T18:14:33.847Z,FULLY_SHARED_UNIT_1-1-1-16,1,target-1,cpu,366317
2022-03-30T18:14:43.847Z,FULLY_SHARED_UNIT_1-1-1-16,1,target-1,cpu,661828
2022-03-30T18:14:53.848Z,FULLY_SHARED_UNIT_1-1-1-16,1,target-1,cpu,280602
2022-03-30T18:15:03.847Z,FULLY_SHARED_UNIT_1-1-1-16,1,target-1,cpu,280602
2022-03-30T18:15:13.847Z,FULLY_SHARED_UNIT_1-1-1-16,1,target-1,cpu,322435
2022-03-30T18:15:23.848Z,FULLY_SHARED_UNIT_1-1-1-16,1,target-1,cpu,295366
2022-03-30T18:15:33.848Z,FULLY_SHARED_UNIT_1-1-1-16,1,target-1,cpu,295366
2022-03-30T18:15:43.848Z,FULLY_SHARED_UNIT_1-1-1-16,1,target-1,cpu,327756
2022-03-30T18:15:53.847Z,FULLY_SHARED_UNIT_1-1-1-16,1,target-1,cpu,327756
2022-03-30T18:16:03.847Z,FULLY_SHARED_UNIT_1-1-1-16,1,target-1,cpu,317749
2022-03-30T18:16:13.848Z,FULLY_SHARED_UNIT_1-1-1-16,1,target-1,cpu,317749
2022-03-30T18:16:23.847Z,FULLY_SHARED_UNIT_1-1-1-16,1,target-1,cpu,317749
2022-03-30T18:16:33.847Z,FULLY_SHARED_UNIT_1-1-1-16,1,target-1,cpu,334977
2022-03-30T18:16:43.848Z,FULLY_SHARED_UNIT_1-1-1-16,1,target-1,cpu,334977
2022-03-30T18:16:53.848Z,FULLY_SHARED_UNIT_1-1-1-16,1,target-1,cpu,334977
2022-03-30T18:17:03.848Z,FULLY_SHARED_UNIT_1-1-1-16,1,target-1,cpu,308251
2022-03-30T18:17:13.848Z,FULLY_SHARED_UNIT_1-1-1-16,1,target-1,cpu,338709
2022-03-30T18:17:23.848Z,FULLY_SHARED_UNIT_1-1-1-16,1,target-1,cpu,338709
2022-03-30T18:17:33.848Z,FULLY_SHARED_UNIT_1-1-1-16,1,target-1,cpu,341057
2022-03-30T18:17:43.847Z,FULLY_SHARED_UNIT_1-1-1-16,1,target-1,cpu,341057
2022-03-30T18:17:53.847Z,FULLY_SHARED_UNIT_1-1-1-16,1,target-1,cpu,314438
2022-03-30T18:18:03.848Z,FULLY_SHARED_UNIT_1-1-1-16,1,target-1,cpu,348651
2022-03-30T18:18:13.847Z,FULLY_SHARED_UNIT_1-1-1-16,1,target-1,cpu,348651
2022-03-30T18:18:23.847Z,FULLY_SHARED_UNIT_1-1-1-16,1,target-1,cpu,294794
2022-03-30T18:19:11.335Z,FULLY_SHARED_UNIT_1-1-1-16,2,target-1,cpu,113260
2022-03-30T18:19:21.336Z,FULLY_SHARED_UNIT_1-1-1-16,2,target-1,cpu,261331
2022-03-30T18:19:31.336Z,FULLY_SHARED_UNIT_1-1-1-16,2,target-1,cpu,341511
2022-03-30T18:19:41.335Z,FULLY_SHARED_UNIT_1-1-1-16,2,target-1,cpu,341511
2022-03-30T18:19:51.335Z,FULLY_SHARED_UNIT_1-1-1-16,2,target-1,cpu,289035
2022-03-30T18:20:01.335Z,FULLY_SHARED_UNIT_1-1-1-16,2,target-1,cpu,269061
2022-03-30T18:20:11.336Z,FULLY_SHARED_UNIT_1-1-1-16,2,target-1,cpu,337694
2022-03-30T18:20:21.335Z,FULLY_SHARED_UNIT_1-1-1-16,2,target-1,cpu,337694
2022-03-30T18:20:31.335Z,FULLY_SHARED_UNIT_1-1-1-16,2,target-1,cpu,344830
2022-03-30T18:20:41.335Z,FULLY_SHARED_UNIT_1-1-1-16,2,target-1,cpu,344830
2022-03-30T18:20:51.335Z,FULLY_SHARED_UNIT_1-1-1-16,2,target-1,cpu,300002
2022-03-30T18:21:01.335Z,FULLY_SHARED_UNIT_1-1-1-16,2,target-1,cpu,300002
2022-03-30T18:21:11.336Z,FULLY_SHARED_UNIT_1-1-1-16,2,target-1,cpu,317318
2022-03-30T18:21:21.335Z,FULLY_SHARED_UNIT_1-1-1-16,2,target-1,cpu,317318
2022-03-30T18:21:31.335Z,FULLY_SHARED_UNIT_1-1-1-16,2,target-1,cpu,308083
2022-03-30T18:21:41.335Z,FULLY_SHARED_UNIT_1-1-1-16,2,target-1,cpu,273632
2022-03-30T18:21:51.335Z,FULLY_SHARED_UNIT_1-1-1-16,2,target-1,cpu,337233
2022-03-30T18:22:01.336Z,FULLY_SHARED_UNIT_1-1-1-16,2,target-1,cpu,337233
2022-03-30T18:22:11.336Z,FULLY_SHARED_UNIT_1-1-1-16,2,target-1,cpu,337233
2022-03-30T18:22:21.336Z,FULLY_SHARED_UNIT_1-1-1-16,2,target-1,cpu,286814
2022-03-30T18:22:31.335Z,FULLY_SHARED_UNIT_1-1-1-16,2,target-1,cpu,286814
2022-03-30T18:22:41.336Z,FULLY_SHARED_UNIT_1-1-1-16,2,target-1,cpu,334892
2022-03-30T18:22:51.335Z,FULLY_SHARED_UNIT_1-1-1-16,2,target-1,cpu,334892
2022-03-30T18:23:01.335Z,FULLY_SHARED_UNIT_1-1-1-16,2,target-1,cpu,311796
2022-03-30T18:23:11.336Z,FULLY_SHARED_UNIT_1-1-1-16,2,target-1,cpu,311796
2022-03-30T18:23:21.335Z,FULLY_SHARED_UNIT_1-1-1-16,2,target-1,cpu,311796
2022-03-30T18:23:31.336Z,FULLY_SHARED_UNIT_1-1-1-16,2,target-1,cpu,372349
2022-03-30T18:23:41.336Z,FULLY_SHARED_UNIT_1-1-1-16,2,target-1,cpu,372349
2022-03-30T18:23:51.336Z,FULLY_SHARED_UNIT_1-1-1-16,2,target-1,cpu,298961
2022-03-30T18:24:01.336Z,FULLY_SHARED_UNIT_1-1-1-16,2,target-1,cpu,298961
2022-03-30T18:24:11.336Z,FULLY_SHARED_UNIT_1-1-1-16,2,target-1,cpu,332676
2022-03-30T18:24:21.335Z,FULLY_SHARED_UNIT_1-1-1-16,2,target-1,cpu,332676
2022-03-30T18:24:31.335Z,FULLY_SHARED_UNIT_1-1-1-16,2,target-1,cpu,353081
2022-03-30T18:24:41.336Z,FULLY_SHARED_UNIT_1-1-1-16,2,target-1,cpu,295395
2022-03-30T18:24:51.336Z,FULLY_SHARED_UNIT_1-1-1-16,2,target-1,cpu,295395
2022-03-30T18:25:01.336Z,FULLY_SHARED_UNIT_1-1-1-16,2,target-1,cpu,358991
2022-03-30T18:25:11.336Z,FULLY_SHARED_UNIT_1-1-1-16,2,target-1,cpu,358991
2022-03-30T18:25:21.335Z,FULLY_SHARED_UNIT_1-1-1-16,2,target-1,cpu,324444
2022-03-30T18:25:31.335Z,FULLY_SHARED_UNIT_1-1-1-16,2,target-1,cpu,322645
2022-03-30T18:25:41.335Z,FULLY_SHARED_UNIT_1-1-1-16,2,target-1,cpu,322645
2022-03-30T18:25:51.336Z,FULLY_SHARED_UNIT_1-1-1-16,2,target-1,cpu,296915
2022-03-30T18:26:01.336Z,FULLY_SHARED_UNIT_1-1-1-16,2,target-1,cpu,406493
2022-03-30T18:26:11.336Z,FULLY_SHARED_UNIT_1-1-1-16,2,target-1,cpu,406493
2022-03-30T18:26:21.335Z,FULLY_SHARED_UNIT_1-1-1-16,2,target-1,cpu,264471
2022-03-30T18:26:31.336Z,FULLY_SHARED_UNIT_1-1-1-16,2,target-1,cpu,310205
2022-03-30T18:26:41.335Z,FULLY_SHARED_UNIT_1-1-1-16,2,target-1,cpu,310205
2022-03-30T18:26:51.336Z,FULLY_SHARED_UNIT_1-1-1-16,2,target-1,cpu,323192
2022-03-30T18:27:01.336Z,FULLY_SHARED_UNIT_1-1-1-16,2,target-1,cpu,341489
2022-03-30T18:27:11.336Z,FULLY_SHARED_UNIT_1-1-1-16,2,target-1,cpu,341489
2022-03-30T18:27:21.336Z,FULLY_SHARED_UNIT_1-1-1-16,2,target-1,cpu,316036
2022-03-30T18:27:31.336Z,FULLY_SHARED_UNIT_1-1-1-16,2,target-1,cpu,320285
2022-03-30T18:27:41.335Z,FULLY_SHARED_UNIT_1-1-1-16,2,target-1,cpu,320285
2022-03-30T18:27:51.336Z,FULLY_SHARED_UNIT_1-1-1-16,2,target-1,cpu,344301
2022-03-30T18:28:01.335Z,FULLY_SHARED_UNIT_1-1-1-16,2,target-1,cpu,344301
2022-03-30T18:28:11.335Z,FULLY_SHARED_UNIT_1-1-1-16,2,target-1,cpu,306877
2022-03-30T18:28:21.335Z,FULLY_SHARED_UNIT_1-1-1-16,2,target-1,cpu,306877
2022-03-30T18:28:31.335Z,FULLY_SHARED_UNIT_1-1-1-16,2,target-1,cpu,317617
2022-03-30T18:28:41.335Z,FULLY_SHARED_UNIT_1-1-1-16,2,target-1,cpu,317617
2022-03-30T18:28:51.335Z,FULLY_SHARED_UNIT_1-1-1-16,2,target-1,cpu,315686
2022-03-30T18:29:01.335Z,FULLY_SHARED_UNIT_1-1-1-16,2,target-1,cpu,315686
2022-03-30T18:29:50.221Z,FULLY_SHARED_UNIT_1-1-1-16,3,target-1,cpu,148481
2022-03-30T18:30:00.221Z,FULLY_SHARED_UNIT_1-1-1-16,3,target-1,cpu,148481
2022-03-30T18:30:10.221Z,FULLY_SHARED_UNIT_1-1-1-16,3,target-1,cpu,302781
2022-03-30T18:30:20.221Z,FULLY_SHARED_UNIT_1-1-1-16,3,target-1,cpu,302781
2022-03-30T18:30:30.221Z,FULLY_SHARED_UNIT_1-1-1-16,3,target-1,cpu,277397
2022-03-30T18:30:40.221Z,FULLY_SHARED_UNIT_1-1-1-16,3,target-1,cpu,300893
2022-03-30T18:30:50.221Z,FULLY_SHARED_UNIT_1-1-1-16,3,target-1,cpu,336417
2022-03-30T18:31:00.221Z,FULLY_SHARED_UNIT_1-1-1-16,3,target-1,cpu,336417
2022-03-30T18:31:10.222Z,FULLY_SHARED_UNIT_1-1-1-16,3,target-1,cpu,335838
2022-03-30T18:31:20.221Z,FULLY_SHARED_UNIT_1-1-1-16,3,target-1,cpu,335838
2022-03-30T18:31:30.222Z,FULLY_SHARED_UNIT_1-1-1-16,3,target-1,cpu,332531
2022-03-30T18:31:40.220Z,FULLY_SHARED_UNIT_1-1-1-16,3,target-1,cpu,332531
2022-03-30T18:31:50.221Z,FULLY_SHARED_UNIT_1-1-1-16,3,target-1,cpu,330796
2022-03-30T18:32:00.221Z,FULLY_SHARED_UNIT_1-1-1-16,3,target-1,cpu,336800
2022-03-30T18:32:10.221Z,FULLY_SHARED_UNIT_1-1-1-16,3,target-1,cpu,336800
2022-03-30T18:32:20.221Z,FULLY_SHARED_UNIT_1-1-1-16,3,target-1,cpu,303374
2022-03-30T18:32:30.221Z,FULLY_SHARED_UNIT_1-1-1-16,3,target-1,cpu,303374
2022-03-30T18:32:40.221Z,FULLY_SHARED_UNIT_1-1-1-16,3,target-1,cpu,311176
2022-03-30T18:32:50.222Z,FULLY_SHARED_UNIT_1-1-1-16,3,target-1,cpu,275779
2022-03-30T18:33:00.221Z,FULLY_SHARED_UNIT_1-1-1-16,3,target-1,cpu,275779
2022-03-30T18:33:10.221Z,FULLY_SHARED_UNIT_1-1-1-16,3,target-1,cpu,360949
2022-03-30T18:33:20.220Z,FULLY_SHARED_UNIT_1-1-1-16,3,target-1,cpu,360949
2022-03-30T18:33:30.221Z,FULLY_SHARED_UNIT_1-1-1-16,3,target-1,cpu,349211
2022-03-30T18:33:40.221Z,FULLY_SHARED_UNIT_1-1-1-16,3,target-1,cpu,334960
2022-03-30T18:33:50.221Z,FULLY_SHARED_UNIT_1-1-1-16,3,target-1,cpu,318130
2022-03-30T18:34:00.221Z,FULLY_SHARED_UNIT_1-1-1-16,3,target-1,cpu,706614
2022-03-30T18:34:10.222Z,FULLY_SHARED_UNIT_1-1-1-16,3,target-1,cpu,706614
2022-03-30T18:34:20.221Z,FULLY_SHARED_UNIT_1-1-1-16,3,target-1,cpu,706614
2022-03-30T18:34:30.221Z,FULLY_SHARED_UNIT_1-1-1-16,3,target-1,cpu,305408
2022-03-30T18:34:40.221Z,FULLY_SHARED_UNIT_1-1-1-16,3,target-1,cpu,305408
2022-03-30T18:34:50.220Z,FULLY_SHARED_UNIT_1-1-1-16,3,target-1,cpu,320011
2022-03-30T18:35:00.221Z,FULLY_SHARED_UNIT_1-1-1-16,3,target-1,cpu,320011
2022-03-30T18:35:10.221Z,FULLY_SHARED_UNIT_1-1-1-16,3,target-1,cpu,320011
2022-03-30T18:35:20.221Z,FULLY_SHARED_UNIT_1-1-1-16,3,target-1,cpu,299733
2022-03-30T18:35:30.221Z,FULLY_SHARED_UNIT_1-1-1-16,3,target-1,cpu,299733
2022-03-30T18:35:40.221Z,FULLY_SHARED_UNIT_1-1-1-16,3,target-1,cpu,347967
2022-03-30T18:35:50.221Z,FULLY_SHARED_UNIT_1-1-1-16,3,target-1,cpu,347967
2022-03-30T18:36:00.221Z,FULLY_SHARED_UNIT_1-1-1-16,3,target-1,cpu,309623
2022-03-30T18:36:10.221Z,FULLY_SHARED_UNIT_1-1-1-16,3,target-1,cpu,386005
2022-03-30T18:36:20.221Z,FULLY_SHARED_UNIT_1-1-1-16,3,target-1,cpu,386005
2022-03-30T18:36:30.221Z,FULLY_SHARED_UNIT_1-1-1-16,3,target-1,cpu,335509
2022-03-30T18:36:40.221Z,FULLY_SHARED_UNIT_1-1-1-16,3,target-1,cpu,341540
2022-03-30T18:36:50.221Z,FULLY_SHARED_UNIT_1-1-1-16,3,target-1,cpu,341540
2022-03-30T18:37:00.221Z,FULLY_SHARED_UNIT_1-1-1-16,3,target-1,cpu,341911
2022-03-30T18:37:10.221Z,FULLY_SHARED_UNIT_1-1-1-16,3,target-1,cpu,341911
2022-03-30T18:37:20.222Z,FULLY_SHARED_UNIT_1-1-1-16,3,target-1,cpu,374099
2022-03-30T18:37:30.221Z,FULLY_SHARED_UNIT_1-1-1-16,3,target-1,cpu,374099
2022-03-30T18:37:40.221Z,FULLY_SHARED_UNIT_1-1-1-16,3,target-1,cpu,303264
2022-03-30T18:37:50.221Z,FULLY_SHARED_UNIT_1-1-1-16,3,target-1,cpu,305384
2022-03-30T18:38:00.221Z,FULLY_SHARED_UNIT_1-1-1-16,3,target-1,cpu,305384
2022-03-30T18:38:10.221Z,FULLY_SHARED_UNIT_1-1-1-16,3,target-1,cpu,306885
2022-03-30T18:38:20.221Z,FULLY_SHARED_UNIT_1-1-1-16,3,target-1,cpu,339784
2022-03-30T18:38:30.221Z,FULLY_SHARED_UNIT_1-1-1-16,3,target-1,cpu,339784
2022-03-30T18:38:40.220Z,FULLY_SHARED_UNIT_1-1-1-16,3,target-1,cpu,356499
2022-03-30T18:38:50.221Z,FULLY_SHARED_UNIT_1-1-1-16,3,target-1,cpu,327255
2022-03-30T18:39:00.220Z,FULLY_SHARED_UNIT_1-1-1-16,3,target-1,cpu,327255
2022-03-30T18:39:10.221Z,FULLY_SHARED_UNIT_1-1-1-16,3,target-1,cpu,320253
2022-03-30T18:39:20.221Z,FULLY_SHARED_UNIT_1-1-1-16,3,target-1,cpu,302115
2022-03-30T18:39:30.221Z,FULLY_SHARED_UNIT_1-1-1-16,3,target-1,cpu,345258
2022-03-30T18:39:40.221Z,FULLY_SHARED_UNIT_1-1-1-16,3,target-1,cpu,345258
