2023-07-04T20:38:11.291Z,blackbox-exporter,cpu,3807855
2023-07-04T20:38:11.291Z,redis-exporter-dev-team,cpu,832728
2023-07-04T20:38:21.660Z,blackbox-exporter,cpu,2877926
2023-07-04T20:38:21.660Z,redis-exporter-dev-team,cpu,832728
2023-07-04T20:38:21.708Z,redis-exporter-dbops-team,cpu,580581
2023-07-04T20:38:31.659Z,redis-exporter-dev-team,cpu,5194
2023-07-04T20:38:31.707Z,redis-exporter-dbops-team,cpu,580581
2023-07-04T20:38:31.659Z,blackbox-exporter,cpu,4258399
2023-07-04T20:38:41.659Z,redis-exporter-dev-team,cpu,958917
2023-07-04T20:38:41.707Z,redis-exporter-dbops-team,cpu,580581
2023-07-04T20:38:41.659Z,blackbox-exporter,cpu,2954926
2023-07-04T20:38:51.707Z,redis-exporter-dbops-team,cpu,781901
2023-07-04T20:38:51.659Z,blackbox-exporter,cpu,2954926
2023-07-04T20:38:51.659Z,redis-exporter-dev-team,cpu,958917
2023-07-04T20:39:01.660Z,blackbox-exporter,cpu,3406148
2023-07-04T20:39:01.660Z,redis-exporter-dev-team,cpu,0
2023-07-04T20:39:01.707Z,redis-exporter-dbops-team,cpu,781901
2023-07-04T20:39:11.707Z,redis-exporter-dbops-team,cpu,1373
2023-07-04T20:39:11.659Z,redis-exporter-dev-team,cpu,0
2023-07-04T20:39:11.659Z,blackbox-exporter,cpu,3271603
2023-07-04T20:39:21.659Z,redis-exporter-dev-team,cpu,0
2023-07-04T20:39:21.659Z,blackbox-exporter,cpu,3271603
2023-07-04T20:39:21.707Z,redis-exporter-dbops-team,cpu,1373
2023-07-04T20:39:31.659Z,redis-exporter-dev-team,cpu,701204
2023-07-04T20:39:31.708Z,redis-exporter-dbops-team,cpu,587872
2023-07-04T20:39:31.659Z,blackbox-exporter,cpu,4094923
2023-07-04T20:39:41.659Z,blackbox-exporter,cpu,3067763
2023-07-04T20:39:41.659Z,redis-exporter-dev-team,cpu,511795
2023-07-04T20:39:41.707Z,redis-exporter-dbops-team,cpu,686928
2023-07-04T20:39:51.659Z,blackbox-exporter,cpu,3054763
2023-07-04T20:39:51.707Z,redis-exporter-dbops-team,cpu,686928
2023-07-04T20:39:51.659Z,redis-exporter-dev-team,cpu,511795
2023-07-04T20:40:01.659Z,redis-exporter-dev-team,cpu,511795
2023-07-04T20:40:01.707Z,redis-exporter-dbops-team,cpu,0
2023-07-04T20:40:01.659Z,blackbox-exporter,cpu,3054763
2023-07-04T20:40:11.707Z,redis-exporter-dbops-team,cpu,0
2023-07-04T20:40:11.660Z,redis-exporter-dev-team,cpu,1076736
2023-07-04T20:40:11.660Z,blackbox-exporter,cpu,2823117
2023-07-04T20:40:21.708Z,redis-exporter-dbops-team,cpu,492706
2023-07-04T20:40:21.659Z,blackbox-exporter,cpu,3407874
2023-07-04T20:40:21.659Z,redis-exporter-dev-team,cpu,1076736
2023-07-04T20:40:31.707Z,redis-exporter-dbops-team,cpu,1803
2023-07-04T20:40:31.659Z,blackbox-exporter,cpu,3445776
2023-07-04T20:40:31.659Z,redis-exporter-dev-team,cpu,2401
2023-07-04T20:40:41.659Z,redis-exporter-dev-team,cpu,2401
2023-07-04T20:40:41.707Z,redis-exporter-dbops-team,cpu,1803
2023-07-04T20:40:41.659Z,blackbox-exporter,cpu,3445776
2023-07-04T20:40:51.709Z,redis-exporter-dbops-team,cpu,0
2023-07-04T20:40:51.659Z,blackbox-exporter,cpu,2862654
2023-07-04T20:40:51.659Z,redis-exporter-dev-team,cpu,573483
2023-07-04T20:41:01.660Z,redis-exporter-dev-team,cpu,4965
2023-07-04T20:41:01.707Z,redis-exporter-dbops-team,cpu,550599
2023-07-04T20:41:01.660Z,blackbox-exporter,cpu,2862654
2023-07-04T20:41:11.659Z,blackbox-exporter,cpu,3066298
2023-07-04T20:41:11.707Z,redis-exporter-dbops-team,cpu,0
2023-07-04T20:41:11.659Z,redis-exporter-dev-team,cpu,620794
2023-07-04T20:41:21.659Z,blackbox-exporter,cpu,3785706
2023-07-04T20:41:21.659Z,redis-exporter-dev-team,cpu,5033
2023-07-04T20:41:21.707Z,redis-exporter-dbops-team,cpu,0
2023-07-04T20:41:31.659Z,redis-exporter-dev-team,cpu,5033
2023-07-04T20:41:31.707Z,redis-exporter-dbops-team,cpu,412111
2023-07-04T20:41:31.659Z,blackbox-exporter,cpu,3785706
2023-07-04T20:41:41.659Z,blackbox-exporter,cpu,3785706
2023-07-04T20:41:41.659Z,redis-exporter-dev-team,cpu,5033
2023-07-04T20:41:41.707Z,redis-exporter-dbops-team,cpu,412111
2023-07-04T20:41:51.707Z,redis-exporter-dbops-team,cpu,412111
2023-07-04T20:41:51.660Z,blackbox-exporter,cpu,2716932
2023-07-04T20:41:51.660Z,redis-exporter-dev-team,cpu,563907
2023-07-04T20:42:01.659Z,redis-exporter-dev-team,cpu,24355
2023-07-04T20:42:01.707Z,redis-exporter-dbops-team,cpu,3228
2023-07-04T20:42:01.659Z,blackbox-exporter,cpu,2716932
2023-07-04T20:42:11.659Z,blackbox-exporter,cpu,2829970
2023-07-04T20:42:11.659Z,redis-exporter-dev-team,cpu,24355
2023-07-04T20:42:11.707Z,redis-exporter-dbops-team,cpu,0
2023-07-04T20:42:21.659Z,redis-exporter-dev-team,cpu,586849
2023-07-04T20:42:21.659Z,blackbox-exporter,cpu,2829970
2023-07-04T20:42:21.707Z,redis-exporter-dbops-team,cpu,0
2023-07-04T20:42:31.660Z,redis-exporter-dev-team,cpu,2942
2023-07-04T20:42:31.660Z,blackbox-exporter,cpu,3226443
2023-07-04T20:42:31.707Z,redis-exporter-dbops-team,cpu,616901
2023-07-04T20:42:41.659Z,redis-exporter-dev-team,cpu,2942
2023-07-04T20:42:41.707Z,redis-exporter-dbops-team,cpu,616901
2023-07-04T20:42:41.659Z,blackbox-exporter,cpu,3226443
2023-07-04T20:42:51.659Z,redis-exporter-dev-team,cpu,787908
2023-07-04T20:42:51.659Z,blackbox-exporter,cpu,2410266
2023-07-04T20:42:51.707Z,redis-exporter-dbops-team,cpu,2415
2023-07-04T20:43:01.659Z,blackbox-exporter,cpu,3863972
2023-07-04T20:43:01.659Z,redis-exporter-dev-team,cpu,2189
2023-07-04T20:43:01.707Z,redis-exporter-dbops-team,cpu,627281
2023-07-04T20:43:11.659Z,redis-exporter-dev-team,cpu,2189
2023-07-04T20:43:11.708Z,redis-exporter-dbops-team,cpu,626237
2023-07-04T20:43:11.659Z,blackbox-exporter,cpu,3863972
2023-07-04T20:43:21.660Z,redis-exporter-dev-team,cpu,793719
2023-07-04T20:43:21.708Z,redis-exporter-dbops-team,cpu,626237
2023-07-04T20:43:21.660Z,blackbox-exporter,cpu,2716726
2023-07-04T20:43:31.660Z,blackbox-exporter,cpu,2707795
2023-07-04T20:43:31.707Z,redis-exporter-dbops-team,cpu,626237
2023-07-04T20:43:31.660Z,redis-exporter-dev-team,cpu,10391
2023-07-04T20:43:41.659Z,blackbox-exporter,cpu,2599055
2023-07-04T20:43:41.659Z,redis-exporter-dev-team,cpu,10391
2023-07-04T20:43:41.707Z,redis-exporter-dbops-team,cpu,1433
2023-07-04T20:43:51.659Z,blackbox-exporter,cpu,2599055
2023-07-04T20:43:51.659Z,redis-exporter-dev-team,cpu,470359
2023-07-04T20:43:51.707Z,redis-exporter-dbops-team,cpu,704074
2023-07-04T20:44:01.708Z,redis-exporter-dbops-team,cpu,0
2023-07-04T20:44:01.659Z,redis-exporter-dev-team,cpu,470359
2023-07-04T20:44:01.659Z,blackbox-exporter,cpu,2599055
2023-07-04T20:44:11.659Z,redis-exporter-dev-team,cpu,2290
2023-07-04T20:44:11.659Z,blackbox-exporter,cpu,4043151
2023-07-04T20:44:11.707Z,redis-exporter-dbops-team,cpu,0
2023-07-04T20:44:21.708Z,redis-exporter-dbops-team,cpu,350225
2023-07-04T20:44:21.659Z,blackbox-exporter,cpu,3268745
2023-07-04T20:44:21.659Z,redis-exporter-dev-team,cpu,1288967
2023-07-04T20:44:31.659Z,redis-exporter-dev-team,cpu,4166
2023-07-04T20:44:31.659Z,blackbox-exporter,cpu,3268745
2023-07-04T20:44:31.707Z,redis-exporter-dbops-team,cpu,1781
2023-07-04T20:44:41.659Z,redis-exporter-dev-team,cpu,4166
2023-07-04T20:44:41.708Z,redis-exporter-dbops-team,cpu,1781
2023-07-04T20:44:41.659Z,blackbox-exporter,cpu,2790832
2023-07-04T20:44:51.659Z,blackbox-exporter,cpu,2270791
2023-07-04T20:44:51.659Z,redis-exporter-dev-team,cpu,519341
2023-07-04T20:44:51.707Z,redis-exporter-dbops-team,cpu,1781
2023-07-04T20:45:01.660Z,redis-exporter-dev-team,cpu,0
2023-07-04T20:45:01.660Z,blackbox-exporter,cpu,3917834
2023-07-04T20:45:01.707Z,redis-exporter-dbops-team,cpu,580614
2023-07-04T20:45:11.660Z,redis-exporter-dev-team,cpu,0
2023-07-04T20:45:11.660Z,blackbox-exporter,cpu,3917834
2023-07-04T20:45:11.707Z,redis-exporter-dbops-team,cpu,8572
2023-07-04T20:45:21.707Z,redis-exporter-dbops-team,cpu,8572
2023-07-04T20:45:21.659Z,blackbox-exporter,cpu,2725618
2023-07-04T20:45:21.659Z,redis-exporter-dev-team,cpu,0
2023-07-04T20:45:31.659Z,blackbox-exporter,cpu,2725618
2023-07-04T20:45:31.659Z,redis-exporter-dev-team,cpu,451491
2023-07-04T20:45:31.707Z,redis-exporter-dbops-team,cpu,3504
2023-07-04T20:45:41.707Z,redis-exporter-dbops-team,cpu,3504
2023-07-04T20:45:41.660Z,blackbox-exporter,cpu,3515138
2023-07-04T20:45:41.660Z,redis-exporter-dev-team,cpu,451491
2023-07-04T20:45:51.659Z,blackbox-exporter,cpu,3515138
2023-07-04T20:45:51.659Z,redis-exporter-dev-team,cpu,451491
2023-07-04T20:45:51.708Z,redis-exporter-dbops-team,cpu,563338
2023-07-04T20:46:01.708Z,redis-exporter-dbops-team,cpu,563338
2023-07-04T20:46:01.659Z,redis-exporter-dev-team,cpu,0
2023-07-04T20:46:01.659Z,blackbox-exporter,cpu,3193920
2023-07-04T20:46:11.659Z,blackbox-exporter,cpu,3193920
2023-07-04T20:46:11.659Z,redis-exporter-dev-team,cpu,0
2023-07-04T20:46:11.708Z,redis-exporter-dbops-team,cpu,563338
2023-07-04T20:46:21.659Z,blackbox-exporter,cpu,2963893
2023-07-04T20:46:21.659Z,redis-exporter-dev-team,cpu,0
2023-07-04T20:46:21.708Z,redis-exporter-dbops-team,cpu,934048
2023-07-04T20:46:31.659Z,blackbox-exporter,cpu,2963893
2023-07-04T20:46:31.707Z,redis-exporter-dbops-team,cpu,0
2023-07-04T20:46:31.659Z,redis-exporter-dev-team,cpu,0
2023-07-04T20:46:41.707Z,redis-exporter-dbops-team,cpu,0
2023-07-04T20:46:41.659Z,redis-exporter-dev-team,cpu,406676
2023-07-04T20:46:41.659Z,blackbox-exporter,cpu,3103578
2023-07-04T20:46:51.707Z,redis-exporter-dbops-team,cpu,416862
2023-07-04T20:46:51.659Z,blackbox-exporter,cpu,2655374
2023-07-04T20:46:51.659Z,redis-exporter-dev-team,cpu,560484
2023-07-04T20:47:01.708Z,redis-exporter-dbops-team,cpu,2352
2023-07-04T20:47:01.659Z,blackbox-exporter,cpu,2655374
2023-07-04T20:47:01.659Z,redis-exporter-dev-team,cpu,19684
2023-07-04T20:47:11.659Z,redis-exporter-dev-team,cpu,832842
2023-07-04T20:47:11.659Z,blackbox-exporter,cpu,2790266
2023-07-04T20:47:11.707Z,redis-exporter-dbops-team,cpu,2352
2023-07-04T20:47:21.659Z,redis-exporter-dev-team,cpu,832842
2023-07-04T20:47:21.707Z,redis-exporter-dbops-team,cpu,638841
2023-07-04T20:47:21.659Z,blackbox-exporter,cpu,2790266
2023-07-04T20:47:31.660Z,blackbox-exporter,cpu,2802730
2023-07-04T20:47:31.708Z,redis-exporter-dbops-team,cpu,2057
2023-07-04T20:47:31.660Z,redis-exporter-dev-team,cpu,0
2023-07-04T20:47:41.659Z,blackbox-exporter,cpu,2115677
2023-07-04T20:47:41.659Z,redis-exporter-dev-team,cpu,0
2023-07-04T20:47:41.707Z,redis-exporter-dbops-team,cpu,2057
2023-07-04T20:47:51.659Z,redis-exporter-dev-team,cpu,505209
2023-07-04T20:47:51.659Z,blackbox-exporter,cpu,2115677
2023-07-04T20:47:51.707Z,redis-exporter-dbops-team,cpu,785610
2023-07-04T20:48:01.659Z,blackbox-exporter,cpu,3004754
2023-07-04T20:48:01.659Z,redis-exporter-dev-team,cpu,505209
2023-07-04T20:48:01.708Z,redis-exporter-dbops-team,cpu,785610
2023-07-04T20:48:11.659Z,redis-exporter-dev-team,cpu,546711
2023-07-04T20:48:11.707Z,redis-exporter-dbops-team,cpu,785610
2023-07-04T20:48:11.659Z,blackbox-exporter,cpu,2150286
2023-07-04T20:48:21.659Z,blackbox-exporter,cpu,2150286
2023-07-04T20:48:21.659Z,redis-exporter-dev-team,cpu,546711
2023-07-04T20:48:21.707Z,redis-exporter-dbops-team,cpu,0
2023-07-04T20:48:31.660Z,redis-exporter-dev-team,cpu,0
2023-07-04T20:48:31.660Z,blackbox-exporter,cpu,2758004
2023-07-04T20:48:31.707Z,redis-exporter-dbops-team,cpu,417821
