2023-07-04T20:38:11.291Z,blackbox-exporter,network_in,66965
2023-07-04T20:38:11.291Z,redis-exporter-dev-team,network_in,37562
2023-07-04T20:38:21.660Z,blackbox-exporter,network_in,85848
2023-07-04T20:38:21.660Z,redis-exporter-dev-team,network_in,38226
2023-07-04T20:38:21.708Z,redis-exporter-dbops-team,network_in,42044
2023-07-04T20:38:31.659Z,redis-exporter-dev-team,network_in,38226
2023-07-04T20:38:31.707Z,redis-exporter-dbops-team,network_in,42044
2023-07-04T20:38:31.659Z,blackbox-exporter,network_in,109780
2023-07-04T20:38:41.659Z,redis-exporter-dev-team,network_in,55102
2023-07-04T20:38:41.707Z,redis-exporter-dbops-team,network_in,42044
2023-07-04T20:38:41.659Z,blackbox-exporter,network_in,109780
2023-07-04T20:38:51.707Z,redis-exporter-dbops-team,network_in,59721
2023-07-04T20:38:51.659Z,blackbox-exporter,network_in,109780
2023-07-04T20:38:51.659Z,redis-exporter-dev-team,network_in,55102
2023-07-04T20:39:01.660Z,blackbox-exporter,network_in,162052
2023-07-04T20:39:01.660Z,redis-exporter-dev-team,network_in,55276
2023-07-04T20:39:01.707Z,redis-exporter-dbops-team,network_in,60027
2023-07-04T20:39:11.707Z,redis-exporter-dbops-team,network_in,60027
2023-07-04T20:39:11.659Z,redis-exporter-dev-team,network_in,72432
2023-07-04T20:39:11.659Z,blackbox-exporter,network_in,162052
2023-07-04T20:39:21.659Z,redis-exporter-dev-team,network_in,72432
2023-07-04T20:39:21.659Z,blackbox-exporter,network_in,162052
2023-07-04T20:39:21.707Z,redis-exporter-dbops-team,network_in,60027
2023-07-04T20:39:31.659Z,redis-exporter-dev-team,network_in,72914
2023-07-04T20:39:31.708Z,redis-exporter-dbops-team,network_in,78334
2023-07-04T20:39:31.659Z,blackbox-exporter,network_in,199345
2023-07-04T20:39:41.659Z,blackbox-exporter,network_in,199345
2023-07-04T20:39:41.659Z,redis-exporter-dev-team,network_in,90178
2023-07-04T20:39:41.707Z,redis-exporter-dbops-team,network_in,96200
2023-07-04T20:39:51.659Z,blackbox-exporter,network_in,218951
2023-07-04T20:39:51.707Z,redis-exporter-dbops-team,network_in,96312
2023-07-04T20:39:51.659Z,redis-exporter-dev-team,network_in,90352
2023-07-04T20:40:01.659Z,redis-exporter-dev-team,network_in,90352
2023-07-04T20:40:01.707Z,redis-exporter-dbops-team,network_in,96312
2023-07-04T20:40:01.659Z,blackbox-exporter,network_in,218951
2023-07-04T20:40:11.707Z,redis-exporter-dbops-team,network_in,96312
2023-07-04T20:40:11.660Z,redis-exporter-dev-team,network_in,107421
2023-07-04T20:40:11.660Z,blackbox-exporter,network_in,251144
2023-07-04T20:40:21.708Z,redis-exporter-dbops-team,network_in,114175
2023-07-04T20:40:21.659Z,blackbox-exporter,network_in,263166
2023-07-04T20:40:21.659Z,redis-exporter-dev-team,network_in,107421
2023-07-04T20:40:31.707Z,redis-exporter-dbops-team,network_in,114175
2023-07-04T20:40:31.659Z,blackbox-exporter,network_in,287931
2023-07-04T20:40:31.659Z,redis-exporter-dev-team,network_in,107553
2023-07-04T20:40:41.659Z,redis-exporter-dev-team,network_in,107553
2023-07-04T20:40:41.707Z,redis-exporter-dbops-team,network_in,114175
2023-07-04T20:40:41.659Z,blackbox-exporter,network_in,287931
2023-07-04T20:40:51.709Z,redis-exporter-dbops-team,network_in,132127
2023-07-04T20:40:51.659Z,blackbox-exporter,network_in,308369
2023-07-04T20:40:51.659Z,redis-exporter-dev-team,network_in,124669
2023-07-04T20:41:01.660Z,redis-exporter-dev-team,network_in,124801
2023-07-04T20:41:01.707Z,redis-exporter-dbops-team,network_in,132461
2023-07-04T20:41:01.660Z,blackbox-exporter,network_in,331799
2023-07-04T20:41:11.659Z,blackbox-exporter,network_in,347674
2023-07-04T20:41:11.707Z,redis-exporter-dbops-team,network_in,132461
2023-07-04T20:41:11.659Z,redis-exporter-dev-team,network_in,124801
2023-07-04T20:41:21.659Z,blackbox-exporter,network_in,347674
2023-07-04T20:41:21.659Z,redis-exporter-dev-team,network_in,141967
2023-07-04T20:41:21.707Z,redis-exporter-dbops-team,network_in,150154
2023-07-04T20:41:31.659Z,redis-exporter-dev-team,network_in,142309
2023-07-04T20:41:31.707Z,redis-exporter-dbops-team,network_in,150154
2023-07-04T20:41:31.659Z,blackbox-exporter,network_in,380676
2023-07-04T20:41:41.659Z,blackbox-exporter,network_in,380676
2023-07-04T20:41:41.659Z,redis-exporter-dev-team,network_in,142309
2023-07-04T20:41:41.707Z,redis-exporter-dbops-team,network_in,150488
2023-07-04T20:41:51.707Z,redis-exporter-dbops-team,network_in,150488
2023-07-04T20:41:51.660Z,blackbox-exporter,network_in,400572
2023-07-04T20:41:51.660Z,redis-exporter-dev-team,network_in,159518
2023-07-04T20:42:01.659Z,redis-exporter-dev-team,network_in,159790
2023-07-04T20:42:01.707Z,redis-exporter-dbops-team,network_in,168336
2023-07-04T20:42:01.659Z,blackbox-exporter,network_in,400572
2023-07-04T20:42:11.659Z,blackbox-exporter,network_in,427623
2023-07-04T20:42:11.659Z,redis-exporter-dev-team,network_in,159790
2023-07-04T20:42:11.707Z,redis-exporter-dbops-team,network_in,168950
2023-07-04T20:42:21.659Z,redis-exporter-dev-team,network_in,177037
2023-07-04T20:42:21.659Z,blackbox-exporter,network_in,447426
2023-07-04T20:42:21.707Z,redis-exporter-dbops-team,network_in,168950
2023-07-04T20:42:31.660Z,redis-exporter-dev-team,network_in,177169
2023-07-04T20:42:31.660Z,blackbox-exporter,network_in,447426
2023-07-04T20:42:31.707Z,redis-exporter-dbops-team,network_in,186848
2023-07-04T20:42:41.659Z,redis-exporter-dev-team,network_in,177169
2023-07-04T20:42:41.707Z,redis-exporter-dbops-team,network_in,186848
2023-07-04T20:42:41.659Z,blackbox-exporter,network_in,447426
2023-07-04T20:42:51.659Z,redis-exporter-dev-team,network_in,194351
2023-07-04T20:42:51.659Z,blackbox-exporter,network_in,479634
2023-07-04T20:42:51.707Z,redis-exporter-dbops-team,network_in,186918
2023-07-04T20:43:01.659Z,blackbox-exporter,network_in,509763
2023-07-04T20:43:01.659Z,redis-exporter-dev-team,network_in,194483
2023-07-04T20:43:01.707Z,redis-exporter-dbops-team,network_in,204933
2023-07-04T20:43:11.659Z,redis-exporter-dev-team,network_in,194483
2023-07-04T20:43:11.708Z,redis-exporter-dbops-team,network_in,222615
2023-07-04T20:43:11.659Z,blackbox-exporter,network_in,509763
2023-07-04T20:43:21.660Z,redis-exporter-dev-team,network_in,211770
2023-07-04T20:43:21.708Z,redis-exporter-dbops-team,network_in,222615
2023-07-04T20:43:21.660Z,blackbox-exporter,network_in,527928
2023-07-04T20:43:31.660Z,blackbox-exporter,network_in,557248
2023-07-04T20:43:31.707Z,redis-exporter-dbops-team,network_in,222615
2023-07-04T20:43:31.660Z,redis-exporter-dev-team,network_in,211770
2023-07-04T20:43:41.659Z,blackbox-exporter,network_in,557248
2023-07-04T20:43:41.659Z,redis-exporter-dev-team,network_in,228926
2023-07-04T20:43:41.707Z,redis-exporter-dbops-team,network_in,222879
2023-07-04T20:43:51.659Z,blackbox-exporter,network_in,571489
2023-07-04T20:43:51.659Z,redis-exporter-dev-team,network_in,229034
2023-07-04T20:43:51.707Z,redis-exporter-dbops-team,network_in,240646
2023-07-04T20:44:01.708Z,redis-exporter-dbops-team,network_in,240910
2023-07-04T20:44:01.659Z,redis-exporter-dev-team,network_in,229034
2023-07-04T20:44:01.659Z,blackbox-exporter,network_in,571489
2023-07-04T20:44:11.659Z,redis-exporter-dev-team,network_in,229100
2023-07-04T20:44:11.659Z,blackbox-exporter,network_in,595948
2023-07-04T20:44:11.707Z,redis-exporter-dbops-team,network_in,240910
2023-07-04T20:44:21.708Z,redis-exporter-dbops-team,network_in,258595
2023-07-04T20:44:21.659Z,blackbox-exporter,network_in,615243
2023-07-04T20:44:21.659Z,redis-exporter-dev-team,network_in,246258
2023-07-04T20:44:31.659Z,redis-exporter-dev-team,network_in,246258
2023-07-04T20:44:31.659Z,blackbox-exporter,network_in,625729
2023-07-04T20:44:31.707Z,redis-exporter-dbops-team,network_in,258595
2023-07-04T20:44:41.659Z,redis-exporter-dev-team,network_in,263553
2023-07-04T20:44:41.708Z,redis-exporter-dbops-team,network_in,258859
2023-07-04T20:44:41.659Z,blackbox-exporter,network_in,625729
2023-07-04T20:44:51.659Z,blackbox-exporter,network_in,657576
2023-07-04T20:44:51.659Z,redis-exporter-dev-team,network_in,263595
2023-07-04T20:44:51.707Z,redis-exporter-dbops-team,network_in,258859
2023-07-04T20:45:01.660Z,redis-exporter-dev-team,network_in,263595
2023-07-04T20:45:01.660Z,blackbox-exporter,network_in,681137
2023-07-04T20:45:01.707Z,redis-exporter-dbops-team,network_in,276976
2023-07-04T20:45:11.660Z,redis-exporter-dev-team,network_in,263595
2023-07-04T20:45:11.660Z,blackbox-exporter,network_in,681137
2023-07-04T20:45:11.707Z,redis-exporter-dbops-team,network_in,276976
2023-07-04T20:45:21.707Z,redis-exporter-dbops-team,network_in,276976
2023-07-04T20:45:21.659Z,blackbox-exporter,network_in,701256
2023-07-04T20:45:21.659Z,redis-exporter-dev-team,network_in,280970
2023-07-04T20:45:31.659Z,blackbox-exporter,network_in,727657
2023-07-04T20:45:31.659Z,redis-exporter-dev-team,network_in,281312
2023-07-04T20:45:31.707Z,redis-exporter-dbops-team,network_in,294677
2023-07-04T20:45:41.707Z,redis-exporter-dbops-team,network_in,295011
2023-07-04T20:45:41.660Z,blackbox-exporter,network_in,738743
2023-07-04T20:45:41.660Z,redis-exporter-dev-team,network_in,298529
2023-07-04T20:45:51.659Z,blackbox-exporter,network_in,738743
2023-07-04T20:45:51.659Z,redis-exporter-dev-team,network_in,298529
2023-07-04T20:45:51.708Z,redis-exporter-dbops-team,network_in,295011
2023-07-04T20:46:01.708Z,redis-exporter-dbops-team,network_in,312835
2023-07-04T20:46:01.659Z,redis-exporter-dev-team,network_in,298661
2023-07-04T20:46:01.659Z,blackbox-exporter,network_in,770411
2023-07-04T20:46:11.659Z,blackbox-exporter,network_in,770411
2023-07-04T20:46:11.659Z,redis-exporter-dev-team,network_in,298661
2023-07-04T20:46:11.708Z,redis-exporter-dbops-team,network_in,312835
2023-07-04T20:46:21.659Z,blackbox-exporter,network_in,790000
2023-07-04T20:46:21.659Z,redis-exporter-dev-team,network_in,316030
2023-07-04T20:46:21.708Z,redis-exporter-dbops-team,network_in,330996
2023-07-04T20:46:31.659Z,blackbox-exporter,network_in,790000
2023-07-04T20:46:31.707Z,redis-exporter-dbops-team,network_in,330996
2023-07-04T20:46:31.659Z,redis-exporter-dev-team,network_in,316030
2023-07-04T20:46:41.707Z,redis-exporter-dbops-team,network_in,331540
2023-07-04T20:46:41.659Z,redis-exporter-dev-team,network_in,333420
2023-07-04T20:46:41.659Z,blackbox-exporter,network_in,815836
2023-07-04T20:46:51.707Z,redis-exporter-dbops-team,network_in,331540
2023-07-04T20:46:51.659Z,blackbox-exporter,network_in,835137
2023-07-04T20:46:51.659Z,redis-exporter-dev-team,network_in,333594
2023-07-04T20:47:01.708Z,redis-exporter-dbops-team,network_in,349631
2023-07-04T20:47:01.659Z,blackbox-exporter,network_in,845789
2023-07-04T20:47:01.659Z,redis-exporter-dev-team,network_in,333594
2023-07-04T20:47:11.659Z,redis-exporter-dev-team,network_in,350862
2023-07-04T20:47:11.659Z,blackbox-exporter,network_in,845789
2023-07-04T20:47:11.707Z,redis-exporter-dbops-team,network_in,349631
2023-07-04T20:47:21.659Z,redis-exporter-dev-team,network_in,350862
2023-07-04T20:47:21.707Z,redis-exporter-dbops-team,network_in,349631
2023-07-04T20:47:21.659Z,blackbox-exporter,network_in,845789
2023-07-04T20:47:31.660Z,blackbox-exporter,network_in,879037
2023-07-04T20:47:31.708Z,redis-exporter-dbops-team,network_in,367662
2023-07-04T20:47:31.660Z,redis-exporter-dev-team,network_in,350904
2023-07-04T20:47:41.659Z,blackbox-exporter,network_in,911270
2023-07-04T20:47:41.659Z,redis-exporter-dev-team,network_in,351106
2023-07-04T20:47:41.707Z,redis-exporter-dbops-team,network_in,367662
2023-07-04T20:47:51.659Z,redis-exporter-dev-team,network_in,368357
2023-07-04T20:47:51.659Z,blackbox-exporter,network_in,923600
2023-07-04T20:47:51.707Z,redis-exporter-dbops-team,network_in,385440
2023-07-04T20:48:01.659Z,blackbox-exporter,network_in,923600
2023-07-04T20:48:01.659Z,redis-exporter-dev-team,network_in,368357
2023-07-04T20:48:01.708Z,redis-exporter-dbops-team,network_in,385440
2023-07-04T20:48:11.659Z,redis-exporter-dev-team,network_in,368489
2023-07-04T20:48:11.707Z,redis-exporter-dbops-team,network_in,385440
2023-07-04T20:48:11.659Z,blackbox-exporter,network_in,955388
2023-07-04T20:48:21.659Z,blackbox-exporter,network_in,955388
2023-07-04T20:48:21.659Z,redis-exporter-dev-team,network_in,368489
2023-07-04T20:48:21.707Z,redis-exporter-dbops-team,network_in,403554
2023-07-04T20:48:31.660Z,redis-exporter-dev-team,network_in,385873
2023-07-04T20:48:31.660Z,blackbox-exporter,network_in,998635
2023-07-04T20:48:31.707Z,redis-exporter-dbops-team,network_in,403818
