timestamp,key,run_id,resource,metric,value
2022-05-06T15:51:27.319Z,INTERNAL_UNIT_STAR-1-1-1,1,target-1,network_in,0.4347362518310547
2022-05-06T16:02:53.548Z,INTERNAL_UNIT_STAR-1-1-1,2,target-1,network_in,0.4044036865234375
2022-05-06T16:14:21.773Z,INTERNAL_UNIT_STAR-1-1-1,3,target-1,network_in,0.40389060974121094
2022-05-06T18:31:13.327Z,INTERNAL_UNIT_STAR-1-1-16,1,target-1,network_in,10.657037734985352
2022-05-06T18:49:56.040Z,INTERNAL_UNIT_STAR-1-1-16,2,target-1,network_in,0.5027265548706055
2022-05-06T19:09:18.093Z,INTERNAL_UNIT_STAR-1-1-16,3,target-1,network_in,0.46993064880371094
2022-05-06T16:26:10.984Z,INTERNAL_UNIT_STAR-1-1-2,1,target-1,network_in,0.409210205078125
2022-05-06T16:38:08.867Z,INTERNAL_UNIT_STAR-1-1-2,2,target-1,network_in,0.4058208465576172
2022-05-06T16:50:06.541Z,INTERNAL_UNIT_STAR-1-1-2,3,target-1,network_in,0.42629337310791016
2022-05-06T17:02:48.680Z,INTERNAL_UNIT_STAR-1-1-4,1,target-1,network_in,0.41668128967285156
2022-05-06T17:15:57.246Z,INTERNAL_UNIT_STAR-1-1-4,2,target-1,network_in,0.42450428009033203
2022-05-06T17:28:56.990Z,INTERNAL_UNIT_STAR-1-1-4,3,target-1,network_in,0.42059326171875
2022-05-06T17:43:12.978Z,INTERNAL_UNIT_STAR-1-1-8,1,target-1,network_in,0.46324634552001953
2022-05-06T17:58:17.854Z,INTERNAL_UNIT_STAR-1-1-8,2,target-1,network_in,0.43517303466796875
2022-05-06T18:13:19.793Z,INTERNAL_UNIT_STAR-1-1-8,3,target-1,network_in,0.5483675003051758
