timestamp,key,run_id,resource,metric,value
2022-05-10T13:51:30.651Z,PARTIALLY_SHARED_UNIT_STAR-2-1-1,1,monitoring-unit-1,network_out,1.333242416381836
2022-05-10T14:03:16.604Z,PARTIALLY_SHARED_UNIT_STAR-2-1-1,2,monitoring-unit-1,network_out,0.6256952285766602
2022-05-10T14:15:09.243Z,PARTIALLY_SHARED_UNIT_STAR-2-1-1,3,monitoring-unit-1,network_out,0.6276626586914062
2022-05-11T11:14:53.820Z,PARTIALLY_SHARED_UNIT_STAR-2-1-16,1,monitoring-unit-1,network_out,0.6317834854125977
2022-05-11T11:32:26.580Z,PARTIALLY_SHARED_UNIT_STAR-2-1-16,2,monitoring-unit-1,network_out,0.7587671279907227
2022-05-11T11:50:36.001Z,PARTIALLY_SHARED_UNIT_STAR-2-1-16,3,monitoring-unit-1,network_out,0.8454914093017578
2022-05-11T09:13:19.545Z,PARTIALLY_SHARED_UNIT_STAR-2-1-2,1,monitoring-unit-1,network_out,0.7295541763305664
2022-05-11T09:25:23.213Z,PARTIALLY_SHARED_UNIT_STAR-2-1-2,2,monitoring-unit-1,network_out,0.6273403167724609
2022-05-11T09:37:24.230Z,PARTIALLY_SHARED_UNIT_STAR-2-1-2,3,monitoring-unit-1,network_out,0.6292381286621094
2022-05-11T09:49:57.327Z,PARTIALLY_SHARED_UNIT_STAR-2-1-4,1,monitoring-unit-1,network_out,0.6261482238769531
2022-05-11T10:02:51.533Z,PARTIALLY_SHARED_UNIT_STAR-2-1-4,2,monitoring-unit-1,network_out,0.6356077194213867
2022-05-11T10:15:49.265Z,PARTIALLY_SHARED_UNIT_STAR-2-1-4,3,monitoring-unit-1,network_out,0.6273651123046875
2022-05-11T10:29:40.374Z,PARTIALLY_SHARED_UNIT_STAR-2-1-8,1,monitoring-unit-1,network_out,0.6289777755737305
2022-05-11T10:43:50.135Z,PARTIALLY_SHARED_UNIT_STAR-2-1-8,2,monitoring-unit-1,network_out,0.627436637878418
2022-05-11T10:58:09.097Z,PARTIALLY_SHARED_UNIT_STAR-2-1-8,3,monitoring-unit-1,network_out,0.6248741149902344
