timestamp,key,run_id,resource,metric,value
2022-03-31T08:59:57.539Z,FULLY_SHARED_SIDECAR_1-1-1-1,1,target-1,memory,0.003467559814453125
2022-03-31T09:00:07.540Z,FULLY_SHARED_SIDECAR_1-1-1-1,1,target-1,memory,0.003467559814453125
2022-03-31T09:00:17.539Z,FULLY_SHARED_SIDECAR_1-1-1-1,1,target-1,memory,0.003467559814453125
2022-03-31T09:00:27.539Z,FULLY_SHARED_SIDECAR_1-1-1-1,1,target-1,memory,0.003467559814453125
2022-03-31T09:00:37.540Z,FULLY_SHARED_SIDECAR_1-1-1-1,1,target-1,memory,0.003467559814453125
2022-03-31T09:00:47.539Z,FULLY_SHARED_SIDECAR_1-1-1-1,1,target-1,memory,0.003467559814453125
2022-03-31T09:00:57.539Z,FULLY_SHARED_SIDECAR_1-1-1-1,1,target-1,memory,0.003467559814453125
2022-03-31T09:01:07.540Z,FULLY_SHARED_SIDECAR_1-1-1-1,1,target-1,memory,0.003467559814453125
2022-03-31T09:01:17.539Z,FULLY_SHARED_SIDECAR_1-1-1-1,1,target-1,memory,0.003467559814453125
2022-03-31T09:01:27.539Z,FULLY_SHARED_SIDECAR_1-1-1-1,1,target-1,memory,0.003467559814453125
2022-03-31T09:01:37.540Z,FULLY_SHARED_SIDECAR_1-1-1-1,1,target-1,memory,0.003467559814453125
2022-03-31T09:01:47.539Z,FULLY_SHARED_SIDECAR_1-1-1-1,1,target-1,memory,0.003467559814453125
2022-03-31T09:01:57.540Z,FULLY_SHARED_SIDECAR_1-1-1-1,1,target-1,memory,0.003467559814453125
2022-03-31T09:02:07.539Z,FULLY_SHARED_SIDECAR_1-1-1-1,1,target-1,memory,0.003467559814453125
2022-03-31T09:02:17.539Z,FULLY_SHARED_SIDECAR_1-1-1-1,1,target-1,memory,0.003467559814453125
2022-03-31T09:02:27.540Z,FULLY_SHARED_SIDECAR_1-1-1-1,1,target-1,memory,0.003467559814453125
2022-03-31T09:02:37.540Z,FULLY_SHARED_SIDECAR_1-1-1-1,1,target-1,memory,0.003467559814453125
2022-03-31T09:02:47.539Z,FULLY_SHARED_SIDECAR_1-1-1-1,1,target-1,memory,0.003467559814453125
2022-03-31T09:02:57.539Z,FULLY_SHARED_SIDECAR_1-1-1-1,1,target-1,memory,0.003467559814453125
2022-03-31T09:03:07.540Z,FULLY_SHARED_SIDECAR_1-1-1-1,1,target-1,memory,0.003467559814453125
2022-03-31T09:03:17.539Z,FULLY_SHARED_SIDECAR_1-1-1-1,1,target-1,memory,0.003467559814453125
2022-03-31T09:03:27.539Z,FULLY_SHARED_SIDECAR_1-1-1-1,1,target-1,memory,0.003467559814453125
2022-03-31T09:03:37.539Z,FULLY_SHARED_SIDECAR_1-1-1-1,1,target-1,memory,0.003467559814453125
2022-03-31T09:03:47.540Z,FULLY_SHARED_SIDECAR_1-1-1-1,1,target-1,memory,0.003467559814453125
2022-03-31T09:03:57.539Z,FULLY_SHARED_SIDECAR_1-1-1-1,1,target-1,memory,0.003467559814453125
2022-03-31T09:04:07.539Z,FULLY_SHARED_SIDECAR_1-1-1-1,1,target-1,memory,0.003467559814453125
2022-03-31T09:04:17.540Z,FULLY_SHARED_SIDECAR_1-1-1-1,1,target-1,memory,0.003467559814453125
2022-03-31T09:04:27.539Z,FULLY_SHARED_SIDECAR_1-1-1-1,1,target-1,memory,0.003467559814453125
2022-03-31T09:04:37.540Z,FULLY_SHARED_SIDECAR_1-1-1-1,1,target-1,memory,0.003467559814453125
2022-03-31T09:04:47.539Z,FULLY_SHARED_SIDECAR_1-1-1-1,1,target-1,memory,0.003467559814453125
2022-03-31T09:04:57.539Z,FULLY_SHARED_SIDECAR_1-1-1-1,1,target-1,memory,0.003467559814453125
2022-03-31T09:05:07.540Z,FULLY_SHARED_SIDECAR_1-1-1-1,1,target-1,memory,0.003467559814453125
2022-03-31T09:05:17.540Z,FULLY_SHARED_SIDECAR_1-1-1-1,1,target-1,memory,0.003467559814453125
2022-03-31T09:05:27.539Z,FULLY_SHARED_SIDECAR_1-1-1-1,1,target-1,memory,0.003467559814453125
2022-03-31T09:05:37.539Z,FULLY_SHARED_SIDECAR_1-1-1-1,1,target-1,memory,0.003467559814453125
2022-03-31T09:05:47.539Z,FULLY_SHARED_SIDECAR_1-1-1-1,1,target-1,memory,0.003467559814453125
2022-03-31T09:05:57.539Z,FULLY_SHARED_SIDECAR_1-1-1-1,1,target-1,memory,0.003467559814453125
2022-03-31T09:06:07.539Z,FULLY_SHARED_SIDECAR_1-1-1-1,1,target-1,memory,0.003467559814453125
2022-03-31T09:06:17.540Z,FULLY_SHARED_SIDECAR_1-1-1-1,1,target-1,memory,0.003467559814453125
2022-03-31T09:06:27.540Z,FULLY_SHARED_SIDECAR_1-1-1-1,1,target-1,memory,0.003467559814453125
2022-03-31T09:06:37.539Z,FULLY_SHARED_SIDECAR_1-1-1-1,1,target-1,memory,0.003467559814453125
2022-03-31T09:06:47.540Z,FULLY_SHARED_SIDECAR_1-1-1-1,1,target-1,memory,0.003467559814453125
2022-03-31T09:06:57.539Z,FULLY_SHARED_SIDECAR_1-1-1-1,1,target-1,memory,0.003467559814453125
2022-03-31T09:07:07.539Z,FULLY_SHARED_SIDECAR_1-1-1-1,1,target-1,memory,0.003467559814453125
2022-03-31T09:07:17.539Z,FULLY_SHARED_SIDECAR_1-1-1-1,1,target-1,memory,0.003467559814453125
2022-03-31T09:07:27.539Z,FULLY_SHARED_SIDECAR_1-1-1-1,1,target-1,memory,0.003467559814453125
2022-03-31T09:07:37.539Z,FULLY_SHARED_SIDECAR_1-1-1-1,1,target-1,memory,0.003467559814453125
2022-03-31T09:07:47.539Z,FULLY_SHARED_SIDECAR_1-1-1-1,1,target-1,memory,0.003467559814453125
2022-03-31T09:07:57.539Z,FULLY_SHARED_SIDECAR_1-1-1-1,1,target-1,memory,0.003467559814453125
2022-03-31T09:08:07.539Z,FULLY_SHARED_SIDECAR_1-1-1-1,1,target-1,memory,0.003467559814453125
2022-03-31T09:08:17.540Z,FULLY_SHARED_SIDECAR_1-1-1-1,1,target-1,memory,0.003467559814453125
2022-03-31T09:08:27.539Z,FULLY_SHARED_SIDECAR_1-1-1-1,1,target-1,memory,0.003467559814453125
2022-03-31T09:08:37.540Z,FULLY_SHARED_SIDECAR_1-1-1-1,1,target-1,memory,0.003467559814453125
2022-03-31T09:08:47.539Z,FULLY_SHARED_SIDECAR_1-1-1-1,1,target-1,memory,0.003467559814453125
2022-03-31T09:08:57.539Z,FULLY_SHARED_SIDECAR_1-1-1-1,1,target-1,memory,0.003467559814453125
2022-03-31T09:09:07.539Z,FULLY_SHARED_SIDECAR_1-1-1-1,1,target-1,memory,0.003467559814453125
2022-03-31T09:09:17.539Z,FULLY_SHARED_SIDECAR_1-1-1-1,1,target-1,memory,0.003467559814453125
2022-03-31T09:09:27.539Z,FULLY_SHARED_SIDECAR_1-1-1-1,1,target-1,memory,0.003467559814453125
2022-03-31T09:09:37.539Z,FULLY_SHARED_SIDECAR_1-1-1-1,1,target-1,memory,0.003467559814453125
2022-03-31T09:09:47.540Z,FULLY_SHARED_SIDECAR_1-1-1-1,1,target-1,memory,0.003467559814453125
2022-03-31T09:10:05.539Z,FULLY_SHARED_SIDECAR_1-1-1-1,2,target-1,memory,0.003467559814453125
2022-03-31T09:10:15.539Z,FULLY_SHARED_SIDECAR_1-1-1-1,2,target-1,memory,0.003467559814453125
2022-03-31T09:10:25.539Z,FULLY_SHARED_SIDECAR_1-1-1-1,2,target-1,memory,0.003467559814453125
2022-03-31T09:10:35.538Z,FULLY_SHARED_SIDECAR_1-1-1-1,2,target-1,memory,0.003467559814453125
2022-03-31T09:10:45.539Z,FULLY_SHARED_SIDECAR_1-1-1-1,2,target-1,memory,0.003467559814453125
2022-03-31T09:10:55.539Z,FULLY_SHARED_SIDECAR_1-1-1-1,2,target-1,memory,0.003467559814453125
2022-03-31T09:11:05.538Z,FULLY_SHARED_SIDECAR_1-1-1-1,2,target-1,memory,0.003467559814453125
2022-03-31T09:11:15.538Z,FULLY_SHARED_SIDECAR_1-1-1-1,2,target-1,memory,0.003467559814453125
2022-03-31T09:11:25.539Z,FULLY_SHARED_SIDECAR_1-1-1-1,2,target-1,memory,0.003467559814453125
2022-03-31T09:11:35.539Z,FULLY_SHARED_SIDECAR_1-1-1-1,2,target-1,memory,0.003467559814453125
2022-03-31T09:11:45.539Z,FULLY_SHARED_SIDECAR_1-1-1-1,2,target-1,memory,0.003467559814453125
2022-03-31T09:11:55.538Z,FULLY_SHARED_SIDECAR_1-1-1-1,2,target-1,memory,0.003467559814453125
2022-03-31T09:12:05.539Z,FULLY_SHARED_SIDECAR_1-1-1-1,2,target-1,memory,0.003467559814453125
2022-03-31T09:12:15.539Z,FULLY_SHARED_SIDECAR_1-1-1-1,2,target-1,memory,0.003467559814453125
2022-03-31T09:12:25.538Z,FULLY_SHARED_SIDECAR_1-1-1-1,2,target-1,memory,0.003467559814453125
2022-03-31T09:12:35.538Z,FULLY_SHARED_SIDECAR_1-1-1-1,2,target-1,memory,0.003467559814453125
2022-03-31T09:12:45.539Z,FULLY_SHARED_SIDECAR_1-1-1-1,2,target-1,memory,0.003467559814453125
2022-03-31T09:12:55.539Z,FULLY_SHARED_SIDECAR_1-1-1-1,2,target-1,memory,0.003467559814453125
2022-03-31T09:13:05.539Z,FULLY_SHARED_SIDECAR_1-1-1-1,2,target-1,memory,0.003467559814453125
2022-03-31T09:13:15.538Z,FULLY_SHARED_SIDECAR_1-1-1-1,2,target-1,memory,0.003467559814453125
2022-03-31T09:13:25.538Z,FULLY_SHARED_SIDECAR_1-1-1-1,2,target-1,memory,0.003467559814453125
2022-03-31T09:13:35.539Z,FULLY_SHARED_SIDECAR_1-1-1-1,2,target-1,memory,0.003467559814453125
2022-03-31T09:13:45.538Z,FULLY_SHARED_SIDECAR_1-1-1-1,2,target-1,memory,0.003467559814453125
2022-03-31T09:13:55.538Z,FULLY_SHARED_SIDECAR_1-1-1-1,2,target-1,memory,0.003467559814453125
2022-03-31T09:14:05.538Z,FULLY_SHARED_SIDECAR_1-1-1-1,2,target-1,memory,0.003467559814453125
2022-03-31T09:14:15.538Z,FULLY_SHARED_SIDECAR_1-1-1-1,2,target-1,memory,0.003467559814453125
2022-03-31T09:14:25.538Z,FULLY_SHARED_SIDECAR_1-1-1-1,2,target-1,memory,0.003467559814453125
2022-03-31T09:14:35.538Z,FULLY_SHARED_SIDECAR_1-1-1-1,2,target-1,memory,0.003467559814453125
2022-03-31T09:14:45.538Z,FULLY_SHARED_SIDECAR_1-1-1-1,2,target-1,memory,0.003467559814453125
2022-03-31T09:14:55.538Z,FULLY_SHARED_SIDECAR_1-1-1-1,2,target-1,memory,0.003467559814453125
2022-03-31T09:15:05.538Z,FULLY_SHARED_SIDECAR_1-1-1-1,2,target-1,memory,0.003467559814453125
2022-03-31T09:15:15.539Z,FULLY_SHARED_SIDECAR_1-1-1-1,2,target-1,memory,0.003467559814453125
2022-03-31T09:15:25.539Z,FULLY_SHARED_SIDECAR_1-1-1-1,2,target-1,memory,0.003467559814453125
2022-03-31T09:15:35.539Z,FULLY_SHARED_SIDECAR_1-1-1-1,2,target-1,memory,0.003467559814453125
2022-03-31T09:15:45.539Z,FULLY_SHARED_SIDECAR_1-1-1-1,2,target-1,memory,0.003467559814453125
2022-03-31T09:15:55.539Z,FULLY_SHARED_SIDECAR_1-1-1-1,2,target-1,memory,0.003467559814453125
2022-03-31T09:16:05.539Z,FULLY_SHARED_SIDECAR_1-1-1-1,2,target-1,memory,0.003467559814453125
2022-03-31T09:16:15.538Z,FULLY_SHARED_SIDECAR_1-1-1-1,2,target-1,memory,0.003467559814453125
2022-03-31T09:16:25.539Z,FULLY_SHARED_SIDECAR_1-1-1-1,2,target-1,memory,0.003467559814453125
2022-03-31T09:16:35.539Z,FULLY_SHARED_SIDECAR_1-1-1-1,2,target-1,memory,0.003467559814453125
2022-03-31T09:16:45.539Z,FULLY_SHARED_SIDECAR_1-1-1-1,2,target-1,memory,0.003467559814453125
2022-03-31T09:16:55.538Z,FULLY_SHARED_SIDECAR_1-1-1-1,2,target-1,memory,0.003467559814453125
2022-03-31T09:17:05.539Z,FULLY_SHARED_SIDECAR_1-1-1-1,2,target-1,memory,0.003467559814453125
2022-03-31T09:17:15.539Z,FULLY_SHARED_SIDECAR_1-1-1-1,2,target-1,memory,0.003467559814453125
2022-03-31T09:17:25.539Z,FULLY_SHARED_SIDECAR_1-1-1-1,2,target-1,memory,0.003467559814453125
2022-03-31T09:17:35.538Z,FULLY_SHARED_SIDECAR_1-1-1-1,2,target-1,memory,0.003467559814453125
2022-03-31T09:17:45.539Z,FULLY_SHARED_SIDECAR_1-1-1-1,2,target-1,memory,0.003467559814453125
2022-03-31T09:17:55.539Z,FULLY_SHARED_SIDECAR_1-1-1-1,2,target-1,memory,0.003467559814453125
2022-03-31T09:18:05.539Z,FULLY_SHARED_SIDECAR_1-1-1-1,2,target-1,memory,0.003467559814453125
2022-03-31T09:18:15.538Z,FULLY_SHARED_SIDECAR_1-1-1-1,2,target-1,memory,0.003467559814453125
2022-03-31T09:18:25.539Z,FULLY_SHARED_SIDECAR_1-1-1-1,2,target-1,memory,0.003467559814453125
2022-03-31T09:18:35.539Z,FULLY_SHARED_SIDECAR_1-1-1-1,2,target-1,memory,0.003467559814453125
2022-03-31T09:18:45.538Z,FULLY_SHARED_SIDECAR_1-1-1-1,2,target-1,memory,0.003467559814453125
2022-03-31T09:18:55.538Z,FULLY_SHARED_SIDECAR_1-1-1-1,2,target-1,memory,0.003467559814453125
2022-03-31T09:19:05.538Z,FULLY_SHARED_SIDECAR_1-1-1-1,2,target-1,memory,0.003467559814453125
2022-03-31T09:19:15.538Z,FULLY_SHARED_SIDECAR_1-1-1-1,2,target-1,memory,0.003467559814453125
2022-03-31T09:19:25.538Z,FULLY_SHARED_SIDECAR_1-1-1-1,2,target-1,memory,0.003467559814453125
2022-03-31T09:19:35.538Z,FULLY_SHARED_SIDECAR_1-1-1-1,2,target-1,memory,0.003467559814453125
2022-03-31T09:19:45.538Z,FULLY_SHARED_SIDECAR_1-1-1-1,2,target-1,memory,0.003467559814453125
2022-03-31T09:20:12.373Z,FULLY_SHARED_SIDECAR_1-1-1-1,3,target-1,memory,0.003467559814453125
2022-03-31T09:20:22.374Z,FULLY_SHARED_SIDECAR_1-1-1-1,3,target-1,memory,0.00348663330078125
2022-03-31T09:20:32.374Z,FULLY_SHARED_SIDECAR_1-1-1-1,3,target-1,memory,0.00348663330078125
2022-03-31T09:20:42.374Z,FULLY_SHARED_SIDECAR_1-1-1-1,3,target-1,memory,0.00348663330078125
2022-03-31T09:20:52.374Z,FULLY_SHARED_SIDECAR_1-1-1-1,3,target-1,memory,0.00348663330078125
2022-03-31T09:21:02.374Z,FULLY_SHARED_SIDECAR_1-1-1-1,3,target-1,memory,0.00348663330078125
2022-03-31T09:21:12.374Z,FULLY_SHARED_SIDECAR_1-1-1-1,3,target-1,memory,0.00348663330078125
2022-03-31T09:21:22.373Z,FULLY_SHARED_SIDECAR_1-1-1-1,3,target-1,memory,0.00348663330078125
2022-03-31T09:21:32.374Z,FULLY_SHARED_SIDECAR_1-1-1-1,3,target-1,memory,0.00348663330078125
2022-03-31T09:21:42.374Z,FULLY_SHARED_SIDECAR_1-1-1-1,3,target-1,memory,0.00348663330078125
2022-03-31T09:21:52.374Z,FULLY_SHARED_SIDECAR_1-1-1-1,3,target-1,memory,0.00348663330078125
2022-03-31T09:22:02.374Z,FULLY_SHARED_SIDECAR_1-1-1-1,3,target-1,memory,0.00348663330078125
2022-03-31T09:22:12.374Z,FULLY_SHARED_SIDECAR_1-1-1-1,3,target-1,memory,0.00348663330078125
2022-03-31T09:22:22.374Z,FULLY_SHARED_SIDECAR_1-1-1-1,3,target-1,memory,0.00348663330078125
2022-03-31T09:22:32.374Z,FULLY_SHARED_SIDECAR_1-1-1-1,3,target-1,memory,0.00348663330078125
2022-03-31T09:22:42.374Z,FULLY_SHARED_SIDECAR_1-1-1-1,3,target-1,memory,0.00348663330078125
2022-03-31T09:22:52.373Z,FULLY_SHARED_SIDECAR_1-1-1-1,3,target-1,memory,0.00348663330078125
2022-03-31T09:23:02.373Z,FULLY_SHARED_SIDECAR_1-1-1-1,3,target-1,memory,0.00348663330078125
2022-03-31T09:23:12.374Z,FULLY_SHARED_SIDECAR_1-1-1-1,3,target-1,memory,0.00348663330078125
2022-03-31T09:23:22.374Z,FULLY_SHARED_SIDECAR_1-1-1-1,3,target-1,memory,0.00348663330078125
2022-03-31T09:23:32.373Z,FULLY_SHARED_SIDECAR_1-1-1-1,3,target-1,memory,0.00348663330078125
2022-03-31T09:23:42.373Z,FULLY_SHARED_SIDECAR_1-1-1-1,3,target-1,memory,0.00348663330078125
2022-03-31T09:23:52.374Z,FULLY_SHARED_SIDECAR_1-1-1-1,3,target-1,memory,0.00348663330078125
2022-03-31T09:24:02.373Z,FULLY_SHARED_SIDECAR_1-1-1-1,3,target-1,memory,0.00348663330078125
2022-03-31T09:24:12.374Z,FULLY_SHARED_SIDECAR_1-1-1-1,3,target-1,memory,0.00348663330078125
2022-03-31T09:24:22.373Z,FULLY_SHARED_SIDECAR_1-1-1-1,3,target-1,memory,0.00348663330078125
2022-03-31T09:24:32.374Z,FULLY_SHARED_SIDECAR_1-1-1-1,3,target-1,memory,0.00348663330078125
2022-03-31T09:24:42.374Z,FULLY_SHARED_SIDECAR_1-1-1-1,3,target-1,memory,0.00348663330078125
2022-03-31T09:24:52.373Z,FULLY_SHARED_SIDECAR_1-1-1-1,3,target-1,memory,0.00348663330078125
2022-03-31T09:25:02.373Z,FULLY_SHARED_SIDECAR_1-1-1-1,3,target-1,memory,0.00348663330078125
2022-03-31T09:25:12.374Z,FULLY_SHARED_SIDECAR_1-1-1-1,3,target-1,memory,0.00348663330078125
2022-03-31T09:25:22.374Z,FULLY_SHARED_SIDECAR_1-1-1-1,3,target-1,memory,0.00348663330078125
2022-03-31T09:25:32.373Z,FULLY_SHARED_SIDECAR_1-1-1-1,3,target-1,memory,0.00348663330078125
2022-03-31T09:25:42.374Z,FULLY_SHARED_SIDECAR_1-1-1-1,3,target-1,memory,0.00348663330078125
2022-03-31T09:25:52.373Z,FULLY_SHARED_SIDECAR_1-1-1-1,3,target-1,memory,0.00348663330078125
2022-03-31T09:26:02.374Z,FULLY_SHARED_SIDECAR_1-1-1-1,3,target-1,memory,0.00348663330078125
2022-03-31T09:26:12.374Z,FULLY_SHARED_SIDECAR_1-1-1-1,3,target-1,memory,0.00348663330078125
2022-03-31T09:26:22.374Z,FULLY_SHARED_SIDECAR_1-1-1-1,3,target-1,memory,0.00348663330078125
2022-03-31T09:26:32.374Z,FULLY_SHARED_SIDECAR_1-1-1-1,3,target-1,memory,0.00348663330078125
2022-03-31T09:26:42.374Z,FULLY_SHARED_SIDECAR_1-1-1-1,3,target-1,memory,0.00348663330078125
2022-03-31T09:26:52.374Z,FULLY_SHARED_SIDECAR_1-1-1-1,3,target-1,memory,0.00348663330078125
2022-03-31T09:27:02.373Z,FULLY_SHARED_SIDECAR_1-1-1-1,3,target-1,memory,0.00348663330078125
2022-03-31T09:27:12.373Z,FULLY_SHARED_SIDECAR_1-1-1-1,3,target-1,memory,0.00348663330078125
2022-03-31T09:27:22.373Z,FULLY_SHARED_SIDECAR_1-1-1-1,3,target-1,memory,0.00348663330078125
2022-03-31T09:27:32.373Z,FULLY_SHARED_SIDECAR_1-1-1-1,3,target-1,memory,0.00348663330078125
2022-03-31T09:27:42.374Z,FULLY_SHARED_SIDECAR_1-1-1-1,3,target-1,memory,0.00348663330078125
2022-03-31T09:27:52.373Z,FULLY_SHARED_SIDECAR_1-1-1-1,3,target-1,memory,0.00348663330078125
2022-03-31T09:28:02.374Z,FULLY_SHARED_SIDECAR_1-1-1-1,3,target-1,memory,0.00348663330078125
2022-03-31T09:28:12.373Z,FULLY_SHARED_SIDECAR_1-1-1-1,3,target-1,memory,0.00348663330078125
2022-03-31T09:28:22.374Z,FULLY_SHARED_SIDECAR_1-1-1-1,3,target-1,memory,0.00348663330078125
2022-03-31T09:28:32.373Z,FULLY_SHARED_SIDECAR_1-1-1-1,3,target-1,memory,0.00348663330078125
2022-03-31T09:28:42.374Z,FULLY_SHARED_SIDECAR_1-1-1-1,3,target-1,memory,0.00348663330078125
2022-03-31T09:28:52.374Z,FULLY_SHARED_SIDECAR_1-1-1-1,3,target-1,memory,0.00348663330078125
2022-03-31T09:29:02.373Z,FULLY_SHARED_SIDECAR_1-1-1-1,3,target-1,memory,0.00348663330078125
2022-03-31T09:29:12.374Z,FULLY_SHARED_SIDECAR_1-1-1-1,3,target-1,memory,0.00348663330078125
2022-03-31T09:29:22.374Z,FULLY_SHARED_SIDECAR_1-1-1-1,3,target-1,memory,0.00348663330078125
2022-03-31T09:29:32.374Z,FULLY_SHARED_SIDECAR_1-1-1-1,3,target-1,memory,0.00348663330078125
2022-03-31T09:29:42.373Z,FULLY_SHARED_SIDECAR_1-1-1-1,3,target-1,memory,0.00348663330078125
2022-03-31T09:29:52.373Z,FULLY_SHARED_SIDECAR_1-1-1-1,3,target-1,memory,0.00348663330078125
2022-03-31T11:34:17.863Z,FULLY_SHARED_SIDECAR_1-2-1-1,1,target-1,memory,0.003265380859375
2022-03-31T11:34:27.864Z,FULLY_SHARED_SIDECAR_1-2-1-1,1,target-1,memory,0.003017425537109375
2022-03-31T11:34:37.864Z,FULLY_SHARED_SIDECAR_1-2-1-1,1,target-1,memory,0.003017425537109375
2022-03-31T11:34:47.863Z,FULLY_SHARED_SIDECAR_1-2-1-1,1,target-1,memory,0.003017425537109375
2022-03-31T11:34:57.864Z,FULLY_SHARED_SIDECAR_1-2-1-1,1,target-1,memory,0.003017425537109375
2022-03-31T11:35:07.863Z,FULLY_SHARED_SIDECAR_1-2-1-1,1,target-1,memory,0.003017425537109375
2022-03-31T11:35:17.864Z,FULLY_SHARED_SIDECAR_1-2-1-1,1,target-1,memory,0.003017425537109375
2022-03-31T11:35:27.863Z,FULLY_SHARED_SIDECAR_1-2-1-1,1,target-1,memory,0.003017425537109375
2022-03-31T11:35:37.864Z,FULLY_SHARED_SIDECAR_1-2-1-1,1,target-1,memory,0.003017425537109375
2022-03-31T11:35:47.863Z,FULLY_SHARED_SIDECAR_1-2-1-1,1,target-1,memory,0.003017425537109375
2022-03-31T11:35:57.863Z,FULLY_SHARED_SIDECAR_1-2-1-1,1,target-1,memory,0.003017425537109375
2022-03-31T11:36:07.864Z,FULLY_SHARED_SIDECAR_1-2-1-1,1,target-1,memory,0.003017425537109375
2022-03-31T11:36:17.863Z,FULLY_SHARED_SIDECAR_1-2-1-1,1,target-1,memory,0.003017425537109375
2022-03-31T11:36:27.863Z,FULLY_SHARED_SIDECAR_1-2-1-1,1,target-1,memory,0.003017425537109375
2022-03-31T11:36:37.863Z,FULLY_SHARED_SIDECAR_1-2-1-1,1,target-1,memory,0.003017425537109375
2022-03-31T11:36:47.864Z,FULLY_SHARED_SIDECAR_1-2-1-1,1,target-1,memory,0.003017425537109375
2022-03-31T11:36:57.863Z,FULLY_SHARED_SIDECAR_1-2-1-1,1,target-1,memory,0.003017425537109375
2022-03-31T11:37:07.864Z,FULLY_SHARED_SIDECAR_1-2-1-1,1,target-1,memory,0.003017425537109375
2022-03-31T11:37:17.864Z,FULLY_SHARED_SIDECAR_1-2-1-1,1,target-1,memory,0.003017425537109375
2022-03-31T11:37:27.863Z,FULLY_SHARED_SIDECAR_1-2-1-1,1,target-1,memory,0.003017425537109375
2022-03-31T11:37:37.864Z,FULLY_SHARED_SIDECAR_1-2-1-1,1,target-1,memory,0.003017425537109375
2022-03-31T11:37:47.863Z,FULLY_SHARED_SIDECAR_1-2-1-1,1,target-1,memory,0.003017425537109375
2022-03-31T11:37:57.863Z,FULLY_SHARED_SIDECAR_1-2-1-1,1,target-1,memory,0.003017425537109375
2022-03-31T11:38:07.864Z,FULLY_SHARED_SIDECAR_1-2-1-1,1,target-1,memory,0.003017425537109375
2022-03-31T11:38:17.864Z,FULLY_SHARED_SIDECAR_1-2-1-1,1,target-1,memory,0.003017425537109375
2022-03-31T11:38:27.864Z,FULLY_SHARED_SIDECAR_1-2-1-1,1,target-1,memory,0.003017425537109375
2022-03-31T11:38:37.863Z,FULLY_SHARED_SIDECAR_1-2-1-1,1,target-1,memory,0.003017425537109375
2022-03-31T11:38:47.863Z,FULLY_SHARED_SIDECAR_1-2-1-1,1,target-1,memory,0.003017425537109375
2022-03-31T11:38:57.863Z,FULLY_SHARED_SIDECAR_1-2-1-1,1,target-1,memory,0.003017425537109375
2022-03-31T11:39:07.864Z,FULLY_SHARED_SIDECAR_1-2-1-1,1,target-1,memory,0.003017425537109375
2022-03-31T11:39:17.863Z,FULLY_SHARED_SIDECAR_1-2-1-1,1,target-1,memory,0.003017425537109375
2022-03-31T11:39:27.864Z,FULLY_SHARED_SIDECAR_1-2-1-1,1,target-1,memory,0.003017425537109375
2022-03-31T11:39:37.864Z,FULLY_SHARED_SIDECAR_1-2-1-1,1,target-1,memory,0.003017425537109375
2022-03-31T11:39:47.863Z,FULLY_SHARED_SIDECAR_1-2-1-1,1,target-1,memory,0.003017425537109375
2022-03-31T11:39:57.864Z,FULLY_SHARED_SIDECAR_1-2-1-1,1,target-1,memory,0.003017425537109375
2022-03-31T11:40:07.863Z,FULLY_SHARED_SIDECAR_1-2-1-1,1,target-1,memory,0.003017425537109375
2022-03-31T11:40:17.864Z,FULLY_SHARED_SIDECAR_1-2-1-1,1,target-1,memory,0.003017425537109375
2022-03-31T11:40:27.863Z,FULLY_SHARED_SIDECAR_1-2-1-1,1,target-1,memory,0.003017425537109375
2022-03-31T11:40:37.863Z,FULLY_SHARED_SIDECAR_1-2-1-1,1,target-1,memory,0.003017425537109375
2022-03-31T11:40:47.863Z,FULLY_SHARED_SIDECAR_1-2-1-1,1,target-1,memory,0.003017425537109375
2022-03-31T11:40:57.864Z,FULLY_SHARED_SIDECAR_1-2-1-1,1,target-1,memory,0.003017425537109375
2022-03-31T11:41:07.863Z,FULLY_SHARED_SIDECAR_1-2-1-1,1,target-1,memory,0.003017425537109375
2022-03-31T11:41:17.864Z,FULLY_SHARED_SIDECAR_1-2-1-1,1,target-1,memory,0.003017425537109375
2022-03-31T11:41:27.864Z,FULLY_SHARED_SIDECAR_1-2-1-1,1,target-1,memory,0.003017425537109375
2022-03-31T11:41:37.863Z,FULLY_SHARED_SIDECAR_1-2-1-1,1,target-1,memory,0.003017425537109375
2022-03-31T11:41:47.863Z,FULLY_SHARED_SIDECAR_1-2-1-1,1,target-1,memory,0.003017425537109375
2022-03-31T11:41:57.864Z,FULLY_SHARED_SIDECAR_1-2-1-1,1,target-1,memory,0.003017425537109375
2022-03-31T11:42:07.863Z,FULLY_SHARED_SIDECAR_1-2-1-1,1,target-1,memory,0.003017425537109375
2022-03-31T11:42:17.863Z,FULLY_SHARED_SIDECAR_1-2-1-1,1,target-1,memory,0.003017425537109375
2022-03-31T11:42:27.863Z,FULLY_SHARED_SIDECAR_1-2-1-1,1,target-1,memory,0.003017425537109375
2022-03-31T11:42:37.864Z,FULLY_SHARED_SIDECAR_1-2-1-1,1,target-1,memory,0.003017425537109375
2022-03-31T11:42:47.863Z,FULLY_SHARED_SIDECAR_1-2-1-1,1,target-1,memory,0.003017425537109375
2022-03-31T11:42:57.863Z,FULLY_SHARED_SIDECAR_1-2-1-1,1,target-1,memory,0.003017425537109375
2022-03-31T11:43:07.863Z,FULLY_SHARED_SIDECAR_1-2-1-1,1,target-1,memory,0.003017425537109375
2022-03-31T11:43:17.864Z,FULLY_SHARED_SIDECAR_1-2-1-1,1,target-1,memory,0.003017425537109375
2022-03-31T11:43:27.864Z,FULLY_SHARED_SIDECAR_1-2-1-1,1,target-1,memory,0.003017425537109375
2022-03-31T11:43:37.864Z,FULLY_SHARED_SIDECAR_1-2-1-1,1,target-1,memory,0.003017425537109375
2022-03-31T11:43:47.864Z,FULLY_SHARED_SIDECAR_1-2-1-1,1,target-1,memory,0.003017425537109375
2022-03-31T11:43:57.864Z,FULLY_SHARED_SIDECAR_1-2-1-1,1,target-1,memory,0.003017425537109375
2022-03-31T11:44:24.293Z,FULLY_SHARED_SIDECAR_1-2-1-1,2,target-1,memory,0.003021240234375
2022-03-31T11:44:34.292Z,FULLY_SHARED_SIDECAR_1-2-1-1,2,target-1,memory,0.003021240234375
2022-03-31T11:44:44.292Z,FULLY_SHARED_SIDECAR_1-2-1-1,2,target-1,memory,0.003021240234375
2022-03-31T11:44:54.292Z,FULLY_SHARED_SIDECAR_1-2-1-1,2,target-1,memory,0.003021240234375
2022-03-31T11:45:04.293Z,FULLY_SHARED_SIDECAR_1-2-1-1,2,target-1,memory,0.003021240234375
2022-03-31T11:45:14.292Z,FULLY_SHARED_SIDECAR_1-2-1-1,2,target-1,memory,0.003021240234375
2022-03-31T11:45:24.292Z,FULLY_SHARED_SIDECAR_1-2-1-1,2,target-1,memory,0.003021240234375
2022-03-31T11:45:34.292Z,FULLY_SHARED_SIDECAR_1-2-1-1,2,target-1,memory,0.003021240234375
2022-03-31T11:45:44.293Z,FULLY_SHARED_SIDECAR_1-2-1-1,2,target-1,memory,0.003021240234375
2022-03-31T11:45:54.292Z,FULLY_SHARED_SIDECAR_1-2-1-1,2,target-1,memory,0.003021240234375
2022-03-31T11:46:04.292Z,FULLY_SHARED_SIDECAR_1-2-1-1,2,target-1,memory,0.003021240234375
2022-03-31T11:46:14.292Z,FULLY_SHARED_SIDECAR_1-2-1-1,2,target-1,memory,0.003021240234375
2022-03-31T11:46:24.293Z,FULLY_SHARED_SIDECAR_1-2-1-1,2,target-1,memory,0.003021240234375
2022-03-31T11:46:34.292Z,FULLY_SHARED_SIDECAR_1-2-1-1,2,target-1,memory,0.003021240234375
2022-03-31T11:46:44.293Z,FULLY_SHARED_SIDECAR_1-2-1-1,2,target-1,memory,0.003021240234375
2022-03-31T11:46:54.292Z,FULLY_SHARED_SIDECAR_1-2-1-1,2,target-1,memory,0.003021240234375
2022-03-31T11:47:04.292Z,FULLY_SHARED_SIDECAR_1-2-1-1,2,target-1,memory,0.003021240234375
2022-03-31T11:47:14.293Z,FULLY_SHARED_SIDECAR_1-2-1-1,2,target-1,memory,0.003021240234375
2022-03-31T11:47:24.292Z,FULLY_SHARED_SIDECAR_1-2-1-1,2,target-1,memory,0.003021240234375
2022-03-31T11:47:34.292Z,FULLY_SHARED_SIDECAR_1-2-1-1,2,target-1,memory,0.003021240234375
2022-03-31T11:47:44.293Z,FULLY_SHARED_SIDECAR_1-2-1-1,2,target-1,memory,0.003021240234375
2022-03-31T11:47:54.292Z,FULLY_SHARED_SIDECAR_1-2-1-1,2,target-1,memory,0.003021240234375
2022-03-31T11:48:04.292Z,FULLY_SHARED_SIDECAR_1-2-1-1,2,target-1,memory,0.003021240234375
2022-03-31T11:48:14.293Z,FULLY_SHARED_SIDECAR_1-2-1-1,2,target-1,memory,0.003021240234375
2022-03-31T11:48:24.292Z,FULLY_SHARED_SIDECAR_1-2-1-1,2,target-1,memory,0.003021240234375
2022-03-31T11:48:34.293Z,FULLY_SHARED_SIDECAR_1-2-1-1,2,target-1,memory,0.003021240234375
2022-03-31T11:48:44.292Z,FULLY_SHARED_SIDECAR_1-2-1-1,2,target-1,memory,0.003021240234375
2022-03-31T11:48:54.292Z,FULLY_SHARED_SIDECAR_1-2-1-1,2,target-1,memory,0.003021240234375
2022-03-31T11:49:04.293Z,FULLY_SHARED_SIDECAR_1-2-1-1,2,target-1,memory,0.003021240234375
2022-03-31T11:49:14.292Z,FULLY_SHARED_SIDECAR_1-2-1-1,2,target-1,memory,0.003021240234375
2022-03-31T11:49:24.292Z,FULLY_SHARED_SIDECAR_1-2-1-1,2,target-1,memory,0.003021240234375
2022-03-31T11:49:34.293Z,FULLY_SHARED_SIDECAR_1-2-1-1,2,target-1,memory,0.003021240234375
2022-03-31T11:49:44.293Z,FULLY_SHARED_SIDECAR_1-2-1-1,2,target-1,memory,0.003021240234375
2022-03-31T11:49:54.292Z,FULLY_SHARED_SIDECAR_1-2-1-1,2,target-1,memory,0.003021240234375
2022-03-31T11:50:04.292Z,FULLY_SHARED_SIDECAR_1-2-1-1,2,target-1,memory,0.003021240234375
2022-03-31T11:50:14.293Z,FULLY_SHARED_SIDECAR_1-2-1-1,2,target-1,memory,0.003021240234375
2022-03-31T11:50:24.292Z,FULLY_SHARED_SIDECAR_1-2-1-1,2,target-1,memory,0.003021240234375
2022-03-31T11:50:34.293Z,FULLY_SHARED_SIDECAR_1-2-1-1,2,target-1,memory,0.003021240234375
2022-03-31T11:50:44.292Z,FULLY_SHARED_SIDECAR_1-2-1-1,2,target-1,memory,0.003021240234375
2022-03-31T11:50:54.292Z,FULLY_SHARED_SIDECAR_1-2-1-1,2,target-1,memory,0.003021240234375
2022-03-31T11:51:04.292Z,FULLY_SHARED_SIDECAR_1-2-1-1,2,target-1,memory,0.003021240234375
2022-03-31T11:51:14.293Z,FULLY_SHARED_SIDECAR_1-2-1-1,2,target-1,memory,0.003021240234375
2022-03-31T11:51:24.293Z,FULLY_SHARED_SIDECAR_1-2-1-1,2,target-1,memory,0.003021240234375
2022-03-31T11:51:34.293Z,FULLY_SHARED_SIDECAR_1-2-1-1,2,target-1,memory,0.003021240234375
2022-03-31T11:51:44.292Z,FULLY_SHARED_SIDECAR_1-2-1-1,2,target-1,memory,0.003021240234375
2022-03-31T11:51:54.293Z,FULLY_SHARED_SIDECAR_1-2-1-1,2,target-1,memory,0.003021240234375
2022-03-31T11:52:04.292Z,FULLY_SHARED_SIDECAR_1-2-1-1,2,target-1,memory,0.003021240234375
2022-03-31T11:52:14.292Z,FULLY_SHARED_SIDECAR_1-2-1-1,2,target-1,memory,0.003021240234375
2022-03-31T11:52:24.292Z,FULLY_SHARED_SIDECAR_1-2-1-1,2,target-1,memory,0.003021240234375
2022-03-31T11:52:34.293Z,FULLY_SHARED_SIDECAR_1-2-1-1,2,target-1,memory,0.003021240234375
2022-03-31T11:52:44.292Z,FULLY_SHARED_SIDECAR_1-2-1-1,2,target-1,memory,0.003021240234375
2022-03-31T11:52:54.292Z,FULLY_SHARED_SIDECAR_1-2-1-1,2,target-1,memory,0.003021240234375
2022-03-31T11:53:04.292Z,FULLY_SHARED_SIDECAR_1-2-1-1,2,target-1,memory,0.003021240234375
2022-03-31T11:53:14.293Z,FULLY_SHARED_SIDECAR_1-2-1-1,2,target-1,memory,0.003021240234375
2022-03-31T11:53:24.293Z,FULLY_SHARED_SIDECAR_1-2-1-1,2,target-1,memory,0.003021240234375
2022-03-31T11:53:34.292Z,FULLY_SHARED_SIDECAR_1-2-1-1,2,target-1,memory,0.003021240234375
2022-03-31T11:53:44.293Z,FULLY_SHARED_SIDECAR_1-2-1-1,2,target-1,memory,0.003021240234375
2022-03-31T11:53:54.292Z,FULLY_SHARED_SIDECAR_1-2-1-1,2,target-1,memory,0.003021240234375
2022-03-31T11:54:04.293Z,FULLY_SHARED_SIDECAR_1-2-1-1,2,target-1,memory,0.003021240234375
2022-03-31T11:54:14.292Z,FULLY_SHARED_SIDECAR_1-2-1-1,2,target-1,memory,0.003021240234375
2022-03-31T11:54:31.442Z,FULLY_SHARED_SIDECAR_1-2-1-1,3,target-1,memory,0.003021240234375
2022-03-31T11:54:41.443Z,FULLY_SHARED_SIDECAR_1-2-1-1,3,target-1,memory,0.003021240234375
2022-03-31T11:54:51.443Z,FULLY_SHARED_SIDECAR_1-2-1-1,3,target-1,memory,0.003021240234375
2022-03-31T11:55:01.442Z,FULLY_SHARED_SIDECAR_1-2-1-1,3,target-1,memory,0.003021240234375
2022-03-31T11:55:11.442Z,FULLY_SHARED_SIDECAR_1-2-1-1,3,target-1,memory,0.003021240234375
2022-03-31T11:55:21.442Z,FULLY_SHARED_SIDECAR_1-2-1-1,3,target-1,memory,0.003021240234375
2022-03-31T11:55:31.442Z,FULLY_SHARED_SIDECAR_1-2-1-1,3,target-1,memory,0.003021240234375
2022-03-31T11:55:41.442Z,FULLY_SHARED_SIDECAR_1-2-1-1,3,target-1,memory,0.003021240234375
2022-03-31T11:55:51.442Z,FULLY_SHARED_SIDECAR_1-2-1-1,3,target-1,memory,0.003021240234375
2022-03-31T11:56:01.442Z,FULLY_SHARED_SIDECAR_1-2-1-1,3,target-1,memory,0.003021240234375
2022-03-31T11:56:11.443Z,FULLY_SHARED_SIDECAR_1-2-1-1,3,target-1,memory,0.003021240234375
2022-03-31T11:56:21.442Z,FULLY_SHARED_SIDECAR_1-2-1-1,3,target-1,memory,0.003021240234375
2022-03-31T11:56:31.442Z,FULLY_SHARED_SIDECAR_1-2-1-1,3,target-1,memory,0.003021240234375
2022-03-31T11:56:41.442Z,FULLY_SHARED_SIDECAR_1-2-1-1,3,target-1,memory,0.003021240234375
2022-03-31T11:56:51.443Z,FULLY_SHARED_SIDECAR_1-2-1-1,3,target-1,memory,0.003021240234375
2022-03-31T11:57:01.442Z,FULLY_SHARED_SIDECAR_1-2-1-1,3,target-1,memory,0.003021240234375
2022-03-31T11:57:11.442Z,FULLY_SHARED_SIDECAR_1-2-1-1,3,target-1,memory,0.003021240234375
2022-03-31T11:57:21.442Z,FULLY_SHARED_SIDECAR_1-2-1-1,3,target-1,memory,0.003021240234375
2022-03-31T11:57:31.442Z,FULLY_SHARED_SIDECAR_1-2-1-1,3,target-1,memory,0.003021240234375
2022-03-31T11:57:41.442Z,FULLY_SHARED_SIDECAR_1-2-1-1,3,target-1,memory,0.003021240234375
2022-03-31T11:57:51.443Z,FULLY_SHARED_SIDECAR_1-2-1-1,3,target-1,memory,0.003021240234375
2022-03-31T11:58:01.442Z,FULLY_SHARED_SIDECAR_1-2-1-1,3,target-1,memory,0.003021240234375
2022-03-31T11:58:11.442Z,FULLY_SHARED_SIDECAR_1-2-1-1,3,target-1,memory,0.003021240234375
2022-03-31T11:58:21.442Z,FULLY_SHARED_SIDECAR_1-2-1-1,3,target-1,memory,0.003021240234375
2022-03-31T11:58:31.442Z,FULLY_SHARED_SIDECAR_1-2-1-1,3,target-1,memory,0.003021240234375
2022-03-31T11:58:41.442Z,FULLY_SHARED_SIDECAR_1-2-1-1,3,target-1,memory,0.003021240234375
2022-03-31T11:58:51.442Z,FULLY_SHARED_SIDECAR_1-2-1-1,3,target-1,memory,0.003021240234375
2022-03-31T11:59:01.442Z,FULLY_SHARED_SIDECAR_1-2-1-1,3,target-1,memory,0.003021240234375
2022-03-31T11:59:11.442Z,FULLY_SHARED_SIDECAR_1-2-1-1,3,target-1,memory,0.003021240234375
2022-03-31T11:59:21.442Z,FULLY_SHARED_SIDECAR_1-2-1-1,3,target-1,memory,0.003021240234375
2022-03-31T11:59:31.442Z,FULLY_SHARED_SIDECAR_1-2-1-1,3,target-1,memory,0.003021240234375
2022-03-31T11:59:41.442Z,FULLY_SHARED_SIDECAR_1-2-1-1,3,target-1,memory,0.003021240234375
2022-03-31T11:59:51.442Z,FULLY_SHARED_SIDECAR_1-2-1-1,3,target-1,memory,0.003021240234375
2022-03-31T12:00:01.443Z,FULLY_SHARED_SIDECAR_1-2-1-1,3,target-1,memory,0.003021240234375
2022-03-31T12:00:11.442Z,FULLY_SHARED_SIDECAR_1-2-1-1,3,target-1,memory,0.003021240234375
2022-03-31T12:00:21.442Z,FULLY_SHARED_SIDECAR_1-2-1-1,3,target-1,memory,0.003021240234375
2022-03-31T12:00:31.442Z,FULLY_SHARED_SIDECAR_1-2-1-1,3,target-1,memory,0.003021240234375
2022-03-31T12:00:41.442Z,FULLY_SHARED_SIDECAR_1-2-1-1,3,target-1,memory,0.003021240234375
2022-03-31T12:00:51.442Z,FULLY_SHARED_SIDECAR_1-2-1-1,3,target-1,memory,0.003021240234375
2022-03-31T12:01:01.442Z,FULLY_SHARED_SIDECAR_1-2-1-1,3,target-1,memory,0.003021240234375
2022-03-31T12:01:11.442Z,FULLY_SHARED_SIDECAR_1-2-1-1,3,target-1,memory,0.003021240234375
2022-03-31T12:01:21.443Z,FULLY_SHARED_SIDECAR_1-2-1-1,3,target-1,memory,0.003021240234375
2022-03-31T12:01:31.443Z,FULLY_SHARED_SIDECAR_1-2-1-1,3,target-1,memory,0.003021240234375
2022-03-31T12:01:41.442Z,FULLY_SHARED_SIDECAR_1-2-1-1,3,target-1,memory,0.003021240234375
2022-03-31T12:01:51.443Z,FULLY_SHARED_SIDECAR_1-2-1-1,3,target-1,memory,0.003021240234375
2022-03-31T12:02:01.442Z,FULLY_SHARED_SIDECAR_1-2-1-1,3,target-1,memory,0.003021240234375
2022-03-31T12:02:11.442Z,FULLY_SHARED_SIDECAR_1-2-1-1,3,target-1,memory,0.003021240234375
2022-03-31T12:02:21.443Z,FULLY_SHARED_SIDECAR_1-2-1-1,3,target-1,memory,0.003021240234375
2022-03-31T12:02:31.443Z,FULLY_SHARED_SIDECAR_1-2-1-1,3,target-1,memory,0.003021240234375
2022-03-31T12:02:41.442Z,FULLY_SHARED_SIDECAR_1-2-1-1,3,target-1,memory,0.003021240234375
2022-03-31T12:02:51.442Z,FULLY_SHARED_SIDECAR_1-2-1-1,3,target-1,memory,0.003021240234375
2022-03-31T12:03:01.442Z,FULLY_SHARED_SIDECAR_1-2-1-1,3,target-1,memory,0.003021240234375
2022-03-31T12:03:11.442Z,FULLY_SHARED_SIDECAR_1-2-1-1,3,target-1,memory,0.003021240234375
2022-03-31T12:03:21.443Z,FULLY_SHARED_SIDECAR_1-2-1-1,3,target-1,memory,0.003021240234375
2022-03-31T12:03:31.442Z,FULLY_SHARED_SIDECAR_1-2-1-1,3,target-1,memory,0.003021240234375
2022-03-31T12:03:41.442Z,FULLY_SHARED_SIDECAR_1-2-1-1,3,target-1,memory,0.003021240234375
2022-03-31T12:03:51.442Z,FULLY_SHARED_SIDECAR_1-2-1-1,3,target-1,memory,0.003021240234375
2022-03-31T12:04:01.442Z,FULLY_SHARED_SIDECAR_1-2-1-1,3,target-1,memory,0.003021240234375
2022-03-31T12:04:11.442Z,FULLY_SHARED_SIDECAR_1-2-1-1,3,target-1,memory,0.003021240234375
2022-03-31T12:04:21.442Z,FULLY_SHARED_SIDECAR_1-2-1-1,3,target-1,memory,0.003021240234375
2022-03-31T18:20:05.497Z,FULLY_SHARED_SIDECAR_1-4-1-1,1,target-1,memory,0.0029754638671875
2022-03-31T18:20:15.498Z,FULLY_SHARED_SIDECAR_1-4-1-1,1,target-1,memory,0.00293731689453125
2022-03-31T18:20:25.497Z,FULLY_SHARED_SIDECAR_1-4-1-1,1,target-1,memory,0.00293731689453125
2022-03-31T18:20:35.498Z,FULLY_SHARED_SIDECAR_1-4-1-1,1,target-1,memory,0.00293731689453125
2022-03-31T18:20:45.497Z,FULLY_SHARED_SIDECAR_1-4-1-1,1,target-1,memory,0.00293731689453125
2022-03-31T18:20:55.497Z,FULLY_SHARED_SIDECAR_1-4-1-1,1,target-1,memory,0.00293731689453125
2022-03-31T18:21:05.497Z,FULLY_SHARED_SIDECAR_1-4-1-1,1,target-1,memory,0.00293731689453125
2022-03-31T18:21:15.498Z,FULLY_SHARED_SIDECAR_1-4-1-1,1,target-1,memory,0.00293731689453125
2022-03-31T18:21:25.498Z,FULLY_SHARED_SIDECAR_1-4-1-1,1,target-1,memory,0.00293731689453125
2022-03-31T18:21:35.498Z,FULLY_SHARED_SIDECAR_1-4-1-1,1,target-1,memory,0.00293731689453125
2022-03-31T18:21:45.498Z,FULLY_SHARED_SIDECAR_1-4-1-1,1,target-1,memory,0.00293731689453125
2022-03-31T18:21:55.497Z,FULLY_SHARED_SIDECAR_1-4-1-1,1,target-1,memory,0.00293731689453125
2022-03-31T18:22:05.497Z,FULLY_SHARED_SIDECAR_1-4-1-1,1,target-1,memory,0.00293731689453125
2022-03-31T18:22:15.498Z,FULLY_SHARED_SIDECAR_1-4-1-1,1,target-1,memory,0.00293731689453125
2022-03-31T18:22:25.497Z,FULLY_SHARED_SIDECAR_1-4-1-1,1,target-1,memory,0.00293731689453125
2022-03-31T18:22:35.497Z,FULLY_SHARED_SIDECAR_1-4-1-1,1,target-1,memory,0.00293731689453125
2022-03-31T18:22:45.497Z,FULLY_SHARED_SIDECAR_1-4-1-1,1,target-1,memory,0.00293731689453125
2022-03-31T18:22:55.498Z,FULLY_SHARED_SIDECAR_1-4-1-1,1,target-1,memory,0.00293731689453125
2022-03-31T18:23:05.497Z,FULLY_SHARED_SIDECAR_1-4-1-1,1,target-1,memory,0.00293731689453125
2022-03-31T18:23:15.498Z,FULLY_SHARED_SIDECAR_1-4-1-1,1,target-1,memory,0.00293731689453125
2022-03-31T18:23:25.497Z,FULLY_SHARED_SIDECAR_1-4-1-1,1,target-1,memory,0.00293731689453125
2022-03-31T18:23:35.497Z,FULLY_SHARED_SIDECAR_1-4-1-1,1,target-1,memory,0.00293731689453125
2022-03-31T18:23:45.497Z,FULLY_SHARED_SIDECAR_1-4-1-1,1,target-1,memory,0.00293731689453125
2022-03-31T18:23:55.497Z,FULLY_SHARED_SIDECAR_1-4-1-1,1,target-1,memory,0.00293731689453125
2022-03-31T18:24:05.498Z,FULLY_SHARED_SIDECAR_1-4-1-1,1,target-1,memory,0.00293731689453125
2022-03-31T18:24:15.498Z,FULLY_SHARED_SIDECAR_1-4-1-1,1,target-1,memory,0.00293731689453125
2022-03-31T18:24:25.497Z,FULLY_SHARED_SIDECAR_1-4-1-1,1,target-1,memory,0.00293731689453125
2022-03-31T18:24:35.497Z,FULLY_SHARED_SIDECAR_1-4-1-1,1,target-1,memory,0.00293731689453125
2022-03-31T18:24:45.498Z,FULLY_SHARED_SIDECAR_1-4-1-1,1,target-1,memory,0.00293731689453125
2022-03-31T18:24:55.497Z,FULLY_SHARED_SIDECAR_1-4-1-1,1,target-1,memory,0.00293731689453125
2022-03-31T18:25:05.497Z,FULLY_SHARED_SIDECAR_1-4-1-1,1,target-1,memory,0.00293731689453125
2022-03-31T18:25:15.498Z,FULLY_SHARED_SIDECAR_1-4-1-1,1,target-1,memory,0.00293731689453125
2022-03-31T18:25:25.497Z,FULLY_SHARED_SIDECAR_1-4-1-1,1,target-1,memory,0.00293731689453125
2022-03-31T18:25:35.498Z,FULLY_SHARED_SIDECAR_1-4-1-1,1,target-1,memory,0.00293731689453125
2022-03-31T18:25:45.497Z,FULLY_SHARED_SIDECAR_1-4-1-1,1,target-1,memory,0.00293731689453125
2022-03-31T18:25:55.498Z,FULLY_SHARED_SIDECAR_1-4-1-1,1,target-1,memory,0.00293731689453125
2022-03-31T18:26:05.497Z,FULLY_SHARED_SIDECAR_1-4-1-1,1,target-1,memory,0.00293731689453125
2022-03-31T18:26:15.498Z,FULLY_SHARED_SIDECAR_1-4-1-1,1,target-1,memory,0.00293731689453125
2022-03-31T18:26:25.497Z,FULLY_SHARED_SIDECAR_1-4-1-1,1,target-1,memory,0.00293731689453125
2022-03-31T18:26:35.497Z,FULLY_SHARED_SIDECAR_1-4-1-1,1,target-1,memory,0.00293731689453125
2022-03-31T18:26:45.497Z,FULLY_SHARED_SIDECAR_1-4-1-1,1,target-1,memory,0.00293731689453125
2022-03-31T18:26:55.498Z,FULLY_SHARED_SIDECAR_1-4-1-1,1,target-1,memory,0.00293731689453125
2022-03-31T18:27:05.497Z,FULLY_SHARED_SIDECAR_1-4-1-1,1,target-1,memory,0.00293731689453125
2022-03-31T18:27:15.498Z,FULLY_SHARED_SIDECAR_1-4-1-1,1,target-1,memory,0.00293731689453125
2022-03-31T18:27:25.497Z,FULLY_SHARED_SIDECAR_1-4-1-1,1,target-1,memory,0.00293731689453125
2022-03-31T18:27:35.497Z,FULLY_SHARED_SIDECAR_1-4-1-1,1,target-1,memory,0.00293731689453125
2022-03-31T18:27:45.498Z,FULLY_SHARED_SIDECAR_1-4-1-1,1,target-1,memory,0.00293731689453125
2022-03-31T18:27:55.497Z,FULLY_SHARED_SIDECAR_1-4-1-1,1,target-1,memory,0.00293731689453125
2022-03-31T18:28:05.497Z,FULLY_SHARED_SIDECAR_1-4-1-1,1,target-1,memory,0.00293731689453125
2022-03-31T18:28:15.498Z,FULLY_SHARED_SIDECAR_1-4-1-1,1,target-1,memory,0.00293731689453125
2022-03-31T18:28:25.498Z,FULLY_SHARED_SIDECAR_1-4-1-1,1,target-1,memory,0.00293731689453125
2022-03-31T18:28:35.497Z,FULLY_SHARED_SIDECAR_1-4-1-1,1,target-1,memory,0.00293731689453125
2022-03-31T18:28:45.497Z,FULLY_SHARED_SIDECAR_1-4-1-1,1,target-1,memory,0.00293731689453125
2022-03-31T18:28:55.497Z,FULLY_SHARED_SIDECAR_1-4-1-1,1,target-1,memory,0.00293731689453125
2022-03-31T18:29:05.498Z,FULLY_SHARED_SIDECAR_1-4-1-1,1,target-1,memory,0.00293731689453125
2022-03-31T18:29:15.497Z,FULLY_SHARED_SIDECAR_1-4-1-1,1,target-1,memory,0.00293731689453125
2022-03-31T18:29:25.497Z,FULLY_SHARED_SIDECAR_1-4-1-1,1,target-1,memory,0.00293731689453125
2022-03-31T18:29:35.497Z,FULLY_SHARED_SIDECAR_1-4-1-1,1,target-1,memory,0.00293731689453125
2022-03-31T18:29:45.497Z,FULLY_SHARED_SIDECAR_1-4-1-1,1,target-1,memory,0.00293731689453125
2022-03-31T18:29:55.497Z,FULLY_SHARED_SIDECAR_1-4-1-1,1,target-1,memory,0.00293731689453125
2022-03-31T18:30:13.535Z,FULLY_SHARED_SIDECAR_1-4-1-1,2,target-1,memory,0.00293731689453125
2022-03-31T18:30:23.535Z,FULLY_SHARED_SIDECAR_1-4-1-1,2,target-1,memory,0.002960205078125
2022-03-31T18:30:33.535Z,FULLY_SHARED_SIDECAR_1-4-1-1,2,target-1,memory,0.002960205078125
2022-03-31T18:30:43.535Z,FULLY_SHARED_SIDECAR_1-4-1-1,2,target-1,memory,0.002960205078125
2022-03-31T18:30:53.535Z,FULLY_SHARED_SIDECAR_1-4-1-1,2,target-1,memory,0.002960205078125
2022-03-31T18:31:03.535Z,FULLY_SHARED_SIDECAR_1-4-1-1,2,target-1,memory,0.002960205078125
2022-03-31T18:31:13.535Z,FULLY_SHARED_SIDECAR_1-4-1-1,2,target-1,memory,0.002960205078125
2022-03-31T18:31:23.535Z,FULLY_SHARED_SIDECAR_1-4-1-1,2,target-1,memory,0.002960205078125
2022-03-31T18:31:33.535Z,FULLY_SHARED_SIDECAR_1-4-1-1,2,target-1,memory,0.002960205078125
2022-03-31T18:31:43.535Z,FULLY_SHARED_SIDECAR_1-4-1-1,2,target-1,memory,0.002960205078125
2022-03-31T18:31:53.535Z,FULLY_SHARED_SIDECAR_1-4-1-1,2,target-1,memory,0.002960205078125
2022-03-31T18:32:03.536Z,FULLY_SHARED_SIDECAR_1-4-1-1,2,target-1,memory,0.002960205078125
2022-03-31T18:32:13.535Z,FULLY_SHARED_SIDECAR_1-4-1-1,2,target-1,memory,0.002960205078125
2022-03-31T18:32:23.536Z,FULLY_SHARED_SIDECAR_1-4-1-1,2,target-1,memory,0.002960205078125
2022-03-31T18:32:33.535Z,FULLY_SHARED_SIDECAR_1-4-1-1,2,target-1,memory,0.002960205078125
2022-03-31T18:32:43.535Z,FULLY_SHARED_SIDECAR_1-4-1-1,2,target-1,memory,0.002960205078125
2022-03-31T18:32:53.535Z,FULLY_SHARED_SIDECAR_1-4-1-1,2,target-1,memory,0.002960205078125
2022-03-31T18:33:03.535Z,FULLY_SHARED_SIDECAR_1-4-1-1,2,target-1,memory,0.002960205078125
2022-03-31T18:33:13.535Z,FULLY_SHARED_SIDECAR_1-4-1-1,2,target-1,memory,0.002960205078125
2022-03-31T18:33:23.535Z,FULLY_SHARED_SIDECAR_1-4-1-1,2,target-1,memory,0.002960205078125
2022-03-31T18:33:33.535Z,FULLY_SHARED_SIDECAR_1-4-1-1,2,target-1,memory,0.002960205078125
2022-03-31T18:33:43.535Z,FULLY_SHARED_SIDECAR_1-4-1-1,2,target-1,memory,0.002960205078125
2022-03-31T18:33:53.536Z,FULLY_SHARED_SIDECAR_1-4-1-1,2,target-1,memory,0.002960205078125
2022-03-31T18:34:03.536Z,FULLY_SHARED_SIDECAR_1-4-1-1,2,target-1,memory,0.002960205078125
2022-03-31T18:34:13.535Z,FULLY_SHARED_SIDECAR_1-4-1-1,2,target-1,memory,0.002960205078125
2022-03-31T18:34:23.535Z,FULLY_SHARED_SIDECAR_1-4-1-1,2,target-1,memory,0.002960205078125
2022-03-31T18:34:33.535Z,FULLY_SHARED_SIDECAR_1-4-1-1,2,target-1,memory,0.002960205078125
2022-03-31T18:34:43.535Z,FULLY_SHARED_SIDECAR_1-4-1-1,2,target-1,memory,0.002960205078125
2022-03-31T18:34:53.535Z,FULLY_SHARED_SIDECAR_1-4-1-1,2,target-1,memory,0.002960205078125
2022-03-31T18:35:03.535Z,FULLY_SHARED_SIDECAR_1-4-1-1,2,target-1,memory,0.002960205078125
2022-03-31T18:35:13.535Z,FULLY_SHARED_SIDECAR_1-4-1-1,2,target-1,memory,0.002960205078125
2022-03-31T18:35:23.535Z,FULLY_SHARED_SIDECAR_1-4-1-1,2,target-1,memory,0.002960205078125
2022-03-31T18:35:33.535Z,FULLY_SHARED_SIDECAR_1-4-1-1,2,target-1,memory,0.002960205078125
2022-03-31T18:35:43.535Z,FULLY_SHARED_SIDECAR_1-4-1-1,2,target-1,memory,0.002960205078125
2022-03-31T18:35:53.535Z,FULLY_SHARED_SIDECAR_1-4-1-1,2,target-1,memory,0.002960205078125
2022-03-31T18:36:03.535Z,FULLY_SHARED_SIDECAR_1-4-1-1,2,target-1,memory,0.002960205078125
2022-03-31T18:36:13.535Z,FULLY_SHARED_SIDECAR_1-4-1-1,2,target-1,memory,0.002960205078125
2022-03-31T18:36:23.535Z,FULLY_SHARED_SIDECAR_1-4-1-1,2,target-1,memory,0.002960205078125
2022-03-31T18:36:33.535Z,FULLY_SHARED_SIDECAR_1-4-1-1,2,target-1,memory,0.002960205078125
2022-03-31T18:36:43.535Z,FULLY_SHARED_SIDECAR_1-4-1-1,2,target-1,memory,0.002960205078125
2022-03-31T18:36:53.535Z,FULLY_SHARED_SIDECAR_1-4-1-1,2,target-1,memory,0.002960205078125
2022-03-31T18:37:03.536Z,FULLY_SHARED_SIDECAR_1-4-1-1,2,target-1,memory,0.002960205078125
2022-03-31T18:37:13.535Z,FULLY_SHARED_SIDECAR_1-4-1-1,2,target-1,memory,0.002960205078125
2022-03-31T18:37:23.535Z,FULLY_SHARED_SIDECAR_1-4-1-1,2,target-1,memory,0.002960205078125
2022-03-31T18:37:33.535Z,FULLY_SHARED_SIDECAR_1-4-1-1,2,target-1,memory,0.002960205078125
2022-03-31T18:37:43.535Z,FULLY_SHARED_SIDECAR_1-4-1-1,2,target-1,memory,0.002960205078125
2022-03-31T18:37:53.536Z,FULLY_SHARED_SIDECAR_1-4-1-1,2,target-1,memory,0.002960205078125
2022-03-31T18:38:03.535Z,FULLY_SHARED_SIDECAR_1-4-1-1,2,target-1,memory,0.002960205078125
2022-03-31T18:38:13.535Z,FULLY_SHARED_SIDECAR_1-4-1-1,2,target-1,memory,0.002960205078125
2022-03-31T18:38:23.535Z,FULLY_SHARED_SIDECAR_1-4-1-1,2,target-1,memory,0.002960205078125
2022-03-31T18:38:33.535Z,FULLY_SHARED_SIDECAR_1-4-1-1,2,target-1,memory,0.002960205078125
2022-03-31T18:38:43.535Z,FULLY_SHARED_SIDECAR_1-4-1-1,2,target-1,memory,0.002960205078125
2022-03-31T18:38:53.535Z,FULLY_SHARED_SIDECAR_1-4-1-1,2,target-1,memory,0.002960205078125
2022-03-31T18:39:03.536Z,FULLY_SHARED_SIDECAR_1-4-1-1,2,target-1,memory,0.002960205078125
2022-03-31T18:39:13.535Z,FULLY_SHARED_SIDECAR_1-4-1-1,2,target-1,memory,0.002960205078125
2022-03-31T18:39:23.535Z,FULLY_SHARED_SIDECAR_1-4-1-1,2,target-1,memory,0.002960205078125
2022-03-31T18:39:33.535Z,FULLY_SHARED_SIDECAR_1-4-1-1,2,target-1,memory,0.002960205078125
2022-03-31T18:39:43.535Z,FULLY_SHARED_SIDECAR_1-4-1-1,2,target-1,memory,0.002960205078125
2022-03-31T18:39:53.535Z,FULLY_SHARED_SIDECAR_1-4-1-1,2,target-1,memory,0.002960205078125
2022-03-31T18:40:03.536Z,FULLY_SHARED_SIDECAR_1-4-1-1,2,target-1,memory,0.002960205078125
2022-03-31T18:40:21.802Z,FULLY_SHARED_SIDECAR_1-4-1-1,3,target-1,memory,0.002964019775390625
2022-03-31T18:40:31.801Z,FULLY_SHARED_SIDECAR_1-4-1-1,3,target-1,memory,0.002964019775390625
2022-03-31T18:40:41.802Z,FULLY_SHARED_SIDECAR_1-4-1-1,3,target-1,memory,0.002964019775390625
2022-03-31T18:40:51.802Z,FULLY_SHARED_SIDECAR_1-4-1-1,3,target-1,memory,0.002964019775390625
2022-03-31T18:41:01.802Z,FULLY_SHARED_SIDECAR_1-4-1-1,3,target-1,memory,0.002964019775390625
2022-03-31T18:41:11.802Z,FULLY_SHARED_SIDECAR_1-4-1-1,3,target-1,memory,0.002964019775390625
2022-03-31T18:41:21.802Z,FULLY_SHARED_SIDECAR_1-4-1-1,3,target-1,memory,0.002964019775390625
2022-03-31T18:41:31.802Z,FULLY_SHARED_SIDECAR_1-4-1-1,3,target-1,memory,0.002964019775390625
2022-03-31T18:41:41.801Z,FULLY_SHARED_SIDECAR_1-4-1-1,3,target-1,memory,0.002964019775390625
2022-03-31T18:41:51.802Z,FULLY_SHARED_SIDECAR_1-4-1-1,3,target-1,memory,0.002964019775390625
2022-03-31T18:42:01.801Z,FULLY_SHARED_SIDECAR_1-4-1-1,3,target-1,memory,0.002964019775390625
2022-03-31T18:42:11.801Z,FULLY_SHARED_SIDECAR_1-4-1-1,3,target-1,memory,0.002964019775390625
2022-03-31T18:42:21.802Z,FULLY_SHARED_SIDECAR_1-4-1-1,3,target-1,memory,0.002964019775390625
2022-03-31T18:42:31.802Z,FULLY_SHARED_SIDECAR_1-4-1-1,3,target-1,memory,0.002964019775390625
2022-03-31T18:42:41.802Z,FULLY_SHARED_SIDECAR_1-4-1-1,3,target-1,memory,0.002964019775390625
2022-03-31T18:42:51.802Z,FULLY_SHARED_SIDECAR_1-4-1-1,3,target-1,memory,0.002964019775390625
2022-03-31T18:43:01.802Z,FULLY_SHARED_SIDECAR_1-4-1-1,3,target-1,memory,0.002964019775390625
2022-03-31T18:43:11.801Z,FULLY_SHARED_SIDECAR_1-4-1-1,3,target-1,memory,0.002964019775390625
2022-03-31T18:43:21.801Z,FULLY_SHARED_SIDECAR_1-4-1-1,3,target-1,memory,0.002964019775390625
2022-03-31T18:43:31.801Z,FULLY_SHARED_SIDECAR_1-4-1-1,3,target-1,memory,0.002964019775390625
2022-03-31T18:43:41.802Z,FULLY_SHARED_SIDECAR_1-4-1-1,3,target-1,memory,0.002964019775390625
2022-03-31T18:43:51.802Z,FULLY_SHARED_SIDECAR_1-4-1-1,3,target-1,memory,0.002964019775390625
2022-03-31T18:44:01.801Z,FULLY_SHARED_SIDECAR_1-4-1-1,3,target-1,memory,0.002964019775390625
2022-03-31T18:44:11.802Z,FULLY_SHARED_SIDECAR_1-4-1-1,3,target-1,memory,0.002964019775390625
2022-03-31T18:44:21.802Z,FULLY_SHARED_SIDECAR_1-4-1-1,3,target-1,memory,0.002964019775390625
2022-03-31T18:44:31.801Z,FULLY_SHARED_SIDECAR_1-4-1-1,3,target-1,memory,0.002964019775390625
2022-03-31T18:44:41.802Z,FULLY_SHARED_SIDECAR_1-4-1-1,3,target-1,memory,0.002964019775390625
2022-03-31T18:44:51.802Z,FULLY_SHARED_SIDECAR_1-4-1-1,3,target-1,memory,0.002964019775390625
2022-03-31T18:45:01.801Z,FULLY_SHARED_SIDECAR_1-4-1-1,3,target-1,memory,0.002964019775390625
2022-03-31T18:45:11.802Z,FULLY_SHARED_SIDECAR_1-4-1-1,3,target-1,memory,0.002964019775390625
2022-03-31T18:45:21.802Z,FULLY_SHARED_SIDECAR_1-4-1-1,3,target-1,memory,0.002964019775390625
2022-03-31T18:45:31.801Z,FULLY_SHARED_SIDECAR_1-4-1-1,3,target-1,memory,0.002964019775390625
2022-03-31T18:45:41.802Z,FULLY_SHARED_SIDECAR_1-4-1-1,3,target-1,memory,0.002964019775390625
2022-03-31T18:45:51.802Z,FULLY_SHARED_SIDECAR_1-4-1-1,3,target-1,memory,0.002964019775390625
2022-03-31T18:46:01.802Z,FULLY_SHARED_SIDECAR_1-4-1-1,3,target-1,memory,0.002964019775390625
2022-03-31T18:46:11.802Z,FULLY_SHARED_SIDECAR_1-4-1-1,3,target-1,memory,0.002964019775390625
2022-03-31T18:46:21.802Z,FULLY_SHARED_SIDECAR_1-4-1-1,3,target-1,memory,0.002964019775390625
2022-03-31T18:46:31.801Z,FULLY_SHARED_SIDECAR_1-4-1-1,3,target-1,memory,0.002964019775390625
2022-03-31T18:46:41.802Z,FULLY_SHARED_SIDECAR_1-4-1-1,3,target-1,memory,0.002964019775390625
2022-03-31T18:46:51.801Z,FULLY_SHARED_SIDECAR_1-4-1-1,3,target-1,memory,0.002964019775390625
2022-03-31T18:47:01.802Z,FULLY_SHARED_SIDECAR_1-4-1-1,3,target-1,memory,0.002964019775390625
2022-03-31T18:47:11.802Z,FULLY_SHARED_SIDECAR_1-4-1-1,3,target-1,memory,0.002964019775390625
2022-03-31T18:47:21.802Z,FULLY_SHARED_SIDECAR_1-4-1-1,3,target-1,memory,0.002964019775390625
2022-03-31T18:47:31.801Z,FULLY_SHARED_SIDECAR_1-4-1-1,3,target-1,memory,0.002964019775390625
2022-03-31T18:47:41.802Z,FULLY_SHARED_SIDECAR_1-4-1-1,3,target-1,memory,0.002964019775390625
2022-03-31T18:47:51.802Z,FULLY_SHARED_SIDECAR_1-4-1-1,3,target-1,memory,0.002964019775390625
2022-03-31T18:48:01.802Z,FULLY_SHARED_SIDECAR_1-4-1-1,3,target-1,memory,0.002964019775390625
2022-03-31T18:48:11.801Z,FULLY_SHARED_SIDECAR_1-4-1-1,3,target-1,memory,0.002964019775390625
2022-03-31T18:48:21.801Z,FULLY_SHARED_SIDECAR_1-4-1-1,3,target-1,memory,0.002964019775390625
2022-03-31T18:48:31.801Z,FULLY_SHARED_SIDECAR_1-4-1-1,3,target-1,memory,0.002964019775390625
2022-03-31T18:48:41.801Z,FULLY_SHARED_SIDECAR_1-4-1-1,3,target-1,memory,0.002964019775390625
2022-03-31T18:48:51.801Z,FULLY_SHARED_SIDECAR_1-4-1-1,3,target-1,memory,0.002964019775390625
2022-03-31T18:49:01.801Z,FULLY_SHARED_SIDECAR_1-4-1-1,3,target-1,memory,0.002964019775390625
2022-03-31T18:49:11.802Z,FULLY_SHARED_SIDECAR_1-4-1-1,3,target-1,memory,0.002964019775390625
2022-03-31T18:49:21.802Z,FULLY_SHARED_SIDECAR_1-4-1-1,3,target-1,memory,0.002964019775390625
2022-03-31T18:49:31.802Z,FULLY_SHARED_SIDECAR_1-4-1-1,3,target-1,memory,0.002964019775390625
2022-03-31T18:49:41.802Z,FULLY_SHARED_SIDECAR_1-4-1-1,3,target-1,memory,0.002964019775390625
2022-03-31T18:49:51.802Z,FULLY_SHARED_SIDECAR_1-4-1-1,3,target-1,memory,0.002964019775390625
2022-03-31T18:50:01.802Z,FULLY_SHARED_SIDECAR_1-4-1-1,3,target-1,memory,0.002964019775390625
2022-03-31T18:50:11.801Z,FULLY_SHARED_SIDECAR_1-4-1-1,3,target-1,memory,0.002964019775390625
2022-03-31T18:50:30.966Z,FULLY_SHARED_SIDECAR_1-8-1-1,1,target-1,memory,0.002964019775390625
2022-03-31T18:50:40.966Z,FULLY_SHARED_SIDECAR_1-8-1-1,1,target-1,memory,0.002964019775390625
2022-03-31T18:50:50.966Z,FULLY_SHARED_SIDECAR_1-8-1-1,1,target-1,memory,0.00298309326171875
2022-03-31T18:51:00.966Z,FULLY_SHARED_SIDECAR_1-8-1-1,1,target-1,memory,0.00298309326171875
2022-03-31T18:51:10.967Z,FULLY_SHARED_SIDECAR_1-8-1-1,1,target-1,memory,0.00298309326171875
2022-03-31T18:51:20.966Z,FULLY_SHARED_SIDECAR_1-8-1-1,1,target-1,memory,0.00298309326171875
2022-03-31T18:51:30.966Z,FULLY_SHARED_SIDECAR_1-8-1-1,1,target-1,memory,0.00298309326171875
2022-03-31T18:51:40.966Z,FULLY_SHARED_SIDECAR_1-8-1-1,1,target-1,memory,0.00298309326171875
2022-03-31T18:51:50.966Z,FULLY_SHARED_SIDECAR_1-8-1-1,1,target-1,memory,0.00298309326171875
2022-03-31T18:52:00.966Z,FULLY_SHARED_SIDECAR_1-8-1-1,1,target-1,memory,0.00298309326171875
2022-03-31T18:52:10.966Z,FULLY_SHARED_SIDECAR_1-8-1-1,1,target-1,memory,0.00298309326171875
2022-03-31T18:52:20.966Z,FULLY_SHARED_SIDECAR_1-8-1-1,1,target-1,memory,0.00298309326171875
2022-03-31T18:52:30.966Z,FULLY_SHARED_SIDECAR_1-8-1-1,1,target-1,memory,0.00298309326171875
2022-03-31T18:52:40.966Z,FULLY_SHARED_SIDECAR_1-8-1-1,1,target-1,memory,0.00298309326171875
2022-03-31T18:52:50.966Z,FULLY_SHARED_SIDECAR_1-8-1-1,1,target-1,memory,0.00298309326171875
2022-03-31T18:53:00.965Z,FULLY_SHARED_SIDECAR_1-8-1-1,1,target-1,memory,0.00298309326171875
2022-03-31T18:53:10.965Z,FULLY_SHARED_SIDECAR_1-8-1-1,1,target-1,memory,0.00298309326171875
2022-03-31T18:53:20.966Z,FULLY_SHARED_SIDECAR_1-8-1-1,1,target-1,memory,0.00298309326171875
2022-03-31T18:53:30.966Z,FULLY_SHARED_SIDECAR_1-8-1-1,1,target-1,memory,0.00298309326171875
2022-03-31T18:53:40.966Z,FULLY_SHARED_SIDECAR_1-8-1-1,1,target-1,memory,0.00298309326171875
2022-03-31T18:53:50.965Z,FULLY_SHARED_SIDECAR_1-8-1-1,1,target-1,memory,0.00298309326171875
2022-03-31T18:54:00.966Z,FULLY_SHARED_SIDECAR_1-8-1-1,1,target-1,memory,0.00298309326171875
2022-03-31T18:54:10.966Z,FULLY_SHARED_SIDECAR_1-8-1-1,1,target-1,memory,0.00298309326171875
2022-03-31T18:54:20.966Z,FULLY_SHARED_SIDECAR_1-8-1-1,1,target-1,memory,0.00298309326171875
2022-03-31T18:54:30.966Z,FULLY_SHARED_SIDECAR_1-8-1-1,1,target-1,memory,0.00298309326171875
2022-03-31T18:54:40.966Z,FULLY_SHARED_SIDECAR_1-8-1-1,1,target-1,memory,0.00298309326171875
2022-03-31T18:54:50.966Z,FULLY_SHARED_SIDECAR_1-8-1-1,1,target-1,memory,0.00298309326171875
2022-03-31T18:55:00.966Z,FULLY_SHARED_SIDECAR_1-8-1-1,1,target-1,memory,0.00298309326171875
2022-03-31T18:55:10.966Z,FULLY_SHARED_SIDECAR_1-8-1-1,1,target-1,memory,0.00298309326171875
2022-03-31T18:55:20.966Z,FULLY_SHARED_SIDECAR_1-8-1-1,1,target-1,memory,0.00298309326171875
2022-03-31T18:55:30.966Z,FULLY_SHARED_SIDECAR_1-8-1-1,1,target-1,memory,0.00298309326171875
2022-03-31T18:55:40.966Z,FULLY_SHARED_SIDECAR_1-8-1-1,1,target-1,memory,0.00298309326171875
2022-03-31T18:55:50.966Z,FULLY_SHARED_SIDECAR_1-8-1-1,1,target-1,memory,0.00298309326171875
2022-03-31T18:56:00.966Z,FULLY_SHARED_SIDECAR_1-8-1-1,1,target-1,memory,0.00298309326171875
2022-03-31T18:56:10.966Z,FULLY_SHARED_SIDECAR_1-8-1-1,1,target-1,memory,0.00298309326171875
2022-03-31T18:56:20.966Z,FULLY_SHARED_SIDECAR_1-8-1-1,1,target-1,memory,0.00298309326171875
2022-03-31T18:56:30.965Z,FULLY_SHARED_SIDECAR_1-8-1-1,1,target-1,memory,0.00298309326171875
2022-03-31T18:56:40.966Z,FULLY_SHARED_SIDECAR_1-8-1-1,1,target-1,memory,0.00298309326171875
2022-03-31T18:56:50.966Z,FULLY_SHARED_SIDECAR_1-8-1-1,1,target-1,memory,0.00298309326171875
2022-03-31T18:57:00.966Z,FULLY_SHARED_SIDECAR_1-8-1-1,1,target-1,memory,0.00298309326171875
2022-03-31T18:57:10.965Z,FULLY_SHARED_SIDECAR_1-8-1-1,1,target-1,memory,0.00298309326171875
2022-03-31T18:57:20.965Z,FULLY_SHARED_SIDECAR_1-8-1-1,1,target-1,memory,0.00298309326171875
2022-03-31T18:57:30.966Z,FULLY_SHARED_SIDECAR_1-8-1-1,1,target-1,memory,0.00298309326171875
2022-03-31T18:57:40.966Z,FULLY_SHARED_SIDECAR_1-8-1-1,1,target-1,memory,0.00298309326171875
2022-03-31T18:57:50.966Z,FULLY_SHARED_SIDECAR_1-8-1-1,1,target-1,memory,0.00298309326171875
2022-03-31T18:58:00.966Z,FULLY_SHARED_SIDECAR_1-8-1-1,1,target-1,memory,0.00298309326171875
2022-03-31T18:58:10.966Z,FULLY_SHARED_SIDECAR_1-8-1-1,1,target-1,memory,0.00298309326171875
2022-03-31T18:58:20.966Z,FULLY_SHARED_SIDECAR_1-8-1-1,1,target-1,memory,0.00298309326171875
2022-03-31T18:58:30.965Z,FULLY_SHARED_SIDECAR_1-8-1-1,1,target-1,memory,0.00298309326171875
2022-03-31T18:58:40.966Z,FULLY_SHARED_SIDECAR_1-8-1-1,1,target-1,memory,0.00298309326171875
2022-03-31T18:58:50.965Z,FULLY_SHARED_SIDECAR_1-8-1-1,1,target-1,memory,0.00298309326171875
2022-03-31T18:59:00.966Z,FULLY_SHARED_SIDECAR_1-8-1-1,1,target-1,memory,0.00298309326171875
2022-03-31T18:59:10.966Z,FULLY_SHARED_SIDECAR_1-8-1-1,1,target-1,memory,0.00298309326171875
2022-03-31T18:59:20.966Z,FULLY_SHARED_SIDECAR_1-8-1-1,1,target-1,memory,0.00298309326171875
2022-03-31T18:59:30.966Z,FULLY_SHARED_SIDECAR_1-8-1-1,1,target-1,memory,0.00298309326171875
2022-03-31T18:59:40.966Z,FULLY_SHARED_SIDECAR_1-8-1-1,1,target-1,memory,0.00298309326171875
2022-03-31T18:59:50.966Z,FULLY_SHARED_SIDECAR_1-8-1-1,1,target-1,memory,0.00298309326171875
2022-03-31T19:00:00.966Z,FULLY_SHARED_SIDECAR_1-8-1-1,1,target-1,memory,0.00298309326171875
2022-03-31T19:00:10.966Z,FULLY_SHARED_SIDECAR_1-8-1-1,1,target-1,memory,0.00298309326171875
2022-03-31T19:00:20.966Z,FULLY_SHARED_SIDECAR_1-8-1-1,1,target-1,memory,0.00298309326171875
2022-03-31T19:00:39.316Z,FULLY_SHARED_SIDECAR_1-8-1-1,2,target-1,memory,0.00298309326171875
2022-03-31T19:00:49.316Z,FULLY_SHARED_SIDECAR_1-8-1-1,2,target-1,memory,0.00298309326171875
2022-03-31T19:00:59.316Z,FULLY_SHARED_SIDECAR_1-8-1-1,2,target-1,memory,0.00298309326171875
2022-03-31T19:01:09.316Z,FULLY_SHARED_SIDECAR_1-8-1-1,2,target-1,memory,0.00298309326171875
2022-03-31T19:01:19.317Z,FULLY_SHARED_SIDECAR_1-8-1-1,2,target-1,memory,0.00298309326171875
2022-03-31T19:01:29.317Z,FULLY_SHARED_SIDECAR_1-8-1-1,2,target-1,memory,0.00298309326171875
2022-03-31T19:01:39.317Z,FULLY_SHARED_SIDECAR_1-8-1-1,2,target-1,memory,0.00298309326171875
2022-03-31T19:01:49.316Z,FULLY_SHARED_SIDECAR_1-8-1-1,2,target-1,memory,0.00298309326171875
2022-03-31T19:01:59.316Z,FULLY_SHARED_SIDECAR_1-8-1-1,2,target-1,memory,0.00298309326171875
2022-03-31T19:02:09.317Z,FULLY_SHARED_SIDECAR_1-8-1-1,2,target-1,memory,0.00298309326171875
2022-03-31T19:02:19.317Z,FULLY_SHARED_SIDECAR_1-8-1-1,2,target-1,memory,0.00298309326171875
2022-03-31T19:02:29.317Z,FULLY_SHARED_SIDECAR_1-8-1-1,2,target-1,memory,0.00298309326171875
2022-03-31T19:02:39.316Z,FULLY_SHARED_SIDECAR_1-8-1-1,2,target-1,memory,0.00298309326171875
2022-03-31T19:02:49.317Z,FULLY_SHARED_SIDECAR_1-8-1-1,2,target-1,memory,0.00298309326171875
2022-03-31T19:02:59.316Z,FULLY_SHARED_SIDECAR_1-8-1-1,2,target-1,memory,0.00298309326171875
2022-03-31T19:03:09.316Z,FULLY_SHARED_SIDECAR_1-8-1-1,2,target-1,memory,0.00298309326171875
2022-03-31T19:03:19.316Z,FULLY_SHARED_SIDECAR_1-8-1-1,2,target-1,memory,0.00298309326171875
2022-03-31T19:03:29.316Z,FULLY_SHARED_SIDECAR_1-8-1-1,2,target-1,memory,0.00298309326171875
2022-03-31T19:03:39.317Z,FULLY_SHARED_SIDECAR_1-8-1-1,2,target-1,memory,0.00298309326171875
2022-03-31T19:03:49.316Z,FULLY_SHARED_SIDECAR_1-8-1-1,2,target-1,memory,0.00298309326171875
2022-03-31T19:03:59.317Z,FULLY_SHARED_SIDECAR_1-8-1-1,2,target-1,memory,0.00298309326171875
2022-03-31T19:04:09.316Z,FULLY_SHARED_SIDECAR_1-8-1-1,2,target-1,memory,0.00298309326171875
2022-03-31T19:04:19.317Z,FULLY_SHARED_SIDECAR_1-8-1-1,2,target-1,memory,0.00298309326171875
2022-03-31T19:04:29.317Z,FULLY_SHARED_SIDECAR_1-8-1-1,2,target-1,memory,0.00298309326171875
2022-03-31T19:04:39.317Z,FULLY_SHARED_SIDECAR_1-8-1-1,2,target-1,memory,0.00298309326171875
2022-03-31T19:04:49.317Z,FULLY_SHARED_SIDECAR_1-8-1-1,2,target-1,memory,0.00298309326171875
2022-03-31T19:04:59.316Z,FULLY_SHARED_SIDECAR_1-8-1-1,2,target-1,memory,0.00298309326171875
2022-03-31T19:05:09.316Z,FULLY_SHARED_SIDECAR_1-8-1-1,2,target-1,memory,0.00298309326171875
2022-03-31T19:05:19.316Z,FULLY_SHARED_SIDECAR_1-8-1-1,2,target-1,memory,0.00298309326171875
2022-03-31T19:05:29.317Z,FULLY_SHARED_SIDECAR_1-8-1-1,2,target-1,memory,0.00298309326171875
2022-03-31T19:05:39.317Z,FULLY_SHARED_SIDECAR_1-8-1-1,2,target-1,memory,0.00298309326171875
2022-03-31T19:05:49.316Z,FULLY_SHARED_SIDECAR_1-8-1-1,2,target-1,memory,0.00298309326171875
2022-03-31T19:05:59.316Z,FULLY_SHARED_SIDECAR_1-8-1-1,2,target-1,memory,0.00298309326171875
2022-03-31T19:06:09.316Z,FULLY_SHARED_SIDECAR_1-8-1-1,2,target-1,memory,0.00298309326171875
2022-03-31T19:06:19.316Z,FULLY_SHARED_SIDECAR_1-8-1-1,2,target-1,memory,0.00298309326171875
2022-03-31T19:06:29.316Z,FULLY_SHARED_SIDECAR_1-8-1-1,2,target-1,memory,0.00298309326171875
2022-03-31T19:06:39.316Z,FULLY_SHARED_SIDECAR_1-8-1-1,2,target-1,memory,0.00298309326171875
2022-03-31T19:06:49.316Z,FULLY_SHARED_SIDECAR_1-8-1-1,2,target-1,memory,0.00298309326171875
2022-03-31T19:06:59.317Z,FULLY_SHARED_SIDECAR_1-8-1-1,2,target-1,memory,0.00298309326171875
2022-03-31T19:07:09.316Z,FULLY_SHARED_SIDECAR_1-8-1-1,2,target-1,memory,0.00298309326171875
2022-03-31T19:07:19.317Z,FULLY_SHARED_SIDECAR_1-8-1-1,2,target-1,memory,0.00298309326171875
2022-03-31T19:07:29.316Z,FULLY_SHARED_SIDECAR_1-8-1-1,2,target-1,memory,0.00298309326171875
2022-03-31T19:07:39.316Z,FULLY_SHARED_SIDECAR_1-8-1-1,2,target-1,memory,0.00298309326171875
2022-03-31T19:07:49.316Z,FULLY_SHARED_SIDECAR_1-8-1-1,2,target-1,memory,0.00298309326171875
2022-03-31T19:07:59.317Z,FULLY_SHARED_SIDECAR_1-8-1-1,2,target-1,memory,0.00298309326171875
2022-03-31T19:08:09.316Z,FULLY_SHARED_SIDECAR_1-8-1-1,2,target-1,memory,0.00298309326171875
2022-03-31T19:08:19.317Z,FULLY_SHARED_SIDECAR_1-8-1-1,2,target-1,memory,0.00298309326171875
2022-03-31T19:08:29.317Z,FULLY_SHARED_SIDECAR_1-8-1-1,2,target-1,memory,0.00298309326171875
2022-03-31T19:08:39.317Z,FULLY_SHARED_SIDECAR_1-8-1-1,2,target-1,memory,0.00298309326171875
2022-03-31T19:08:49.317Z,FULLY_SHARED_SIDECAR_1-8-1-1,2,target-1,memory,0.00298309326171875
2022-03-31T19:08:59.316Z,FULLY_SHARED_SIDECAR_1-8-1-1,2,target-1,memory,0.00298309326171875
2022-03-31T19:09:09.316Z,FULLY_SHARED_SIDECAR_1-8-1-1,2,target-1,memory,0.00298309326171875
2022-03-31T19:09:19.316Z,FULLY_SHARED_SIDECAR_1-8-1-1,2,target-1,memory,0.00298309326171875
2022-03-31T19:09:29.317Z,FULLY_SHARED_SIDECAR_1-8-1-1,2,target-1,memory,0.00298309326171875
2022-03-31T19:09:39.317Z,FULLY_SHARED_SIDECAR_1-8-1-1,2,target-1,memory,0.00298309326171875
2022-03-31T19:09:49.316Z,FULLY_SHARED_SIDECAR_1-8-1-1,2,target-1,memory,0.00298309326171875
2022-03-31T19:09:59.316Z,FULLY_SHARED_SIDECAR_1-8-1-1,2,target-1,memory,0.00298309326171875
2022-03-31T19:10:09.317Z,FULLY_SHARED_SIDECAR_1-8-1-1,2,target-1,memory,0.00298309326171875
2022-03-31T19:10:19.316Z,FULLY_SHARED_SIDECAR_1-8-1-1,2,target-1,memory,0.00298309326171875
2022-03-31T19:10:29.316Z,FULLY_SHARED_SIDECAR_1-8-1-1,2,target-1,memory,0.00298309326171875
2022-03-31T19:10:47.611Z,FULLY_SHARED_SIDECAR_1-8-1-1,3,target-1,memory,0.00298309326171875
2022-03-31T19:10:57.611Z,FULLY_SHARED_SIDECAR_1-8-1-1,3,target-1,memory,0.00298309326171875
2022-03-31T19:11:07.611Z,FULLY_SHARED_SIDECAR_1-8-1-1,3,target-1,memory,0.00298309326171875
2022-03-31T19:11:17.611Z,FULLY_SHARED_SIDECAR_1-8-1-1,3,target-1,memory,0.00298309326171875
2022-03-31T19:11:27.611Z,FULLY_SHARED_SIDECAR_1-8-1-1,3,target-1,memory,0.00298309326171875
2022-03-31T19:11:37.611Z,FULLY_SHARED_SIDECAR_1-8-1-1,3,target-1,memory,0.00298309326171875
2022-03-31T19:11:47.611Z,FULLY_SHARED_SIDECAR_1-8-1-1,3,target-1,memory,0.00298309326171875
2022-03-31T19:11:57.611Z,FULLY_SHARED_SIDECAR_1-8-1-1,3,target-1,memory,0.00298309326171875
2022-03-31T19:12:07.611Z,FULLY_SHARED_SIDECAR_1-8-1-1,3,target-1,memory,0.00298309326171875
2022-03-31T19:12:17.611Z,FULLY_SHARED_SIDECAR_1-8-1-1,3,target-1,memory,0.00298309326171875
2022-03-31T19:12:27.611Z,FULLY_SHARED_SIDECAR_1-8-1-1,3,target-1,memory,0.00298309326171875
2022-03-31T19:12:37.611Z,FULLY_SHARED_SIDECAR_1-8-1-1,3,target-1,memory,0.00298309326171875
2022-03-31T19:12:47.611Z,FULLY_SHARED_SIDECAR_1-8-1-1,3,target-1,memory,0.00298309326171875
2022-03-31T19:12:57.611Z,FULLY_SHARED_SIDECAR_1-8-1-1,3,target-1,memory,0.00298309326171875
2022-03-31T19:13:07.611Z,FULLY_SHARED_SIDECAR_1-8-1-1,3,target-1,memory,0.00298309326171875
2022-03-31T19:13:17.611Z,FULLY_SHARED_SIDECAR_1-8-1-1,3,target-1,memory,0.00298309326171875
2022-03-31T19:13:27.611Z,FULLY_SHARED_SIDECAR_1-8-1-1,3,target-1,memory,0.00298309326171875
2022-03-31T19:13:37.611Z,FULLY_SHARED_SIDECAR_1-8-1-1,3,target-1,memory,0.00298309326171875
2022-03-31T19:13:47.611Z,FULLY_SHARED_SIDECAR_1-8-1-1,3,target-1,memory,0.00298309326171875
2022-03-31T19:13:57.611Z,FULLY_SHARED_SIDECAR_1-8-1-1,3,target-1,memory,0.00298309326171875
2022-03-31T19:14:07.611Z,FULLY_SHARED_SIDECAR_1-8-1-1,3,target-1,memory,0.00298309326171875
2022-03-31T19:14:17.611Z,FULLY_SHARED_SIDECAR_1-8-1-1,3,target-1,memory,0.00298309326171875
2022-03-31T19:14:27.611Z,FULLY_SHARED_SIDECAR_1-8-1-1,3,target-1,memory,0.00298309326171875
2022-03-31T19:14:37.611Z,FULLY_SHARED_SIDECAR_1-8-1-1,3,target-1,memory,0.00298309326171875
2022-03-31T19:14:47.611Z,FULLY_SHARED_SIDECAR_1-8-1-1,3,target-1,memory,0.00298309326171875
2022-03-31T19:14:57.611Z,FULLY_SHARED_SIDECAR_1-8-1-1,3,target-1,memory,0.00298309326171875
2022-03-31T19:15:07.611Z,FULLY_SHARED_SIDECAR_1-8-1-1,3,target-1,memory,0.00298309326171875
2022-03-31T19:15:17.611Z,FULLY_SHARED_SIDECAR_1-8-1-1,3,target-1,memory,0.00298309326171875
2022-03-31T19:15:27.611Z,FULLY_SHARED_SIDECAR_1-8-1-1,3,target-1,memory,0.00298309326171875
2022-03-31T19:15:37.611Z,FULLY_SHARED_SIDECAR_1-8-1-1,3,target-1,memory,0.00298309326171875
2022-03-31T19:15:47.611Z,FULLY_SHARED_SIDECAR_1-8-1-1,3,target-1,memory,0.00298309326171875
2022-03-31T19:15:57.611Z,FULLY_SHARED_SIDECAR_1-8-1-1,3,target-1,memory,0.00298309326171875
2022-03-31T19:16:07.611Z,FULLY_SHARED_SIDECAR_1-8-1-1,3,target-1,memory,0.00298309326171875
2022-03-31T19:16:17.611Z,FULLY_SHARED_SIDECAR_1-8-1-1,3,target-1,memory,0.00298309326171875
2022-03-31T19:16:27.611Z,FULLY_SHARED_SIDECAR_1-8-1-1,3,target-1,memory,0.00298309326171875
2022-03-31T19:16:37.611Z,FULLY_SHARED_SIDECAR_1-8-1-1,3,target-1,memory,0.00298309326171875
2022-03-31T19:16:47.611Z,FULLY_SHARED_SIDECAR_1-8-1-1,3,target-1,memory,0.00298309326171875
2022-03-31T19:16:57.611Z,FULLY_SHARED_SIDECAR_1-8-1-1,3,target-1,memory,0.00298309326171875
2022-03-31T19:17:07.611Z,FULLY_SHARED_SIDECAR_1-8-1-1,3,target-1,memory,0.00298309326171875
2022-03-31T19:17:17.611Z,FULLY_SHARED_SIDECAR_1-8-1-1,3,target-1,memory,0.00298309326171875
2022-03-31T19:17:27.611Z,FULLY_SHARED_SIDECAR_1-8-1-1,3,target-1,memory,0.00298309326171875
2022-03-31T19:17:37.611Z,FULLY_SHARED_SIDECAR_1-8-1-1,3,target-1,memory,0.00298309326171875
2022-03-31T19:17:47.611Z,FULLY_SHARED_SIDECAR_1-8-1-1,3,target-1,memory,0.00298309326171875
2022-03-31T19:17:57.611Z,FULLY_SHARED_SIDECAR_1-8-1-1,3,target-1,memory,0.00298309326171875
2022-03-31T19:18:07.611Z,FULLY_SHARED_SIDECAR_1-8-1-1,3,target-1,memory,0.00298309326171875
2022-03-31T19:18:17.611Z,FULLY_SHARED_SIDECAR_1-8-1-1,3,target-1,memory,0.00298309326171875
2022-03-31T19:18:27.611Z,FULLY_SHARED_SIDECAR_1-8-1-1,3,target-1,memory,0.00298309326171875
2022-03-31T19:18:37.611Z,FULLY_SHARED_SIDECAR_1-8-1-1,3,target-1,memory,0.00298309326171875
2022-03-31T19:18:47.611Z,FULLY_SHARED_SIDECAR_1-8-1-1,3,target-1,memory,0.00298309326171875
2022-03-31T19:18:57.611Z,FULLY_SHARED_SIDECAR_1-8-1-1,3,target-1,memory,0.00298309326171875
2022-03-31T19:19:07.611Z,FULLY_SHARED_SIDECAR_1-8-1-1,3,target-1,memory,0.00298309326171875
2022-03-31T19:19:17.611Z,FULLY_SHARED_SIDECAR_1-8-1-1,3,target-1,memory,0.00298309326171875
2022-03-31T19:19:27.611Z,FULLY_SHARED_SIDECAR_1-8-1-1,3,target-1,memory,0.00298309326171875
2022-03-31T19:19:37.611Z,FULLY_SHARED_SIDECAR_1-8-1-1,3,target-1,memory,0.00298309326171875
2022-03-31T19:19:47.611Z,FULLY_SHARED_SIDECAR_1-8-1-1,3,target-1,memory,0.00298309326171875
2022-03-31T19:19:57.611Z,FULLY_SHARED_SIDECAR_1-8-1-1,3,target-1,memory,0.00298309326171875
2022-03-31T19:20:07.611Z,FULLY_SHARED_SIDECAR_1-8-1-1,3,target-1,memory,0.00298309326171875
2022-03-31T19:20:17.611Z,FULLY_SHARED_SIDECAR_1-8-1-1,3,target-1,memory,0.00298309326171875
2022-03-31T19:20:27.611Z,FULLY_SHARED_SIDECAR_1-8-1-1,3,target-1,memory,0.00298309326171875
2022-03-31T19:20:37.611Z,FULLY_SHARED_SIDECAR_1-8-1-1,3,target-1,memory,0.00298309326171875
2022-03-31T19:20:54.466Z,FULLY_SHARED_SIDECAR_1-16-1-1,1,target-1,memory,0.00298309326171875
2022-03-31T19:21:04.466Z,FULLY_SHARED_SIDECAR_1-16-1-1,1,target-1,memory,0.00298309326171875
2022-03-31T19:21:14.466Z,FULLY_SHARED_SIDECAR_1-16-1-1,1,target-1,memory,0.00298309326171875
2022-03-31T19:21:24.466Z,FULLY_SHARED_SIDECAR_1-16-1-1,1,target-1,memory,0.00298309326171875
2022-03-31T19:21:34.466Z,FULLY_SHARED_SIDECAR_1-16-1-1,1,target-1,memory,0.00298309326171875
2022-03-31T19:21:44.466Z,FULLY_SHARED_SIDECAR_1-16-1-1,1,target-1,memory,0.00298309326171875
2022-03-31T19:21:54.466Z,FULLY_SHARED_SIDECAR_1-16-1-1,1,target-1,memory,0.00298309326171875
2022-03-31T19:22:04.466Z,FULLY_SHARED_SIDECAR_1-16-1-1,1,target-1,memory,0.00298309326171875
2022-03-31T19:22:14.466Z,FULLY_SHARED_SIDECAR_1-16-1-1,1,target-1,memory,0.00298309326171875
2022-03-31T19:22:24.466Z,FULLY_SHARED_SIDECAR_1-16-1-1,1,target-1,memory,0.00298309326171875
2022-03-31T19:22:34.466Z,FULLY_SHARED_SIDECAR_1-16-1-1,1,target-1,memory,0.00298309326171875
2022-03-31T19:22:44.466Z,FULLY_SHARED_SIDECAR_1-16-1-1,1,target-1,memory,0.00298309326171875
2022-03-31T19:22:54.466Z,FULLY_SHARED_SIDECAR_1-16-1-1,1,target-1,memory,0.00298309326171875
2022-03-31T19:23:04.466Z,FULLY_SHARED_SIDECAR_1-16-1-1,1,target-1,memory,0.00298309326171875
2022-03-31T19:23:14.466Z,FULLY_SHARED_SIDECAR_1-16-1-1,1,target-1,memory,0.00298309326171875
2022-03-31T19:23:24.467Z,FULLY_SHARED_SIDECAR_1-16-1-1,1,target-1,memory,0.00298309326171875
2022-03-31T19:23:34.466Z,FULLY_SHARED_SIDECAR_1-16-1-1,1,target-1,memory,0.00298309326171875
2022-03-31T19:23:44.466Z,FULLY_SHARED_SIDECAR_1-16-1-1,1,target-1,memory,0.00298309326171875
2022-03-31T19:23:54.466Z,FULLY_SHARED_SIDECAR_1-16-1-1,1,target-1,memory,0.00298309326171875
2022-03-31T19:24:04.466Z,FULLY_SHARED_SIDECAR_1-16-1-1,1,target-1,memory,0.00298309326171875
2022-03-31T19:24:14.466Z,FULLY_SHARED_SIDECAR_1-16-1-1,1,target-1,memory,0.00298309326171875
2022-03-31T19:24:24.466Z,FULLY_SHARED_SIDECAR_1-16-1-1,1,target-1,memory,0.00298309326171875
2022-03-31T19:24:34.466Z,FULLY_SHARED_SIDECAR_1-16-1-1,1,target-1,memory,0.00298309326171875
2022-03-31T19:24:44.467Z,FULLY_SHARED_SIDECAR_1-16-1-1,1,target-1,memory,0.00298309326171875
2022-03-31T19:24:54.466Z,FULLY_SHARED_SIDECAR_1-16-1-1,1,target-1,memory,0.00298309326171875
2022-03-31T19:25:04.466Z,FULLY_SHARED_SIDECAR_1-16-1-1,1,target-1,memory,0.00298309326171875
2022-03-31T19:25:14.466Z,FULLY_SHARED_SIDECAR_1-16-1-1,1,target-1,memory,0.00298309326171875
2022-03-31T19:25:24.466Z,FULLY_SHARED_SIDECAR_1-16-1-1,1,target-1,memory,0.00298309326171875
2022-03-31T19:25:34.467Z,FULLY_SHARED_SIDECAR_1-16-1-1,1,target-1,memory,0.00298309326171875
2022-03-31T19:25:44.466Z,FULLY_SHARED_SIDECAR_1-16-1-1,1,target-1,memory,0.00298309326171875
2022-03-31T19:25:54.466Z,FULLY_SHARED_SIDECAR_1-16-1-1,1,target-1,memory,0.00298309326171875
2022-03-31T19:26:04.466Z,FULLY_SHARED_SIDECAR_1-16-1-1,1,target-1,memory,0.00298309326171875
2022-03-31T19:26:14.466Z,FULLY_SHARED_SIDECAR_1-16-1-1,1,target-1,memory,0.00298309326171875
2022-03-31T19:26:24.466Z,FULLY_SHARED_SIDECAR_1-16-1-1,1,target-1,memory,0.00298309326171875
2022-03-31T19:26:34.466Z,FULLY_SHARED_SIDECAR_1-16-1-1,1,target-1,memory,0.00298309326171875
2022-03-31T19:26:44.466Z,FULLY_SHARED_SIDECAR_1-16-1-1,1,target-1,memory,0.00298309326171875
2022-03-31T19:26:54.466Z,FULLY_SHARED_SIDECAR_1-16-1-1,1,target-1,memory,0.00298309326171875
2022-03-31T19:27:04.466Z,FULLY_SHARED_SIDECAR_1-16-1-1,1,target-1,memory,0.00298309326171875
2022-03-31T19:27:14.467Z,FULLY_SHARED_SIDECAR_1-16-1-1,1,target-1,memory,0.00298309326171875
2022-03-31T19:27:24.466Z,FULLY_SHARED_SIDECAR_1-16-1-1,1,target-1,memory,0.00298309326171875
2022-03-31T19:27:34.466Z,FULLY_SHARED_SIDECAR_1-16-1-1,1,target-1,memory,0.00298309326171875
2022-03-31T19:27:44.467Z,FULLY_SHARED_SIDECAR_1-16-1-1,1,target-1,memory,0.00298309326171875
2022-03-31T19:27:54.466Z,FULLY_SHARED_SIDECAR_1-16-1-1,1,target-1,memory,0.00298309326171875
2022-03-31T19:28:04.467Z,FULLY_SHARED_SIDECAR_1-16-1-1,1,target-1,memory,0.00298309326171875
2022-03-31T19:28:14.466Z,FULLY_SHARED_SIDECAR_1-16-1-1,1,target-1,memory,0.00298309326171875
2022-03-31T19:28:24.466Z,FULLY_SHARED_SIDECAR_1-16-1-1,1,target-1,memory,0.00298309326171875
2022-03-31T19:28:34.467Z,FULLY_SHARED_SIDECAR_1-16-1-1,1,target-1,memory,0.00298309326171875
2022-03-31T19:28:44.466Z,FULLY_SHARED_SIDECAR_1-16-1-1,1,target-1,memory,0.00298309326171875
2022-03-31T19:28:54.466Z,FULLY_SHARED_SIDECAR_1-16-1-1,1,target-1,memory,0.00298309326171875
2022-03-31T19:29:04.466Z,FULLY_SHARED_SIDECAR_1-16-1-1,1,target-1,memory,0.00298309326171875
2022-03-31T19:29:14.466Z,FULLY_SHARED_SIDECAR_1-16-1-1,1,target-1,memory,0.00298309326171875
2022-03-31T19:29:24.466Z,FULLY_SHARED_SIDECAR_1-16-1-1,1,target-1,memory,0.00298309326171875
2022-03-31T19:29:34.466Z,FULLY_SHARED_SIDECAR_1-16-1-1,1,target-1,memory,0.00298309326171875
2022-03-31T19:29:44.466Z,FULLY_SHARED_SIDECAR_1-16-1-1,1,target-1,memory,0.00298309326171875
2022-03-31T19:29:54.466Z,FULLY_SHARED_SIDECAR_1-16-1-1,1,target-1,memory,0.00298309326171875
2022-03-31T19:30:04.466Z,FULLY_SHARED_SIDECAR_1-16-1-1,1,target-1,memory,0.00298309326171875
2022-03-31T19:30:14.466Z,FULLY_SHARED_SIDECAR_1-16-1-1,1,target-1,memory,0.00298309326171875
2022-03-31T19:30:24.466Z,FULLY_SHARED_SIDECAR_1-16-1-1,1,target-1,memory,0.00298309326171875
2022-03-31T19:30:34.466Z,FULLY_SHARED_SIDECAR_1-16-1-1,1,target-1,memory,0.00298309326171875
2022-03-31T19:30:44.466Z,FULLY_SHARED_SIDECAR_1-16-1-1,1,target-1,memory,0.00298309326171875
2022-03-31T19:31:03.242Z,FULLY_SHARED_SIDECAR_1-16-1-1,2,target-1,memory,0.00298309326171875
2022-03-31T19:31:13.241Z,FULLY_SHARED_SIDECAR_1-16-1-1,2,target-1,memory,0.00298309326171875
2022-03-31T19:31:23.241Z,FULLY_SHARED_SIDECAR_1-16-1-1,2,target-1,memory,0.00298309326171875
2022-03-31T19:31:33.242Z,FULLY_SHARED_SIDECAR_1-16-1-1,2,target-1,memory,0.00298309326171875
2022-03-31T19:31:43.242Z,FULLY_SHARED_SIDECAR_1-16-1-1,2,target-1,memory,0.00298309326171875
2022-03-31T19:31:53.241Z,FULLY_SHARED_SIDECAR_1-16-1-1,2,target-1,memory,0.00298309326171875
2022-03-31T19:32:03.242Z,FULLY_SHARED_SIDECAR_1-16-1-1,2,target-1,memory,0.00298309326171875
2022-03-31T19:32:13.241Z,FULLY_SHARED_SIDECAR_1-16-1-1,2,target-1,memory,0.00298309326171875
2022-03-31T19:32:23.242Z,FULLY_SHARED_SIDECAR_1-16-1-1,2,target-1,memory,0.00298309326171875
2022-03-31T19:32:33.241Z,FULLY_SHARED_SIDECAR_1-16-1-1,2,target-1,memory,0.00298309326171875
2022-03-31T19:32:43.241Z,FULLY_SHARED_SIDECAR_1-16-1-1,2,target-1,memory,0.00298309326171875
2022-03-31T19:32:53.242Z,FULLY_SHARED_SIDECAR_1-16-1-1,2,target-1,memory,0.00298309326171875
2022-03-31T19:33:03.242Z,FULLY_SHARED_SIDECAR_1-16-1-1,2,target-1,memory,0.00298309326171875
2022-03-31T19:33:13.241Z,FULLY_SHARED_SIDECAR_1-16-1-1,2,target-1,memory,0.00298309326171875
2022-03-31T19:33:23.242Z,FULLY_SHARED_SIDECAR_1-16-1-1,2,target-1,memory,0.00298309326171875
2022-03-31T19:33:33.241Z,FULLY_SHARED_SIDECAR_1-16-1-1,2,target-1,memory,0.00298309326171875
2022-03-31T19:33:43.242Z,FULLY_SHARED_SIDECAR_1-16-1-1,2,target-1,memory,0.00298309326171875
2022-03-31T19:33:53.241Z,FULLY_SHARED_SIDECAR_1-16-1-1,2,target-1,memory,0.00298309326171875
2022-03-31T19:34:03.242Z,FULLY_SHARED_SIDECAR_1-16-1-1,2,target-1,memory,0.00298309326171875
2022-03-31T19:34:13.241Z,FULLY_SHARED_SIDECAR_1-16-1-1,2,target-1,memory,0.00298309326171875
2022-03-31T19:34:23.241Z,FULLY_SHARED_SIDECAR_1-16-1-1,2,target-1,memory,0.00298309326171875
2022-03-31T19:34:33.241Z,FULLY_SHARED_SIDECAR_1-16-1-1,2,target-1,memory,0.00298309326171875
2022-03-31T19:34:43.241Z,FULLY_SHARED_SIDECAR_1-16-1-1,2,target-1,memory,0.00298309326171875
2022-03-31T19:34:53.242Z,FULLY_SHARED_SIDECAR_1-16-1-1,2,target-1,memory,0.00298309326171875
2022-03-31T19:35:03.242Z,FULLY_SHARED_SIDECAR_1-16-1-1,2,target-1,memory,0.00298309326171875
2022-03-31T19:35:13.241Z,FULLY_SHARED_SIDECAR_1-16-1-1,2,target-1,memory,0.00298309326171875
2022-03-31T19:35:23.242Z,FULLY_SHARED_SIDECAR_1-16-1-1,2,target-1,memory,0.00298309326171875
2022-03-31T19:35:33.241Z,FULLY_SHARED_SIDECAR_1-16-1-1,2,target-1,memory,0.00298309326171875
2022-03-31T19:35:43.242Z,FULLY_SHARED_SIDECAR_1-16-1-1,2,target-1,memory,0.00298309326171875
2022-03-31T19:35:53.241Z,FULLY_SHARED_SIDECAR_1-16-1-1,2,target-1,memory,0.00298309326171875
2022-03-31T19:36:03.241Z,FULLY_SHARED_SIDECAR_1-16-1-1,2,target-1,memory,0.00298309326171875
2022-03-31T19:36:13.242Z,FULLY_SHARED_SIDECAR_1-16-1-1,2,target-1,memory,0.00298309326171875
2022-03-31T19:36:23.241Z,FULLY_SHARED_SIDECAR_1-16-1-1,2,target-1,memory,0.00298309326171875
2022-03-31T19:36:33.242Z,FULLY_SHARED_SIDECAR_1-16-1-1,2,target-1,memory,0.00298309326171875
2022-03-31T19:36:43.241Z,FULLY_SHARED_SIDECAR_1-16-1-1,2,target-1,memory,0.00298309326171875
2022-03-31T19:36:53.242Z,FULLY_SHARED_SIDECAR_1-16-1-1,2,target-1,memory,0.00298309326171875
2022-03-31T19:37:03.241Z,FULLY_SHARED_SIDECAR_1-16-1-1,2,target-1,memory,0.00298309326171875
2022-03-31T19:37:13.241Z,FULLY_SHARED_SIDECAR_1-16-1-1,2,target-1,memory,0.00298309326171875
2022-03-31T19:37:23.241Z,FULLY_SHARED_SIDECAR_1-16-1-1,2,target-1,memory,0.00298309326171875
2022-03-31T19:37:33.242Z,FULLY_SHARED_SIDECAR_1-16-1-1,2,target-1,memory,0.00298309326171875
2022-03-31T19:37:43.242Z,FULLY_SHARED_SIDECAR_1-16-1-1,2,target-1,memory,0.00298309326171875
2022-03-31T19:37:53.242Z,FULLY_SHARED_SIDECAR_1-16-1-1,2,target-1,memory,0.00298309326171875
2022-03-31T19:38:03.242Z,FULLY_SHARED_SIDECAR_1-16-1-1,2,target-1,memory,0.00298309326171875
2022-03-31T19:38:13.242Z,FULLY_SHARED_SIDECAR_1-16-1-1,2,target-1,memory,0.00298309326171875
2022-03-31T19:38:23.242Z,FULLY_SHARED_SIDECAR_1-16-1-1,2,target-1,memory,0.00298309326171875
2022-03-31T19:38:33.242Z,FULLY_SHARED_SIDECAR_1-16-1-1,2,target-1,memory,0.00298309326171875
2022-03-31T19:38:43.242Z,FULLY_SHARED_SIDECAR_1-16-1-1,2,target-1,memory,0.00298309326171875
2022-03-31T19:38:53.241Z,FULLY_SHARED_SIDECAR_1-16-1-1,2,target-1,memory,0.00298309326171875
2022-03-31T19:39:03.241Z,FULLY_SHARED_SIDECAR_1-16-1-1,2,target-1,memory,0.00298309326171875
2022-03-31T19:39:13.241Z,FULLY_SHARED_SIDECAR_1-16-1-1,2,target-1,memory,0.00298309326171875
2022-03-31T19:39:23.241Z,FULLY_SHARED_SIDECAR_1-16-1-1,2,target-1,memory,0.00298309326171875
2022-03-31T19:39:33.242Z,FULLY_SHARED_SIDECAR_1-16-1-1,2,target-1,memory,0.00298309326171875
2022-03-31T19:39:43.241Z,FULLY_SHARED_SIDECAR_1-16-1-1,2,target-1,memory,0.00298309326171875
2022-03-31T19:39:53.242Z,FULLY_SHARED_SIDECAR_1-16-1-1,2,target-1,memory,0.00298309326171875
2022-03-31T19:40:03.241Z,FULLY_SHARED_SIDECAR_1-16-1-1,2,target-1,memory,0.00298309326171875
2022-03-31T19:40:13.241Z,FULLY_SHARED_SIDECAR_1-16-1-1,2,target-1,memory,0.00298309326171875
2022-03-31T19:40:23.241Z,FULLY_SHARED_SIDECAR_1-16-1-1,2,target-1,memory,0.00298309326171875
2022-03-31T19:40:33.241Z,FULLY_SHARED_SIDECAR_1-16-1-1,2,target-1,memory,0.00298309326171875
2022-03-31T19:40:43.241Z,FULLY_SHARED_SIDECAR_1-16-1-1,2,target-1,memory,0.00298309326171875
2022-03-31T19:40:53.241Z,FULLY_SHARED_SIDECAR_1-16-1-1,2,target-1,memory,0.00298309326171875
2022-03-31T19:41:10.312Z,FULLY_SHARED_SIDECAR_1-16-1-1,3,target-1,memory,0.00298309326171875
2022-03-31T19:41:20.311Z,FULLY_SHARED_SIDECAR_1-16-1-1,3,target-1,memory,0.00298309326171875
2022-03-31T19:41:30.315Z,FULLY_SHARED_SIDECAR_1-16-1-1,3,target-1,memory,0.00298309326171875
2022-03-31T19:41:40.311Z,FULLY_SHARED_SIDECAR_1-16-1-1,3,target-1,memory,0.00298309326171875
2022-03-31T19:41:50.311Z,FULLY_SHARED_SIDECAR_1-16-1-1,3,target-1,memory,0.00298309326171875
2022-03-31T19:42:00.311Z,FULLY_SHARED_SIDECAR_1-16-1-1,3,target-1,memory,0.00298309326171875
2022-03-31T19:42:10.311Z,FULLY_SHARED_SIDECAR_1-16-1-1,3,target-1,memory,0.00298309326171875
2022-03-31T19:42:20.311Z,FULLY_SHARED_SIDECAR_1-16-1-1,3,target-1,memory,0.00298309326171875
2022-03-31T19:42:30.311Z,FULLY_SHARED_SIDECAR_1-16-1-1,3,target-1,memory,0.00298309326171875
2022-03-31T19:42:40.312Z,FULLY_SHARED_SIDECAR_1-16-1-1,3,target-1,memory,0.00298309326171875
2022-03-31T19:42:50.312Z,FULLY_SHARED_SIDECAR_1-16-1-1,3,target-1,memory,0.00298309326171875
2022-03-31T19:43:00.311Z,FULLY_SHARED_SIDECAR_1-16-1-1,3,target-1,memory,0.00298309326171875
2022-03-31T19:43:10.311Z,FULLY_SHARED_SIDECAR_1-16-1-1,3,target-1,memory,0.00298309326171875
2022-03-31T19:43:20.311Z,FULLY_SHARED_SIDECAR_1-16-1-1,3,target-1,memory,0.00298309326171875
2022-03-31T19:43:30.311Z,FULLY_SHARED_SIDECAR_1-16-1-1,3,target-1,memory,0.00298309326171875
2022-03-31T19:43:40.311Z,FULLY_SHARED_SIDECAR_1-16-1-1,3,target-1,memory,0.00298309326171875
2022-03-31T19:43:50.311Z,FULLY_SHARED_SIDECAR_1-16-1-1,3,target-1,memory,0.00298309326171875
2022-03-31T19:44:00.311Z,FULLY_SHARED_SIDECAR_1-16-1-1,3,target-1,memory,0.00298309326171875
2022-03-31T19:44:10.311Z,FULLY_SHARED_SIDECAR_1-16-1-1,3,target-1,memory,0.00298309326171875
2022-03-31T19:44:20.311Z,FULLY_SHARED_SIDECAR_1-16-1-1,3,target-1,memory,0.00298309326171875
2022-03-31T19:44:30.311Z,FULLY_SHARED_SIDECAR_1-16-1-1,3,target-1,memory,0.00298309326171875
2022-03-31T19:44:40.312Z,FULLY_SHARED_SIDECAR_1-16-1-1,3,target-1,memory,0.00298309326171875
2022-03-31T19:44:50.311Z,FULLY_SHARED_SIDECAR_1-16-1-1,3,target-1,memory,0.00298309326171875
2022-03-31T19:45:00.312Z,FULLY_SHARED_SIDECAR_1-16-1-1,3,target-1,memory,0.00298309326171875
2022-03-31T19:45:10.311Z,FULLY_SHARED_SIDECAR_1-16-1-1,3,target-1,memory,0.00298309326171875
2022-03-31T19:45:20.311Z,FULLY_SHARED_SIDECAR_1-16-1-1,3,target-1,memory,0.00298309326171875
2022-03-31T19:45:30.311Z,FULLY_SHARED_SIDECAR_1-16-1-1,3,target-1,memory,0.00298309326171875
2022-03-31T19:45:40.311Z,FULLY_SHARED_SIDECAR_1-16-1-1,3,target-1,memory,0.00298309326171875
2022-03-31T19:45:50.312Z,FULLY_SHARED_SIDECAR_1-16-1-1,3,target-1,memory,0.00298309326171875
2022-03-31T19:46:00.311Z,FULLY_SHARED_SIDECAR_1-16-1-1,3,target-1,memory,0.00298309326171875
2022-03-31T19:46:10.311Z,FULLY_SHARED_SIDECAR_1-16-1-1,3,target-1,memory,0.00298309326171875
2022-03-31T19:46:20.311Z,FULLY_SHARED_SIDECAR_1-16-1-1,3,target-1,memory,0.00298309326171875
2022-03-31T19:46:30.312Z,FULLY_SHARED_SIDECAR_1-16-1-1,3,target-1,memory,0.00298309326171875
2022-03-31T19:46:40.311Z,FULLY_SHARED_SIDECAR_1-16-1-1,3,target-1,memory,0.00298309326171875
2022-03-31T19:46:50.311Z,FULLY_SHARED_SIDECAR_1-16-1-1,3,target-1,memory,0.00298309326171875
2022-03-31T19:47:00.311Z,FULLY_SHARED_SIDECAR_1-16-1-1,3,target-1,memory,0.00298309326171875
2022-03-31T19:47:10.311Z,FULLY_SHARED_SIDECAR_1-16-1-1,3,target-1,memory,0.00298309326171875
2022-03-31T19:47:20.311Z,FULLY_SHARED_SIDECAR_1-16-1-1,3,target-1,memory,0.00298309326171875
2022-03-31T19:47:30.311Z,FULLY_SHARED_SIDECAR_1-16-1-1,3,target-1,memory,0.00298309326171875
2022-03-31T19:47:40.311Z,FULLY_SHARED_SIDECAR_1-16-1-1,3,target-1,memory,0.00298309326171875
2022-03-31T19:47:50.311Z,FULLY_SHARED_SIDECAR_1-16-1-1,3,target-1,memory,0.00298309326171875
2022-03-31T19:48:00.311Z,FULLY_SHARED_SIDECAR_1-16-1-1,3,target-1,memory,0.00298309326171875
2022-03-31T19:48:10.311Z,FULLY_SHARED_SIDECAR_1-16-1-1,3,target-1,memory,0.00298309326171875
2022-03-31T19:48:20.311Z,FULLY_SHARED_SIDECAR_1-16-1-1,3,target-1,memory,0.00298309326171875
2022-03-31T19:48:30.311Z,FULLY_SHARED_SIDECAR_1-16-1-1,3,target-1,memory,0.00298309326171875
2022-03-31T19:48:40.311Z,FULLY_SHARED_SIDECAR_1-16-1-1,3,target-1,memory,0.00298309326171875
2022-03-31T19:48:50.311Z,FULLY_SHARED_SIDECAR_1-16-1-1,3,target-1,memory,0.00298309326171875
2022-03-31T19:49:00.311Z,FULLY_SHARED_SIDECAR_1-16-1-1,3,target-1,memory,0.00298309326171875
2022-03-31T19:49:10.311Z,FULLY_SHARED_SIDECAR_1-16-1-1,3,target-1,memory,0.00298309326171875
2022-03-31T19:49:20.311Z,FULLY_SHARED_SIDECAR_1-16-1-1,3,target-1,memory,0.00298309326171875
2022-03-31T19:49:30.311Z,FULLY_SHARED_SIDECAR_1-16-1-1,3,target-1,memory,0.00298309326171875
2022-03-31T19:49:40.311Z,FULLY_SHARED_SIDECAR_1-16-1-1,3,target-1,memory,0.00298309326171875
2022-03-31T19:49:50.311Z,FULLY_SHARED_SIDECAR_1-16-1-1,3,target-1,memory,0.00298309326171875
2022-03-31T19:50:00.311Z,FULLY_SHARED_SIDECAR_1-16-1-1,3,target-1,memory,0.00298309326171875
2022-03-31T19:50:10.311Z,FULLY_SHARED_SIDECAR_1-16-1-1,3,target-1,memory,0.00298309326171875
2022-03-31T19:50:20.311Z,FULLY_SHARED_SIDECAR_1-16-1-1,3,target-1,memory,0.00298309326171875
2022-03-31T19:50:30.311Z,FULLY_SHARED_SIDECAR_1-16-1-1,3,target-1,memory,0.00298309326171875
2022-03-31T19:50:40.312Z,FULLY_SHARED_SIDECAR_1-16-1-1,3,target-1,memory,0.00298309326171875
2022-03-31T19:50:50.311Z,FULLY_SHARED_SIDECAR_1-16-1-1,3,target-1,memory,0.00298309326171875
2022-03-31T19:51:00.311Z,FULLY_SHARED_SIDECAR_1-16-1-1,3,target-1,memory,0.00298309326171875
