2023-07-20T15:28:45.297Z,adservice,network_in,711584930
2023-07-20T15:28:46.345Z,recommendationservice-2,network_in,344411351
2023-07-20T15:28:46.544Z,shippingservice,network_in,938086082
2023-07-20T15:28:46.560Z,productcatalogservice,network_in,939538833
2023-07-20T15:28:48.052Z,recommendationservice-3,network_in,301449694
2023-07-20T15:28:48.386Z,paymentservice,network_in,469071727
2023-07-20T15:28:49.049Z,recommendationservice-8,network_in,257894418
2023-07-20T15:28:49.840Z,recommendationservice-5,network_in,258243789
2023-07-20T15:28:49.978Z,emailservice,network_in,439699112
2023-07-20T15:28:50.048Z,currencyservice,network_in,468789755
2023-07-20T15:28:50.593Z,recommendationservice-1,network_in,438668338
2023-07-20T15:28:50.974Z,recommendationservice-6,network_in,257989026
2023-07-20T15:28:51.079Z,cartservice,network_in,576794705
2023-07-20T15:28:53.335Z,checkoutservice,network_in,940476599
2023-07-20T15:28:54.325Z,recommendationservice-4,network_in,301359076
2023-07-20T15:28:54.815Z,recommendationservice-7,network_in,258068021
2023-07-20T15:28:55.298Z,adservice,network_in,711593415
2023-07-20T15:28:56.677Z,probe-holder,network_in,371962745
2023-07-20T15:28:56.345Z,recommendationservice-2,network_in,344419810
2023-07-20T15:28:56.545Z,shippingservice,network_in,938091159
2023-07-20T15:28:56.560Z,productcatalogservice,network_in,939543872
2023-07-20T15:28:58.053Z,recommendationservice-3,network_in,301454617
2023-07-20T15:28:58.387Z,paymentservice,network_in,469076125
2023-07-20T15:28:59.049Z,recommendationservice-8,network_in,257908418
2023-07-20T15:28:59.840Z,recommendationservice-5,network_in,258252444
2023-07-20T15:28:59.979Z,emailservice,network_in,439708022
2023-07-20T15:29:00.049Z,currencyservice,network_in,468794127
2023-07-20T15:29:00.593Z,recommendationservice-1,network_in,438678600
2023-07-20T15:29:01.079Z,cartservice,network_in,576800170
2023-07-20T15:29:00.974Z,recommendationservice-6,network_in,257998116
2023-07-20T15:29:03.335Z,checkoutservice,network_in,940485601
2023-07-20T15:29:04.326Z,recommendationservice-4,network_in,301372186
2023-07-20T15:29:04.815Z,recommendationservice-7,network_in,258072868
2023-07-20T15:29:05.298Z,adservice,network_in,711597679
2023-07-20T15:29:06.677Z,probe-holder,network_in,372008657
2023-07-20T15:29:06.345Z,recommendationservice-2,network_in,344424314
2023-07-20T15:29:06.560Z,productcatalogservice,network_in,939552491
2023-07-20T15:29:06.545Z,shippingservice,network_in,938099698
2023-07-20T15:29:08.053Z,recommendationservice-3,network_in,301468206
2023-07-20T15:29:08.387Z,paymentservice,network_in,469084561
2023-07-20T15:29:09.052Z,recommendationservice-8,network_in,257914096
2023-07-20T15:29:09.840Z,recommendationservice-5,network_in,258257359
2023-07-20T15:29:09.979Z,emailservice,network_in,439712791
2023-07-20T15:29:10.049Z,currencyservice,network_in,468802134
2023-07-20T15:29:10.593Z,recommendationservice-1,network_in,438688091
2023-07-20T15:29:11.079Z,cartservice,network_in,576809479
2023-07-20T15:29:10.974Z,recommendationservice-6,network_in,258006782
2023-07-20T15:29:13.336Z,checkoutservice,network_in,940494603
2023-07-20T15:29:14.325Z,recommendationservice-4,network_in,301380431
2023-07-20T15:29:14.815Z,recommendationservice-7,network_in,258081526
2023-07-20T15:29:15.299Z,adservice,network_in,711605602
2023-07-20T15:29:16.678Z,probe-holder,network_in,372054713
2023-07-20T15:29:16.345Z,recommendationservice-2,network_in,344437498
2023-07-20T15:29:16.545Z,shippingservice,network_in,938108237
2023-07-20T15:29:16.561Z,productcatalogservice,network_in,939566012
2023-07-20T15:29:18.053Z,recommendationservice-3,network_in,301476934
2023-07-20T15:29:18.387Z,paymentservice,network_in,469092489
2023-07-20T15:29:19.049Z,recommendationservice-8,network_in,257923092
2023-07-20T15:29:19.840Z,recommendationservice-5,network_in,258270944
2023-07-20T15:29:19.979Z,emailservice,network_in,439721219
2023-07-20T15:29:20.048Z,currencyservice,network_in,468814930
2023-07-20T15:29:20.593Z,recommendationservice-1,network_in,438697161
2023-07-20T15:29:21.079Z,cartservice,network_in,576818300
2023-07-20T15:29:20.974Z,recommendationservice-6,network_in,258011764
2023-07-20T15:29:23.336Z,checkoutservice,network_in,940504688
2023-07-20T15:29:24.325Z,recommendationservice-4,network_in,301385357
2023-07-20T15:29:24.815Z,recommendationservice-7,network_in,258095047
2023-07-20T15:29:25.298Z,adservice,network_in,711618332
2023-07-20T15:29:26.678Z,probe-holder,network_in,372097084
2023-07-20T15:29:26.345Z,recommendationservice-2,network_in,344445818
2023-07-20T15:29:26.545Z,shippingservice,network_in,938117958
2023-07-20T15:29:26.561Z,productcatalogservice,network_in,939572927
2023-07-20T15:29:28.053Z,recommendationservice-3,network_in,301482272
2023-07-20T15:29:28.387Z,paymentservice,network_in,469096747
2023-07-20T15:29:29.049Z,recommendationservice-8,network_in,257932092
2023-07-20T15:29:29.840Z,recommendationservice-5,network_in,258282139
2023-07-20T15:29:29.979Z,emailservice,network_in,439729642
2023-07-20T15:29:30.048Z,currencyservice,network_in,468819724
2023-07-20T15:29:30.593Z,recommendationservice-1,network_in,438702486
2023-07-20T15:29:31.079Z,cartservice,network_in,576823535
2023-07-20T15:29:30.974Z,recommendationservice-6,network_in,258020493
2023-07-20T15:29:33.335Z,checkoutservice,network_in,940514191
2023-07-20T15:29:34.326Z,recommendationservice-4,network_in,301393535
2023-07-20T15:29:34.815Z,recommendationservice-7,network_in,258100319
2023-07-20T15:29:35.298Z,adservice,network_in,711622554
2023-07-20T15:29:36.678Z,probe-holder,network_in,372148093
2023-07-20T15:29:36.345Z,recommendationservice-2,network_in,344450394
2023-07-20T15:29:36.545Z,shippingservice,network_in,938126501
2023-07-20T15:29:36.560Z,productcatalogservice,network_in,939581965
2023-07-20T15:29:38.053Z,recommendationservice-3,network_in,301491000
2023-07-20T15:29:38.387Z,paymentservice,network_in,469104675
2023-07-20T15:29:39.049Z,recommendationservice-8,network_in,257937350
2023-07-20T15:29:39.841Z,recommendationservice-5,network_in,258287049
2023-07-20T15:29:39.979Z,emailservice,network_in,439734408
2023-07-20T15:29:40.049Z,currencyservice,network_in,468827797
2023-07-20T15:29:40.593Z,recommendationservice-1,network_in,438711559
2023-07-20T15:29:41.079Z,cartservice,network_in,576837189
2023-07-20T15:29:40.975Z,recommendationservice-6,network_in,258029221
2023-07-20T15:29:43.335Z,checkoutservice,network_in,940523122
2023-07-20T15:29:44.326Z,recommendationservice-4,network_in,301401782
2023-07-20T15:29:44.815Z,recommendationservice-7,network_in,258108908
2023-07-20T15:29:45.298Z,adservice,network_in,711630777
2023-07-20T15:29:46.678Z,probe-holder,network_in,372194435
2023-07-20T15:29:46.345Z,recommendationservice-2,network_in,344459449
2023-07-20T15:29:46.545Z,shippingservice,network_in,938135713
2023-07-20T15:29:46.560Z,productcatalogservice,network_in,939590837
2023-07-20T15:29:48.053Z,recommendationservice-3,network_in,301500090
2023-07-20T15:29:48.389Z,paymentservice,network_in,469117711
2023-07-20T15:29:49.049Z,recommendationservice-8,network_in,257946684
2023-07-20T15:29:49.841Z,recommendationservice-5,network_in,258298224
2023-07-20T15:29:49.979Z,emailservice,network_in,439747915
2023-07-20T15:29:50.048Z,currencyservice,network_in,468835996
2023-07-20T15:29:50.593Z,recommendationservice-1,network_in,438720881
2023-07-20T15:29:51.079Z,cartservice,network_in,576846333
2023-07-20T15:29:50.974Z,recommendationservice-6,network_in,258039394
2023-07-20T15:29:53.335Z,checkoutservice,network_in,940528638
2023-07-20T15:29:54.326Z,recommendationservice-4,network_in,301406542
2023-07-20T15:29:54.815Z,recommendationservice-7,network_in,258117812
2023-07-20T15:29:55.298Z,adservice,network_in,711639122
2023-07-20T15:29:56.678Z,probe-holder,network_in,372237042
2023-07-20T15:29:56.345Z,recommendationservice-2,network_in,344464022
2023-07-20T15:29:56.545Z,shippingservice,network_in,938140581
2023-07-20T15:29:56.561Z,productcatalogservice,network_in,939595737
2023-07-20T15:29:58.053Z,recommendationservice-3,network_in,301505012
2023-07-20T15:29:58.387Z,paymentservice,network_in,469121969
2023-07-20T15:29:59.049Z,recommendationservice-8,network_in,257960616
2023-07-20T15:29:59.840Z,recommendationservice-5,network_in,258310859
2023-07-20T15:29:59.979Z,emailservice,network_in,439756760
2023-07-20T15:30:00.049Z,currencyservice,network_in,468840326
2023-07-20T15:30:00.593Z,recommendationservice-1,network_in,438731138
2023-07-20T15:30:01.079Z,cartservice,network_in,576851508
2023-07-20T15:30:00.974Z,recommendationservice-6,network_in,258048550
2023-07-20T15:30:03.336Z,checkoutservice,network_in,940537642
2023-07-20T15:30:04.326Z,recommendationservice-4,network_in,301419789
2023-07-20T15:30:04.815Z,recommendationservice-7,network_in,258122736
2023-07-20T15:30:05.298Z,adservice,network_in,711643344
2023-07-20T15:30:06.678Z,probe-holder,network_in,372282951
2023-07-20T15:30:06.345Z,recommendationservice-2,network_in,344472345
2023-07-20T15:30:06.545Z,shippingservice,network_in,938149125
2023-07-20T15:30:06.560Z,productcatalogservice,network_in,939604357
2023-07-20T15:30:08.053Z,recommendationservice-3,network_in,301518669
2023-07-20T15:30:08.387Z,paymentservice,network_in,469130319
2023-07-20T15:30:09.051Z,recommendationservice-8,network_in,257966298
2023-07-20T15:30:09.841Z,recommendationservice-5,network_in,258316043
2023-07-20T15:30:09.979Z,emailservice,network_in,439761529
2023-07-20T15:30:10.049Z,currencyservice,network_in,468848333
2023-07-20T15:30:10.593Z,recommendationservice-1,network_in,438740637
2023-07-20T15:30:11.079Z,cartservice,network_in,576860757
2023-07-20T15:30:10.974Z,recommendationservice-6,network_in,258057212
2023-07-20T15:30:13.336Z,checkoutservice,network_in,940546555
2023-07-20T15:30:14.325Z,recommendationservice-4,network_in,301427966
2023-07-20T15:30:14.815Z,recommendationservice-7,network_in,258131329
2023-07-20T15:30:15.298Z,adservice,network_in,711651267
2023-07-20T15:30:16.678Z,probe-holder,network_in,372328897
2023-07-20T15:30:16.345Z,recommendationservice-2,network_in,344485528
2023-07-20T15:30:16.545Z,shippingservice,network_in,938157665
2023-07-20T15:30:16.561Z,productcatalogservice,network_in,939617879
2023-07-20T15:30:18.053Z,recommendationservice-3,network_in,301527335
2023-07-20T15:30:18.387Z,paymentservice,network_in,469134577
2023-07-20T15:30:19.049Z,recommendationservice-8,network_in,257975391
2023-07-20T15:30:19.840Z,recommendationservice-5,network_in,258329575
2023-07-20T15:30:19.979Z,emailservice,network_in,439769954
2023-07-20T15:30:20.049Z,currencyservice,network_in,468861171
2023-07-20T15:30:20.593Z,recommendationservice-1,network_in,438749712
2023-07-20T15:30:21.079Z,cartservice,network_in,576869128
2023-07-20T15:30:20.974Z,recommendationservice-6,network_in,258062203
2023-07-20T15:30:23.335Z,checkoutservice,network_in,940556737
2023-07-20T15:30:24.326Z,recommendationservice-4,network_in,301432894
2023-07-20T15:30:24.815Z,recommendationservice-7,network_in,258144850
2023-07-20T15:30:25.298Z,adservice,network_in,711663997
2023-07-20T15:30:26.678Z,probe-holder,network_in,372371138
2023-07-20T15:30:26.345Z,recommendationservice-2,network_in,344490034
2023-07-20T15:30:26.545Z,shippingservice,network_in,938167382
2023-07-20T15:30:26.560Z,productcatalogservice,network_in,939622780
2023-07-20T15:30:28.053Z,recommendationservice-3,network_in,301532682
2023-07-20T15:30:28.387Z,paymentservice,network_in,469142505
2023-07-20T15:30:29.049Z,recommendationservice-8,network_in,257984390
2023-07-20T15:30:29.840Z,recommendationservice-5,network_in,258341271
2023-07-20T15:30:29.979Z,emailservice,network_in,439778377
2023-07-20T15:30:30.049Z,currencyservice,network_in,468865923
2023-07-20T15:30:30.593Z,recommendationservice-1,network_in,438755038
2023-07-20T15:30:31.079Z,cartservice,network_in,576874763
2023-07-20T15:30:30.974Z,recommendationservice-6,network_in,258070863
2023-07-20T15:30:33.336Z,checkoutservice,network_in,940566155
2023-07-20T15:30:34.325Z,recommendationservice-4,network_in,301441075
2023-07-20T15:30:34.815Z,recommendationservice-7,network_in,258150187
2023-07-20T15:30:35.298Z,adservice,network_in,711668261
2023-07-20T15:30:36.678Z,probe-holder,network_in,372422096
2023-07-20T15:30:36.345Z,recommendationservice-2,network_in,344498353
2023-07-20T15:30:36.545Z,shippingservice,network_in,938175924
2023-07-20T15:30:36.560Z,productcatalogservice,network_in,939631819
2023-07-20T15:30:38.053Z,recommendationservice-3,network_in,301541493
2023-07-20T15:30:38.387Z,paymentservice,network_in,469150433
2023-07-20T15:30:39.049Z,recommendationservice-8,network_in,257989646
2023-07-20T15:30:39.841Z,recommendationservice-5,network_in,258346186
2023-07-20T15:30:39.979Z,emailservice,network_in,439783144
2023-07-20T15:30:40.049Z,currencyservice,network_in,468873930
2023-07-20T15:30:40.593Z,recommendationservice-1,network_in,438764107
2023-07-20T15:30:41.079Z,cartservice,network_in,576888407
2023-07-20T15:30:40.974Z,recommendationservice-6,network_in,258079593
2023-07-20T15:30:43.335Z,checkoutservice,network_in,940575024
2023-07-20T15:30:44.326Z,recommendationservice-4,network_in,301449319
2023-07-20T15:30:44.815Z,recommendationservice-7,network_in,258158776
2023-07-20T15:30:45.298Z,adservice,network_in,711676184
2023-07-20T15:30:46.678Z,probe-holder,network_in,372468473
2023-07-20T15:30:46.345Z,recommendationservice-2,network_in,344507022
2023-07-20T15:30:46.545Z,shippingservice,network_in,938184953
2023-07-20T15:30:46.560Z,productcatalogservice,network_in,939640436
2023-07-20T15:30:48.053Z,recommendationservice-3,network_in,301546409
2023-07-20T15:30:48.387Z,paymentservice,network_in,469159541
2023-07-20T15:30:49.049Z,recommendationservice-8,network_in,257998642
2023-07-20T15:30:49.840Z,recommendationservice-5,network_in,258358589
2023-07-20T15:30:49.979Z,emailservice,network_in,439796399
2023-07-20T15:30:50.049Z,currencyservice,network_in,468881871
2023-07-20T15:30:50.593Z,recommendationservice-1,network_in,438773180
2023-07-20T15:30:51.079Z,cartservice,network_in,576893644
2023-07-20T15:30:50.974Z,recommendationservice-6,network_in,258089443
2023-07-20T15:30:53.335Z,checkoutservice,network_in,940580387
2023-07-20T15:30:54.325Z,recommendationservice-4,network_in,301453826
2023-07-20T15:30:54.815Z,recommendationservice-7,network_in,258167366
2023-07-20T15:30:55.298Z,adservice,network_in,711684529
2023-07-20T15:30:56.678Z,probe-holder,network_in,372510830
2023-07-20T15:30:56.345Z,recommendationservice-2,network_in,344511532
2023-07-20T15:30:56.545Z,shippingservice,network_in,938189815
2023-07-20T15:30:56.560Z,productcatalogservice,network_in,939645333
2023-07-20T15:30:58.053Z,recommendationservice-3,network_in,301555137
2023-07-20T15:30:58.387Z,paymentservice,network_in,469167469
2023-07-20T15:30:59.049Z,recommendationservice-8,network_in,258012570
2023-07-20T15:30:59.840Z,recommendationservice-5,network_in,258363520
2023-07-20T15:30:59.979Z,emailservice,network_in,439805330
2023-07-20T15:31:00.049Z,currencyservice,network_in,468886243
2023-07-20T15:31:00.593Z,recommendationservice-1,network_in,438783439
2023-07-20T15:31:01.079Z,cartservice,network_in,576902531
2023-07-20T15:31:00.974Z,recommendationservice-6,network_in,258098525
2023-07-20T15:31:03.335Z,checkoutservice,network_in,940589385
2023-07-20T15:31:04.326Z,recommendationservice-4,network_in,301466932
2023-07-20T15:31:04.815Z,recommendationservice-7,network_in,258172221
2023-07-20T15:31:05.298Z,adservice,network_in,711688751
2023-07-20T15:31:06.678Z,probe-holder,network_in,372556808
2023-07-20T15:31:06.345Z,recommendationservice-2,network_in,344519786
2023-07-20T15:31:06.545Z,shippingservice,network_in,938198355
2023-07-20T15:31:06.560Z,productcatalogservice,network_in,939653952
2023-07-20T15:31:08.053Z,recommendationservice-3,network_in,301568726
2023-07-20T15:31:08.390Z,paymentservice,network_in,469175905
2023-07-20T15:31:09.049Z,recommendationservice-8,network_in,258018251
2023-07-20T15:31:09.841Z,recommendationservice-5,network_in,258372113
2023-07-20T15:31:09.979Z,emailservice,network_in,439810097
2023-07-20T15:31:10.049Z,currencyservice,network_in,468894250
2023-07-20T15:31:10.593Z,recommendationservice-1,network_in,438792935
2023-07-20T15:31:11.079Z,cartservice,network_in,576911775
2023-07-20T15:31:10.974Z,recommendationservice-6,network_in,258107189
2023-07-20T15:31:13.335Z,checkoutservice,network_in,940598255
2023-07-20T15:31:14.325Z,recommendationservice-4,network_in,301475179
2023-07-20T15:31:14.815Z,recommendationservice-7,network_in,258180812
2023-07-20T15:31:15.298Z,adservice,network_in,711696782
2023-07-20T15:31:16.678Z,probe-holder,network_in,372602740
2023-07-20T15:31:16.345Z,recommendationservice-2,network_in,344533032
2023-07-20T15:31:16.546Z,shippingservice,network_in,938206896
2023-07-20T15:31:16.561Z,productcatalogservice,network_in,939667540
2023-07-20T15:31:18.053Z,recommendationservice-3,network_in,301573648
2023-07-20T15:31:18.387Z,paymentservice,network_in,469180163
2023-07-20T15:31:19.049Z,recommendationservice-8,network_in,258027248
2023-07-20T15:31:19.841Z,recommendationservice-5,network_in,258385637
2023-07-20T15:31:19.979Z,emailservice,network_in,439818524
2023-07-20T15:31:20.049Z,currencyservice,network_in,468903435
2023-07-20T15:31:20.593Z,recommendationservice-1,network_in,438802007
2023-07-20T15:31:21.079Z,cartservice,network_in,576916948
2023-07-20T15:31:20.974Z,recommendationservice-6,network_in,258112176
2023-07-20T15:31:23.335Z,checkoutservice,network_in,940608440
2023-07-20T15:31:24.326Z,recommendationservice-4,network_in,301480104
2023-07-20T15:31:24.815Z,recommendationservice-7,network_in,258194333
2023-07-20T15:31:25.298Z,adservice,network_in,711709512
2023-07-20T15:31:26.678Z,probe-holder,network_in,372645004
2023-07-20T15:31:26.345Z,recommendationservice-2,network_in,344537542
2023-07-20T15:31:26.545Z,shippingservice,network_in,938216625
2023-07-20T15:31:26.560Z,productcatalogservice,network_in,939672438
2023-07-20T15:31:28.053Z,recommendationservice-3,network_in,301582733
2023-07-20T15:31:28.387Z,paymentservice,network_in,469188091
2023-07-20T15:31:29.049Z,recommendationservice-8,network_in,258036254
2023-07-20T15:31:29.840Z,recommendationservice-5,network_in,258393088
2023-07-20T15:31:29.979Z,emailservice,network_in,439827035
2023-07-20T15:31:30.049Z,currencyservice,network_in,468911906
2023-07-20T15:31:30.593Z,recommendationservice-1,network_in,438807340
2023-07-20T15:31:31.079Z,cartservice,network_in,576925770
2023-07-20T15:31:30.974Z,recommendationservice-6,network_in,258120906
2023-07-20T15:31:33.336Z,checkoutservice,network_in,940617864
2023-07-20T15:31:34.325Z,recommendationservice-4,network_in,301488286
2023-07-20T15:31:34.815Z,recommendationservice-7,network_in,258199604
2023-07-20T15:31:35.298Z,adservice,network_in,711714167
2023-07-20T15:31:36.678Z,probe-holder,network_in,372695860
2023-07-20T15:31:36.345Z,recommendationservice-2,network_in,344545854
2023-07-20T15:31:36.560Z,productcatalogservice,network_in,939681483
2023-07-20T15:31:36.545Z,shippingservice,network_in,938225166
2023-07-20T15:31:38.053Z,recommendationservice-3,network_in,301591396
2023-07-20T15:31:38.387Z,paymentservice,network_in,469196019
2023-07-20T15:31:39.049Z,recommendationservice-8,network_in,258041511
2023-07-20T15:31:39.840Z,recommendationservice-5,network_in,258406244
2023-07-20T15:31:39.979Z,emailservice,network_in,439831802
2023-07-20T15:31:40.048Z,currencyservice,network_in,468919913
2023-07-20T15:31:40.593Z,recommendationservice-1,network_in,438816415
2023-07-20T15:31:41.079Z,cartservice,network_in,576939484
2023-07-20T15:31:40.974Z,recommendationservice-6,network_in,258125898
2023-07-20T15:31:43.336Z,checkoutservice,network_in,940626778
2023-07-20T15:31:44.325Z,recommendationservice-4,network_in,301496531
2023-07-20T15:31:44.815Z,recommendationservice-7,network_in,258208199
2023-07-20T15:31:45.298Z,adservice,network_in,711722156
2023-07-20T15:31:46.678Z,probe-holder,network_in,372742201
2023-07-20T15:31:46.345Z,recommendationservice-2,network_in,344554528
2023-07-20T15:31:46.545Z,shippingservice,network_in,938234192
2023-07-20T15:31:46.560Z,productcatalogservice,network_in,939690104
2023-07-20T15:31:48.053Z,recommendationservice-3,network_in,301596314
2023-07-20T15:31:48.387Z,paymentservice,network_in,469205127
2023-07-20T15:31:49.049Z,recommendationservice-8,network_in,258050511
2023-07-20T15:31:49.841Z,recommendationservice-5,network_in,258416764
2023-07-20T15:31:49.979Z,emailservice,network_in,439845073
2023-07-20T15:31:50.049Z,currencyservice,network_in,468924177
2023-07-20T15:31:50.593Z,recommendationservice-1,network_in,438825491
2023-07-20T15:31:51.079Z,cartservice,network_in,576944655
2023-07-20T15:31:50.974Z,recommendationservice-6,network_in,258139485
2023-07-20T15:31:53.335Z,checkoutservice,network_in,940632113
2023-07-20T15:31:54.326Z,recommendationservice-4,network_in,301501097
2023-07-20T15:31:54.815Z,recommendationservice-7,network_in,258216794
2023-07-20T15:31:55.298Z,adservice,network_in,711730181
2023-07-20T15:31:56.678Z,probe-holder,network_in,372784516
2023-07-20T15:31:56.345Z,recommendationservice-2,network_in,344559041
2023-07-20T15:31:56.560Z,productcatalogservice,network_in,939695002
2023-07-20T15:31:56.545Z,shippingservice,network_in,938239058
2023-07-20T15:31:58.053Z,recommendationservice-3,network_in,301604983
2023-07-20T15:31:58.387Z,paymentservice,network_in,469213055
2023-07-20T15:31:59.051Z,recommendationservice-8,network_in,258064447
2023-07-20T15:31:59.841Z,recommendationservice-5,network_in,258421801
2023-07-20T15:31:59.979Z,emailservice,network_in,439853912
2023-07-20T15:32:00.049Z,currencyservice,network_in,468932184
2023-07-20T15:32:00.593Z,recommendationservice-1,network_in,438835752
2023-07-20T15:32:01.079Z,cartservice,network_in,576953473
2023-07-20T15:32:00.974Z,recommendationservice-6,network_in,258149073
2023-07-20T15:32:03.336Z,checkoutservice,network_in,940641118
2023-07-20T15:32:04.326Z,recommendationservice-4,network_in,301514207
2023-07-20T15:32:04.815Z,recommendationservice-7,network_in,258221709
2023-07-20T15:32:05.298Z,adservice,network_in,711734765
2023-07-20T15:32:06.678Z,probe-holder,network_in,372830483
2023-07-20T15:32:06.345Z,recommendationservice-2,network_in,344567377
2023-07-20T15:32:06.545Z,shippingservice,network_in,938247594
2023-07-20T15:32:06.561Z,productcatalogservice,network_in,939703624
2023-07-20T15:32:08.053Z,recommendationservice-3,network_in,301618574
2023-07-20T15:32:08.387Z,paymentservice,network_in,469221471
2023-07-20T15:32:09.052Z,recommendationservice-8,network_in,258070125
2023-07-20T15:32:09.840Z,recommendationservice-5,network_in,258430461
2023-07-20T15:32:09.979Z,emailservice,network_in,439858749
2023-07-20T15:32:10.049Z,currencyservice,network_in,468940191
2023-07-20T15:32:10.593Z,recommendationservice-1,network_in,438845249
2023-07-20T15:32:11.079Z,cartservice,network_in,576962719
2023-07-20T15:32:10.974Z,recommendationservice-6,network_in,258154058
2023-07-20T15:32:13.335Z,checkoutservice,network_in,940646308
2023-07-20T15:32:14.326Z,recommendationservice-4,network_in,301518713
2023-07-20T15:32:14.815Z,recommendationservice-7,network_in,258230303
2023-07-20T15:32:15.298Z,adservice,network_in,711742688
2023-07-20T15:32:16.677Z,probe-holder,network_in,372876464
2023-07-20T15:32:16.345Z,recommendationservice-2,network_in,344580560
2023-07-20T15:32:16.561Z,productcatalogservice,network_in,939717144
2023-07-20T15:32:16.545Z,shippingservice,network_in,938256139
2023-07-20T15:32:18.053Z,recommendationservice-3,network_in,301623558
2023-07-20T15:32:18.387Z,paymentservice,network_in,469225729
2023-07-20T15:32:19.049Z,recommendationservice-8,network_in,258079128
2023-07-20T15:32:19.840Z,recommendationservice-5,network_in,258443980
2023-07-20T15:32:19.979Z,emailservice,network_in,439867188
2023-07-20T15:32:20.049Z,currencyservice,network_in,468949352
2023-07-20T15:32:20.593Z,recommendationservice-1,network_in,438854326
2023-07-20T15:32:21.079Z,cartservice,network_in,576967897
2023-07-20T15:32:20.974Z,recommendationservice-6,network_in,258162725
2023-07-20T15:32:23.336Z,checkoutservice,network_in,940660219
2023-07-20T15:32:24.325Z,recommendationservice-4,network_in,301527315
2023-07-20T15:32:24.815Z,recommendationservice-7,network_in,258243976
2023-07-20T15:32:25.298Z,adservice,network_in,711751783
2023-07-20T15:32:26.678Z,probe-holder,network_in,372918696
2023-07-20T15:32:26.345Z,recommendationservice-2,network_in,344585133
2023-07-20T15:32:26.545Z,shippingservice,network_in,938265944
2023-07-20T15:32:26.561Z,productcatalogservice,network_in,939722044
2023-07-20T15:32:28.053Z,recommendationservice-3,network_in,301632648
2023-07-20T15:32:28.387Z,paymentservice,network_in,469233657
2023-07-20T15:32:29.049Z,recommendationservice-8,network_in,258084387
2023-07-20T15:32:29.840Z,recommendationservice-5,network_in,258451369
2023-07-20T15:32:29.979Z,emailservice,network_in,439875610
2023-07-20T15:32:30.049Z,currencyservice,network_in,468957781
2023-07-20T15:32:30.593Z,recommendationservice-1,network_in,438859656
2023-07-20T15:32:31.079Z,cartservice,network_in,576976715
2023-07-20T15:32:30.974Z,recommendationservice-6,network_in,258171461
2023-07-20T15:32:33.335Z,checkoutservice,network_in,940669641
2023-07-20T15:32:34.326Z,recommendationservice-4,network_in,301535500
2023-07-20T15:32:34.815Z,recommendationservice-7,network_in,258249340
2023-07-20T15:32:35.298Z,adservice,network_in,711759640
2023-07-20T15:32:36.678Z,probe-holder,network_in,372969393
2023-07-20T15:32:36.345Z,recommendationservice-2,network_in,344593387
2023-07-20T15:32:36.560Z,productcatalogservice,network_in,939732579
2023-07-20T15:32:36.545Z,shippingservice,network_in,938274482
2023-07-20T15:32:38.053Z,recommendationservice-3,network_in,301641374
2023-07-20T15:32:38.387Z,paymentservice,network_in,469241585
2023-07-20T15:32:39.049Z,recommendationservice-8,network_in,258093380
2023-07-20T15:32:39.840Z,recommendationservice-5,network_in,258462210
2023-07-20T15:32:39.979Z,emailservice,network_in,439880377
2023-07-20T15:32:40.049Z,currencyservice,network_in,468965788
2023-07-20T15:32:40.593Z,recommendationservice-1,network_in,438868727
2023-07-20T15:32:41.079Z,cartservice,network_in,576990536
2023-07-20T15:32:40.975Z,recommendationservice-6,network_in,258176379
2023-07-20T15:32:43.336Z,checkoutservice,network_in,940674830
2023-07-20T15:32:44.325Z,recommendationservice-4,network_in,301539933
2023-07-20T15:32:44.815Z,recommendationservice-7,network_in,258257933
2023-07-20T15:32:45.298Z,adservice,network_in,711767691
2023-07-20T15:32:46.678Z,probe-holder,network_in,373015919
2023-07-20T15:32:46.345Z,recommendationservice-2,network_in,344602066
2023-07-20T15:32:46.545Z,shippingservice,network_in,938283511
2023-07-20T15:32:46.560Z,productcatalogservice,network_in,939741196
2023-07-20T15:32:48.053Z,recommendationservice-3,network_in,301647855
2023-07-20T15:32:48.387Z,paymentservice,network_in,469250759
2023-07-20T15:32:49.049Z,recommendationservice-8,network_in,258102381
2023-07-20T15:32:49.840Z,recommendationservice-5,network_in,258470803
2023-07-20T15:32:49.979Z,emailservice,network_in,439893639
2023-07-20T15:32:50.049Z,currencyservice,network_in,468970052
2023-07-20T15:32:50.593Z,recommendationservice-1,network_in,438877802
2023-07-20T15:32:51.079Z,cartservice,network_in,576995768
2023-07-20T15:32:50.974Z,recommendationservice-6,network_in,258190038
2023-07-20T15:32:53.336Z,checkoutservice,network_in,940683830
2023-07-20T15:32:54.325Z,recommendationservice-4,network_in,301548180
2023-07-20T15:32:54.815Z,recommendationservice-7,network_in,258262852
2023-07-20T15:32:55.298Z,adservice,network_in,711771979
2023-07-20T15:32:56.678Z,probe-holder,network_in,373058158
2023-07-20T15:32:56.345Z,recommendationservice-2,network_in,344606574
2023-07-20T15:32:56.545Z,shippingservice,network_in,938288374
2023-07-20T15:32:56.560Z,productcatalogservice,network_in,939746095
2023-07-20T15:32:58.053Z,recommendationservice-3,network_in,301656524
2023-07-20T15:32:58.387Z,paymentservice,network_in,469258687
2023-07-20T15:32:59.050Z,recommendationservice-8,network_in,258112567
2023-07-20T15:32:59.840Z,recommendationservice-5,network_in,258475654
2023-07-20T15:32:59.979Z,emailservice,network_in,439902486
2023-07-20T15:33:00.049Z,currencyservice,network_in,468978101
2023-07-20T15:33:00.593Z,recommendationservice-1,network_in,438888059
2023-07-20T15:33:01.079Z,cartservice,network_in,577004590
2023-07-20T15:33:00.974Z,recommendationservice-6,network_in,258199189
2023-07-20T15:33:03.335Z,checkoutservice,network_in,940692826
2023-07-20T15:33:04.325Z,recommendationservice-4,network_in,301561292
2023-07-20T15:33:04.815Z,recommendationservice-7,network_in,258271512
2023-07-20T15:33:05.298Z,adservice,network_in,711780258
2023-07-20T15:33:06.678Z,probe-holder,network_in,373104105
2023-07-20T15:33:06.345Z,recommendationservice-2,network_in,344614827
2023-07-20T15:33:06.545Z,shippingservice,network_in,938296982
2023-07-20T15:33:06.560Z,productcatalogservice,network_in,939754713
2023-07-20T15:33:08.053Z,recommendationservice-3,network_in,301670178
2023-07-20T15:33:08.387Z,paymentservice,network_in,469267037
2023-07-20T15:33:09.049Z,recommendationservice-8,network_in,258121989
2023-07-20T15:33:09.840Z,recommendationservice-5,network_in,258484246
2023-07-20T15:33:09.979Z,emailservice,network_in,439907263
2023-07-20T15:33:10.048Z,currencyservice,network_in,468986194
2023-07-20T15:33:10.593Z,recommendationservice-1,network_in,438897556
2023-07-20T15:33:11.079Z,cartservice,network_in,577013840
2023-07-20T15:33:10.974Z,recommendationservice-6,network_in,258204259
2023-07-20T15:33:13.336Z,checkoutservice,network_in,940698063
2023-07-20T15:33:14.325Z,recommendationservice-4,network_in,301565798
2023-07-20T15:33:14.815Z,recommendationservice-7,network_in,258280104
2023-07-20T15:33:15.298Z,adservice,network_in,711788223
2023-07-20T15:33:16.677Z,probe-holder,network_in,373150005
2023-07-20T15:33:16.345Z,recommendationservice-2,network_in,344628005
2023-07-20T15:33:16.545Z,shippingservice,network_in,938305593
2023-07-20T15:33:16.561Z,productcatalogservice,network_in,939768236
2023-07-20T15:33:18.053Z,recommendationservice-3,network_in,301675167
2023-07-20T15:33:18.387Z,paymentservice,network_in,469271295
2023-07-20T15:33:19.049Z,recommendationservice-8,network_in,258130988
2023-07-20T15:33:19.840Z,recommendationservice-5,network_in,258500018
2023-07-20T15:33:19.979Z,emailservice,network_in,439915692
2023-07-20T15:33:20.049Z,currencyservice,network_in,468995313
2023-07-20T15:33:20.593Z,recommendationservice-1,network_in,438906631
2023-07-20T15:33:21.079Z,cartservice,network_in,577019081
2023-07-20T15:33:20.974Z,recommendationservice-6,network_in,258212931
2023-07-20T15:33:23.336Z,checkoutservice,network_in,940711924
2023-07-20T15:33:24.326Z,recommendationservice-4,network_in,301574402
2023-07-20T15:33:24.815Z,recommendationservice-7,network_in,258290317
2023-07-20T15:33:25.298Z,adservice,network_in,711797318
2023-07-20T15:33:26.678Z,probe-holder,network_in,373192461
2023-07-20T15:33:26.345Z,recommendationservice-2,network_in,344632519
2023-07-20T15:33:26.545Z,shippingservice,network_in,938315312
2023-07-20T15:33:26.560Z,productcatalogservice,network_in,939773137
2023-07-20T15:33:28.053Z,recommendationservice-3,network_in,301684252
2023-07-20T15:33:28.387Z,paymentservice,network_in,469279223
2023-07-20T15:33:29.049Z,recommendationservice-8,network_in,258136251
2023-07-20T15:33:29.841Z,recommendationservice-5,network_in,258507535
2023-07-20T15:33:29.979Z,emailservice,network_in,439924182
2023-07-20T15:33:30.049Z,currencyservice,network_in,469003742
2023-07-20T15:33:30.593Z,recommendationservice-1,network_in,438911964
2023-07-20T15:33:31.079Z,cartservice,network_in,577027903
2023-07-20T15:33:30.974Z,recommendationservice-6,network_in,258221595
2023-07-20T15:33:33.336Z,checkoutservice,network_in,940721346
2023-07-20T15:33:34.325Z,recommendationservice-4,network_in,301582648
2023-07-20T15:33:34.815Z,recommendationservice-7,network_in,258299338
2023-07-20T15:33:35.298Z,adservice,network_in,711805175
2023-07-20T15:33:36.678Z,probe-holder,network_in,373243294
2023-07-20T15:33:36.346Z,recommendationservice-2,network_in,344640774
2023-07-20T15:33:36.545Z,shippingservice,network_in,938323921
2023-07-20T15:33:36.560Z,productcatalogservice,network_in,939782178
2023-07-20T15:33:38.053Z,recommendationservice-3,network_in,301693096
2023-07-20T15:33:38.387Z,paymentservice,network_in,469287151
2023-07-20T15:33:39.049Z,recommendationservice-8,network_in,258145257
2023-07-20T15:33:39.840Z,recommendationservice-5,network_in,258516288
2023-07-20T15:33:39.979Z,emailservice,network_in,439928947
2023-07-20T15:33:40.049Z,currencyservice,network_in,469011749
2023-07-20T15:33:40.593Z,recommendationservice-1,network_in,438921037
2023-07-20T15:33:41.079Z,cartservice,network_in,577041548
2023-07-20T15:33:40.974Z,recommendationservice-6,network_in,258226583
2023-07-20T15:33:43.336Z,checkoutservice,network_in,940726541
2023-07-20T15:33:44.325Z,recommendationservice-4,network_in,301587086
2023-07-20T15:33:44.815Z,recommendationservice-7,network_in,258308015
2023-07-20T15:33:45.298Z,adservice,network_in,711813140
2023-07-20T15:33:46.678Z,probe-holder,network_in,373285692
2023-07-20T15:33:46.345Z,recommendationservice-2,network_in,344649444
2023-07-20T15:33:46.545Z,shippingservice,network_in,938329206
2023-07-20T15:33:46.560Z,productcatalogservice,network_in,939787081
2023-07-20T15:33:48.053Z,recommendationservice-3,network_in,301698018
2023-07-20T15:33:48.387Z,paymentservice,network_in,469296259
2023-07-20T15:33:49.049Z,recommendationservice-8,network_in,258154254
2023-07-20T15:33:49.841Z,recommendationservice-5,network_in,258529237
2023-07-20T15:33:49.979Z,emailservice,network_in,439942207
2023-07-20T15:33:50.049Z,currencyservice,network_in,469016055
2023-07-20T15:33:50.593Z,recommendationservice-1,network_in,438930114
2023-07-20T15:33:51.080Z,cartservice,network_in,577046786
2023-07-20T15:33:50.975Z,recommendationservice-6,network_in,258240169
2023-07-20T15:33:53.336Z,checkoutservice,network_in,940735579
2023-07-20T15:33:54.325Z,recommendationservice-4,network_in,301595331
2023-07-20T15:33:54.815Z,recommendationservice-7,network_in,258312867
2023-07-20T15:33:55.298Z,adservice,network_in,711817494
2023-07-20T15:33:56.678Z,probe-holder,network_in,373331952
2023-07-20T15:33:56.345Z,recommendationservice-2,network_in,344653964
2023-07-20T15:33:56.545Z,shippingservice,network_in,938337749
2023-07-20T15:33:56.560Z,productcatalogservice,network_in,939795695
2023-07-20T15:33:58.053Z,recommendationservice-3,network_in,301706681
2023-07-20T15:33:58.387Z,paymentservice,network_in,469304187
2023-07-20T15:33:59.049Z,recommendationservice-8,network_in,258164443
2023-07-20T15:33:59.840Z,recommendationservice-5,network_in,258534083
2023-07-20T15:33:59.979Z,emailservice,network_in,439951054
2023-07-20T15:34:00.049Z,currencyservice,network_in,469024062
2023-07-20T15:34:00.593Z,recommendationservice-1,network_in,438940373
2023-07-20T15:34:01.079Z,cartservice,network_in,577055677
2023-07-20T15:34:00.975Z,recommendationservice-6,network_in,258249257
2023-07-20T15:34:03.336Z,checkoutservice,network_in,940744583
2023-07-20T15:34:04.325Z,recommendationservice-4,network_in,301608508
2023-07-20T15:34:04.816Z,recommendationservice-7,network_in,258321457
2023-07-20T15:34:05.298Z,adservice,network_in,711825773
2023-07-20T15:34:06.678Z,probe-holder,network_in,373378014
2023-07-20T15:34:06.345Z,recommendationservice-2,network_in,344662279
2023-07-20T15:34:06.545Z,shippingservice,network_in,938346284
2023-07-20T15:34:06.560Z,productcatalogservice,network_in,939804316
2023-07-20T15:34:08.053Z,recommendationservice-3,network_in,301720270
2023-07-20T15:34:08.387Z,paymentservice,network_in,469312537
2023-07-20T15:34:09.049Z,recommendationservice-8,network_in,258173865
2023-07-20T15:34:09.840Z,recommendationservice-5,network_in,258542743
2023-07-20T15:34:09.979Z,emailservice,network_in,439955819
2023-07-20T15:34:10.049Z,currencyservice,network_in,469032155
2023-07-20T15:34:10.593Z,recommendationservice-1,network_in,438949866
2023-07-20T15:34:11.079Z,cartservice,network_in,577064982
2023-07-20T15:34:10.974Z,recommendationservice-6,network_in,258254243
2023-07-20T15:34:13.336Z,checkoutservice,network_in,940749773
2023-07-20T15:34:14.325Z,recommendationservice-4,network_in,301613013
2023-07-20T15:34:14.815Z,recommendationservice-7,network_in,258330050
2023-07-20T15:34:15.298Z,adservice,network_in,711833738
2023-07-20T15:34:16.678Z,probe-holder,network_in,373420335
2023-07-20T15:34:16.345Z,recommendationservice-2,network_in,344677039
2023-07-20T15:34:16.545Z,shippingservice,network_in,938351147
2023-07-20T15:34:16.561Z,productcatalogservice,network_in,939814116
2023-07-20T15:34:18.053Z,recommendationservice-3,network_in,301725185
2023-07-20T15:34:18.387Z,paymentservice,network_in,469316795
2023-07-20T15:34:19.049Z,recommendationservice-8,network_in,258182862
2023-07-20T15:34:19.840Z,recommendationservice-5,network_in,258556262
2023-07-20T15:34:19.979Z,emailservice,network_in,439964241
2023-07-20T15:34:20.048Z,currencyservice,network_in,469041274
2023-07-20T15:34:20.593Z,recommendationservice-1,network_in,438958941
2023-07-20T15:34:21.079Z,cartservice,network_in,577070159
2023-07-20T15:34:20.974Z,recommendationservice-6,network_in,258262905
2023-07-20T15:34:23.336Z,checkoutservice,network_in,940763629
2023-07-20T15:34:24.325Z,recommendationservice-4,network_in,301621614
2023-07-20T15:34:24.815Z,recommendationservice-7,network_in,258339833
2023-07-20T15:34:25.298Z,adservice,network_in,711842833
2023-07-20T15:34:26.678Z,probe-holder,network_in,373466277
2023-07-20T15:34:26.345Z,recommendationservice-2,network_in,344681553
2023-07-20T15:34:26.545Z,shippingservice,network_in,938364548
2023-07-20T15:34:26.560Z,productcatalogservice,network_in,939822733
2023-07-20T15:34:28.053Z,recommendationservice-3,network_in,301734361
2023-07-20T15:34:28.387Z,paymentservice,network_in,469324723
2023-07-20T15:34:29.050Z,recommendationservice-8,network_in,258188132
2023-07-20T15:34:29.840Z,recommendationservice-5,network_in,258563782
2023-07-20T15:34:29.979Z,emailservice,network_in,439972662
2023-07-20T15:34:30.049Z,currencyservice,network_in,469049745
2023-07-20T15:34:30.593Z,recommendationservice-1,network_in,438964271
2023-07-20T15:34:31.079Z,cartservice,network_in,577078982
2023-07-20T15:34:30.974Z,recommendationservice-6,network_in,258271636
2023-07-20T15:34:33.336Z,checkoutservice,network_in,940773055
2023-07-20T15:34:34.325Z,recommendationservice-4,network_in,301629799
2023-07-20T15:34:34.815Z,recommendationservice-7,network_in,258348849
2023-07-20T15:34:35.298Z,adservice,network_in,711850690
2023-07-20T15:34:36.678Z,probe-holder,network_in,373517068
2023-07-20T15:34:36.345Z,recommendationservice-2,network_in,344689957
2023-07-20T15:34:36.545Z,shippingservice,network_in,938373086
2023-07-20T15:34:36.560Z,productcatalogservice,network_in,939831775
2023-07-20T15:34:38.053Z,recommendationservice-3,network_in,301743091
2023-07-20T15:34:38.387Z,paymentservice,network_in,469332737
2023-07-20T15:34:39.049Z,recommendationservice-8,network_in,258197132
2023-07-20T15:34:39.841Z,recommendationservice-5,network_in,258572378
2023-07-20T15:34:39.979Z,emailservice,network_in,439977435
2023-07-20T15:34:40.049Z,currencyservice,network_in,469057752
2023-07-20T15:34:40.593Z,recommendationservice-1,network_in,438973347
2023-07-20T15:34:41.079Z,cartservice,network_in,577092628
2023-07-20T15:34:40.974Z,recommendationservice-6,network_in,258276621
2023-07-20T15:34:43.336Z,checkoutservice,network_in,940778250
2023-07-20T15:34:44.326Z,recommendationservice-4,network_in,301634238
2023-07-20T15:34:44.815Z,recommendationservice-7,network_in,258357442
2023-07-20T15:34:45.298Z,adservice,network_in,711858655
2023-07-20T15:34:46.678Z,probe-holder,network_in,373559494
2023-07-20T15:34:46.345Z,recommendationservice-2,network_in,344698632
2023-07-20T15:34:46.545Z,shippingservice,network_in,938378440
2023-07-20T15:34:46.561Z,productcatalogservice,network_in,939836674
2023-07-20T15:34:48.053Z,recommendationservice-3,network_in,301748013
2023-07-20T15:34:48.389Z,paymentservice,network_in,469341845
2023-07-20T15:34:49.049Z,recommendationservice-8,network_in,258206136
2023-07-20T15:34:49.840Z,recommendationservice-5,network_in,258583444
2023-07-20T15:34:49.979Z,emailservice,network_in,439990694
2023-07-20T15:34:50.049Z,currencyservice,network_in,469062016
2023-07-20T15:34:50.593Z,recommendationservice-1,network_in,438982426
2023-07-20T15:34:51.079Z,cartservice,network_in,577097870
2023-07-20T15:34:50.975Z,recommendationservice-6,network_in,258290215
2023-07-20T15:34:53.336Z,checkoutservice,network_in,940787299
2023-07-20T15:34:54.325Z,recommendationservice-4,network_in,301642419
2023-07-20T15:34:54.815Z,recommendationservice-7,network_in,258362290
2023-07-20T15:34:55.298Z,adservice,network_in,711862943
2023-07-20T15:34:56.678Z,probe-holder,network_in,373605950
2023-07-20T15:34:56.345Z,recommendationservice-2,network_in,344703139
2023-07-20T15:34:56.545Z,shippingservice,network_in,938387049
2023-07-20T15:34:56.561Z,productcatalogservice,network_in,939845296
2023-07-20T15:34:58.053Z,recommendationservice-3,network_in,301756684
2023-07-20T15:34:58.389Z,paymentservice,network_in,469349773
2023-07-20T15:34:59.049Z,recommendationservice-8,network_in,258216391
2023-07-20T15:34:59.840Z,recommendationservice-5,network_in,258590320
2023-07-20T15:34:59.979Z,emailservice,network_in,439999540
2023-07-20T15:35:00.049Z,currencyservice,network_in,469070023
2023-07-20T15:35:00.593Z,recommendationservice-1,network_in,438992683
2023-07-20T15:35:01.080Z,cartservice,network_in,577106757
2023-07-20T15:35:00.974Z,recommendationservice-6,network_in,258299372
2023-07-20T15:35:03.336Z,checkoutservice,network_in,940796304
2023-07-20T15:35:04.325Z,recommendationservice-4,network_in,301655601
2023-07-20T15:35:04.815Z,recommendationservice-7,network_in,258370952
2023-07-20T15:35:05.298Z,adservice,network_in,711871222
2023-07-20T15:35:06.678Z,probe-holder,network_in,373652070
2023-07-20T15:35:06.345Z,recommendationservice-2,network_in,344711395
2023-07-20T15:35:06.545Z,shippingservice,network_in,938395589
2023-07-20T15:35:06.561Z,productcatalogservice,network_in,939854000
2023-07-20T15:35:08.053Z,recommendationservice-3,network_in,301770272
2023-07-20T15:35:08.387Z,paymentservice,network_in,469358123
2023-07-20T15:35:09.049Z,recommendationservice-8,network_in,258226250
2023-07-20T15:35:09.841Z,recommendationservice-5,network_in,258598911
2023-07-20T15:35:09.979Z,emailservice,network_in,440004311
2023-07-20T15:35:10.049Z,currencyservice,network_in,469078116
2023-07-20T15:35:10.593Z,recommendationservice-1,network_in,439002183
2023-07-20T15:35:11.079Z,cartservice,network_in,577116003
2023-07-20T15:35:10.975Z,recommendationservice-6,network_in,258304299
2023-07-20T15:35:13.335Z,checkoutservice,network_in,940801499
2023-07-20T15:35:14.326Z,recommendationservice-4,network_in,301660104
2023-07-20T15:35:14.815Z,recommendationservice-7,network_in,258379617
2023-07-20T15:35:15.298Z,adservice,network_in,711879187
2023-07-20T15:35:16.678Z,probe-holder,network_in,373694376
2023-07-20T15:35:16.345Z,recommendationservice-2,network_in,344724578
2023-07-20T15:35:16.561Z,productcatalogservice,network_in,939863801
2023-07-20T15:35:16.545Z,shippingservice,network_in,938400458
2023-07-20T15:35:18.053Z,recommendationservice-3,network_in,301775191
2023-07-20T15:35:18.387Z,paymentservice,network_in,469362381
2023-07-20T15:35:19.049Z,recommendationservice-8,network_in,258235254
2023-07-20T15:35:19.840Z,recommendationservice-5,network_in,258612435
2023-07-20T15:35:19.979Z,emailservice,network_in,440012731
2023-07-20T15:35:20.049Z,currencyservice,network_in,469087277
2023-07-20T15:35:20.593Z,recommendationservice-1,network_in,439007513
2023-07-20T15:35:21.079Z,cartservice,network_in,577121175
2023-07-20T15:35:20.974Z,recommendationservice-6,network_in,258312967
2023-07-20T15:35:23.336Z,checkoutservice,network_in,940815510
2023-07-20T15:35:24.325Z,recommendationservice-4,network_in,301668774
2023-07-20T15:35:24.815Z,recommendationservice-7,network_in,258389393
2023-07-20T15:35:25.298Z,adservice,network_in,711888282
2023-07-20T15:35:26.677Z,probe-holder,network_in,373740278
2023-07-20T15:35:26.345Z,recommendationservice-2,network_in,344729087
2023-07-20T15:35:26.545Z,shippingservice,network_in,938413917
2023-07-20T15:35:26.560Z,productcatalogservice,network_in,939872422
2023-07-20T15:35:28.053Z,recommendationservice-3,network_in,301784278
2023-07-20T15:35:28.387Z,paymentservice,network_in,469370309
2023-07-20T15:35:29.049Z,recommendationservice-8,network_in,258240513
2023-07-20T15:35:29.841Z,recommendationservice-5,network_in,258619891
2023-07-20T15:35:29.979Z,emailservice,network_in,440021157
2023-07-20T15:35:30.049Z,currencyservice,network_in,469095706
2023-07-20T15:35:30.593Z,recommendationservice-1,network_in,439016586
2023-07-20T15:35:31.079Z,cartservice,network_in,577130001
2023-07-20T15:35:30.974Z,recommendationservice-6,network_in,258321632
2023-07-20T15:35:33.335Z,checkoutservice,network_in,940824930
2023-07-20T15:35:34.325Z,recommendationservice-4,network_in,301676956
2023-07-20T15:35:34.815Z,recommendationservice-7,network_in,258398411
2023-07-20T15:35:35.298Z,adservice,network_in,711896139
2023-07-20T15:35:36.678Z,probe-holder,network_in,373791146
2023-07-20T15:35:36.345Z,recommendationservice-2,network_in,344737408
2023-07-20T15:35:36.545Z,shippingservice,network_in,938422462
2023-07-20T15:35:36.561Z,productcatalogservice,network_in,939881464
2023-07-20T15:35:38.053Z,recommendationservice-3,network_in,301792943
2023-07-20T15:35:38.387Z,paymentservice,network_in,469378237
2023-07-20T15:35:39.049Z,recommendationservice-8,network_in,258249586
2023-07-20T15:35:39.840Z,recommendationservice-5,network_in,258630940
2023-07-20T15:35:39.979Z,emailservice,network_in,440025931
2023-07-20T15:35:40.048Z,currencyservice,network_in,469103713
2023-07-20T15:35:40.593Z,recommendationservice-1,network_in,439025666
2023-07-20T15:35:41.079Z,cartservice,network_in,577143649
2023-07-20T15:35:40.974Z,recommendationservice-6,network_in,258326554
2023-07-20T15:35:43.335Z,checkoutservice,network_in,940830127
2023-07-20T15:35:44.325Z,recommendationservice-4,network_in,301681461
2023-07-20T15:35:44.815Z,recommendationservice-7,network_in,258407001
2023-07-20T15:35:45.298Z,adservice,network_in,711904062
2023-07-20T15:35:46.678Z,probe-holder,network_in,373833449
2023-07-20T15:35:46.346Z,recommendationservice-2,network_in,344746145
2023-07-20T15:35:46.545Z,shippingservice,network_in,938427747
2023-07-20T15:35:46.560Z,productcatalogservice,network_in,939888541
2023-07-20T15:35:48.053Z,recommendationservice-3,network_in,301799428
2023-07-20T15:35:48.387Z,paymentservice,network_in,469387345
2023-07-20T15:35:49.049Z,recommendationservice-8,network_in,258258586
2023-07-20T15:35:49.840Z,recommendationservice-5,network_in,258641783
2023-07-20T15:35:49.979Z,emailservice,network_in,440039185
2023-07-20T15:35:50.049Z,currencyservice,network_in,469107977
2023-07-20T15:35:50.593Z,recommendationservice-1,network_in,439030996
2023-07-20T15:35:51.079Z,cartservice,network_in,577148819
2023-07-20T15:35:50.974Z,recommendationservice-6,network_in,258340216
2023-07-20T15:35:53.336Z,checkoutservice,network_in,940839171
2023-07-20T15:35:54.325Z,recommendationservice-4,network_in,301689645
2023-07-20T15:35:54.815Z,recommendationservice-7,network_in,258411941
2023-07-20T15:35:55.298Z,adservice,network_in,711908326
2023-07-20T15:35:56.677Z,probe-holder,network_in,373879643
2023-07-20T15:35:56.345Z,recommendationservice-2,network_in,344750658
2023-07-20T15:35:56.560Z,productcatalogservice,network_in,939897160
2023-07-20T15:35:56.545Z,shippingservice,network_in,938436290
2023-07-20T15:35:58.053Z,recommendationservice-3,network_in,301808097
2023-07-20T15:35:58.387Z,paymentservice,network_in,469395273
2023-07-20T15:35:59.049Z,recommendationservice-8,network_in,258268773
2023-07-20T15:35:59.840Z,recommendationservice-5,network_in,258646630
2023-07-20T15:35:59.979Z,emailservice,network_in,440048116
2023-07-20T15:36:00.049Z,currencyservice,network_in,469116026
2023-07-20T15:36:00.593Z,recommendationservice-1,network_in,439044997
2023-07-20T15:36:01.079Z,cartservice,network_in,577157713
2023-07-20T15:36:00.974Z,recommendationservice-6,network_in,258349368
2023-07-20T15:36:03.335Z,checkoutservice,network_in,940848172
2023-07-20T15:36:04.325Z,recommendationservice-4,network_in,301702820
2023-07-20T15:36:04.817Z,recommendationservice-7,network_in,258420543
2023-07-20T15:36:05.298Z,adservice,network_in,711921325
2023-07-20T15:36:06.678Z,probe-holder,network_in,373925653
2023-07-20T15:36:06.345Z,recommendationservice-2,network_in,344758913
2023-07-20T15:36:06.545Z,shippingservice,network_in,938444897
2023-07-20T15:36:06.560Z,productcatalogservice,network_in,939905775
2023-07-20T15:36:08.053Z,recommendationservice-3,network_in,301821689
2023-07-20T15:36:08.387Z,paymentservice,network_in,469403623
2023-07-20T15:36:09.049Z,recommendationservice-8,network_in,258278197
2023-07-20T15:36:09.846Z,recommendationservice-5,network_in,258655223
2023-07-20T15:36:09.979Z,emailservice,network_in,440052885
2023-07-20T15:36:10.049Z,currencyservice,network_in,469124033
2023-07-20T15:36:10.593Z,recommendationservice-1,network_in,439054492
2023-07-20T15:36:11.079Z,cartservice,network_in,577167021
2023-07-20T15:36:10.974Z,recommendationservice-6,network_in,258354289
2023-07-20T15:36:13.335Z,checkoutservice,network_in,940853367
2023-07-20T15:36:14.325Z,recommendationservice-4,network_in,301707410
2023-07-20T15:36:14.815Z,recommendationservice-7,network_in,258429130
2023-07-20T15:36:15.298Z,adservice,network_in,711947028
2023-07-20T15:36:16.677Z,probe-holder,network_in,373968111
2023-07-20T15:36:16.345Z,recommendationservice-2,network_in,344772092
2023-07-20T15:36:16.545Z,shippingservice,network_in,938449760
2023-07-20T15:36:16.566Z,productcatalogservice,network_in,939915578
2023-07-20T15:36:18.053Z,recommendationservice-3,network_in,301826615
2023-07-20T15:36:18.387Z,paymentservice,network_in,469407881
2023-07-20T15:36:19.049Z,recommendationservice-8,network_in,258287199
2023-07-20T15:36:19.840Z,recommendationservice-5,network_in,258668750
2023-07-20T15:36:19.979Z,emailservice,network_in,440061308
2023-07-20T15:36:20.049Z,currencyservice,network_in,469133152
2023-07-20T15:36:20.593Z,recommendationservice-1,network_in,439059823
2023-07-20T15:36:21.079Z,cartservice,network_in,577172282
2023-07-20T15:36:20.974Z,recommendationservice-6,network_in,258363020
2023-07-20T15:36:23.335Z,checkoutservice,network_in,940867222
2023-07-20T15:36:24.325Z,recommendationservice-4,network_in,301716011
2023-07-20T15:36:24.815Z,recommendationservice-7,network_in,258438914
2023-07-20T15:36:25.299Z,adservice,network_in,711994214
2023-07-20T15:36:26.678Z,probe-holder,network_in,374014002
2023-07-20T15:36:26.345Z,recommendationservice-2,network_in,344776604
2023-07-20T15:36:26.545Z,shippingservice,network_in,938463226
2023-07-20T15:36:26.560Z,productcatalogservice,network_in,939924198
2023-07-20T15:36:28.053Z,recommendationservice-3,network_in,301835714
2023-07-20T15:36:28.387Z,paymentservice,network_in,469415809
2023-07-20T15:36:29.049Z,recommendationservice-8,network_in,258292462
2023-07-20T15:36:29.841Z,recommendationservice-5,network_in,258678403
2023-07-20T15:36:29.979Z,emailservice,network_in,440069737
2023-07-20T15:36:30.049Z,currencyservice,network_in,469141647
2023-07-20T15:36:30.593Z,recommendationservice-1,network_in,439068902
2023-07-20T15:36:31.079Z,cartservice,network_in,577181175
2023-07-20T15:36:30.974Z,recommendationservice-6,network_in,258371761
2023-07-20T15:36:33.335Z,checkoutservice,network_in,940876738
2023-07-20T15:36:34.325Z,recommendationservice-4,network_in,301724262
2023-07-20T15:36:34.815Z,recommendationservice-7,network_in,258447930
2023-07-20T15:36:35.298Z,adservice,network_in,712018956
2023-07-20T15:36:36.678Z,probe-holder,network_in,374064815
2023-07-20T15:36:36.345Z,recommendationservice-2,network_in,344784921
2023-07-20T15:36:36.545Z,shippingservice,network_in,938471771
2023-07-20T15:36:36.560Z,productcatalogservice,network_in,939933246
2023-07-20T15:36:38.053Z,recommendationservice-3,network_in,301844377
2023-07-20T15:36:38.387Z,paymentservice,network_in,469423737
2023-07-20T15:36:39.049Z,recommendationservice-8,network_in,258301463
2023-07-20T15:36:39.840Z,recommendationservice-5,network_in,258688793
2023-07-20T15:36:39.979Z,emailservice,network_in,440074507
2023-07-20T15:36:40.049Z,currencyservice,network_in,469149674
2023-07-20T15:36:40.593Z,recommendationservice-1,network_in,439077980
2023-07-20T15:36:41.079Z,cartservice,network_in,577194887
2023-07-20T15:36:40.974Z,recommendationservice-6,network_in,258376682
2023-07-20T15:36:43.335Z,checkoutservice,network_in,940881939
2023-07-20T15:36:44.325Z,recommendationservice-4,network_in,301728706
2023-07-20T15:36:44.815Z,recommendationservice-7,network_in,258456524
2023-07-20T15:36:45.298Z,adservice,network_in,712044213
2023-07-20T15:36:46.678Z,probe-holder,network_in,374107199
2023-07-20T15:36:46.345Z,recommendationservice-2,network_in,344793598
2023-07-20T15:36:46.545Z,shippingservice,network_in,938477142
2023-07-20T15:36:46.561Z,productcatalogservice,network_in,939938147
2023-07-20T15:36:48.053Z,recommendationservice-3,network_in,301849364
2023-07-20T15:36:48.387Z,paymentservice,network_in,469432845
2023-07-20T15:36:49.049Z,recommendationservice-8,network_in,258310468
2023-07-20T15:36:49.841Z,recommendationservice-5,network_in,258694223
2023-07-20T15:36:49.979Z,emailservice,network_in,440087768
2023-07-20T15:36:50.049Z,currencyservice,network_in,469154046
2023-07-20T15:36:50.593Z,recommendationservice-1,network_in,439083317
2023-07-20T15:36:51.079Z,cartservice,network_in,577200066
2023-07-20T15:36:50.974Z,recommendationservice-6,network_in,258388715
2023-07-20T15:36:53.336Z,checkoutservice,network_in,940890983
2023-07-20T15:36:54.325Z,recommendationservice-4,network_in,301736952
2023-07-20T15:36:54.815Z,recommendationservice-7,network_in,258461376
2023-07-20T15:36:55.298Z,adservice,network_in,712059365
2023-07-20T15:36:56.678Z,probe-holder,network_in,374153481
2023-07-20T15:36:56.345Z,recommendationservice-2,network_in,344798113
2023-07-20T15:36:56.560Z,productcatalogservice,network_in,939946765
2023-07-20T15:36:56.545Z,shippingservice,network_in,938485687
2023-07-20T15:36:58.053Z,recommendationservice-3,network_in,301858041
2023-07-20T15:36:58.387Z,paymentservice,network_in,469440773
2023-07-20T15:36:59.049Z,recommendationservice-8,network_in,258320661
2023-07-20T15:36:59.840Z,recommendationservice-5,network_in,258702815
2023-07-20T15:36:59.979Z,emailservice,network_in,440096675
2023-07-20T15:37:00.049Z,currencyservice,network_in,469162053
2023-07-20T15:37:00.593Z,recommendationservice-1,network_in,439097399
2023-07-20T15:37:01.079Z,cartservice,network_in,577208886
2023-07-20T15:37:00.974Z,recommendationservice-6,network_in,258399379
2023-07-20T15:37:03.336Z,checkoutservice,network_in,940899982
2023-07-20T15:37:04.325Z,recommendationservice-4,network_in,301750128
2023-07-20T15:37:04.815Z,recommendationservice-7,network_in,258469967
2023-07-20T15:37:05.298Z,adservice,network_in,712067710
2023-07-20T15:37:06.677Z,probe-holder,network_in,374199427
2023-07-20T15:37:06.345Z,recommendationservice-2,network_in,344806363
2023-07-20T15:37:06.545Z,shippingservice,network_in,938494221
2023-07-20T15:37:06.560Z,productcatalogservice,network_in,939955386
2023-07-20T15:37:08.053Z,recommendationservice-3,network_in,301871703
2023-07-20T15:37:08.387Z,paymentservice,network_in,469449123
2023-07-20T15:37:09.050Z,recommendationservice-8,network_in,258330080
2023-07-20T15:37:09.840Z,recommendationservice-5,network_in,258711409
2023-07-20T15:37:09.979Z,emailservice,network_in,440101448
2023-07-20T15:37:10.048Z,currencyservice,network_in,469169994
2023-07-20T15:37:10.593Z,recommendationservice-1,network_in,439106895
2023-07-20T15:37:11.080Z,cartservice,network_in,577218192
2023-07-20T15:37:10.974Z,recommendationservice-6,network_in,258404361
2023-07-20T15:37:13.336Z,checkoutservice,network_in,940905170
2023-07-20T15:37:14.326Z,recommendationservice-4,network_in,301754564
2023-07-20T15:37:14.815Z,recommendationservice-7,network_in,258478560
2023-07-20T15:37:15.298Z,adservice,network_in,712075633
2023-07-20T15:37:16.678Z,probe-holder,network_in,374241647
2023-07-20T15:37:16.345Z,recommendationservice-2,network_in,344819546
2023-07-20T15:37:16.545Z,shippingservice,network_in,938499085
2023-07-20T15:37:16.561Z,productcatalogservice,network_in,939965188
2023-07-20T15:37:18.053Z,recommendationservice-3,network_in,301876621
2023-07-20T15:37:18.387Z,paymentservice,network_in,469453381
2023-07-20T15:37:19.049Z,recommendationservice-8,network_in,258339079
2023-07-20T15:37:19.840Z,recommendationservice-5,network_in,258721188
2023-07-20T15:37:19.979Z,emailservice,network_in,440109872
2023-07-20T15:37:20.049Z,currencyservice,network_in,469179245
2023-07-20T15:37:20.593Z,recommendationservice-1,network_in,439112231
2023-07-20T15:37:21.079Z,cartservice,network_in,577223367
2023-07-20T15:37:20.977Z,recommendationservice-6,network_in,258413090
2023-07-20T15:37:23.336Z,checkoutservice,network_in,940919026
2023-07-20T15:37:24.325Z,recommendationservice-4,network_in,301763170
2023-07-20T15:37:24.815Z,recommendationservice-7,network_in,258488403
2023-07-20T15:37:25.298Z,adservice,network_in,712084704
2023-07-20T15:37:26.678Z,probe-holder,network_in,374287458
2023-07-20T15:37:26.345Z,recommendationservice-2,network_in,344824119
2023-07-20T15:37:26.545Z,shippingservice,network_in,938512485
2023-07-20T15:37:26.560Z,productcatalogservice,network_in,939973805
2023-07-20T15:37:28.053Z,recommendationservice-3,network_in,301885712
2023-07-20T15:37:28.387Z,paymentservice,network_in,469461309
2023-07-20T15:37:29.049Z,recommendationservice-8,network_in,258344338
2023-07-20T15:37:29.840Z,recommendationservice-5,network_in,258734368
2023-07-20T15:37:29.979Z,emailservice,network_in,440118359
2023-07-20T15:37:30.049Z,currencyservice,network_in,469187674
2023-07-20T15:37:30.593Z,recommendationservice-1,network_in,439121386
2023-07-20T15:37:31.079Z,cartservice,network_in,577232188
2023-07-20T15:37:30.974Z,recommendationservice-6,network_in,258421766
2023-07-20T15:37:33.335Z,checkoutservice,network_in,940928450
2023-07-20T15:37:34.325Z,recommendationservice-4,network_in,301771354
2023-07-20T15:37:34.815Z,recommendationservice-7,network_in,258497419
2023-07-20T15:37:35.298Z,adservice,network_in,712092627
2023-07-20T15:37:36.678Z,probe-holder,network_in,374338184
2023-07-20T15:37:36.345Z,recommendationservice-2,network_in,344832374
2023-07-20T15:37:36.545Z,shippingservice,network_in,938521092
2023-07-20T15:37:36.560Z,productcatalogservice,network_in,939982848
2023-07-20T15:37:38.053Z,recommendationservice-3,network_in,301894439
2023-07-20T15:37:38.387Z,paymentservice,network_in,469469237
2023-07-20T15:37:39.049Z,recommendationservice-8,network_in,258353340
2023-07-20T15:37:39.840Z,recommendationservice-5,network_in,258742957
2023-07-20T15:37:39.979Z,emailservice,network_in,440123131
2023-07-20T15:37:40.049Z,currencyservice,network_in,469195743
2023-07-20T15:37:40.593Z,recommendationservice-1,network_in,439130463
2023-07-20T15:37:41.079Z,cartservice,network_in,577245900
2023-07-20T15:37:40.974Z,recommendationservice-6,network_in,258426683
2023-07-20T15:37:43.335Z,checkoutservice,network_in,940933646
2023-07-20T15:37:44.325Z,recommendationservice-4,network_in,301775855
2023-07-20T15:37:44.815Z,recommendationservice-7,network_in,258506013
2023-07-20T15:37:45.298Z,adservice,network_in,712100550
2023-07-20T15:37:46.677Z,probe-holder,network_in,374380369
2023-07-20T15:37:46.345Z,recommendationservice-2,network_in,344841053
2023-07-20T15:37:46.545Z,shippingservice,network_in,938526466
2023-07-20T15:37:46.560Z,productcatalogservice,network_in,939987747
2023-07-20T15:37:48.053Z,recommendationservice-3,network_in,301899367
2023-07-20T15:37:48.387Z,paymentservice,network_in,469478431
2023-07-20T15:37:49.049Z,recommendationservice-8,network_in,258362344
2023-07-20T15:37:49.840Z,recommendationservice-5,network_in,258750060
2023-07-20T15:37:49.979Z,emailservice,network_in,440136450
2023-07-20T15:37:50.049Z,currencyservice,network_in,469200073
2023-07-20T15:37:50.593Z,recommendationservice-1,network_in,439135797
2023-07-20T15:37:51.080Z,cartservice,network_in,577251068
2023-07-20T15:37:50.974Z,recommendationservice-6,network_in,258435349
2023-07-20T15:37:53.335Z,checkoutservice,network_in,940942692
2023-07-20T15:37:54.326Z,recommendationservice-4,network_in,301784101
2023-07-20T15:37:54.815Z,recommendationservice-7,network_in,258510864
2023-07-20T15:37:55.298Z,adservice,network_in,712104814
2023-07-20T15:37:56.678Z,probe-holder,network_in,374426922
2023-07-20T15:37:56.345Z,recommendationservice-2,network_in,344845565
2023-07-20T15:37:56.545Z,shippingservice,network_in,938535007
2023-07-20T15:37:56.560Z,productcatalogservice,network_in,939996370
2023-07-20T15:37:58.053Z,recommendationservice-3,network_in,301908101
2023-07-20T15:37:58.387Z,paymentservice,network_in,469486359
2023-07-20T15:37:59.049Z,recommendationservice-8,network_in,258372533
2023-07-20T15:37:59.840Z,recommendationservice-5,network_in,258758659
2023-07-20T15:37:59.979Z,emailservice,network_in,440141217
2023-07-20T15:38:00.049Z,currencyservice,network_in,469208080
2023-07-20T15:38:00.593Z,recommendationservice-1,network_in,439149866
2023-07-20T15:38:01.079Z,cartservice,network_in,577259893
2023-07-20T15:38:00.974Z,recommendationservice-6,network_in,258449435
2023-07-20T15:38:03.335Z,checkoutservice,network_in,940951693
2023-07-20T15:38:04.326Z,recommendationservice-4,network_in,301797278
2023-07-20T15:38:04.815Z,recommendationservice-7,network_in,258519524
2023-07-20T15:38:05.298Z,adservice,network_in,712113159
2023-07-20T15:38:06.677Z,probe-holder,network_in,374472924
2023-07-20T15:38:06.345Z,recommendationservice-2,network_in,344853819
2023-07-20T15:38:06.545Z,shippingservice,network_in,938543553
2023-07-20T15:38:06.560Z,productcatalogservice,network_in,940004991
2023-07-20T15:38:08.053Z,recommendationservice-3,network_in,301921691
2023-07-20T15:38:08.387Z,paymentservice,network_in,469494709
2023-07-20T15:38:09.051Z,recommendationservice-8,network_in,258381959
2023-07-20T15:38:09.840Z,recommendationservice-5,network_in,258769563
2023-07-20T15:38:09.979Z,emailservice,network_in,440150068
2023-07-20T15:38:10.049Z,currencyservice,network_in,469216087
2023-07-20T15:38:10.593Z,recommendationservice-1,network_in,439159366
2023-07-20T15:38:11.079Z,cartservice,network_in,577269142
2023-07-20T15:38:10.974Z,recommendationservice-6,network_in,258454354
2023-07-20T15:38:13.336Z,checkoutservice,network_in,940956886
2023-07-20T15:38:14.325Z,recommendationservice-4,network_in,301801781
2023-07-20T15:38:14.815Z,recommendationservice-7,network_in,258528111
2023-07-20T15:38:15.298Z,adservice,network_in,712121082
2023-07-20T15:38:16.678Z,probe-holder,network_in,374515225
2023-07-20T15:38:16.345Z,recommendationservice-2,network_in,344866996
2023-07-20T15:38:16.545Z,shippingservice,network_in,938548420
2023-07-20T15:38:16.561Z,productcatalogservice,network_in,940014796
2023-07-20T15:38:18.053Z,recommendationservice-3,network_in,301926744
2023-07-20T15:38:18.387Z,paymentservice,network_in,469498967
2023-07-20T15:38:19.049Z,recommendationservice-8,network_in,258390960
2023-07-20T15:38:19.840Z,recommendationservice-5,network_in,258779408
2023-07-20T15:38:19.979Z,emailservice,network_in,440158577
2023-07-20T15:38:20.049Z,currencyservice,network_in,469225314
2023-07-20T15:38:20.593Z,recommendationservice-1,network_in,439164703
2023-07-20T15:38:21.079Z,cartservice,network_in,577274315
2023-07-20T15:38:20.974Z,recommendationservice-6,network_in,258463088
2023-07-20T15:38:23.335Z,checkoutservice,network_in,940970744
2023-07-20T15:38:24.325Z,recommendationservice-4,network_in,301810387
2023-07-20T15:38:24.815Z,recommendationservice-7,network_in,258537956
2023-07-20T15:38:25.298Z,adservice,network_in,712130197
2023-07-20T15:38:26.677Z,probe-holder,network_in,374561306
2023-07-20T15:38:26.345Z,recommendationservice-2,network_in,344871510
2023-07-20T15:38:26.545Z,shippingservice,network_in,938561818
2023-07-20T15:38:26.560Z,productcatalogservice,network_in,940023411
2023-07-20T15:38:28.053Z,recommendationservice-3,network_in,301935960
2023-07-20T15:38:28.387Z,paymentservice,network_in,469506895
2023-07-20T15:38:29.049Z,recommendationservice-8,network_in,258396219
2023-07-20T15:38:29.840Z,recommendationservice-5,network_in,258790602
2023-07-20T15:38:29.979Z,emailservice,network_in,440163347
2023-07-20T15:38:30.049Z,currencyservice,network_in,469233743
2023-07-20T15:38:30.593Z,recommendationservice-1,network_in,439173776
2023-07-20T15:38:31.080Z,cartservice,network_in,577283137
2023-07-20T15:38:30.975Z,recommendationservice-6,network_in,258471816
2023-07-20T15:38:33.335Z,checkoutservice,network_in,940980167
2023-07-20T15:38:34.326Z,recommendationservice-4,network_in,301818633
2023-07-20T15:38:34.815Z,recommendationservice-7,network_in,258546975
2023-07-20T15:38:35.298Z,adservice,network_in,712138162
2023-07-20T15:38:36.677Z,probe-holder,network_in,374612196
2023-07-20T15:38:36.345Z,recommendationservice-2,network_in,344879766
2023-07-20T15:38:36.545Z,shippingservice,network_in,938570358
2023-07-20T15:38:36.561Z,productcatalogservice,network_in,940032452
2023-07-20T15:38:38.053Z,recommendationservice-3,network_in,301944689
2023-07-20T15:38:38.387Z,paymentservice,network_in,469511153
2023-07-20T15:38:39.049Z,recommendationservice-8,network_in,258405220
2023-07-20T15:38:39.841Z,recommendationservice-5,network_in,258799200
2023-07-20T15:38:39.979Z,emailservice,network_in,440171766
2023-07-20T15:38:40.048Z,currencyservice,network_in,469241684
2023-07-20T15:38:40.593Z,recommendationservice-1,network_in,439182850
2023-07-20T15:38:41.079Z,cartservice,network_in,577293127
2023-07-20T15:38:40.974Z,recommendationservice-6,network_in,258476798
2023-07-20T15:38:43.335Z,checkoutservice,network_in,940985359
2023-07-20T15:38:44.326Z,recommendationservice-4,network_in,301823137
2023-07-20T15:38:44.815Z,recommendationservice-7,network_in,258555565
2023-07-20T15:38:45.298Z,adservice,network_in,712146085
2023-07-20T15:38:46.678Z,probe-holder,network_in,374654525
2023-07-20T15:38:46.345Z,recommendationservice-2,network_in,344884696
2023-07-20T15:38:46.545Z,shippingservice,network_in,938575706
2023-07-20T15:38:46.560Z,productcatalogservice,network_in,940037355
2023-07-20T15:38:48.053Z,recommendationservice-3,network_in,301949611
2023-07-20T15:38:48.387Z,paymentservice,network_in,469523931
2023-07-20T15:38:49.049Z,recommendationservice-8,network_in,258414219
2023-07-20T15:38:49.841Z,recommendationservice-5,network_in,258806363
2023-07-20T15:38:49.979Z,emailservice,network_in,440185020
2023-07-20T15:38:50.049Z,currencyservice,network_in,469246014
2023-07-20T15:38:50.593Z,recommendationservice-1,network_in,439188191
2023-07-20T15:38:51.079Z,cartservice,network_in,577301947
2023-07-20T15:38:50.974Z,recommendationservice-6,network_in,258485460
2023-07-20T15:38:53.335Z,checkoutservice,network_in,940994399
2023-07-20T15:38:54.326Z,recommendationservice-4,network_in,301831319
2023-07-20T15:38:54.815Z,recommendationservice-7,network_in,258560410
2023-07-20T15:38:55.298Z,adservice,network_in,712150307
2023-07-20T15:38:56.678Z,probe-holder,network_in,374700808
2023-07-20T15:38:56.345Z,recommendationservice-2,network_in,344892949
2023-07-20T15:38:56.545Z,shippingservice,network_in,938584319
2023-07-20T15:38:56.560Z,productcatalogservice,network_in,940045969
2023-07-20T15:38:58.053Z,recommendationservice-3,network_in,301958337
2023-07-20T15:38:58.387Z,paymentservice,network_in,469531859
2023-07-20T15:38:59.049Z,recommendationservice-8,network_in,258424410
2023-07-20T15:38:59.841Z,recommendationservice-5,network_in,258815017
2023-07-20T15:38:59.979Z,emailservice,network_in,440189789
2023-07-20T15:39:00.049Z,currencyservice,network_in,469254021
2023-07-20T15:39:00.593Z,recommendationservice-1,network_in,439202194
2023-07-20T15:39:01.079Z,cartservice,network_in,577310773
2023-07-20T15:39:00.974Z,recommendationservice-6,network_in,258499473
2023-07-20T15:39:03.335Z,checkoutservice,network_in,941224969
2023-07-20T15:39:04.325Z,recommendationservice-4,network_in,301844496
2023-07-20T15:39:04.815Z,recommendationservice-7,network_in,258570807
2023-07-20T15:39:05.298Z,adservice,network_in,712380186
2023-07-20T15:39:06.678Z,probe-holder,network_in,374746853
2023-07-20T15:39:06.345Z,recommendationservice-2,network_in,345122509
2023-07-20T15:39:06.545Z,shippingservice,network_in,938810951
2023-07-20T15:39:06.560Z,productcatalogservice,network_in,940275833
