2023-07-04T17:05:29.501Z,redis-cart,cpu,1394633
2023-07-04T17:05:29.501Z,emailservice,cpu,6336325
2023-07-04T17:05:29.501Z,adservice,cpu,12694595
2023-07-04T17:05:29.528Z,recommendationservice,cpu,9356510
2023-07-04T17:05:29.528Z,checkoutservice,cpu,3835087
2023-07-04T17:05:29.501Z,shippingservice,cpu,3916510
2023-07-04T17:05:29.501Z,paymentservice,cpu,8572055
2023-07-04T17:05:29.501Z,redis-cart,cpu,1462611
2023-07-04T17:05:29.501Z,redis-cart,cpu,1531238
2023-07-04T17:05:29.528Z,redis-cart,cpu,1581887
2023-07-04T17:05:29.540Z,currencyservice,cpu,10713474
2023-07-04T17:05:29.540Z,redis-cart,cpu,1913172
2023-07-04T17:05:29.540Z,redis-cart,cpu,2010500
2023-07-04T17:05:29.540Z,cartservice,cpu,35876905
2023-07-04T17:05:29.528Z,redis-cart,cpu,1543545
2023-07-04T17:05:39.887Z,recommendationservice,cpu,10674477
2023-07-04T17:05:39.887Z,frontend,cpu,11267224
2023-07-04T17:05:39.887Z,currencyservice,cpu,20403805
2023-07-04T17:05:39.887Z,cartservice,cpu,12087111
2023-07-04T17:05:39.887Z,redis-cart,cpu,2005353
2023-07-04T17:05:39.887Z,redis-cart,cpu,1913172
2023-07-04T17:05:39.887Z,redis-cart,cpu,1517634
2023-07-04T17:05:39.855Z,adservice,cpu,17577908
2023-07-04T17:05:39.887Z,redis-cart,cpu,1425092
2023-07-04T17:05:39.855Z,emailservice,cpu,6704848
2023-07-04T17:05:39.855Z,shippingservice,cpu,5991123
2023-07-04T17:05:39.855Z,redis-cart,cpu,1493323
2023-07-04T17:05:39.855Z,redis-cart,cpu,1566085
2023-07-04T17:05:39.887Z,redis-cart,cpu,1459261
2023-07-04T17:05:39.855Z,redis-cart,cpu,1644424
2023-07-04T17:05:39.855Z,paymentservice,cpu,8572055
2023-07-04T17:05:39.887Z,productcatalogservice,cpu,7330340
2023-07-04T17:05:39.887Z,checkoutservice,cpu,2569770
2023-07-04T17:05:49.887Z,redis-cart,cpu,2005353
2023-07-04T17:05:49.856Z,shippingservice,cpu,3893963
2023-07-04T17:05:49.856Z,redis-cart,cpu,1370046
2023-07-04T17:05:49.856Z,redis-cart,cpu,1566085
2023-07-04T17:05:49.887Z,checkoutservice,cpu,2569770
2023-07-04T17:05:49.887Z,cartservice,cpu,12087111
2023-07-04T17:05:49.856Z,adservice,cpu,17577908
2023-07-04T17:05:49.887Z,redis-cart,cpu,1532325
2023-07-04T17:05:49.887Z,productcatalogservice,cpu,7330340
2023-07-04T17:05:49.887Z,redis-cart,cpu,1425092
2023-07-04T17:05:49.887Z,redis-cart,cpu,1913172
2023-07-04T17:05:49.856Z,redis-cart,cpu,1493323
2023-07-04T17:05:49.856Z,emailservice,cpu,7974518
2023-07-04T17:05:49.887Z,frontend,cpu,10627747
2023-07-04T17:05:49.887Z,recommendationservice,cpu,10674477
2023-07-04T17:05:49.887Z,currencyservice,cpu,20403805
2023-07-04T17:05:49.856Z,paymentservice,cpu,3688833
2023-07-04T17:05:49.887Z,redis-cart,cpu,1662342
2023-07-04T17:05:59.855Z,adservice,cpu,17577908
2023-07-04T17:05:59.855Z,emailservice,cpu,7974518
2023-07-04T17:05:59.887Z,productcatalogservice,cpu,8815432
2023-07-04T17:05:59.855Z,redis-cart,cpu,1493323
2023-07-04T17:05:59.855Z,redis-cart,cpu,1566085
2023-07-04T17:05:59.887Z,redis-cart,cpu,1714394
2023-07-04T17:05:59.887Z,redis-cart,cpu,1506228
2023-07-04T17:05:59.887Z,redis-cart,cpu,1544446
2023-07-04T17:05:59.855Z,paymentservice,cpu,3688833
2023-07-04T17:05:59.855Z,redis-cart,cpu,1370046
2023-07-04T17:05:59.887Z,currencyservice,cpu,20403805
2023-07-04T17:05:59.887Z,cartservice,cpu,14118635
2023-07-04T17:05:59.887Z,frontend,cpu,11760216
2023-07-04T17:05:59.855Z,shippingservice,cpu,3893963
2023-07-04T17:05:59.887Z,redis-cart,cpu,2210242
2023-07-04T17:05:59.887Z,checkoutservice,cpu,4095126
2023-07-04T17:05:59.887Z,redis-cart,cpu,1662342
2023-07-04T17:05:59.887Z,recommendationservice,cpu,10028115
2023-07-04T17:06:09.855Z,shippingservice,cpu,3893963
2023-07-04T17:06:09.887Z,productcatalogservice,cpu,8815432
2023-07-04T17:06:09.855Z,paymentservice,cpu,3688833
2023-07-04T17:06:09.855Z,redis-cart,cpu,1622588
2023-07-04T17:06:09.855Z,redis-cart,cpu,1570802
2023-07-04T17:06:09.887Z,checkoutservice,cpu,4095126
2023-07-04T17:06:09.887Z,redis-cart,cpu,1506228
2023-07-04T17:06:09.887Z,redis-cart,cpu,1544446
2023-07-04T17:06:09.855Z,redis-cart,cpu,1329186
2023-07-04T17:06:09.887Z,redis-cart,cpu,2178572
2023-07-04T17:06:09.887Z,currencyservice,cpu,13068208
2023-07-04T17:06:09.887Z,frontend,cpu,11760216
2023-07-04T17:06:09.855Z,adservice,cpu,15770873
2023-07-04T17:06:09.855Z,emailservice,cpu,7974518
2023-07-04T17:06:09.887Z,redis-cart,cpu,1937098
2023-07-04T17:06:09.887Z,cartservice,cpu,14118635
2023-07-04T17:06:09.887Z,redis-cart,cpu,1662342
2023-07-04T17:06:09.887Z,recommendationservice,cpu,10028115
2023-07-04T17:06:19.855Z,paymentservice,cpu,3945148
2023-07-04T17:06:19.855Z,redis-cart,cpu,1329186
2023-07-04T17:06:19.887Z,redis-cart,cpu,1616853
2023-07-04T17:06:19.887Z,currencyservice,cpu,11964691
2023-07-04T17:06:19.887Z,redis-cart,cpu,2105233
2023-07-04T17:06:19.887Z,frontend,cpu,7038282
2023-07-04T17:06:19.887Z,redis-cart,cpu,1506828
2023-07-04T17:06:19.887Z,recommendationservice,cpu,9280013
2023-07-04T17:06:19.887Z,productcatalogservice,cpu,7253956
2023-07-04T17:06:19.855Z,adservice,cpu,15770873
2023-07-04T17:06:19.887Z,cartservice,cpu,10406865
2023-07-04T17:06:19.887Z,redis-cart,cpu,1504180
2023-07-04T17:06:19.887Z,checkoutservice,cpu,2426913
2023-07-04T17:06:19.855Z,emailservice,cpu,4941312
2023-07-04T17:06:19.855Z,redis-cart,cpu,1622588
2023-07-04T17:06:19.855Z,redis-cart,cpu,1570802
2023-07-04T17:06:19.855Z,shippingservice,cpu,4924367
2023-07-04T17:06:19.887Z,redis-cart,cpu,1589010
2023-07-04T17:06:29.855Z,shippingservice,cpu,5211010
2023-07-04T17:06:29.887Z,redis-cart,cpu,1791593
2023-07-04T17:06:29.855Z,emailservice,cpu,7348558
2023-07-04T17:06:29.855Z,redis-cart,cpu,1581907
2023-07-04T17:06:29.887Z,redis-cart,cpu,1504180
2023-07-04T17:06:29.855Z,redis-cart,cpu,1565625
2023-07-04T17:06:29.855Z,paymentservice,cpu,4563827
2023-07-04T17:06:29.887Z,redis-cart,cpu,2093056
2023-07-04T17:06:29.887Z,currencyservice,cpu,15093478
2023-07-04T17:06:29.887Z,redis-cart,cpu,1624458
2023-07-04T17:06:29.887Z,productcatalogservice,cpu,7253956
2023-07-04T17:06:29.855Z,adservice,cpu,17174215
2023-07-04T17:06:29.855Z,redis-cart,cpu,1652032
2023-07-04T17:06:29.887Z,cartservice,cpu,10406865
2023-07-04T17:06:29.887Z,frontend,cpu,10650158
2023-07-04T17:06:29.887Z,redis-cart,cpu,1589010
2023-07-04T17:06:29.887Z,recommendationservice,cpu,10227526
2023-07-04T17:06:29.887Z,checkoutservice,cpu,4814512
2023-07-04T17:06:39.855Z,emailservice,cpu,7348558
2023-07-04T17:06:39.855Z,redis-cart,cpu,1581907
2023-07-04T17:06:39.887Z,redis-cart,cpu,2093056
2023-07-04T17:06:39.887Z,redis-cart,cpu,1791593
2023-07-04T17:06:39.887Z,frontend,cpu,10650158
2023-07-04T17:06:39.887Z,redis-cart,cpu,1589010
2023-07-04T17:06:39.855Z,adservice,cpu,17174215
2023-07-04T17:06:39.855Z,redis-cart,cpu,1652032
2023-07-04T17:06:39.887Z,recommendationservice,cpu,10227526
2023-07-04T17:06:39.887Z,checkoutservice,cpu,4814512
2023-07-04T17:06:39.887Z,productcatalogservice,cpu,7253956
2023-07-04T17:06:39.855Z,shippingservice,cpu,5211010
2023-07-04T17:06:39.855Z,redis-cart,cpu,1565625
2023-07-04T17:06:39.855Z,paymentservice,cpu,4563827
2023-07-04T17:06:39.887Z,cartservice,cpu,10406865
2023-07-04T17:06:39.887Z,currencyservice,cpu,15093478
2023-07-04T17:06:39.887Z,redis-cart,cpu,1504180
2023-07-04T17:06:39.887Z,redis-cart,cpu,1624458
2023-07-04T17:06:49.887Z,redis-cart,cpu,1409692
2023-07-04T17:06:49.887Z,redis-cart,cpu,1414729
2023-07-04T17:06:49.887Z,redis-cart,cpu,1434154
2023-07-04T17:06:49.855Z,emailservice,cpu,7348558
2023-07-04T17:06:49.855Z,paymentservice,cpu,4563827
2023-07-04T17:06:49.887Z,redis-cart,cpu,1791593
2023-07-04T17:06:49.887Z,productcatalogservice,cpu,7594366
2023-07-04T17:06:49.887Z,recommendationservice,cpu,9886491
2023-07-04T17:06:49.855Z,redis-cart,cpu,1652032
2023-07-04T17:06:49.855Z,redis-cart,cpu,1406719
2023-07-04T17:06:49.855Z,shippingservice,cpu,4208394
2023-07-04T17:06:49.887Z,currencyservice,cpu,15093478
2023-07-04T17:06:49.887Z,checkoutservice,cpu,3735979
2023-07-04T17:06:49.855Z,adservice,cpu,10449878
2023-07-04T17:06:49.855Z,redis-cart,cpu,1581907
2023-07-04T17:06:49.887Z,cartservice,cpu,12295677
2023-07-04T17:06:49.887Z,redis-cart,cpu,2093056
2023-07-04T17:06:49.887Z,frontend,cpu,10836932
2023-07-04T17:06:59.855Z,redis-cart,cpu,1649919
2023-07-04T17:06:59.888Z,productcatalogservice,cpu,7594366
2023-07-04T17:06:59.855Z,paymentservice,cpu,2538163
2023-07-04T17:06:59.855Z,shippingservice,cpu,4782327
2023-07-04T17:06:59.888Z,redis-cart,cpu,1614781
2023-07-04T17:06:59.855Z,adservice,cpu,14587872
2023-07-04T17:06:59.855Z,redis-cart,cpu,1497580
2023-07-04T17:06:59.888Z,recommendationservice,cpu,10127229
2023-07-04T17:06:59.888Z,redis-cart,cpu,1492567
2023-07-04T17:06:59.888Z,redis-cart,cpu,1480995
2023-07-04T17:06:59.887Z,cartservice,cpu,14364416
2023-07-04T17:06:59.855Z,emailservice,cpu,6633675
2023-07-04T17:06:59.855Z,redis-cart,cpu,1520175
2023-07-04T17:06:59.888Z,frontend,cpu,11785765
2023-07-04T17:06:59.888Z,checkoutservice,cpu,3181606
2023-07-04T17:06:59.887Z,redis-cart,cpu,1893287
2023-07-04T17:06:59.887Z,currencyservice,cpu,12705081
2023-07-04T17:06:59.887Z,redis-cart,cpu,2015506
2023-07-04T17:07:09.887Z,redis-cart,cpu,1699462
2023-07-04T17:07:09.855Z,redis-cart,cpu,1427264
2023-07-04T17:07:09.855Z,adservice,cpu,11684699
2023-07-04T17:07:09.855Z,paymentservice,cpu,3995431
2023-07-04T17:07:09.855Z,emailservice,cpu,5837858
2023-07-04T17:07:09.887Z,currencyservice,cpu,9497682
2023-07-04T17:07:09.887Z,recommendationservice,cpu,10127229
2023-07-04T17:07:09.887Z,productcatalogservice,cpu,7594366
2023-07-04T17:07:09.887Z,redis-cart,cpu,1492567
2023-07-04T17:07:09.887Z,frontend,cpu,11785765
2023-07-04T17:07:09.887Z,redis-cart,cpu,1614781
2023-07-04T17:07:09.887Z,redis-cart,cpu,1480995
2023-07-04T17:07:09.855Z,redis-cart,cpu,1655264
2023-07-04T17:07:09.855Z,shippingservice,cpu,5076623
2023-07-04T17:07:09.855Z,redis-cart,cpu,1600159
2023-07-04T17:07:09.887Z,checkoutservice,cpu,3181606
2023-07-04T17:07:09.887Z,cartservice,cpu,14364416
2023-07-04T17:07:09.887Z,redis-cart,cpu,2015506
2023-07-04T17:07:19.855Z,redis-cart,cpu,1675916
2023-07-04T17:07:19.887Z,redis-cart,cpu,2015506
2023-07-04T17:07:19.887Z,redis-cart,cpu,1631904
2023-07-04T17:07:19.887Z,redis-cart,cpu,1396763
2023-07-04T17:07:19.855Z,redis-cart,cpu,1655264
2023-07-04T17:07:19.855Z,shippingservice,cpu,5076623
2023-07-04T17:07:19.887Z,frontend,cpu,12377865
2023-07-04T17:07:19.887Z,recommendationservice,cpu,9037279
2023-07-04T17:07:19.855Z,paymentservice,cpu,3995431
2023-07-04T17:07:19.855Z,emailservice,cpu,6966437
2023-07-04T17:07:19.855Z,redis-cart,cpu,1427264
2023-07-04T17:07:19.887Z,productcatalogservice,cpu,7116540
2023-07-04T17:07:19.887Z,checkoutservice,cpu,3683256
2023-07-04T17:07:19.887Z,redis-cart,cpu,1614877
2023-07-04T17:07:19.855Z,adservice,cpu,12737956
2023-07-04T17:07:19.887Z,currencyservice,cpu,9497682
2023-07-04T17:07:19.887Z,cartservice,cpu,14364416
2023-07-04T17:07:19.887Z,redis-cart,cpu,1699462
2023-07-04T17:07:29.855Z,paymentservice,cpu,2115295
2023-07-04T17:07:29.887Z,redis-cart,cpu,2080389
2023-07-04T17:07:29.887Z,productcatalogservice,cpu,10097717
2023-07-04T17:07:29.887Z,currencyservice,cpu,11493284
2023-07-04T17:07:29.887Z,checkoutservice,cpu,4081399
2023-07-04T17:07:29.887Z,redis-cart,cpu,1699462
2023-07-04T17:07:29.887Z,recommendationservice,cpu,9549316
2023-07-04T17:07:29.855Z,emailservice,cpu,6966437
2023-07-04T17:07:29.855Z,redis-cart,cpu,1675916
2023-07-04T17:07:29.855Z,redis-cart,cpu,1393332
2023-07-04T17:07:29.855Z,shippingservice,cpu,4526001
2023-07-04T17:07:29.887Z,cartservice,cpu,8569692
2023-07-04T17:07:29.887Z,redis-cart,cpu,1631904
2023-07-04T17:07:29.887Z,redis-cart,cpu,1614877
2023-07-04T17:07:29.855Z,adservice,cpu,12737956
2023-07-04T17:07:29.855Z,redis-cart,cpu,1452495
2023-07-04T17:07:29.887Z,frontend,cpu,12377865
2023-07-04T17:07:29.887Z,redis-cart,cpu,1307084
2023-07-04T17:07:39.855Z,emailservice,cpu,6966437
2023-07-04T17:07:39.855Z,paymentservice,cpu,2115295
2023-07-04T17:07:39.887Z,redis-cart,cpu,1826383
2023-07-04T17:07:39.887Z,frontend,cpu,12377865
2023-07-04T17:07:39.887Z,redis-cart,cpu,1307084
2023-07-04T17:07:39.855Z,adservice,cpu,12737956
2023-07-04T17:07:39.855Z,redis-cart,cpu,1675916
2023-07-04T17:07:39.887Z,checkoutservice,cpu,4081399
2023-07-04T17:07:39.887Z,recommendationservice,cpu,9549316
2023-07-04T17:07:39.855Z,redis-cart,cpu,1393332
2023-07-04T17:07:39.887Z,redis-cart,cpu,2128651
2023-07-04T17:07:39.887Z,redis-cart,cpu,1631904
2023-07-04T17:07:39.887Z,redis-cart,cpu,1614877
2023-07-04T17:07:39.855Z,redis-cart,cpu,1452495
2023-07-04T17:07:39.855Z,shippingservice,cpu,4526001
2023-07-04T17:07:39.887Z,currencyservice,cpu,12714063
2023-07-04T17:07:39.887Z,cartservice,cpu,8569692
2023-07-04T17:07:39.887Z,productcatalogservice,cpu,10097717
2023-07-04T17:07:49.888Z,redis-cart,cpu,2128651
2023-07-04T17:07:49.888Z,redis-cart,cpu,1696195
2023-07-04T17:07:49.888Z,productcatalogservice,cpu,7105513
2023-07-04T17:07:49.855Z,redis-cart,cpu,1728193
2023-07-04T17:07:49.855Z,redis-cart,cpu,1565759
2023-07-04T17:07:49.855Z,redis-cart,cpu,1504687
2023-07-04T17:07:49.855Z,paymentservice,cpu,2115295
2023-07-04T17:07:49.888Z,cartservice,cpu,12673121
2023-07-04T17:07:49.855Z,adservice,cpu,12120322
2023-07-04T17:07:49.855Z,emailservice,cpu,6215218
2023-07-04T17:07:49.888Z,redis-cart,cpu,1406766
2023-07-04T17:07:49.888Z,redis-cart,cpu,1660512
2023-07-04T17:07:49.888Z,frontend,cpu,11892031
2023-07-04T17:07:49.888Z,redis-cart,cpu,1503336
2023-07-04T17:07:49.855Z,shippingservice,cpu,4511486
2023-07-04T17:07:49.888Z,currencyservice,cpu,12714063
2023-07-04T17:07:49.888Z,recommendationservice,cpu,9671915
2023-07-04T17:07:49.888Z,checkoutservice,cpu,2843053
2023-07-04T17:07:59.855Z,paymentservice,cpu,2432540
2023-07-04T17:07:59.887Z,recommendationservice,cpu,9671915
2023-07-04T17:07:59.887Z,redis-cart,cpu,1660512
2023-07-04T17:07:59.855Z,redis-cart,cpu,1690896
2023-07-04T17:07:59.855Z,emailservice,cpu,7218860
2023-07-04T17:07:59.888Z,redis-cart,cpu,2209902
2023-07-04T17:07:59.887Z,productcatalogservice,cpu,8680986
2023-07-04T17:07:59.855Z,shippingservice,cpu,6663779
2023-07-04T17:07:59.888Z,cartservice,cpu,10191317
2023-07-04T17:07:59.888Z,currencyservice,cpu,16192901
2023-07-04T17:07:59.887Z,frontend,cpu,11892031
2023-07-04T17:07:59.887Z,checkoutservice,cpu,1758132
2023-07-04T17:07:59.855Z,redis-cart,cpu,1561202
2023-07-04T17:07:59.855Z,adservice,cpu,11828636
2023-07-04T17:07:59.855Z,redis-cart,cpu,1412116
2023-07-04T17:07:59.888Z,redis-cart,cpu,1775704
2023-07-04T17:07:59.887Z,redis-cart,cpu,1499468
2023-07-04T17:07:59.887Z,redis-cart,cpu,1552706
2023-07-04T17:08:09.855Z,redis-cart,cpu,1561202
2023-07-04T17:08:09.855Z,redis-cart,cpu,1412116
2023-07-04T17:08:09.888Z,productcatalogservice,cpu,7825543
2023-07-04T17:08:09.888Z,redis-cart,cpu,1557187
2023-07-04T17:08:09.888Z,redis-cart,cpu,1456371
2023-07-04T17:08:09.855Z,shippingservice,cpu,6663779
2023-07-04T17:08:09.855Z,paymentservice,cpu,2432540
2023-07-04T17:08:09.888Z,checkoutservice,cpu,1758132
2023-07-04T17:08:09.888Z,recommendationservice,cpu,11070460
2023-07-04T17:08:09.888Z,currencyservice,cpu,16192901
2023-07-04T17:08:09.888Z,cartservice,cpu,11929443
2023-07-04T17:08:09.855Z,redis-cart,cpu,1690896
2023-07-04T17:08:09.855Z,adservice,cpu,11828636
2023-07-04T17:08:09.855Z,emailservice,cpu,7218860
2023-07-04T17:08:09.888Z,frontend,cpu,12469019
2023-07-04T17:08:09.888Z,redis-cart,cpu,1490629
2023-07-04T17:08:09.888Z,redis-cart,cpu,2121491
2023-07-04T17:08:09.888Z,redis-cart,cpu,1662430
2023-07-04T17:08:19.855Z,redis-cart,cpu,1412116
2023-07-04T17:08:19.855Z,adservice,cpu,11320833
2023-07-04T17:08:19.855Z,paymentservice,cpu,5615504
2023-07-04T17:08:19.888Z,redis-cart,cpu,1662430
2023-07-04T17:08:19.855Z,shippingservice,cpu,4428069
2023-07-04T17:08:19.855Z,emailservice,cpu,7218860
2023-07-04T17:08:19.887Z,frontend,cpu,12469019
2023-07-04T17:08:19.855Z,redis-cart,cpu,1561202
2023-07-04T17:08:19.887Z,checkoutservice,cpu,1758132
2023-07-04T17:08:19.887Z,productcatalogservice,cpu,7825543
2023-07-04T17:08:19.887Z,redis-cart,cpu,1557187
2023-07-04T17:08:19.887Z,recommendationservice,cpu,11070460
2023-07-04T17:08:19.887Z,redis-cart,cpu,1456371
2023-07-04T17:08:19.887Z,redis-cart,cpu,1490629
2023-07-04T17:08:19.855Z,redis-cart,cpu,1690051
2023-07-04T17:08:19.888Z,currencyservice,cpu,16192901
2023-07-04T17:08:19.888Z,cartservice,cpu,11929443
2023-07-04T17:08:19.888Z,redis-cart,cpu,2121491
2023-07-04T17:08:29.856Z,paymentservice,cpu,2406875
2023-07-04T17:08:29.887Z,redis-cart,cpu,1956678
2023-07-04T17:08:29.856Z,shippingservice,cpu,4253627
2023-07-04T17:08:29.856Z,redis-cart,cpu,1418286
2023-07-04T17:08:29.856Z,redis-cart,cpu,1656891
2023-07-04T17:08:29.887Z,redis-cart,cpu,1986566
2023-07-04T17:08:29.887Z,currencyservice,cpu,14777707
2023-07-04T17:08:29.888Z,recommendationservice,cpu,8487848
2023-07-04T17:08:29.887Z,cartservice,cpu,9404771
2023-07-04T17:08:29.888Z,productcatalogservice,cpu,6727954
2023-07-04T17:08:29.888Z,redis-cart,cpu,1470032
2023-07-04T17:08:29.888Z,redis-cart,cpu,1604471
2023-07-04T17:08:29.888Z,checkoutservice,cpu,3476139
2023-07-04T17:08:29.856Z,adservice,cpu,9570808
2023-07-04T17:08:29.856Z,emailservice,cpu,8178196
2023-07-04T17:08:29.856Z,redis-cart,cpu,1532433
2023-07-04T17:08:29.888Z,frontend,cpu,9662076
2023-07-04T17:08:29.888Z,redis-cart,cpu,1542825
2023-07-04T17:08:39.855Z,redis-cart,cpu,1532433
2023-07-04T17:08:39.855Z,redis-cart,cpu,1418286
2023-07-04T17:08:39.888Z,redis-cart,cpu,1986566
2023-07-04T17:08:39.888Z,redis-cart,cpu,1407892
2023-07-04T17:08:39.888Z,recommendationservice,cpu,10029132
2023-07-04T17:08:39.855Z,emailservice,cpu,8178196
2023-07-04T17:08:39.855Z,redis-cart,cpu,1656891
2023-07-04T17:08:39.888Z,redis-cart,cpu,1956678
2023-07-04T17:08:39.888Z,checkoutservice,cpu,4077069
2023-07-04T17:08:39.855Z,adservice,cpu,9570808
2023-07-04T17:08:39.855Z,shippingservice,cpu,4253627
2023-07-04T17:08:39.855Z,paymentservice,cpu,2406875
2023-07-04T17:08:39.888Z,currencyservice,cpu,15889019
2023-07-04T17:08:39.888Z,cartservice,cpu,10513941
2023-07-04T17:08:39.888Z,productcatalogservice,cpu,6727954
2023-07-04T17:08:39.888Z,frontend,cpu,12695736
2023-07-04T17:08:39.888Z,redis-cart,cpu,1477248
2023-07-04T17:08:39.888Z,redis-cart,cpu,1467471
2023-07-04T17:08:49.855Z,adservice,cpu,10365102
2023-07-04T17:08:49.887Z,currencyservice,cpu,15889019
2023-07-04T17:08:49.887Z,redis-cart,cpu,1986566
2023-07-04T17:08:49.855Z,redis-cart,cpu,1418286
2023-07-04T17:08:49.855Z,redis-cart,cpu,1359977
2023-07-04T17:08:49.887Z,redis-cart,cpu,1477248
2023-07-04T17:08:49.887Z,frontend,cpu,12695736
2023-07-04T17:08:49.887Z,checkoutservice,cpu,3657689
2023-07-04T17:08:49.887Z,recommendationservice,cpu,10029132
2023-07-04T17:08:49.887Z,redis-cart,cpu,1487526
2023-07-04T17:08:49.855Z,shippingservice,cpu,5911807
2023-07-04T17:08:49.855Z,paymentservice,cpu,2481945
2023-07-04T17:08:49.855Z,emailservice,cpu,7498406
2023-07-04T17:08:49.855Z,redis-cart,cpu,1661777
2023-07-04T17:08:49.887Z,redis-cart,cpu,1956678
2023-07-04T17:08:49.887Z,cartservice,cpu,10513941
2023-07-04T17:08:49.887Z,productcatalogservice,cpu,11744890
2023-07-04T17:08:49.887Z,redis-cart,cpu,1438905
2023-07-04T17:08:59.856Z,redis-cart,cpu,1661777
2023-07-04T17:08:59.856Z,redis-cart,cpu,1536529
2023-07-04T17:08:59.887Z,currencyservice,cpu,15889019
2023-07-04T17:08:59.887Z,productcatalogservice,cpu,7089394
2023-07-04T17:08:59.887Z,redis-cart,cpu,1487526
2023-07-04T17:08:59.887Z,cartservice,cpu,10513941
2023-07-04T17:08:59.887Z,redis-cart,cpu,1780278
2023-07-04T17:08:59.887Z,frontend,cpu,12983500
2023-07-04T17:08:59.887Z,recommendationservice,cpu,10993347
2023-07-04T17:08:59.856Z,adservice,cpu,11827762
2023-07-04T17:08:59.856Z,emailservice,cpu,7498406
2023-07-04T17:08:59.856Z,redis-cart,cpu,1366710
2023-07-04T17:08:59.856Z,shippingservice,cpu,3937721
2023-07-04T17:08:59.887Z,redis-cart,cpu,1657663
2023-07-04T17:08:59.887Z,checkoutservice,cpu,3069621
2023-07-04T17:08:59.856Z,paymentservice,cpu,2481945
2023-07-04T17:08:59.887Z,redis-cart,cpu,2132317
2023-07-04T17:08:59.887Z,redis-cart,cpu,1281376
2023-07-04T17:09:09.887Z,redis-cart,cpu,1521005
2023-07-04T17:09:09.887Z,redis-cart,cpu,1388641
2023-07-04T17:09:09.855Z,emailservice,cpu,6002350
2023-07-04T17:09:09.855Z,paymentservice,cpu,4179816
2023-07-04T17:09:09.855Z,shippingservice,cpu,4393205
2023-07-04T17:09:09.888Z,redis-cart,cpu,1780278
2023-07-04T17:09:09.887Z,checkoutservice,cpu,3069621
2023-07-04T17:09:09.855Z,redis-cart,cpu,1712907
2023-07-04T17:09:09.855Z,adservice,cpu,11827762
2023-07-04T17:09:09.888Z,cartservice,cpu,13009846
2023-07-04T17:09:09.888Z,redis-cart,cpu,2132317
2023-07-04T17:09:09.888Z,currencyservice,cpu,16633078
2023-07-04T17:09:09.887Z,recommendationservice,cpu,8897479
2023-07-04T17:09:09.855Z,redis-cart,cpu,1359976
2023-07-04T17:09:09.855Z,redis-cart,cpu,1225133
2023-07-04T17:09:09.887Z,redis-cart,cpu,1458929
2023-07-04T17:09:09.887Z,productcatalogservice,cpu,7089394
2023-07-04T17:09:09.887Z,frontend,cpu,11420640
2023-07-04T17:09:19.887Z,redis-cart,cpu,1521005
2023-07-04T17:09:19.887Z,checkoutservice,cpu,3069621
2023-07-04T17:09:19.887Z,currencyservice,cpu,7011691
2023-07-04T17:09:19.855Z,adservice,cpu,7095170
2023-07-04T17:09:19.855Z,shippingservice,cpu,5543085
2023-07-04T17:09:19.887Z,recommendationservice,cpu,8897479
2023-07-04T17:09:19.887Z,redis-cart,cpu,1840899
2023-07-04T17:09:19.855Z,redis-cart,cpu,1629207
2023-07-04T17:09:19.855Z,emailservice,cpu,5814001
2023-07-04T17:09:19.855Z,redis-cart,cpu,1496146
2023-07-04T17:09:19.887Z,redis-cart,cpu,1388641
2023-07-04T17:09:19.887Z,cartservice,cpu,8899830
2023-07-04T17:09:19.855Z,paymentservice,cpu,3806317
2023-07-04T17:09:19.855Z,redis-cart,cpu,1455637
2023-07-04T17:09:19.887Z,redis-cart,cpu,1458929
2023-07-04T17:09:19.887Z,productcatalogservice,cpu,7089394
2023-07-04T17:09:19.887Z,frontend,cpu,11420640
2023-07-04T17:09:19.887Z,redis-cart,cpu,2176719
2023-07-04T17:09:29.856Z,redis-cart,cpu,1435017
2023-07-04T17:09:29.856Z,redis-cart,cpu,1401351
2023-07-04T17:09:29.888Z,redis-cart,cpu,1840899
2023-07-04T17:09:29.887Z,redis-cart,cpu,1687277
2023-07-04T17:09:29.887Z,redis-cart,cpu,1560562
2023-07-04T17:09:29.856Z,redis-cart,cpu,1454537
2023-07-04T17:09:29.856Z,shippingservice,cpu,5543085
2023-07-04T17:09:29.888Z,currencyservice,cpu,7011691
2023-07-04T17:09:29.888Z,cartservice,cpu,9171911
2023-07-04T17:09:29.887Z,frontend,cpu,9147773
2023-07-04T17:09:29.887Z,checkoutservice,cpu,2815217
2023-07-04T17:09:29.887Z,redis-cart,cpu,1437708
2023-07-04T17:09:29.856Z,emailservice,cpu,7278986
2023-07-04T17:09:29.856Z,paymentservice,cpu,2641481
2023-07-04T17:09:29.888Z,redis-cart,cpu,2009616
2023-07-04T17:09:29.856Z,adservice,cpu,7095170
2023-07-04T17:09:29.887Z,recommendationservice,cpu,8489043
2023-07-04T17:09:29.887Z,productcatalogservice,cpu,5570672
2023-07-04T17:09:39.855Z,emailservice,cpu,7278986
2023-07-04T17:09:39.855Z,paymentservice,cpu,2641481
2023-07-04T17:09:39.887Z,cartservice,cpu,9171911
2023-07-04T17:09:39.888Z,checkoutservice,cpu,2815217
2023-07-04T17:09:39.855Z,redis-cart,cpu,1435017
2023-07-04T17:09:39.855Z,redis-cart,cpu,1401351
2023-07-04T17:09:39.887Z,currencyservice,cpu,7011691
2023-07-04T17:09:39.888Z,productcatalogservice,cpu,7104522
2023-07-04T17:09:39.855Z,adservice,cpu,7095170
2023-07-04T17:09:39.887Z,redis-cart,cpu,1840899
2023-07-04T17:09:39.888Z,redis-cart,cpu,1687277
2023-07-04T17:09:39.888Z,redis-cart,cpu,1344119
2023-07-04T17:09:39.855Z,redis-cart,cpu,1454537
2023-07-04T17:09:39.855Z,shippingservice,cpu,5543085
2023-07-04T17:09:39.887Z,redis-cart,cpu,2009616
2023-07-04T17:09:39.888Z,redis-cart,cpu,1409174
2023-07-04T17:09:39.888Z,recommendationservice,cpu,8489043
2023-07-04T17:09:39.888Z,frontend,cpu,10777466
2023-07-04T17:09:49.888Z,redis-cart,cpu,2009616
2023-07-04T17:09:49.887Z,checkoutservice,cpu,2815217
2023-07-04T17:09:49.855Z,shippingservice,cpu,4411068
2023-07-04T17:09:49.855Z,emailservice,cpu,6371140
2023-07-04T17:09:49.887Z,redis-cart,cpu,1687277
2023-07-04T17:09:49.887Z,redis-cart,cpu,1344119
2023-07-04T17:09:49.855Z,paymentservice,cpu,2474612
2023-07-04T17:09:49.888Z,cartservice,cpu,9171911
2023-07-04T17:09:49.888Z,redis-cart,cpu,1806084
2023-07-04T17:09:49.887Z,productcatalogservice,cpu,7104522
2023-07-04T17:09:49.855Z,redis-cart,cpu,1559142
2023-07-04T17:09:49.855Z,redis-cart,cpu,1454537
2023-07-04T17:09:49.855Z,adservice,cpu,8982470
2023-07-04T17:09:49.855Z,redis-cart,cpu,1531071
2023-07-04T17:09:49.888Z,currencyservice,cpu,13160778
2023-07-04T17:09:49.887Z,redis-cart,cpu,1409174
2023-07-04T17:09:49.887Z,recommendationservice,cpu,8489043
2023-07-04T17:09:49.887Z,frontend,cpu,10777466
2023-07-04T17:09:59.855Z,redis-cart,cpu,1450327
2023-07-04T17:09:59.855Z,paymentservice,cpu,3637724
2023-07-04T17:09:59.887Z,currencyservice,cpu,9034385
2023-07-04T17:09:59.888Z,frontend,cpu,8948484
2023-07-04T17:09:59.888Z,redis-cart,cpu,1630664
2023-07-04T17:09:59.888Z,recommendationservice,cpu,8557890
2023-07-04T17:09:59.888Z,redis-cart,cpu,1408410
2023-07-04T17:09:59.855Z,emailservice,cpu,6234145
2023-07-04T17:09:59.855Z,redis-cart,cpu,1465687
2023-07-04T17:09:59.887Z,redis-cart,cpu,1829252
2023-07-04T17:09:59.887Z,cartservice,cpu,8103990
2023-07-04T17:09:59.888Z,checkoutservice,cpu,2178520
2023-07-04T17:09:59.855Z,adservice,cpu,7306088
2023-07-04T17:09:59.855Z,redis-cart,cpu,1475913
2023-07-04T17:09:59.855Z,shippingservice,cpu,4782816
2023-07-04T17:09:59.887Z,redis-cart,cpu,2423452
2023-07-04T17:09:59.888Z,redis-cart,cpu,1417942
2023-07-04T17:09:59.888Z,productcatalogservice,cpu,7926730
2023-07-04T17:10:09.855Z,redis-cart,cpu,1475913
2023-07-04T17:10:09.887Z,currencyservice,cpu,9034385
2023-07-04T17:10:09.887Z,cartservice,cpu,8103990
2023-07-04T17:10:09.887Z,redis-cart,cpu,2423452
2023-07-04T17:10:09.855Z,paymentservice,cpu,3637724
2023-07-04T17:10:09.855Z,shippingservice,cpu,4782816
2023-07-04T17:10:09.887Z,redis-cart,cpu,1323320
2023-07-04T17:10:09.887Z,productcatalogservice,cpu,7442696
2023-07-04T17:10:09.855Z,emailservice,cpu,6234145
2023-07-04T17:10:09.887Z,redis-cart,cpu,1829252
2023-07-04T17:10:09.887Z,redis-cart,cpu,1313266
2023-07-04T17:10:09.855Z,adservice,cpu,7306088
2023-07-04T17:10:09.855Z,redis-cart,cpu,1450327
2023-07-04T17:10:09.855Z,redis-cart,cpu,1465687
2023-07-04T17:10:09.887Z,frontend,cpu,9898979
2023-07-04T17:10:09.887Z,recommendationservice,cpu,8557890
2023-07-04T17:10:09.887Z,checkoutservice,cpu,4324982
2023-07-04T17:10:09.887Z,redis-cart,cpu,1454239
2023-07-04T17:10:19.855Z,redis-cart,cpu,1544789
2023-07-04T17:10:19.855Z,redis-cart,cpu,1516644
2023-07-04T17:10:19.855Z,emailservice,cpu,6234145
2023-07-04T17:10:19.855Z,paymentservice,cpu,3637724
2023-07-04T17:10:19.855Z,shippingservice,cpu,4866716
2023-07-04T17:10:19.887Z,redis-cart,cpu,1313266
2023-07-04T17:10:19.887Z,redis-cart,cpu,1591713
2023-07-04T17:10:19.887Z,frontend,cpu,9898979
2023-07-04T17:10:19.887Z,checkoutservice,cpu,4324982
2023-07-04T17:10:19.887Z,productcatalogservice,cpu,7442696
2023-07-04T17:10:19.855Z,adservice,cpu,8912370
2023-07-04T17:10:19.855Z,redis-cart,cpu,1465687
2023-07-04T17:10:19.887Z,currencyservice,cpu,12933522
2023-07-04T17:10:19.887Z,cartservice,cpu,8103990
2023-07-04T17:10:19.887Z,redis-cart,cpu,1742359
2023-07-04T17:10:19.887Z,redis-cart,cpu,2046727
2023-07-04T17:10:19.887Z,redis-cart,cpu,1488756
2023-07-04T17:10:19.887Z,recommendationservice,cpu,9432012
2023-07-04T17:10:29.855Z,redis-cart,cpu,1551810
2023-07-04T17:10:29.887Z,recommendationservice,cpu,9914100
2023-07-04T17:10:29.855Z,redis-cart,cpu,1480043
2023-07-04T17:10:29.887Z,cartservice,cpu,10313357
2023-07-04T17:10:29.887Z,redis-cart,cpu,2323276
2023-07-04T17:10:29.855Z,shippingservice,cpu,4866389
2023-07-04T17:10:29.887Z,redis-cart,cpu,1591713
2023-07-04T17:10:29.887Z,productcatalogservice,cpu,7125066
2023-07-04T17:10:29.855Z,emailservice,cpu,7076889
2023-07-04T17:10:29.855Z,redis-cart,cpu,1566317
2023-07-04T17:10:29.855Z,paymentservice,cpu,3719889
2023-07-04T17:10:29.887Z,redis-cart,cpu,1533283
2023-07-04T17:10:29.887Z,redis-cart,cpu,1488756
2023-07-04T17:10:29.855Z,adservice,cpu,11761478
2023-07-04T17:10:29.887Z,redis-cart,cpu,1756578
2023-07-04T17:10:29.887Z,currencyservice,cpu,12933522
2023-07-04T17:10:29.887Z,frontend,cpu,9816426
2023-07-04T17:10:29.887Z,checkoutservice,cpu,1692627
2023-07-04T17:10:39.855Z,emailservice,cpu,7076889
2023-07-04T17:10:39.855Z,redis-cart,cpu,1722366
2023-07-04T17:10:39.855Z,shippingservice,cpu,4090151
2023-07-04T17:10:39.887Z,recommendationservice,cpu,9914100
2023-07-04T17:10:39.855Z,adservice,cpu,13491413
2023-07-04T17:10:39.887Z,redis-cart,cpu,1422262
2023-07-04T17:10:39.888Z,cartservice,cpu,12551936
2023-07-04T17:10:39.855Z,paymentservice,cpu,4052655
2023-07-04T17:10:39.887Z,productcatalogservice,cpu,7462923
2023-07-04T17:10:39.887Z,redis-cart,cpu,1415088
2023-07-04T17:10:39.888Z,currencyservice,cpu,7443423
2023-07-04T17:10:39.888Z,redis-cart,cpu,2291711
2023-07-04T17:10:39.855Z,redis-cart,cpu,1675220
2023-07-04T17:10:39.855Z,redis-cart,cpu,1551810
2023-07-04T17:10:39.887Z,frontend,cpu,11351875
2023-07-04T17:10:39.887Z,redis-cart,cpu,1434415
2023-07-04T17:10:39.887Z,checkoutservice,cpu,1692627
2023-07-04T17:10:39.888Z,redis-cart,cpu,1667505
2023-07-04T17:10:49.855Z,paymentservice,cpu,4052655
2023-07-04T17:10:49.855Z,redis-cart,cpu,1722366
2023-07-04T17:10:49.855Z,redis-cart,cpu,1433438
2023-07-04T17:10:49.887Z,redis-cart,cpu,2291711
2023-07-04T17:10:49.855Z,redis-cart,cpu,1675220
2023-07-04T17:10:49.887Z,currencyservice,cpu,7443423
2023-07-04T17:10:49.887Z,recommendationservice,cpu,9914100
2023-07-04T17:10:49.855Z,adservice,cpu,13491413
2023-07-04T17:10:49.887Z,redis-cart,cpu,1422262
2023-07-04T17:10:49.887Z,frontend,cpu,11351875
2023-07-04T17:10:49.887Z,productcatalogservice,cpu,7462923
2023-07-04T17:10:49.887Z,redis-cart,cpu,1415088
2023-07-04T17:10:49.855Z,shippingservice,cpu,4090151
2023-07-04T17:10:49.855Z,emailservice,cpu,6735781
2023-07-04T17:10:49.887Z,cartservice,cpu,12551936
2023-07-04T17:10:49.887Z,redis-cart,cpu,1667505
2023-07-04T17:10:49.887Z,redis-cart,cpu,1434415
2023-07-04T17:10:49.887Z,checkoutservice,cpu,1692627
2023-07-04T17:10:59.855Z,shippingservice,cpu,4090151
2023-07-04T17:10:59.855Z,redis-cart,cpu,1722366
2023-07-04T17:10:59.887Z,redis-cart,cpu,1881417
2023-07-04T17:10:59.887Z,frontend,cpu,9808599
2023-07-04T17:10:59.887Z,productcatalogservice,cpu,7763795
2023-07-04T17:10:59.887Z,redis-cart,cpu,2057599
2023-07-04T17:10:59.887Z,currencyservice,cpu,14033824
2023-07-04T17:10:59.887Z,redis-cart,cpu,1446734
2023-07-04T17:10:59.887Z,redis-cart,cpu,1437961
2023-07-04T17:10:59.855Z,adservice,cpu,13491413
2023-07-04T17:10:59.855Z,paymentservice,cpu,4052655
2023-07-04T17:10:59.855Z,emailservice,cpu,6735781
2023-07-04T17:10:59.887Z,cartservice,cpu,10419402
2023-07-04T17:10:59.887Z,checkoutservice,cpu,1499358
2023-07-04T17:10:59.855Z,redis-cart,cpu,1675220
2023-07-04T17:10:59.855Z,redis-cart,cpu,1433438
2023-07-04T17:10:59.887Z,redis-cart,cpu,1205047
2023-07-04T17:10:59.887Z,recommendationservice,cpu,10669423
2023-07-04T17:11:09.855Z,redis-cart,cpu,1630623
2023-07-04T17:11:09.887Z,checkoutservice,cpu,1499358
2023-07-04T17:11:09.887Z,redis-cart,cpu,1542085
2023-07-04T17:11:09.887Z,currencyservice,cpu,9491708
2023-07-04T17:11:09.855Z,emailservice,cpu,5269505
2023-07-04T17:11:09.887Z,productcatalogservice,cpu,7763795
2023-07-04T17:11:09.887Z,redis-cart,cpu,2057599
2023-07-04T17:11:09.887Z,cartservice,cpu,10278456
2023-07-04T17:11:09.855Z,redis-cart,cpu,1530802
2023-07-04T17:11:09.855Z,shippingservice,cpu,4703041
2023-07-04T17:11:09.855Z,redis-cart,cpu,1365364
2023-07-04T17:11:09.887Z,frontend,cpu,9808599
2023-07-04T17:11:09.887Z,recommendationservice,cpu,10101217
2023-07-04T17:11:09.887Z,redis-cart,cpu,1881417
2023-07-04T17:11:09.855Z,paymentservice,cpu,4043242
2023-07-04T17:11:09.855Z,adservice,cpu,8252049
2023-07-04T17:11:09.887Z,redis-cart,cpu,1503766
2023-07-04T17:11:09.887Z,redis-cart,cpu,1205047
2023-07-04T17:11:19.855Z,shippingservice,cpu,3445240
2023-07-04T17:11:19.887Z,currencyservice,cpu,9491708
2023-07-04T17:11:19.887Z,redis-cart,cpu,1881417
2023-07-04T17:11:19.855Z,emailservice,cpu,5269505
2023-07-04T17:11:19.855Z,redis-cart,cpu,1472420
2023-07-04T17:11:19.855Z,redis-cart,cpu,1365364
2023-07-04T17:11:19.887Z,redis-cart,cpu,2057599
2023-07-04T17:11:19.855Z,redis-cart,cpu,1530802
2023-07-04T17:11:19.855Z,adservice,cpu,22528256
2023-07-04T17:11:19.855Z,paymentservice,cpu,1955698
2023-07-04T17:11:19.887Z,cartservice,cpu,10278456
2023-07-04T17:11:19.887Z,frontend,cpu,9808599
2023-07-04T17:11:19.887Z,productcatalogservice,cpu,7763795
2023-07-04T17:11:19.887Z,redis-cart,cpu,1503766
2023-07-04T17:11:19.887Z,recommendationservice,cpu,10101217
2023-07-04T17:11:19.887Z,redis-cart,cpu,1205047
2023-07-04T17:11:19.887Z,checkoutservice,cpu,1499358
2023-07-04T17:11:19.887Z,redis-cart,cpu,1542085
2023-07-04T17:11:29.855Z,shippingservice,cpu,4716521
2023-07-04T17:11:29.887Z,redis-cart,cpu,2075136
2023-07-04T17:11:29.887Z,cartservice,cpu,9118827
2023-07-04T17:11:29.855Z,adservice,cpu,10977449
2023-07-04T17:11:29.855Z,redis-cart,cpu,1461904
2023-07-04T17:11:29.855Z,emailservice,cpu,5387256
2023-07-04T17:11:29.887Z,redis-cart,cpu,1684362
2023-07-04T17:11:29.855Z,paymentservice,cpu,3319606
2023-07-04T17:11:29.887Z,currencyservice,cpu,9948225
2023-07-04T17:11:29.887Z,productcatalogservice,cpu,7633505
2023-07-04T17:11:29.887Z,redis-cart,cpu,1479606
2023-07-04T17:11:29.887Z,redis-cart,cpu,1491961
2023-07-04T17:11:29.887Z,redis-cart,cpu,1377573
2023-07-04T17:11:29.887Z,recommendationservice,cpu,9719071
2023-07-04T17:11:29.887Z,checkoutservice,cpu,2872130
2023-07-04T17:11:29.855Z,redis-cart,cpu,1442088
2023-07-04T17:11:29.855Z,redis-cart,cpu,1541574
2023-07-04T17:11:29.887Z,frontend,cpu,10460560
2023-07-04T17:11:39.888Z,redis-cart,cpu,1491961
2023-07-04T17:11:39.888Z,redis-cart,cpu,1465402
2023-07-04T17:11:39.888Z,cartservice,cpu,9123027
2023-07-04T17:11:39.855Z,redis-cart,cpu,1442088
2023-07-04T17:11:39.855Z,paymentservice,cpu,3319606
2023-07-04T17:11:39.855Z,redis-cart,cpu,1461904
2023-07-04T17:11:39.888Z,redis-cart,cpu,1233540
2023-07-04T17:11:39.855Z,emailservice,cpu,5387256
2023-07-04T17:11:39.888Z,checkoutservice,cpu,2872130
2023-07-04T17:11:39.888Z,recommendationservice,cpu,9245490
2023-07-04T17:11:39.888Z,redis-cart,cpu,1894314
2023-07-04T17:11:39.855Z,adservice,cpu,10977449
2023-07-04T17:11:39.855Z,shippingservice,cpu,4716521
2023-07-04T17:11:39.855Z,redis-cart,cpu,1541574
2023-07-04T17:11:39.888Z,frontend,cpu,10180016
2023-07-04T17:11:39.888Z,productcatalogservice,cpu,7902954
2023-07-04T17:11:39.888Z,currencyservice,cpu,9868081
2023-07-04T17:11:39.888Z,redis-cart,cpu,2075003
2023-07-04T17:11:49.855Z,redis-cart,cpu,1511220
2023-07-04T17:11:49.887Z,frontend,cpu,10180016
2023-07-04T17:11:49.887Z,productcatalogservice,cpu,7902954
2023-07-04T17:11:49.888Z,redis-cart,cpu,2075003
2023-07-04T17:11:49.855Z,redis-cart,cpu,1493607
2023-07-04T17:11:49.887Z,checkoutservice,cpu,2872130
2023-07-04T17:11:49.887Z,recommendationservice,cpu,9245490
2023-07-04T17:11:49.888Z,cartservice,cpu,7531194
2023-07-04T17:11:49.855Z,redis-cart,cpu,1561955
2023-07-04T17:11:49.855Z,adservice,cpu,7546406
2023-07-04T17:11:49.855Z,paymentservice,cpu,3319606
2023-07-04T17:11:49.887Z,redis-cart,cpu,1491961
2023-07-04T17:11:49.887Z,redis-cart,cpu,1465402
2023-07-04T17:11:49.888Z,redis-cart,cpu,1737906
2023-07-04T17:11:49.888Z,currencyservice,cpu,9868081
2023-07-04T17:11:49.855Z,emailservice,cpu,5387256
2023-07-04T17:11:49.855Z,shippingservice,cpu,4716521
2023-07-04T17:11:49.887Z,redis-cart,cpu,1233540
2023-07-04T17:11:59.855Z,redis-cart,cpu,1385186
2023-07-04T17:11:59.888Z,redis-cart,cpu,2154114
2023-07-04T17:11:59.887Z,redis-cart,cpu,1333490
2023-07-04T17:11:59.855Z,redis-cart,cpu,1491571
2023-07-04T17:11:59.888Z,redis-cart,cpu,1737906
2023-07-04T17:11:59.887Z,frontend,cpu,9586427
2023-07-04T17:11:59.887Z,checkoutservice,cpu,2062152
2023-07-04T17:11:59.855Z,adservice,cpu,8781562
2023-07-04T17:11:59.888Z,cartservice,cpu,7195522
2023-07-04T17:11:59.888Z,currencyservice,cpu,8620453
2023-07-04T17:11:59.887Z,redis-cart,cpu,1493066
2023-07-04T17:11:59.887Z,productcatalogservice,cpu,6879418
2023-07-04T17:11:59.887Z,recommendationservice,cpu,8657548
2023-07-04T17:11:59.855Z,paymentservice,cpu,2621189
2023-07-04T17:11:59.855Z,shippingservice,cpu,5131009
2023-07-04T17:11:59.855Z,redis-cart,cpu,1460839
2023-07-04T17:11:59.855Z,emailservice,cpu,5620947
2023-07-04T17:11:59.887Z,redis-cart,cpu,1470353
2023-07-04T17:12:09.855Z,redis-cart,cpu,1385186
2023-07-04T17:12:09.887Z,productcatalogservice,cpu,6879418
2023-07-04T17:12:09.888Z,currencyservice,cpu,8620453
2023-07-04T17:12:09.888Z,cartservice,cpu,10100551
2023-07-04T17:12:09.855Z,redis-cart,cpu,1491571
2023-07-04T17:12:09.887Z,redis-cart,cpu,1400781
2023-07-04T17:12:09.855Z,paymentservice,cpu,2621189
2023-07-04T17:12:09.855Z,shippingservice,cpu,5131009
2023-07-04T17:12:09.855Z,redis-cart,cpu,1460839
2023-07-04T17:12:09.855Z,adservice,cpu,8781562
2023-07-04T17:12:09.887Z,redis-cart,cpu,1544806
2023-07-04T17:12:09.888Z,redis-cart,cpu,1752128
2023-07-04T17:12:09.855Z,emailservice,cpu,5620947
2023-07-04T17:12:09.887Z,frontend,cpu,11212396
2023-07-04T17:12:09.887Z,checkoutservice,cpu,2062152
2023-07-04T17:12:09.887Z,redis-cart,cpu,1493066
2023-07-04T17:12:09.887Z,recommendationservice,cpu,8657548
2023-07-04T17:12:09.888Z,redis-cart,cpu,2269134
2023-07-04T17:12:19.855Z,adservice,cpu,7002538
2023-07-04T17:12:19.855Z,shippingservice,cpu,5248206
2023-07-04T17:12:19.887Z,redis-cart,cpu,1544806
2023-07-04T17:12:19.855Z,emailservice,cpu,5620947
2023-07-04T17:12:19.888Z,currencyservice,cpu,8620453
2023-07-04T17:12:19.888Z,redis-cart,cpu,1752128
2023-07-04T17:12:19.887Z,productcatalogservice,cpu,6879418
2023-07-04T17:12:19.855Z,paymentservice,cpu,2621189
2023-07-04T17:12:19.888Z,cartservice,cpu,10100551
2023-07-04T17:12:19.888Z,redis-cart,cpu,2269134
2023-07-04T17:12:19.887Z,frontend,cpu,11212396
2023-07-04T17:12:19.887Z,checkoutservice,cpu,2062152
2023-07-04T17:12:19.887Z,redis-cart,cpu,1493066
2023-07-04T17:12:19.887Z,recommendationservice,cpu,8657548
2023-07-04T17:12:19.855Z,redis-cart,cpu,1456896
2023-07-04T17:12:19.855Z,redis-cart,cpu,1449516
2023-07-04T17:12:19.855Z,redis-cart,cpu,1385186
2023-07-04T17:12:19.887Z,redis-cart,cpu,1400781
2023-07-04T17:12:29.855Z,redis-cart,cpu,1538341
2023-07-04T17:12:29.855Z,paymentservice,cpu,4345409
2023-07-04T17:12:29.887Z,redis-cart,cpu,2041790
2023-07-04T17:12:29.887Z,currencyservice,cpu,7264001
2023-07-04T17:12:29.887Z,cartservice,cpu,9216260
2023-07-04T17:12:29.887Z,redis-cart,cpu,1769628
2023-07-04T17:12:29.888Z,recommendationservice,cpu,8262635
2023-07-04T17:12:29.855Z,emailservice,cpu,7280766
2023-07-04T17:12:29.855Z,redis-cart,cpu,1449516
2023-07-04T17:12:29.855Z,redis-cart,cpu,1540424
2023-07-04T17:12:29.888Z,productcatalogservice,cpu,6046409
2023-07-04T17:12:29.888Z,frontend,cpu,9011628
2023-07-04T17:12:29.888Z,redis-cart,cpu,1498344
2023-07-04T17:12:29.888Z,redis-cart,cpu,1466230
2023-07-04T17:12:29.888Z,redis-cart,cpu,1474662
2023-07-04T17:12:29.855Z,adservice,cpu,11025244
2023-07-04T17:12:29.855Z,shippingservice,cpu,3627610
2023-07-04T17:12:29.888Z,checkoutservice,cpu,2636927
2023-07-04T17:12:39.855Z,emailservice,cpu,6246049
2023-07-04T17:12:39.887Z,cartservice,cpu,9216260
2023-07-04T17:12:39.887Z,recommendationservice,cpu,8262635
2023-07-04T17:12:39.887Z,productcatalogservice,cpu,6046409
2023-07-04T17:12:39.855Z,adservice,cpu,11025244
2023-07-04T17:12:39.855Z,redis-cart,cpu,1540424
2023-07-04T17:12:39.855Z,shippingservice,cpu,3627610
2023-07-04T17:12:39.887Z,currencyservice,cpu,7264001
2023-07-04T17:12:39.887Z,redis-cart,cpu,1381288
2023-07-04T17:12:39.887Z,redis-cart,cpu,1485209
2023-07-04T17:12:39.887Z,frontend,cpu,12123006
2023-07-04T17:12:39.855Z,paymentservice,cpu,3133287
2023-07-04T17:12:39.887Z,redis-cart,cpu,1769628
2023-07-04T17:12:39.855Z,redis-cart,cpu,1535728
2023-07-04T17:12:39.855Z,redis-cart,cpu,1538341
2023-07-04T17:12:39.887Z,redis-cart,cpu,2041790
2023-07-04T17:12:39.887Z,redis-cart,cpu,1405152
2023-07-04T17:12:39.887Z,checkoutservice,cpu,3763866
2023-07-04T17:12:49.855Z,redis-cart,cpu,1570322
2023-07-04T17:12:49.855Z,redis-cart,cpu,1464089
2023-07-04T17:12:49.887Z,frontend,cpu,12123006
2023-07-04T17:12:49.887Z,redis-cart,cpu,1485209
2023-07-04T17:12:49.887Z,cartservice,cpu,8580782
2023-07-04T17:12:49.855Z,paymentservice,cpu,3701815
2023-07-04T17:12:49.887Z,checkoutservice,cpu,4690699
2023-07-04T17:12:49.855Z,redis-cart,cpu,1435924
2023-07-04T17:12:49.855Z,emailservice,cpu,6662222
2023-07-04T17:12:49.887Z,currencyservice,cpu,10996451
2023-07-04T17:12:49.887Z,productcatalogservice,cpu,9778734
2023-07-04T17:12:49.887Z,recommendationservice,cpu,9818276
2023-07-04T17:12:49.855Z,adservice,cpu,7783210
2023-07-04T17:12:49.887Z,redis-cart,cpu,1769628
2023-07-04T17:12:49.887Z,redis-cart,cpu,2041790
2023-07-04T17:12:49.855Z,shippingservice,cpu,5240704
2023-07-04T17:12:49.887Z,redis-cart,cpu,1485330
2023-07-04T17:12:49.887Z,redis-cart,cpu,1381288
2023-07-04T17:12:59.887Z,redis-cart,cpu,1485330
2023-07-04T17:12:59.887Z,frontend,cpu,9759851
2023-07-04T17:12:59.887Z,redis-cart,cpu,1925513
2023-07-04T17:12:59.887Z,currencyservice,cpu,8601729
2023-07-04T17:12:59.855Z,shippingservice,cpu,5183724
2023-07-04T17:12:59.887Z,redis-cart,cpu,1495890
2023-07-04T17:12:59.887Z,redis-cart,cpu,1486604
2023-07-04T17:12:59.887Z,redis-cart,cpu,2078261
2023-07-04T17:12:59.855Z,paymentservice,cpu,2749327
2023-07-04T17:12:59.855Z,emailservice,cpu,5920717
2023-07-04T17:12:59.887Z,checkoutservice,cpu,4690699
2023-07-04T17:12:59.855Z,redis-cart,cpu,1363078
2023-07-04T17:12:59.855Z,redis-cart,cpu,1519519
2023-07-04T17:12:59.855Z,redis-cart,cpu,1435924
2023-07-04T17:12:59.855Z,adservice,cpu,28138696
2023-07-04T17:12:59.887Z,productcatalogservice,cpu,6796719
2023-07-04T17:12:59.887Z,recommendationservice,cpu,10741832
2023-07-04T17:12:59.887Z,cartservice,cpu,10896127
2023-07-04T17:13:09.855Z,redis-cart,cpu,1610695
2023-07-04T17:13:09.855Z,redis-cart,cpu,1526531
2023-07-04T17:13:09.855Z,adservice,cpu,8221575
2023-07-04T17:13:09.888Z,redis-cart,cpu,2139696
2023-07-04T17:13:09.855Z,paymentservice,cpu,2373982
2023-07-04T17:13:09.888Z,currencyservice,cpu,10253526
2023-07-04T17:13:09.887Z,checkoutservice,cpu,1949847
2023-07-04T17:13:09.887Z,redis-cart,cpu,1353647
2023-07-04T17:13:09.887Z,recommendationservice,cpu,10741832
2023-07-04T17:13:09.887Z,productcatalogservice,cpu,6573090
2023-07-04T17:13:09.887Z,redis-cart,cpu,1449340
2023-07-04T17:13:09.855Z,redis-cart,cpu,1519519
2023-07-04T17:13:09.855Z,shippingservice,cpu,3660714
2023-07-04T17:13:09.855Z,emailservice,cpu,5920717
2023-07-04T17:13:09.887Z,frontend,cpu,10177527
2023-07-04T17:13:09.887Z,redis-cart,cpu,1405539
2023-07-04T17:13:09.888Z,redis-cart,cpu,1925513
2023-07-04T17:13:09.888Z,cartservice,cpu,10896127
2023-07-04T17:13:19.855Z,redis-cart,cpu,1519519
2023-07-04T17:13:19.855Z,emailservice,cpu,5920717
2023-07-04T17:13:19.855Z,redis-cart,cpu,1610695
2023-07-04T17:13:19.855Z,paymentservice,cpu,2373982
2023-07-04T17:13:19.888Z,currencyservice,cpu,10253526
2023-07-04T17:13:19.888Z,redis-cart,cpu,2139696
2023-07-04T17:13:19.887Z,frontend,cpu,10177527
2023-07-04T17:13:19.855Z,shippingservice,cpu,3660714
2023-07-04T17:13:19.855Z,adservice,cpu,8221575
2023-07-04T17:13:19.888Z,cartservice,cpu,10732447
2023-07-04T17:13:19.887Z,checkoutservice,cpu,1949847
2023-07-04T17:13:19.887Z,redis-cart,cpu,1449340
2023-07-04T17:13:19.887Z,redis-cart,cpu,1405539
2023-07-04T17:13:19.855Z,redis-cart,cpu,1526531
2023-07-04T17:13:19.888Z,redis-cart,cpu,1694449
2023-07-04T17:13:19.887Z,redis-cart,cpu,1353647
2023-07-04T17:13:19.887Z,recommendationservice,cpu,10741832
2023-07-04T17:13:19.887Z,productcatalogservice,cpu,6573090
2023-07-04T17:13:29.855Z,paymentservice,cpu,2373982
2023-07-04T17:13:29.855Z,emailservice,cpu,7376658
2023-07-04T17:13:29.855Z,redis-cart,cpu,1610695
2023-07-04T17:13:29.887Z,cartservice,cpu,10732447
2023-07-04T17:13:29.888Z,frontend,cpu,10867676
2023-07-04T17:13:29.855Z,adservice,cpu,14633559
2023-07-04T17:13:29.887Z,currencyservice,cpu,10253526
2023-07-04T17:13:29.887Z,redis-cart,cpu,2139696
2023-07-04T17:13:29.888Z,recommendationservice,cpu,8576155
2023-07-04T17:13:29.888Z,checkoutservice,cpu,3350828
2023-07-04T17:13:29.855Z,shippingservice,cpu,4177170
2023-07-04T17:13:29.855Z,redis-cart,cpu,1507646
2023-07-04T17:13:29.888Z,redis-cart,cpu,1494986
2023-07-04T17:13:29.888Z,redis-cart,cpu,1494021
2023-07-04T17:13:29.855Z,redis-cart,cpu,1555256
2023-07-04T17:13:29.887Z,redis-cart,cpu,1694449
2023-07-04T17:13:29.888Z,redis-cart,cpu,1515254
2023-07-04T17:13:29.888Z,productcatalogservice,cpu,9069380
2023-07-04T17:13:39.855Z,redis-cart,cpu,1514327
2023-07-04T17:13:39.855Z,redis-cart,cpu,1501689
2023-07-04T17:13:39.855Z,paymentservice,cpu,3747272
2023-07-04T17:13:39.887Z,redis-cart,cpu,1828063
2023-07-04T17:13:39.887Z,currencyservice,cpu,9475800
2023-07-04T17:13:39.887Z,redis-cart,cpu,1372117
2023-07-04T17:13:39.887Z,checkoutservice,cpu,3139282
2023-07-04T17:13:39.855Z,emailservice,cpu,5225715
2023-07-04T17:13:39.887Z,redis-cart,cpu,2291832
2023-07-04T17:13:39.887Z,cartservice,cpu,7417186
2023-07-04T17:13:39.887Z,redis-cart,cpu,1353163
2023-07-04T17:13:39.887Z,frontend,cpu,12869701
2023-07-04T17:13:39.855Z,redis-cart,cpu,1479017
2023-07-04T17:13:39.887Z,redis-cart,cpu,1314097
2023-07-04T17:13:39.887Z,recommendationservice,cpu,10749727
2023-07-04T17:13:39.887Z,productcatalogservice,cpu,6921060
2023-07-04T17:13:39.855Z,adservice,cpu,14633559
2023-07-04T17:13:39.855Z,shippingservice,cpu,4177170
2023-07-04T17:13:49.855Z,emailservice,cpu,5225715
2023-07-04T17:13:49.855Z,redis-cart,cpu,1408192
2023-07-04T17:13:49.855Z,redis-cart,cpu,1581112
2023-07-04T17:13:49.888Z,currencyservice,cpu,8684878
2023-07-04T17:13:49.888Z,redis-cart,cpu,1631022
2023-07-04T17:13:49.887Z,checkoutservice,cpu,2350226
2023-07-04T17:13:49.887Z,redis-cart,cpu,1494803
2023-07-04T17:13:49.887Z,productcatalogservice,cpu,6921060
2023-07-04T17:13:49.855Z,adservice,cpu,7307267
2023-07-04T17:13:49.855Z,paymentservice,cpu,2394681
2023-07-04T17:13:49.888Z,cartservice,cpu,9001141
2023-07-04T17:13:49.887Z,frontend,cpu,9100645
2023-07-04T17:13:49.887Z,redis-cart,cpu,1562267
2023-07-04T17:13:49.855Z,shippingservice,cpu,5105419
2023-07-04T17:13:49.855Z,redis-cart,cpu,1580742
2023-07-04T17:13:49.888Z,redis-cart,cpu,1993162
2023-07-04T17:13:49.887Z,redis-cart,cpu,1499858
2023-07-04T17:13:49.887Z,recommendationservice,cpu,7114612
2023-07-04T17:13:59.855Z,emailservice,cpu,7444197
2023-07-04T17:13:59.887Z,redis-cart,cpu,1993162
2023-07-04T17:13:59.887Z,checkoutservice,cpu,2665185
2023-07-04T17:13:59.887Z,productcatalogservice,cpu,7274589
2023-07-04T17:13:59.855Z,adservice,cpu,9667236
2023-07-04T17:13:59.855Z,shippingservice,cpu,4057304
2023-07-04T17:13:59.887Z,currencyservice,cpu,8684878
2023-07-04T17:13:59.887Z,frontend,cpu,9100645
2023-07-04T17:13:59.855Z,paymentservice,cpu,3384544
2023-07-04T17:13:59.855Z,redis-cart,cpu,1459192
2023-07-04T17:13:59.887Z,redis-cart,cpu,1499858
2023-07-04T17:13:59.887Z,redis-cart,cpu,1369066
2023-07-04T17:13:59.855Z,redis-cart,cpu,1440648
2023-07-04T17:13:59.855Z,redis-cart,cpu,1573830
2023-07-04T17:13:59.887Z,cartservice,cpu,9001141
2023-07-04T17:13:59.887Z,redis-cart,cpu,1631022
2023-07-04T17:13:59.887Z,recommendationservice,cpu,10514411
2023-07-04T17:13:59.887Z,redis-cart,cpu,1562267
2023-07-04T17:14:09.855Z,redis-cart,cpu,1440648
2023-07-04T17:14:09.855Z,shippingservice,cpu,4057304
2023-07-04T17:14:09.855Z,emailservice,cpu,7444197
2023-07-04T17:14:09.888Z,currencyservice,cpu,8847377
2023-07-04T17:14:09.888Z,redis-cart,cpu,2340194
2023-07-04T17:14:09.887Z,recommendationservice,cpu,10514411
2023-07-04T17:14:09.855Z,redis-cart,cpu,1459192
2023-07-04T17:14:09.888Z,redis-cart,cpu,1631022
2023-07-04T17:14:09.887Z,redis-cart,cpu,1292252
2023-07-04T17:14:09.887Z,frontend,cpu,9520260
2023-07-04T17:14:09.855Z,paymentservice,cpu,3384544
2023-07-04T17:14:09.855Z,redis-cart,cpu,1573830
2023-07-04T17:14:09.887Z,checkoutservice,cpu,2665185
2023-07-04T17:14:09.887Z,redis-cart,cpu,1336988
2023-07-04T17:14:09.855Z,adservice,cpu,9667236
2023-07-04T17:14:09.888Z,cartservice,cpu,9091173
2023-07-04T17:14:09.887Z,redis-cart,cpu,1369066
2023-07-04T17:14:09.887Z,productcatalogservice,cpu,6099924
2023-07-04T17:14:19.887Z,redis-cart,cpu,1292252
2023-07-04T17:14:19.887Z,productcatalogservice,cpu,5931972
2023-07-04T17:14:19.888Z,redis-cart,cpu,2061079
2023-07-04T17:14:19.855Z,adservice,cpu,7836054
2023-07-04T17:14:19.855Z,paymentservice,cpu,1765403
2023-07-04T17:14:19.855Z,redis-cart,cpu,1417540
2023-07-04T17:14:19.887Z,redis-cart,cpu,1486144
2023-07-04T17:14:19.887Z,checkoutservice,cpu,3777557
2023-07-04T17:14:19.888Z,cartservice,cpu,9369376
2023-07-04T17:14:19.855Z,shippingservice,cpu,4739527
2023-07-04T17:14:19.855Z,redis-cart,cpu,1766865
2023-07-04T17:14:19.887Z,recommendationservice,cpu,8776074
2023-07-04T17:14:19.887Z,redis-cart,cpu,1435822
2023-07-04T17:14:19.888Z,currencyservice,cpu,8462822
2023-07-04T17:14:19.855Z,emailservice,cpu,5830339
2023-07-04T17:14:19.855Z,redis-cart,cpu,1509308
2023-07-04T17:14:19.887Z,frontend,cpu,9520260
2023-07-04T17:14:19.888Z,redis-cart,cpu,1912003
2023-07-04T17:14:29.855Z,redis-cart,cpu,1449103
2023-07-04T17:14:29.887Z,cartservice,cpu,9369376
2023-07-04T17:14:29.887Z,redis-cart,cpu,1486144
2023-07-04T17:14:29.887Z,redis-cart,cpu,1545331
2023-07-04T17:14:29.887Z,productcatalogservice,cpu,5931972
2023-07-04T17:14:29.855Z,redis-cart,cpu,1487208
2023-07-04T17:14:29.855Z,shippingservice,cpu,4739527
2023-07-04T17:14:29.855Z,emailservice,cpu,7459995
2023-07-04T17:14:29.887Z,redis-cart,cpu,2061079
2023-07-04T17:14:29.887Z,checkoutservice,cpu,3777557
2023-07-04T17:14:29.887Z,redis-cart,cpu,1341005
2023-07-04T17:14:29.855Z,redis-cart,cpu,1510132
2023-07-04T17:14:29.855Z,paymentservice,cpu,1765403
2023-07-04T17:14:29.855Z,adservice,cpu,10575796
2023-07-04T17:14:29.887Z,redis-cart,cpu,1912003
2023-07-04T17:14:29.887Z,currencyservice,cpu,8462822
2023-07-04T17:14:29.887Z,recommendationservice,cpu,8554627
2023-07-04T17:14:29.887Z,frontend,cpu,8968086
2023-07-04T17:14:39.887Z,redis-cart,cpu,1545331
2023-07-04T17:14:39.887Z,redis-cart,cpu,1486144
2023-07-04T17:14:39.887Z,checkoutservice,cpu,3777557
2023-07-04T17:14:39.855Z,paymentservice,cpu,4137475
2023-07-04T17:14:39.855Z,emailservice,cpu,7459995
2023-07-04T17:14:39.855Z,redis-cart,cpu,1449103
2023-07-04T17:14:39.855Z,redis-cart,cpu,1510132
2023-07-04T17:14:39.887Z,recommendationservice,cpu,8554627
2023-07-04T17:14:39.887Z,frontend,cpu,8968086
2023-07-04T17:14:39.887Z,productcatalogservice,cpu,5931972
2023-07-04T17:14:39.888Z,currencyservice,cpu,9537855
2023-07-04T17:14:39.855Z,adservice,cpu,8009459
2023-07-04T17:14:39.855Z,shippingservice,cpu,6226034
2023-07-04T17:14:39.855Z,redis-cart,cpu,1487208
2023-07-04T17:14:39.888Z,cartservice,cpu,9369376
2023-07-04T17:14:39.888Z,redis-cart,cpu,1828888
2023-07-04T17:14:39.888Z,redis-cart,cpu,2115996
2023-07-04T17:14:39.887Z,redis-cart,cpu,1341005
2023-07-04T17:14:49.855Z,redis-cart,cpu,1557646
2023-07-04T17:14:49.887Z,redis-cart,cpu,1165614
2023-07-04T17:14:49.855Z,redis-cart,cpu,1492298
2023-07-04T17:14:49.855Z,adservice,cpu,6628490
2023-07-04T17:14:49.855Z,paymentservice,cpu,4137475
2023-07-04T17:14:49.888Z,redis-cart,cpu,1798041
2023-07-04T17:14:49.888Z,currencyservice,cpu,10114269
2023-07-04T17:14:49.887Z,checkoutservice,cpu,2067340
2023-07-04T17:14:49.855Z,redis-cart,cpu,1477836
2023-07-04T17:14:49.855Z,emailservice,cpu,6584843
2023-07-04T17:14:49.887Z,recommendationservice,cpu,9863177
2023-07-04T17:14:49.887Z,redis-cart,cpu,1338233
2023-07-04T17:14:49.887Z,frontend,cpu,10131381
2023-07-04T17:14:49.855Z,shippingservice,cpu,3808957
2023-07-04T17:14:49.888Z,cartservice,cpu,8087436
2023-07-04T17:14:49.888Z,redis-cart,cpu,2204825
2023-07-04T17:14:49.887Z,redis-cart,cpu,1505284
2023-07-04T17:14:49.887Z,productcatalogservice,cpu,6084119
2023-07-04T17:14:59.855Z,shippingservice,cpu,4753324
2023-07-04T17:14:59.855Z,emailservice,cpu,6172244
2023-07-04T17:14:59.855Z,paymentservice,cpu,3663255
2023-07-04T17:14:59.887Z,recommendationservice,cpu,9188010
2023-07-04T17:14:59.887Z,redis-cart,cpu,1505284
2023-07-04T17:14:59.887Z,redis-cart,cpu,1385781
2023-07-04T17:14:59.855Z,adservice,cpu,9989536
2023-07-04T17:14:59.855Z,redis-cart,cpu,1554443
2023-07-04T17:14:59.855Z,redis-cart,cpu,1515581
2023-07-04T17:14:59.888Z,currencyservice,cpu,9327134
2023-07-04T17:14:59.888Z,redis-cart,cpu,1817513
2023-07-04T17:14:59.887Z,frontend,cpu,11127327
2023-07-04T17:14:59.887Z,redis-cart,cpu,1545249
2023-07-04T17:14:59.887Z,productcatalogservice,cpu,6428392
2023-07-04T17:14:59.887Z,checkoutservice,cpu,2575652
2023-07-04T17:14:59.855Z,redis-cart,cpu,1425138
2023-07-04T17:14:59.888Z,cartservice,cpu,10172369
2023-07-04T17:14:59.888Z,redis-cart,cpu,2266378
2023-07-04T17:15:09.855Z,emailservice,cpu,6234282
2023-07-04T17:15:09.888Z,currencyservice,cpu,8270664
2023-07-04T17:15:09.855Z,redis-cart,cpu,1425138
2023-07-04T17:15:09.855Z,paymentservice,cpu,3421076
2023-07-04T17:15:09.888Z,cartservice,cpu,10172369
2023-07-04T17:15:09.855Z,redis-cart,cpu,1517131
2023-07-04T17:15:09.855Z,redis-cart,cpu,1468800
2023-07-04T17:15:09.855Z,adservice,cpu,9989536
2023-07-04T17:15:09.855Z,shippingservice,cpu,4753324
2023-07-04T17:15:09.888Z,redis-cart,cpu,1817513
2023-07-04T17:15:09.888Z,redis-cart,cpu,1911316
2023-07-04T17:15:09.887Z,redis-cart,cpu,1371655
2023-07-04T17:15:09.887Z,checkoutservice,cpu,2575652
2023-07-04T17:15:09.887Z,recommendationservice,cpu,9121161
2023-07-04T17:15:09.887Z,redis-cart,cpu,1385781
2023-07-04T17:15:09.887Z,frontend,cpu,11127327
2023-07-04T17:15:09.887Z,productcatalogservice,cpu,6428392
2023-07-04T17:15:09.887Z,redis-cart,cpu,1467196
2023-07-04T17:15:19.855Z,redis-cart,cpu,1425138
2023-07-04T17:15:19.855Z,shippingservice,cpu,4753324
2023-07-04T17:15:19.855Z,redis-cart,cpu,1517131
2023-07-04T17:15:19.887Z,redis-cart,cpu,1817513
2023-07-04T17:15:19.887Z,currencyservice,cpu,8270664
2023-07-04T17:15:19.855Z,redis-cart,cpu,1468800
2023-07-04T17:15:19.855Z,paymentservice,cpu,3421076
2023-07-04T17:15:19.855Z,emailservice,cpu,6234282
2023-07-04T17:15:19.855Z,adservice,cpu,9989536
2023-07-04T17:15:19.888Z,checkoutservice,cpu,2988015
2023-07-04T17:15:19.888Z,productcatalogservice,cpu,8595582
2023-07-04T17:15:19.888Z,recommendationservice,cpu,8568869
2023-07-04T17:15:19.888Z,frontend,cpu,9762485
2023-07-04T17:15:19.888Z,redis-cart,cpu,1470413
2023-07-04T17:15:19.888Z,redis-cart,cpu,1371655
2023-07-04T17:15:19.888Z,redis-cart,cpu,1350855
2023-07-04T17:15:19.887Z,cartservice,cpu,10172369
2023-07-04T17:15:19.887Z,redis-cart,cpu,1911316
2023-07-04T17:15:29.855Z,emailservice,cpu,7241372
2023-07-04T17:15:29.887Z,redis-cart,cpu,1911316
2023-07-04T17:15:29.887Z,frontend,cpu,9762485
2023-07-04T17:15:29.855Z,paymentservice,cpu,3421076
2023-07-04T17:15:29.855Z,redis-cart,cpu,1482982
2023-07-04T17:15:29.855Z,shippingservice,cpu,5578899
2023-07-04T17:15:29.855Z,redis-cart,cpu,1517131
2023-07-04T17:15:29.887Z,checkoutservice,cpu,2988015
2023-07-04T17:15:29.887Z,redis-cart,cpu,1470413
2023-07-04T17:15:29.887Z,redis-cart,cpu,1350855
2023-07-04T17:15:29.855Z,redis-cart,cpu,1534719
2023-07-04T17:15:29.887Z,cartservice,cpu,10361051
2023-07-04T17:15:29.887Z,recommendationservice,cpu,8568869
2023-07-04T17:15:29.855Z,adservice,cpu,9893918
2023-07-04T17:15:29.887Z,currencyservice,cpu,8270664
2023-07-04T17:15:29.887Z,redis-cart,cpu,1718144
2023-07-04T17:15:29.887Z,productcatalogservice,cpu,8595582
2023-07-04T17:15:29.887Z,redis-cart,cpu,1371655
2023-07-04T17:15:39.855Z,redis-cart,cpu,1534719
2023-07-04T17:15:39.887Z,checkoutservice,cpu,3179060
2023-07-04T17:15:39.887Z,redis-cart,cpu,2165604
2023-07-04T17:15:39.887Z,redis-cart,cpu,1466751
2023-07-04T17:15:39.887Z,redis-cart,cpu,1544504
2023-07-04T17:15:39.855Z,adservice,cpu,9893918
2023-07-04T17:15:39.855Z,redis-cart,cpu,1427300
2023-07-04T17:15:39.855Z,redis-cart,cpu,1326105
2023-07-04T17:15:39.887Z,frontend,cpu,9804718
2023-07-04T17:15:39.855Z,shippingservice,cpu,3765297
2023-07-04T17:15:39.855Z,emailservice,cpu,7241372
2023-07-04T17:15:39.855Z,paymentservice,cpu,3063063
2023-07-04T17:15:39.887Z,redis-cart,cpu,1902304
2023-07-04T17:15:39.887Z,currencyservice,cpu,8457216
2023-07-04T17:15:39.887Z,cartservice,cpu,9971192
2023-07-04T17:15:39.887Z,recommendationservice,cpu,11133542
2023-07-04T17:15:39.887Z,productcatalogservice,cpu,6416183
2023-07-04T17:15:39.887Z,redis-cart,cpu,1297261
2023-07-04T17:15:49.855Z,shippingservice,cpu,4990770
2023-07-04T17:15:49.887Z,redis-cart,cpu,1408782
2023-07-04T17:15:49.887Z,productcatalogservice,cpu,7645964
2023-07-04T17:15:49.887Z,checkoutservice,cpu,3179060
2023-07-04T17:15:49.888Z,currencyservice,cpu,8857230
2023-07-04T17:15:49.887Z,redis-cart,cpu,1466751
2023-07-04T17:15:49.887Z,recommendationservice,cpu,9068471
2023-07-04T17:15:49.888Z,redis-cart,cpu,1902304
2023-07-04T17:15:49.888Z,redis-cart,cpu,2165604
2023-07-04T17:15:49.855Z,adservice,cpu,8901430
2023-07-04T17:15:49.855Z,redis-cart,cpu,1616501
2023-07-04T17:15:49.887Z,redis-cart,cpu,1297261
2023-07-04T17:15:49.855Z,emailservice,cpu,7332764
2023-07-04T17:15:49.855Z,redis-cart,cpu,1510014
2023-07-04T17:15:49.855Z,redis-cart,cpu,1474886
2023-07-04T17:15:49.855Z,paymentservice,cpu,2899571
2023-07-04T17:15:49.887Z,frontend,cpu,9804718
2023-07-04T17:15:49.888Z,cartservice,cpu,9225828
