2023-07-04T17:05:29.501Z,redis-exporter-dbops-team,network_out,64321
2023-07-04T17:05:29.540Z,blackbox-exporter,network_out,53390
2023-07-04T17:05:29.540Z,redis-exporter-dev-team,network_out,74674
2023-07-04T17:05:39.887Z,blackbox-exporter,network_out,53390
2023-07-04T17:05:39.855Z,redis-exporter-dbops-team,network_out,64321
2023-07-04T17:05:39.887Z,redis-exporter-dev-team,network_out,74674
2023-07-04T17:05:49.887Z,blackbox-exporter,network_out,53390
2023-07-04T17:05:49.887Z,redis-exporter-dev-team,network_out,74674
2023-07-04T17:05:49.856Z,redis-exporter-dbops-team,network_out,102830
2023-07-04T17:05:59.855Z,redis-exporter-dbops-team,network_out,102830
2023-07-04T17:05:59.887Z,blackbox-exporter,network_out,73721
2023-07-04T17:05:59.887Z,redis-exporter-dev-team,network_out,90730
2023-07-04T17:06:09.855Z,redis-exporter-dbops-team,network_out,102830
2023-07-04T17:06:09.887Z,blackbox-exporter,network_out,91585
2023-07-04T17:06:09.887Z,redis-exporter-dev-team,network_out,106559
2023-07-04T17:06:19.855Z,redis-exporter-dbops-team,network_out,113773
2023-07-04T17:06:19.887Z,blackbox-exporter,network_out,108454
2023-07-04T17:06:19.887Z,redis-exporter-dev-team,network_out,128834
2023-07-04T17:06:29.887Z,blackbox-exporter,network_out,124876
2023-07-04T17:06:29.855Z,redis-exporter-dbops-team,network_out,152281
2023-07-04T17:06:29.887Z,redis-exporter-dev-team,network_out,139346
2023-07-04T17:06:39.855Z,redis-exporter-dbops-team,network_out,152281
2023-07-04T17:06:39.887Z,blackbox-exporter,network_out,124876
2023-07-04T17:06:39.887Z,redis-exporter-dev-team,network_out,139346
2023-07-04T17:06:49.887Z,redis-exporter-dev-team,network_out,172474
2023-07-04T17:06:49.887Z,blackbox-exporter,network_out,155354
2023-07-04T17:06:49.855Z,redis-exporter-dbops-team,network_out,157946
2023-07-04T17:06:59.887Z,redis-exporter-dev-team,network_out,199780
2023-07-04T17:06:59.887Z,blackbox-exporter,network_out,173863
2023-07-04T17:06:59.855Z,redis-exporter-dbops-team,network_out,157946
2023-07-04T17:07:09.887Z,redis-exporter-dev-team,network_out,216001
2023-07-04T17:07:09.855Z,redis-exporter-dbops-team,network_out,212870
2023-07-04T17:07:09.887Z,blackbox-exporter,network_out,208236
2023-07-04T17:07:19.887Z,redis-exporter-dev-team,network_out,216001
2023-07-04T17:07:19.855Z,redis-exporter-dbops-team,network_out,240729
2023-07-04T17:07:19.887Z,blackbox-exporter,network_out,208236
2023-07-04T17:07:29.887Z,redis-exporter-dev-team,network_out,226541
2023-07-04T17:07:29.855Z,redis-exporter-dbops-team,network_out,240729
2023-07-04T17:07:29.887Z,blackbox-exporter,network_out,208236
2023-07-04T17:07:39.887Z,blackbox-exporter,network_out,226950
2023-07-04T17:07:39.855Z,redis-exporter-dbops-team,network_out,240729
2023-07-04T17:07:39.887Z,redis-exporter-dev-team,network_out,226541
2023-07-04T17:07:49.888Z,blackbox-exporter,network_out,267419
2023-07-04T17:07:49.888Z,redis-exporter-dev-team,network_out,259650
2023-07-04T17:07:49.855Z,redis-exporter-dbops-team,network_out,246409
2023-07-04T17:07:59.855Z,redis-exporter-dbops-team,network_out,284910
2023-07-04T17:07:59.888Z,blackbox-exporter,network_out,289912
2023-07-04T17:07:59.888Z,redis-exporter-dev-team,network_out,287052
2023-07-04T17:08:09.888Z,redis-exporter-dev-team,network_out,287052
2023-07-04T17:08:09.888Z,blackbox-exporter,network_out,289912
2023-07-04T17:08:09.855Z,redis-exporter-dbops-team,network_out,284910
2023-07-04T17:08:19.855Z,redis-exporter-dbops-team,network_out,301314
2023-07-04T17:08:19.888Z,redis-exporter-dev-team,network_out,287052
2023-07-04T17:08:19.888Z,blackbox-exporter,network_out,289912
2023-07-04T17:08:29.856Z,redis-exporter-dbops-team,network_out,329226
2023-07-04T17:08:29.887Z,blackbox-exporter,network_out,357047
2023-07-04T17:08:29.887Z,redis-exporter-dev-team,network_out,336009
2023-07-04T17:08:39.855Z,redis-exporter-dbops-team,network_out,329226
2023-07-04T17:08:39.888Z,redis-exporter-dev-team,network_out,336009
2023-07-04T17:08:39.888Z,blackbox-exporter,network_out,357047
2023-07-04T17:08:49.855Z,redis-exporter-dbops-team,network_out,329226
2023-07-04T17:08:49.887Z,redis-exporter-dev-team,network_out,336009
2023-07-04T17:08:49.887Z,blackbox-exporter,network_out,357047
2023-07-04T17:08:59.887Z,blackbox-exporter,network_out,407438
2023-07-04T17:08:59.856Z,redis-exporter-dbops-team,network_out,357404
2023-07-04T17:08:59.887Z,redis-exporter-dev-team,network_out,357622
2023-07-04T17:09:09.888Z,blackbox-exporter,network_out,432471
2023-07-04T17:09:09.855Z,redis-exporter-dbops-team,network_out,373685
2023-07-04T17:09:09.888Z,redis-exporter-dev-team,network_out,385173
2023-07-04T17:09:19.855Z,redis-exporter-dbops-team,network_out,379456
2023-07-04T17:09:19.887Z,redis-exporter-dev-team,network_out,396096
2023-07-04T17:09:19.887Z,blackbox-exporter,network_out,487064
2023-07-04T17:09:29.888Z,blackbox-exporter,network_out,512324
2023-07-04T17:09:29.888Z,redis-exporter-dev-team,network_out,423615
2023-07-04T17:09:29.856Z,redis-exporter-dbops-team,network_out,418292
2023-07-04T17:09:39.887Z,blackbox-exporter,network_out,512324
2023-07-04T17:09:39.855Z,redis-exporter-dbops-team,network_out,418292
2023-07-04T17:09:39.887Z,redis-exporter-dev-team,network_out,423615
2023-07-04T17:09:49.855Z,redis-exporter-dbops-team,network_out,440240
2023-07-04T17:09:49.888Z,blackbox-exporter,network_out,512324
2023-07-04T17:09:49.888Z,redis-exporter-dev-team,network_out,434538
2023-07-04T17:09:59.855Z,redis-exporter-dbops-team,network_out,462838
2023-07-04T17:09:59.887Z,redis-exporter-dev-team,network_out,445153
2023-07-04T17:09:59.887Z,blackbox-exporter,network_out,568855
2023-07-04T17:10:09.887Z,redis-exporter-dev-team,network_out,445153
2023-07-04T17:10:09.855Z,redis-exporter-dbops-team,network_out,462838
2023-07-04T17:10:09.887Z,blackbox-exporter,network_out,568855
2023-07-04T17:10:19.855Z,redis-exporter-dbops-team,network_out,468604
2023-07-04T17:10:19.887Z,blackbox-exporter,network_out,623326
2023-07-04T17:10:19.887Z,redis-exporter-dev-team,network_out,472835
2023-07-04T17:10:29.855Z,redis-exporter-dbops-team,network_out,507541
2023-07-04T17:10:29.887Z,redis-exporter-dev-team,network_out,489021
2023-07-04T17:10:29.887Z,blackbox-exporter,network_out,652586
2023-07-04T17:10:39.888Z,blackbox-exporter,network_out,705408
2023-07-04T17:10:39.855Z,redis-exporter-dbops-team,network_out,529510
2023-07-04T17:10:39.888Z,redis-exporter-dev-team,network_out,522402
2023-07-04T17:10:49.887Z,redis-exporter-dev-team,network_out,522402
2023-07-04T17:10:49.855Z,redis-exporter-dbops-team,network_out,529510
2023-07-04T17:10:49.887Z,blackbox-exporter,network_out,705408
2023-07-04T17:10:59.855Z,redis-exporter-dbops-team,network_out,529510
2023-07-04T17:10:59.887Z,redis-exporter-dev-team,network_out,549998
2023-07-04T17:10:59.887Z,blackbox-exporter,network_out,740197
2023-07-04T17:11:09.855Z,redis-exporter-dbops-team,network_out,552133
2023-07-04T17:11:09.887Z,redis-exporter-dev-team,network_out,566333
2023-07-04T17:11:09.887Z,blackbox-exporter,network_out,794543
2023-07-04T17:11:19.855Z,redis-exporter-dbops-team,network_out,552133
2023-07-04T17:11:19.887Z,redis-exporter-dev-team,network_out,566333
2023-07-04T17:11:19.887Z,blackbox-exporter,network_out,794543
2023-07-04T17:11:29.855Z,redis-exporter-dbops-team,network_out,602627
2023-07-04T17:11:29.887Z,blackbox-exporter,network_out,827405
2023-07-04T17:11:29.887Z,redis-exporter-dev-team,network_out,576929
2023-07-04T17:11:39.855Z,redis-exporter-dbops-team,network_out,602627
2023-07-04T17:11:39.888Z,redis-exporter-dev-team,network_out,610345
2023-07-04T17:11:39.888Z,blackbox-exporter,network_out,883404
2023-07-04T17:11:49.855Z,redis-exporter-dbops-team,network_out,602627
2023-07-04T17:11:49.888Z,blackbox-exporter,network_out,936213
2023-07-04T17:11:49.888Z,redis-exporter-dev-team,network_out,620946
2023-07-04T17:11:59.888Z,blackbox-exporter,network_out,936213
2023-07-04T17:11:59.855Z,redis-exporter-dbops-team,network_out,641658
2023-07-04T17:11:59.888Z,redis-exporter-dev-team,network_out,620946
2023-07-04T17:12:09.888Z,redis-exporter-dev-team,network_out,654369
2023-07-04T17:12:09.888Z,blackbox-exporter,network_out,994038
2023-07-04T17:12:09.855Z,redis-exporter-dbops-team,network_out,641658
2023-07-04T17:12:19.888Z,redis-exporter-dev-team,network_out,654369
2023-07-04T17:12:19.888Z,blackbox-exporter,network_out,994038
2023-07-04T17:12:19.855Z,redis-exporter-dbops-team,network_out,647347
2023-07-04T17:12:29.855Z,redis-exporter-dbops-team,network_out,686496
2023-07-04T17:12:29.887Z,blackbox-exporter,network_out,1021978
2023-07-04T17:12:29.887Z,redis-exporter-dev-team,network_out,687468
2023-07-04T17:12:39.887Z,blackbox-exporter,network_out,1021978
2023-07-04T17:12:39.855Z,redis-exporter-dbops-team,network_out,686496
2023-07-04T17:12:39.887Z,redis-exporter-dev-team,network_out,687468
2023-07-04T17:12:49.887Z,redis-exporter-dev-team,network_out,687468
2023-07-04T17:12:49.855Z,redis-exporter-dbops-team,network_out,720463
2023-07-04T17:12:49.887Z,blackbox-exporter,network_out,1051897
2023-07-04T17:12:59.855Z,redis-exporter-dbops-team,network_out,736913
2023-07-04T17:12:59.887Z,redis-exporter-dev-team,network_out,709025
2023-07-04T17:12:59.887Z,blackbox-exporter,network_out,1084915
2023-07-04T17:13:09.888Z,redis-exporter-dev-team,network_out,736855
2023-07-04T17:13:09.855Z,redis-exporter-dbops-team,network_out,736913
2023-07-04T17:13:09.888Z,blackbox-exporter,network_out,1136071
2023-07-04T17:13:19.855Z,redis-exporter-dbops-team,network_out,736913
2023-07-04T17:13:19.888Z,blackbox-exporter,network_out,1165645
2023-07-04T17:13:19.888Z,redis-exporter-dev-team,network_out,747769
2023-07-04T17:13:29.887Z,blackbox-exporter,network_out,1165645
2023-07-04T17:13:29.887Z,redis-exporter-dev-team,network_out,747769
2023-07-04T17:13:29.855Z,redis-exporter-dbops-team,network_out,760039
2023-07-04T17:13:39.855Z,redis-exporter-dbops-team,network_out,776240
2023-07-04T17:13:39.887Z,redis-exporter-dev-team,network_out,780936
2023-07-04T17:13:39.887Z,blackbox-exporter,network_out,1195600
2023-07-04T17:13:49.855Z,redis-exporter-dbops-team,network_out,798401
2023-07-04T17:13:49.888Z,blackbox-exporter,network_out,1251591
2023-07-04T17:13:49.888Z,redis-exporter-dev-team,network_out,791855
2023-07-04T17:13:59.887Z,blackbox-exporter,network_out,1251591
2023-07-04T17:13:59.855Z,redis-exporter-dbops-team,network_out,821030
2023-07-04T17:13:59.887Z,redis-exporter-dev-team,network_out,791855
2023-07-04T17:14:09.888Z,redis-exporter-dev-team,network_out,791855
2023-07-04T17:14:09.888Z,blackbox-exporter,network_out,1283103
2023-07-04T17:14:09.855Z,redis-exporter-dbops-team,network_out,821030
2023-07-04T17:14:19.855Z,redis-exporter-dbops-team,network_out,826823
2023-07-04T17:14:19.888Z,redis-exporter-dev-team,network_out,841340
2023-07-04T17:14:19.888Z,blackbox-exporter,network_out,1337432
2023-07-04T17:14:29.855Z,redis-exporter-dbops-team,network_out,826823
2023-07-04T17:14:29.887Z,blackbox-exporter,network_out,1337432
2023-07-04T17:14:29.887Z,redis-exporter-dev-team,network_out,841340
2023-07-04T17:14:39.855Z,redis-exporter-dbops-team,network_out,866024
2023-07-04T17:14:39.888Z,blackbox-exporter,network_out,1367418
2023-07-04T17:14:39.888Z,redis-exporter-dev-team,network_out,841340
2023-07-04T17:14:49.888Z,redis-exporter-dev-team,network_out,885400
2023-07-04T17:14:49.888Z,blackbox-exporter,network_out,1423641
2023-07-04T17:14:49.855Z,redis-exporter-dbops-team,network_out,871732
2023-07-04T17:14:59.855Z,redis-exporter-dbops-team,network_out,910908
2023-07-04T17:14:59.888Z,blackbox-exporter,network_out,1455459
2023-07-04T17:14:59.888Z,redis-exporter-dev-team,network_out,885400
2023-07-04T17:15:09.855Z,redis-exporter-dbops-team,network_out,916671
2023-07-04T17:15:09.888Z,blackbox-exporter,network_out,1455459
2023-07-04T17:15:09.888Z,redis-exporter-dev-team,network_out,918967
2023-07-04T17:15:19.855Z,redis-exporter-dbops-team,network_out,916671
2023-07-04T17:15:19.887Z,blackbox-exporter,network_out,1455459
2023-07-04T17:15:19.887Z,redis-exporter-dev-team,network_out,918967
2023-07-04T17:15:29.887Z,redis-exporter-dev-team,network_out,929586
2023-07-04T17:15:29.887Z,blackbox-exporter,network_out,1509772
2023-07-04T17:15:29.855Z,redis-exporter-dbops-team,network_out,916671
2023-07-04T17:15:39.855Z,redis-exporter-dbops-team,network_out,955945
2023-07-04T17:15:39.887Z,blackbox-exporter,network_out,1566306
2023-07-04T17:15:39.887Z,redis-exporter-dev-team,network_out,963175
2023-07-04T17:15:49.888Z,redis-exporter-dev-team,network_out,973794
2023-07-04T17:15:49.888Z,blackbox-exporter,network_out,1599366
2023-07-04T17:15:49.855Z,redis-exporter-dbops-team,network_out,961751
