2023-07-14T10:15:59.947Z,shipping,network_in,3968
2023-07-14T10:15:59.947Z,carts,network_in,9629
2023-07-14T10:16:29.947Z,carts-delete,network_in,27223
2023-07-14T10:16:59.946Z,shipping,network_in,11700
2023-07-14T10:17:09.946Z,carts,network_in,49507
2023-07-14T10:17:09.946Z,shipping,network_in,13966
2023-07-14T10:15:49.946Z,carts,network_in,8521
2023-07-14T10:15:49.946Z,shipping,network_in,3968
2023-07-14T10:16:19.946Z,carts,network_in,21378
2023-07-14T10:16:29.947Z,shipping,network_in,9084
2023-07-14T10:16:39.947Z,carts-delete,network_in,27223
2023-07-14T10:16:39.947Z,carts,network_in,32285
2023-07-14T10:16:39.947Z,shipping,network_in,10604
2023-07-14T10:16:49.946Z,carts-delete,network_in,27223
2023-07-14T10:16:49.946Z,carts,network_in,32285
2023-07-14T10:16:59.946Z,carts-delete,network_in,49282
2023-07-14T10:16:59.946Z,carts,network_in,43577
2023-07-14T10:15:39.577Z,carts-delete,network_in,8713
2023-07-14T10:16:09.947Z,carts-delete,network_in,9404
2023-07-14T10:16:19.946Z,carts-delete,network_in,20771
2023-07-14T10:16:29.947Z,carts,network_in,32285
2023-07-14T10:16:49.946Z,shipping,network_in,10604
2023-07-14T10:17:19.946Z,carts,network_in,49507
2023-07-14T10:17:19.946Z,shipping,network_in,13966
2023-07-14T10:17:19.946Z,carts-delete,network_in,54759
2023-07-14T10:15:39.577Z,shipping,network_in,3560
2023-07-14T10:15:39.577Z,carts,network_in,8521
2023-07-14T10:15:49.946Z,carts-delete,network_in,8713
2023-07-14T10:15:59.947Z,carts-delete,network_in,9404
2023-07-14T10:16:09.947Z,shipping,network_in,3968
2023-07-14T10:16:09.947Z,carts,network_in,9629
2023-07-14T10:16:19.946Z,shipping,network_in,9084
2023-07-14T10:17:09.946Z,carts-delete,network_in,54759
2023-07-14T10:17:29.946Z,carts,network_in,60274
2023-07-14T10:17:29.946Z,shipping,network_in,15128
2023-07-14T10:17:29.946Z,carts-delete,network_in,60368
2023-07-14T10:15:51.661Z,catalogue,network_in,10236
2023-07-14T10:15:51.661Z,user-register,network_in,6255
2023-07-14T10:16:02.182Z,catalogue,network_in,12324
2023-07-14T10:16:02.182Z,user-register,network_in,9917
2023-07-14T10:16:02.182Z,orders,network_in,5932
2023-07-14T10:16:02.182Z,user-login,network_in,7199
2023-07-14T10:16:02.182Z,carts-get,network_in,12503
2023-07-14T10:16:22.182Z,catalogue,network_in,13326
2023-07-14T10:16:22.182Z,user-login,network_in,12028
2023-07-14T10:16:32.182Z,carts-get,network_in,31031
2023-07-14T10:16:32.182Z,user-login,network_in,12028
2023-07-14T10:16:32.182Z,user-register,network_in,14187
2023-07-14T10:16:22.182Z,user-register,network_in,12528
2023-07-14T10:16:22.182Z,orders,network_in,11793
2023-07-14T10:16:32.182Z,catalogue,network_in,15404
2023-07-14T10:16:42.182Z,catalogue,network_in,15404
2023-07-14T10:16:42.182Z,orders,network_in,11793
2023-07-14T10:16:52.182Z,user-register,network_in,20173
2023-07-14T10:16:52.182Z,orders,network_in,22533
2023-07-14T10:17:02.181Z,user-login,network_in,18141
2023-07-14T10:17:12.182Z,user-register,network_in,24030
2023-07-14T10:17:12.182Z,catalogue,network_in,19400
2023-07-14T10:17:12.182Z,user-login,network_in,22068
2023-07-14T10:17:12.182Z,carts-get,network_in,48505
2023-07-14T10:17:12.182Z,orders,network_in,29027
2023-07-14T10:17:22.182Z,user-login,network_in,23398
2023-07-14T10:17:22.182Z,catalogue,network_in,19400
2023-07-14T10:15:51.661Z,orders,network_in,5630
2023-07-14T10:16:12.181Z,catalogue,network_in,12324
2023-07-14T10:16:12.181Z,user-register,network_in,9917
2023-07-14T10:16:12.181Z,user-login,network_in,7199
2023-07-14T10:16:12.181Z,carts-get,network_in,12503
2023-07-14T10:16:22.182Z,carts-get,network_in,13078
2023-07-14T10:16:32.182Z,orders,network_in,11793
2023-07-14T10:16:52.182Z,catalogue,network_in,17542
2023-07-14T10:16:52.182Z,user-login,network_in,18141
2023-07-14T10:16:52.182Z,carts-get,network_in,42509
2023-07-14T10:17:02.181Z,catalogue,network_in,17542
2023-07-14T10:17:22.182Z,user-register,network_in,25557
2023-07-14T10:17:32.182Z,orders,network_in,38752
2023-07-14T10:17:32.182Z,user-login,network_in,23398
2023-07-14T10:16:12.181Z,orders,network_in,5932
2023-07-14T10:16:42.182Z,carts-get,network_in,31031
2023-07-14T10:16:42.182Z,user-login,network_in,12028
2023-07-14T10:16:42.182Z,user-register,network_in,14187
2023-07-14T10:17:02.181Z,carts-get,network_in,42509
2023-07-14T10:17:02.181Z,user-register,network_in,20173
2023-07-14T10:17:02.181Z,orders,network_in,22533
2023-07-14T10:17:22.182Z,orders,network_in,38752
2023-07-14T10:17:22.182Z,carts-get,network_in,59202
2023-07-14T10:17:32.182Z,catalogue,network_in,19400
2023-07-14T10:17:32.182Z,carts-get,network_in,59202
2023-07-14T10:17:32.182Z,user-register,network_in,25557
2023-07-14T10:17:39.947Z,carts-delete,network_in,65775
2023-07-14T10:17:39.947Z,shipping,network_in,17312
2023-07-14T10:17:39.947Z,carts,network_in,60274
2023-07-14T10:16:36.765Z,user,network_in,12372
2023-07-14T10:16:36.765Z,queue-master,network_in,17908
2023-07-14T10:16:36.765Z,carts-post,network_in,30276
2023-07-14T10:16:46.767Z,payment,network_in,13874
2023-07-14T10:16:56.765Z,user,network_in,13899
2023-07-14T10:17:06.766Z,payment,network_in,17172
2023-07-14T10:17:06.766Z,user,network_in,17158
2023-07-14T10:17:16.765Z,user,network_in,18409
2023-07-14T10:17:26.766Z,carts-post,network_in,64743
2023-07-14T10:17:36.765Z,payment,network_in,19914
2023-07-14T10:17:36.765Z,queue-master,network_in,25042
2023-07-14T10:16:06.379Z,queue-master,network_in,13954
2023-07-14T10:16:06.379Z,user,network_in,5400
2023-07-14T10:16:16.766Z,user,network_in,9060
2023-07-14T10:16:26.766Z,payment,network_in,12710
2023-07-14T10:16:46.767Z,user,network_in,13899
2023-07-14T10:17:06.766Z,queue-master,network_in,21676
2023-07-14T10:17:16.765Z,queue-master,network_in,21676
2023-07-14T10:17:26.766Z,payment,network_in,19022
2023-07-14T10:17:36.765Z,carts-post,network_in,70847
2023-07-14T10:16:06.379Z,payment,network_in,10752
2023-07-14T10:16:16.766Z,payment,network_in,12710
2023-07-14T10:16:16.766Z,queue-master,network_in,13954
2023-07-14T10:16:26.766Z,carts-post,network_in,30276
2023-07-14T10:16:36.765Z,payment,network_in,13874
2023-07-14T10:16:56.765Z,carts-post,network_in,42102
2023-07-14T10:16:56.765Z,queue-master,network_in,17908
2023-07-14T10:17:06.766Z,carts-post,network_in,53718
2023-07-14T10:17:16.765Z,carts-post,network_in,64743
2023-07-14T10:17:36.765Z,user,network_in,21392
2023-07-14T10:16:06.379Z,carts-post,network_in,12043
2023-07-14T10:16:16.766Z,carts-post,network_in,24363
2023-07-14T10:16:26.766Z,queue-master,network_in,16270
2023-07-14T10:16:26.766Z,user,network_in,10381
2023-07-14T10:16:46.767Z,carts-post,network_in,42102
2023-07-14T10:16:46.767Z,queue-master,network_in,17908
2023-07-14T10:16:56.765Z,payment,network_in,13874
2023-07-14T10:17:16.765Z,payment,network_in,17172
2023-07-14T10:17:26.766Z,user,network_in,18409
2023-07-14T10:17:26.766Z,queue-master,network_in,23766
2023-07-14T10:17:42.181Z,carts-get,network_in,59202
2023-07-14T10:17:42.181Z,user-login,network_in,23398
2023-07-14T10:17:42.181Z,user-register,network_in,26845
2023-07-14T10:17:42.181Z,catalogue,network_in,21188
2023-07-14T10:17:42.181Z,orders,network_in,38752
2023-07-14T10:17:46.766Z,payment,network_in,20806
2023-07-14T10:17:46.766Z,carts-post,network_in,70847
2023-07-14T10:17:46.766Z,user,network_in,21392
2023-07-14T10:17:46.766Z,queue-master,network_in,25042
2023-07-14T10:17:49.946Z,shipping,network_in,17312
2023-07-14T10:17:49.946Z,carts,network_in,60274
2023-07-14T10:17:49.946Z,carts-delete,network_in,65775
2023-07-14T10:17:52.183Z,carts-get,network_in,75693
2023-07-14T10:17:52.183Z,user-register,network_in,30678
2023-07-14T10:17:52.183Z,catalogue,network_in,22082
2023-07-14T10:17:52.183Z,orders,network_in,56756
2023-07-14T10:17:52.183Z,user-login,network_in,24883
2023-07-14T10:17:56.766Z,user,network_in,23775
2023-07-14T10:17:56.766Z,payment,network_in,20806
2023-07-14T10:17:56.766Z,queue-master,network_in,27090
2023-07-14T10:17:56.766Z,carts-post,network_in,82129
2023-07-14T10:17:59.946Z,carts-delete,network_in,76655
2023-07-14T10:17:59.946Z,shipping,network_in,20662
2023-07-14T10:17:59.946Z,carts,network_in,76699
2023-07-14T10:18:02.182Z,orders,network_in,56756
2023-07-14T10:18:02.182Z,catalogue,network_in,22082
2023-07-14T10:18:02.182Z,user-login,network_in,24883
2023-07-14T10:18:02.182Z,user-register,network_in,30678
2023-07-14T10:18:02.182Z,carts-get,network_in,75693
2023-07-14T10:18:06.766Z,user,network_in,23775
2023-07-14T10:18:06.766Z,payment,network_in,20806
2023-07-14T10:18:06.766Z,queue-master,network_in,27090
2023-07-14T10:18:06.766Z,carts-post,network_in,82129
2023-07-14T10:18:09.946Z,carts-delete,network_in,87535
2023-07-14T10:18:09.946Z,carts,network_in,87715
2023-07-14T10:18:09.946Z,shipping,network_in,20662
2023-07-14T10:18:12.181Z,user-register,network_in,32163
2023-07-14T10:18:12.181Z,catalogue,network_in,23870
2023-07-14T10:18:12.181Z,orders,network_in,68406
2023-07-14T10:18:12.181Z,user-login,network_in,32662
2023-07-14T10:18:12.181Z,carts-get,network_in,81487
2023-07-14T10:18:16.766Z,queue-master,network_in,29534
2023-07-14T10:18:16.766Z,user,network_in,26828
2023-07-14T10:18:16.766Z,payment,network_in,22590
2023-07-14T10:18:16.766Z,carts-post,network_in,87770
2023-07-14T10:18:19.946Z,shipping,network_in,22714
2023-07-14T10:18:19.946Z,carts,network_in,87715
2023-07-14T10:18:19.946Z,carts-delete,network_in,87535
2023-07-14T10:18:22.182Z,user-login,network_in,32662
2023-07-14T10:18:22.182Z,user-register,network_in,34708
2023-07-14T10:18:22.182Z,orders,network_in,79531
2023-07-14T10:18:22.182Z,carts-get,network_in,92122
2023-07-14T10:18:22.182Z,catalogue,network_in,24764
2023-07-14T10:18:26.766Z,queue-master,network_in,30558
2023-07-14T10:18:26.766Z,carts-post,network_in,99254
2023-07-14T10:18:26.766Z,payment,network_in,24374
2023-07-14T10:18:26.766Z,user,network_in,28079
2023-07-14T10:18:29.946Z,carts-delete,network_in,87535
2023-07-14T10:18:29.946Z,shipping,network_in,22714
2023-07-14T10:18:29.946Z,carts,network_in,87715
2023-07-14T10:18:32.182Z,user-login,network_in,34301
2023-07-14T10:18:32.182Z,catalogue,network_in,24764
2023-07-14T10:18:32.182Z,carts-get,network_in,92122
2023-07-14T10:18:32.182Z,user-register,network_in,37547
2023-07-14T10:18:32.182Z,orders,network_in,85290
2023-07-14T10:18:36.765Z,user,network_in,28079
2023-07-14T10:18:36.765Z,carts-post,network_in,99254
2023-07-14T10:18:36.765Z,queue-master,network_in,30558
2023-07-14T10:18:36.765Z,payment,network_in,25336
2023-07-14T10:18:39.947Z,carts-delete,network_in,104032
2023-07-14T10:18:39.947Z,shipping,network_in,24016
2023-07-14T10:18:39.947Z,carts,network_in,104280
2023-07-14T10:18:42.182Z,user-register,network_in,37547
2023-07-14T10:18:42.182Z,orders,network_in,85290
2023-07-14T10:18:42.182Z,user-login,network_in,34301
2023-07-14T10:18:42.182Z,catalogue,network_in,24764
2023-07-14T10:18:42.182Z,carts-get,network_in,92122
2023-07-14T10:18:46.766Z,queue-master,network_in,32862
2023-07-14T10:18:46.766Z,user,network_in,31062
2023-07-14T10:18:46.766Z,payment,network_in,25336
2023-07-14T10:18:46.766Z,carts-post,network_in,110804
2023-07-14T10:18:49.946Z,carts-delete,network_in,104032
2023-07-14T10:18:49.946Z,carts,network_in,104280
2023-07-14T10:18:49.946Z,shipping,network_in,24016
2023-07-14T10:18:52.182Z,carts-get,network_in,103597
2023-07-14T10:18:52.182Z,user-login,network_in,35786
2023-07-14T10:18:52.182Z,orders,network_in,91189
2023-07-14T10:18:52.182Z,user-register,network_in,40232
2023-07-14T10:18:52.182Z,catalogue,network_in,28958
2023-07-14T10:18:56.766Z,queue-master,network_in,32862
2023-07-14T10:18:56.766Z,user,network_in,31062
2023-07-14T10:18:56.766Z,payment,network_in,25336
2023-07-14T10:18:56.766Z,carts-post,network_in,110804
2023-07-14T10:18:59.946Z,carts,network_in,115432
2023-07-14T10:18:59.946Z,carts-delete,network_in,109505
2023-07-14T10:18:59.946Z,shipping,network_in,26204
2023-07-14T10:19:02.181Z,user-register,network_in,40232
2023-07-14T10:19:02.181Z,catalogue,network_in,28958
2023-07-14T10:19:02.181Z,orders,network_in,91189
2023-07-14T10:19:02.181Z,user-login,network_in,35786
2023-07-14T10:19:02.181Z,carts-get,network_in,103597
2023-07-14T10:19:06.765Z,queue-master,network_in,34026
2023-07-14T10:19:06.765Z,carts-post,network_in,116717
2023-07-14T10:19:06.765Z,payment,network_in,28362
2023-07-14T10:19:06.765Z,user,network_in,32663
2023-07-14T10:19:09.946Z,carts,network_in,115432
2023-07-14T10:19:09.946Z,shipping,network_in,26204
2023-07-14T10:19:09.946Z,carts-delete,network_in,109505
2023-07-14T10:19:12.182Z,orders,network_in,108676
2023-07-14T10:19:12.182Z,catalogue,network_in,31780
2023-07-14T10:19:12.182Z,carts-get,network_in,119843
2023-07-14T10:19:12.182Z,user-login,network_in,43648
2023-07-14T10:19:12.182Z,user-register,network_in,45718
2023-07-14T10:19:16.766Z,payment,network_in,28362
2023-07-14T10:19:16.766Z,user,network_in,35765
2023-07-14T10:19:16.766Z,queue-master,network_in,36606
2023-07-14T10:19:16.766Z,carts-post,network_in,128271
2023-07-14T10:19:19.946Z,carts,network_in,120981
2023-07-14T10:19:19.946Z,shipping,network_in,29558
2023-07-14T10:19:19.946Z,carts-delete,network_in,120591
2023-07-14T10:19:22.181Z,orders,network_in,108676
2023-07-14T10:19:22.181Z,carts-get,network_in,119843
2023-07-14T10:19:22.181Z,catalogue,network_in,31780
2023-07-14T10:19:22.181Z,user-register,network_in,45718
2023-07-14T10:19:22.181Z,user-login,network_in,43648
2023-07-14T10:19:26.766Z,carts-post,network_in,128271
2023-07-14T10:19:26.766Z,user,network_in,35765
2023-07-14T10:19:26.766Z,queue-master,network_in,37696
2023-07-14T10:19:26.766Z,payment,network_in,30146
2023-07-14T10:19:29.946Z,carts-delete,network_in,126449
2023-07-14T10:19:29.946Z,carts,network_in,126456
2023-07-14T10:19:29.946Z,shipping,network_in,29558
2023-07-14T10:19:32.182Z,orders,network_in,108676
2023-07-14T10:19:32.182Z,carts-get,network_in,119843
2023-07-14T10:19:32.182Z,catalogue,network_in,31780
2023-07-14T10:19:32.182Z,user-register,network_in,47413
2023-07-14T10:19:32.182Z,user-login,network_in,43648
2023-07-14T10:19:36.766Z,payment,network_in,30146
2023-07-14T10:19:36.766Z,queue-master,network_in,38868
2023-07-14T10:19:36.766Z,user,network_in,38818
2023-07-14T10:19:36.766Z,carts-post,network_in,139887
2023-07-14T10:19:39.946Z,shipping,network_in,29558
2023-07-14T10:19:39.946Z,carts-delete,network_in,126449
2023-07-14T10:19:39.946Z,carts,network_in,126456
2023-07-14T10:19:42.182Z,carts-get,network_in,131003
2023-07-14T10:19:42.182Z,user-register,network_in,48898
2023-07-14T10:19:42.182Z,user-login,network_in,46739
2023-07-14T10:19:42.182Z,catalogue,network_in,34672
2023-07-14T10:19:42.182Z,orders,network_in,126291
2023-07-14T10:19:46.766Z,carts-post,network_in,145660
2023-07-14T10:19:46.766Z,payment,network_in,32000
2023-07-14T10:19:46.766Z,user,network_in,40069
2023-07-14T10:19:46.766Z,queue-master,network_in,41222
2023-07-14T10:19:49.947Z,shipping,network_in,31742
2023-07-14T10:19:49.947Z,carts,network_in,137274
2023-07-14T10:19:49.947Z,carts-delete,network_in,137010
2023-07-14T10:19:52.181Z,user-login,network_in,46739
2023-07-14T10:19:52.181Z,carts-get,network_in,131003
2023-07-14T10:19:52.181Z,user-register,network_in,48898
2023-07-14T10:19:52.181Z,orders,network_in,126291
2023-07-14T10:19:52.181Z,catalogue,network_in,34672
2023-07-14T10:19:56.766Z,carts-post,network_in,145660
2023-07-14T10:19:56.766Z,payment,network_in,32000
2023-07-14T10:19:56.766Z,user,network_in,40069
2023-07-14T10:19:56.766Z,queue-master,network_in,41222
2023-07-14T10:19:59.946Z,shipping,network_in,32900
2023-07-14T10:19:59.946Z,carts-delete,network_in,137010
2023-07-14T10:19:59.946Z,carts,network_in,148224
2023-07-14T10:20:02.182Z,orders,network_in,132050
2023-07-14T10:20:02.182Z,user-login,network_in,52015
2023-07-14T10:20:02.182Z,carts-get,network_in,147494
2023-07-14T10:20:02.182Z,user-register,network_in,52773
2023-07-14T10:20:02.182Z,catalogue,network_in,36460
2023-07-14T10:20:06.765Z,carts-post,network_in,156677
2023-07-14T10:20:06.765Z,payment,network_in,33850
2023-07-14T10:20:06.765Z,user,network_in,43052
2023-07-14T10:20:06.765Z,queue-master,network_in,42638
2023-07-14T10:20:09.946Z,shipping,network_in,35290
2023-07-14T10:20:09.946Z,carts-delete,network_in,147890
2023-07-14T10:20:09.946Z,carts,network_in,153633
2023-07-14T10:20:12.182Z,catalogue,network_in,37354
2023-07-14T10:20:12.182Z,carts-get,network_in,152969
2023-07-14T10:20:12.182Z,user-login,network_in,52015
2023-07-14T10:20:12.182Z,user-register,network_in,56564
2023-07-14T10:20:12.182Z,orders,network_in,137809
2023-07-14T10:20:16.766Z,payment,network_in,33850
2023-07-14T10:20:16.766Z,queue-master,network_in,42638
2023-07-14T10:20:16.766Z,user,network_in,43052
2023-07-14T10:20:16.766Z,carts-post,network_in,162781
2023-07-14T10:20:19.947Z,carts-delete,network_in,158836
2023-07-14T10:20:19.947Z,shipping,network_in,35290
2023-07-14T10:20:19.947Z,carts,network_in,153633
2023-07-14T10:20:22.181Z,user-login,network_in,52015
2023-07-14T10:20:22.181Z,carts-get,network_in,152969
2023-07-14T10:20:22.181Z,catalogue,network_in,37354
2023-07-14T10:20:22.181Z,user-register,network_in,56564
2023-07-14T10:20:22.181Z,orders,network_in,137809
2023-07-14T10:20:26.767Z,user,network_in,45435
2023-07-14T10:20:26.767Z,queue-master,network_in,44686
2023-07-14T10:20:26.767Z,carts-post,network_in,162781
2023-07-14T10:20:26.767Z,payment,network_in,35634
2023-07-14T10:20:29.946Z,carts-delete,network_in,158836
2023-07-14T10:20:29.946Z,shipping,network_in,35290
2023-07-14T10:20:29.946Z,carts,network_in,153633
2023-07-14T10:20:32.182Z,user-login,network_in,56045
2023-07-14T10:20:32.182Z,orders,network_in,149790
2023-07-14T10:20:32.182Z,catalogue,network_in,38248
2023-07-14T10:20:32.182Z,carts-get,network_in,163985
2023-07-14T10:20:32.182Z,user-register,network_in,58049
2023-07-14T10:20:36.765Z,user,network_in,45435
2023-07-14T10:20:36.765Z,queue-master,network_in,44686
2023-07-14T10:20:36.765Z,carts-post,network_in,162781
2023-07-14T10:20:36.765Z,payment,network_in,35634
2023-07-14T10:20:39.946Z,carts,network_in,164968
2023-07-14T10:20:39.946Z,shipping,network_in,38632
2023-07-14T10:20:39.946Z,carts-delete,network_in,169782
2023-07-14T10:20:42.181Z,catalogue,network_in,38248
2023-07-14T10:20:42.181Z,orders,network_in,149790
2023-07-14T10:20:42.181Z,user-login,network_in,56045
2023-07-14T10:20:42.181Z,carts-get,network_in,163985
2023-07-14T10:20:42.181Z,user-register,network_in,58049
2023-07-14T10:20:46.766Z,carts-post,network_in,185212
2023-07-14T10:20:46.766Z,payment,network_in,37418
2023-07-14T10:20:46.766Z,queue-master,network_in,46920
2023-07-14T10:20:46.766Z,user,network_in,48418
2023-07-14T10:20:49.946Z,carts-delete,network_in,169782
2023-07-14T10:20:49.946Z,shipping,network_in,38632
2023-07-14T10:20:49.946Z,carts,network_in,175673
2023-07-14T10:20:52.182Z,orders,network_in,166736
2023-07-14T10:20:52.182Z,user-register,network_in,59534
2023-07-14T10:20:52.182Z,user-login,network_in,59878
2023-07-14T10:20:52.182Z,carts-get,network_in,175001
2023-07-14T10:20:52.182Z,catalogue,network_in,40102
2023-07-14T10:20:56.766Z,payment,network_in,38310
2023-07-14T10:20:56.766Z,queue-master,network_in,47944
2023-07-14T10:20:56.766Z,carts-post,network_in,185212
2023-07-14T10:20:56.766Z,user,network_in,49669
2023-07-14T10:20:59.946Z,carts-delete,network_in,169782
2023-07-14T10:20:59.946Z,shipping,network_in,38632
2023-07-14T10:20:59.946Z,carts,network_in,175673
2023-07-14T10:21:02.181Z,user-register,network_in,59534
2023-07-14T10:21:02.181Z,catalogue,network_in,40102
2023-07-14T10:21:02.181Z,user-login,network_in,59878
2023-07-14T10:21:02.181Z,orders,network_in,166736
2023-07-14T10:21:02.181Z,carts-get,network_in,175001
2023-07-14T10:21:06.766Z,payment,network_in,38310
2023-07-14T10:21:06.766Z,queue-master,network_in,47944
2023-07-14T10:21:06.766Z,carts-post,network_in,185212
2023-07-14T10:21:06.766Z,user,network_in,49669
2023-07-14T10:21:09.947Z,carts-delete,network_in,186407
2023-07-14T10:21:09.947Z,shipping,network_in,41030
2023-07-14T10:21:09.947Z,carts,network_in,181148
2023-07-14T10:21:12.181Z,user-login,network_in,65154
2023-07-14T10:21:12.181Z,user-register,network_in,66182
2023-07-14T10:21:12.181Z,orders,network_in,178386
2023-07-14T10:21:12.181Z,carts-get,network_in,180542
2023-07-14T10:21:12.181Z,catalogue,network_in,42850
2023-07-14T10:21:16.766Z,user,network_in,52652
2023-07-14T10:21:16.766Z,carts-post,network_in,196626
2023-07-14T10:21:16.766Z,queue-master,network_in,50516
2023-07-14T10:21:16.766Z,payment,network_in,40160
2023-07-14T10:21:19.946Z,carts-delete,network_in,186407
2023-07-14T10:21:19.946Z,carts,network_in,192032
2023-07-14T10:21:19.946Z,shipping,network_in,41030
2023-07-14T10:21:22.182Z,orders,network_in,178386
2023-07-14T10:21:22.182Z,user-login,network_in,66639
2023-07-14T10:21:22.182Z,catalogue,network_in,42850
2023-07-14T10:21:22.182Z,user-register,network_in,66182
2023-07-14T10:21:22.182Z,carts-get,network_in,191426
2023-07-14T10:21:26.765Z,carts-post,network_in,202862
2023-07-14T10:21:26.765Z,queue-master,network_in,51540
2023-07-14T10:21:26.765Z,user,network_in,52652
2023-07-14T10:21:26.765Z,payment,network_in,41052
2023-07-14T10:21:29.947Z,carts-delete,network_in,197423
2023-07-14T10:21:29.947Z,shipping,network_in,43416
2023-07-14T10:21:29.947Z,carts,network_in,192032
2023-07-14T10:21:32.182Z,user-register,network_in,66182
2023-07-14T10:21:32.182Z,user-login,network_in,66639
2023-07-14T10:21:32.182Z,catalogue,network_in,42850
2023-07-14T10:21:32.182Z,orders,network_in,178386
2023-07-14T10:21:32.182Z,carts-get,network_in,191426
2023-07-14T10:21:36.766Z,queue-master,network_in,51540
2023-07-14T10:21:36.766Z,user,network_in,55154
2023-07-14T10:21:36.766Z,payment,network_in,41052
2023-07-14T10:21:36.766Z,carts-post,network_in,208569
2023-07-14T10:21:39.947Z,carts-delete,network_in,202896
2023-07-14T10:21:39.947Z,carts,network_in,197511
2023-07-14T10:21:39.947Z,shipping,network_in,43416
2023-07-14T10:21:42.182Z,catalogue,network_in,43810
2023-07-14T10:21:42.182Z,user-register,network_in,71458
2023-07-14T10:21:42.182Z,user-login,network_in,70430
2023-07-14T10:21:42.182Z,carts-get,network_in,196967
2023-07-14T10:21:42.182Z,orders,network_in,190168
2023-07-14T10:21:46.766Z,payment,network_in,42976
2023-07-14T10:21:46.766Z,carts-post,network_in,208569
2023-07-14T10:21:46.766Z,user,network_in,57026
2023-07-14T10:21:46.766Z,queue-master,network_in,53840
2023-07-14T10:21:49.946Z,carts,network_in,197511
2023-07-14T10:21:49.946Z,carts-delete,network_in,202896
2023-07-14T10:21:49.946Z,shipping,network_in,43416
2023-07-14T10:21:52.182Z,user-login,network_in,70430
2023-07-14T10:21:52.182Z,catalogue,network_in,43810
2023-07-14T10:21:52.182Z,carts-get,network_in,196967
2023-07-14T10:21:52.182Z,orders,network_in,190168
2023-07-14T10:21:52.182Z,user-register,network_in,71458
2023-07-14T10:21:56.766Z,payment,network_in,42976
2023-07-14T10:21:56.766Z,user,network_in,57026
2023-07-14T10:21:56.766Z,carts-post,network_in,208569
2023-07-14T10:21:56.766Z,queue-master,network_in,53840
2023-07-14T10:21:59.946Z,carts,network_in,208597
2023-07-14T10:21:59.946Z,shipping,network_in,47862
2023-07-14T10:21:59.946Z,carts-delete,network_in,208505
2023-07-14T10:22:02.182Z,user-login,network_in,71999
2023-07-14T10:22:02.182Z,user-register,network_in,74003
2023-07-14T10:22:02.182Z,orders,network_in,207643
2023-07-14T10:22:02.182Z,carts-get,network_in,208302
2023-07-14T10:22:02.182Z,catalogue,network_in,47386
2023-07-14T10:22:06.766Z,queue-master,network_in,56420
2023-07-14T10:22:06.766Z,carts-post,network_in,219991
2023-07-14T10:22:06.766Z,payment,network_in,44760
2023-07-14T10:22:06.766Z,user,network_in,59528
2023-07-14T10:22:09.947Z,shipping,network_in,48954
2023-07-14T10:22:09.947Z,carts,network_in,219415
2023-07-14T10:22:09.947Z,carts-delete,network_in,219319
2023-07-14T10:22:12.181Z,user-login,network_in,71999
2023-07-14T10:22:12.181Z,carts-get,network_in,208302
2023-07-14T10:22:12.181Z,orders,network_in,207643
2023-07-14T10:22:12.181Z,user-register,network_in,74003
2023-07-14T10:22:12.181Z,catalogue,network_in,47386
2023-07-14T10:22:16.766Z,carts-post,network_in,230876
2023-07-14T10:22:16.766Z,user,network_in,59528
2023-07-14T10:22:16.766Z,payment,network_in,46544
2023-07-14T10:22:16.766Z,queue-master,network_in,56420
2023-07-14T10:22:19.946Z,carts,network_in,219415
2023-07-14T10:22:19.946Z,carts-delete,network_in,219319
2023-07-14T10:22:19.946Z,shipping,network_in,48954
2023-07-14T10:22:22.182Z,carts-get,network_in,224280
2023-07-14T10:22:22.182Z,user-register,network_in,77836
2023-07-14T10:22:22.182Z,user-login,network_in,74842
2023-07-14T10:22:22.182Z,orders,network_in,219429
2023-07-14T10:22:22.182Z,catalogue,network_in,48416
2023-07-14T10:22:26.765Z,payment,network_in,46544
2023-07-14T10:22:26.765Z,queue-master,network_in,58538
2023-07-14T10:22:26.765Z,user,network_in,62581
2023-07-14T10:22:26.765Z,carts-post,network_in,237182
2023-07-14T10:22:29.946Z,carts,network_in,224824
2023-07-14T10:22:29.946Z,shipping,network_in,50112
2023-07-14T10:22:29.946Z,carts-delete,network_in,224796
2023-07-14T10:22:32.182Z,catalogue,network_in,48416
2023-07-14T10:22:32.182Z,carts-get,network_in,224280
2023-07-14T10:22:32.182Z,user-login,network_in,74842
2023-07-14T10:22:32.182Z,orders,network_in,219429
2023-07-14T10:22:32.182Z,user-register,network_in,77836
2023-07-14T10:22:36.767Z,queue-master,network_in,59752
2023-07-14T10:22:36.767Z,user,network_in,62581
2023-07-14T10:22:36.767Z,carts-post,network_in,237182
2023-07-14T10:22:36.767Z,payment,network_in,47506
2023-07-14T10:22:39.946Z,shipping,network_in,50112
2023-07-14T10:22:39.946Z,carts-delete,network_in,235610
2023-07-14T10:22:39.946Z,carts,network_in,224824
2023-07-14T10:22:42.182Z,user-login,network_in,78633
2023-07-14T10:22:42.182Z,orders,network_in,231145
2023-07-14T10:22:42.182Z,carts-get,network_in,229755
2023-07-14T10:22:42.182Z,user-register,network_in,80806
2023-07-14T10:22:42.182Z,catalogue,network_in,49310
2023-07-14T10:22:46.766Z,queue-master,network_in,59752
2023-07-14T10:22:46.766Z,user,network_in,62581
2023-07-14T10:22:46.766Z,carts-post,network_in,237182
2023-07-14T10:22:46.766Z,payment,network_in,47506
2023-07-14T10:22:49.946Z,carts-delete,network_in,241017
2023-07-14T10:22:49.946Z,carts,network_in,235844
2023-07-14T10:22:49.946Z,shipping,network_in,52366
2023-07-14T10:22:52.182Z,catalogue,network_in,51098
2023-07-14T10:22:52.182Z,carts-get,network_in,240771
2023-07-14T10:22:52.182Z,orders,network_in,236904
2023-07-14T10:22:52.182Z,user-login,network_in,81220
2023-07-14T10:22:52.182Z,user-register,network_in,84639
2023-07-14T10:22:56.765Z,queue-master,network_in,62064
2023-07-14T10:22:56.765Z,payment,network_in,49290
2023-07-14T10:22:56.765Z,user,network_in,66815
2023-07-14T10:22:56.765Z,carts-post,network_in,254373
2023-07-14T10:22:59.946Z,carts-delete,network_in,241017
2023-07-14T10:22:59.946Z,carts,network_in,235844
2023-07-14T10:22:59.946Z,shipping,network_in,52366
2023-07-14T10:23:02.182Z,catalogue,network_in,53092
2023-07-14T10:23:02.182Z,carts-get,network_in,246320
2023-07-14T10:23:02.182Z,orders,network_in,236904
2023-07-14T10:23:02.182Z,user-register,network_in,84639
2023-07-14T10:23:02.182Z,user-login,network_in,84133
2023-07-14T10:23:06.766Z,queue-master,network_in,63620
2023-07-14T10:23:06.766Z,user,network_in,68806
2023-07-14T10:23:06.766Z,carts-post,network_in,254373
2023-07-14T10:23:06.766Z,payment,network_in,50322
2023-07-14T10:23:09.946Z,carts,network_in,252339
2023-07-14T10:23:09.946Z,shipping,network_in,54484
2023-07-14T10:23:09.946Z,carts-delete,network_in,246564
2023-07-14T10:23:12.182Z,orders,network_in,236904
2023-07-14T10:23:12.182Z,user-register,network_in,84639
2023-07-14T10:23:12.182Z,catalogue,network_in,53092
2023-07-14T10:23:12.182Z,user-login,network_in,84133
2023-07-14T10:23:12.182Z,carts-get,network_in,246320
2023-07-14T10:23:16.766Z,queue-master,network_in,63620
2023-07-14T10:23:16.766Z,user,network_in,68806
2023-07-14T10:23:16.766Z,carts-post,network_in,254373
2023-07-14T10:23:16.766Z,payment,network_in,50322
2023-07-14T10:23:19.946Z,shipping,network_in,55856
2023-07-14T10:23:19.946Z,carts,network_in,252339
2023-07-14T10:23:19.946Z,carts-delete,network_in,246564
2023-07-14T10:23:22.182Z,orders,network_in,254589
2023-07-14T10:23:22.182Z,catalogue,network_in,54056
2023-07-14T10:23:22.182Z,carts-get,network_in,257138
2023-07-14T10:23:22.182Z,user-login,network_in,87994
2023-07-14T10:23:22.182Z,user-register,network_in,90125
2023-07-14T10:23:26.766Z,queue-master,network_in,64644
2023-07-14T10:23:26.766Z,payment,network_in,52382
2023-07-14T10:23:26.766Z,user,network_in,71399
2023-07-14T10:23:26.766Z,carts-post,network_in,271840
2023-07-14T10:23:29.946Z,shipping,network_in,58308
2023-07-14T10:23:29.946Z,carts-delete,network_in,257378
2023-07-14T10:23:29.946Z,carts,network_in,257880
2023-07-14T10:23:32.181Z,carts-get,network_in,257138
2023-07-14T10:23:32.181Z,user-register,network_in,90125
2023-07-14T10:23:32.181Z,orders,network_in,254589
2023-07-14T10:23:32.181Z,catalogue,network_in,54056
2023-07-14T10:23:32.181Z,user-login,network_in,87994
2023-07-14T10:23:36.766Z,carts-post,network_in,271840
2023-07-14T10:23:36.766Z,user,network_in,71399
2023-07-14T10:23:36.766Z,payment,network_in,52382
2023-07-14T10:23:36.766Z,queue-master,network_in,66976
2023-07-14T10:23:39.946Z,shipping,network_in,58308
2023-07-14T10:23:39.946Z,carts-delete,network_in,257378
2023-07-14T10:23:39.946Z,carts,network_in,257880
2023-07-14T10:23:42.181Z,user-register,network_in,92898
2023-07-14T10:23:42.181Z,carts-get,network_in,262679
2023-07-14T10:23:42.181Z,orders,network_in,266239
2023-07-14T10:23:42.181Z,user-login,network_in,89676
2023-07-14T10:23:42.181Z,catalogue,network_in,55844
2023-07-14T10:23:46.765Z,queue-master,network_in,68042
2023-07-14T10:23:46.765Z,carts-post,network_in,283188
2023-07-14T10:23:46.765Z,user,network_in,74382
2023-07-14T10:23:46.765Z,payment,network_in,54166
2023-07-14T10:23:49.946Z,carts,network_in,269032
2023-07-14T10:23:49.946Z,shipping,network_in,60492
2023-07-14T10:23:49.946Z,carts-delete,network_in,268394
2023-07-14T10:23:52.182Z,orders,network_in,266239
2023-07-14T10:23:52.182Z,carts-get,network_in,273835
2023-07-14T10:23:52.182Z,user-login,network_in,93621
2023-07-14T10:23:52.182Z,user-register,network_in,92898
2023-07-14T10:23:52.182Z,catalogue,network_in,57702
2023-07-14T10:23:56.766Z,user,network_in,74382
2023-07-14T10:23:56.766Z,payment,network_in,55058
2023-07-14T10:23:56.766Z,queue-master,network_in,69198
2023-07-14T10:23:56.766Z,carts-post,network_in,283188
2023-07-14T10:23:59.946Z,carts,network_in,280052
2023-07-14T10:23:59.946Z,shipping,network_in,60492
2023-07-14T10:23:59.946Z,carts-delete,network_in,274003
2023-07-14T10:24:02.182Z,user-register,network_in,92898
2023-07-14T10:24:02.182Z,catalogue,network_in,57702
2023-07-14T10:24:02.182Z,user-login,network_in,93621
2023-07-14T10:24:02.182Z,orders,network_in,266239
2023-07-14T10:24:02.182Z,carts-get,network_in,273835
2023-07-14T10:24:06.766Z,carts-post,network_in,294668
2023-07-14T10:24:06.766Z,payment,network_in,55058
2023-07-14T10:24:06.766Z,user,network_in,76884
2023-07-14T10:24:06.766Z,queue-master,network_in,69198
2023-07-14T10:24:09.946Z,carts-delete,network_in,274003
2023-07-14T10:24:09.946Z,shipping,network_in,61658
2023-07-14T10:24:09.946Z,carts,network_in,280052
2023-07-14T10:24:12.183Z,user-register,network_in,95625
2023-07-14T10:24:12.183Z,orders,network_in,283656
2023-07-14T10:24:12.183Z,catalogue,network_in,58596
2023-07-14T10:24:12.183Z,user-login,network_in,95106
2023-07-14T10:24:12.183Z,carts-get,network_in,284851
2023-07-14T10:24:16.765Z,carts-post,network_in,294668
2023-07-14T10:24:16.765Z,payment,network_in,55058
2023-07-14T10:24:16.765Z,user,network_in,76884
2023-07-14T10:24:16.765Z,queue-master,network_in,69198
2023-07-14T10:24:19.946Z,carts-delete,network_in,274003
2023-07-14T10:24:19.946Z,shipping,network_in,61658
2023-07-14T10:24:19.946Z,carts,network_in,280052
2023-07-14T10:24:22.182Z,user-login,network_in,95106
2023-07-14T10:24:22.182Z,orders,network_in,283656
2023-07-14T10:24:22.182Z,catalogue,network_in,58596
2023-07-14T10:24:22.182Z,user-register,network_in,95625
2023-07-14T10:24:22.182Z,carts-get,network_in,284851
2023-07-14T10:24:26.766Z,user,network_in,78735
2023-07-14T10:24:26.766Z,carts-post,network_in,300375
2023-07-14T10:24:26.766Z,queue-master,network_in,72662
2023-07-14T10:24:26.766Z,payment,network_in,57800
2023-07-14T10:24:29.946Z,carts-delete,network_in,290422
2023-07-14T10:24:29.946Z,carts,network_in,291006
2023-07-14T10:24:29.946Z,shipping,network_in,63912
2023-07-14T10:24:32.182Z,carts-get,network_in,290396
2023-07-14T10:24:32.182Z,user-login,network_in,98967
2023-07-14T10:24:32.182Z,orders,network_in,295508
2023-07-14T10:24:32.182Z,user-register,network_in,102259
2023-07-14T10:24:32.182Z,catalogue,network_in,61414
2023-07-14T10:24:36.766Z,payment,network_in,57800
2023-07-14T10:24:36.766Z,queue-master,network_in,72662
2023-07-14T10:24:36.766Z,carts-post,network_in,311855
2023-07-14T10:24:36.766Z,user,network_in,81250
2023-07-14T10:24:39.946Z,carts-delete,network_in,290422
2023-07-14T10:24:39.946Z,shipping,network_in,63912
2023-07-14T10:24:39.946Z,carts,network_in,291006
2023-07-14T10:24:42.182Z,catalogue,network_in,62448
2023-07-14T10:24:42.182Z,user-register,network_in,102259
2023-07-14T10:24:42.182Z,user-login,network_in,100592
2023-07-14T10:24:42.182Z,orders,network_in,301469
2023-07-14T10:24:42.182Z,carts-get,network_in,301420
2023-07-14T10:24:46.766Z,carts-post,network_in,317698
2023-07-14T10:24:46.766Z,user,network_in,83171
2023-07-14T10:24:46.766Z,payment,network_in,59720
2023-07-14T10:24:46.766Z,queue-master,network_in,74920
2023-07-14T10:24:49.946Z,shipping,network_in,66162
2023-07-14T10:24:49.946Z,carts-delete,network_in,301236
2023-07-14T10:24:49.946Z,carts,network_in,296481
2023-07-14T10:24:52.182Z,catalogue,network_in,62448
2023-07-14T10:24:52.182Z,carts-get,network_in,301420
2023-07-14T10:24:52.182Z,orders,network_in,301469
2023-07-14T10:24:52.182Z,user-register,network_in,102259
2023-07-14T10:24:52.182Z,user-login,network_in,100592
2023-07-14T10:24:56.766Z,queue-master,network_in,77170
2023-07-14T10:24:56.766Z,carts-post,network_in,317698
2023-07-14T10:24:56.766Z,user,network_in,84303
2023-07-14T10:24:56.766Z,payment,network_in,59720
2023-07-14T10:24:59.946Z,carts,network_in,307299
2023-07-14T10:24:59.946Z,carts-delete,network_in,306709
2023-07-14T10:24:59.946Z,shipping,network_in,67320
2023-07-14T10:25:02.181Z,user-login,network_in,105755
2023-07-14T10:25:02.181Z,carts-get,network_in,312502
2023-07-14T10:25:02.181Z,orders,network_in,307228
2023-07-14T10:25:02.181Z,user-register,network_in,107717
2023-07-14T10:25:02.181Z,catalogue,network_in,64236
2023-07-14T10:25:06.766Z,queue-master,network_in,77170
2023-07-14T10:25:06.766Z,carts-post,network_in,317698
2023-07-14T10:25:06.766Z,user,network_in,84303
2023-07-14T10:25:06.766Z,payment,network_in,59720
2023-07-14T10:25:09.946Z,carts-delete,network_in,312116
2023-07-14T10:25:09.946Z,carts,network_in,318381
2023-07-14T10:25:09.946Z,shipping,network_in,69644
2023-07-14T10:25:12.182Z,user-register,network_in,107717
2023-07-14T10:25:12.182Z,catalogue,network_in,65130
2023-07-14T10:25:12.182Z,carts-get,network_in,318043
2023-07-14T10:25:12.182Z,user-login,network_in,105755
2023-07-14T10:25:12.182Z,orders,network_in,318812
2023-07-14T10:25:16.766Z,carts-post,network_in,329178
2023-07-14T10:25:16.766Z,user,network_in,87286
2023-07-14T10:25:16.766Z,payment,network_in,62462
2023-07-14T10:25:16.766Z,queue-master,network_in,78412
2023-07-14T10:25:19.946Z,carts-delete,network_in,323062
2023-07-14T10:25:19.946Z,carts,network_in,318381
2023-07-14T10:25:19.946Z,shipping,network_in,69644
2023-07-14T10:25:22.181Z,catalogue,network_in,65130
2023-07-14T10:25:22.181Z,user-login,network_in,105755
2023-07-14T10:25:22.181Z,orders,network_in,318812
2023-07-14T10:25:22.181Z,carts-get,network_in,318043
2023-07-14T10:25:22.181Z,user-register,network_in,107717
2023-07-14T10:25:26.766Z,user,network_in,88537
2023-07-14T10:25:26.766Z,payment,network_in,62462
2023-07-14T10:25:26.766Z,queue-master,network_in,79502
2023-07-14T10:25:26.766Z,carts-post,network_in,340129
2023-07-14T10:25:29.947Z,carts,network_in,323856
2023-07-14T10:25:29.947Z,carts-delete,network_in,328469
2023-07-14T10:25:29.947Z,shipping,network_in,70736
2023-07-14T10:25:32.182Z,user-register,network_in,110220
2023-07-14T10:25:32.182Z,user-login,network_in,108258
2023-07-14T10:25:32.182Z,catalogue,network_in,65130
2023-07-14T10:25:32.182Z,orders,network_in,324703
2023-07-14T10:25:32.182Z,carts-get,network_in,323518
2023-07-14T10:25:36.766Z,user,network_in,88537
2023-07-14T10:25:36.766Z,queue-master,network_in,79502
2023-07-14T10:25:36.766Z,payment,network_in,64246
2023-07-14T10:25:36.766Z,carts-post,network_in,351477
2023-07-14T10:25:39.946Z,carts,network_in,323856
2023-07-14T10:25:39.946Z,shipping,network_in,70736
2023-07-14T10:25:39.946Z,carts-delete,network_in,328469
2023-07-14T10:25:42.182Z,user-login,network_in,111228
2023-07-14T10:25:42.182Z,carts-get,network_in,329312
2023-07-14T10:25:42.182Z,orders,network_in,336353
2023-07-14T10:25:42.182Z,user-register,network_in,113232
2023-07-14T10:25:42.182Z,catalogue,network_in,67812
2023-07-14T10:25:46.765Z,payment,network_in,64246
2023-07-14T10:25:46.765Z,user,network_in,88537
2023-07-14T10:25:46.765Z,queue-master,network_in,79502
2023-07-14T10:25:46.765Z,carts-post,network_in,351477
2023-07-14T10:25:49.947Z,shipping,network_in,74144
2023-07-14T10:25:49.947Z,carts,network_in,334938
2023-07-14T10:25:49.947Z,carts-delete,network_in,339481
2023-07-14T10:25:52.181Z,catalogue,network_in,67812
2023-07-14T10:25:52.181Z,carts-get,network_in,329312
2023-07-14T10:25:52.181Z,user-login,network_in,111228
2023-07-14T10:25:52.181Z,orders,network_in,336353
2023-07-14T10:25:52.181Z,user-register,network_in,113232
2023-07-14T10:25:56.766Z,payment,network_in,65138
2023-07-14T10:25:56.766Z,user,network_in,92771
2023-07-14T10:25:56.766Z,carts-post,network_in,357118
2023-07-14T10:25:56.766Z,queue-master,network_in,81670
