2023-07-14T10:15:59.947Z,shipping,network_out,1526
2023-07-14T10:15:59.947Z,carts,network_out,3347
2023-07-14T10:16:29.947Z,carts-delete,network_out,8845
2023-07-14T10:16:59.946Z,shipping,network_out,10808
2023-07-14T10:17:09.946Z,carts,network_out,16903
2023-07-14T10:17:09.946Z,shipping,network_out,14000
2023-07-14T10:15:49.946Z,carts,network_out,2751
2023-07-14T10:15:49.946Z,shipping,network_out,1526
2023-07-14T10:16:19.946Z,carts,network_out,7097
2023-07-14T10:16:29.947Z,shipping,network_out,7673
2023-07-14T10:16:39.947Z,carts-delete,network_out,8845
2023-07-14T10:16:39.947Z,carts,network_out,10845
2023-07-14T10:16:39.947Z,shipping,network_out,9212
2023-07-14T10:16:49.946Z,carts-delete,network_out,8845
2023-07-14T10:16:49.946Z,carts,network_out,10845
2023-07-14T10:16:59.946Z,carts-delete,network_out,16593
2023-07-14T10:16:59.946Z,carts,network_out,14713
2023-07-14T10:15:39.577Z,carts-delete,network_out,2601
2023-07-14T10:16:09.947Z,carts-delete,network_out,2995
2023-07-14T10:16:19.946Z,carts-delete,network_out,5637
2023-07-14T10:16:29.947Z,carts,network_out,10845
2023-07-14T10:16:49.946Z,shipping,network_out,9212
2023-07-14T10:17:19.946Z,carts,network_out,16903
2023-07-14T10:17:19.946Z,shipping,network_out,14000
2023-07-14T10:17:19.946Z,carts-delete,network_out,18659
2023-07-14T10:15:39.577Z,shipping,network_out,1198
2023-07-14T10:15:39.577Z,carts,network_out,2751
2023-07-14T10:15:49.946Z,carts-delete,network_out,2601
2023-07-14T10:15:59.947Z,carts-delete,network_out,2995
2023-07-14T10:16:09.947Z,shipping,network_out,1526
2023-07-14T10:16:09.947Z,carts,network_out,3347
2023-07-14T10:16:19.946Z,shipping,network_out,7673
2023-07-14T10:17:09.946Z,carts-delete,network_out,18659
2023-07-14T10:17:29.946Z,carts,network_out,20581
2023-07-14T10:17:29.946Z,shipping,network_out,15460
2023-07-14T10:17:29.946Z,carts-delete,network_out,20659
2023-07-14T10:15:51.661Z,catalogue,network_out,5514
2023-07-14T10:15:51.661Z,user-register,network_out,2173
2023-07-14T10:16:02.182Z,catalogue,network_out,8066
2023-07-14T10:16:02.182Z,user-register,network_out,6075
2023-07-14T10:16:02.182Z,orders,network_out,1052
2023-07-14T10:16:02.182Z,user-login,network_out,2149
2023-07-14T10:16:02.182Z,carts-get,network_out,3157
2023-07-14T10:16:22.182Z,catalogue,network_out,9408
2023-07-14T10:16:22.182Z,user-login,network_out,6727
2023-07-14T10:16:32.182Z,carts-get,network_out,9069
2023-07-14T10:16:32.182Z,user-login,network_out,6727
2023-07-14T10:16:32.182Z,user-register,network_out,10485
2023-07-14T10:16:22.182Z,user-register,network_out,8689
2023-07-14T10:16:22.182Z,orders,network_out,2877
2023-07-14T10:16:32.182Z,catalogue,network_out,12092
2023-07-14T10:16:42.182Z,catalogue,network_out,12092
2023-07-14T10:16:42.182Z,orders,network_out,2877
2023-07-14T10:16:52.182Z,user-register,network_out,16411
2023-07-14T10:16:52.182Z,orders,network_out,6364
2023-07-14T10:17:02.181Z,user-login,network_out,12731
2023-07-14T10:17:12.182Z,user-register,network_out,20325
2023-07-14T10:17:12.182Z,catalogue,network_out,17530
2023-07-14T10:17:12.182Z,user-login,network_out,16757
2023-07-14T10:17:12.182Z,carts-get,network_out,15197
2023-07-14T10:17:12.182Z,orders,network_out,8630
2023-07-14T10:17:22.182Z,user-login,network_out,18467
2023-07-14T10:17:22.182Z,catalogue,network_out,17530
2023-07-14T10:15:51.661Z,orders,network_out,944
2023-07-14T10:16:12.181Z,catalogue,network_out,8066
2023-07-14T10:16:12.181Z,user-register,network_out,6075
2023-07-14T10:16:12.181Z,user-login,network_out,2149
2023-07-14T10:16:12.181Z,carts-get,network_out,3157
2023-07-14T10:16:22.182Z,carts-get,network_out,3455
2023-07-14T10:16:32.182Z,orders,network_out,2877
2023-07-14T10:16:52.182Z,catalogue,network_out,14846
2023-07-14T10:16:52.182Z,user-login,network_out,12731
2023-07-14T10:16:52.182Z,carts-get,network_out,13073
2023-07-14T10:17:02.181Z,catalogue,network_out,14846
2023-07-14T10:17:22.182Z,user-register,network_out,22225
2023-07-14T10:17:32.182Z,orders,network_out,11877
2023-07-14T10:17:32.182Z,user-login,network_out,18467
2023-07-14T10:16:12.181Z,orders,network_out,1052
2023-07-14T10:16:42.182Z,carts-get,network_out,9069
2023-07-14T10:16:42.182Z,user-login,network_out,6727
2023-07-14T10:16:42.182Z,user-register,network_out,10485
2023-07-14T10:17:02.181Z,carts-get,network_out,13073
2023-07-14T10:17:02.181Z,user-register,network_out,16411
2023-07-14T10:17:02.181Z,orders,network_out,6364
2023-07-14T10:17:22.182Z,orders,network_out,11877
2023-07-14T10:17:22.182Z,carts-get,network_out,18875
2023-07-14T10:17:32.182Z,catalogue,network_out,17530
2023-07-14T10:17:32.182Z,carts-get,network_out,18875
2023-07-14T10:17:32.182Z,user-register,network_out,22225
2023-07-14T10:17:39.947Z,carts-delete,network_out,22725
2023-07-14T10:17:39.947Z,shipping,network_out,18520
2023-07-14T10:17:39.947Z,carts,network_out,20581
2023-07-14T10:16:36.765Z,user,network_out,10401
2023-07-14T10:16:36.765Z,queue-master,network_out,13616
2023-07-14T10:16:36.765Z,carts-post,network_out,8973
2023-07-14T10:16:46.767Z,payment,network_out,10912
2023-07-14T10:16:56.765Z,user,network_out,12193
2023-07-14T10:17:06.766Z,payment,network_out,14248
2023-07-14T10:17:06.766Z,user,network_out,16041
2023-07-14T10:17:16.765Z,user,network_out,17899
2023-07-14T10:17:26.766Z,carts-post,network_out,20655
2023-07-14T10:17:36.765Z,payment,network_out,17716
2023-07-14T10:17:36.765Z,queue-master,network_out,22876
2023-07-14T10:16:06.379Z,queue-master,network_out,9115
2023-07-14T10:16:06.379Z,user,network_out,2185
2023-07-14T10:16:16.766Z,user,network_out,6231
2023-07-14T10:16:26.766Z,payment,network_out,9822
2023-07-14T10:16:46.767Z,user,network_out,12193
2023-07-14T10:17:06.766Z,queue-master,network_out,18206
2023-07-14T10:17:16.765Z,queue-master,network_out,18206
2023-07-14T10:17:26.766Z,payment,network_out,16560
2023-07-14T10:17:36.765Z,carts-post,network_out,22911
2023-07-14T10:16:06.379Z,payment,network_out,7573
2023-07-14T10:16:16.766Z,payment,network_out,9822
2023-07-14T10:16:16.766Z,queue-master,network_out,9115
2023-07-14T10:16:26.766Z,carts-post,network_out,8973
2023-07-14T10:16:36.765Z,payment,network_out,10912
2023-07-14T10:16:56.765Z,carts-post,network_out,12911
2023-07-14T10:16:56.765Z,queue-master,network_out,13616
2023-07-14T10:17:06.766Z,carts-post,network_out,16779
2023-07-14T10:17:16.765Z,carts-post,network_out,20655
2023-07-14T10:17:36.765Z,user,network_out,21813
2023-07-14T10:16:06.379Z,carts-post,network_out,3347
2023-07-14T10:16:16.766Z,carts-post,network_out,7039
2023-07-14T10:16:26.766Z,queue-master,network_out,12013
2023-07-14T10:16:26.766Z,user,network_out,8159
2023-07-14T10:16:46.767Z,carts-post,network_out,12911
2023-07-14T10:16:46.767Z,queue-master,network_out,13616
2023-07-14T10:16:56.765Z,payment,network_out,10912
2023-07-14T10:17:16.765Z,payment,network_out,14248
2023-07-14T10:17:26.766Z,user,network_out,17899
2023-07-14T10:17:26.766Z,queue-master,network_out,21344
2023-07-14T10:17:42.181Z,carts-get,network_out,18875
2023-07-14T10:17:42.181Z,user-login,network_out,18467
2023-07-14T10:17:42.181Z,user-register,network_out,23893
2023-07-14T10:17:42.181Z,catalogue,network_out,20214
2023-07-14T10:17:42.181Z,orders,network_out,11877
2023-07-14T10:17:46.766Z,payment,network_out,18872
2023-07-14T10:17:46.766Z,carts-post,network_out,22911
2023-07-14T10:17:46.766Z,user,network_out,21813
2023-07-14T10:17:46.766Z,queue-master,network_out,22876
2023-07-14T10:17:49.946Z,shipping,network_out,18520
2023-07-14T10:17:49.946Z,carts,network_out,20581
2023-07-14T10:17:49.946Z,carts-delete,network_out,22725
2023-07-14T10:17:52.183Z,carts-get,network_out,24809
2023-07-14T10:17:52.183Z,user-register,network_out,28067
2023-07-14T10:17:52.183Z,catalogue,network_out,21556
2023-07-14T10:17:52.183Z,orders,network_out,18019
2023-07-14T10:17:52.183Z,user-login,network_out,20325
2023-07-14T10:17:56.766Z,user,network_out,25343
2023-07-14T10:17:56.766Z,payment,network_out,18872
2023-07-14T10:17:56.766Z,queue-master,network_out,25972
2023-07-14T10:17:56.766Z,carts-post,network_out,27043
2023-07-14T10:17:59.946Z,carts-delete,network_out,26791
2023-07-14T10:17:59.946Z,shipping,network_out,23172
2023-07-14T10:17:59.946Z,carts,network_out,26581
2023-07-14T10:18:02.182Z,orders,network_out,18019
2023-07-14T10:18:02.182Z,catalogue,network_out,21556
2023-07-14T10:18:02.182Z,user-login,network_out,20325
2023-07-14T10:18:02.182Z,user-register,network_out,28067
2023-07-14T10:18:02.182Z,carts-get,network_out,24809
2023-07-14T10:18:06.766Z,user,network_out,25343
2023-07-14T10:18:06.766Z,payment,network_out,18872
2023-07-14T10:18:06.766Z,queue-master,network_out,25972
2023-07-14T10:18:06.766Z,carts-post,network_out,27043
2023-07-14T10:18:09.946Z,carts-delete,network_out,30857
2023-07-14T10:18:09.946Z,carts,network_out,30515
2023-07-14T10:18:09.946Z,shipping,network_out,23172
2023-07-14T10:18:12.181Z,user-register,network_out,29925
2023-07-14T10:18:12.181Z,catalogue,network_out,24240
2023-07-14T10:18:12.181Z,orders,network_out,22031
2023-07-14T10:18:12.181Z,user-login,network_out,28339
2023-07-14T10:18:12.181Z,carts-get,network_out,27065
2023-07-14T10:18:16.766Z,queue-master,network_out,29184
2023-07-14T10:18:16.766Z,user,network_out,29257
2023-07-14T10:18:16.766Z,payment,network_out,21184
2023-07-14T10:18:16.766Z,carts-post,network_out,29109
2023-07-14T10:18:19.946Z,shipping,network_out,26224
2023-07-14T10:18:19.946Z,carts,network_out,30515
2023-07-14T10:18:19.946Z,carts-delete,network_out,30857
2023-07-14T10:18:22.182Z,user-login,network_out,28339
2023-07-14T10:18:22.182Z,user-register,network_out,32209
2023-07-14T10:18:22.182Z,orders,network_out,25985
2023-07-14T10:18:22.182Z,carts-get,network_out,31007
2023-07-14T10:18:22.182Z,catalogue,network_out,25582
2023-07-14T10:18:26.766Z,queue-master,network_out,30732
2023-07-14T10:18:26.766Z,carts-post,network_out,33175
2023-07-14T10:18:26.766Z,payment,network_out,23565
2023-07-14T10:18:26.766Z,user,network_out,31185
2023-07-14T10:18:29.946Z,carts-delete,network_out,30857
2023-07-14T10:18:29.946Z,shipping,network_out,26224
2023-07-14T10:18:29.946Z,carts,network_out,30515
2023-07-14T10:18:32.182Z,user-login,network_out,30281
2023-07-14T10:18:32.182Z,catalogue,network_out,25582
2023-07-14T10:18:32.182Z,carts-get,network_out,31007
2023-07-14T10:18:32.182Z,user-register,network_out,35805
2023-07-14T10:18:32.182Z,orders,network_out,28057
2023-07-14T10:18:36.765Z,user,network_out,31185
2023-07-14T10:18:36.765Z,carts-post,network_out,33175
2023-07-14T10:18:36.765Z,queue-master,network_out,30732
2023-07-14T10:18:36.765Z,payment,network_out,24721
2023-07-14T10:18:39.947Z,carts-delete,network_out,37055
2023-07-14T10:18:39.947Z,shipping,network_out,27824
2023-07-14T10:18:39.947Z,carts,network_out,36585
2023-07-14T10:18:42.182Z,orders,network_out,28057
2023-07-14T10:18:42.182Z,user-register,network_out,35805
2023-07-14T10:18:42.182Z,user-login,network_out,30281
2023-07-14T10:18:42.182Z,catalogue,network_out,25582
2023-07-14T10:18:42.182Z,carts-get,network_out,31007
2023-07-14T10:18:46.766Z,queue-master,network_out,33878
2023-07-14T10:18:46.766Z,user,network_out,35099
2023-07-14T10:18:46.766Z,payment,network_out,24721
2023-07-14T10:18:46.766Z,carts-post,network_out,37109
2023-07-14T10:18:49.946Z,carts-delete,network_out,37055
2023-07-14T10:18:49.946Z,carts,network_out,36585
2023-07-14T10:18:49.946Z,shipping,network_out,27824
2023-07-14T10:18:52.182Z,carts-get,network_out,35197
2023-07-14T10:18:52.182Z,user-login,network_out,32139
2023-07-14T10:18:52.182Z,orders,network_out,30129
2023-07-14T10:18:52.182Z,user-register,network_out,38263
2023-07-14T10:18:52.182Z,catalogue,network_out,30434
2023-07-14T10:18:56.766Z,queue-master,network_out,33878
2023-07-14T10:18:56.766Z,user,network_out,35099
2023-07-14T10:18:56.766Z,payment,network_out,24721
2023-07-14T10:18:56.766Z,carts-post,network_out,37109
2023-07-14T10:18:59.946Z,carts,network_out,40453
2023-07-14T10:18:59.946Z,carts-delete,network_out,39121
2023-07-14T10:18:59.946Z,shipping,network_out,30876
2023-07-14T10:19:02.181Z,user-register,network_out,38263
2023-07-14T10:19:02.181Z,catalogue,network_out,30434
2023-07-14T10:19:02.181Z,orders,network_out,30129
2023-07-14T10:19:02.181Z,user-login,network_out,32139
2023-07-14T10:19:02.181Z,carts-get,network_out,35197
2023-07-14T10:19:06.765Z,queue-master,network_out,35496
2023-07-14T10:19:06.765Z,carts-post,network_out,39113
2023-07-14T10:19:06.765Z,payment,network_out,28189
2023-07-14T10:19:06.765Z,user,network_out,36955
2023-07-14T10:19:09.946Z,carts,network_out,40453
2023-07-14T10:19:09.946Z,shipping,network_out,30876
2023-07-14T10:19:09.946Z,carts-delete,network_out,39121
2023-07-14T10:19:12.182Z,orders,network_out,36345
2023-07-14T10:19:12.182Z,carts-get,network_out,41077
2023-07-14T10:19:12.182Z,catalogue,network_out,34526
2023-07-14T10:19:12.182Z,user-login,network_out,40207
2023-07-14T10:19:12.182Z,user-register,network_out,44253
2023-07-14T10:19:16.766Z,payment,network_out,28189
2023-07-14T10:19:16.766Z,user,network_out,41055
2023-07-14T10:19:16.766Z,queue-master,network_out,38642
2023-07-14T10:19:16.766Z,carts-post,network_out,43179
2023-07-14T10:19:19.946Z,carts,network_out,42519
2023-07-14T10:19:19.946Z,shipping,network_out,35598
2023-07-14T10:19:19.946Z,carts-delete,network_out,43257
2023-07-14T10:19:22.181Z,orders,network_out,36345
2023-07-14T10:19:22.181Z,carts-get,network_out,41077
2023-07-14T10:19:22.181Z,catalogue,network_out,34526
2023-07-14T10:19:22.181Z,user-register,network_out,44253
2023-07-14T10:19:22.181Z,user-login,network_out,40207
2023-07-14T10:19:26.766Z,carts-post,network_out,43179
2023-07-14T10:19:26.766Z,user,network_out,41055
2023-07-14T10:19:26.766Z,queue-master,network_out,40124
2023-07-14T10:19:26.766Z,payment,network_out,30501
2023-07-14T10:19:29.946Z,carts-delete,network_out,45447
2023-07-14T10:19:29.946Z,carts,network_out,44519
2023-07-14T10:19:29.946Z,shipping,network_out,35598
2023-07-14T10:19:32.182Z,orders,network_out,36345
2023-07-14T10:19:32.182Z,carts-get,network_out,41077
2023-07-14T10:19:32.182Z,catalogue,network_out,34526
2023-07-14T10:19:32.182Z,user-register,network_out,46111
2023-07-14T10:19:32.182Z,user-login,network_out,40207
2023-07-14T10:19:36.766Z,payment,network_out,30501
2023-07-14T10:19:36.766Z,queue-master,network_out,41746
2023-07-14T10:19:36.766Z,user,network_out,44965
2023-07-14T10:19:36.766Z,carts-post,network_out,47113
2023-07-14T10:19:39.946Z,shipping,network_out,35598
2023-07-14T10:19:39.946Z,carts-delete,network_out,45447
2023-07-14T10:19:39.946Z,carts,network_out,44519
2023-07-14T10:19:42.182Z,carts-get,network_out,45077
2023-07-14T10:19:42.182Z,user-register,network_out,47969
2023-07-14T10:19:42.182Z,user-login,network_out,43779
2023-07-14T10:19:42.182Z,catalogue,network_out,38552
2023-07-14T10:19:42.182Z,orders,network_out,42499
2023-07-14T10:19:46.766Z,carts-post,network_out,49047
2023-07-14T10:19:46.766Z,payment,network_out,32813
2023-07-14T10:19:46.766Z,user,network_out,46823
2023-07-14T10:19:46.766Z,queue-master,network_out,44686
2023-07-14T10:19:49.947Z,shipping,network_out,38658
2023-07-14T10:19:49.947Z,carts,network_out,48651
2023-07-14T10:19:49.947Z,carts-delete,network_out,49257
2023-07-14T10:19:52.181Z,user-login,network_out,43779
2023-07-14T10:19:52.181Z,carts-get,network_out,45077
2023-07-14T10:19:52.181Z,user-register,network_out,47969
2023-07-14T10:19:52.181Z,orders,network_out,42499
2023-07-14T10:19:52.181Z,catalogue,network_out,38552
2023-07-14T10:19:56.766Z,carts-post,network_out,49047
2023-07-14T10:19:56.766Z,payment,network_out,32813
2023-07-14T10:19:56.766Z,user,network_out,46823
2023-07-14T10:19:56.766Z,queue-master,network_out,44686
2023-07-14T10:19:59.946Z,shipping,network_out,40052
2023-07-14T10:19:59.946Z,carts-delete,network_out,49257
2023-07-14T10:19:59.946Z,carts,network_out,52651
2023-07-14T10:20:02.182Z,orders,network_out,44571
2023-07-14T10:20:02.182Z,user-login,network_out,49543
2023-07-14T10:20:02.182Z,carts-get,network_out,51143
2023-07-14T10:20:02.182Z,user-register,network_out,51967
2023-07-14T10:20:02.182Z,catalogue,network_out,41236
2023-07-14T10:20:06.765Z,carts-post,network_out,52791
2023-07-14T10:20:06.765Z,payment,network_out,35059
2023-07-14T10:20:06.765Z,user,network_out,50737
2023-07-14T10:20:06.765Z,queue-master,network_out,46284
2023-07-14T10:20:09.946Z,shipping,network_out,43178
2023-07-14T10:20:09.946Z,carts-delete,network_out,53323
2023-07-14T10:20:09.946Z,carts,network_out,54717
2023-07-14T10:20:12.182Z,catalogue,network_out,42578
2023-07-14T10:20:12.182Z,carts-get,network_out,53143
2023-07-14T10:20:12.182Z,user-login,network_out,49543
2023-07-14T10:20:12.182Z,user-register,network_out,56059
2023-07-14T10:20:12.182Z,orders,network_out,46643
2023-07-14T10:20:16.766Z,payment,network_out,35059
2023-07-14T10:20:16.766Z,queue-master,network_out,46284
2023-07-14T10:20:16.766Z,user,network_out,50737
2023-07-14T10:20:16.766Z,carts-post,network_out,55047
2023-07-14T10:20:19.947Z,carts-delete,network_out,57389
2023-07-14T10:20:19.947Z,shipping,network_out,43178
2023-07-14T10:20:19.947Z,carts,network_out,54717
2023-07-14T10:20:22.181Z,user-login,network_out,49543
2023-07-14T10:20:22.181Z,carts-get,network_out,53143
2023-07-14T10:20:22.181Z,catalogue,network_out,42578
2023-07-14T10:20:22.181Z,user-register,network_out,56059
2023-07-14T10:20:22.181Z,orders,network_out,46643
2023-07-14T10:20:26.767Z,user,network_out,54267
2023-07-14T10:20:26.767Z,queue-master,network_out,49380
2023-07-14T10:20:26.767Z,carts-post,network_out,55047
2023-07-14T10:20:26.767Z,payment,network_out,37371
2023-07-14T10:20:29.946Z,carts-delete,network_out,57389
2023-07-14T10:20:29.946Z,shipping,network_out,43178
2023-07-14T10:20:29.946Z,carts,network_out,54717
2023-07-14T10:20:32.182Z,user-login,network_out,54081
2023-07-14T10:20:32.182Z,orders,network_out,50977
2023-07-14T10:20:32.182Z,catalogue,network_out,43920
2023-07-14T10:20:32.182Z,carts-get,network_out,57143
2023-07-14T10:20:32.182Z,user-register,network_out,57913
2023-07-14T10:20:36.765Z,user,network_out,54267
2023-07-14T10:20:36.765Z,queue-master,network_out,49380
2023-07-14T10:20:36.765Z,carts-post,network_out,55047
2023-07-14T10:20:36.765Z,payment,network_out,37371
2023-07-14T10:20:39.946Z,carts,network_out,58907
2023-07-14T10:20:39.946Z,shipping,network_out,47764
2023-07-14T10:20:39.946Z,carts-delete,network_out,61389
2023-07-14T10:20:42.181Z,catalogue,network_out,43920
2023-07-14T10:20:42.181Z,orders,network_out,50977
2023-07-14T10:20:42.181Z,user-login,network_out,54081
2023-07-14T10:20:42.181Z,carts-get,network_out,57143
2023-07-14T10:20:42.181Z,user-register,network_out,57913
2023-07-14T10:20:46.766Z,carts-post,network_out,62791
2023-07-14T10:20:46.766Z,payment,network_out,39682
2023-07-14T10:20:46.766Z,queue-master,network_out,52526
2023-07-14T10:20:46.766Z,user,network_out,58177
2023-07-14T10:20:49.946Z,carts-delete,network_out,61389
2023-07-14T10:20:49.946Z,shipping,network_out,47764
2023-07-14T10:20:49.946Z,carts,network_out,62717
2023-07-14T10:20:52.182Z,orders,network_out,56871
2023-07-14T10:20:52.182Z,user-register,network_out,59771
2023-07-14T10:20:52.182Z,user-login,network_out,58255
2023-07-14T10:20:52.182Z,carts-get,network_out,61143
2023-07-14T10:20:52.182Z,catalogue,network_out,46536
2023-07-14T10:20:56.766Z,payment,network_out,40838
2023-07-14T10:20:56.766Z,queue-master,network_out,54074
2023-07-14T10:20:56.766Z,carts-post,network_out,62791
2023-07-14T10:20:56.766Z,user,network_out,60035
2023-07-14T10:20:59.946Z,carts-delete,network_out,61389
2023-07-14T10:20:59.946Z,shipping,network_out,47764
2023-07-14T10:20:59.946Z,carts,network_out,62717
2023-07-14T10:21:02.181Z,catalogue,network_out,46536
2023-07-14T10:21:02.181Z,user-register,network_out,59771
2023-07-14T10:21:02.181Z,user-login,network_out,58255
2023-07-14T10:21:02.181Z,orders,network_out,56871
2023-07-14T10:21:02.181Z,carts-get,network_out,61143
2023-07-14T10:21:06.766Z,payment,network_out,40838
2023-07-14T10:21:06.766Z,queue-master,network_out,54074
2023-07-14T10:21:06.766Z,carts-post,network_out,62791
2023-07-14T10:21:06.766Z,user,network_out,60035
2023-07-14T10:21:09.947Z,carts-delete,network_out,67323
2023-07-14T10:21:09.947Z,shipping,network_out,50890
2023-07-14T10:21:09.947Z,carts,network_out,64717
2023-07-14T10:21:12.181Z,user-login,network_out,64205
2023-07-14T10:21:12.181Z,user-register,network_out,67299
2023-07-14T10:21:12.181Z,orders,network_out,60883
2023-07-14T10:21:12.181Z,carts-get,network_out,63077
2023-07-14T10:21:12.181Z,catalogue,network_out,50496
2023-07-14T10:21:16.766Z,user,network_out,63949
2023-07-14T10:21:16.766Z,carts-post,network_out,66791
2023-07-14T10:21:16.766Z,queue-master,network_out,57088
2023-07-14T10:21:16.766Z,payment,network_out,43150
2023-07-14T10:21:19.946Z,carts-delete,network_out,67323
2023-07-14T10:21:19.946Z,carts,network_out,68783
2023-07-14T10:21:19.946Z,shipping,network_out,50890
2023-07-14T10:21:22.182Z,orders,network_out,60883
2023-07-14T10:21:22.182Z,user-login,network_out,66063
2023-07-14T10:21:22.182Z,catalogue,network_out,50496
2023-07-14T10:21:22.182Z,user-register,network_out,67299
2023-07-14T10:21:22.182Z,carts-get,network_out,67143
2023-07-14T10:21:26.765Z,carts-post,network_out,68915
2023-07-14T10:21:26.765Z,queue-master,network_out,58636
2023-07-14T10:21:26.765Z,user,network_out,63949
2023-07-14T10:21:26.765Z,payment,network_out,44306
2023-07-14T10:21:29.947Z,carts-delete,network_out,71389
2023-07-14T10:21:29.947Z,shipping,network_out,53678
2023-07-14T10:21:29.947Z,carts,network_out,68783
2023-07-14T10:21:32.182Z,user-register,network_out,67299
2023-07-14T10:21:32.182Z,user-login,network_out,66063
2023-07-14T10:21:32.182Z,catalogue,network_out,50496
2023-07-14T10:21:32.182Z,orders,network_out,60883
2023-07-14T10:21:32.182Z,carts-get,network_out,67143
2023-07-14T10:21:36.766Z,queue-master,network_out,58636
2023-07-14T10:21:36.766Z,user,network_out,67665
2023-07-14T10:21:36.766Z,payment,network_out,44306
2023-07-14T10:21:36.766Z,carts-post,network_out,70981
2023-07-14T10:21:39.947Z,carts-delete,network_out,73389
2023-07-14T10:21:39.947Z,carts,network_out,70849
2023-07-14T10:21:39.947Z,shipping,network_out,53678
2023-07-14T10:21:42.182Z,catalogue,network_out,51838
2023-07-14T10:21:42.182Z,user-register,network_out,73249
2023-07-14T10:21:42.182Z,user-login,network_out,69973
2023-07-14T10:21:42.182Z,carts-get,network_out,69143
2023-07-14T10:21:42.182Z,orders,network_out,64763
2023-07-14T10:21:46.766Z,payment,network_out,46618
2023-07-14T10:21:46.766Z,carts-post,network_out,70981
2023-07-14T10:21:46.766Z,user,network_out,69721
2023-07-14T10:21:46.766Z,queue-master,network_out,61716
2023-07-14T10:21:49.946Z,carts,network_out,70849
2023-07-14T10:21:49.946Z,carts-delete,network_out,73389
2023-07-14T10:21:49.946Z,shipping,network_out,53678
2023-07-14T10:21:52.182Z,user-login,network_out,69973
2023-07-14T10:21:52.182Z,catalogue,network_out,51838
2023-07-14T10:21:52.182Z,carts-get,network_out,69143
2023-07-14T10:21:52.182Z,orders,network_out,64763
2023-07-14T10:21:52.182Z,user-register,network_out,73249
2023-07-14T10:21:56.766Z,payment,network_out,46618
2023-07-14T10:21:56.766Z,user,network_out,69721
2023-07-14T10:21:56.766Z,carts-post,network_out,70981
2023-07-14T10:21:56.766Z,queue-master,network_out,61716
2023-07-14T10:21:59.946Z,carts,network_out,74915
2023-07-14T10:21:59.946Z,shipping,network_out,59930
2023-07-14T10:21:59.946Z,carts-delete,network_out,75323
2023-07-14T10:22:02.182Z,user-login,network_out,71915
2023-07-14T10:22:02.182Z,user-register,network_out,75533
2023-07-14T10:22:02.182Z,carts-get,network_out,73333
2023-07-14T10:22:02.182Z,catalogue,network_out,57206
2023-07-14T10:22:02.182Z,orders,network_out,70847
2023-07-14T10:22:06.766Z,queue-master,network_out,64862
2023-07-14T10:22:06.766Z,carts-post,network_out,75113
2023-07-14T10:22:06.766Z,payment,network_out,48929
2023-07-14T10:22:06.766Z,user,network_out,73435
2023-07-14T10:22:09.947Z,shipping,network_out,61390
2023-07-14T10:22:09.947Z,carts,network_out,79047
2023-07-14T10:22:09.947Z,carts-delete,network_out,79455
2023-07-14T10:22:12.181Z,user-login,network_out,71915
2023-07-14T10:22:12.181Z,carts-get,network_out,73333
2023-07-14T10:22:12.181Z,orders,network_out,70847
2023-07-14T10:22:12.181Z,user-register,network_out,75533
2023-07-14T10:22:12.181Z,catalogue,network_out,57206
2023-07-14T10:22:16.766Z,carts-post,network_out,78989
2023-07-14T10:22:16.766Z,user,network_out,73435
2023-07-14T10:22:16.766Z,payment,network_out,51311
2023-07-14T10:22:16.766Z,queue-master,network_out,64862
2023-07-14T10:22:19.946Z,carts,network_out,79047
2023-07-14T10:22:19.946Z,carts-delete,network_out,79455
2023-07-14T10:22:19.946Z,shipping,network_out,61390
2023-07-14T10:22:22.182Z,carts-get,network_out,79275
2023-07-14T10:22:22.182Z,user-register,network_out,79551
2023-07-14T10:22:22.182Z,user-login,network_out,75445
2023-07-14T10:22:22.182Z,orders,network_out,74859
2023-07-14T10:22:22.182Z,catalogue,network_out,58478
2023-07-14T10:22:26.765Z,payment,network_out,51311
2023-07-14T10:22:26.765Z,queue-master,network_out,67958
2023-07-14T10:22:26.765Z,user,network_out,77349
2023-07-14T10:22:26.765Z,carts-post,network_out,81179
2023-07-14T10:22:29.946Z,carts,network_out,81113
2023-07-14T10:22:29.946Z,shipping,network_out,62784
2023-07-14T10:22:29.946Z,carts-delete,network_out,81521
2023-07-14T10:22:32.182Z,catalogue,network_out,58478
2023-07-14T10:22:32.182Z,carts-get,network_out,79275
2023-07-14T10:22:32.182Z,user-login,network_out,75445
2023-07-14T10:22:32.182Z,orders,network_out,74859
2023-07-14T10:22:32.182Z,user-register,network_out,79551
2023-07-14T10:22:36.767Z,queue-master,network_out,69622
2023-07-14T10:22:36.767Z,user,network_out,77349
2023-07-14T10:22:36.767Z,carts-post,network_out,81179
2023-07-14T10:22:36.767Z,payment,network_out,52467
2023-07-14T10:22:39.946Z,shipping,network_out,62784
2023-07-14T10:22:39.946Z,carts-delete,network_out,85653
2023-07-14T10:22:39.946Z,carts,network_out,81113
2023-07-14T10:22:42.182Z,user-login,network_out,79359
2023-07-14T10:22:42.182Z,orders,network_out,78805
2023-07-14T10:22:42.182Z,carts-get,network_out,81275
2023-07-14T10:22:42.182Z,user-register,network_out,83263
2023-07-14T10:22:42.182Z,catalogue,network_out,59820
2023-07-14T10:22:46.766Z,queue-master,network_out,69622
2023-07-14T10:22:46.766Z,user,network_out,77349
2023-07-14T10:22:46.766Z,carts-post,network_out,81179
2023-07-14T10:22:46.766Z,payment,network_out,52467
2023-07-14T10:22:49.946Z,carts-delete,network_out,87719
2023-07-14T10:22:49.946Z,carts,network_out,85113
2023-07-14T10:22:49.946Z,shipping,network_out,65910
2023-07-14T10:22:52.182Z,catalogue,network_out,62504
2023-07-14T10:22:52.182Z,carts-get,network_out,85209
2023-07-14T10:22:52.182Z,orders,network_out,80877
2023-07-14T10:22:52.182Z,user-login,network_out,81685
2023-07-14T10:22:52.182Z,user-register,network_out,87431
2023-07-14T10:22:56.765Z,queue-master,network_out,72454
2023-07-14T10:22:56.765Z,payment,network_out,54779
2023-07-14T10:22:56.765Z,user,network_out,83191
2023-07-14T10:22:56.765Z,carts-post,network_out,87245
2023-07-14T10:22:59.946Z,carts-delete,network_out,87719
2023-07-14T10:22:59.946Z,carts,network_out,85113
2023-07-14T10:22:59.946Z,shipping,network_out,65910
2023-07-14T10:23:02.182Z,catalogue,network_out,65122
2023-07-14T10:23:02.182Z,carts-get,network_out,87275
2023-07-14T10:23:02.182Z,orders,network_out,80877
2023-07-14T10:23:02.182Z,user-register,network_out,87431
2023-07-14T10:23:02.182Z,user-login,network_out,85215
2023-07-14T10:23:06.766Z,queue-master,network_out,74052
2023-07-14T10:23:06.766Z,user,network_out,85433
2023-07-14T10:23:06.766Z,carts-post,network_out,87245
2023-07-14T10:23:06.766Z,payment,network_out,55935
2023-07-14T10:23:09.946Z,carts,network_out,91183
2023-07-14T10:23:09.946Z,shipping,network_out,68896
2023-07-14T10:23:09.946Z,carts-delete,network_out,89785
2023-07-14T10:23:12.182Z,orders,network_out,80877
2023-07-14T10:23:12.182Z,user-register,network_out,87431
2023-07-14T10:23:12.182Z,catalogue,network_out,65122
2023-07-14T10:23:12.182Z,user-login,network_out,85215
2023-07-14T10:23:12.182Z,carts-get,network_out,87275
2023-07-14T10:23:16.766Z,queue-master,network_out,74052
2023-07-14T10:23:16.766Z,user,network_out,85433
2023-07-14T10:23:16.766Z,carts-post,network_out,87245
2023-07-14T10:23:16.766Z,payment,network_out,55935
2023-07-14T10:23:19.946Z,shipping,network_out,70496
2023-07-14T10:23:19.946Z,carts,network_out,91183
2023-07-14T10:23:19.946Z,carts-delete,network_out,89785
2023-07-14T10:23:22.182Z,orders,network_out,86895
2023-07-14T10:23:22.182Z,catalogue,network_out,66464
2023-07-14T10:23:22.182Z,carts-get,network_out,91477
2023-07-14T10:23:22.182Z,user-login,network_out,89129
2023-07-14T10:23:22.182Z,user-register,network_out,93590
2023-07-14T10:23:26.766Z,queue-master,network_out,75600
2023-07-14T10:23:26.766Z,payment,network_out,58180
2023-07-14T10:23:26.766Z,user,network_out,88959
2023-07-14T10:23:26.766Z,carts-post,network_out,93249
2023-07-14T10:23:29.946Z,shipping,network_out,73358
2023-07-14T10:23:29.946Z,carts-delete,network_out,93917
2023-07-14T10:23:29.946Z,carts,network_out,93183
2023-07-14T10:23:32.181Z,carts-get,network_out,91477
2023-07-14T10:23:32.181Z,user-register,network_out,93590
2023-07-14T10:23:32.181Z,orders,network_out,86895
2023-07-14T10:23:32.181Z,catalogue,network_out,66464
2023-07-14T10:23:32.181Z,user-login,network_out,89129
2023-07-14T10:23:36.766Z,carts-post,network_out,93249
2023-07-14T10:23:36.766Z,user,network_out,88959
2023-07-14T10:23:36.766Z,payment,network_out,58180
2023-07-14T10:23:36.766Z,queue-master,network_out,78774
2023-07-14T10:23:39.946Z,shipping,network_out,73358
2023-07-14T10:23:39.946Z,carts-delete,network_out,93917
2023-07-14T10:23:39.946Z,carts,network_out,93183
2023-07-14T10:23:42.181Z,user-register,network_out,97120
2023-07-14T10:23:42.181Z,carts-get,network_out,93411
2023-07-14T10:23:42.181Z,orders,network_out,90973
2023-07-14T10:23:42.181Z,user-login,network_out,91173
2023-07-14T10:23:42.181Z,catalogue,network_out,69148
2023-07-14T10:23:46.765Z,queue-master,network_out,80364
2023-07-14T10:23:46.765Z,carts-post,network_out,97315
2023-07-14T10:23:46.765Z,user,network_out,92873
2023-07-14T10:23:46.765Z,payment,network_out,60492
2023-07-14T10:23:49.946Z,carts,network_out,97183
2023-07-14T10:23:49.946Z,shipping,network_out,76348
2023-07-14T10:23:49.946Z,carts-delete,network_out,97917
2023-07-14T10:23:52.182Z,orders,network_out,90973
2023-07-14T10:23:52.182Z,carts-get,network_out,97345
2023-07-14T10:23:52.182Z,user-login,network_out,95241
2023-07-14T10:23:52.182Z,user-register,network_out,97120
2023-07-14T10:23:52.182Z,catalogue,network_out,71902
2023-07-14T10:23:56.766Z,user,network_out,92873
2023-07-14T10:23:56.766Z,payment,network_out,61648
2023-07-14T10:23:56.766Z,queue-master,network_out,81780
2023-07-14T10:23:56.766Z,carts-post,network_out,97315
2023-07-14T10:23:59.946Z,carts,network_out,101183
2023-07-14T10:23:59.946Z,shipping,network_out,76348
2023-07-14T10:23:59.946Z,carts-delete,network_out,99851
2023-07-14T10:24:02.182Z,user-register,network_out,97120
2023-07-14T10:24:02.182Z,catalogue,network_out,71902
2023-07-14T10:24:02.182Z,user-login,network_out,95241
2023-07-14T10:24:02.182Z,orders,network_out,90973
2023-07-14T10:24:02.182Z,carts-get,network_out,97345
2023-07-14T10:24:06.766Z,carts-post,network_out,101249
2023-07-14T10:24:06.766Z,payment,network_out,61648
2023-07-14T10:24:06.766Z,user,network_out,96589
2023-07-14T10:24:06.766Z,queue-master,network_out,81780
2023-07-14T10:24:09.946Z,carts-delete,network_out,99851
2023-07-14T10:24:09.946Z,shipping,network_out,78014
2023-07-14T10:24:09.946Z,carts,network_out,101183
2023-07-14T10:24:12.183Z,user-register,network_out,99664
2023-07-14T10:24:12.183Z,orders,network_out,97189
2023-07-14T10:24:12.183Z,catalogue,network_out,73244
2023-07-14T10:24:12.183Z,user-login,network_out,97099
2023-07-14T10:24:12.183Z,carts-get,network_out,101345
2023-07-14T10:24:16.765Z,carts-post,network_out,101249
2023-07-14T10:24:16.765Z,payment,network_out,61648
2023-07-14T10:24:16.765Z,user,network_out,96589
2023-07-14T10:24:16.765Z,queue-master,network_out,81780
2023-07-14T10:24:19.946Z,carts-delete,network_out,99851
2023-07-14T10:24:19.946Z,shipping,network_out,78014
2023-07-14T10:24:19.946Z,carts,network_out,101183
2023-07-14T10:24:22.182Z,user-login,network_out,97099
2023-07-14T10:24:22.182Z,orders,network_out,97189
2023-07-14T10:24:22.182Z,catalogue,network_out,73244
2023-07-14T10:24:22.182Z,user-register,network_out,99664
2023-07-14T10:24:22.182Z,carts-get,network_out,101345
2023-07-14T10:24:26.766Z,user,network_out,98831
2023-07-14T10:24:26.766Z,carts-post,network_out,103249
2023-07-14T10:24:26.766Z,queue-master,network_out,86474
2023-07-14T10:24:26.766Z,payment,network_out,65050
2023-07-14T10:24:29.946Z,carts-delete,network_out,105921
2023-07-14T10:24:29.946Z,carts,network_out,105249
2023-07-14T10:24:29.946Z,shipping,network_out,80934
2023-07-14T10:24:32.182Z,carts-get,network_out,103411
2023-07-14T10:24:32.182Z,user-login,network_out,101191
2023-07-14T10:24:32.182Z,orders,network_out,101135
2023-07-14T10:24:32.182Z,user-register,network_out,107504
2023-07-14T10:24:32.182Z,catalogue,network_out,77204
2023-07-14T10:24:36.766Z,payment,network_out,65050
2023-07-14T10:24:36.766Z,queue-master,network_out,86474
2023-07-14T10:24:36.766Z,carts-post,network_out,107183
2023-07-14T10:24:36.766Z,user,network_out,102229
2023-07-14T10:24:39.946Z,carts-delete,network_out,105921
2023-07-14T10:24:39.946Z,shipping,network_out,80934
2023-07-14T10:24:39.946Z,carts,network_out,105249
2023-07-14T10:24:42.182Z,catalogue,network_out,78546
2023-07-14T10:24:42.182Z,user-register,network_out,107504
2023-07-14T10:24:42.182Z,user-login,network_out,103049
2023-07-14T10:24:42.182Z,orders,network_out,103145
2023-07-14T10:24:42.182Z,carts-get,network_out,107477
2023-07-14T10:24:46.766Z,carts-post,network_out,109117
2023-07-14T10:24:46.766Z,user,network_out,104471
2023-07-14T10:24:46.766Z,payment,network_out,67294
2023-07-14T10:24:46.766Z,queue-master,network_out,89512
2023-07-14T10:24:49.946Z,shipping,network_out,83994
2023-07-14T10:24:49.946Z,carts-delete,network_out,110053
2023-07-14T10:24:49.946Z,carts,network_out,107249
2023-07-14T10:24:52.182Z,catalogue,network_out,78546
2023-07-14T10:24:52.182Z,carts-get,network_out,107477
2023-07-14T10:24:52.182Z,orders,network_out,103145
2023-07-14T10:24:52.182Z,user-register,network_out,107504
2023-07-14T10:24:52.182Z,user-login,network_out,103049
2023-07-14T10:24:56.766Z,queue-master,network_out,92476
2023-07-14T10:24:56.766Z,carts-post,network_out,109117
2023-07-14T10:24:56.766Z,user,network_out,106143
2023-07-14T10:24:56.766Z,payment,network_out,67294
2023-07-14T10:24:59.946Z,carts,network_out,111381
2023-07-14T10:24:59.946Z,carts-delete,network_out,112053
2023-07-14T10:24:59.946Z,shipping,network_out,85388
2023-07-14T10:25:02.181Z,user-login,network_out,108719
2023-07-14T10:25:02.181Z,carts-get,network_out,111411
2023-07-14T10:25:02.181Z,orders,network_out,105217
2023-07-14T10:25:02.181Z,user-register,network_out,113536
2023-07-14T10:25:02.181Z,catalogue,network_out,81230
2023-07-14T10:25:06.766Z,queue-master,network_out,92476
2023-07-14T10:25:06.766Z,carts-post,network_out,109117
2023-07-14T10:25:06.766Z,user,network_out,106143
2023-07-14T10:25:06.766Z,payment,network_out,67294
2023-07-14T10:25:09.946Z,carts-delete,network_out,114119
2023-07-14T10:25:09.946Z,carts,network_out,115249
2023-07-14T10:25:09.946Z,shipping,network_out,88448
2023-07-14T10:25:12.182Z,user-register,network_out,113536
2023-07-14T10:25:12.182Z,catalogue,network_out,82572
2023-07-14T10:25:12.182Z,carts-get,network_out,113345
2023-07-14T10:25:12.182Z,user-login,network_out,108719
2023-07-14T10:25:12.182Z,orders,network_out,109361
2023-07-14T10:25:16.766Z,carts-post,network_out,113117
2023-07-14T10:25:16.766Z,user,network_out,110057
2023-07-14T10:25:16.766Z,payment,network_out,70696
2023-07-14T10:25:16.766Z,queue-master,network_out,94164
2023-07-14T10:25:19.946Z,carts-delete,network_out,118119
2023-07-14T10:25:19.946Z,carts,network_out,115249
2023-07-14T10:25:19.946Z,shipping,network_out,88448
2023-07-14T10:25:22.181Z,catalogue,network_out,82572
2023-07-14T10:25:22.181Z,user-login,network_out,108719
2023-07-14T10:25:22.181Z,orders,network_out,109361
2023-07-14T10:25:22.181Z,carts-get,network_out,113345
2023-07-14T10:25:22.181Z,user-register,network_out,113536
2023-07-14T10:25:26.766Z,user,network_out,111915
2023-07-14T10:25:26.766Z,payment,network_out,70696
2023-07-14T10:25:26.766Z,queue-master,network_out,95646
2023-07-14T10:25:26.766Z,carts-post,network_out,116927
2023-07-14T10:25:29.947Z,carts,network_out,117249
2023-07-14T10:25:29.947Z,carts-delete,network_out,120185
2023-07-14T10:25:29.947Z,shipping,network_out,89908
2023-07-14T10:25:32.182Z,user-register,network_out,116174
2023-07-14T10:25:32.182Z,user-login,network_out,110961
2023-07-14T10:25:32.182Z,catalogue,network_out,82572
2023-07-14T10:25:32.182Z,orders,network_out,111367
2023-07-14T10:25:32.182Z,carts-get,network_out,115345
2023-07-14T10:25:36.766Z,user,network_out,111915
2023-07-14T10:25:36.766Z,queue-master,network_out,95646
2023-07-14T10:25:36.766Z,payment,network_out,73008
2023-07-14T10:25:36.766Z,carts-post,network_out,120993
2023-07-14T10:25:39.946Z,carts,network_out,117249
2023-07-14T10:25:39.946Z,shipping,network_out,89908
2023-07-14T10:25:39.946Z,carts-delete,network_out,120185
2023-07-14T10:25:42.182Z,user-login,network_out,114677
2023-07-14T10:25:42.182Z,carts-get,network_out,117601
2023-07-14T10:25:42.182Z,orders,network_out,115379
2023-07-14T10:25:42.182Z,user-register,network_out,119932
2023-07-14T10:25:42.182Z,catalogue,network_out,86598
2023-07-14T10:25:46.765Z,payment,network_out,73008
2023-07-14T10:25:46.765Z,user,network_out,111915
2023-07-14T10:25:46.765Z,queue-master,network_out,95646
2023-07-14T10:25:46.765Z,carts-post,network_out,120993
2023-07-14T10:25:49.947Z,shipping,network_out,94296
2023-07-14T10:25:49.947Z,carts,network_out,121117
2023-07-14T10:25:49.947Z,carts-delete,network_out,124119
2023-07-14T10:25:52.181Z,catalogue,network_out,86598
2023-07-14T10:25:52.181Z,carts-get,network_out,117601
2023-07-14T10:25:52.181Z,user-login,network_out,114677
2023-07-14T10:25:52.181Z,orders,network_out,115379
2023-07-14T10:25:52.181Z,user-register,network_out,119932
2023-07-14T10:25:56.766Z,payment,network_out,74164
2023-07-14T10:25:56.766Z,user,network_out,117687
2023-07-14T10:25:56.766Z,carts-post,network_out,123059
2023-07-14T10:25:56.766Z,queue-master,network_out,98858
