2023-07-20T12:46:36.100Z,checkoutservice,memory,487493632
2023-07-20T12:46:38.171Z,currencyservice,memory,484167680
2023-07-20T12:46:38.831Z,shippingservice,memory,484929536
2023-07-20T12:46:40.087Z,productcatalogservice,memory,489533440
2023-07-20T12:46:40.263Z,emailservice,memory,543453184
2023-07-20T12:46:41.951Z,probe-holder,memory,508444672
2023-07-20T12:46:43.611Z,cartservice,memory,485072896
2023-07-20T12:46:45.790Z,recommendationservice-1,memory,523907072
2023-07-20T12:46:46.102Z,checkoutservice,memory,488243200
2023-07-20T12:46:46.277Z,adservice,memory,797622272
2023-07-20T12:46:46.298Z,paymentservice,memory,495132672
2023-07-20T12:46:48.172Z,currencyservice,memory,484507648
2023-07-20T12:46:48.831Z,shippingservice,memory,488939520
2023-07-20T12:46:50.088Z,productcatalogservice,memory,491814912
2023-07-20T12:46:50.263Z,emailservice,memory,544178176
2023-07-20T12:46:51.951Z,probe-holder,memory,512630784
2023-07-20T12:46:53.612Z,cartservice,memory,489775104
2023-07-20T12:46:55.791Z,recommendationservice-1,memory,523898880
2023-07-20T12:46:56.102Z,checkoutservice,memory,492658688
2023-07-20T12:46:56.277Z,adservice,memory,797835264
2023-07-20T12:46:56.299Z,paymentservice,memory,465829888
2023-07-20T12:46:58.172Z,currencyservice,memory,486588416
2023-07-20T12:46:58.831Z,shippingservice,memory,487649280
2023-07-20T12:47:00.087Z,productcatalogservice,memory,491798528
2023-07-20T12:47:00.263Z,emailservice,memory,544509952
2023-07-20T12:47:01.952Z,probe-holder,memory,512614400
2023-07-20T12:47:03.612Z,cartservice,memory,490274816
2023-07-20T12:47:05.791Z,recommendationservice-1,memory,523882496
2023-07-20T12:47:06.102Z,checkoutservice,memory,492507136
2023-07-20T12:47:06.277Z,adservice,memory,797798400
2023-07-20T12:47:06.299Z,paymentservice,memory,465821696
2023-07-20T12:47:08.172Z,currencyservice,memory,486580224
2023-07-20T12:47:08.831Z,shippingservice,memory,487632896
2023-07-20T12:47:10.088Z,productcatalogservice,memory,491646976
2023-07-20T12:47:10.263Z,emailservice,memory,544526336
2023-07-20T12:47:11.951Z,probe-holder,memory,512839680
2023-07-20T12:47:13.612Z,cartservice,memory,490254336
2023-07-20T12:47:15.791Z,recommendationservice-1,memory,523784192
2023-07-20T12:47:16.102Z,checkoutservice,memory,492756992
2023-07-20T12:47:16.278Z,adservice,memory,798277632
2023-07-20T12:47:16.299Z,paymentservice,memory,470253568
2023-07-20T12:47:18.172Z,currencyservice,memory,486957056
2023-07-20T12:47:18.831Z,shippingservice,memory,487624704
2023-07-20T12:47:20.088Z,productcatalogservice,memory,491638784
2023-07-20T12:47:20.263Z,emailservice,memory,511401984
2023-07-20T12:47:21.951Z,probe-holder,memory,512835584
2023-07-20T12:47:23.612Z,cartservice,memory,490246144
2023-07-20T12:47:25.791Z,recommendationservice-1,memory,527953920
2023-07-20T12:47:26.102Z,checkoutservice,memory,492740608
2023-07-20T12:47:26.278Z,adservice,memory,798232576
2023-07-20T12:47:26.299Z,paymentservice,memory,470237184
2023-07-20T12:47:28.172Z,currencyservice,memory,486973440
2023-07-20T12:47:28.831Z,shippingservice,memory,487608320
2023-07-20T12:47:30.088Z,productcatalogservice,memory,491622400
2023-07-20T12:47:30.263Z,emailservice,memory,515465216
2023-07-20T12:47:31.951Z,probe-holder,memory,512815104
2023-07-20T12:47:33.612Z,cartservice,memory,490487808
2023-07-20T12:47:35.791Z,recommendationservice-1,memory,527937536
2023-07-20T12:47:36.102Z,checkoutservice,memory,492711936
2023-07-20T12:47:36.277Z,adservice,memory,798076928
2023-07-20T12:47:36.299Z,paymentservice,memory,478617600
2023-07-20T12:47:38.172Z,currencyservice,memory,486965248
2023-07-20T12:47:38.831Z,shippingservice,memory,488337408
2023-07-20T12:47:40.088Z,productcatalogservice,memory,491585536
2023-07-20T12:47:40.263Z,emailservice,memory,515637248
2023-07-20T12:47:41.951Z,probe-holder,memory,512745472
2023-07-20T12:47:43.612Z,cartservice,memory,490721280
2023-07-20T12:47:45.791Z,recommendationservice-1,memory,540798976
2023-07-20T12:47:46.102Z,checkoutservice,memory,492548096
2023-07-20T12:47:46.278Z,adservice,memory,798048256
2023-07-20T12:47:46.299Z,paymentservice,memory,478846976
2023-07-20T12:47:48.171Z,currencyservice,memory,488349696
2023-07-20T12:47:48.831Z,shippingservice,memory,488087552
2023-07-20T12:47:50.088Z,productcatalogservice,memory,491544576
2023-07-20T12:47:50.263Z,emailservice,memory,515584000
2023-07-20T12:47:51.951Z,probe-holder,memory,512733184
2023-07-20T12:47:53.612Z,cartservice,memory,490688512
2023-07-20T12:47:55.791Z,recommendationservice-1,memory,510443520
2023-07-20T12:47:56.102Z,checkoutservice,memory,492531712
2023-07-20T12:47:56.277Z,adservice,memory,798031872
2023-07-20T12:47:56.299Z,paymentservice,memory,479043584
2023-07-20T12:47:58.172Z,currencyservice,memory,488333312
2023-07-20T12:47:58.831Z,shippingservice,memory,488071168
2023-07-20T12:48:00.088Z,productcatalogservice,memory,495050752
2023-07-20T12:48:00.263Z,emailservice,memory,515575808
2023-07-20T12:48:01.952Z,probe-holder,memory,512724992
2023-07-20T12:48:03.612Z,cartservice,memory,490672128
2023-07-20T12:48:05.795Z,recommendationservice-1,memory,510427136
2023-07-20T12:48:06.102Z,checkoutservice,memory,492523520
2023-07-20T12:48:06.278Z,adservice,memory,798019584
2023-07-20T12:48:06.299Z,paymentservice,memory,479035392
2023-07-20T12:48:08.172Z,currencyservice,memory,488763392
2023-07-20T12:48:08.831Z,shippingservice,memory,488054784
2023-07-20T12:48:10.088Z,productcatalogservice,memory,498987008
2023-07-20T12:48:10.263Z,emailservice,memory,523943936
2023-07-20T12:48:11.952Z,probe-holder,memory,512712704
2023-07-20T12:48:13.612Z,cartservice,memory,490528768
2023-07-20T12:48:15.791Z,recommendationservice-1,memory,509255680
2023-07-20T12:48:16.101Z,checkoutservice,memory,492494848
2023-07-20T12:48:16.278Z,adservice,memory,798003200
2023-07-20T12:48:16.299Z,paymentservice,memory,479019008
2023-07-20T12:48:18.172Z,currencyservice,memory,489287680
2023-07-20T12:48:18.831Z,shippingservice,memory,487915520
2023-07-20T12:48:20.088Z,productcatalogservice,memory,503164928
2023-07-20T12:48:20.263Z,emailservice,memory,523927552
2023-07-20T12:48:21.951Z,probe-holder,memory,512696320
2023-07-20T12:48:23.612Z,cartservice,memory,490516480
2023-07-20T12:48:25.791Z,recommendationservice-1,memory,509243392
2023-07-20T12:48:26.102Z,checkoutservice,memory,492478464
2023-07-20T12:48:26.278Z,adservice,memory,797982720
2023-07-20T12:48:26.299Z,paymentservice,memory,479002624
2023-07-20T12:48:28.172Z,currencyservice,memory,488751104
2023-07-20T12:48:28.831Z,shippingservice,memory,487899136
2023-07-20T12:48:30.088Z,productcatalogservice,memory,503152640
2023-07-20T12:48:30.263Z,emailservice,memory,523919360
2023-07-20T12:48:31.951Z,probe-holder,memory,512684032
2023-07-20T12:48:33.612Z,cartservice,memory,490500096
2023-07-20T12:48:35.791Z,recommendationservice-1,memory,509227008
2023-07-20T12:48:36.102Z,checkoutservice,memory,492462080
2023-07-20T12:48:36.277Z,adservice,memory,797908992
2023-07-20T12:48:36.299Z,paymentservice,memory,478994432
2023-07-20T12:48:38.172Z,currencyservice,memory,488734720
2023-07-20T12:48:38.831Z,shippingservice,memory,487882752
2023-07-20T12:48:40.088Z,productcatalogservice,memory,503259136
2023-07-20T12:48:40.263Z,emailservice,memory,523902976
2023-07-20T12:48:41.951Z,probe-holder,memory,512671744
2023-07-20T12:48:43.612Z,cartservice,memory,490483712
2023-07-20T12:48:45.791Z,recommendationservice-1,memory,509210624
2023-07-20T12:48:46.102Z,checkoutservice,memory,492208128
2023-07-20T12:48:46.277Z,adservice,memory,797884416
2023-07-20T12:48:46.299Z,paymentservice,memory,478973952
2023-07-20T12:48:48.172Z,currencyservice,memory,488849408
2023-07-20T12:48:48.831Z,shippingservice,memory,487870464
2023-07-20T12:48:50.088Z,productcatalogservice,memory,503242752
2023-07-20T12:48:50.263Z,emailservice,memory,523886592
2023-07-20T12:48:51.951Z,probe-holder,memory,512663552
2023-07-20T12:48:53.612Z,cartservice,memory,490475520
2023-07-20T12:48:55.791Z,recommendationservice-1,memory,509202432
2023-07-20T12:48:56.101Z,checkoutservice,memory,492158976
2023-07-20T12:48:56.277Z,adservice,memory,797868032
2023-07-20T12:48:56.299Z,paymentservice,memory,478957568
2023-07-20T12:48:58.172Z,currencyservice,memory,488792064
2023-07-20T12:48:58.831Z,shippingservice,memory,487084032
2023-07-20T12:49:00.088Z,productcatalogservice,memory,503226368
2023-07-20T12:49:00.263Z,emailservice,memory,523878400
2023-07-20T12:49:01.951Z,probe-holder,memory,512651264
2023-07-20T12:49:03.612Z,cartservice,memory,490242048
2023-07-20T12:49:05.791Z,recommendationservice-1,memory,509186048
2023-07-20T12:49:06.101Z,checkoutservice,memory,492150784
2023-07-20T12:49:06.278Z,adservice,memory,797855744
2023-07-20T12:49:06.299Z,paymentservice,memory,478941184
2023-07-20T12:49:08.171Z,currencyservice,memory,488087552
2023-07-20T12:49:08.831Z,shippingservice,memory,487014400
2023-07-20T12:49:10.087Z,productcatalogservice,memory,491847680
2023-07-20T12:49:10.263Z,emailservice,memory,523857920
2023-07-20T12:49:11.951Z,probe-holder,memory,512638976
2023-07-20T12:49:13.612Z,cartservice,memory,490221568
2023-07-20T12:49:15.791Z,recommendationservice-1,memory,510713856
2023-07-20T12:49:16.102Z,checkoutservice,memory,492130304
2023-07-20T12:49:16.277Z,adservice,memory,797839360
2023-07-20T12:49:16.299Z,paymentservice,memory,478924800
2023-07-20T12:49:18.172Z,currencyservice,memory,488071168
2023-07-20T12:49:18.831Z,shippingservice,memory,487006208
2023-07-20T12:49:20.088Z,productcatalogservice,memory,491831296
2023-07-20T12:49:20.263Z,emailservice,memory,523567104
2023-07-20T12:49:21.951Z,probe-holder,memory,512626688
2023-07-20T12:49:23.612Z,cartservice,memory,490213376
2023-07-20T12:49:25.791Z,recommendationservice-1,memory,510705664
2023-07-20T12:49:26.102Z,checkoutservice,memory,492113920
2023-07-20T12:49:26.278Z,adservice,memory,795820032
2023-07-20T12:49:26.299Z,paymentservice,memory,478908416
2023-07-20T12:49:28.172Z,currencyservice,memory,488054784
2023-07-20T12:49:28.832Z,shippingservice,memory,486973440
2023-07-20T12:49:30.088Z,productcatalogservice,memory,491814912
2023-07-20T12:49:30.263Z,emailservice,memory,523558912
2023-07-20T12:49:31.951Z,probe-holder,memory,512622592
2023-07-20T12:49:33.612Z,cartservice,memory,490196992
2023-07-20T12:49:35.791Z,recommendationservice-1,memory,510439424
2023-07-20T12:49:36.101Z,checkoutservice,memory,492105728
2023-07-20T12:49:36.277Z,adservice,memory,795811840
2023-07-20T12:49:36.299Z,paymentservice,memory,478900224
2023-07-20T12:49:38.172Z,currencyservice,memory,492187648
2023-07-20T12:49:38.831Z,shippingservice,memory,486952960
2023-07-20T12:49:40.087Z,productcatalogservice,memory,491986944
2023-07-20T12:49:40.263Z,emailservice,memory,523538432
2023-07-20T12:49:41.951Z,probe-holder,memory,512507904
2023-07-20T12:49:43.612Z,cartservice,memory,489885696
2023-07-20T12:49:45.791Z,recommendationservice-1,memory,510947328
2023-07-20T12:49:46.101Z,checkoutservice,memory,492085248
2023-07-20T12:49:46.277Z,adservice,memory,795754496
2023-07-20T12:49:46.299Z,paymentservice,memory,478887936
2023-07-20T12:49:48.171Z,currencyservice,memory,492556288
2023-07-20T12:49:48.831Z,shippingservice,memory,486944768
2023-07-20T12:49:50.088Z,productcatalogservice,memory,492236800
2023-07-20T12:49:50.263Z,emailservice,memory,523522048
2023-07-20T12:49:51.951Z,probe-holder,memory,512495616
2023-07-20T12:49:53.612Z,cartservice,memory,489865216
2023-07-20T12:49:55.791Z,recommendationservice-1,memory,510926848
2023-07-20T12:49:56.102Z,checkoutservice,memory,492068864
2023-07-20T12:49:56.277Z,adservice,memory,795734016
2023-07-20T12:49:56.299Z,paymentservice,memory,478871552
2023-07-20T12:49:58.172Z,currencyservice,memory,514125824
2023-07-20T12:49:58.831Z,shippingservice,memory,486928384
2023-07-20T12:50:00.088Z,productcatalogservice,memory,492695552
2023-07-20T12:50:00.263Z,emailservice,memory,523513856
2023-07-20T12:50:01.951Z,probe-holder,memory,512483328
2023-07-20T12:50:03.612Z,cartservice,memory,489844736
2023-07-20T12:50:05.791Z,recommendationservice-1,memory,510910464
2023-07-20T12:50:06.102Z,checkoutservice,memory,496230400
2023-07-20T12:50:06.278Z,adservice,memory,795725824
2023-07-20T12:50:06.299Z,paymentservice,memory,478863360
2023-07-20T12:50:08.172Z,currencyservice,memory,516251648
2023-07-20T12:50:08.831Z,shippingservice,memory,486920192
2023-07-20T12:50:10.088Z,productcatalogservice,memory,492687360
2023-07-20T12:50:10.263Z,emailservice,memory,523497472
2023-07-20T12:50:11.951Z,probe-holder,memory,512471040
2023-07-20T12:50:13.612Z,cartservice,memory,483803136
2023-07-20T12:50:15.791Z,recommendationservice-1,memory,510902272
2023-07-20T12:50:16.101Z,checkoutservice,memory,496214016
2023-07-20T12:50:16.277Z,adservice,memory,795701248
2023-07-20T12:50:16.299Z,paymentservice,memory,478842880
2023-07-20T12:50:18.172Z,currencyservice,memory,484257792
2023-07-20T12:50:18.831Z,shippingservice,memory,486887424
2023-07-20T12:50:20.088Z,productcatalogservice,memory,493051904
2023-07-20T12:50:20.263Z,emailservice,memory,523481088
2023-07-20T12:50:21.951Z,probe-holder,memory,512458752
2023-07-20T12:50:23.612Z,cartservice,memory,487989248
2023-07-20T12:50:25.791Z,recommendationservice-1,memory,510885888
2023-07-20T12:50:26.102Z,checkoutservice,memory,491773952
2023-07-20T12:50:26.278Z,adservice,memory,795684864
2023-07-20T12:50:26.299Z,paymentservice,memory,478834688
2023-07-20T12:50:28.172Z,currencyservice,memory,481812480
2023-07-20T12:50:28.831Z,shippingservice,memory,486871040
2023-07-20T12:50:30.087Z,productcatalogservice,memory,493035520
2023-07-20T12:50:30.263Z,emailservice,memory,523472896
2023-07-20T12:50:31.951Z,probe-holder,memory,512446464
2023-07-20T12:50:33.612Z,cartservice,memory,492421120
2023-07-20T12:50:35.791Z,recommendationservice-1,memory,510869504
2023-07-20T12:50:36.102Z,checkoutservice,memory,496185344
2023-07-20T12:50:36.277Z,adservice,memory,795672576
2023-07-20T12:50:36.299Z,paymentservice,memory,478818304
2023-07-20T12:50:38.171Z,currencyservice,memory,482062336
2023-07-20T12:50:38.831Z,shippingservice,memory,490008576
2023-07-20T12:50:40.087Z,productcatalogservice,memory,494387200
2023-07-20T12:50:40.263Z,emailservice,memory,523436032
2023-07-20T12:50:41.951Z,probe-holder,memory,512434176
2023-07-20T12:50:43.612Z,cartservice,memory,492400640
2023-07-20T12:50:45.791Z,recommendationservice-1,memory,510857216
2023-07-20T12:50:46.102Z,checkoutservice,memory,496422912
2023-07-20T12:50:46.277Z,adservice,memory,796164096
2023-07-20T12:50:46.299Z,paymentservice,memory,478801920
2023-07-20T12:50:48.171Z,currencyservice,memory,482041856
2023-07-20T12:50:48.831Z,shippingservice,memory,489992192
2023-07-20T12:50:50.088Z,productcatalogservice,memory,494370816
2023-07-20T12:50:50.263Z,emailservice,memory,523419648
2023-07-20T12:50:51.951Z,probe-holder,memory,512421888
2023-07-20T12:50:53.612Z,cartservice,memory,492392448
2023-07-20T12:50:55.791Z,recommendationservice-1,memory,510840832
2023-07-20T12:50:56.101Z,checkoutservice,memory,496406528
2023-07-20T12:50:56.278Z,adservice,memory,796143616
2023-07-20T12:50:56.299Z,paymentservice,memory,478793728
2023-07-20T12:50:58.172Z,currencyservice,memory,482025472
2023-07-20T12:50:58.831Z,shippingservice,memory,494170112
2023-07-20T12:51:00.088Z,productcatalogservice,memory,494325760
2023-07-20T12:51:00.263Z,emailservice,memory,523411456
2023-07-20T12:51:01.951Z,probe-holder,memory,512417792
2023-07-20T12:51:03.612Z,cartservice,memory,492302336
2023-07-20T12:51:05.791Z,recommendationservice-1,memory,510824448
2023-07-20T12:51:06.102Z,checkoutservice,memory,496390144
2023-07-20T12:51:06.277Z,adservice,memory,796135424
2023-07-20T12:51:06.299Z,paymentservice,memory,478777344
2023-07-20T12:51:08.172Z,currencyservice,memory,479576064
2023-07-20T12:51:08.831Z,shippingservice,memory,498343936
2023-07-20T12:51:10.088Z,productcatalogservice,memory,494317568
2023-07-20T12:51:10.263Z,emailservice,memory,523395072
2023-07-20T12:51:11.951Z,probe-holder,memory,512413696
2023-07-20T12:51:13.612Z,cartservice,memory,492294144
2023-07-20T12:51:15.791Z,recommendationservice-1,memory,510816256
2023-07-20T12:51:16.102Z,checkoutservice,memory,496381952
2023-07-20T12:51:16.278Z,adservice,memory,796106752
2023-07-20T12:51:16.299Z,paymentservice,memory,478760960
2023-07-20T12:51:18.172Z,currencyservice,memory,479567872
2023-07-20T12:51:18.831Z,shippingservice,memory,498335744
2023-07-20T12:51:20.088Z,productcatalogservice,memory,494301184
2023-07-20T12:51:20.263Z,emailservice,memory,523378688
2023-07-20T12:51:21.951Z,probe-holder,memory,512401408
2023-07-20T12:51:23.613Z,cartservice,memory,492277760
2023-07-20T12:51:25.791Z,recommendationservice-1,memory,510799872
2023-07-20T12:51:26.102Z,checkoutservice,memory,496365568
2023-07-20T12:51:26.277Z,adservice,memory,796090368
2023-07-20T12:51:26.299Z,paymentservice,memory,478744576
2023-07-20T12:51:28.171Z,currencyservice,memory,479551488
2023-07-20T12:51:28.831Z,shippingservice,memory,498319360
2023-07-20T12:51:30.088Z,productcatalogservice,memory,494174208
2023-07-20T12:51:30.263Z,emailservice,memory,523370496
2023-07-20T12:51:31.951Z,probe-holder,memory,520777728
2023-07-20T12:51:33.612Z,cartservice,memory,492748800
2023-07-20T12:51:35.791Z,recommendationservice-1,memory,510783488
2023-07-20T12:51:36.102Z,checkoutservice,memory,496345088
2023-07-20T12:51:36.277Z,adservice,memory,796069888
2023-07-20T12:51:36.299Z,paymentservice,memory,478728192
2023-07-20T12:51:38.172Z,currencyservice,memory,479543296
2023-07-20T12:51:38.831Z,shippingservice,memory,498245632
2023-07-20T12:51:40.087Z,productcatalogservice,memory,494166016
2023-07-20T12:51:40.263Z,emailservice,memory,523354112
2023-07-20T12:51:41.951Z,probe-holder,memory,520765440
2023-07-20T12:51:43.612Z,cartservice,memory,492728320
2023-07-20T12:51:45.791Z,recommendationservice-1,memory,511029248
2023-07-20T12:51:46.101Z,checkoutservice,memory,496594944
2023-07-20T12:51:46.277Z,adservice,memory,806027264
2023-07-20T12:51:46.299Z,paymentservice,memory,478707712
2023-07-20T12:51:48.172Z,currencyservice,memory,479522816
2023-07-20T12:51:48.831Z,shippingservice,memory,498229248
2023-07-20T12:51:50.088Z,productcatalogservice,memory,494149632
2023-07-20T12:51:50.263Z,emailservice,memory,523337728
2023-07-20T12:51:51.951Z,probe-holder,memory,520753152
2023-07-20T12:51:53.612Z,cartservice,memory,492720128
2023-07-20T12:51:55.791Z,recommendationservice-1,memory,511004672
2023-07-20T12:51:56.102Z,checkoutservice,memory,496578560
2023-07-20T12:51:56.277Z,adservice,memory,806019072
2023-07-20T12:51:56.299Z,paymentservice,memory,478699520
2023-07-20T12:51:58.172Z,currencyservice,memory,479506432
2023-07-20T12:51:58.831Z,shippingservice,memory,498212864
2023-07-20T12:52:00.088Z,productcatalogservice,memory,494022656
2023-07-20T12:52:00.263Z,emailservice,memory,523329536
2023-07-20T12:52:01.951Z,probe-holder,memory,520740864
2023-07-20T12:52:03.612Z,cartservice,memory,492498944
2023-07-20T12:52:05.791Z,recommendationservice-1,memory,510988288
2023-07-20T12:52:06.102Z,checkoutservice,memory,496570368
2023-07-20T12:52:06.277Z,adservice,memory,805945344
2023-07-20T12:52:06.299Z,paymentservice,memory,478683136
2023-07-20T12:52:08.172Z,currencyservice,memory,479498240
2023-07-20T12:52:08.831Z,shippingservice,memory,498204672
2023-07-20T12:52:10.088Z,productcatalogservice,memory,494010368
2023-07-20T12:52:10.263Z,emailservice,memory,523309056
2023-07-20T12:52:11.951Z,probe-holder,memory,520732672
2023-07-20T12:52:13.612Z,cartservice,memory,492482560
2023-07-20T12:52:15.791Z,recommendationservice-1,memory,511238144
2023-07-20T12:52:16.101Z,checkoutservice,memory,496549888
2023-07-20T12:52:16.278Z,adservice,memory,806318080
2023-07-20T12:52:16.299Z,paymentservice,memory,478650368
2023-07-20T12:52:18.172Z,currencyservice,memory,479481856
2023-07-20T12:52:18.831Z,shippingservice,memory,498184192
2023-07-20T12:52:20.088Z,productcatalogservice,memory,493993984
2023-07-20T12:52:20.263Z,emailservice,memory,523300864
2023-07-20T12:52:21.951Z,probe-holder,memory,520720384
2023-07-20T12:52:23.612Z,cartservice,memory,492474368
2023-07-20T12:52:25.791Z,recommendationservice-1,memory,511217664
2023-07-20T12:52:26.101Z,checkoutservice,memory,496533504
2023-07-20T12:52:26.277Z,adservice,memory,808407040
2023-07-20T12:52:26.299Z,paymentservice,memory,478642176
2023-07-20T12:52:28.172Z,currencyservice,memory,479465472
2023-07-20T12:52:28.831Z,shippingservice,memory,497799168
2023-07-20T12:52:30.087Z,productcatalogservice,memory,493977600
2023-07-20T12:52:30.263Z,emailservice,memory,523284480
2023-07-20T12:52:31.951Z,probe-holder,memory,520704000
2023-07-20T12:52:33.612Z,cartservice,memory,492453888
2023-07-20T12:52:35.791Z,recommendationservice-1,memory,511201280
2023-07-20T12:52:36.102Z,checkoutservice,memory,496525312
2023-07-20T12:52:36.277Z,adservice,memory,808390656
2023-07-20T12:52:36.299Z,paymentservice,memory,478625792
2023-07-20T12:52:38.172Z,currencyservice,memory,479453184
2023-07-20T12:52:38.831Z,shippingservice,memory,497766400
2023-07-20T12:52:40.088Z,productcatalogservice,memory,493826048
2023-07-20T12:52:40.263Z,emailservice,memory,523268096
2023-07-20T12:52:41.952Z,probe-holder,memory,520691712
2023-07-20T12:52:43.612Z,cartservice,memory,492437504
2023-07-20T12:52:45.791Z,recommendationservice-1,memory,511172608
2023-07-20T12:52:46.102Z,checkoutservice,memory,497004544
2023-07-20T12:52:46.277Z,adservice,memory,808710144
2023-07-20T12:52:46.299Z,paymentservice,memory,478609408
2023-07-20T12:52:48.171Z,currencyservice,memory,479436800
2023-07-20T12:52:48.831Z,shippingservice,memory,497750016
2023-07-20T12:52:50.088Z,productcatalogservice,memory,493756416
2023-07-20T12:52:50.263Z,emailservice,memory,523251712
2023-07-20T12:52:51.951Z,probe-holder,memory,520679424
2023-07-20T12:52:53.612Z,cartservice,memory,492429312
2023-07-20T12:52:55.791Z,recommendationservice-1,memory,511164416
2023-07-20T12:52:56.101Z,checkoutservice,memory,498278400
2023-07-20T12:52:56.278Z,adservice,memory,808701952
2023-07-20T12:52:56.299Z,paymentservice,memory,478605312
2023-07-20T12:52:58.172Z,currencyservice,memory,479420416
2023-07-20T12:52:58.831Z,shippingservice,memory,497729536
2023-07-20T12:53:00.088Z,productcatalogservice,memory,493740032
2023-07-20T12:53:00.263Z,emailservice,memory,523243520
2023-07-20T12:53:01.951Z,probe-holder,memory,520667136
2023-07-20T12:53:03.612Z,cartservice,memory,492929024
2023-07-20T12:53:05.791Z,recommendationservice-1,memory,510910464
2023-07-20T12:53:06.102Z,checkoutservice,memory,498872320
2023-07-20T12:53:06.278Z,adservice,memory,793001984
2023-07-20T12:53:06.299Z,paymentservice,memory,478588928
2023-07-20T12:53:08.171Z,currencyservice,memory,479412224
2023-07-20T12:53:08.831Z,shippingservice,memory,497721344
2023-07-20T12:53:10.088Z,productcatalogservice,memory,493731840
2023-07-20T12:53:10.263Z,emailservice,memory,523223040
2023-07-20T12:53:11.951Z,probe-holder,memory,520658944
2023-07-20T12:53:13.612Z,cartservice,memory,492916736
2023-07-20T12:53:15.791Z,recommendationservice-1,memory,510898176
2023-07-20T12:53:16.102Z,checkoutservice,memory,499036160
2023-07-20T12:53:16.277Z,adservice,memory,793722880
2023-07-20T12:53:16.299Z,paymentservice,memory,478572544
2023-07-20T12:53:18.172Z,currencyservice,memory,479395840
2023-07-20T12:53:18.831Z,shippingservice,memory,497704960
2023-07-20T12:53:20.088Z,productcatalogservice,memory,493715456
2023-07-20T12:53:20.263Z,emailservice,memory,523206656
2023-07-20T12:53:21.951Z,probe-holder,memory,520642560
2023-07-20T12:53:23.613Z,cartservice,memory,492904448
2023-07-20T12:53:25.791Z,recommendationservice-1,memory,510885888
2023-07-20T12:53:26.101Z,checkoutservice,memory,499019776
2023-07-20T12:53:26.278Z,adservice,memory,811184128
2023-07-20T12:53:26.299Z,paymentservice,memory,478564352
2023-07-20T12:53:28.172Z,currencyservice,memory,479379456
2023-07-20T12:53:28.831Z,shippingservice,memory,497688576
2023-07-20T12:53:30.088Z,productcatalogservice,memory,493699072
2023-07-20T12:53:30.263Z,emailservice,memory,523198464
2023-07-20T12:53:31.952Z,probe-holder,memory,520630272
2023-07-20T12:53:33.612Z,cartservice,memory,492879872
2023-07-20T12:53:35.791Z,recommendationservice-1,memory,510869504
2023-07-20T12:53:36.101Z,checkoutservice,memory,499011584
2023-07-20T12:53:36.278Z,adservice,memory,811380736
2023-07-20T12:53:36.299Z,paymentservice,memory,478547968
2023-07-20T12:53:38.172Z,currencyservice,memory,479371264
2023-07-20T12:53:38.831Z,shippingservice,memory,497680384
2023-07-20T12:53:40.088Z,productcatalogservice,memory,493686784
2023-07-20T12:53:40.263Z,emailservice,memory,523177984
2023-07-20T12:53:41.951Z,probe-holder,memory,520609792
2023-07-20T12:53:43.612Z,cartservice,memory,493117440
2023-07-20T12:53:45.792Z,recommendationservice-1,memory,510861312
2023-07-20T12:53:46.101Z,checkoutservice,memory,498991104
2023-07-20T12:53:46.277Z,adservice,memory,811364352
2023-07-20T12:53:46.299Z,paymentservice,memory,478527488
2023-07-20T12:53:48.171Z,currencyservice,memory,479338496
2023-07-20T12:53:48.831Z,shippingservice,memory,497659904
2023-07-20T12:53:50.088Z,productcatalogservice,memory,493805568
2023-07-20T12:53:50.263Z,emailservice,memory,523161600
2023-07-20T12:53:51.951Z,probe-holder,memory,520605696
2023-07-20T12:53:53.612Z,cartservice,memory,493101056
2023-07-20T12:53:55.792Z,recommendationservice-1,memory,510840832
2023-07-20T12:53:56.102Z,checkoutservice,memory,498974720
2023-07-20T12:53:56.277Z,adservice,memory,811560960
2023-07-20T12:53:56.299Z,paymentservice,memory,478519296
2023-07-20T12:53:58.172Z,currencyservice,memory,479322112
2023-07-20T12:53:58.831Z,shippingservice,memory,497639424
2023-07-20T12:54:00.088Z,productcatalogservice,memory,493789184
2023-07-20T12:54:00.263Z,emailservice,memory,523153408
2023-07-20T12:54:01.951Z,probe-holder,memory,520589312
2023-07-20T12:54:03.612Z,cartservice,memory,493080576
2023-07-20T12:54:05.791Z,recommendationservice-1,memory,510824448
2023-07-20T12:54:06.102Z,checkoutservice,memory,498933760
2023-07-20T12:54:06.277Z,adservice,memory,811524096
2023-07-20T12:54:06.299Z,paymentservice,memory,478502912
2023-07-20T12:54:08.172Z,currencyservice,memory,479567872
2023-07-20T12:54:08.831Z,shippingservice,memory,497635328
2023-07-20T12:54:10.088Z,productcatalogservice,memory,494297088
2023-07-20T12:54:10.263Z,emailservice,memory,523137024
2023-07-20T12:54:11.951Z,probe-holder,memory,520519680
2023-07-20T12:54:13.612Z,cartservice,memory,493064192
2023-07-20T12:54:15.791Z,recommendationservice-1,memory,511332352
2023-07-20T12:54:16.102Z,checkoutservice,memory,498917376
2023-07-20T12:54:16.277Z,adservice,memory,811495424
2023-07-20T12:54:16.299Z,paymentservice,memory,478486528
2023-07-20T12:54:18.171Z,currencyservice,memory,479551488
2023-07-20T12:54:18.832Z,shippingservice,memory,497422336
2023-07-20T12:54:20.088Z,productcatalogservice,memory,494280704
2023-07-20T12:54:20.263Z,emailservice,memory,523128832
2023-07-20T12:54:21.951Z,probe-holder,memory,520462336
2023-07-20T12:54:23.612Z,cartservice,memory,493056000
2023-07-20T12:54:25.791Z,recommendationservice-1,memory,511287296
2023-07-20T12:54:26.102Z,checkoutservice,memory,498900992
2023-07-20T12:54:26.277Z,adservice,memory,797306880
2023-07-20T12:54:26.299Z,paymentservice,memory,478478336
2023-07-20T12:54:28.172Z,currencyservice,memory,479535104
2023-07-20T12:54:28.831Z,shippingservice,memory,497393664
2023-07-20T12:54:30.088Z,productcatalogservice,memory,494264320
2023-07-20T12:54:30.263Z,emailservice,memory,523112448
2023-07-20T12:54:31.951Z,probe-holder,memory,520454144
2023-07-20T12:54:33.612Z,cartservice,memory,493297664
2023-07-20T12:54:35.791Z,recommendationservice-1,memory,511270912
2023-07-20T12:54:36.101Z,checkoutservice,memory,498876416
2023-07-20T12:54:36.277Z,adservice,memory,798052352
2023-07-20T12:54:36.299Z,paymentservice,memory,478461952
2023-07-20T12:54:38.172Z,currencyservice,memory,479526912
2023-07-20T12:54:38.831Z,shippingservice,memory,497369088
2023-07-20T12:54:40.088Z,productcatalogservice,memory,494174208
2023-07-20T12:54:40.263Z,emailservice,memory,523091968
2023-07-20T12:54:41.951Z,probe-holder,memory,520454144
2023-07-20T12:54:43.612Z,cartservice,memory,493289472
2023-07-20T12:54:45.791Z,recommendationservice-1,memory,511258624
2023-07-20T12:54:46.101Z,checkoutservice,memory,498855936
2023-07-20T12:54:46.278Z,adservice,memory,799809536
2023-07-20T12:54:46.299Z,paymentservice,memory,478453760
2023-07-20T12:54:48.172Z,currencyservice,memory,479510528
2023-07-20T12:54:48.831Z,shippingservice,memory,497229824
2023-07-20T12:54:50.088Z,productcatalogservice,memory,494157824
2023-07-20T12:54:50.263Z,emailservice,memory,523083776
2023-07-20T12:54:51.951Z,probe-holder,memory,520437760
2023-07-20T12:54:53.612Z,cartservice,memory,493273088
2023-07-20T12:54:55.791Z,recommendationservice-1,memory,511242240
2023-07-20T12:54:56.101Z,checkoutservice,memory,498839552
2023-07-20T12:54:56.277Z,adservice,memory,799797248
2023-07-20T12:54:56.299Z,paymentservice,memory,478437376
2023-07-20T12:54:58.172Z,currencyservice,memory,479494144
2023-07-20T12:54:58.831Z,shippingservice,memory,497213440
2023-07-20T12:55:00.087Z,productcatalogservice,memory,494141440
2023-07-20T12:55:00.263Z,emailservice,memory,523067392
2023-07-20T12:55:01.952Z,probe-holder,memory,520425472
2023-07-20T12:55:03.612Z,cartservice,memory,493510656
2023-07-20T12:55:05.791Z,recommendationservice-1,memory,511225856
2023-07-20T12:55:06.102Z,checkoutservice,memory,498720768
2023-07-20T12:55:06.277Z,adservice,memory,799780864
2023-07-20T12:55:06.299Z,paymentservice,memory,478420992
2023-07-20T12:55:08.172Z,currencyservice,memory,483680256
2023-07-20T12:55:08.831Z,shippingservice,memory,497209344
2023-07-20T12:55:10.088Z,productcatalogservice,memory,494100480
2023-07-20T12:55:10.263Z,emailservice,memory,523051008
2023-07-20T12:55:11.951Z,probe-holder,memory,520355840
2023-07-20T12:55:13.612Z,cartservice,memory,493457408
2023-07-20T12:55:15.791Z,recommendationservice-1,memory,511217664
2023-07-20T12:55:16.101Z,checkoutservice,memory,498667520
2023-07-20T12:55:16.277Z,adservice,memory,799756288
2023-07-20T12:55:16.299Z,paymentservice,memory,478408704
2023-07-20T12:55:18.172Z,currencyservice,memory,483663872
2023-07-20T12:55:18.831Z,shippingservice,memory,497188864
2023-07-20T12:55:20.088Z,productcatalogservice,memory,494084096
2023-07-20T12:55:20.263Z,emailservice,memory,523042816
2023-07-20T12:55:21.951Z,probe-holder,memory,520347648
2023-07-20T12:55:23.612Z,cartservice,memory,493441024
2023-07-20T12:55:25.791Z,recommendationservice-1,memory,511193088
2023-07-20T12:55:26.101Z,checkoutservice,memory,498651136
2023-07-20T12:55:26.277Z,adservice,memory,799739904
2023-07-20T12:55:26.299Z,paymentservice,memory,478392320
2023-07-20T12:55:28.172Z,currencyservice,memory,483647488
2023-07-20T12:55:28.831Z,shippingservice,memory,497172480
2023-07-20T12:55:30.088Z,productcatalogservice,memory,494067712
2023-07-20T12:55:30.263Z,emailservice,memory,523026432
2023-07-20T12:55:31.951Z,probe-holder,memory,520343552
2023-07-20T12:55:33.612Z,cartservice,memory,493424640
2023-07-20T12:55:35.791Z,recommendationservice-1,memory,511176704
2023-07-20T12:55:36.102Z,checkoutservice,memory,498630656
2023-07-20T12:55:36.277Z,adservice,memory,799727616
2023-07-20T12:55:36.299Z,paymentservice,memory,478375936
2023-07-20T12:55:38.172Z,currencyservice,memory,483639296
2023-07-20T12:55:38.831Z,shippingservice,memory,497164288
2023-07-20T12:55:40.087Z,productcatalogservice,memory,494784512
2023-07-20T12:55:40.263Z,emailservice,memory,523005952
2023-07-20T12:55:41.951Z,probe-holder,memory,520339456
2023-07-20T12:55:43.612Z,cartservice,memory,493412352
2023-07-20T12:55:45.791Z,recommendationservice-1,memory,511422464
2023-07-20T12:55:46.101Z,checkoutservice,memory,498614272
2023-07-20T12:55:46.277Z,adservice,memory,799707136
2023-07-20T12:55:46.299Z,paymentservice,memory,478367744
2023-07-20T12:55:48.172Z,currencyservice,memory,483618816
2023-07-20T12:55:48.831Z,shippingservice,memory,497147904
2023-07-20T12:55:50.088Z,productcatalogservice,memory,494768128
2023-07-20T12:55:50.263Z,emailservice,memory,522997760
2023-07-20T12:55:51.952Z,probe-holder,memory,520323072
2023-07-20T12:55:53.612Z,cartservice,memory,493395968
2023-07-20T12:55:55.791Z,recommendationservice-1,memory,512438272
2023-07-20T12:55:56.102Z,checkoutservice,memory,498597888
2023-07-20T12:55:56.278Z,adservice,memory,799698944
2023-07-20T12:55:56.299Z,paymentservice,memory,478351360
2023-07-20T12:55:58.172Z,currencyservice,memory,483594240
2023-07-20T12:55:58.831Z,shippingservice,memory,497131520
2023-07-20T12:56:00.087Z,productcatalogservice,memory,494751744
2023-07-20T12:56:00.263Z,emailservice,memory,522981376
2023-07-20T12:56:01.951Z,probe-holder,memory,520318976
2023-07-20T12:56:03.612Z,cartservice,memory,493379584
2023-07-20T12:56:05.791Z,recommendationservice-1,memory,512421888
2023-07-20T12:56:06.102Z,checkoutservice,memory,498589696
2023-07-20T12:56:06.277Z,adservice,memory,799678464
2023-07-20T12:56:06.299Z,paymentservice,memory,478334976
2023-07-20T12:56:08.172Z,currencyservice,memory,483586048
2023-07-20T12:56:08.831Z,shippingservice,memory,497119232
2023-07-20T12:56:10.088Z,productcatalogservice,memory,494739456
2023-07-20T12:56:10.263Z,emailservice,memory,522960896
2023-07-20T12:56:11.951Z,probe-holder,memory,520314880
2023-07-20T12:56:13.612Z,cartservice,memory,493371392
2023-07-20T12:56:15.791Z,recommendationservice-1,memory,512413696
2023-07-20T12:56:16.102Z,checkoutservice,memory,498569216
2023-07-20T12:56:16.277Z,adservice,memory,800178176
2023-07-20T12:56:16.299Z,paymentservice,memory,478326784
2023-07-20T12:56:18.172Z,currencyservice,memory,483569664
2023-07-20T12:56:18.831Z,shippingservice,memory,497102848
2023-07-20T12:56:20.088Z,productcatalogservice,memory,494723072
2023-07-20T12:56:20.263Z,emailservice,memory,522952704
2023-07-20T12:56:21.951Z,probe-holder,memory,520298496
2023-07-20T12:56:23.612Z,cartservice,memory,493355008
2023-07-20T12:56:25.791Z,recommendationservice-1,memory,511946752
2023-07-20T12:56:26.101Z,checkoutservice,memory,498552832
2023-07-20T12:56:26.278Z,adservice,memory,800165888
2023-07-20T12:56:26.299Z,paymentservice,memory,478310400
2023-07-20T12:56:28.172Z,currencyservice,memory,483553280
2023-07-20T12:56:28.831Z,shippingservice,memory,497086464
2023-07-20T12:56:30.088Z,productcatalogservice,memory,494706688
2023-07-20T12:56:30.263Z,emailservice,memory,522936320
2023-07-20T12:56:31.951Z,probe-holder,memory,520294400
2023-07-20T12:56:33.612Z,cartservice,memory,494366720
2023-07-20T12:56:35.791Z,recommendationservice-1,memory,516104192
2023-07-20T12:56:36.101Z,checkoutservice,memory,498544640
2023-07-20T12:56:36.278Z,adservice,memory,800149504
2023-07-20T12:56:36.299Z,paymentservice,memory,478294016
2023-07-20T12:56:38.171Z,currencyservice,memory,483545088
2023-07-20T12:56:38.831Z,shippingservice,memory,497078272
2023-07-20T12:56:40.087Z,productcatalogservice,memory,494678016
2023-07-20T12:56:40.263Z,emailservice,memory,522919936
2023-07-20T12:56:41.951Z,probe-holder,memory,520282112
2023-07-20T12:56:43.612Z,cartservice,memory,494358528
2023-07-20T12:56:45.791Z,recommendationservice-1,memory,516096000
2023-07-20T12:56:46.102Z,checkoutservice,memory,498528256
2023-07-20T12:56:46.277Z,adservice,memory,801669120
2023-07-20T12:56:46.299Z,paymentservice,memory,478281728
2023-07-20T12:56:48.172Z,currencyservice,memory,496164864
2023-07-20T12:56:48.831Z,shippingservice,memory,524713984
2023-07-20T12:56:50.088Z,productcatalogservice,memory,524537856
2023-07-20T12:56:51.951Z,probe-holder,memory,527941632
