timestamp,key,run_id,resource,metric,value
2022-03-31T11:43:57.864Z,FULLY_SHARED_SIDECAR_1-2-1-1,1,target-1,network_out,0.018453598022460938
2022-03-31T11:54:14.292Z,FULLY_SHARED_SIDECAR_1-2-1-1,2,target-1,network_out,0.01856517791748047
2022-03-31T12:04:21.442Z,FULLY_SHARED_SIDECAR_1-2-1-1,3,target-1,network_out,0.026323318481445312
2022-03-31T17:57:21.471Z,FULLY_SHARED_SIDECAR_1-2-16-1,1,target-1,network_out,0.3315467834472656
2022-03-31T17:57:21.499Z,FULLY_SHARED_SIDECAR_1-2-16-1,1,target-10,network_out,0.3271942138671875
2022-03-31T17:57:21.471Z,FULLY_SHARED_SIDECAR_1-2-16-1,1,target-11,network_out,0.3242340087890625
2022-03-31T17:57:21.499Z,FULLY_SHARED_SIDECAR_1-2-16-1,1,target-12,network_out,0.3443279266357422
2022-03-31T17:57:21.499Z,FULLY_SHARED_SIDECAR_1-2-16-1,1,target-13,network_out,0.3237495422363281
2022-03-31T17:57:21.471Z,FULLY_SHARED_SIDECAR_1-2-16-1,1,target-14,network_out,0.3300952911376953
2022-03-31T17:57:21.499Z,FULLY_SHARED_SIDECAR_1-2-16-1,1,target-15,network_out,0.32599449157714844
2022-03-31T17:57:21.471Z,FULLY_SHARED_SIDECAR_1-2-16-1,1,target-16,network_out,0.3323040008544922
2022-03-31T17:57:21.499Z,FULLY_SHARED_SIDECAR_1-2-16-1,1,target-2,network_out,0.33057689666748047
2022-03-31T17:57:21.499Z,FULLY_SHARED_SIDECAR_1-2-16-1,1,target-3,network_out,0.3293600082397461
2022-03-31T17:57:21.471Z,FULLY_SHARED_SIDECAR_1-2-16-1,1,target-4,network_out,0.3285989761352539
2022-03-31T17:57:21.471Z,FULLY_SHARED_SIDECAR_1-2-16-1,1,target-5,network_out,0.33687591552734375
2022-03-31T17:57:21.499Z,FULLY_SHARED_SIDECAR_1-2-16-1,1,target-6,network_out,0.3285512924194336
2022-03-31T17:57:21.499Z,FULLY_SHARED_SIDECAR_1-2-16-1,1,target-7,network_out,0.3279838562011719
2022-03-31T17:57:21.471Z,FULLY_SHARED_SIDECAR_1-2-16-1,1,target-8,network_out,0.3361825942993164
2022-03-31T17:57:21.499Z,FULLY_SHARED_SIDECAR_1-2-16-1,1,target-9,network_out,0.3409852981567383
2022-03-31T18:08:08.763Z,FULLY_SHARED_SIDECAR_1-2-16-1,2,target-1,network_out,0.33748912811279297
2022-03-31T18:08:08.809Z,FULLY_SHARED_SIDECAR_1-2-16-1,2,target-10,network_out,0.3342247009277344
2022-03-31T18:08:08.763Z,FULLY_SHARED_SIDECAR_1-2-16-1,2,target-11,network_out,0.3315572738647461
2022-03-31T18:08:08.713Z,FULLY_SHARED_SIDECAR_1-2-16-1,2,target-12,network_out,0.34771060943603516
2022-03-31T18:08:08.809Z,FULLY_SHARED_SIDECAR_1-2-16-1,2,target-13,network_out,0.3308372497558594
2022-03-31T18:08:08.763Z,FULLY_SHARED_SIDECAR_1-2-16-1,2,target-14,network_out,0.3353853225708008
2022-03-31T18:08:08.809Z,FULLY_SHARED_SIDECAR_1-2-16-1,2,target-15,network_out,0.33452892303466797
2022-03-31T18:08:08.763Z,FULLY_SHARED_SIDECAR_1-2-16-1,2,target-16,network_out,0.33927440643310547
2022-03-31T18:08:08.809Z,FULLY_SHARED_SIDECAR_1-2-16-1,2,target-2,network_out,0.3331184387207031
2022-03-31T18:08:08.809Z,FULLY_SHARED_SIDECAR_1-2-16-1,2,target-3,network_out,0.32279014587402344
2022-03-31T18:08:08.763Z,FULLY_SHARED_SIDECAR_1-2-16-1,2,target-4,network_out,0.3350181579589844
2022-03-31T18:08:08.763Z,FULLY_SHARED_SIDECAR_1-2-16-1,2,target-5,network_out,0.3339681625366211
2022-03-31T18:08:08.809Z,FULLY_SHARED_SIDECAR_1-2-16-1,2,target-6,network_out,0.32891845703125
2022-03-31T18:08:08.809Z,FULLY_SHARED_SIDECAR_1-2-16-1,2,target-7,network_out,0.32959556579589844
2022-03-31T18:08:08.763Z,FULLY_SHARED_SIDECAR_1-2-16-1,2,target-8,network_out,0.3323497772216797
2022-03-31T18:08:08.713Z,FULLY_SHARED_SIDECAR_1-2-16-1,2,target-9,network_out,0.3333587646484375
2022-03-31T18:18:56.098Z,FULLY_SHARED_SIDECAR_1-2-16-1,3,target-1,network_out,0.3345823287963867
2022-03-31T18:18:56.031Z,FULLY_SHARED_SIDECAR_1-2-16-1,3,target-10,network_out,0.33045101165771484
2022-03-31T18:18:56.098Z,FULLY_SHARED_SIDECAR_1-2-16-1,3,target-11,network_out,0.33337974548339844
2022-03-31T18:18:56.007Z,FULLY_SHARED_SIDECAR_1-2-16-1,3,target-12,network_out,0.33220767974853516
2022-03-31T18:18:56.031Z,FULLY_SHARED_SIDECAR_1-2-16-1,3,target-13,network_out,0.3319826126098633
2022-03-31T18:18:56.098Z,FULLY_SHARED_SIDECAR_1-2-16-1,3,target-14,network_out,0.33243560791015625
2022-03-31T18:18:56.031Z,FULLY_SHARED_SIDECAR_1-2-16-1,3,target-15,network_out,0.33126354217529297
2022-03-31T18:18:56.098Z,FULLY_SHARED_SIDECAR_1-2-16-1,3,target-16,network_out,0.33020591735839844
2022-03-31T18:18:56.031Z,FULLY_SHARED_SIDECAR_1-2-16-1,3,target-2,network_out,0.3259468078613281
2022-03-31T18:18:56.031Z,FULLY_SHARED_SIDECAR_1-2-16-1,3,target-3,network_out,0.32600975036621094
2022-03-31T18:18:56.098Z,FULLY_SHARED_SIDECAR_1-2-16-1,3,target-4,network_out,0.330902099609375
2022-03-31T18:18:56.098Z,FULLY_SHARED_SIDECAR_1-2-16-1,3,target-5,network_out,0.32618045806884766
2022-03-31T18:18:56.031Z,FULLY_SHARED_SIDECAR_1-2-16-1,3,target-6,network_out,0.32520484924316406
2022-03-31T18:18:56.031Z,FULLY_SHARED_SIDECAR_1-2-16-1,3,target-7,network_out,0.32717227935791016
2022-03-31T18:18:56.098Z,FULLY_SHARED_SIDECAR_1-2-16-1,3,target-8,network_out,0.3395223617553711
2022-03-31T18:18:56.007Z,FULLY_SHARED_SIDECAR_1-2-16-1,3,target-9,network_out,0.3364982604980469
2022-03-31T16:24:24.671Z,FULLY_SHARED_SIDECAR_1-2-2-1,1,target-1,network_out,0.036182403564453125
2022-03-31T16:24:24.658Z,FULLY_SHARED_SIDECAR_1-2-2-1,1,target-10,network_out,0.000400543212890625
2022-03-31T16:24:24.671Z,FULLY_SHARED_SIDECAR_1-2-2-1,1,target-11,network_out,0.000400543212890625
2022-03-31T16:24:16.754Z,FULLY_SHARED_SIDECAR_1-2-2-1,1,target-12,network_out,0.000400543212890625
2022-03-31T16:24:24.658Z,FULLY_SHARED_SIDECAR_1-2-2-1,1,target-13,network_out,0.000400543212890625
2022-03-31T16:24:24.671Z,FULLY_SHARED_SIDECAR_1-2-2-1,1,target-14,network_out,0.000400543212890625
2022-03-31T16:24:24.658Z,FULLY_SHARED_SIDECAR_1-2-2-1,1,target-15,network_out,0.0003337860107421875
2022-03-31T16:24:24.671Z,FULLY_SHARED_SIDECAR_1-2-2-1,1,target-16,network_out,0.000873565673828125
2022-03-31T16:24:24.658Z,FULLY_SHARED_SIDECAR_1-2-2-1,1,target-2,network_out,0.03680610656738281
2022-03-31T16:24:24.658Z,FULLY_SHARED_SIDECAR_1-2-2-1,1,target-3,network_out,0.000400543212890625
2022-03-31T16:24:24.671Z,FULLY_SHARED_SIDECAR_1-2-2-1,1,target-4,network_out,0.0003337860107421875
2022-03-31T16:24:24.671Z,FULLY_SHARED_SIDECAR_1-2-2-1,1,target-5,network_out,0.0003337860107421875
2022-03-31T16:24:24.658Z,FULLY_SHARED_SIDECAR_1-2-2-1,1,target-6,network_out,0.000400543212890625
2022-03-31T16:24:24.658Z,FULLY_SHARED_SIDECAR_1-2-2-1,1,target-7,network_out,0.000400543212890625
2022-03-31T16:24:24.671Z,FULLY_SHARED_SIDECAR_1-2-2-1,1,target-8,network_out,0.0003337860107421875
2022-03-31T16:24:16.754Z,FULLY_SHARED_SIDECAR_1-2-2-1,1,target-9,network_out,0.000400543212890625
2022-03-31T16:34:35.097Z,FULLY_SHARED_SIDECAR_1-2-2-1,2,target-1,network_out,0.04316139221191406
2022-03-31T16:34:35.067Z,FULLY_SHARED_SIDECAR_1-2-2-1,2,target-10,network_out,6.67572021484375e-05
2022-03-31T16:34:35.097Z,FULLY_SHARED_SIDECAR_1-2-2-1,2,target-11,network_out,6.67572021484375e-05
2022-03-31T16:34:35.037Z,FULLY_SHARED_SIDECAR_1-2-2-1,2,target-12,network_out,6.67572021484375e-05
2022-03-31T16:34:35.067Z,FULLY_SHARED_SIDECAR_1-2-2-1,2,target-13,network_out,6.67572021484375e-05
2022-03-31T16:34:35.097Z,FULLY_SHARED_SIDECAR_1-2-2-1,2,target-14,network_out,6.67572021484375e-05
2022-03-31T16:34:35.067Z,FULLY_SHARED_SIDECAR_1-2-2-1,2,target-15,network_out,6.67572021484375e-05
2022-03-31T16:34:35.097Z,FULLY_SHARED_SIDECAR_1-2-2-1,2,target-16,network_out,6.67572021484375e-05
2022-03-31T16:34:35.067Z,FULLY_SHARED_SIDECAR_1-2-2-1,2,target-2,network_out,0.04211235046386719
2022-03-31T16:34:35.067Z,FULLY_SHARED_SIDECAR_1-2-2-1,2,target-3,network_out,6.67572021484375e-05
2022-03-31T16:34:35.097Z,FULLY_SHARED_SIDECAR_1-2-2-1,2,target-4,network_out,6.67572021484375e-05
2022-03-31T16:34:35.097Z,FULLY_SHARED_SIDECAR_1-2-2-1,2,target-5,network_out,6.67572021484375e-05
2022-03-31T16:34:35.067Z,FULLY_SHARED_SIDECAR_1-2-2-1,2,target-6,network_out,6.67572021484375e-05
2022-03-31T16:34:35.067Z,FULLY_SHARED_SIDECAR_1-2-2-1,2,target-7,network_out,6.67572021484375e-05
2022-03-31T16:34:35.097Z,FULLY_SHARED_SIDECAR_1-2-2-1,2,target-8,network_out,6.67572021484375e-05
2022-03-31T16:34:35.037Z,FULLY_SHARED_SIDECAR_1-2-2-1,2,target-9,network_out,6.67572021484375e-05
2022-03-31T16:44:45.694Z,FULLY_SHARED_SIDECAR_1-2-2-1,3,target-1,network_out,0.035671234130859375
2022-03-31T16:44:45.663Z,FULLY_SHARED_SIDECAR_1-2-2-1,3,target-10,network_out,0.0
2022-03-31T16:44:45.694Z,FULLY_SHARED_SIDECAR_1-2-2-1,3,target-11,network_out,0.0
2022-03-31T16:44:45.576Z,FULLY_SHARED_SIDECAR_1-2-2-1,3,target-12,network_out,0.0
2022-03-31T16:44:45.663Z,FULLY_SHARED_SIDECAR_1-2-2-1,3,target-13,network_out,6.67572021484375e-05
2022-03-31T16:44:45.694Z,FULLY_SHARED_SIDECAR_1-2-2-1,3,target-14,network_out,0.0
2022-03-31T16:44:45.663Z,FULLY_SHARED_SIDECAR_1-2-2-1,3,target-15,network_out,0.0
2022-03-31T16:44:45.694Z,FULLY_SHARED_SIDECAR_1-2-2-1,3,target-16,network_out,0.0
2022-03-31T16:44:45.663Z,FULLY_SHARED_SIDECAR_1-2-2-1,3,target-2,network_out,0.036513328552246094
2022-03-31T16:44:45.663Z,FULLY_SHARED_SIDECAR_1-2-2-1,3,target-3,network_out,6.67572021484375e-05
2022-03-31T16:44:45.694Z,FULLY_SHARED_SIDECAR_1-2-2-1,3,target-4,network_out,0.0
2022-03-31T16:44:45.694Z,FULLY_SHARED_SIDECAR_1-2-2-1,3,target-5,network_out,0.0
2022-03-31T16:44:45.663Z,FULLY_SHARED_SIDECAR_1-2-2-1,3,target-6,network_out,0.0
2022-03-31T16:44:45.663Z,FULLY_SHARED_SIDECAR_1-2-2-1,3,target-7,network_out,6.67572021484375e-05
2022-03-31T16:44:45.694Z,FULLY_SHARED_SIDECAR_1-2-2-1,3,target-8,network_out,0.0
2022-03-31T16:44:45.576Z,FULLY_SHARED_SIDECAR_1-2-2-1,3,target-9,network_out,0.0
2022-03-31T16:54:55.118Z,FULLY_SHARED_SIDECAR_1-2-4-1,1,target-1,network_out,0.07710456848144531
2022-03-31T16:54:55.032Z,FULLY_SHARED_SIDECAR_1-2-4-1,1,target-10,network_out,6.67572021484375e-05
2022-03-31T16:54:55.118Z,FULLY_SHARED_SIDECAR_1-2-4-1,1,target-11,network_out,6.67572021484375e-05
2022-03-31T16:54:55.095Z,FULLY_SHARED_SIDECAR_1-2-4-1,1,target-12,network_out,6.67572021484375e-05
2022-03-31T16:54:55.032Z,FULLY_SHARED_SIDECAR_1-2-4-1,1,target-13,network_out,0.0
2022-03-31T16:54:55.118Z,FULLY_SHARED_SIDECAR_1-2-4-1,1,target-14,network_out,6.67572021484375e-05
2022-03-31T16:54:55.032Z,FULLY_SHARED_SIDECAR_1-2-4-1,1,target-15,network_out,6.67572021484375e-05
2022-03-31T16:54:55.118Z,FULLY_SHARED_SIDECAR_1-2-4-1,1,target-16,network_out,6.67572021484375e-05
2022-03-31T16:54:55.032Z,FULLY_SHARED_SIDECAR_1-2-4-1,1,target-2,network_out,0.08103275299072266
2022-03-31T16:54:55.032Z,FULLY_SHARED_SIDECAR_1-2-4-1,1,target-3,network_out,0.07963371276855469
2022-03-31T16:54:55.118Z,FULLY_SHARED_SIDECAR_1-2-4-1,1,target-4,network_out,0.0771646499633789
2022-03-31T16:54:55.118Z,FULLY_SHARED_SIDECAR_1-2-4-1,1,target-5,network_out,6.67572021484375e-05
2022-03-31T16:54:55.032Z,FULLY_SHARED_SIDECAR_1-2-4-1,1,target-6,network_out,6.67572021484375e-05
2022-03-31T16:54:55.032Z,FULLY_SHARED_SIDECAR_1-2-4-1,1,target-7,network_out,0.0
2022-03-31T16:54:55.118Z,FULLY_SHARED_SIDECAR_1-2-4-1,1,target-8,network_out,6.67572021484375e-05
2022-03-31T16:54:55.095Z,FULLY_SHARED_SIDECAR_1-2-4-1,1,target-9,network_out,6.67572021484375e-05
2022-03-31T17:05:12.244Z,FULLY_SHARED_SIDECAR_1-2-4-1,2,target-1,network_out,0.07950210571289062
2022-03-31T17:05:12.295Z,FULLY_SHARED_SIDECAR_1-2-4-1,2,target-10,network_out,0.0
2022-03-31T17:05:12.244Z,FULLY_SHARED_SIDECAR_1-2-4-1,2,target-11,network_out,0.0
2022-03-31T17:05:12.308Z,FULLY_SHARED_SIDECAR_1-2-4-1,2,target-12,network_out,0.0
2022-03-31T17:05:12.295Z,FULLY_SHARED_SIDECAR_1-2-4-1,2,target-13,network_out,0.0
2022-03-31T17:05:12.244Z,FULLY_SHARED_SIDECAR_1-2-4-1,2,target-14,network_out,0.0
2022-03-31T17:05:12.295Z,FULLY_SHARED_SIDECAR_1-2-4-1,2,target-15,network_out,0.0
2022-03-31T17:05:12.244Z,FULLY_SHARED_SIDECAR_1-2-4-1,2,target-16,network_out,0.0
2022-03-31T17:05:12.295Z,FULLY_SHARED_SIDECAR_1-2-4-1,2,target-2,network_out,0.08696365356445312
2022-03-31T17:05:12.295Z,FULLY_SHARED_SIDECAR_1-2-4-1,2,target-3,network_out,0.08618927001953125
2022-03-31T17:05:12.244Z,FULLY_SHARED_SIDECAR_1-2-4-1,2,target-4,network_out,0.07911491394042969
2022-03-31T17:05:12.244Z,FULLY_SHARED_SIDECAR_1-2-4-1,2,target-5,network_out,0.0
2022-03-31T17:05:12.295Z,FULLY_SHARED_SIDECAR_1-2-4-1,2,target-6,network_out,0.0
2022-03-31T17:05:12.295Z,FULLY_SHARED_SIDECAR_1-2-4-1,2,target-7,network_out,0.0
2022-03-31T17:05:12.244Z,FULLY_SHARED_SIDECAR_1-2-4-1,2,target-8,network_out,0.0
2022-03-31T17:05:12.308Z,FULLY_SHARED_SIDECAR_1-2-4-1,2,target-9,network_out,0.0
2022-03-31T17:15:28.098Z,FULLY_SHARED_SIDECAR_1-2-4-1,3,target-1,network_out,0.07688426971435547
2022-03-31T17:15:28.119Z,FULLY_SHARED_SIDECAR_1-2-4-1,3,target-10,network_out,0.0
2022-03-31T17:15:28.098Z,FULLY_SHARED_SIDECAR_1-2-4-1,3,target-11,network_out,0.0
2022-03-31T17:15:28.065Z,FULLY_SHARED_SIDECAR_1-2-4-1,3,target-12,network_out,0.0
2022-03-31T17:15:28.119Z,FULLY_SHARED_SIDECAR_1-2-4-1,3,target-13,network_out,6.67572021484375e-05
2022-03-31T17:15:28.098Z,FULLY_SHARED_SIDECAR_1-2-4-1,3,target-14,network_out,0.0
2022-03-31T17:15:28.119Z,FULLY_SHARED_SIDECAR_1-2-4-1,3,target-15,network_out,0.0
2022-03-31T17:15:28.098Z,FULLY_SHARED_SIDECAR_1-2-4-1,3,target-16,network_out,0.0
2022-03-31T17:15:28.119Z,FULLY_SHARED_SIDECAR_1-2-4-1,3,target-2,network_out,0.0870523452758789
2022-03-31T17:15:28.119Z,FULLY_SHARED_SIDECAR_1-2-4-1,3,target-3,network_out,0.0862274169921875
2022-03-31T17:15:28.098Z,FULLY_SHARED_SIDECAR_1-2-4-1,3,target-4,network_out,0.0803060531616211
2022-03-31T17:15:28.098Z,FULLY_SHARED_SIDECAR_1-2-4-1,3,target-5,network_out,0.0
2022-03-31T17:15:28.119Z,FULLY_SHARED_SIDECAR_1-2-4-1,3,target-6,network_out,0.0
2022-03-31T17:15:28.119Z,FULLY_SHARED_SIDECAR_1-2-4-1,3,target-7,network_out,6.67572021484375e-05
2022-03-31T17:15:28.098Z,FULLY_SHARED_SIDECAR_1-2-4-1,3,target-8,network_out,0.0
2022-03-31T17:15:28.065Z,FULLY_SHARED_SIDECAR_1-2-4-1,3,target-9,network_out,0.0
2022-03-31T17:25:54.080Z,FULLY_SHARED_SIDECAR_1-2-8-1,1,target-1,network_out,0.1725902557373047
2022-03-31T17:25:54.059Z,FULLY_SHARED_SIDECAR_1-2-8-1,1,target-10,network_out,6.67572021484375e-05
2022-03-31T17:25:54.080Z,FULLY_SHARED_SIDECAR_1-2-8-1,1,target-11,network_out,6.67572021484375e-05
2022-03-31T17:25:54.054Z,FULLY_SHARED_SIDECAR_1-2-8-1,1,target-12,network_out,6.67572021484375e-05
2022-03-31T17:25:54.059Z,FULLY_SHARED_SIDECAR_1-2-8-1,1,target-13,network_out,0.0
2022-03-31T17:25:54.080Z,FULLY_SHARED_SIDECAR_1-2-8-1,1,target-14,network_out,0.0
2022-03-31T17:25:54.059Z,FULLY_SHARED_SIDECAR_1-2-8-1,1,target-15,network_out,6.67572021484375e-05
2022-03-31T17:25:54.080Z,FULLY_SHARED_SIDECAR_1-2-8-1,1,target-16,network_out,6.67572021484375e-05
2022-03-31T17:25:54.059Z,FULLY_SHARED_SIDECAR_1-2-8-1,1,target-2,network_out,0.16008663177490234
2022-03-31T17:25:54.059Z,FULLY_SHARED_SIDECAR_1-2-8-1,1,target-3,network_out,0.15642356872558594
2022-03-31T17:25:54.080Z,FULLY_SHARED_SIDECAR_1-2-8-1,1,target-4,network_out,0.17031383514404297
2022-03-31T17:25:54.080Z,FULLY_SHARED_SIDECAR_1-2-8-1,1,target-5,network_out,0.16864299774169922
2022-03-31T17:25:54.059Z,FULLY_SHARED_SIDECAR_1-2-8-1,1,target-6,network_out,0.15524768829345703
2022-03-31T17:25:54.059Z,FULLY_SHARED_SIDECAR_1-2-8-1,1,target-7,network_out,0.1571035385131836
2022-03-31T17:25:54.080Z,FULLY_SHARED_SIDECAR_1-2-8-1,1,target-8,network_out,0.17142295837402344
2022-03-31T17:25:54.054Z,FULLY_SHARED_SIDECAR_1-2-8-1,1,target-9,network_out,6.67572021484375e-05
2022-03-31T17:36:18.934Z,FULLY_SHARED_SIDECAR_1-2-8-1,2,target-1,network_out,0.1607656478881836
2022-03-31T17:36:18.870Z,FULLY_SHARED_SIDECAR_1-2-8-1,2,target-10,network_out,0.0
2022-03-31T17:36:18.934Z,FULLY_SHARED_SIDECAR_1-2-8-1,2,target-11,network_out,0.0
2022-03-31T17:36:19.257Z,FULLY_SHARED_SIDECAR_1-2-8-1,2,target-12,network_out,0.0
2022-03-31T17:36:18.870Z,FULLY_SHARED_SIDECAR_1-2-8-1,2,target-13,network_out,0.0
2022-03-31T17:36:18.934Z,FULLY_SHARED_SIDECAR_1-2-8-1,2,target-14,network_out,6.67572021484375e-05
2022-03-31T17:36:18.870Z,FULLY_SHARED_SIDECAR_1-2-8-1,2,target-15,network_out,0.0
2022-03-31T17:36:18.934Z,FULLY_SHARED_SIDECAR_1-2-8-1,2,target-16,network_out,0.0
2022-03-31T17:36:18.870Z,FULLY_SHARED_SIDECAR_1-2-8-1,2,target-2,network_out,0.16173553466796875
2022-03-31T17:36:18.870Z,FULLY_SHARED_SIDECAR_1-2-8-1,2,target-3,network_out,0.1595449447631836
2022-03-31T17:36:18.934Z,FULLY_SHARED_SIDECAR_1-2-8-1,2,target-4,network_out,0.16245365142822266
2022-03-31T17:36:18.934Z,FULLY_SHARED_SIDECAR_1-2-8-1,2,target-5,network_out,0.16107845306396484
2022-03-31T17:36:18.870Z,FULLY_SHARED_SIDECAR_1-2-8-1,2,target-6,network_out,0.15525054931640625
2022-03-31T17:36:18.870Z,FULLY_SHARED_SIDECAR_1-2-8-1,2,target-7,network_out,0.15622520446777344
2022-03-31T17:36:18.934Z,FULLY_SHARED_SIDECAR_1-2-8-1,2,target-8,network_out,0.16343021392822266
2022-03-31T17:36:19.257Z,FULLY_SHARED_SIDECAR_1-2-8-1,2,target-9,network_out,0.0
2022-03-31T17:46:46.410Z,FULLY_SHARED_SIDECAR_1-2-8-1,3,target-1,network_out,0.16993236541748047
2022-03-31T17:46:46.430Z,FULLY_SHARED_SIDECAR_1-2-8-1,3,target-10,network_out,0.0
2022-03-31T17:46:46.410Z,FULLY_SHARED_SIDECAR_1-2-8-1,3,target-11,network_out,0.0
2022-03-31T17:46:46.396Z,FULLY_SHARED_SIDECAR_1-2-8-1,3,target-12,network_out,0.0
2022-03-31T17:46:46.430Z,FULLY_SHARED_SIDECAR_1-2-8-1,3,target-13,network_out,0.0
2022-03-31T17:46:46.410Z,FULLY_SHARED_SIDECAR_1-2-8-1,3,target-14,network_out,0.0
2022-03-31T17:46:46.430Z,FULLY_SHARED_SIDECAR_1-2-8-1,3,target-15,network_out,0.0
2022-03-31T17:46:46.410Z,FULLY_SHARED_SIDECAR_1-2-8-1,3,target-16,network_out,0.0
2022-03-31T17:46:46.430Z,FULLY_SHARED_SIDECAR_1-2-8-1,3,target-2,network_out,0.15629291534423828
2022-03-31T17:46:46.430Z,FULLY_SHARED_SIDECAR_1-2-8-1,3,target-3,network_out,0.15733718872070312
2022-03-31T17:46:46.410Z,FULLY_SHARED_SIDECAR_1-2-8-1,3,target-4,network_out,0.1715373992919922
2022-03-31T17:46:46.410Z,FULLY_SHARED_SIDECAR_1-2-8-1,3,target-5,network_out,0.16927623748779297
2022-03-31T17:46:46.430Z,FULLY_SHARED_SIDECAR_1-2-8-1,3,target-6,network_out,0.1598043441772461
2022-03-31T17:46:46.430Z,FULLY_SHARED_SIDECAR_1-2-8-1,3,target-7,network_out,0.1539630889892578
2022-03-31T17:46:46.410Z,FULLY_SHARED_SIDECAR_1-2-8-1,3,target-8,network_out,0.1713857650756836
2022-03-31T17:46:46.396Z,FULLY_SHARED_SIDECAR_1-2-8-1,3,target-9,network_out,0.0
