timestamp,key,run_id,resource,metric,value
2022-03-31T09:09:47.442Z,FULLY_SHARED_SIDECAR_1-1-1-1,1,monitoring-unit-1,network_out,0.06582832336425781
2022-03-31T09:19:45.538Z,FULLY_SHARED_SIDECAR_1-1-1-1,2,monitoring-unit-1,network_out,0.0650186538696289
2022-03-31T09:29:52.424Z,FULLY_SHARED_SIDECAR_1-1-1-1,3,monitoring-unit-1,network_out,0.0639495849609375
2022-03-31T19:30:44.466Z,FULLY_SHARED_SIDECAR_1-16-1-1,1,monitoring-unit-1,network_out,0.06711864471435547
2022-03-31T19:40:53.330Z,FULLY_SHARED_SIDECAR_1-16-1-1,2,monitoring-unit-1,network_out,0.0660085678100586
2022-03-31T19:51:00.254Z,FULLY_SHARED_SIDECAR_1-16-1-1,3,monitoring-unit-1,network_out,0.06742572784423828
2022-03-31T11:43:57.983Z,FULLY_SHARED_SIDECAR_1-2-1-1,1,monitoring-unit-1,network_out,0.06489944458007812
2022-03-31T11:54:09.301Z,FULLY_SHARED_SIDECAR_1-2-1-1,2,monitoring-unit-1,network_out,0.06737327575683594
2022-03-31T12:04:21.442Z,FULLY_SHARED_SIDECAR_1-2-1-1,3,monitoring-unit-1,network_out,0.06730365753173828
2022-03-31T18:29:55.548Z,FULLY_SHARED_SIDECAR_1-4-1-1,1,monitoring-unit-1,network_out,0.06695842742919922
2022-03-31T18:40:03.540Z,FULLY_SHARED_SIDECAR_1-4-1-1,2,monitoring-unit-1,network_out,0.06606292724609375
2022-03-31T18:50:11.801Z,FULLY_SHARED_SIDECAR_1-4-1-1,3,monitoring-unit-1,network_out,0.0650949478149414
2022-03-31T19:00:20.938Z,FULLY_SHARED_SIDECAR_1-8-1-1,1,monitoring-unit-1,network_out,0.06690502166748047
2022-03-31T19:10:29.283Z,FULLY_SHARED_SIDECAR_1-8-1-1,2,monitoring-unit-1,network_out,0.06699275970458984
2022-03-31T19:20:37.634Z,FULLY_SHARED_SIDECAR_1-8-1-1,3,monitoring-unit-1,network_out,0.06627655029296875
