2023-07-14T10:51:05.484Z,cadvisor-2nt5m,memory,22937600
2023-07-14T10:50:45.105Z,cadvisor-2nt5m,memory,18833408
2023-07-14T10:50:55.484Z,cadvisor-2nt5m,memory,22937600
2023-07-14T10:51:15.484Z,cadvisor-2nt5m,memory,25997312
2023-07-14T10:51:25.485Z,cadvisor-2nt5m,memory,26406912
2023-07-14T10:51:05.771Z,cadvisor-f4sq9,memory,28307456
2023-07-14T10:51:15.769Z,cadvisor-f4sq9,memory,28307456
2023-07-14T10:51:25.768Z,cadvisor-f4sq9,memory,28307456
2023-07-14T10:50:45.254Z,cadvisor-f4sq9,memory,25493504
2023-07-14T10:50:55.768Z,cadvisor-f4sq9,memory,28037120
2023-07-14T10:51:35.485Z,cadvisor-2nt5m,memory,26406912
2023-07-14T10:51:35.769Z,cadvisor-f4sq9,memory,29642752
2023-07-14T10:50:55.654Z,cadvisor-z8rcn,memory,23465984
2023-07-14T10:51:25.654Z,cadvisor-z8rcn,memory,24952832
2023-07-14T10:50:45.145Z,cadvisor-z8rcn,memory,23465984
2023-07-14T10:51:05.654Z,cadvisor-z8rcn,memory,23465984
2023-07-14T10:51:15.654Z,cadvisor-z8rcn,memory,25264128
2023-07-14T10:51:35.653Z,cadvisor-z8rcn,memory,24952832
2023-07-14T10:51:45.484Z,cadvisor-2nt5m,memory,27013120
2023-07-14T10:51:45.768Z,cadvisor-f4sq9,memory,29642752
2023-07-14T10:51:45.654Z,cadvisor-z8rcn,memory,26292224
2023-07-14T10:51:55.485Z,cadvisor-2nt5m,memory,27021312
2023-07-14T10:51:55.654Z,cadvisor-z8rcn,memory,29036544
2023-07-14T10:51:55.769Z,cadvisor-f4sq9,memory,31596544
2023-07-14T10:52:05.484Z,cadvisor-2nt5m,memory,27021312
2023-07-14T10:52:05.654Z,cadvisor-z8rcn,memory,29036544
2023-07-14T10:52:05.769Z,cadvisor-f4sq9,memory,33505280
2023-07-14T10:52:15.485Z,cadvisor-2nt5m,memory,27635712
2023-07-14T10:52:15.653Z,cadvisor-z8rcn,memory,27099136
2023-07-14T10:52:15.768Z,cadvisor-f4sq9,memory,33505280
2023-07-14T10:52:25.485Z,cadvisor-2nt5m,memory,27541504
2023-07-14T10:52:25.654Z,cadvisor-z8rcn,memory,29515776
2023-07-14T10:52:25.769Z,cadvisor-f4sq9,memory,33505280
2023-07-14T10:52:35.485Z,cadvisor-2nt5m,memory,27541504
2023-07-14T10:52:35.654Z,cadvisor-z8rcn,memory,29700096
2023-07-14T10:52:35.769Z,cadvisor-f4sq9,memory,30244864
2023-07-14T10:52:45.485Z,cadvisor-2nt5m,memory,24834048
2023-07-14T10:52:45.654Z,cadvisor-z8rcn,memory,29700096
2023-07-14T10:52:45.768Z,cadvisor-f4sq9,memory,30244864
2023-07-14T10:52:55.484Z,cadvisor-2nt5m,memory,24834048
2023-07-14T10:52:55.654Z,cadvisor-z8rcn,memory,29700096
2023-07-14T10:52:55.769Z,cadvisor-f4sq9,memory,30244864
2023-07-14T10:53:05.484Z,cadvisor-2nt5m,memory,25190400
2023-07-14T10:53:05.654Z,cadvisor-z8rcn,memory,30502912
2023-07-14T10:53:05.768Z,cadvisor-f4sq9,memory,33263616
2023-07-14T10:53:15.485Z,cadvisor-2nt5m,memory,24330240
2023-07-14T10:53:15.768Z,cadvisor-f4sq9,memory,33263616
2023-07-14T10:53:15.654Z,cadvisor-z8rcn,memory,31342592
2023-07-14T10:53:25.485Z,cadvisor-2nt5m,memory,24330240
2023-07-14T10:53:25.654Z,cadvisor-z8rcn,memory,31342592
2023-07-14T10:53:25.768Z,cadvisor-f4sq9,memory,35123200
2023-07-14T10:53:35.484Z,cadvisor-2nt5m,memory,27078656
2023-07-14T10:53:35.654Z,cadvisor-z8rcn,memory,31342592
2023-07-14T10:53:35.769Z,cadvisor-f4sq9,memory,32980992
2023-07-14T10:53:45.484Z,cadvisor-2nt5m,memory,27258880
2023-07-14T10:53:45.654Z,cadvisor-z8rcn,memory,30633984
2023-07-14T10:53:45.768Z,cadvisor-f4sq9,memory,32980992
2023-07-14T10:53:55.484Z,cadvisor-2nt5m,memory,27258880
2023-07-14T10:53:55.654Z,cadvisor-z8rcn,memory,33202176
2023-07-14T10:53:55.769Z,cadvisor-f4sq9,memory,34566144
2023-07-14T10:54:05.485Z,cadvisor-2nt5m,memory,25493504
2023-07-14T10:54:05.654Z,cadvisor-z8rcn,memory,33202176
2023-07-14T10:54:05.769Z,cadvisor-f4sq9,memory,34443264
2023-07-14T10:54:15.485Z,cadvisor-2nt5m,memory,24973312
2023-07-14T10:54:15.654Z,cadvisor-z8rcn,memory,28655616
2023-07-14T10:54:15.769Z,cadvisor-f4sq9,memory,34443264
2023-07-14T10:54:25.484Z,cadvisor-2nt5m,memory,25681920
2023-07-14T10:54:25.653Z,cadvisor-z8rcn,memory,28655616
2023-07-14T10:54:25.769Z,cadvisor-f4sq9,memory,33034240
2023-07-14T10:54:35.485Z,cadvisor-2nt5m,memory,25681920
2023-07-14T10:54:35.654Z,cadvisor-z8rcn,memory,28483584
2023-07-14T10:54:35.769Z,cadvisor-f4sq9,memory,32264192
2023-07-14T10:54:45.484Z,cadvisor-2nt5m,memory,25681920
2023-07-14T10:54:45.768Z,cadvisor-f4sq9,memory,32264192
2023-07-14T10:54:45.653Z,cadvisor-z8rcn,memory,28442624
2023-07-14T10:54:55.485Z,cadvisor-2nt5m,memory,25894912
2023-07-14T10:54:55.654Z,cadvisor-z8rcn,memory,32096256
2023-07-14T10:54:55.769Z,cadvisor-f4sq9,memory,34115584
2023-07-14T10:55:05.484Z,cadvisor-2nt5m,memory,26861568
2023-07-14T10:55:05.654Z,cadvisor-z8rcn,memory,32096256
2023-07-14T10:55:05.768Z,cadvisor-f4sq9,memory,33189888
2023-07-14T10:55:15.485Z,cadvisor-2nt5m,memory,27496448
2023-07-14T10:55:15.653Z,cadvisor-z8rcn,memory,32096256
2023-07-14T10:55:15.769Z,cadvisor-f4sq9,memory,31789056
2023-07-14T10:55:25.484Z,cadvisor-2nt5m,memory,27496448
2023-07-14T10:55:25.654Z,cadvisor-z8rcn,memory,31920128
2023-07-14T10:55:25.769Z,cadvisor-f4sq9,memory,33542144
2023-07-14T10:55:35.485Z,cadvisor-2nt5m,memory,27082752
2023-07-14T10:55:35.654Z,cadvisor-z8rcn,memory,29196288
2023-07-14T10:55:35.769Z,cadvisor-f4sq9,memory,33542144
2023-07-14T10:55:45.484Z,cadvisor-2nt5m,memory,27082752
2023-07-14T10:55:45.654Z,cadvisor-z8rcn,memory,32362496
2023-07-14T10:55:45.768Z,cadvisor-f4sq9,memory,33542144
2023-07-14T10:55:55.485Z,cadvisor-2nt5m,memory,25763840
2023-07-14T10:55:55.654Z,cadvisor-z8rcn,memory,32362496
2023-07-14T10:55:55.769Z,cadvisor-f4sq9,memory,34549760
2023-07-14T10:56:05.484Z,cadvisor-2nt5m,memory,25763840
2023-07-14T10:56:05.654Z,cadvisor-z8rcn,memory,32362496
2023-07-14T10:56:05.769Z,cadvisor-f4sq9,memory,35237888
2023-07-14T10:56:15.484Z,cadvisor-2nt5m,memory,27713536
2023-07-14T10:56:15.654Z,cadvisor-z8rcn,memory,28487680
2023-07-14T10:56:15.768Z,cadvisor-f4sq9,memory,35237888
2023-07-14T10:56:25.484Z,cadvisor-2nt5m,memory,28643328
2023-07-14T10:56:25.653Z,cadvisor-z8rcn,memory,28487680
2023-07-14T10:56:25.769Z,cadvisor-f4sq9,memory,33480704
2023-07-14T10:56:35.485Z,cadvisor-2nt5m,memory,28930048
2023-07-14T10:56:35.654Z,cadvisor-z8rcn,memory,29097984
2023-07-14T10:56:35.768Z,cadvisor-f4sq9,memory,33247232
2023-07-14T10:56:45.484Z,cadvisor-2nt5m,memory,28930048
2023-07-14T10:56:45.654Z,cadvisor-z8rcn,memory,30916608
2023-07-14T10:56:45.768Z,cadvisor-f4sq9,memory,33247232
2023-07-14T10:56:55.485Z,cadvisor-2nt5m,memory,25104384
2023-07-14T10:56:55.654Z,cadvisor-z8rcn,memory,27975680
2023-07-14T10:56:55.769Z,cadvisor-f4sq9,memory,33247232
2023-07-14T10:57:05.484Z,cadvisor-2nt5m,memory,25104384
2023-07-14T10:57:05.653Z,cadvisor-z8rcn,memory,27975680
2023-07-14T10:57:05.769Z,cadvisor-f4sq9,memory,32387072
2023-07-14T10:57:15.485Z,cadvisor-2nt5m,memory,28585984
2023-07-14T10:57:15.654Z,cadvisor-z8rcn,memory,27975680
2023-07-14T10:57:15.768Z,cadvisor-f4sq9,memory,32387072
2023-07-14T10:57:25.485Z,cadvisor-2nt5m,memory,28946432
2023-07-14T10:57:25.654Z,cadvisor-z8rcn,memory,30208000
2023-07-14T10:57:25.768Z,cadvisor-f4sq9,memory,31592448
2023-07-14T10:57:35.485Z,cadvisor-2nt5m,memory,28831744
2023-07-14T10:57:35.654Z,cadvisor-z8rcn,memory,30208000
2023-07-14T10:57:35.768Z,cadvisor-f4sq9,memory,31494144
2023-07-14T10:57:45.484Z,cadvisor-2nt5m,memory,28831744
2023-07-14T10:57:45.768Z,cadvisor-f4sq9,memory,31494144
2023-07-14T10:57:45.654Z,cadvisor-z8rcn,memory,29401088
2023-07-14T10:57:55.484Z,cadvisor-2nt5m,memory,28831744
2023-07-14T10:57:55.654Z,cadvisor-z8rcn,memory,29327360
2023-07-14T10:57:55.768Z,cadvisor-f4sq9,memory,35753984
2023-07-14T10:58:05.484Z,cadvisor-2nt5m,memory,30146560
2023-07-14T10:58:05.769Z,cadvisor-f4sq9,memory,35844096
2023-07-14T10:58:05.654Z,cadvisor-z8rcn,memory,29380608
2023-07-14T10:58:15.485Z,cadvisor-2nt5m,memory,28925952
2023-07-14T10:58:15.654Z,cadvisor-z8rcn,memory,31191040
2023-07-14T10:58:15.769Z,cadvisor-f4sq9,memory,35844096
2023-07-14T10:58:25.484Z,cadvisor-2nt5m,memory,28925952
2023-07-14T10:58:25.654Z,cadvisor-z8rcn,memory,31191040
2023-07-14T10:58:25.768Z,cadvisor-f4sq9,memory,34492416
2023-07-14T10:58:35.484Z,cadvisor-2nt5m,memory,28925952
2023-07-14T10:58:35.654Z,cadvisor-z8rcn,memory,31191040
2023-07-14T10:58:35.769Z,cadvisor-f4sq9,memory,34619392
2023-07-14T10:58:45.485Z,cadvisor-2nt5m,memory,28733440
2023-07-14T10:58:45.654Z,cadvisor-z8rcn,memory,32718848
2023-07-14T10:58:45.768Z,cadvisor-f4sq9,memory,34619392
2023-07-14T10:58:55.484Z,cadvisor-2nt5m,memory,28733440
2023-07-14T10:58:55.654Z,cadvisor-z8rcn,memory,28299264
2023-07-14T10:58:55.769Z,cadvisor-f4sq9,memory,34226176
2023-07-14T10:59:05.484Z,cadvisor-2nt5m,memory,28839936
2023-07-14T10:59:05.654Z,cadvisor-z8rcn,memory,28602368
2023-07-14T10:59:05.768Z,cadvisor-f4sq9,memory,35491840
2023-07-14T10:59:15.484Z,cadvisor-2nt5m,memory,28319744
2023-07-14T10:59:15.768Z,cadvisor-f4sq9,memory,32559104
2023-07-14T10:59:15.654Z,cadvisor-z8rcn,memory,30728192
2023-07-14T10:59:25.485Z,cadvisor-2nt5m,memory,25686016
2023-07-14T10:59:25.654Z,cadvisor-z8rcn,memory,30728192
2023-07-14T10:59:25.769Z,cadvisor-f4sq9,memory,32559104
2023-07-14T10:59:35.485Z,cadvisor-2nt5m,memory,25686016
2023-07-14T10:59:35.654Z,cadvisor-z8rcn,memory,29532160
2023-07-14T10:59:35.769Z,cadvisor-f4sq9,memory,32559104
2023-07-14T10:59:45.485Z,cadvisor-2nt5m,memory,25686016
2023-07-14T10:59:45.654Z,cadvisor-z8rcn,memory,29532160
2023-07-14T10:59:45.768Z,cadvisor-f4sq9,memory,33579008
2023-07-14T10:59:55.485Z,cadvisor-2nt5m,memory,26918912
2023-07-14T10:59:55.654Z,cadvisor-z8rcn,memory,30187520
2023-07-14T10:59:55.769Z,cadvisor-f4sq9,memory,32862208
2023-07-14T11:00:05.484Z,cadvisor-2nt5m,memory,24858624
2023-07-14T11:00:05.654Z,cadvisor-z8rcn,memory,29556736
2023-07-14T11:00:05.768Z,cadvisor-f4sq9,memory,32862208
2023-07-14T11:00:15.484Z,cadvisor-2nt5m,memory,26542080
2023-07-14T11:00:15.654Z,cadvisor-z8rcn,memory,27627520
2023-07-14T11:00:15.768Z,cadvisor-f4sq9,memory,32862208
2023-07-14T11:00:25.484Z,cadvisor-2nt5m,memory,26542080
2023-07-14T11:00:25.654Z,cadvisor-z8rcn,memory,27627520
2023-07-14T11:00:25.769Z,cadvisor-f4sq9,memory,33525760
2023-07-14T11:00:35.484Z,cadvisor-2nt5m,memory,26542080
2023-07-14T11:00:35.654Z,cadvisor-z8rcn,memory,27627520
2023-07-14T11:00:35.769Z,cadvisor-f4sq9,memory,32706560
2023-07-14T11:00:45.484Z,cadvisor-2nt5m,memory,28217344
2023-07-14T11:00:45.654Z,cadvisor-z8rcn,memory,29380608
2023-07-14T11:00:45.768Z,cadvisor-f4sq9,memory,32706560
2023-07-14T11:00:55.485Z,cadvisor-2nt5m,memory,26189824
2023-07-14T11:00:55.654Z,cadvisor-z8rcn,memory,31690752
2023-07-14T11:00:55.769Z,cadvisor-f4sq9,memory,32706560
2023-07-14T11:01:05.484Z,cadvisor-2nt5m,memory,26189824
2023-07-14T11:01:05.654Z,cadvisor-z8rcn,memory,31883264
2023-07-14T11:01:05.769Z,cadvisor-f4sq9,memory,33202176
