2023-07-14T10:50:55.484Z,catalogue,memory,2396160
2023-07-14T10:51:05.484Z,user-login,memory,3010560
2023-07-14T10:51:25.485Z,user-login,memory,3104768
2023-07-14T10:51:15.484Z,carts-get,memory,315629568
2023-07-14T10:51:15.484Z,catalogue,memory,2465792
2023-07-14T10:51:25.485Z,carts-get,memory,315629568
2023-07-14T10:51:05.484Z,carts-get,memory,332279808
2023-07-14T10:51:05.484Z,catalogue,memory,2396160
2023-07-14T10:51:05.484Z,orders,memory,307101696
2023-07-14T10:51:15.484Z,user-login,memory,3047424
2023-07-14T10:51:15.484Z,orders,memory,316903424
2023-07-14T10:51:25.485Z,catalogue,memory,2465792
2023-07-14T10:51:25.485Z,orders,memory,316903424
2023-07-14T10:50:45.105Z,catalogue,memory,2392064
2023-07-14T10:50:45.105Z,orders,memory,302292992
2023-07-14T10:50:45.105Z,carts-get,memory,286224384
2023-07-14T10:50:45.105Z,user-login,memory,2859008
2023-07-14T10:50:55.484Z,orders,memory,307101696
2023-07-14T10:50:55.484Z,carts-get,memory,302632960
2023-07-14T10:50:55.484Z,user-login,memory,2859008
2023-07-14T10:50:45.254Z,queue-master,memory,270458880
2023-07-14T10:50:55.768Z,payment,memory,2510848
2023-07-14T10:51:05.771Z,carts-post,memory,318181376
2023-07-14T10:51:15.769Z,carts-post,memory,318181376
2023-07-14T10:51:15.769Z,user,memory,3080192
2023-07-14T10:51:25.768Z,user-register,memory,3141632
2023-07-14T10:50:55.768Z,user-register,memory,3063808
2023-07-14T10:50:55.768Z,carts-post,memory,310919168
2023-07-14T10:50:55.768Z,carts-get,memory,304267264
2023-07-14T10:51:15.769Z,queue-master,memory,267988992
2023-07-14T10:51:25.768Z,payment,memory,2523136
2023-07-14T10:50:45.254Z,user-register,memory,3063808
2023-07-14T10:50:55.768Z,queue-master,memory,268496896
2023-07-14T10:51:05.771Z,user,memory,3051520
2023-07-14T10:51:05.771Z,queue-master,memory,268496896
2023-07-14T10:51:15.769Z,user-register,memory,3141632
2023-07-14T10:51:25.768Z,carts-post,memory,318181376
2023-07-14T10:50:45.254Z,carts-post,memory,277938176
2023-07-14T10:50:45.254Z,carts-get,memory,303624192
2023-07-14T10:50:45.254Z,payment,memory,2498560
2023-07-14T10:50:55.768Z,user,memory,3051520
2023-07-14T10:51:05.771Z,payment,memory,2510848
2023-07-14T10:51:05.771Z,user-register,memory,3096576
2023-07-14T10:51:05.771Z,carts-get,memory,308858880
2023-07-14T10:51:15.769Z,carts-get,memory,312721408
2023-07-14T10:51:15.769Z,payment,memory,2523136
2023-07-14T10:51:25.768Z,queue-master,memory,267988992
2023-07-14T10:51:25.768Z,user,memory,3080192
2023-07-14T10:51:25.768Z,carts-get,memory,312721408
2023-07-14T10:51:35.485Z,catalogue,memory,2465792
2023-07-14T10:51:35.485Z,orders,memory,316903424
2023-07-14T10:51:35.485Z,carts-get,memory,315629568
2023-07-14T10:51:35.485Z,user-login,memory,3104768
2023-07-14T10:51:35.769Z,user-register,memory,3207168
2023-07-14T10:51:35.769Z,user,memory,3145728
2023-07-14T10:51:35.769Z,carts-get,memory,311701504
2023-07-14T10:51:35.769Z,payment,memory,2543616
2023-07-14T10:51:35.769Z,carts-post,memory,311787520
2023-07-14T10:51:35.769Z,queue-master,memory,268279808
2023-07-14T10:50:45.145Z,carts,memory,298946560
2023-07-14T10:50:55.654Z,carts-delete,memory,296845312
2023-07-14T10:51:05.654Z,shipping,memory,278491136
2023-07-14T10:51:25.654Z,shipping,memory,295292928
2023-07-14T10:51:35.653Z,shipping,memory,295292928
2023-07-14T10:50:55.654Z,carts,memory,298946560
2023-07-14T10:51:15.654Z,carts,memory,310882304
2023-07-14T10:51:25.654Z,carts-delete,memory,304984064
2023-07-14T10:51:05.654Z,carts,memory,298946560
2023-07-14T10:51:25.654Z,carts,memory,317599744
2023-07-14T10:51:35.653Z,carts,memory,317599744
2023-07-14T10:50:45.145Z,carts-delete,memory,296845312
2023-07-14T10:50:45.145Z,shipping,memory,278491136
2023-07-14T10:50:55.654Z,shipping,memory,278491136
2023-07-14T10:51:05.654Z,carts-delete,memory,296845312
2023-07-14T10:51:15.654Z,carts-delete,memory,302387200
2023-07-14T10:51:15.654Z,shipping,memory,298397696
2023-07-14T10:51:35.653Z,carts-delete,memory,304984064
2023-07-14T10:51:45.484Z,user-login,memory,3104768
2023-07-14T10:51:45.484Z,orders,memory,316182528
2023-07-14T10:51:45.484Z,carts-get,memory,315547648
2023-07-14T10:51:45.484Z,catalogue,memory,2482176
2023-07-14T10:51:45.654Z,carts-delete,memory,303980544
2023-07-14T10:51:45.768Z,user,memory,3145728
2023-07-14T10:51:45.654Z,shipping,memory,295469056
2023-07-14T10:51:45.768Z,user-register,memory,3207168
2023-07-14T10:51:45.768Z,carts-get,memory,311701504
2023-07-14T10:51:45.768Z,carts-post,memory,311787520
2023-07-14T10:51:45.654Z,carts,memory,317599744
2023-07-14T10:51:45.768Z,payment,memory,2543616
2023-07-14T10:51:45.768Z,queue-master,memory,268279808
2023-07-14T10:51:55.485Z,orders,memory,316465152
2023-07-14T10:51:55.485Z,catalogue,memory,2523136
2023-07-14T10:51:55.485Z,carts-get,memory,315645952
2023-07-14T10:51:55.485Z,user-login,memory,3117056
2023-07-14T10:51:55.654Z,shipping,memory,295739392
2023-07-14T10:51:55.654Z,carts-delete,memory,304013312
2023-07-14T10:51:55.654Z,carts,memory,309690368
2023-07-14T10:51:55.769Z,queue-master,memory,268484608
2023-07-14T10:51:55.769Z,user-register,memory,3219456
2023-07-14T10:51:55.769Z,carts-get,memory,312131584
2023-07-14T10:51:55.769Z,carts-post,memory,310898688
2023-07-14T10:51:55.769Z,payment,memory,2588672
2023-07-14T10:51:55.769Z,user,memory,3280896
2023-07-14T10:52:05.484Z,catalogue,memory,2523136
2023-07-14T10:52:05.484Z,orders,memory,316465152
2023-07-14T10:52:05.484Z,carts-get,memory,315645952
2023-07-14T10:52:05.484Z,user-login,memory,3117056
2023-07-14T10:52:05.654Z,carts-delete,memory,304013312
2023-07-14T10:52:05.654Z,carts,memory,309690368
2023-07-14T10:52:05.654Z,shipping,memory,295739392
2023-07-14T10:52:05.769Z,payment,memory,2633728
2023-07-14T10:52:05.769Z,user-register,memory,3313664
2023-07-14T10:52:05.769Z,queue-master,memory,268484608
2023-07-14T10:52:05.769Z,carts-post,memory,309886976
2023-07-14T10:52:05.769Z,user,memory,3280896
2023-07-14T10:52:05.769Z,carts-get,memory,312131584
2023-07-14T10:52:15.485Z,carts-get,memory,315891712
2023-07-14T10:52:15.485Z,user-login,memory,3170304
2023-07-14T10:52:15.485Z,catalogue,memory,2543616
2023-07-14T10:52:15.485Z,orders,memory,316755968
2023-07-14T10:52:15.653Z,carts,memory,309690368
2023-07-14T10:52:15.653Z,shipping,memory,295538688
2023-07-14T10:52:15.653Z,carts-delete,memory,304029696
2023-07-14T10:52:15.768Z,carts-post,memory,309886976
2023-07-14T10:52:15.768Z,payment,memory,2633728
2023-07-14T10:52:15.768Z,user-register,memory,3313664
2023-07-14T10:52:15.768Z,user,memory,3280896
2023-07-14T10:52:15.768Z,queue-master,memory,268484608
2023-07-14T10:52:15.768Z,carts-get,memory,312131584
2023-07-14T10:52:25.485Z,catalogue,memory,2551808
2023-07-14T10:52:25.485Z,user-login,memory,3223552
2023-07-14T10:52:25.485Z,orders,memory,317276160
2023-07-14T10:52:25.485Z,carts-get,memory,315891712
2023-07-14T10:52:25.654Z,carts-delete,memory,304074752
2023-07-14T10:52:25.654Z,shipping,memory,295575552
2023-07-14T10:52:25.654Z,carts,memory,309714944
2023-07-14T10:52:25.769Z,queue-master,memory,268537856
2023-07-14T10:52:25.769Z,carts-get,memory,312156160
2023-07-14T10:52:25.769Z,user-register,memory,3399680
2023-07-14T10:52:25.769Z,carts-post,memory,309923840
2023-07-14T10:52:25.769Z,user,memory,3293184
2023-07-14T10:52:25.769Z,payment,memory,2641920
2023-07-14T10:52:35.485Z,carts-get,memory,315916288
2023-07-14T10:52:35.485Z,orders,memory,317566976
2023-07-14T10:52:35.485Z,user-login,memory,3268608
2023-07-14T10:52:35.485Z,catalogue,memory,2568192
2023-07-14T10:52:35.654Z,carts-delete,memory,302997504
2023-07-14T10:52:35.769Z,queue-master,memory,272289792
2023-07-14T10:52:35.654Z,carts,memory,308359168
2023-07-14T10:52:35.769Z,carts-get,memory,312193024
2023-07-14T10:52:35.769Z,carts-post,memory,310026240
2023-07-14T10:52:35.769Z,user-register,memory,3436544
2023-07-14T10:52:35.654Z,shipping,memory,295002112
2023-07-14T10:52:35.769Z,payment,memory,2654208
2023-07-14T10:52:35.769Z,user,memory,3342336
2023-07-14T10:52:45.485Z,orders,memory,317575168
2023-07-14T10:52:45.485Z,catalogue,memory,2572288
2023-07-14T10:52:45.485Z,carts-get,memory,316600320
2023-07-14T10:52:45.485Z,user-login,memory,3321856
2023-07-14T10:52:45.768Z,queue-master,memory,272289792
2023-07-14T10:52:45.654Z,shipping,memory,294862848
2023-07-14T10:52:45.768Z,payment,memory,2654208
2023-07-14T10:52:45.768Z,user,memory,3342336
2023-07-14T10:52:45.654Z,carts,memory,307654656
2023-07-14T10:52:45.768Z,carts-post,memory,310026240
2023-07-14T10:52:45.768Z,user-register,memory,3436544
2023-07-14T10:52:45.654Z,carts-delete,memory,303001600
2023-07-14T10:52:45.768Z,carts-get,memory,312193024
2023-07-14T10:52:55.484Z,catalogue,memory,2572288
2023-07-14T10:52:55.484Z,user-login,memory,3321856
2023-07-14T10:52:55.484Z,carts-get,memory,316600320
2023-07-14T10:52:55.484Z,orders,memory,317575168
2023-07-14T10:52:55.654Z,shipping,memory,294862848
2023-07-14T10:52:55.654Z,carts-delete,memory,303001600
2023-07-14T10:52:55.654Z,carts,memory,307654656
2023-07-14T10:52:55.769Z,carts-get,memory,311713792
2023-07-14T10:52:55.769Z,user-register,memory,3436544
2023-07-14T10:52:55.769Z,carts-post,memory,309559296
2023-07-14T10:52:55.769Z,payment,memory,2682880
2023-07-14T10:52:55.769Z,queue-master,memory,272289792
2023-07-14T10:52:55.769Z,user,memory,3403776
2023-07-14T10:53:05.484Z,carts-get,memory,316702720
2023-07-14T10:53:05.484Z,orders,memory,317575168
2023-07-14T10:53:05.484Z,user-login,memory,3379200
2023-07-14T10:53:05.484Z,catalogue,memory,2584576
2023-07-14T10:53:05.654Z,carts,memory,307654656
2023-07-14T10:53:05.654Z,carts-delete,memory,303104000
2023-07-14T10:53:05.654Z,shipping,memory,294862848
2023-07-14T10:53:05.768Z,queue-master,memory,271339520
2023-07-14T10:53:05.768Z,payment,memory,2703360
2023-07-14T10:53:05.768Z,carts-post,memory,311640064
2023-07-14T10:53:05.768Z,carts-get,memory,310902784
2023-07-14T10:53:05.768Z,user,memory,3485696
2023-07-14T10:53:05.768Z,user-register,memory,3522560
2023-07-14T10:53:15.485Z,orders,memory,317620224
2023-07-14T10:53:15.485Z,carts-get,memory,316403712
2023-07-14T10:53:15.485Z,user-login,memory,3379200
2023-07-14T10:53:15.485Z,catalogue,memory,2613248
2023-07-14T10:53:15.654Z,carts,memory,307326976
2023-07-14T10:53:15.768Z,queue-master,memory,271339520
2023-07-14T10:53:15.654Z,shipping,memory,294940672
2023-07-14T10:53:15.768Z,user,memory,3485696
2023-07-14T10:53:15.768Z,user-register,memory,3522560
2023-07-14T10:53:15.654Z,carts-delete,memory,303112192
2023-07-14T10:53:15.768Z,payment,memory,2703360
2023-07-14T10:53:15.768Z,carts-post,memory,311640064
2023-07-14T10:53:15.768Z,carts-get,memory,310902784
2023-07-14T10:53:25.485Z,catalogue,memory,2613248
2023-07-14T10:53:25.485Z,carts-get,memory,316088320
2023-07-14T10:53:25.485Z,user-login,memory,3407872
2023-07-14T10:53:25.485Z,orders,memory,317452288
2023-07-14T10:53:25.654Z,carts-delete,memory,303112192
2023-07-14T10:53:25.654Z,shipping,memory,294940672
2023-07-14T10:53:25.654Z,carts,memory,307326976
2023-07-14T10:53:25.768Z,queue-master,memory,270364672
2023-07-14T10:53:25.768Z,user,memory,3485696
2023-07-14T10:53:25.768Z,user-register,memory,3522560
2023-07-14T10:53:25.768Z,carts-post,memory,311640064
2023-07-14T10:53:25.768Z,payment,memory,2785280
2023-07-14T10:53:25.768Z,carts-get,memory,310931456
2023-07-14T10:53:35.484Z,orders,memory,317452288
2023-07-14T10:53:35.484Z,catalogue,memory,2621440
2023-07-14T10:53:35.484Z,carts-get,memory,316088320
2023-07-14T10:53:35.484Z,user-login,memory,3407872
2023-07-14T10:53:35.654Z,carts,memory,307236864
2023-07-14T10:53:35.654Z,shipping,memory,294957056
2023-07-14T10:53:35.654Z,carts-delete,memory,303050752
2023-07-14T10:53:35.769Z,carts-get,memory,310947840
2023-07-14T10:53:35.769Z,carts-post,memory,326922240
2023-07-14T10:53:35.769Z,user,memory,3579904
2023-07-14T10:53:35.769Z,queue-master,memory,270557184
2023-07-14T10:53:35.769Z,user-register,memory,3600384
2023-07-14T10:53:35.769Z,payment,memory,2797568
2023-07-14T10:53:45.484Z,orders,memory,315101184
2023-07-14T10:53:45.484Z,carts-get,memory,314769408
2023-07-14T10:53:45.484Z,user-login,memory,3473408
2023-07-14T10:53:45.484Z,catalogue,memory,2646016
2023-07-14T10:53:45.654Z,carts,memory,307236864
2023-07-14T10:53:45.654Z,shipping,memory,294957056
2023-07-14T10:53:45.768Z,user,memory,3579904
2023-07-14T10:53:45.768Z,queue-master,memory,270557184
2023-07-14T10:53:45.768Z,user-register,memory,3600384
2023-07-14T10:53:45.654Z,carts-delete,memory,303050752
2023-07-14T10:53:45.768Z,carts-get,memory,310947840
2023-07-14T10:53:45.768Z,payment,memory,2797568
2023-07-14T10:53:45.768Z,carts-post,memory,326922240
2023-07-14T10:53:55.484Z,user-login,memory,3473408
2023-07-14T10:53:55.484Z,catalogue,memory,2646016
2023-07-14T10:53:55.484Z,orders,memory,315101184
2023-07-14T10:53:55.484Z,carts-get,memory,314769408
2023-07-14T10:53:55.654Z,shipping,memory,294961152
2023-07-14T10:53:55.654Z,carts,memory,307294208
2023-07-14T10:53:55.654Z,carts-delete,memory,303091712
2023-07-14T10:53:55.769Z,carts-post,memory,326922240
2023-07-14T10:53:55.769Z,queue-master,memory,270557184
2023-07-14T10:53:55.769Z,carts-get,memory,310947840
2023-07-14T10:53:55.769Z,user,memory,3616768
2023-07-14T10:53:55.769Z,payment,memory,2818048
2023-07-14T10:53:55.769Z,user-register,memory,3624960
2023-07-14T10:54:05.485Z,user-login,memory,3538944
2023-07-14T10:54:05.485Z,catalogue,memory,2662400
2023-07-14T10:54:05.485Z,carts-get,memory,314769408
2023-07-14T10:54:05.485Z,orders,memory,314400768
2023-07-14T10:54:05.654Z,carts,memory,307326976
2023-07-14T10:54:05.654Z,carts-delete,memory,303165440
2023-07-14T10:54:05.654Z,shipping,memory,294977536
2023-07-14T10:54:05.769Z,payment,memory,2834432
2023-07-14T10:54:05.769Z,carts-get,memory,310968320
2023-07-14T10:54:05.769Z,user,memory,3686400
2023-07-14T10:54:05.769Z,user-register,memory,3698688
2023-07-14T10:54:05.769Z,carts-post,memory,329928704
2023-07-14T10:54:05.769Z,queue-master,memory,270204928
2023-07-14T10:54:15.485Z,orders,memory,314400768
2023-07-14T10:54:15.485Z,catalogue,memory,2686976
2023-07-14T10:54:15.485Z,user-login,memory,3575808
2023-07-14T10:54:15.485Z,carts-get,memory,314793984
2023-07-14T10:54:15.654Z,carts-delete,memory,303484928
2023-07-14T10:54:15.769Z,carts-get,memory,310968320
2023-07-14T10:54:15.769Z,carts-post,memory,329928704
2023-07-14T10:54:15.654Z,carts,memory,307339264
2023-07-14T10:54:15.769Z,user-register,memory,3698688
2023-07-14T10:54:15.769Z,queue-master,memory,270204928
2023-07-14T10:54:15.654Z,shipping,memory,295002112
2023-07-14T10:54:15.769Z,user,memory,3686400
2023-07-14T10:54:15.769Z,payment,memory,2834432
2023-07-14T10:54:25.484Z,orders,memory,313872384
2023-07-14T10:54:25.484Z,catalogue,memory,2695168
2023-07-14T10:54:25.484Z,carts-get,memory,314667008
2023-07-14T10:54:25.484Z,user-login,memory,3592192
2023-07-14T10:54:25.653Z,carts,memory,307339264
2023-07-14T10:54:25.653Z,carts-delete,memory,303484928
2023-07-14T10:54:25.653Z,shipping,memory,295002112
2023-07-14T10:54:25.769Z,user,memory,3719168
2023-07-14T10:54:25.769Z,queue-master,memory,270204928
2023-07-14T10:54:25.769Z,payment,memory,2834432
2023-07-14T10:54:25.769Z,carts-get,memory,311042048
2023-07-14T10:54:25.769Z,carts-post,memory,332148736
2023-07-14T10:54:25.769Z,user-register,memory,3698688
2023-07-14T10:54:35.485Z,carts-get,memory,314667008
2023-07-14T10:54:35.485Z,orders,memory,313872384
2023-07-14T10:54:35.485Z,user-login,memory,3629056
2023-07-14T10:54:35.485Z,catalogue,memory,2711552
2023-07-14T10:54:35.654Z,shipping,memory,295047168
2023-07-14T10:54:35.654Z,carts,memory,307376128
2023-07-14T10:54:35.654Z,carts-delete,memory,303542272
2023-07-14T10:54:35.769Z,carts-post,memory,333131776
2023-07-14T10:54:35.769Z,payment,memory,2846720
2023-07-14T10:54:35.769Z,user,memory,3756032
2023-07-14T10:54:35.769Z,carts-get,memory,311259136
2023-07-14T10:54:35.769Z,user-register,memory,3735552
2023-07-14T10:54:35.769Z,queue-master,memory,270446592
2023-07-14T10:54:45.484Z,user-login,memory,3629056
2023-07-14T10:54:45.484Z,catalogue,memory,2711552
2023-07-14T10:54:45.484Z,orders,memory,313872384
2023-07-14T10:54:45.484Z,carts-get,memory,314667008
2023-07-14T10:54:45.768Z,user,memory,3756032
2023-07-14T10:54:45.768Z,payment,memory,2846720
2023-07-14T10:54:45.653Z,carts,memory,307408896
2023-07-14T10:54:45.653Z,shipping,memory,295149568
2023-07-14T10:54:45.768Z,carts-get,memory,311259136
2023-07-14T10:54:45.653Z,carts-delete,memory,303595520
2023-07-14T10:54:45.768Z,carts-post,memory,333131776
2023-07-14T10:54:45.768Z,user-register,memory,3735552
2023-07-14T10:54:45.768Z,queue-master,memory,270446592
2023-07-14T10:54:55.485Z,catalogue,memory,2711552
2023-07-14T10:54:55.485Z,carts-get,memory,314683392
2023-07-14T10:54:55.485Z,orders,memory,313946112
2023-07-14T10:54:55.485Z,user-login,memory,3629056
2023-07-14T10:54:55.654Z,carts-delete,memory,303599616
2023-07-14T10:54:55.769Z,payment,memory,2871296
2023-07-14T10:54:55.654Z,shipping,memory,295223296
2023-07-14T10:54:55.769Z,carts-post,memory,333131776
2023-07-14T10:54:55.769Z,user-register,memory,3776512
2023-07-14T10:54:55.769Z,carts-get,memory,311283712
2023-07-14T10:54:55.654Z,carts,memory,306135040
2023-07-14T10:54:55.769Z,queue-master,memory,270581760
2023-07-14T10:54:55.769Z,user,memory,3780608
2023-07-14T10:55:05.484Z,orders,memory,314179584
2023-07-14T10:55:05.484Z,carts-get,memory,314683392
2023-07-14T10:55:05.484Z,user-login,memory,3661824
2023-07-14T10:55:05.484Z,catalogue,memory,2727936
2023-07-14T10:55:05.654Z,carts-delete,memory,303599616
2023-07-14T10:55:05.768Z,user-register,memory,3805184
2023-07-14T10:55:05.654Z,shipping,memory,295223296
2023-07-14T10:55:05.768Z,user,memory,3837952
2023-07-14T10:55:05.768Z,carts-get,memory,311451648
2023-07-14T10:55:05.768Z,queue-master,memory,270635008
2023-07-14T10:55:05.654Z,carts,memory,306192384
2023-07-14T10:55:05.768Z,payment,memory,2895872
2023-07-14T10:55:05.768Z,carts-post,memory,326676480
2023-07-14T10:55:15.485Z,orders,memory,314130432
2023-07-14T10:55:15.485Z,catalogue,memory,2813952
2023-07-14T10:55:15.485Z,carts-get,memory,314695680
2023-07-14T10:55:15.485Z,user-login,memory,3719168
2023-07-14T10:55:15.653Z,carts-delete,memory,303599616
2023-07-14T10:55:15.653Z,carts,memory,306192384
2023-07-14T10:55:15.653Z,shipping,memory,295223296
2023-07-14T10:55:15.769Z,carts-post,memory,326676480
2023-07-14T10:55:15.769Z,user-register,memory,3805184
2023-07-14T10:55:15.769Z,queue-master,memory,269942784
2023-07-14T10:55:15.769Z,carts-get,memory,311451648
2023-07-14T10:55:15.769Z,payment,memory,2916352
2023-07-14T10:55:15.769Z,user,memory,3854336
2023-07-14T10:55:25.484Z,orders,memory,314130432
2023-07-14T10:55:25.484Z,catalogue,memory,2813952
2023-07-14T10:55:25.484Z,carts-get,memory,314695680
2023-07-14T10:55:25.484Z,user-login,memory,3719168
2023-07-14T10:55:25.654Z,shipping,memory,295346176
2023-07-14T10:55:25.654Z,carts-delete,memory,303685632
2023-07-14T10:55:25.654Z,carts,memory,306352128
2023-07-14T10:55:25.769Z,payment,memory,2916352
2023-07-14T10:55:25.769Z,user-register,memory,3878912
2023-07-14T10:55:25.769Z,carts-get,memory,311451648
2023-07-14T10:55:25.769Z,carts-post,memory,326787072
2023-07-14T10:55:25.769Z,user,memory,3899392
2023-07-14T10:55:25.769Z,queue-master,memory,269942784
2023-07-14T10:55:35.485Z,user-login,memory,3751936
2023-07-14T10:55:35.485Z,orders,memory,315080704
2023-07-14T10:55:35.485Z,carts-get,memory,312655872
2023-07-14T10:55:35.485Z,catalogue,memory,2813952
2023-07-14T10:55:35.654Z,carts-delete,memory,303697920
2023-07-14T10:55:35.654Z,shipping,memory,295346176
2023-07-14T10:55:35.654Z,carts,memory,306352128
2023-07-14T10:55:35.769Z,payment,memory,2916352
2023-07-14T10:55:35.769Z,user-register,memory,3878912
2023-07-14T10:55:35.769Z,user,memory,3899392
2023-07-14T10:55:35.769Z,carts-get,memory,311451648
2023-07-14T10:55:35.769Z,carts-post,memory,326787072
2023-07-14T10:55:35.769Z,queue-master,memory,269942784
2023-07-14T10:55:45.484Z,user-login,memory,3801088
2023-07-14T10:55:45.484Z,catalogue,memory,2818048
2023-07-14T10:55:45.484Z,orders,memory,315080704
2023-07-14T10:55:45.484Z,carts-get,memory,312655872
2023-07-14T10:55:45.768Z,carts-get,memory,311001088
2023-07-14T10:55:45.654Z,carts-delete,memory,306384896
2023-07-14T10:55:45.768Z,queue-master,memory,269955072
2023-07-14T10:55:45.654Z,shipping,memory,295460864
2023-07-14T10:55:45.768Z,user,memory,3899392
2023-07-14T10:55:45.768Z,user-register,memory,3878912
2023-07-14T10:55:45.654Z,carts,memory,306470912
2023-07-14T10:55:45.768Z,carts-post,memory,326836224
2023-07-14T10:55:45.768Z,payment,memory,2945024
2023-07-14T10:55:55.485Z,catalogue,memory,2838528
2023-07-14T10:55:55.485Z,user-login,memory,3842048
2023-07-14T10:55:55.485Z,carts-get,memory,312688640
2023-07-14T10:55:55.485Z,orders,memory,315260928
2023-07-14T10:55:55.654Z,carts-delete,memory,306384896
2023-07-14T10:55:55.654Z,carts,memory,306470912
2023-07-14T10:55:55.654Z,shipping,memory,295460864
2023-07-14T10:55:55.769Z,payment,memory,2965504
2023-07-14T10:55:55.769Z,carts-get,memory,311001088
2023-07-14T10:55:55.769Z,user-register,memory,3911680
2023-07-14T10:55:55.769Z,queue-master,memory,269955072
2023-07-14T10:55:55.769Z,user,memory,3915776
2023-07-14T10:55:55.769Z,carts-post,memory,326926336
2023-07-14T10:56:05.484Z,catalogue,memory,2838528
2023-07-14T10:56:05.484Z,user-login,memory,3842048
2023-07-14T10:56:05.484Z,carts-get,memory,312688640
2023-07-14T10:56:05.484Z,orders,memory,315260928
2023-07-14T10:56:05.654Z,carts-delete,memory,306384896
2023-07-14T10:56:05.654Z,carts,memory,306589696
2023-07-14T10:56:05.654Z,shipping,memory,295501824
2023-07-14T10:56:05.769Z,carts-post,memory,327004160
2023-07-14T10:56:05.769Z,payment,memory,2977792
2023-07-14T10:56:05.769Z,user,memory,3977216
2023-07-14T10:56:05.769Z,user-register,memory,3940352
2023-07-14T10:56:05.769Z,carts-get,memory,311164928
2023-07-14T10:56:05.769Z,queue-master,memory,268836864
2023-07-14T10:56:15.484Z,catalogue,memory,2838528
2023-07-14T10:56:15.484Z,user-login,memory,3850240
2023-07-14T10:56:15.484Z,orders,memory,315260928
2023-07-14T10:56:15.484Z,carts-get,memory,312688640
2023-07-14T10:56:15.654Z,shipping,memory,295510016
2023-07-14T10:56:15.768Z,user-register,memory,3940352
2023-07-14T10:56:15.654Z,carts,memory,306663424
2023-07-14T10:56:15.768Z,queue-master,memory,268836864
2023-07-14T10:56:15.654Z,carts-delete,memory,311296000
2023-07-14T10:56:15.768Z,carts-post,memory,327004160
2023-07-14T10:56:15.768Z,user,memory,3977216
2023-07-14T10:56:15.768Z,carts-get,memory,311164928
2023-07-14T10:56:15.768Z,payment,memory,2977792
2023-07-14T10:56:25.484Z,catalogue,memory,2871296
2023-07-14T10:56:25.484Z,carts-get,memory,312803328
2023-07-14T10:56:25.484Z,orders,memory,315305984
2023-07-14T10:56:25.484Z,user-login,memory,3960832
2023-07-14T10:56:25.653Z,shipping,memory,295510016
2023-07-14T10:56:25.653Z,carts,memory,306663424
2023-07-14T10:56:25.653Z,carts-delete,memory,311296000
2023-07-14T10:56:25.769Z,queue-master,memory,268517376
2023-07-14T10:56:25.769Z,user-register,memory,3964928
2023-07-14T10:56:25.769Z,payment,memory,2985984
2023-07-14T10:56:25.769Z,user,memory,4009984
2023-07-14T10:56:25.769Z,carts-get,memory,311242752
2023-07-14T10:56:25.769Z,carts-post,memory,327094272
2023-07-14T10:56:35.485Z,carts-get,memory,312803328
2023-07-14T10:56:35.485Z,catalogue,memory,2879488
2023-07-14T10:56:35.485Z,orders,memory,315375616
2023-07-14T10:56:35.485Z,user-login,memory,3960832
2023-07-14T10:56:35.654Z,shipping,memory,295518208
2023-07-14T10:56:35.654Z,carts-delete,memory,316559360
2023-07-14T10:56:35.654Z,carts,memory,306663424
2023-07-14T10:56:35.768Z,queue-master,memory,267943936
2023-07-14T10:56:35.768Z,carts-get,memory,311394304
2023-07-14T10:56:35.768Z,user-register,memory,3997696
2023-07-14T10:56:35.768Z,payment,memory,3031040
2023-07-14T10:56:35.768Z,carts-post,memory,327610368
2023-07-14T10:56:35.768Z,user,memory,4026368
2023-07-14T10:56:45.484Z,carts-get,memory,312803328
2023-07-14T10:56:45.484Z,catalogue,memory,2879488
2023-07-14T10:56:45.484Z,user-login,memory,3960832
2023-07-14T10:56:45.484Z,orders,memory,315375616
2023-07-14T10:56:45.654Z,carts,memory,306700288
2023-07-14T10:56:45.654Z,shipping,memory,295518208
2023-07-14T10:56:45.654Z,carts-delete,memory,316657664
2023-07-14T10:56:45.768Z,carts-get,memory,311394304
2023-07-14T10:56:45.768Z,payment,memory,3031040
2023-07-14T10:56:45.768Z,carts-post,memory,327610368
2023-07-14T10:56:45.768Z,user,memory,4026368
2023-07-14T10:56:45.768Z,user-register,memory,3997696
2023-07-14T10:56:45.768Z,queue-master,memory,267943936
2023-07-14T10:56:55.485Z,orders,memory,315416576
2023-07-14T10:56:55.485Z,user-login,memory,3960832
2023-07-14T10:56:55.485Z,carts-get,memory,312860672
2023-07-14T10:56:55.485Z,catalogue,memory,2912256
2023-07-14T10:56:55.769Z,payment,memory,3039232
2023-07-14T10:56:55.769Z,user-register,memory,4046848
2023-07-14T10:56:55.654Z,shipping,memory,295522304
2023-07-14T10:56:55.769Z,carts-post,memory,327610368
2023-07-14T10:56:55.769Z,user,memory,4026368
2023-07-14T10:56:55.654Z,carts-delete,memory,318922752
2023-07-14T10:56:55.654Z,carts,memory,306696192
2023-07-14T10:56:55.769Z,carts-get,memory,311451648
2023-07-14T10:56:55.769Z,queue-master,memory,267943936
2023-07-14T10:57:05.484Z,user-login,memory,3964928
2023-07-14T10:57:05.484Z,orders,memory,315437056
2023-07-14T10:57:05.484Z,carts-get,memory,312860672
2023-07-14T10:57:05.484Z,catalogue,memory,2912256
2023-07-14T10:57:05.653Z,shipping,memory,295522304
2023-07-14T10:57:05.653Z,carts-delete,memory,318922752
2023-07-14T10:57:05.653Z,carts,memory,306696192
2023-07-14T10:57:05.769Z,payment,memory,3059712
2023-07-14T10:57:05.769Z,queue-master,memory,267776000
2023-07-14T10:57:05.769Z,carts-get,memory,311562240
2023-07-14T10:57:05.769Z,user-register,memory,4087808
2023-07-14T10:57:05.769Z,user,memory,4075520
2023-07-14T10:57:05.769Z,carts-post,memory,327540736
2023-07-14T10:57:15.485Z,orders,memory,315580416
2023-07-14T10:57:15.485Z,carts-get,memory,311959552
2023-07-14T10:57:15.485Z,user-login,memory,4026368
2023-07-14T10:57:15.485Z,catalogue,memory,2920448
2023-07-14T10:57:15.654Z,carts,memory,306724864
2023-07-14T10:57:15.654Z,shipping,memory,295538688
2023-07-14T10:57:15.654Z,carts-delete,memory,320614400
2023-07-14T10:57:15.768Z,queue-master,memory,267776000
2023-07-14T10:57:15.768Z,carts-post,memory,327540736
2023-07-14T10:57:15.768Z,user-register,memory,4087808
2023-07-14T10:57:15.768Z,carts-get,memory,311562240
2023-07-14T10:57:15.768Z,payment,memory,3059712
2023-07-14T10:57:15.768Z,user,memory,4075520
2023-07-14T10:57:25.485Z,carts-get,memory,311615488
2023-07-14T10:57:25.485Z,orders,memory,315617280
2023-07-14T10:57:25.485Z,user-login,memory,4030464
2023-07-14T10:57:25.485Z,catalogue,memory,2936832
2023-07-14T10:57:25.768Z,carts-post,memory,327540736
2023-07-14T10:57:25.654Z,shipping,memory,295538688
2023-07-14T10:57:25.654Z,carts-delete,memory,320675840
2023-07-14T10:57:25.768Z,carts-get,memory,311562240
2023-07-14T10:57:25.768Z,user,memory,4141056
2023-07-14T10:57:25.768Z,queue-master,memory,268869632
2023-07-14T10:57:25.768Z,user-register,memory,4124672
2023-07-14T10:57:25.654Z,carts,memory,306700288
2023-07-14T10:57:25.768Z,payment,memory,3072000
2023-07-14T10:57:35.485Z,carts-get,memory,311660544
2023-07-14T10:57:35.485Z,user-login,memory,4030464
2023-07-14T10:57:35.485Z,catalogue,memory,2936832
2023-07-14T10:57:35.485Z,orders,memory,315670528
2023-07-14T10:57:35.654Z,carts,memory,306700288
2023-07-14T10:57:35.654Z,shipping,memory,295538688
2023-07-14T10:57:35.654Z,carts-delete,memory,320675840
2023-07-14T10:57:35.768Z,user-register,memory,4169728
2023-07-14T10:57:35.768Z,queue-master,memory,280223744
2023-07-14T10:57:35.768Z,carts-post,memory,327573504
2023-07-14T10:57:35.768Z,user,memory,4206592
2023-07-14T10:57:35.768Z,carts-get,memory,311689216
2023-07-14T10:57:35.768Z,payment,memory,3072000
2023-07-14T10:57:45.484Z,user-login,memory,4030464
2023-07-14T10:57:45.484Z,catalogue,memory,2936832
2023-07-14T10:57:45.484Z,carts-get,memory,311660544
2023-07-14T10:57:45.484Z,orders,memory,315670528
2023-07-14T10:57:45.654Z,carts,memory,306700288
2023-07-14T10:57:45.768Z,user,memory,4206592
2023-07-14T10:57:45.768Z,user-register,memory,4169728
2023-07-14T10:57:45.654Z,shipping,memory,295542784
2023-07-14T10:57:45.768Z,carts-get,memory,311689216
2023-07-14T10:57:45.768Z,payment,memory,3072000
2023-07-14T10:57:45.654Z,carts-delete,memory,320675840
2023-07-14T10:57:45.768Z,queue-master,memory,280223744
2023-07-14T10:57:45.768Z,carts-post,memory,327573504
2023-07-14T10:57:55.484Z,carts-get,memory,311275520
2023-07-14T10:57:55.484Z,user-login,memory,4104192
2023-07-14T10:57:55.484Z,catalogue,memory,2965504
2023-07-14T10:57:55.484Z,orders,memory,315670528
2023-07-14T10:57:55.654Z,shipping,memory,295600128
2023-07-14T10:57:55.654Z,carts-delete,memory,320708608
2023-07-14T10:57:55.654Z,carts,memory,304300032
2023-07-14T10:57:55.768Z,queue-master,memory,288239616
2023-07-14T10:57:55.768Z,payment,memory,3088384
2023-07-14T10:57:55.768Z,carts-get,memory,311689216
2023-07-14T10:57:55.768Z,user-register,memory,4198400
2023-07-14T10:57:55.768Z,carts-post,memory,327581696
2023-07-14T10:57:55.768Z,user,memory,4206592
2023-07-14T10:58:05.484Z,carts-get,memory,311275520
2023-07-14T10:58:05.484Z,catalogue,memory,2977792
2023-07-14T10:58:05.484Z,user-login,memory,4104192
2023-07-14T10:58:05.484Z,orders,memory,318836736
2023-07-14T10:58:05.769Z,user-register,memory,4218880
2023-07-14T10:58:05.769Z,payment,memory,3121152
2023-07-14T10:58:05.769Z,user,memory,4268032
2023-07-14T10:58:05.654Z,carts,memory,304517120
2023-07-14T10:58:05.769Z,carts-get,memory,311689216
2023-07-14T10:58:05.769Z,carts-post,memory,327413760
2023-07-14T10:58:05.654Z,shipping,memory,295641088
2023-07-14T10:58:05.654Z,carts-delete,memory,320827392
2023-07-14T10:58:05.769Z,queue-master,memory,289406976
2023-07-14T10:58:15.485Z,catalogue,memory,2981888
2023-07-14T10:58:15.485Z,orders,memory,318889984
2023-07-14T10:58:15.485Z,user-login,memory,4161536
2023-07-14T10:58:15.485Z,carts-get,memory,311123968
2023-07-14T10:58:15.769Z,payment,memory,3121152
2023-07-14T10:58:15.769Z,user,memory,4268032
2023-07-14T10:58:15.769Z,carts-post,memory,327413760
2023-07-14T10:58:15.769Z,user-register,memory,4218880
2023-07-14T10:58:15.769Z,carts-get,memory,311689216
2023-07-14T10:58:15.769Z,queue-master,memory,289406976
2023-07-14T10:58:15.654Z,carts,memory,304566272
2023-07-14T10:58:15.654Z,carts-delete,memory,320925696
2023-07-14T10:58:15.654Z,shipping,memory,295641088
2023-07-14T10:58:25.484Z,orders,memory,318889984
2023-07-14T10:58:25.484Z,user-login,memory,4161536
2023-07-14T10:58:25.484Z,carts-get,memory,311123968
2023-07-14T10:58:25.484Z,catalogue,memory,2981888
2023-07-14T10:58:25.654Z,shipping,memory,295641088
2023-07-14T10:58:25.654Z,carts,memory,304566272
2023-07-14T10:58:25.654Z,carts-delete,memory,320925696
2023-07-14T10:58:25.768Z,user,memory,4268032
2023-07-14T10:58:25.768Z,user-register,memory,4296704
2023-07-14T10:58:25.768Z,queue-master,memory,289472512
2023-07-14T10:58:25.768Z,payment,memory,3121152
2023-07-14T10:58:25.768Z,carts-post,memory,328019968
2023-07-14T10:58:25.768Z,carts-get,memory,311189504
2023-07-14T10:58:35.484Z,user-login,memory,4222976
2023-07-14T10:58:35.484Z,carts-get,memory,311439360
2023-07-14T10:58:35.484Z,catalogue,memory,3018752
2023-07-14T10:58:35.484Z,orders,memory,329113600
2023-07-14T10:58:35.654Z,carts,memory,304566272
2023-07-14T10:58:35.654Z,shipping,memory,295686144
2023-07-14T10:58:35.654Z,carts-delete,memory,320925696
2023-07-14T10:58:35.769Z,user-register,memory,4485120
2023-07-14T10:58:35.769Z,carts-get,memory,311267328
2023-07-14T10:58:35.769Z,payment,memory,3133440
2023-07-14T10:58:35.769Z,user,memory,4329472
2023-07-14T10:58:35.769Z,carts-post,memory,328130560
2023-07-14T10:58:35.769Z,queue-master,memory,293666816
2023-07-14T10:58:45.485Z,user-login,memory,4222976
2023-07-14T10:58:45.485Z,catalogue,memory,3018752
2023-07-14T10:58:45.485Z,carts-get,memory,311480320
2023-07-14T10:58:45.485Z,orders,memory,323657728
2023-07-14T10:58:45.654Z,carts-delete,memory,320921600
2023-07-14T10:58:45.654Z,carts,memory,304594944
2023-07-14T10:58:45.654Z,shipping,memory,295686144
2023-07-14T10:58:45.768Z,user-register,memory,4485120
2023-07-14T10:58:45.768Z,user,memory,4329472
2023-07-14T10:58:45.768Z,carts-get,memory,311267328
2023-07-14T10:58:45.768Z,payment,memory,3133440
2023-07-14T10:58:45.768Z,carts-post,memory,328130560
2023-07-14T10:58:45.768Z,queue-master,memory,293666816
2023-07-14T10:58:55.484Z,carts-get,memory,311480320
2023-07-14T10:58:55.484Z,orders,memory,323657728
2023-07-14T10:58:55.484Z,catalogue,memory,3026944
2023-07-14T10:58:55.484Z,user-login,memory,4272128
2023-07-14T10:58:55.654Z,shipping,memory,295727104
2023-07-14T10:58:55.654Z,carts,memory,304594944
2023-07-14T10:58:55.654Z,carts-delete,memory,320921600
2023-07-14T10:58:55.769Z,carts-get,memory,311267328
2023-07-14T10:58:55.769Z,queue-master,memory,295251968
2023-07-14T10:58:55.769Z,carts-post,memory,328130560
2023-07-14T10:58:55.769Z,user-register,memory,4485120
2023-07-14T10:58:55.769Z,user,memory,4329472
2023-07-14T10:58:55.769Z,payment,memory,3158016
2023-07-14T10:59:05.484Z,catalogue,memory,3059712
2023-07-14T10:59:05.484Z,carts-get,memory,311582720
2023-07-14T10:59:05.484Z,orders,memory,317648896
2023-07-14T10:59:05.484Z,user-login,memory,4296704
2023-07-14T10:59:05.654Z,carts,memory,304599040
2023-07-14T10:59:05.654Z,shipping,memory,295641088
2023-07-14T10:59:05.654Z,carts-delete,memory,320937984
2023-07-14T10:59:05.768Z,carts-get,memory,311296000
2023-07-14T10:59:05.768Z,user-register,memory,4431872
2023-07-14T10:59:05.768Z,carts-post,memory,328290304
2023-07-14T10:59:05.768Z,user,memory,4399104
2023-07-14T10:59:05.768Z,payment,memory,3178496
2023-07-14T10:59:05.768Z,queue-master,memory,295555072
2023-07-14T10:59:15.484Z,carts-get,memory,312311808
2023-07-14T10:59:15.484Z,user-login,memory,4329472
2023-07-14T10:59:15.484Z,catalogue,memory,3076096
2023-07-14T10:59:15.484Z,orders,memory,317681664
2023-07-14T10:59:15.768Z,carts-post,memory,328290304
2023-07-14T10:59:15.768Z,payment,memory,5959680
2023-07-14T10:59:15.768Z,user,memory,4419584
2023-07-14T10:59:15.768Z,carts-get,memory,311418880
2023-07-14T10:59:15.654Z,carts-delete,memory,320958464
2023-07-14T10:59:15.768Z,queue-master,memory,296230912
2023-07-14T10:59:15.654Z,shipping,memory,295694336
2023-07-14T10:59:15.654Z,carts,memory,304611328
2023-07-14T10:59:15.768Z,user-register,memory,4431872
2023-07-14T10:59:25.485Z,orders,memory,317693952
2023-07-14T10:59:25.485Z,carts-get,memory,314613760
2023-07-14T10:59:25.485Z,catalogue,memory,3076096
2023-07-14T10:59:25.485Z,user-login,memory,4329472
2023-07-14T10:59:25.654Z,shipping,memory,295735296
2023-07-14T10:59:25.654Z,carts,memory,304627712
2023-07-14T10:59:25.654Z,carts-delete,memory,320958464
2023-07-14T10:59:25.769Z,payment,memory,5959680
2023-07-14T10:59:25.769Z,carts-post,memory,328921088
2023-07-14T10:59:25.769Z,user-register,memory,5652480
2023-07-14T10:59:25.769Z,user,memory,4419584
2023-07-14T10:59:25.769Z,carts-get,memory,311431168
2023-07-14T10:59:25.769Z,queue-master,memory,296230912
2023-07-14T10:59:35.485Z,catalogue,memory,3084288
2023-07-14T10:59:35.485Z,carts-get,memory,314613760
2023-07-14T10:59:35.485Z,user-login,memory,4374528
2023-07-14T10:59:35.485Z,orders,memory,317693952
2023-07-14T10:59:35.654Z,carts,memory,304627712
2023-07-14T10:59:35.654Z,shipping,memory,295723008
2023-07-14T10:59:35.769Z,user,memory,4419584
2023-07-14T10:59:35.769Z,carts-get,memory,311431168
2023-07-14T10:59:35.654Z,carts-delete,memory,321040384
2023-07-14T10:59:35.769Z,payment,memory,5959680
2023-07-14T10:59:35.769Z,carts-post,memory,328921088
2023-07-14T10:59:35.769Z,user-register,memory,5652480
2023-07-14T10:59:35.769Z,queue-master,memory,296230912
2023-07-14T10:59:45.485Z,carts-get,memory,314613760
2023-07-14T10:59:45.485Z,orders,memory,317693952
2023-07-14T10:59:45.485Z,user-login,memory,4374528
2023-07-14T10:59:45.485Z,catalogue,memory,3084288
2023-07-14T10:59:45.654Z,shipping,memory,295723008
2023-07-14T10:59:45.654Z,carts,memory,304627712
2023-07-14T10:59:45.654Z,carts-delete,memory,321040384
2023-07-14T10:59:45.768Z,user-register,memory,5652480
2023-07-14T10:59:45.768Z,carts-post,memory,328331264
2023-07-14T10:59:45.768Z,payment,memory,5967872
2023-07-14T10:59:45.768Z,user,memory,4460544
2023-07-14T10:59:45.768Z,carts-get,memory,311431168
2023-07-14T10:59:45.768Z,queue-master,memory,296321024
2023-07-14T10:59:55.485Z,orders,memory,317816832
2023-07-14T10:59:55.485Z,carts-get,memory,322080768
2023-07-14T10:59:55.485Z,user-login,memory,4390912
2023-07-14T10:59:55.485Z,catalogue,memory,3084288
2023-07-14T10:59:55.654Z,carts-delete,memory,321052672
2023-07-14T10:59:55.654Z,shipping,memory,295723008
2023-07-14T10:59:55.654Z,carts,memory,304627712
2023-07-14T10:59:55.769Z,carts-post,memory,328335360
2023-07-14T10:59:55.769Z,payment,memory,5992448
2023-07-14T10:59:55.769Z,carts-get,memory,311189504
2023-07-14T10:59:55.769Z,user-register,memory,5668864
2023-07-14T10:59:55.769Z,queue-master,memory,296333312
2023-07-14T10:59:55.769Z,user,memory,4530176
2023-07-14T11:00:05.484Z,user-login,memory,4427776
2023-07-14T11:00:05.484Z,catalogue,memory,3104768
2023-07-14T11:00:05.484Z,carts-get,memory,327917568
2023-07-14T11:00:05.484Z,orders,memory,317890560
2023-07-14T11:00:05.768Z,user,memory,4530176
2023-07-14T11:00:05.654Z,shipping,memory,295858176
2023-07-14T11:00:05.768Z,carts-get,memory,311189504
2023-07-14T11:00:05.768Z,user-register,memory,5668864
2023-07-14T11:00:05.768Z,queue-master,memory,296333312
2023-07-14T11:00:05.768Z,carts-post,memory,328335360
2023-07-14T11:00:05.768Z,payment,memory,5992448
2023-07-14T11:00:05.654Z,carts-delete,memory,321110016
2023-07-14T11:00:05.654Z,carts,memory,304644096
2023-07-14T11:00:15.484Z,orders,memory,317894656
2023-07-14T11:00:15.484Z,catalogue,memory,3141632
2023-07-14T11:00:15.484Z,user-login,memory,4481024
2023-07-14T11:00:15.484Z,carts-get,memory,327938048
2023-07-14T11:00:15.768Z,user,memory,4530176
2023-07-14T11:00:15.768Z,queue-master,memory,296660992
2023-07-14T11:00:15.768Z,carts-get,memory,311189504
2023-07-14T11:00:15.768Z,user-register,memory,5738496
2023-07-14T11:00:15.654Z,carts-delete,memory,321110016
2023-07-14T11:00:15.768Z,payment,memory,5992448
2023-07-14T11:00:15.654Z,carts,memory,304644096
2023-07-14T11:00:15.654Z,shipping,memory,295858176
2023-07-14T11:00:15.768Z,carts-post,memory,328335360
2023-07-14T11:00:25.484Z,orders,memory,317894656
2023-07-14T11:00:25.484Z,carts-get,memory,327938048
2023-07-14T11:00:25.484Z,user-login,memory,4481024
2023-07-14T11:00:25.484Z,catalogue,memory,3141632
2023-07-14T11:00:25.654Z,carts-delete,memory,321110016
2023-07-14T11:00:25.654Z,carts,memory,304644096
2023-07-14T11:00:25.654Z,shipping,memory,295858176
2023-07-14T11:00:25.769Z,carts-post,memory,328335360
2023-07-14T11:00:25.769Z,queue-master,memory,296869888
2023-07-14T11:00:25.769Z,payment,memory,6004736
2023-07-14T11:00:25.769Z,carts-get,memory,311189504
2023-07-14T11:00:25.769Z,user,memory,4567040
2023-07-14T11:00:25.769Z,user-register,memory,5738496
2023-07-14T11:00:35.484Z,user-login,memory,4481024
2023-07-14T11:00:35.484Z,catalogue,memory,3141632
2023-07-14T11:00:35.484Z,carts-get,memory,332156928
2023-07-14T11:00:35.484Z,orders,memory,317915136
2023-07-14T11:00:35.654Z,shipping,memory,295735296
2023-07-14T11:00:35.654Z,carts-delete,memory,321134592
2023-07-14T11:00:35.654Z,carts,memory,304644096
2023-07-14T11:00:35.769Z,queue-master,memory,296906752
2023-07-14T11:00:35.769Z,user,memory,4571136
2023-07-14T11:00:35.769Z,carts-post,memory,328364032
2023-07-14T11:00:35.769Z,carts-get,memory,311148544
2023-07-14T11:00:35.769Z,user-register,memory,5779456
2023-07-14T11:00:35.769Z,payment,memory,6057984
2023-07-14T11:00:45.484Z,user-login,memory,4493312
2023-07-14T11:00:45.484Z,carts-get,memory,332156928
2023-07-14T11:00:45.484Z,orders,memory,317984768
2023-07-14T11:00:45.484Z,catalogue,memory,3153920
2023-07-14T11:00:45.654Z,shipping,memory,295735296
2023-07-14T11:00:45.654Z,carts,memory,304369664
2023-07-14T11:00:45.654Z,carts-delete,memory,321179648
2023-07-14T11:00:45.768Z,queue-master,memory,296906752
2023-07-14T11:00:45.768Z,carts-get,memory,311148544
2023-07-14T11:00:45.768Z,user,memory,4571136
2023-07-14T11:00:45.768Z,user-register,memory,5779456
2023-07-14T11:00:45.768Z,payment,memory,6057984
2023-07-14T11:00:45.768Z,carts-post,memory,328364032
2023-07-14T11:00:55.485Z,carts-get,memory,334503936
2023-07-14T11:00:55.485Z,user-login,memory,4526080
2023-07-14T11:00:55.485Z,catalogue,memory,3182592
2023-07-14T11:00:55.485Z,orders,memory,317992960
2023-07-14T11:00:55.654Z,carts,memory,304373760
2023-07-14T11:00:55.769Z,carts-get,memory,311128064
2023-07-14T11:00:55.769Z,user-register,memory,5816320
2023-07-14T11:00:55.769Z,user,memory,4616192
2023-07-14T11:00:55.654Z,carts-delete,memory,321142784
2023-07-14T11:00:55.654Z,shipping,memory,295968768
2023-07-14T11:00:55.769Z,queue-master,memory,296906752
2023-07-14T11:00:55.769Z,carts-post,memory,328466432
2023-07-14T11:00:55.769Z,payment,memory,6066176
2023-07-14T11:01:05.484Z,carts-get,memory,334503936
2023-07-14T11:01:05.484Z,user-login,memory,4526080
2023-07-14T11:01:05.484Z,catalogue,memory,3182592
2023-07-14T11:01:05.484Z,orders,memory,317992960
2023-07-14T11:01:05.654Z,carts-delete,memory,321159168
2023-07-14T11:01:05.654Z,shipping,memory,295968768
2023-07-14T11:01:05.654Z,carts,memory,304377856
2023-07-14T11:01:05.769Z,carts-post,memory,328556544
2023-07-14T11:01:05.769Z,payment,memory,6082560
2023-07-14T11:01:05.769Z,user,memory,6070272
2023-07-14T11:01:05.769Z,queue-master,memory,297152512
2023-07-14T11:01:05.769Z,carts-get,memory,311148544
2023-07-14T11:01:05.769Z,user-register,memory,5857280
