2023-07-14T10:50:55.484Z,catalogue,network_in,12367
2023-07-14T10:51:05.484Z,user-login,network_in,13350
2023-07-14T10:51:25.485Z,user-login,network_in,17130
2023-07-14T10:51:15.484Z,carts-get,network_in,22635
2023-07-14T10:51:15.484Z,catalogue,network_in,14637
2023-07-14T10:51:25.485Z,carts-get,network_in,33585
2023-07-14T10:51:05.484Z,carts-get,network_in,22635
2023-07-14T10:51:05.484Z,catalogue,network_in,13611
2023-07-14T10:51:05.484Z,orders,network_in,9719
2023-07-14T10:51:15.484Z,user-login,network_in,13350
2023-07-14T10:51:15.484Z,orders,network_in,10438
2023-07-14T10:51:25.485Z,catalogue,network_in,14637
2023-07-14T10:51:25.485Z,orders,network_in,10438
2023-07-14T10:50:45.105Z,catalogue,network_in,12367
2023-07-14T10:50:45.105Z,orders,network_in,8435
2023-07-14T10:50:45.105Z,carts-get,network_in,9949
2023-07-14T10:50:45.105Z,user-login,network_in,9421
2023-07-14T10:50:55.484Z,orders,network_in,9719
2023-07-14T10:50:55.484Z,carts-get,network_in,10770
2023-07-14T10:50:55.484Z,user-login,network_in,9421
2023-07-14T10:50:45.254Z,queue-master,network_in,11530
2023-07-14T10:50:55.768Z,payment,network_in,12400
2023-07-14T10:51:05.771Z,carts-post,network_in,13073
2023-07-14T10:51:15.769Z,carts-post,network_in,29978
2023-07-14T10:51:15.769Z,user,network_in,16099
2023-07-14T10:51:25.768Z,user-register,network_in,20682
2023-07-14T10:50:55.768Z,user-register,network_in,15502
2023-07-14T10:50:55.768Z,carts-post,network_in,13073
2023-07-14T10:50:55.768Z,carts-get,network_in,8772
2023-07-14T10:51:15.769Z,queue-master,network_in,15284
2023-07-14T10:51:25.768Z,payment,network_in,14390
2023-07-14T10:50:45.254Z,user-register,network_in,15502
2023-07-14T10:50:55.768Z,queue-master,network_in,11530
2023-07-14T10:51:05.771Z,user,network_in,14848
2023-07-14T10:51:05.771Z,queue-master,network_in,12968
2023-07-14T10:51:15.769Z,user-register,network_in,20682
2023-07-14T10:51:25.768Z,carts-post,network_in,29978
2023-07-14T10:50:45.254Z,carts-post,network_in,11731
2023-07-14T10:50:45.254Z,carts-get,network_in,7322
2023-07-14T10:50:45.254Z,payment,network_in,10950
2023-07-14T10:50:55.768Z,user,network_in,11466
2023-07-14T10:51:05.771Z,payment,network_in,12400
2023-07-14T10:51:05.771Z,user-register,network_in,17514
2023-07-14T10:51:05.771Z,carts-get,network_in,9375
2023-07-14T10:51:15.769Z,carts-get,network_in,20813
2023-07-14T10:51:15.769Z,payment,network_in,14390
2023-07-14T10:51:25.768Z,queue-master,network_in,15284
2023-07-14T10:51:25.768Z,user,network_in,16099
2023-07-14T10:51:25.768Z,carts-get,network_in,20813
2023-07-14T10:51:35.485Z,catalogue,network_in,14637
2023-07-14T10:51:35.485Z,orders,network_in,10438
2023-07-14T10:51:35.485Z,carts-get,network_in,33585
2023-07-14T10:51:35.485Z,user-login,network_in,17130
2023-07-14T10:51:35.769Z,user,network_in,17831
2023-07-14T10:51:35.769Z,user-register,network_in,21814
2023-07-14T10:51:35.769Z,carts-get,network_in,31763
2023-07-14T10:51:35.769Z,payment,network_in,17072
2023-07-14T10:51:35.769Z,carts-post,network_in,35519
2023-07-14T10:51:35.769Z,queue-master,network_in,16384
2023-07-14T10:50:45.145Z,carts,network_in,10960
2023-07-14T10:50:55.654Z,carts-delete,network_in,11376
2023-07-14T10:51:05.654Z,shipping,network_in,5676
2023-07-14T10:51:25.654Z,shipping,network_in,12143
2023-07-14T10:51:35.653Z,shipping,network_in,12143
2023-07-14T10:51:05.654Z,carts,network_in,10960
2023-07-14T10:51:25.654Z,carts,network_in,25093
2023-07-14T10:51:35.653Z,carts,network_in,25093
2023-07-14T10:50:45.145Z,carts-delete,network_in,11376
2023-07-14T10:50:45.145Z,shipping,network_in,4918
2023-07-14T10:50:55.654Z,shipping,network_in,5676
2023-07-14T10:51:05.654Z,carts-delete,network_in,11376
2023-07-14T10:51:15.654Z,carts-delete,network_in,13290
2023-07-14T10:51:15.654Z,shipping,network_in,5676
2023-07-14T10:51:35.653Z,carts-delete,network_in,34367
2023-07-14T10:50:55.654Z,carts,network_in,10960
2023-07-14T10:51:15.654Z,carts,network_in,12494
2023-07-14T10:51:25.654Z,carts-delete,network_in,34367
2023-07-14T10:51:45.484Z,user-login,network_in,18615
2023-07-14T10:51:45.484Z,orders,network_in,20370
2023-07-14T10:51:45.484Z,carts-get,network_in,33585
2023-07-14T10:51:45.484Z,catalogue,network_in,16491
2023-07-14T10:51:45.654Z,carts-delete,network_in,45454
2023-07-14T10:51:45.768Z,user,network_in,17831
2023-07-14T10:51:45.654Z,shipping,network_in,12143
2023-07-14T10:51:45.768Z,user-register,network_in,21814
2023-07-14T10:51:45.768Z,carts-get,network_in,31763
2023-07-14T10:51:45.768Z,carts-post,network_in,35519
2023-07-14T10:51:45.654Z,carts,network_in,36643
2023-07-14T10:51:45.768Z,payment,network_in,17072
2023-07-14T10:51:45.768Z,queue-master,network_in,16384
2023-07-14T10:51:55.485Z,orders,network_in,27004
2023-07-14T10:51:55.485Z,catalogue,network_in,18559
2023-07-14T10:51:55.485Z,carts-get,network_in,44500
2023-07-14T10:51:55.485Z,user-login,network_in,21607
2023-07-14T10:51:55.654Z,shipping,network_in,14463
2023-07-14T10:51:55.654Z,carts-delete,network_in,51299
2023-07-14T10:51:55.654Z,carts,network_in,42628
2023-07-14T10:51:55.769Z,queue-master,network_in,20010
2023-07-14T10:51:55.769Z,user-register,network_in,26468
2023-07-14T10:51:55.769Z,carts-get,network_in,42538
2023-07-14T10:51:55.769Z,carts-post,network_in,52045
2023-07-14T10:51:55.769Z,payment,network_in,18378
2023-07-14T10:51:55.769Z,user,network_in,22555
2023-07-14T10:52:05.484Z,catalogue,network_in,18559
2023-07-14T10:52:05.484Z,orders,network_in,27004
2023-07-14T10:52:05.484Z,carts-get,network_in,44500
2023-07-14T10:52:05.484Z,user-login,network_in,21607
2023-07-14T10:52:05.654Z,carts-delete,network_in,51299
2023-07-14T10:52:05.654Z,carts,network_in,42628
2023-07-14T10:52:05.654Z,shipping,network_in,14463
2023-07-14T10:52:05.769Z,payment,network_in,18378
2023-07-14T10:52:05.769Z,user-register,network_in,27859
2023-07-14T10:52:05.769Z,queue-master,network_in,20010
2023-07-14T10:52:05.769Z,carts-post,network_in,52045
2023-07-14T10:52:05.769Z,user,network_in,22555
2023-07-14T10:52:05.769Z,carts-get,network_in,48612
2023-07-14T10:52:15.485Z,carts-get,network_in,50434
2023-07-14T10:52:15.485Z,user-login,network_in,25395
2023-07-14T10:52:15.485Z,catalogue,network_in,19729
2023-07-14T10:52:15.485Z,orders,network_in,42045
2023-07-14T10:52:15.653Z,carts,network_in,54322
2023-07-14T10:52:15.653Z,shipping,network_in,15905
2023-07-14T10:52:15.653Z,carts-delete,network_in,57817
2023-07-14T10:52:15.768Z,carts-post,network_in,52045
2023-07-14T10:52:15.768Z,payment,network_in,18378
2023-07-14T10:52:15.768Z,user-register,network_in,27859
2023-07-14T10:52:15.768Z,user,network_in,22555
2023-07-14T10:52:15.768Z,queue-master,network_in,20010
2023-07-14T10:52:15.768Z,carts-get,network_in,48612
2023-07-14T10:52:25.485Z,catalogue,network_in,19729
2023-07-14T10:52:25.485Z,user-login,network_in,25395
2023-07-14T10:52:25.485Z,orders,network_in,42045
2023-07-14T10:52:25.485Z,carts-get,network_in,55843
2023-07-14T10:52:25.654Z,carts-delete,network_in,63596
2023-07-14T10:52:25.654Z,shipping,network_in,15905
2023-07-14T10:52:25.654Z,carts,network_in,59965
2023-07-14T10:52:25.769Z,queue-master,network_in,21444
2023-07-14T10:52:25.769Z,carts-get,network_in,48612
2023-07-14T10:52:25.769Z,user-register,network_in,27859
2023-07-14T10:52:25.769Z,carts-post,network_in,63069
2023-07-14T10:52:25.769Z,user,network_in,23876
2023-07-14T10:52:25.769Z,payment,network_in,20446
2023-07-14T10:52:35.485Z,carts-get,network_in,55843
2023-07-14T10:52:35.485Z,orders,network_in,48399
2023-07-14T10:52:35.485Z,user-login,network_in,27624
2023-07-14T10:52:35.485Z,catalogue,network_in,21583
2023-07-14T10:52:35.654Z,carts-delete,network_in,75014
2023-07-14T10:52:35.769Z,queue-master,network_in,23636
2023-07-14T10:52:35.654Z,carts,network_in,71317
2023-07-14T10:52:35.769Z,carts-get,network_in,59632
2023-07-14T10:52:35.769Z,carts-post,network_in,73953
2023-07-14T10:52:35.769Z,user-register,network_in,32093
2023-07-14T10:52:35.654Z,shipping,network_in,20545
2023-07-14T10:52:35.769Z,payment,network_in,21340
2023-07-14T10:52:35.769Z,user,network_in,26859
2023-07-14T10:52:45.485Z,orders,network_in,59917
2023-07-14T10:52:45.485Z,catalogue,network_in,23437
2023-07-14T10:52:45.485Z,carts-get,network_in,77677
2023-07-14T10:52:45.485Z,user-login,network_in,31948
2023-07-14T10:52:45.768Z,queue-master,network_in,23636
2023-07-14T10:52:45.654Z,shipping,network_in,20545
2023-07-14T10:52:45.768Z,payment,network_in,21340
2023-07-14T10:52:45.768Z,user,network_in,26859
2023-07-14T10:52:45.654Z,carts,network_in,77092
2023-07-14T10:52:45.768Z,carts-post,network_in,73953
2023-07-14T10:52:45.768Z,user-register,network_in,32093
2023-07-14T10:52:45.654Z,carts-delete,network_in,75014
2023-07-14T10:52:45.768Z,carts-get,network_in,59632
2023-07-14T10:52:55.484Z,catalogue,network_in,23437
2023-07-14T10:52:55.484Z,user-login,network_in,31948
2023-07-14T10:52:55.484Z,carts-get,network_in,77677
2023-07-14T10:52:55.484Z,orders,network_in,59917
2023-07-14T10:52:55.654Z,shipping,network_in,20545
2023-07-14T10:52:55.654Z,carts-delete,network_in,75014
2023-07-14T10:52:55.654Z,carts,network_in,77092
2023-07-14T10:52:55.769Z,carts-get,network_in,70197
2023-07-14T10:52:55.769Z,user-register,network_in,32093
2023-07-14T10:52:55.769Z,carts-post,network_in,73953
2023-07-14T10:52:55.769Z,payment,network_in,23128
2023-07-14T10:52:55.769Z,queue-master,network_in,25688
2023-07-14T10:52:55.769Z,user,network_in,26859
2023-07-14T10:53:05.484Z,carts-get,network_in,77677
2023-07-14T10:53:05.484Z,orders,network_in,65742
2023-07-14T10:53:05.484Z,user-login,network_in,31948
2023-07-14T10:53:05.484Z,catalogue,network_in,24397
2023-07-14T10:53:05.654Z,carts,network_in,77092
2023-07-14T10:53:05.654Z,carts-delete,network_in,86300
2023-07-14T10:53:05.654Z,shipping,network_in,22663
2023-07-14T10:53:05.768Z,queue-master,network_in,26912
2023-07-14T10:53:05.768Z,payment,network_in,24916
2023-07-14T10:53:05.768Z,carts-post,network_in,90180
2023-07-14T10:53:05.768Z,carts-get,network_in,76123
2023-07-14T10:53:05.768Z,user,network_in,29361
2023-07-14T10:53:05.768Z,user-register,network_in,33944
2023-07-14T10:53:15.485Z,orders,network_in,65742
2023-07-14T10:53:15.485Z,carts-get,network_in,83086
2023-07-14T10:53:15.485Z,user-login,network_in,35399
2023-07-14T10:53:15.485Z,catalogue,network_in,26251
2023-07-14T10:53:15.654Z,carts,network_in,94087
2023-07-14T10:53:15.768Z,queue-master,network_in,26912
2023-07-14T10:53:15.654Z,shipping,network_in,23973
2023-07-14T10:53:15.768Z,user,network_in,29361
2023-07-14T10:53:15.768Z,user-register,network_in,33944
2023-07-14T10:53:15.654Z,carts-delete,network_in,103295
2023-07-14T10:53:15.768Z,payment,network_in,24916
2023-07-14T10:53:15.768Z,carts-post,network_in,90180
2023-07-14T10:53:15.768Z,carts-get,network_in,76123
2023-07-14T10:53:25.485Z,catalogue,network_in,26251
2023-07-14T10:53:25.485Z,carts-get,network_in,93519
2023-07-14T10:53:25.485Z,user-login,network_in,35399
2023-07-14T10:53:25.485Z,orders,network_in,77458
2023-07-14T10:53:25.654Z,carts-delete,network_in,103295
2023-07-14T10:53:25.654Z,shipping,network_in,23973
2023-07-14T10:53:25.654Z,carts,network_in,94087
2023-07-14T10:53:25.768Z,queue-master,network_in,29096
2023-07-14T10:53:25.768Z,user,network_in,32344
2023-07-14T10:53:25.768Z,user-register,network_in,36327
2023-07-14T10:53:25.768Z,carts-post,network_in,96106
2023-07-14T10:53:25.768Z,payment,network_in,25810
2023-07-14T10:53:25.768Z,carts-get,network_in,86622
2023-07-14T10:53:35.484Z,orders,network_in,89112
2023-07-14T10:53:35.484Z,catalogue,network_in,28175
2023-07-14T10:53:35.484Z,carts-get,network_in,93519
2023-07-14T10:53:35.484Z,user-login,network_in,38920
2023-07-14T10:53:35.654Z,carts,network_in,94087
2023-07-14T10:53:35.654Z,shipping,network_in,23973
2023-07-14T10:53:35.654Z,carts-delete,network_in,103295
2023-07-14T10:53:35.769Z,carts-get,network_in,92416
2023-07-14T10:53:35.769Z,carts-post,network_in,101515
2023-07-14T10:53:35.769Z,user,network_in,35327
2023-07-14T10:53:35.769Z,queue-master,network_in,30328
2023-07-14T10:53:35.769Z,user-register,network_in,39310
2023-07-14T10:53:35.769Z,payment,network_in,27598
2023-07-14T10:53:45.484Z,orders,network_in,100906
2023-07-14T10:53:45.484Z,carts-get,network_in,104539
2023-07-14T10:53:45.484Z,user-login,network_in,40615
2023-07-14T10:53:45.484Z,catalogue,network_in,29069
2023-07-14T10:53:45.654Z,carts,network_in,105575
2023-07-14T10:53:45.654Z,shipping,network_in,26359
2023-07-14T10:53:45.768Z,user,network_in,35327
2023-07-14T10:53:45.768Z,queue-master,network_in,30328
2023-07-14T10:53:45.768Z,user-register,network_in,39310
2023-07-14T10:53:45.654Z,carts-delete,network_in,114320
2023-07-14T10:53:45.768Z,carts-get,network_in,92416
2023-07-14T10:53:45.768Z,payment,network_in,27598
2023-07-14T10:53:45.768Z,carts-post,network_in,101515
2023-07-14T10:53:55.484Z,user-login,network_in,40615
2023-07-14T10:53:55.484Z,catalogue,network_in,29069
2023-07-14T10:53:55.484Z,orders,network_in,100906
2023-07-14T10:53:55.484Z,carts-get,network_in,104539
2023-07-14T10:53:55.654Z,shipping,network_in,26359
2023-07-14T10:53:55.654Z,carts,network_in,105575
2023-07-14T10:53:55.654Z,carts-delete,network_in,114320
2023-07-14T10:53:55.769Z,carts-post,network_in,112741
2023-07-14T10:53:55.769Z,queue-master,network_in,31494
2023-07-14T10:53:55.769Z,carts-get,network_in,103191
2023-07-14T10:53:55.769Z,user,network_in,36788
2023-07-14T10:53:55.769Z,payment,network_in,29662
2023-07-14T10:53:55.769Z,user-register,network_in,40701
2023-07-14T10:54:05.485Z,user-login,network_in,44202
2023-07-14T10:54:05.485Z,catalogue,network_in,30173
2023-07-14T10:54:05.485Z,carts-get,network_in,110815
2023-07-14T10:54:05.485Z,orders,network_in,106801
2023-07-14T10:54:05.654Z,carts,network_in,111883
2023-07-14T10:54:05.654Z,carts-delete,network_in,120562
2023-07-14T10:54:05.654Z,shipping,network_in,28667
2023-07-14T10:54:05.769Z,payment,network_in,30626
2023-07-14T10:54:05.769Z,carts-get,network_in,108985
2023-07-14T10:54:05.769Z,user,network_in,39841
2023-07-14T10:54:05.769Z,user-register,network_in,43420
2023-07-14T10:54:05.769Z,carts-post,network_in,118220
2023-07-14T10:54:05.769Z,queue-master,network_in,33682
2023-07-14T10:54:15.485Z,orders,network_in,106801
2023-07-14T10:54:15.485Z,user-login,network_in,44202
2023-07-14T10:54:15.485Z,carts-get,network_in,116294
2023-07-14T10:54:15.485Z,catalogue,network_in,32237
2023-07-14T10:54:15.654Z,carts-delete,network_in,131727
2023-07-14T10:54:15.769Z,carts-get,network_in,108985
2023-07-14T10:54:15.769Z,carts-post,network_in,118220
2023-07-14T10:54:15.769Z,queue-master,network_in,33682
2023-07-14T10:54:15.654Z,carts,network_in,128625
2023-07-14T10:54:15.769Z,user-register,network_in,43420
2023-07-14T10:54:15.654Z,shipping,network_in,30859
2023-07-14T10:54:15.769Z,user,network_in,39841
2023-07-14T10:54:15.769Z,payment,network_in,30626
2023-07-14T10:54:25.484Z,orders,network_in,112700
2023-07-14T10:54:25.484Z,catalogue,network_in,34025
2023-07-14T10:54:25.484Z,carts-get,network_in,127244
2023-07-14T10:54:25.484Z,user-login,network_in,49344
2023-07-14T10:54:25.653Z,carts,network_in,128625
2023-07-14T10:54:25.653Z,carts-delete,network_in,131727
2023-07-14T10:54:25.653Z,shipping,network_in,30859
2023-07-14T10:54:25.769Z,user,network_in,41232
2023-07-14T10:54:25.769Z,queue-master,network_in,36138
2023-07-14T10:54:25.769Z,payment,network_in,30626
2023-07-14T10:54:25.769Z,carts-get,network_in,120075
2023-07-14T10:54:25.769Z,carts-post,network_in,129376
2023-07-14T10:54:25.769Z,user-register,network_in,45145
2023-07-14T10:54:35.485Z,carts-get,network_in,137743
2023-07-14T10:54:35.485Z,orders,network_in,124218
2023-07-14T10:54:35.485Z,user-login,network_in,50829
2023-07-14T10:54:35.485Z,catalogue,network_in,34025
2023-07-14T10:54:35.654Z,shipping,network_in,32375
2023-07-14T10:54:35.654Z,carts,network_in,134404
2023-07-14T10:54:35.654Z,carts-delete,network_in,137903
2023-07-14T10:54:35.769Z,carts-post,network_in,134987
2023-07-14T10:54:35.769Z,payment,network_in,34412
2023-07-14T10:54:35.769Z,user,network_in,45536
2023-07-14T10:54:35.769Z,carts-get,network_in,130780
2023-07-14T10:54:35.769Z,user-register,network_in,48268
2023-07-14T10:54:35.769Z,queue-master,network_in,38734
2023-07-14T10:54:45.484Z,user-login,network_in,50829
2023-07-14T10:54:45.484Z,catalogue,network_in,34025
2023-07-14T10:54:45.484Z,orders,network_in,124218
2023-07-14T10:54:45.484Z,carts-get,network_in,137743
2023-07-14T10:54:45.768Z,user,network_in,45536
2023-07-14T10:54:45.768Z,payment,network_in,34412
2023-07-14T10:54:45.653Z,carts,network_in,140646
2023-07-14T10:54:45.653Z,shipping,network_in,34493
2023-07-14T10:54:45.768Z,carts-get,network_in,130780
2023-07-14T10:54:45.653Z,carts-delete,network_in,149325
2023-07-14T10:54:45.768Z,carts-post,network_in,134987
2023-07-14T10:54:45.768Z,user-register,network_in,48268
2023-07-14T10:54:45.768Z,queue-master,network_in,38734
2023-07-14T10:54:55.485Z,catalogue,network_in,35813
2023-07-14T10:54:55.485Z,carts-get,network_in,143152
2023-07-14T10:54:55.485Z,orders,network_in,130043
2023-07-14T10:54:55.485Z,user-login,network_in,50829
2023-07-14T10:54:55.654Z,carts-delete,network_in,160148
2023-07-14T10:54:55.769Z,payment,network_in,35376
2023-07-14T10:54:55.654Z,shipping,network_in,36933
2023-07-14T10:54:55.769Z,carts-post,network_in,145688
2023-07-14T10:54:55.769Z,user-register,network_in,50721
2023-07-14T10:54:55.769Z,carts-get,network_in,136644
2023-07-14T10:54:55.654Z,carts,network_in,140646
2023-07-14T10:54:55.769Z,queue-master,network_in,39962
2023-07-14T10:54:55.769Z,user,network_in,46738
2023-07-14T10:55:05.484Z,orders,network_in,141230
2023-07-14T10:55:05.484Z,carts-get,network_in,148627
2023-07-14T10:55:05.484Z,user-login,network_in,52992
2023-07-14T10:55:05.484Z,catalogue,network_in,35813
2023-07-14T10:55:05.654Z,carts-delete,network_in,160148
2023-07-14T10:55:05.768Z,user-register,network_in,52691
2023-07-14T10:55:05.654Z,shipping,network_in,36933
2023-07-14T10:55:05.768Z,user,network_in,48708
2023-07-14T10:55:05.768Z,carts-get,network_in,147275
2023-07-14T10:55:05.768Z,queue-master,network_in,41054
2023-07-14T10:55:05.654Z,carts,network_in,151998
2023-07-14T10:55:05.768Z,payment,network_in,36270
2023-07-14T10:55:05.768Z,carts-post,network_in,151548
2023-07-14T10:55:15.485Z,orders,network_in,147452
2023-07-14T10:55:15.485Z,catalogue,network_in,37667
2023-07-14T10:55:15.485Z,carts-get,network_in,154553
2023-07-14T10:55:15.485Z,user-login,network_in,55765
2023-07-14T10:55:15.653Z,carts-delete,network_in,160148
2023-07-14T10:55:15.653Z,carts,network_in,151998
2023-07-14T10:55:15.653Z,shipping,network_in,36933
2023-07-14T10:55:15.769Z,carts-post,network_in,151548
2023-07-14T10:55:15.769Z,user-register,network_in,52691
2023-07-14T10:55:15.769Z,queue-master,network_in,43106
2023-07-14T10:55:15.769Z,carts-get,network_in,147275
2023-07-14T10:55:15.769Z,payment,network_in,38058
2023-07-14T10:55:15.769Z,user,network_in,48708
2023-07-14T10:55:25.484Z,orders,network_in,147452
2023-07-14T10:55:25.484Z,carts-get,network_in,154553
2023-07-14T10:55:25.484Z,user-login,network_in,55765
2023-07-14T10:55:25.484Z,catalogue,network_in,37667
2023-07-14T10:55:25.654Z,shipping,network_in,38177
2023-07-14T10:55:25.654Z,carts-delete,network_in,166320
2023-07-14T10:55:25.654Z,carts,network_in,151998
2023-07-14T10:55:25.769Z,payment,network_in,38058
2023-07-14T10:55:25.769Z,user-register,network_in,55074
2023-07-14T10:55:25.769Z,carts-get,network_in,158225
2023-07-14T10:55:25.769Z,carts-post,network_in,162498
2023-07-14T10:55:25.769Z,user,network_in,51091
2023-07-14T10:55:25.769Z,queue-master,network_in,43106
2023-07-14T10:55:35.485Z,user-login,network_in,57316
2023-07-14T10:55:35.485Z,orders,network_in,158970
2023-07-14T10:55:35.485Z,carts-get,network_in,154553
2023-07-14T10:55:35.485Z,catalogue,network_in,37667
2023-07-14T10:55:35.654Z,carts-delete,network_in,172029
2023-07-14T10:55:35.654Z,shipping,network_in,40361
2023-07-14T10:55:35.654Z,carts,network_in,162821
2023-07-14T10:55:35.769Z,payment,network_in,38058
2023-07-14T10:55:35.769Z,user-register,network_in,55074
2023-07-14T10:55:35.769Z,user,network_in,51091
2023-07-14T10:55:35.769Z,carts-get,network_in,158225
2023-07-14T10:55:35.769Z,carts-post,network_in,162498
2023-07-14T10:55:35.769Z,queue-master,network_in,43106
2023-07-14T10:55:45.484Z,user-login,network_in,60767
2023-07-14T10:55:45.484Z,catalogue,network_in,39521
2023-07-14T10:55:45.484Z,orders,network_in,158970
2023-07-14T10:55:45.484Z,carts-get,network_in,165437
2023-07-14T10:55:45.768Z,carts-get,network_in,163634
2023-07-14T10:55:45.654Z,carts-delete,network_in,189090
2023-07-14T10:55:45.768Z,queue-master,network_in,45298
2023-07-14T10:55:45.654Z,shipping,network_in,41597
2023-07-14T10:55:45.768Z,user,network_in,54074
2023-07-14T10:55:45.768Z,user-register,network_in,56925
2023-07-14T10:55:45.654Z,carts,network_in,174239
2023-07-14T10:55:45.768Z,carts-post,network_in,162498
2023-07-14T10:55:45.768Z,payment,network_in,39846
2023-07-14T10:55:55.485Z,catalogue,network_in,41375
2023-07-14T10:55:55.485Z,user-login,network_in,62252
2023-07-14T10:55:55.485Z,carts-get,network_in,181345
2023-07-14T10:55:55.485Z,orders,network_in,170752
2023-07-14T10:55:55.654Z,carts-delete,network_in,189090
2023-07-14T10:55:55.654Z,carts,network_in,174239
2023-07-14T10:55:55.654Z,shipping,network_in,41597
2023-07-14T10:55:55.769Z,payment,network_in,40740
2023-07-14T10:55:55.769Z,carts-get,network_in,169043
2023-07-14T10:55:55.769Z,user-register,network_in,59308
2023-07-14T10:55:55.769Z,queue-master,network_in,46456
2023-07-14T10:55:55.769Z,user,network_in,54074
2023-07-14T10:55:55.769Z,carts-post,network_in,173382
2023-07-14T10:56:05.484Z,catalogue,network_in,41375
2023-07-14T10:56:05.484Z,user-login,network_in,62252
2023-07-14T10:56:05.484Z,carts-get,network_in,181345
2023-07-14T10:56:05.484Z,orders,network_in,170752
2023-07-14T10:56:05.654Z,carts-delete,network_in,189090
2023-07-14T10:56:05.654Z,carts,network_in,185591
2023-07-14T10:56:05.654Z,shipping,network_in,42665
2023-07-14T10:56:05.769Z,carts-post,network_in,189675
2023-07-14T10:56:05.769Z,payment,network_in,41634
2023-07-14T10:56:05.769Z,user,network_in,58308
2023-07-14T10:56:05.769Z,user-register,network_in,62291
2023-07-14T10:56:05.769Z,carts-get,network_in,174837
2023-07-14T10:56:05.769Z,queue-master,network_in,47680
2023-07-14T10:56:15.484Z,catalogue,network_in,42269
2023-07-14T10:56:15.484Z,user-login,network_in,65703
2023-07-14T10:56:15.484Z,orders,network_in,182468
2023-07-14T10:56:15.484Z,carts-get,network_in,181345
2023-07-14T10:56:15.654Z,shipping,network_in,44981
2023-07-14T10:56:15.768Z,user-register,network_in,62291
2023-07-14T10:56:15.654Z,carts,network_in,197009
2023-07-14T10:56:15.768Z,queue-master,network_in,47680
2023-07-14T10:56:15.654Z,carts-delete,network_in,200045
2023-07-14T10:56:15.768Z,carts-post,network_in,189675
2023-07-14T10:56:15.768Z,user,network_in,58308
2023-07-14T10:56:15.768Z,carts-get,network_in,174837
2023-07-14T10:56:15.768Z,payment,network_in,41634
2023-07-14T10:56:25.484Z,catalogue,network_in,44951
2023-07-14T10:56:25.484Z,carts-get,network_in,197836
2023-07-14T10:56:25.484Z,orders,network_in,188359
2023-07-14T10:56:25.484Z,user-login,network_in,67866
2023-07-14T10:56:25.653Z,shipping,network_in,44981
2023-07-14T10:56:25.653Z,carts-delete,network_in,200045
2023-07-14T10:56:25.653Z,carts,network_in,197009
2023-07-14T10:56:25.769Z,queue-master,network_in,48838
2023-07-14T10:56:25.769Z,user-register,network_in,63542
2023-07-14T10:56:25.769Z,payment,network_in,41634
2023-07-14T10:56:25.769Z,user,network_in,58308
2023-07-14T10:56:25.769Z,carts-get,network_in,185336
2023-07-14T10:56:25.769Z,carts-post,network_in,189675
2023-07-14T10:56:35.485Z,carts-get,network_in,197836
2023-07-14T10:56:35.485Z,catalogue,network_in,44951
2023-07-14T10:56:35.485Z,orders,network_in,199480
2023-07-14T10:56:35.485Z,user-login,network_in,67866
2023-07-14T10:56:35.654Z,shipping,network_in,46225
2023-07-14T10:56:35.654Z,carts-delete,network_in,211463
2023-07-14T10:56:35.654Z,carts,network_in,197009
2023-07-14T10:56:35.768Z,queue-master,network_in,51162
2023-07-14T10:56:35.768Z,carts-get,network_in,196352
2023-07-14T10:56:35.768Z,user-register,network_in,65393
2023-07-14T10:56:35.768Z,payment,network_in,44316
2023-07-14T10:56:35.768Z,carts-post,network_in,206166
2023-07-14T10:56:35.768Z,user,network_in,62542
2023-07-14T10:56:45.484Z,carts-get,network_in,197836
2023-07-14T10:56:45.484Z,catalogue,network_in,44951
2023-07-14T10:56:45.484Z,user-login,network_in,67866
2023-07-14T10:56:45.484Z,orders,network_in,199480
2023-07-14T10:56:45.654Z,carts,network_in,202652
2023-07-14T10:56:45.654Z,shipping,network_in,48487
2023-07-14T10:56:45.654Z,carts-delete,network_in,217106
2023-07-14T10:56:45.768Z,carts-get,network_in,196352
2023-07-14T10:56:45.768Z,payment,network_in,44316
2023-07-14T10:56:45.768Z,carts-post,network_in,206166
2023-07-14T10:56:45.768Z,user,network_in,62542
2023-07-14T10:56:45.768Z,user-register,network_in,65393
2023-07-14T10:56:45.768Z,queue-master,network_in,51162
2023-07-14T10:56:55.485Z,orders,network_in,199480
2023-07-14T10:56:55.485Z,user-login,network_in,70639
2023-07-14T10:56:55.485Z,carts-get,network_in,203696
2023-07-14T10:56:55.485Z,catalogue,network_in,46739
2023-07-14T10:56:55.769Z,payment,network_in,46104
2023-07-14T10:56:55.769Z,user-register,network_in,66525
2023-07-14T10:56:55.654Z,shipping,network_in,49687
2023-07-14T10:56:55.769Z,carts-post,network_in,206166
2023-07-14T10:56:55.769Z,user,network_in,62542
2023-07-14T10:56:55.654Z,carts-delete,network_in,222815
2023-07-14T10:56:55.654Z,carts,network_in,214004
2023-07-14T10:56:55.769Z,carts-get,network_in,202212
2023-07-14T10:56:55.769Z,queue-master,network_in,53346
2023-07-14T10:57:05.484Z,user-login,network_in,72124
2023-07-14T10:57:05.484Z,orders,network_in,205702
2023-07-14T10:57:05.484Z,carts-get,network_in,209237
2023-07-14T10:57:05.484Z,catalogue,network_in,46739
2023-07-14T10:57:05.653Z,shipping,network_in,49687
2023-07-14T10:57:05.653Z,carts-delete,network_in,222815
2023-07-14T10:57:05.653Z,carts,network_in,214004
2023-07-14T10:57:05.769Z,payment,network_in,47064
2023-07-14T10:57:05.769Z,queue-master,network_in,55662
2023-07-14T10:57:05.769Z,carts-get,network_in,207687
2023-07-14T10:57:05.769Z,user-register,network_in,69574
2023-07-14T10:57:05.769Z,user,network_in,65525
2023-07-14T10:57:05.769Z,carts-post,network_in,222140
2023-07-14T10:57:15.485Z,orders,network_in,217290
2023-07-14T10:57:15.485Z,carts-get,network_in,220257
2023-07-14T10:57:15.485Z,user-login,network_in,75645
2023-07-14T10:57:15.485Z,catalogue,network_in,47703
2023-07-14T10:57:15.654Z,carts,network_in,225488
2023-07-14T10:57:15.654Z,shipping,network_in,50713
2023-07-14T10:57:15.654Z,carts-delete,network_in,234167
2023-07-14T10:57:15.768Z,queue-master,network_in,55662
2023-07-14T10:57:15.768Z,carts-post,network_in,222140
2023-07-14T10:57:15.768Z,user-register,network_in,69574
2023-07-14T10:57:15.768Z,carts-get,network_in,207687
2023-07-14T10:57:15.768Z,payment,network_in,47064
2023-07-14T10:57:15.768Z,user,network_in,65525
2023-07-14T10:57:25.485Z,carts-get,network_in,225666
2023-07-14T10:57:25.485Z,orders,network_in,223049
2023-07-14T10:57:25.485Z,user-login,network_in,79096
2023-07-14T10:57:25.485Z,catalogue,network_in,50385
2023-07-14T10:57:25.768Z,carts-post,network_in,227934
2023-07-14T10:57:25.654Z,shipping,network_in,52023
2023-07-14T10:57:25.654Z,carts-delete,network_in,240405
2023-07-14T10:57:25.768Z,carts-get,network_in,218318
2023-07-14T10:57:25.768Z,user,network_in,65525
2023-07-14T10:57:25.768Z,queue-master,network_in,55662
2023-07-14T10:57:25.768Z,user-register,network_in,70825
2023-07-14T10:57:25.654Z,carts,network_in,231726
2023-07-14T10:57:25.768Z,payment,network_in,48852
2023-07-14T10:57:35.485Z,carts-get,network_in,236231
2023-07-14T10:57:35.485Z,user-login,network_in,79096
2023-07-14T10:57:35.485Z,catalogue,network_in,50385
2023-07-14T10:57:35.485Z,orders,network_in,228874
2023-07-14T10:57:35.654Z,carts,network_in,231726
2023-07-14T10:57:35.654Z,shipping,network_in,52023
2023-07-14T10:57:35.654Z,carts-delete,network_in,240405
2023-07-14T10:57:35.768Z,user-register,network_in,75129
2023-07-14T10:57:35.768Z,queue-master,network_in,59148
2023-07-14T10:57:35.768Z,carts-post,network_in,238437
2023-07-14T10:57:35.768Z,user,network_in,68027
2023-07-14T10:57:35.768Z,carts-get,network_in,224182
2023-07-14T10:57:35.768Z,payment,network_in,49816
2023-07-14T10:57:45.484Z,user-login,network_in,79096
2023-07-14T10:57:45.484Z,catalogue,network_in,50385
2023-07-14T10:57:45.484Z,carts-get,network_in,236231
2023-07-14T10:57:45.484Z,orders,network_in,228874
2023-07-14T10:57:45.654Z,carts,network_in,242615
2023-07-14T10:57:45.768Z,user,network_in,68027
2023-07-14T10:57:45.768Z,user-register,network_in,75129
2023-07-14T10:57:45.654Z,shipping,network_in,54075
2023-07-14T10:57:45.768Z,carts-get,network_in,224182
2023-07-14T10:57:45.768Z,payment,network_in,49816
2023-07-14T10:57:45.654Z,carts-delete,network_in,240405
2023-07-14T10:57:45.768Z,queue-master,network_in,59148
2023-07-14T10:57:45.768Z,carts-post,network_in,238437
2023-07-14T10:57:55.484Z,carts-get,network_in,241850
2023-07-14T10:57:55.484Z,user-login,network_in,82079
2023-07-14T10:57:55.484Z,catalogue,network_in,51279
2023-07-14T10:57:55.484Z,orders,network_in,228874
2023-07-14T10:57:55.654Z,shipping,network_in,54075
2023-07-14T10:57:55.654Z,carts-delete,network_in,251889
2023-07-14T10:57:55.654Z,carts,network_in,242615
2023-07-14T10:57:55.768Z,queue-master,network_in,59148
2023-07-14T10:57:55.768Z,payment,network_in,50850
2023-07-14T10:57:55.768Z,carts-get,network_in,235272
2023-07-14T10:57:55.768Z,user-register,network_in,75129
2023-07-14T10:57:55.768Z,carts-post,network_in,238437
2023-07-14T10:57:55.768Z,user,network_in,71080
2023-07-14T10:58:05.484Z,carts-get,network_in,247644
2023-07-14T10:58:05.484Z,catalogue,network_in,53273
2023-07-14T10:58:05.484Z,user-login,network_in,84242
2023-07-14T10:58:05.484Z,orders,network_in,240664
2023-07-14T10:58:05.769Z,user-register,network_in,79499
2023-07-14T10:58:05.769Z,payment,network_in,51744
2023-07-14T10:58:05.769Z,user,network_in,72471
2023-07-14T10:58:05.654Z,carts,network_in,259750
2023-07-14T10:58:05.769Z,carts-get,network_in,246288
2023-07-14T10:58:05.769Z,carts-post,network_in,249846
2023-07-14T10:58:05.654Z,shipping,network_in,58769
2023-07-14T10:58:05.654Z,carts-delete,network_in,268958
2023-07-14T10:58:05.769Z,queue-master,network_in,62428
2023-07-14T10:58:15.485Z,catalogue,network_in,54373
2023-07-14T10:58:15.485Z,orders,network_in,258411
2023-07-14T10:58:15.485Z,user-login,network_in,85797
2023-07-14T10:58:15.485Z,carts-get,network_in,253193
2023-07-14T10:58:15.769Z,payment,network_in,51744
2023-07-14T10:58:15.769Z,user,network_in,72471
2023-07-14T10:58:15.769Z,carts-post,network_in,249846
2023-07-14T10:58:15.769Z,user-register,network_in,79499
2023-07-14T10:58:15.769Z,carts-get,network_in,246288
2023-07-14T10:58:15.769Z,queue-master,network_in,62428
2023-07-14T10:58:15.654Z,carts,network_in,259750
2023-07-14T10:58:15.654Z,carts-delete,network_in,268958
2023-07-14T10:58:15.654Z,shipping,network_in,58769
2023-07-14T10:58:25.484Z,orders,network_in,258411
2023-07-14T10:58:25.484Z,user-login,network_in,85797
2023-07-14T10:58:25.484Z,carts-get,network_in,253193
2023-07-14T10:58:25.484Z,catalogue,network_in,54373
2023-07-14T10:58:25.654Z,shipping,network_in,58769
2023-07-14T10:58:25.654Z,carts,network_in,259750
2023-07-14T10:58:25.654Z,carts-delete,network_in,268958
2023-07-14T10:58:25.768Z,user,network_in,75454
2023-07-14T10:58:25.768Z,user-register,network_in,79499
2023-07-14T10:58:25.768Z,queue-master,network_in,63664
2023-07-14T10:58:25.768Z,payment,network_in,53532
2023-07-14T10:58:25.768Z,carts-post,network_in,260687
2023-07-14T10:58:25.768Z,carts-get,network_in,251837
2023-07-14T10:58:35.484Z,user-login,network_in,85797
2023-07-14T10:58:35.484Z,carts-get,network_in,263828
2023-07-14T10:58:35.484Z,catalogue,network_in,54373
2023-07-14T10:58:35.484Z,orders,network_in,258411
2023-07-14T10:58:35.654Z,carts,network_in,271378
2023-07-14T10:58:35.654Z,shipping,network_in,60149
2023-07-14T10:58:35.654Z,carts-delete,network_in,274803
2023-07-14T10:58:35.769Z,user-register,network_in,83943
2023-07-14T10:58:35.769Z,carts-get,network_in,262787
2023-07-14T10:58:35.769Z,payment,network_in,54566
2023-07-14T10:58:35.769Z,user,network_in,79898
2023-07-14T10:58:35.769Z,carts-post,network_in,272088
2023-07-14T10:58:35.769Z,queue-master,network_in,64830
2023-07-14T10:58:45.485Z,user-login,network_in,89388
2023-07-14T10:58:45.485Z,catalogue,network_in,56301
2023-07-14T10:58:45.485Z,carts-get,network_in,263828
2023-07-14T10:58:45.485Z,orders,network_in,270135
2023-07-14T10:58:45.654Z,carts-delete,network_in,280652
2023-07-14T10:58:45.654Z,carts,network_in,271378
2023-07-14T10:58:45.654Z,shipping,network_in,62547
2023-07-14T10:58:45.768Z,user-register,network_in,83943
2023-07-14T10:58:45.768Z,user,network_in,79898
2023-07-14T10:58:45.768Z,carts-get,network_in,262787
2023-07-14T10:58:45.768Z,payment,network_in,54566
2023-07-14T10:58:45.768Z,carts-post,network_in,272088
2023-07-14T10:58:45.768Z,queue-master,network_in,64830
2023-07-14T10:58:55.484Z,carts-get,network_in,274844
2023-07-14T10:58:55.484Z,orders,network_in,270135
2023-07-14T10:58:55.484Z,catalogue,network_in,57195
2023-07-14T10:58:55.484Z,user-login,network_in,90939
2023-07-14T10:58:55.654Z,shipping,network_in,62547
2023-07-14T10:58:55.654Z,carts,network_in,277616
2023-07-14T10:58:55.654Z,carts-delete,network_in,292140
2023-07-14T10:58:55.769Z,carts-get,network_in,262787
2023-07-14T10:58:55.769Z,queue-master,network_in,65922
2023-07-14T10:58:55.769Z,carts-post,network_in,272088
2023-07-14T10:58:55.769Z,user-register,network_in,85330
2023-07-14T10:58:55.769Z,user,network_in,81030
2023-07-14T10:58:55.769Z,payment,network_in,56354
2023-07-14T10:59:05.484Z,catalogue,network_in,58155
2023-07-14T10:59:05.484Z,carts-get,network_in,274844
2023-07-14T10:59:05.484Z,orders,network_in,275894
2023-07-14T10:59:05.484Z,user-login,network_in,92424
2023-07-14T10:59:05.654Z,carts,network_in,277616
2023-07-14T10:59:05.654Z,shipping,network_in,63685
2023-07-14T10:59:05.654Z,carts-delete,network_in,292140
2023-07-14T10:59:05.768Z,carts-get,network_in,279216
2023-07-14T10:59:05.768Z,user-register,network_in,87062
2023-07-14T10:59:05.768Z,carts-post,network_in,283108
2023-07-14T10:59:05.768Z,user,network_in,84132
2023-07-14T10:59:05.768Z,payment,network_in,58212
2023-07-14T10:59:05.768Z,queue-master,network_in,68308
2023-07-14T10:59:15.484Z,carts-get,network_in,291467
2023-07-14T10:59:15.484Z,user-login,network_in,95875
2023-07-14T10:59:15.484Z,catalogue,network_in,59049
2023-07-14T10:59:15.484Z,orders,network_in,287610
2023-07-14T10:59:15.768Z,carts-post,network_in,293739
2023-07-14T10:59:15.768Z,payment,network_in,60136
2023-07-14T10:59:15.768Z,user,network_in,84132
2023-07-14T10:59:15.768Z,carts-get,network_in,279216
2023-07-14T10:59:15.654Z,carts-delete,network_in,302963
2023-07-14T10:59:15.768Z,queue-master,network_in,69400
2023-07-14T10:59:15.654Z,shipping,network_in,66157
2023-07-14T10:59:15.654Z,carts,network_in,299993
2023-07-14T10:59:15.768Z,user-register,network_in,88313
2023-07-14T10:59:25.485Z,orders,network_in,293435
2023-07-14T10:59:25.485Z,carts-get,network_in,291467
2023-07-14T10:59:25.485Z,catalogue,network_in,60837
2023-07-14T10:59:25.485Z,user-login,network_in,95875
2023-07-14T10:59:25.654Z,shipping,network_in,67183
2023-07-14T10:59:25.654Z,carts,network_in,299993
2023-07-14T10:59:25.654Z,carts-delete,network_in,309069
2023-07-14T10:59:25.769Z,payment,network_in,61030
2023-07-14T10:59:25.769Z,carts-post,network_in,293739
2023-07-14T10:59:25.769Z,user-register,network_in,91366
2023-07-14T10:59:25.769Z,user,network_in,85453
2023-07-14T10:59:25.769Z,carts-get,network_in,290170
2023-07-14T10:59:25.769Z,queue-master,network_in,69400
2023-07-14T10:59:35.485Z,catalogue,network_in,60837
2023-07-14T10:59:35.485Z,carts-get,network_in,297393
2023-07-14T10:59:35.485Z,user-login,network_in,99326
2023-07-14T10:59:35.485Z,orders,network_in,299326
2023-07-14T10:59:35.654Z,carts,network_in,306099
2023-07-14T10:59:35.654Z,shipping,network_in,68341
2023-07-14T10:59:35.769Z,user,network_in,85453
2023-07-14T10:59:35.769Z,carts-get,network_in,290170
2023-07-14T10:59:35.654Z,carts-delete,network_in,320024
2023-07-14T10:59:35.769Z,payment,network_in,61030
2023-07-14T10:59:35.769Z,carts-post,network_in,293739
2023-07-14T10:59:35.769Z,user-register,network_in,91366
2023-07-14T10:59:35.769Z,queue-master,network_in,69400
2023-07-14T10:59:45.485Z,carts-get,network_in,297393
2023-07-14T10:59:45.485Z,orders,network_in,299326
2023-07-14T10:59:45.485Z,user-login,network_in,99326
2023-07-14T10:59:45.485Z,catalogue,network_in,60837
2023-07-14T10:59:45.654Z,shipping,network_in,68341
2023-07-14T10:59:45.654Z,carts,network_in,306099
2023-07-14T10:59:45.654Z,carts-delete,network_in,320024
2023-07-14T10:59:45.768Z,user-register,network_in,91366
2023-07-14T10:59:45.768Z,carts-post,network_in,299599
2023-07-14T10:59:45.768Z,payment,network_in,61030
2023-07-14T10:59:45.768Z,user,network_in,88436
2023-07-14T10:59:45.768Z,carts-get,network_in,290170
2023-07-14T10:59:45.768Z,queue-master,network_in,71728
2023-07-14T10:59:55.485Z,orders,network_in,299326
2023-07-14T10:59:55.485Z,carts-get,network_in,297393
2023-07-14T10:59:55.485Z,user-login,network_in,100811
2023-07-14T10:59:55.485Z,catalogue,network_in,62625
2023-07-14T10:59:55.654Z,carts-delete,network_in,320024
2023-07-14T10:59:55.654Z,shipping,network_in,69487
2023-07-14T10:59:55.654Z,carts,network_in,317054
2023-07-14T10:59:55.769Z,carts-post,network_in,315962
2023-07-14T10:59:55.769Z,payment,network_in,63782
2023-07-14T10:59:55.769Z,carts-get,network_in,306863
2023-07-14T10:59:55.769Z,user-register,network_in,93815
2023-07-14T10:59:55.769Z,queue-master,network_in,73978
2023-07-14T10:59:55.769Z,user,network_in,90889
2023-07-14T11:00:05.484Z,user-login,network_in,104459
2023-07-14T11:00:05.484Z,catalogue,network_in,64479
2023-07-14T11:00:05.484Z,carts-get,network_in,313752
2023-07-14T11:00:05.484Z,orders,network_in,316801
2023-07-14T11:00:05.768Z,user,network_in,90889
2023-07-14T11:00:05.654Z,shipping,network_in,71741
2023-07-14T11:00:05.768Z,carts-get,network_in,306863
2023-07-14T11:00:05.768Z,user-register,network_in,93815
2023-07-14T11:00:05.768Z,queue-master,network_in,73978
2023-07-14T11:00:05.768Z,carts-post,network_in,315962
2023-07-14T11:00:05.768Z,payment,network_in,63782
2023-07-14T11:00:05.654Z,carts-delete,network_in,331975
2023-07-14T11:00:05.654Z,carts,network_in,322899
2023-07-14T11:00:15.484Z,orders,network_in,328517
2023-07-14T11:00:15.484Z,catalogue,network_in,65439
2023-07-14T11:00:15.484Z,user-login,network_in,107035
2023-07-14T11:00:15.484Z,carts-get,network_in,313752
2023-07-14T11:00:15.768Z,user,network_in,90889
2023-07-14T11:00:15.768Z,queue-master,network_in,76364
2023-07-14T11:00:15.768Z,carts-get,network_in,312338
2023-07-14T11:00:15.768Z,user-register,network_in,96987
2023-07-14T11:00:15.654Z,carts-delete,network_in,343393
2023-07-14T11:00:15.768Z,payment,network_in,63782
2023-07-14T11:00:15.654Z,carts,network_in,328608
2023-07-14T11:00:15.654Z,shipping,network_in,73117
2023-07-14T11:00:15.768Z,carts-post,network_in,315962
2023-07-14T11:00:25.484Z,orders,network_in,328517
2023-07-14T11:00:25.484Z,carts-get,network_in,313752
2023-07-14T11:00:25.484Z,user-login,network_in,107035
2023-07-14T11:00:25.484Z,catalogue,network_in,65439
2023-07-14T11:00:25.654Z,carts-delete,network_in,343393
2023-07-14T11:00:25.654Z,carts,network_in,328608
2023-07-14T11:00:25.654Z,shipping,network_in,73117
2023-07-14T11:00:25.769Z,carts-post,network_in,326659
2023-07-14T11:00:25.769Z,queue-master,network_in,76364
2023-07-14T11:00:25.769Z,payment,network_in,64742
2023-07-14T11:00:25.769Z,carts-get,network_in,312338
2023-07-14T11:00:25.769Z,user,network_in,92740
2023-07-14T11:00:25.769Z,user-register,network_in,96987
2023-07-14T11:00:35.484Z,user-login,network_in,107035
2023-07-14T11:00:35.484Z,catalogue,network_in,67293
2023-07-14T11:00:35.484Z,carts-get,network_in,324702
2023-07-14T11:00:35.484Z,orders,network_in,328517
2023-07-14T11:00:35.654Z,shipping,network_in,75367
2023-07-14T11:00:35.654Z,carts-delete,network_in,343393
2023-07-14T11:00:35.654Z,carts,network_in,334251
2023-07-14T11:00:35.769Z,queue-master,network_in,79648
2023-07-14T11:00:35.769Z,user,network_in,95123
2023-07-14T11:00:35.769Z,carts-post,network_in,332585
2023-07-14T11:00:35.769Z,carts-get,network_in,333985
2023-07-14T11:00:35.769Z,user-register,network_in,99970
2023-07-14T11:00:35.769Z,payment,network_in,66530
2023-07-14T11:00:45.484Z,user-login,network_in,109198
2023-07-14T11:00:45.484Z,carts-get,network_in,330111
2023-07-14T11:00:45.484Z,orders,network_in,334276
2023-07-14T11:00:45.484Z,catalogue,network_in,67293
2023-07-14T11:00:45.654Z,shipping,network_in,75367
2023-07-14T11:00:45.654Z,carts,network_in,340357
2023-07-14T11:00:45.654Z,carts-delete,network_in,354348
2023-07-14T11:00:45.768Z,queue-master,network_in,79648
2023-07-14T11:00:45.768Z,carts-get,network_in,333985
2023-07-14T11:00:45.768Z,user,network_in,95123
2023-07-14T11:00:45.768Z,user-register,network_in,99970
2023-07-14T11:00:45.768Z,payment,network_in,66530
2023-07-14T11:00:45.768Z,carts-post,network_in,332585
2023-07-14T11:00:55.485Z,carts-get,network_in,341061
2023-07-14T11:00:55.485Z,user-login,network_in,113456
2023-07-14T11:00:55.485Z,catalogue,network_in,69975
2023-07-14T11:00:55.485Z,orders,network_in,345992
2023-07-14T11:00:55.654Z,carts,network_in,357087
2023-07-14T11:00:55.769Z,carts-get,network_in,333985
2023-07-14T11:00:55.769Z,user-register,network_in,99970
2023-07-14T11:00:55.769Z,user,network_in,98106
2023-07-14T11:00:55.654Z,carts-delete,network_in,360454
2023-07-14T11:00:55.654Z,shipping,network_in,78895
2023-07-14T11:00:55.769Z,queue-master,network_in,80674
2023-07-14T11:00:55.769Z,carts-post,network_in,343018
2023-07-14T11:00:55.769Z,payment,network_in,68318
2023-07-14T11:01:05.484Z,carts-get,network_in,341061
2023-07-14T11:01:05.484Z,user-login,network_in,113456
2023-07-14T11:01:05.484Z,catalogue,network_in,69975
2023-07-14T11:01:05.484Z,orders,network_in,345992
2023-07-14T11:01:05.654Z,carts-delete,network_in,360454
2023-07-14T11:01:05.654Z,shipping,network_in,80271
2023-07-14T11:01:05.654Z,carts,network_in,362730
2023-07-14T11:01:05.769Z,carts-post,network_in,353836
2023-07-14T11:01:05.769Z,payment,network_in,70106
2023-07-14T11:01:05.769Z,user,network_in,99957
2023-07-14T11:01:05.769Z,queue-master,network_in,81832
2023-07-14T11:01:05.769Z,carts-get,network_in,339911
2023-07-14T11:01:05.769Z,user-register,network_in,105455
