timestamp,key,run_id,resource,metric,value
2021-06-03T22:00:54.593Z,RESERVED_SIDECAR_MULTI_PROBE-1-1-1,1,monitoring-unit-1,network_out,1.0619192123413086
2021-06-03T22:12:28.565Z,RESERVED_SIDECAR_MULTI_PROBE-1-1-1,2,monitoring-unit-1,network_out,1.0643692016601562
2021-06-03T22:24:01.760Z,RESERVED_SIDECAR_MULTI_PROBE-1-1-1,3,monitoring-unit-1,network_out,1.0796518325805664
2021-06-04T21:22:19.045Z,RESERVED_SIDECAR_MULTI_PROBE-16-1-16,1,monitoring-unit-1,network_out,2.2157020568847656
2021-06-04T21:22:20.456Z,RESERVED_SIDECAR_MULTI_PROBE-16-1-16,1,monitoring-unit-10,network_out,2.148655891418457
2021-06-04T21:22:21.833Z,RESERVED_SIDECAR_MULTI_PROBE-16-1-16,1,monitoring-unit-11,network_out,2.1473913192749023
2021-06-04T21:22:21.574Z,RESERVED_SIDECAR_MULTI_PROBE-16-1-16,1,monitoring-unit-12,network_out,2.1468420028686523
2021-06-04T21:22:22.025Z,RESERVED_SIDECAR_MULTI_PROBE-16-1-16,1,monitoring-unit-13,network_out,2.1428308486938477
2021-06-04T21:22:22.232Z,RESERVED_SIDECAR_MULTI_PROBE-16-1-16,1,monitoring-unit-14,network_out,2.15109920501709
2021-06-04T21:22:21.898Z,RESERVED_SIDECAR_MULTI_PROBE-16-1-16,1,monitoring-unit-15,network_out,2.1430253982543945
2021-06-04T21:22:23.031Z,RESERVED_SIDECAR_MULTI_PROBE-16-1-16,1,monitoring-unit-16,network_out,2.1692047119140625
2021-06-04T21:22:18.872Z,RESERVED_SIDECAR_MULTI_PROBE-16-1-16,1,monitoring-unit-2,network_out,2.144923210144043
2021-06-04T21:22:19.257Z,RESERVED_SIDECAR_MULTI_PROBE-16-1-16,1,monitoring-unit-3,network_out,2.1394500732421875
2021-06-04T21:22:19.103Z,RESERVED_SIDECAR_MULTI_PROBE-16-1-16,1,monitoring-unit-4,network_out,2.1447486877441406
2021-06-04T21:22:19.228Z,RESERVED_SIDECAR_MULTI_PROBE-16-1-16,1,monitoring-unit-5,network_out,2.1411190032958984
2021-06-04T21:22:20.259Z,RESERVED_SIDECAR_MULTI_PROBE-16-1-16,1,monitoring-unit-6,network_out,2.145674705505371
2021-06-04T21:22:20.542Z,RESERVED_SIDECAR_MULTI_PROBE-16-1-16,1,monitoring-unit-7,network_out,2.14975643157959
2021-06-04T21:22:20.578Z,RESERVED_SIDECAR_MULTI_PROBE-16-1-16,1,monitoring-unit-8,network_out,2.139707565307617
2021-06-04T21:22:20.512Z,RESERVED_SIDECAR_MULTI_PROBE-16-1-16,1,monitoring-unit-9,network_out,2.148202896118164
2021-06-04T21:56:30.345Z,RESERVED_SIDECAR_MULTI_PROBE-16-1-16,2,monitoring-unit-1,network_out,2.1383934020996094
2021-06-04T21:56:31.625Z,RESERVED_SIDECAR_MULTI_PROBE-16-1-16,2,monitoring-unit-10,network_out,2.140913963317871
2021-06-04T21:56:32.745Z,RESERVED_SIDECAR_MULTI_PROBE-16-1-16,2,monitoring-unit-11,network_out,2.1477556228637695
2021-06-04T21:56:32.634Z,RESERVED_SIDECAR_MULTI_PROBE-16-1-16,2,monitoring-unit-12,network_out,2.144063949584961
2021-06-04T21:56:32.795Z,RESERVED_SIDECAR_MULTI_PROBE-16-1-16,2,monitoring-unit-13,network_out,2.1508235931396484
2021-06-04T21:56:33.223Z,RESERVED_SIDECAR_MULTI_PROBE-16-1-16,2,monitoring-unit-14,network_out,2.7466697692871094
2021-06-04T21:56:32.971Z,RESERVED_SIDECAR_MULTI_PROBE-16-1-16,2,monitoring-unit-15,network_out,2.1574363708496094
2021-06-04T21:56:34.055Z,RESERVED_SIDECAR_MULTI_PROBE-16-1-16,2,monitoring-unit-16,network_out,2.152069091796875
2021-06-04T21:56:30.285Z,RESERVED_SIDECAR_MULTI_PROBE-16-1-16,2,monitoring-unit-2,network_out,2.161327362060547
2021-06-04T21:56:30.236Z,RESERVED_SIDECAR_MULTI_PROBE-16-1-16,2,monitoring-unit-3,network_out,2.1410627365112305
2021-06-04T21:56:30.333Z,RESERVED_SIDECAR_MULTI_PROBE-16-1-16,2,monitoring-unit-4,network_out,2.145449638366699
2021-06-04T21:56:30.248Z,RESERVED_SIDECAR_MULTI_PROBE-16-1-16,2,monitoring-unit-5,network_out,2.1393165588378906
2021-06-04T21:56:31.819Z,RESERVED_SIDECAR_MULTI_PROBE-16-1-16,2,monitoring-unit-6,network_out,2.1419620513916016
2021-06-04T21:56:31.361Z,RESERVED_SIDECAR_MULTI_PROBE-16-1-16,2,monitoring-unit-7,network_out,2.142733573913574
2021-06-04T21:56:31.483Z,RESERVED_SIDECAR_MULTI_PROBE-16-1-16,2,monitoring-unit-8,network_out,2.14737606048584
2021-06-04T21:56:31.824Z,RESERVED_SIDECAR_MULTI_PROBE-16-1-16,2,monitoring-unit-9,network_out,2.140249252319336
2021-06-04T22:31:50.962Z,RESERVED_SIDECAR_MULTI_PROBE-16-1-16,3,monitoring-unit-1,network_out,2.1487646102905273
2021-06-04T22:31:52.414Z,RESERVED_SIDECAR_MULTI_PROBE-16-1-16,3,monitoring-unit-10,network_out,2.1841468811035156
2021-06-04T22:31:53.515Z,RESERVED_SIDECAR_MULTI_PROBE-16-1-16,3,monitoring-unit-11,network_out,2.1483240127563477
2021-06-04T22:31:53.630Z,RESERVED_SIDECAR_MULTI_PROBE-16-1-16,3,monitoring-unit-12,network_out,2.1507320404052734
2021-06-04T22:31:53.736Z,RESERVED_SIDECAR_MULTI_PROBE-16-1-16,3,monitoring-unit-13,network_out,2.180896759033203
2021-06-04T22:31:53.930Z,RESERVED_SIDECAR_MULTI_PROBE-16-1-16,3,monitoring-unit-14,network_out,2.1445255279541016
2021-06-04T22:31:54.028Z,RESERVED_SIDECAR_MULTI_PROBE-16-1-16,3,monitoring-unit-15,network_out,2.1314191818237305
2021-06-04T22:31:44.810Z,RESERVED_SIDECAR_MULTI_PROBE-16-1-16,3,monitoring-unit-16,network_out,2.1692113876342773
2021-06-04T22:31:50.840Z,RESERVED_SIDECAR_MULTI_PROBE-16-1-16,3,monitoring-unit-2,network_out,2.1502084732055664
2021-06-04T22:31:51.308Z,RESERVED_SIDECAR_MULTI_PROBE-16-1-16,3,monitoring-unit-3,network_out,2.2334747314453125
2021-06-04T22:31:51.375Z,RESERVED_SIDECAR_MULTI_PROBE-16-1-16,3,monitoring-unit-4,network_out,2.1886377334594727
2021-06-04T22:31:51.012Z,RESERVED_SIDECAR_MULTI_PROBE-16-1-16,3,monitoring-unit-5,network_out,2.178380012512207
2021-06-04T22:31:52.408Z,RESERVED_SIDECAR_MULTI_PROBE-16-1-16,3,monitoring-unit-6,network_out,2.1405134201049805
2021-06-04T22:31:52.819Z,RESERVED_SIDECAR_MULTI_PROBE-16-1-16,3,monitoring-unit-7,network_out,2.1441049575805664
2021-06-04T22:31:52.424Z,RESERVED_SIDECAR_MULTI_PROBE-16-1-16,3,monitoring-unit-8,network_out,2.1619882583618164
2021-06-04T22:31:52.979Z,RESERVED_SIDECAR_MULTI_PROBE-16-1-16,3,monitoring-unit-9,network_out,2.146103858947754
2021-06-04T01:53:13.170Z,RESERVED_SIDECAR_MULTI_PROBE-2-1-2,1,monitoring-unit-1,network_out,1.1355504989624023
2021-06-04T01:53:13.319Z,RESERVED_SIDECAR_MULTI_PROBE-2-1-2,1,monitoring-unit-2,network_out,1.136235237121582
2021-06-04T02:05:24.567Z,RESERVED_SIDECAR_MULTI_PROBE-2-1-2,2,monitoring-unit-1,network_out,1.1678848266601562
2021-06-04T02:05:24.544Z,RESERVED_SIDECAR_MULTI_PROBE-2-1-2,2,monitoring-unit-2,network_out,1.1349658966064453
2021-06-04T02:17:34.926Z,RESERVED_SIDECAR_MULTI_PROBE-2-1-2,3,monitoring-unit-1,network_out,1.1387195587158203
2021-06-04T02:17:34.569Z,RESERVED_SIDECAR_MULTI_PROBE-2-1-2,3,monitoring-unit-2,network_out,1.1391191482543945
2021-06-04T19:36:03.030Z,RESERVED_SIDECAR_MULTI_PROBE-4-1-4,1,monitoring-unit-1,network_out,1.2784366607666016
2021-06-04T19:36:03.128Z,RESERVED_SIDECAR_MULTI_PROBE-4-1-4,1,monitoring-unit-2,network_out,1.3043975830078125
2021-06-04T19:36:02.609Z,RESERVED_SIDECAR_MULTI_PROBE-4-1-4,1,monitoring-unit-3,network_out,1.2753019332885742
2021-06-04T19:36:03.111Z,RESERVED_SIDECAR_MULTI_PROBE-4-1-4,1,monitoring-unit-4,network_out,1.2745132446289062
2021-06-04T19:49:03.816Z,RESERVED_SIDECAR_MULTI_PROBE-4-1-4,2,monitoring-unit-1,network_out,1.2819108963012695
2021-06-04T19:49:03.636Z,RESERVED_SIDECAR_MULTI_PROBE-4-1-4,2,monitoring-unit-2,network_out,1.2826061248779297
2021-06-04T19:49:03.667Z,RESERVED_SIDECAR_MULTI_PROBE-4-1-4,2,monitoring-unit-3,network_out,1.2871131896972656
2021-06-04T19:49:03.732Z,RESERVED_SIDECAR_MULTI_PROBE-4-1-4,2,monitoring-unit-4,network_out,1.2761096954345703
2021-06-04T20:02:05.253Z,RESERVED_SIDECAR_MULTI_PROBE-4-1-4,3,monitoring-unit-1,network_out,1.2770204544067383
2021-06-04T20:02:05.088Z,RESERVED_SIDECAR_MULTI_PROBE-4-1-4,3,monitoring-unit-2,network_out,1.2905254364013672
2021-06-04T20:02:05.517Z,RESERVED_SIDECAR_MULTI_PROBE-4-1-4,3,monitoring-unit-3,network_out,1.3755102157592773
2021-06-04T20:02:05.573Z,RESERVED_SIDECAR_MULTI_PROBE-4-1-4,3,monitoring-unit-4,network_out,1.2793149948120117
2021-06-04T20:18:18.222Z,RESERVED_SIDECAR_MULTI_PROBE-8-1-8,1,monitoring-unit-1,network_out,1.5650444030761719
2021-06-04T20:18:17.513Z,RESERVED_SIDECAR_MULTI_PROBE-8-1-8,1,monitoring-unit-2,network_out,1.5853986740112305
2021-06-04T20:18:17.982Z,RESERVED_SIDECAR_MULTI_PROBE-8-1-8,1,monitoring-unit-3,network_out,1.8016853332519531
2021-06-04T20:18:17.735Z,RESERVED_SIDECAR_MULTI_PROBE-8-1-8,1,monitoring-unit-4,network_out,1.6219110488891602
2021-06-04T20:18:17.356Z,RESERVED_SIDECAR_MULTI_PROBE-8-1-8,1,monitoring-unit-5,network_out,1.570601463317871
2021-06-04T20:18:18.348Z,RESERVED_SIDECAR_MULTI_PROBE-8-1-8,1,monitoring-unit-6,network_out,1.571396827697754
2021-06-04T20:18:18.270Z,RESERVED_SIDECAR_MULTI_PROBE-8-1-8,1,monitoring-unit-7,network_out,1.5700311660766602
2021-06-04T20:18:18.600Z,RESERVED_SIDECAR_MULTI_PROBE-8-1-8,1,monitoring-unit-8,network_out,1.5711297988891602
2021-06-04T20:35:46.770Z,RESERVED_SIDECAR_MULTI_PROBE-8-1-8,2,monitoring-unit-1,network_out,1.5631723403930664
2021-06-04T20:35:47.292Z,RESERVED_SIDECAR_MULTI_PROBE-8-1-8,2,monitoring-unit-2,network_out,1.5690698623657227
2021-06-04T20:35:46.705Z,RESERVED_SIDECAR_MULTI_PROBE-8-1-8,2,monitoring-unit-3,network_out,1.7632026672363281
2021-06-04T20:35:46.935Z,RESERVED_SIDECAR_MULTI_PROBE-8-1-8,2,monitoring-unit-4,network_out,1.735753059387207
2021-06-04T20:35:46.711Z,RESERVED_SIDECAR_MULTI_PROBE-8-1-8,2,monitoring-unit-5,network_out,1.5658769607543945
2021-06-04T20:35:47.751Z,RESERVED_SIDECAR_MULTI_PROBE-8-1-8,2,monitoring-unit-6,network_out,1.5677824020385742
2021-06-04T20:35:48.349Z,RESERVED_SIDECAR_MULTI_PROBE-8-1-8,2,monitoring-unit-7,network_out,1.5702810287475586
2021-06-04T20:35:48.046Z,RESERVED_SIDECAR_MULTI_PROBE-8-1-8,2,monitoring-unit-8,network_out,1.5742864608764648
2021-06-04T20:53:15.777Z,RESERVED_SIDECAR_MULTI_PROBE-8-1-8,3,monitoring-unit-1,network_out,1.5512323379516602
2021-06-04T20:53:15.394Z,RESERVED_SIDECAR_MULTI_PROBE-8-1-8,3,monitoring-unit-2,network_out,1.567631721496582
2021-06-04T20:53:15.703Z,RESERVED_SIDECAR_MULTI_PROBE-8-1-8,3,monitoring-unit-3,network_out,1.630925178527832
2021-06-04T20:53:15.870Z,RESERVED_SIDECAR_MULTI_PROBE-8-1-8,3,monitoring-unit-4,network_out,1.6962432861328125
2021-06-04T20:53:15.647Z,RESERVED_SIDECAR_MULTI_PROBE-8-1-8,3,monitoring-unit-5,network_out,1.5636930465698242
2021-06-04T20:53:16.639Z,RESERVED_SIDECAR_MULTI_PROBE-8-1-8,3,monitoring-unit-6,network_out,1.5679454803466797
2021-06-04T20:53:16.841Z,RESERVED_SIDECAR_MULTI_PROBE-8-1-8,3,monitoring-unit-7,network_out,1.5717906951904297
2021-06-04T20:53:16.964Z,RESERVED_SIDECAR_MULTI_PROBE-8-1-8,3,monitoring-unit-8,network_out,1.5671939849853516
