2023-07-14T10:27:28.408Z,cadvisor-dhdcp,memory,25083904
2023-07-14T10:27:27.036Z,cadvisor-hwt2b,memory,27873280
2023-07-14T10:27:37.036Z,cadvisor-hwt2b,memory,24842240
2023-07-14T10:27:57.036Z,cadvisor-hwt2b,memory,24842240
2023-07-14T10:27:58.407Z,cadvisor-dhdcp,memory,27430912
2023-07-14T10:27:16.520Z,cadvisor-hwt2b,memory,25759744
2023-07-14T10:27:17.895Z,cadvisor-dhdcp,memory,24506368
2023-07-14T10:27:48.407Z,cadvisor-dhdcp,memory,25083904
2023-07-14T10:27:47.035Z,cadvisor-hwt2b,memory,24842240
2023-07-14T10:27:38.407Z,cadvisor-dhdcp,memory,25083904
2023-07-14T10:28:07.036Z,cadvisor-hwt2b,memory,25120768
2023-07-14T10:27:16.262Z,cadvisor-kqgnz,memory,25219072
2023-07-14T10:27:26.641Z,cadvisor-kqgnz,memory,25219072
2023-07-14T10:28:06.640Z,cadvisor-kqgnz,memory,27668480
2023-07-14T10:28:08.407Z,cadvisor-dhdcp,memory,27471872
2023-07-14T10:27:56.640Z,cadvisor-kqgnz,memory,26710016
2023-07-14T10:27:36.640Z,cadvisor-kqgnz,memory,25219072
2023-07-14T10:27:46.640Z,cadvisor-kqgnz,memory,24895488
2023-07-14T10:28:16.641Z,cadvisor-kqgnz,memory,27668480
2023-07-14T10:28:17.036Z,cadvisor-hwt2b,memory,28504064
2023-07-14T10:28:18.407Z,cadvisor-dhdcp,memory,29818880
2023-07-14T10:28:26.640Z,cadvisor-kqgnz,memory,27668480
2023-07-14T10:28:27.036Z,cadvisor-hwt2b,memory,29446144
2023-07-14T10:28:28.407Z,cadvisor-dhdcp,memory,29818880
2023-07-14T10:28:36.640Z,cadvisor-kqgnz,memory,28946432
2023-07-14T10:28:37.036Z,cadvisor-hwt2b,memory,29446144
2023-07-14T10:28:38.408Z,cadvisor-dhdcp,memory,29409280
2023-07-14T10:28:46.640Z,cadvisor-kqgnz,memory,30703616
2023-07-14T10:28:47.035Z,cadvisor-hwt2b,memory,29446144
2023-07-14T10:28:48.407Z,cadvisor-dhdcp,memory,29409280
2023-07-14T10:28:56.640Z,cadvisor-kqgnz,memory,31698944
2023-07-14T10:28:57.036Z,cadvisor-hwt2b,memory,25833472
2023-07-14T10:28:58.408Z,cadvisor-dhdcp,memory,31272960
2023-07-14T10:29:06.640Z,cadvisor-kqgnz,memory,31096832
2023-07-14T10:29:07.036Z,cadvisor-hwt2b,memory,26927104
2023-07-14T10:29:08.408Z,cadvisor-dhdcp,memory,29192192
2023-07-14T10:29:16.641Z,cadvisor-kqgnz,memory,31096832
2023-07-14T10:29:17.035Z,cadvisor-hwt2b,memory,26927104
2023-07-14T10:29:18.410Z,cadvisor-dhdcp,memory,32509952
2023-07-14T10:29:26.640Z,cadvisor-kqgnz,memory,31096832
2023-07-14T10:29:27.035Z,cadvisor-hwt2b,memory,27942912
2023-07-14T10:29:28.407Z,cadvisor-dhdcp,memory,32509952
2023-07-14T10:29:36.640Z,cadvisor-kqgnz,memory,30695424
2023-07-14T10:29:37.035Z,cadvisor-hwt2b,memory,27942912
2023-07-14T10:29:38.408Z,cadvisor-dhdcp,memory,30187520
2023-07-14T10:29:46.640Z,cadvisor-kqgnz,memory,27086848
2023-07-14T10:29:47.036Z,cadvisor-hwt2b,memory,29765632
2023-07-14T10:29:48.407Z,cadvisor-dhdcp,memory,30187520
2023-07-14T10:29:56.640Z,cadvisor-kqgnz,memory,29196288
2023-07-14T10:29:57.035Z,cadvisor-hwt2b,memory,29765632
2023-07-14T10:29:58.408Z,cadvisor-dhdcp,memory,32387072
2023-07-14T10:30:06.640Z,cadvisor-kqgnz,memory,29196288
2023-07-14T10:30:07.035Z,cadvisor-hwt2b,memory,28463104
2023-07-14T10:30:08.407Z,cadvisor-dhdcp,memory,30507008
2023-07-14T10:30:16.640Z,cadvisor-kqgnz,memory,30863360
2023-07-14T10:30:17.036Z,cadvisor-hwt2b,memory,28651520
2023-07-14T10:30:18.408Z,cadvisor-dhdcp,memory,32890880
2023-07-14T10:30:26.640Z,cadvisor-kqgnz,memory,34353152
2023-07-14T10:30:27.035Z,cadvisor-hwt2b,memory,28651520
2023-07-14T10:30:28.407Z,cadvisor-dhdcp,memory,32890880
2023-07-14T10:30:36.640Z,cadvisor-kqgnz,memory,34353152
2023-07-14T10:30:37.035Z,cadvisor-hwt2b,memory,28651520
2023-07-14T10:30:38.408Z,cadvisor-dhdcp,memory,32890880
2023-07-14T10:30:46.640Z,cadvisor-kqgnz,memory,34353152
2023-07-14T10:30:47.036Z,cadvisor-hwt2b,memory,28958720
2023-07-14T10:30:48.407Z,cadvisor-dhdcp,memory,29499392
2023-07-14T10:30:56.641Z,cadvisor-kqgnz,memory,33308672
2023-07-14T10:30:57.035Z,cadvisor-hwt2b,memory,28958720
2023-07-14T10:30:58.408Z,cadvisor-dhdcp,memory,31297536
2023-07-14T10:31:06.640Z,cadvisor-kqgnz,memory,31268864
2023-07-14T10:31:07.035Z,cadvisor-hwt2b,memory,29827072
2023-07-14T10:31:08.407Z,cadvisor-dhdcp,memory,31297536
2023-07-14T10:31:16.640Z,cadvisor-kqgnz,memory,31268864
2023-07-14T10:31:17.035Z,cadvisor-hwt2b,memory,27029504
2023-07-14T10:31:18.407Z,cadvisor-dhdcp,memory,31105024
2023-07-14T10:31:26.640Z,cadvisor-kqgnz,memory,30265344
2023-07-14T10:31:27.035Z,cadvisor-hwt2b,memory,29310976
2023-07-14T10:31:28.407Z,cadvisor-dhdcp,memory,31105024
2023-07-14T10:31:36.640Z,cadvisor-kqgnz,memory,32288768
2023-07-14T10:31:37.035Z,cadvisor-hwt2b,memory,29310976
2023-07-14T10:31:38.408Z,cadvisor-dhdcp,memory,29192192
2023-07-14T10:31:46.641Z,cadvisor-kqgnz,memory,33001472
2023-07-14T10:31:47.036Z,cadvisor-hwt2b,memory,28897280
2023-07-14T10:31:48.407Z,cadvisor-dhdcp,memory,29192192
2023-07-14T10:31:56.640Z,cadvisor-kqgnz,memory,33001472
2023-07-14T10:31:57.035Z,cadvisor-hwt2b,memory,28897280
2023-07-14T10:31:58.408Z,cadvisor-dhdcp,memory,30191616
2023-07-14T10:32:06.641Z,cadvisor-kqgnz,memory,34844672
2023-07-14T10:32:07.036Z,cadvisor-hwt2b,memory,29003776
2023-07-14T10:32:08.407Z,cadvisor-dhdcp,memory,31043584
2023-07-14T10:32:16.640Z,cadvisor-kqgnz,memory,34611200
2023-07-14T10:32:17.036Z,cadvisor-hwt2b,memory,29437952
2023-07-14T10:32:18.407Z,cadvisor-dhdcp,memory,31043584
2023-07-14T10:32:26.640Z,cadvisor-kqgnz,memory,34611200
2023-07-14T10:32:27.035Z,cadvisor-hwt2b,memory,30343168
2023-07-14T10:32:28.408Z,cadvisor-dhdcp,memory,30531584
2023-07-14T10:32:36.640Z,cadvisor-kqgnz,memory,34611200
2023-07-14T10:32:37.035Z,cadvisor-hwt2b,memory,30679040
2023-07-14T10:32:38.407Z,cadvisor-dhdcp,memory,30531584
2023-07-14T10:32:46.641Z,cadvisor-kqgnz,memory,33701888
2023-07-14T10:32:47.035Z,cadvisor-hwt2b,memory,30679040
2023-07-14T10:32:48.408Z,cadvisor-dhdcp,memory,31522816
2023-07-14T10:32:56.640Z,cadvisor-kqgnz,memory,39608320
2023-07-14T10:32:57.036Z,cadvisor-hwt2b,memory,30679040
2023-07-14T10:32:58.407Z,cadvisor-dhdcp,memory,31522816
2023-07-14T10:33:06.640Z,cadvisor-kqgnz,memory,39608320
2023-07-14T10:33:07.036Z,cadvisor-hwt2b,memory,29102080
2023-07-14T10:33:08.407Z,cadvisor-dhdcp,memory,31522816
2023-07-14T10:33:16.640Z,cadvisor-kqgnz,memory,39608320
2023-07-14T10:33:17.035Z,cadvisor-hwt2b,memory,29835264
2023-07-14T10:33:18.408Z,cadvisor-dhdcp,memory,32600064
2023-07-14T10:33:26.640Z,cadvisor-kqgnz,memory,39657472
2023-07-14T10:33:27.036Z,cadvisor-hwt2b,memory,29204480
2023-07-14T10:33:28.408Z,cadvisor-dhdcp,memory,32600064
2023-07-14T10:33:36.640Z,cadvisor-kqgnz,memory,36642816
2023-07-14T10:33:37.035Z,cadvisor-hwt2b,memory,29204480
2023-07-14T10:33:38.408Z,cadvisor-dhdcp,memory,35962880
2023-07-14T10:33:46.640Z,cadvisor-kqgnz,memory,36642816
2023-07-14T10:33:47.035Z,cadvisor-hwt2b,memory,27312128
2023-07-14T10:33:48.407Z,cadvisor-dhdcp,memory,35962880
2023-07-14T10:33:56.640Z,cadvisor-kqgnz,memory,39358464
2023-07-14T10:33:57.036Z,cadvisor-hwt2b,memory,29782016
2023-07-14T10:33:58.408Z,cadvisor-dhdcp,memory,41529344
2023-07-14T10:34:06.640Z,cadvisor-kqgnz,memory,39596032
2023-07-14T10:34:07.036Z,cadvisor-hwt2b,memory,32296960
2023-07-14T10:34:08.407Z,cadvisor-dhdcp,memory,41529344
2023-07-14T10:34:16.641Z,cadvisor-kqgnz,memory,38428672
2023-07-14T10:34:17.036Z,cadvisor-hwt2b,memory,32296960
2023-07-14T10:34:18.407Z,cadvisor-dhdcp,memory,38834176
2023-07-14T10:34:26.640Z,cadvisor-kqgnz,memory,38428672
2023-07-14T10:34:27.035Z,cadvisor-hwt2b,memory,32296960
2023-07-14T10:34:28.407Z,cadvisor-dhdcp,memory,35950592
2023-07-14T10:34:36.640Z,cadvisor-kqgnz,memory,38428672
2023-07-14T10:34:37.036Z,cadvisor-hwt2b,memory,30490624
2023-07-14T10:34:38.408Z,cadvisor-dhdcp,memory,35581952
2023-07-14T10:34:46.640Z,cadvisor-kqgnz,memory,39419904
2023-07-14T10:34:47.036Z,cadvisor-hwt2b,memory,30490624
2023-07-14T10:34:48.407Z,cadvisor-dhdcp,memory,35581952
2023-07-14T10:34:56.640Z,cadvisor-kqgnz,memory,40103936
2023-07-14T10:34:57.035Z,cadvisor-hwt2b,memory,30490624
2023-07-14T10:34:58.407Z,cadvisor-dhdcp,memory,37478400
2023-07-14T10:35:06.641Z,cadvisor-kqgnz,memory,40103936
2023-07-14T10:35:07.035Z,cadvisor-hwt2b,memory,29016064
2023-07-14T10:35:08.408Z,cadvisor-dhdcp,memory,34758656
2023-07-14T10:35:16.640Z,cadvisor-kqgnz,memory,40103936
2023-07-14T10:35:17.036Z,cadvisor-hwt2b,memory,32116736
2023-07-14T10:35:18.408Z,cadvisor-dhdcp,memory,34758656
2023-07-14T10:35:26.640Z,cadvisor-kqgnz,memory,40583168
2023-07-14T10:35:27.035Z,cadvisor-hwt2b,memory,32116736
2023-07-14T10:35:28.408Z,cadvisor-dhdcp,memory,37126144
2023-07-14T10:35:36.640Z,cadvisor-kqgnz,memory,39923712
2023-07-14T10:35:37.035Z,cadvisor-hwt2b,memory,30175232
2023-07-14T10:35:38.407Z,cadvisor-dhdcp,memory,37126144
2023-07-14T10:35:46.640Z,cadvisor-kqgnz,memory,39923712
2023-07-14T10:35:47.035Z,cadvisor-hwt2b,memory,31596544
2023-07-14T10:35:48.407Z,cadvisor-dhdcp,memory,35573760
2023-07-14T10:35:56.640Z,cadvisor-kqgnz,memory,38297600
2023-07-14T10:35:57.036Z,cadvisor-hwt2b,memory,31674368
2023-07-14T10:35:58.407Z,cadvisor-dhdcp,memory,38031360
2023-07-14T10:36:06.640Z,cadvisor-kqgnz,memory,38297600
2023-07-14T10:36:07.035Z,cadvisor-hwt2b,memory,31674368
2023-07-14T10:36:08.408Z,cadvisor-dhdcp,memory,38031360
2023-07-14T10:36:16.640Z,cadvisor-kqgnz,memory,38023168
2023-07-14T10:36:17.035Z,cadvisor-hwt2b,memory,29626368
2023-07-14T10:36:18.407Z,cadvisor-dhdcp,memory,38031360
2023-07-14T10:36:26.640Z,cadvisor-kqgnz,memory,40857600
2023-07-14T10:36:27.035Z,cadvisor-hwt2b,memory,29626368
2023-07-14T10:36:28.408Z,cadvisor-dhdcp,memory,37568512
2023-07-14T10:36:36.640Z,cadvisor-kqgnz,memory,39256064
2023-07-14T10:36:37.036Z,cadvisor-hwt2b,memory,34004992
2023-07-14T10:36:38.407Z,cadvisor-dhdcp,memory,37568512
2023-07-14T10:36:46.640Z,cadvisor-kqgnz,memory,40341504
2023-07-14T10:36:47.035Z,cadvisor-hwt2b,memory,34004992
2023-07-14T10:36:48.408Z,cadvisor-dhdcp,memory,36990976
2023-07-14T10:36:56.640Z,cadvisor-kqgnz,memory,40341504
2023-07-14T10:36:57.035Z,cadvisor-hwt2b,memory,36491264
2023-07-14T10:36:58.407Z,cadvisor-dhdcp,memory,38047744
2023-07-14T10:37:06.640Z,cadvisor-kqgnz,memory,39444480
2023-07-14T10:37:07.035Z,cadvisor-hwt2b,memory,37511168
2023-07-14T10:37:08.407Z,cadvisor-dhdcp,memory,38047744
2023-07-14T10:37:16.640Z,cadvisor-kqgnz,memory,39444480
2023-07-14T10:37:17.036Z,cadvisor-hwt2b,memory,34979840
2023-07-14T10:37:18.408Z,cadvisor-dhdcp,memory,36409344
2023-07-14T10:37:26.640Z,cadvisor-kqgnz,memory,38789120
2023-07-14T10:37:27.036Z,cadvisor-hwt2b,memory,34979840
2023-07-14T10:37:28.407Z,cadvisor-dhdcp,memory,36409344
2023-07-14T10:37:36.640Z,cadvisor-kqgnz,memory,38789120
2023-07-14T10:37:37.035Z,cadvisor-hwt2b,memory,37523456
2023-07-14T10:37:38.407Z,cadvisor-dhdcp,memory,37777408
