2023-07-14T10:27:28.408Z,cadvisor-dhdcp,network_in,10556
2023-07-14T10:27:27.036Z,cadvisor-hwt2b,network_in,13206
2023-07-14T10:27:37.036Z,cadvisor-hwt2b,network_in,13206
2023-07-14T10:27:57.036Z,cadvisor-hwt2b,network_in,15648
2023-07-14T10:27:58.407Z,cadvisor-dhdcp,network_in,14094
2023-07-14T10:27:16.520Z,cadvisor-hwt2b,network_in,10686
2023-07-14T10:27:17.895Z,cadvisor-dhdcp,network_in,10556
2023-07-14T10:27:48.407Z,cadvisor-dhdcp,network_in,14094
2023-07-14T10:27:47.035Z,cadvisor-hwt2b,network_in,13206
2023-07-14T10:27:38.407Z,cadvisor-dhdcp,network_in,10556
2023-07-14T10:28:07.036Z,cadvisor-hwt2b,network_in,17892
2023-07-14T10:27:16.262Z,cadvisor-kqgnz,network_in,9286
2023-07-14T10:27:26.641Z,cadvisor-kqgnz,network_in,12002
2023-07-14T10:28:06.640Z,cadvisor-kqgnz,network_in,17614
2023-07-14T10:28:08.407Z,cadvisor-dhdcp,network_in,17656
2023-07-14T10:27:56.640Z,cadvisor-kqgnz,network_in,17614
2023-07-14T10:27:36.640Z,cadvisor-kqgnz,network_in,12002
2023-07-14T10:27:46.640Z,cadvisor-kqgnz,network_in,14382
2023-07-14T10:28:16.641Z,cadvisor-kqgnz,network_in,20986
2023-07-14T10:28:17.036Z,cadvisor-hwt2b,network_in,19454
2023-07-14T10:28:18.407Z,cadvisor-dhdcp,network_in,20366
2023-07-14T10:28:26.640Z,cadvisor-kqgnz,network_in,20986
2023-07-14T10:28:27.036Z,cadvisor-hwt2b,network_in,22726
2023-07-14T10:28:28.407Z,cadvisor-dhdcp,network_in,20366
2023-07-14T10:28:36.640Z,cadvisor-kqgnz,network_in,22754
2023-07-14T10:28:37.036Z,cadvisor-hwt2b,network_in,22726
2023-07-14T10:28:38.408Z,cadvisor-dhdcp,network_in,24418
2023-07-14T10:28:46.640Z,cadvisor-kqgnz,network_in,24316
2023-07-14T10:28:47.035Z,cadvisor-hwt2b,network_in,22726
2023-07-14T10:28:48.407Z,cadvisor-dhdcp,network_in,24418
2023-07-14T10:28:56.640Z,cadvisor-kqgnz,network_in,26828
2023-07-14T10:28:57.036Z,cadvisor-hwt2b,network_in,25250
2023-07-14T10:28:58.408Z,cadvisor-dhdcp,network_in,27980
2023-07-14T10:29:06.640Z,cadvisor-kqgnz,network_in,26828
2023-07-14T10:29:07.036Z,cadvisor-hwt2b,network_in,27494
2023-07-14T10:29:08.408Z,cadvisor-dhdcp,network_in,29740
2023-07-14T10:29:16.641Z,cadvisor-kqgnz,network_in,29928
2023-07-14T10:29:17.035Z,cadvisor-hwt2b,network_in,27494
2023-07-14T10:29:18.410Z,cadvisor-dhdcp,network_in,32380
2023-07-14T10:29:26.640Z,cadvisor-kqgnz,network_in,29928
2023-07-14T10:29:27.035Z,cadvisor-hwt2b,network_in,30684
2023-07-14T10:29:28.407Z,cadvisor-dhdcp,network_in,32380
2023-07-14T10:29:36.640Z,cadvisor-kqgnz,network_in,31556
2023-07-14T10:29:37.035Z,cadvisor-hwt2b,network_in,30684
2023-07-14T10:29:38.408Z,cadvisor-dhdcp,network_in,35876
2023-07-14T10:29:46.640Z,cadvisor-kqgnz,network_in,33184
2023-07-14T10:29:47.036Z,cadvisor-hwt2b,network_in,33060
2023-07-14T10:29:48.407Z,cadvisor-dhdcp,network_in,35876
2023-07-14T10:29:56.640Z,cadvisor-kqgnz,network_in,34812
2023-07-14T10:29:57.035Z,cadvisor-hwt2b,network_in,35304
2023-07-14T10:29:58.408Z,cadvisor-dhdcp,network_in,35876
2023-07-14T10:30:06.640Z,cadvisor-kqgnz,network_in,34812
2023-07-14T10:30:07.035Z,cadvisor-hwt2b,network_in,35304
2023-07-14T10:30:08.407Z,cadvisor-dhdcp,network_in,41160
2023-07-14T10:30:16.640Z,cadvisor-kqgnz,network_in,37912
2023-07-14T10:30:17.036Z,cadvisor-hwt2b,network_in,37680
2023-07-14T10:30:18.408Z,cadvisor-dhdcp,network_in,41160
2023-07-14T10:30:26.640Z,cadvisor-kqgnz,network_in,40428
2023-07-14T10:30:27.035Z,cadvisor-hwt2b,network_in,37680
2023-07-14T10:30:28.407Z,cadvisor-dhdcp,network_in,41160
2023-07-14T10:30:36.640Z,cadvisor-kqgnz,network_in,40428
2023-07-14T10:30:37.035Z,cadvisor-hwt2b,network_in,40336
2023-07-14T10:30:38.408Z,cadvisor-dhdcp,network_in,44052
2023-07-14T10:30:46.640Z,cadvisor-kqgnz,network_in,43754
2023-07-14T10:30:47.036Z,cadvisor-hwt2b,network_in,44212
2023-07-14T10:30:48.407Z,cadvisor-dhdcp,network_in,47712
2023-07-14T10:30:56.641Z,cadvisor-kqgnz,network_in,43754
2023-07-14T10:30:57.035Z,cadvisor-hwt2b,network_in,44212
2023-07-14T10:30:58.408Z,cadvisor-dhdcp,network_in,50360
2023-07-14T10:31:06.640Z,cadvisor-kqgnz,network_in,49502
2023-07-14T10:31:07.035Z,cadvisor-hwt2b,network_in,46798
2023-07-14T10:31:08.407Z,cadvisor-dhdcp,network_in,50360
2023-07-14T10:31:16.640Z,cadvisor-kqgnz,network_in,49502
2023-07-14T10:31:17.035Z,cadvisor-hwt2b,network_in,48496
2023-07-14T10:31:18.407Z,cadvisor-dhdcp,network_in,53050
2023-07-14T10:31:26.640Z,cadvisor-kqgnz,network_in,51130
2023-07-14T10:31:27.035Z,cadvisor-hwt2b,network_in,51554
2023-07-14T10:31:28.407Z,cadvisor-dhdcp,network_in,55690
2023-07-14T10:31:36.640Z,cadvisor-kqgnz,network_in,51130
2023-07-14T10:31:37.035Z,cadvisor-hwt2b,network_in,51554
2023-07-14T10:31:38.408Z,cadvisor-dhdcp,network_in,55690
2023-07-14T10:31:46.641Z,cadvisor-kqgnz,network_in,53548
2023-07-14T10:31:47.036Z,cadvisor-hwt2b,network_in,53864
2023-07-14T10:31:48.407Z,cadvisor-dhdcp,network_in,55690
2023-07-14T10:31:56.640Z,cadvisor-kqgnz,network_in,53548
2023-07-14T10:31:57.035Z,cadvisor-hwt2b,network_in,53864
2023-07-14T10:31:58.408Z,cadvisor-dhdcp,network_in,58330
2023-07-14T10:32:06.641Z,cadvisor-kqgnz,network_in,55858
2023-07-14T10:32:07.036Z,cadvisor-hwt2b,network_in,53864
2023-07-14T10:32:08.407Z,cadvisor-dhdcp,network_in,62772
2023-07-14T10:32:16.640Z,cadvisor-kqgnz,network_in,59970
2023-07-14T10:32:17.036Z,cadvisor-hwt2b,network_in,56174
2023-07-14T10:32:18.407Z,cadvisor-dhdcp,network_in,62772
2023-07-14T10:32:26.640Z,cadvisor-kqgnz,network_in,59970
2023-07-14T10:32:27.035Z,cadvisor-hwt2b,network_in,58484
2023-07-14T10:32:28.408Z,cadvisor-dhdcp,network_in,66292
2023-07-14T10:32:36.640Z,cadvisor-kqgnz,network_in,59970
2023-07-14T10:32:37.035Z,cadvisor-hwt2b,network_in,61674
2023-07-14T10:32:38.407Z,cadvisor-dhdcp,network_in,66292
2023-07-14T10:32:46.641Z,cadvisor-kqgnz,network_in,62388
2023-07-14T10:32:47.035Z,cadvisor-hwt2b,network_in,61674
2023-07-14T10:32:48.408Z,cadvisor-dhdcp,network_in,68974
2023-07-14T10:32:56.640Z,cadvisor-kqgnz,network_in,65578
2023-07-14T10:32:57.036Z,cadvisor-hwt2b,network_in,61674
2023-07-14T10:32:58.407Z,cadvisor-dhdcp,network_in,68974
2023-07-14T10:33:06.640Z,cadvisor-kqgnz,network_in,65578
2023-07-14T10:33:07.036Z,cadvisor-hwt2b,network_in,64930
2023-07-14T10:33:08.407Z,cadvisor-dhdcp,network_in,71482
2023-07-14T10:33:16.640Z,cadvisor-kqgnz,network_in,68876
2023-07-14T10:33:17.035Z,cadvisor-hwt2b,network_in,67174
2023-07-14T10:33:18.408Z,cadvisor-dhdcp,network_in,73242
2023-07-14T10:33:26.640Z,cadvisor-kqgnz,network_in,68876
2023-07-14T10:33:27.036Z,cadvisor-hwt2b,network_in,68802
2023-07-14T10:33:28.408Z,cadvisor-dhdcp,network_in,73242
2023-07-14T10:33:36.640Z,cadvisor-kqgnz,network_in,72922
2023-07-14T10:33:37.035Z,cadvisor-hwt2b,network_in,68802
2023-07-14T10:33:38.408Z,cadvisor-dhdcp,network_in,76804
2023-07-14T10:33:46.640Z,cadvisor-kqgnz,network_in,72922
2023-07-14T10:33:47.035Z,cadvisor-hwt2b,network_in,71794
2023-07-14T10:33:48.407Z,cadvisor-dhdcp,network_in,76804
2023-07-14T10:33:56.640Z,cadvisor-kqgnz,network_in,72922
2023-07-14T10:33:57.036Z,cadvisor-hwt2b,network_in,74236
2023-07-14T10:33:58.408Z,cadvisor-dhdcp,network_in,81204
2023-07-14T10:34:06.640Z,cadvisor-kqgnz,network_in,76968
2023-07-14T10:34:07.036Z,cadvisor-hwt2b,network_in,74236
2023-07-14T10:34:08.407Z,cadvisor-dhdcp,network_in,81204
2023-07-14T10:34:16.641Z,cadvisor-kqgnz,network_in,79550
2023-07-14T10:34:17.036Z,cadvisor-hwt2b,network_in,74236
2023-07-14T10:34:18.407Z,cadvisor-dhdcp,network_in,82964
2023-07-14T10:34:26.640Z,cadvisor-kqgnz,network_in,79550
2023-07-14T10:34:27.035Z,cadvisor-hwt2b,network_in,76822
2023-07-14T10:34:28.407Z,cadvisor-dhdcp,network_in,85786
2023-07-14T10:34:36.640Z,cadvisor-kqgnz,network_in,81112
2023-07-14T10:34:37.036Z,cadvisor-hwt2b,network_in,79946
2023-07-14T10:34:38.408Z,cadvisor-dhdcp,network_in,88706
2023-07-14T10:34:46.640Z,cadvisor-kqgnz,network_in,81112
2023-07-14T10:34:47.036Z,cadvisor-hwt2b,network_in,82388
2023-07-14T10:34:48.407Z,cadvisor-dhdcp,network_in,88706
2023-07-14T10:34:56.640Z,cadvisor-kqgnz,network_in,86038
2023-07-14T10:34:57.035Z,cadvisor-hwt2b,network_in,82388
2023-07-14T10:34:58.407Z,cadvisor-dhdcp,network_in,92268
2023-07-14T10:35:06.641Z,cadvisor-kqgnz,network_in,86038
2023-07-14T10:35:07.035Z,cadvisor-hwt2b,network_in,83950
2023-07-14T10:35:08.408Z,cadvisor-dhdcp,network_in,94908
2023-07-14T10:35:16.640Z,cadvisor-kqgnz,network_in,86038
2023-07-14T10:35:17.036Z,cadvisor-hwt2b,network_in,87144
2023-07-14T10:35:18.408Z,cadvisor-dhdcp,network_in,94908
2023-07-14T10:35:26.640Z,cadvisor-kqgnz,network_in,88526
2023-07-14T10:35:27.035Z,cadvisor-hwt2b,network_in,87144
2023-07-14T10:35:28.408Z,cadvisor-dhdcp,network_in,97730
2023-07-14T10:35:36.640Z,cadvisor-kqgnz,network_in,90968
2023-07-14T10:35:37.035Z,cadvisor-hwt2b,network_in,88772
2023-07-14T10:35:38.407Z,cadvisor-dhdcp,network_in,97730
2023-07-14T10:35:46.640Z,cadvisor-kqgnz,network_in,90968
2023-07-14T10:35:47.035Z,cadvisor-hwt2b,network_in,90470
2023-07-14T10:35:48.407Z,cadvisor-dhdcp,network_in,101184
2023-07-14T10:35:56.640Z,cadvisor-kqgnz,network_in,95964
2023-07-14T10:35:57.036Z,cadvisor-hwt2b,network_in,93730
2023-07-14T10:35:58.407Z,cadvisor-dhdcp,network_in,102986
2023-07-14T10:36:06.640Z,cadvisor-kqgnz,network_in,95964
2023-07-14T10:36:07.035Z,cadvisor-hwt2b,network_in,93730
2023-07-14T10:36:08.408Z,cadvisor-dhdcp,network_in,105626
2023-07-14T10:36:16.640Z,cadvisor-kqgnz,network_in,95964
2023-07-14T10:36:17.035Z,cadvisor-hwt2b,network_in,95226
2023-07-14T10:36:18.407Z,cadvisor-dhdcp,network_in,105626
2023-07-14T10:36:26.640Z,cadvisor-kqgnz,network_in,100960
2023-07-14T10:36:27.035Z,cadvisor-hwt2b,network_in,95226
2023-07-14T10:36:28.408Z,cadvisor-dhdcp,network_in,108266
2023-07-14T10:36:36.640Z,cadvisor-kqgnz,network_in,100960
2023-07-14T10:36:37.036Z,cadvisor-hwt2b,network_in,99850
2023-07-14T10:36:38.407Z,cadvisor-dhdcp,network_in,108266
2023-07-14T10:36:46.640Z,cadvisor-kqgnz,network_in,103444
2023-07-14T10:36:47.035Z,cadvisor-hwt2b,network_in,99850
2023-07-14T10:36:48.408Z,cadvisor-dhdcp,network_in,108266
2023-07-14T10:36:56.640Z,cadvisor-kqgnz,network_in,103444
2023-07-14T10:36:57.035Z,cadvisor-hwt2b,network_in,101412
2023-07-14T10:36:58.407Z,cadvisor-dhdcp,network_in,114468
2023-07-14T10:37:06.640Z,cadvisor-kqgnz,network_in,103444
2023-07-14T10:37:07.035Z,cadvisor-hwt2b,network_in,105482
2023-07-14T10:37:08.407Z,cadvisor-dhdcp,network_in,114468
2023-07-14T10:37:16.640Z,cadvisor-kqgnz,network_in,106634
2023-07-14T10:37:17.036Z,cadvisor-hwt2b,network_in,105482
2023-07-14T10:37:18.408Z,cadvisor-dhdcp,network_in,117150
2023-07-14T10:37:26.640Z,cadvisor-kqgnz,network_in,110746
2023-07-14T10:37:27.036Z,cadvisor-hwt2b,network_in,105482
2023-07-14T10:37:28.407Z,cadvisor-dhdcp,network_in,117150
2023-07-14T10:37:36.640Z,cadvisor-kqgnz,network_in,110746
2023-07-14T10:37:37.035Z,cadvisor-hwt2b,network_in,107726
2023-07-14T10:37:38.407Z,cadvisor-dhdcp,network_in,122472
