2023-07-14T10:27:16.520Z,queue-master,network_out,5492
2023-07-14T10:27:27.036Z,user-register,network_out,12292
2023-07-14T10:27:37.036Z,payment,network_out,7176
2023-07-14T10:27:57.036Z,carts-post,network_out,7214
2023-07-14T10:27:17.895Z,catalogue,network_out,2718
2023-07-14T10:27:28.408Z,catalogue,network_out,4128
2023-07-14T10:27:27.036Z,payment,network_out,6153
2023-07-14T10:27:37.036Z,queue-master,network_out,8394
2023-07-14T10:27:47.035Z,carts-post,network_out,3347
2023-07-14T10:27:47.035Z,queue-master,network_out,8394
2023-07-14T10:27:17.895Z,orders,network_out,998
2023-07-14T10:27:38.407Z,shipping,network_out,1052
2023-07-14T10:27:48.407Z,carts-get,network_out,3091
2023-07-14T10:27:58.407Z,catalogue,network_out,7890
2023-07-14T10:27:16.520Z,user,network_out,5387
2023-07-14T10:27:16.520Z,user-register,network_out,10434
2023-07-14T10:27:27.036Z,carts-post,network_out,2789
2023-07-14T10:27:37.036Z,carts-post,network_out,3347
2023-07-14T10:27:47.035Z,user-register,network_out,12292
2023-07-14T10:27:47.035Z,user,network_out,7183
2023-07-14T10:27:17.895Z,carts-get,network_out,2603
2023-07-14T10:27:28.408Z,shipping,network_out,1052
2023-07-14T10:27:28.408Z,orders,network_out,998
2023-07-14T10:27:28.408Z,carts-get,network_out,3091
2023-07-14T10:27:38.407Z,orders,network_out,998
2023-07-14T10:27:38.407Z,catalogue,network_out,4128
2023-07-14T10:27:48.407Z,orders,network_out,2401
2023-07-14T10:27:58.407Z,orders,network_out,2645
2023-07-14T10:27:58.407Z,carts-get,network_out,3669
2023-07-14T10:27:16.520Z,carts-post,network_out,2789
2023-07-14T10:27:16.520Z,payment,network_out,6153
2023-07-14T10:27:27.036Z,queue-master,network_out,6978
2023-07-14T10:27:27.036Z,user,network_out,5387
2023-07-14T10:27:37.036Z,user-register,network_out,12292
2023-07-14T10:27:37.036Z,user,network_out,7183
2023-07-14T10:27:47.035Z,payment,network_out,7176
2023-07-14T10:27:17.895Z,shipping,network_out,832
2023-07-14T10:27:57.036Z,queue-master,network_out,11226
2023-07-14T10:27:57.036Z,payment,network_out,9223
2023-07-14T10:27:57.036Z,user,network_out,11097
2023-07-14T10:27:57.036Z,user-register,network_out,13962
2023-07-14T10:27:38.407Z,carts-get,network_out,3091
2023-07-14T10:27:48.407Z,shipping,network_out,1268
2023-07-14T10:27:48.407Z,catalogue,network_out,6680
2023-07-14T10:27:58.407Z,shipping,network_out,1268
2023-07-14T10:28:07.036Z,carts-post,network_out,9338
2023-07-14T10:28:07.036Z,queue-master,network_out,11226
2023-07-14T10:28:07.036Z,user,network_out,11097
2023-07-14T10:28:07.036Z,user-register,network_out,17864
2023-07-14T10:28:07.036Z,payment,network_out,10247
2023-07-14T10:27:26.641Z,carts-delete,network_out,2859
2023-07-14T10:28:06.640Z,carts-delete,network_out,10242
2023-07-14T10:27:16.262Z,carts,network_out,2561
2023-07-14T10:27:36.640Z,carts,network_out,2901
2023-07-14T10:27:36.640Z,user-login,network_out,11995
2023-07-14T10:27:46.640Z,carts-delete,network_out,3199
2023-07-14T10:27:56.640Z,carts,network_out,3551
2023-07-14T10:27:56.640Z,user-login,network_out,17743
2023-07-14T10:28:06.640Z,user-login,network_out,17743
2023-07-14T10:27:16.262Z,carts-delete,network_out,1878
2023-07-14T10:27:26.641Z,carts,network_out,2901
2023-07-14T10:27:26.641Z,user-login,network_out,11995
2023-07-14T10:27:36.640Z,carts-delete,network_out,2859
2023-07-14T10:27:46.640Z,carts,network_out,2901
2023-07-14T10:27:56.640Z,carts-delete,network_out,8196
2023-07-14T10:28:06.640Z,carts,network_out,7523
2023-07-14T10:28:08.407Z,catalogue,network_out,10310
2023-07-14T10:28:08.407Z,orders,network_out,2889
2023-07-14T10:28:08.407Z,shipping,network_out,1568
2023-07-14T10:27:16.262Z,user-login,network_out,10057
2023-07-14T10:27:46.640Z,user-login,network_out,11995
2023-07-14T10:28:08.407Z,carts-get,network_out,8825
2023-07-14T10:28:16.641Z,carts-delete,network_out,10242
2023-07-14T10:28:16.641Z,carts,network_out,11271
2023-07-14T10:28:16.641Z,user-login,network_out,21269
2023-07-14T10:28:17.036Z,payment,network_out,12561
2023-07-14T10:28:17.036Z,user-register,network_out,21846
2023-07-14T10:28:17.036Z,user,network_out,14429
2023-07-14T10:28:17.036Z,carts-post,network_out,13861
2023-07-14T10:28:17.036Z,queue-master,network_out,14198
2023-07-14T10:28:18.407Z,catalogue,network_out,10310
2023-07-14T10:28:18.407Z,carts-get,network_out,10949
2023-07-14T10:28:18.407Z,orders,network_out,4826
2023-07-14T10:28:18.407Z,shipping,network_out,1730
2023-07-14T10:28:26.640Z,carts,network_out,11271
2023-07-14T10:28:26.640Z,carts-delete,network_out,10242
2023-07-14T10:28:26.640Z,user-login,network_out,21269
2023-07-14T10:28:27.036Z,user,network_out,16667
2023-07-14T10:28:27.036Z,queue-master,network_out,15684
2023-07-14T10:28:27.036Z,carts-post,network_out,13861
2023-07-14T10:28:27.036Z,user-register,network_out,21846
2023-07-14T10:28:27.036Z,payment,network_out,13717
2023-07-14T10:28:28.407Z,catalogue,network_out,10310
2023-07-14T10:28:28.407Z,orders,network_out,4826
2023-07-14T10:28:28.407Z,shipping,network_out,1730
2023-07-14T10:28:28.407Z,carts-get,network_out,10949
2023-07-14T10:28:36.640Z,carts-delete,network_out,14110
2023-07-14T10:28:36.640Z,carts,network_out,11271
2023-07-14T10:28:36.640Z,user-login,network_out,21269
2023-07-14T10:28:37.036Z,queue-master,network_out,15684
2023-07-14T10:28:37.036Z,carts-post,network_out,13861
2023-07-14T10:28:37.036Z,user,network_out,16667
2023-07-14T10:28:37.036Z,user-register,network_out,21846
2023-07-14T10:28:37.036Z,payment,network_out,13717
2023-07-14T10:28:38.408Z,carts-get,network_out,14697
2023-07-14T10:28:38.408Z,shipping,network_out,8116
2023-07-14T10:28:38.408Z,orders,network_out,7353
2023-07-14T10:28:38.408Z,catalogue,network_out,14406
2023-07-14T10:28:46.640Z,user-login,network_out,27541
2023-07-14T10:28:46.640Z,carts,network_out,17205
2023-07-14T10:28:46.640Z,carts-delete,network_out,18176
2023-07-14T10:28:47.035Z,user-register,network_out,23704
2023-07-14T10:28:47.035Z,user,network_out,20267
2023-07-14T10:28:47.035Z,queue-master,network_out,18722
2023-07-14T10:28:47.035Z,carts-post,network_out,16055
2023-07-14T10:28:47.035Z,payment,network_out,14873
2023-07-14T10:28:48.407Z,orders,network_out,7353
2023-07-14T10:28:48.407Z,shipping,network_out,8116
2023-07-14T10:28:48.407Z,carts-get,network_out,14697
2023-07-14T10:28:48.407Z,catalogue,network_out,14406
2023-07-14T10:28:56.640Z,user-login,network_out,29681
2023-07-14T10:28:56.640Z,carts-delete,network_out,20176
2023-07-14T10:28:56.640Z,carts,network_out,19139
2023-07-14T10:28:57.036Z,user-register,network_out,27552
2023-07-14T10:28:57.036Z,carts-post,network_out,19865
2023-07-14T10:28:57.036Z,queue-master,network_out,20138
2023-07-14T10:28:57.036Z,payment,network_out,17185
2023-07-14T10:28:57.036Z,user,network_out,22509
2023-07-14T10:28:58.408Z,carts-get,network_out,18697
2023-07-14T10:28:58.408Z,shipping,network_out,8116
2023-07-14T10:28:58.408Z,catalogue,network_out,14406
2023-07-14T10:28:58.408Z,orders,network_out,7353
2023-07-14T10:29:06.640Z,carts,network_out,19139
2023-07-14T10:29:06.640Z,user-login,network_out,29681
2023-07-14T10:29:06.640Z,carts-delete,network_out,20176
2023-07-14T10:29:07.036Z,carts-post,network_out,23865
2023-07-14T10:29:07.036Z,user-register,network_out,27552
2023-07-14T10:29:07.036Z,queue-master,network_out,23242
2023-07-14T10:29:07.036Z,user,network_out,26039
2023-07-14T10:29:07.036Z,payment,network_out,18341
2023-07-14T10:29:08.408Z,shipping,network_out,12298
2023-07-14T10:29:08.408Z,catalogue,network_out,18432
2023-07-14T10:29:08.408Z,carts-get,network_out,22887
2023-07-14T10:29:08.408Z,orders,network_out,13021
2023-07-14T10:29:16.641Z,carts-delete,network_out,24308
2023-07-14T10:29:16.641Z,carts,network_out,23205
2023-07-14T10:29:16.641Z,user-login,network_out,31539
2023-07-14T10:29:17.035Z,queue-master,network_out,23242
2023-07-14T10:29:17.035Z,payment,network_out,18341
2023-07-14T10:29:17.035Z,user,network_out,26039
2023-07-14T10:29:17.035Z,user-register,network_out,27552
2023-07-14T10:29:17.035Z,carts-post,network_out,23865
2023-07-14T10:29:18.410Z,orders,network_out,13021
2023-07-14T10:29:18.410Z,carts-get,network_out,22887
2023-07-14T10:29:18.410Z,catalogue,network_out,18432
2023-07-14T10:29:18.410Z,shipping,network_out,13832
2023-07-14T10:29:26.640Z,user-login,network_out,31539
2023-07-14T10:29:26.640Z,carts,network_out,23205
2023-07-14T10:29:26.640Z,carts-delete,network_out,24308
2023-07-14T10:29:27.035Z,user-register,network_out,31016
2023-07-14T10:29:27.035Z,queue-master,network_out,24724
2023-07-14T10:29:27.035Z,user,network_out,28281
2023-07-14T10:29:27.035Z,carts-post,network_out,25931
2023-07-14T10:29:27.035Z,payment,network_out,18341
2023-07-14T10:29:28.407Z,orders,network_out,13021
2023-07-14T10:29:28.407Z,shipping,network_out,13832
2023-07-14T10:29:28.407Z,catalogue,network_out,18432
2023-07-14T10:29:28.407Z,carts-get,network_out,22887
2023-07-14T10:29:36.640Z,carts-delete,network_out,24308
2023-07-14T10:29:36.640Z,carts,network_out,25271
2023-07-14T10:29:36.640Z,user-login,network_out,31539
2023-07-14T10:29:37.035Z,payment,network_out,20587
2023-07-14T10:29:37.035Z,user,network_out,28281
2023-07-14T10:29:37.035Z,user-register,network_out,33258
2023-07-14T10:29:37.035Z,carts-post,network_out,27997
2023-07-14T10:29:37.035Z,queue-master,network_out,26140
2023-07-14T10:29:38.408Z,carts-get,network_out,28565
2023-07-14T10:29:38.408Z,shipping,network_out,16620
2023-07-14T10:29:38.408Z,catalogue,network_out,21112
2023-07-14T10:29:38.408Z,orders,network_out,19361
2023-07-14T10:29:46.640Z,carts,network_out,25271
2023-07-14T10:29:46.640Z,user-login,network_out,35859
2023-07-14T10:29:46.640Z,carts-delete,network_out,28308
2023-07-14T10:29:47.036Z,payment,network_out,21743
2023-07-14T10:29:47.036Z,user,network_out,31745
2023-07-14T10:29:47.036Z,queue-master,network_out,26140
2023-07-14T10:29:47.036Z,carts-post,network_out,27997
2023-07-14T10:29:47.036Z,user-register,network_out,36788
2023-07-14T10:29:48.407Z,carts-get,network_out,28565
2023-07-14T10:29:48.407Z,shipping,network_out,16620
2023-07-14T10:29:48.407Z,catalogue,network_out,21112
2023-07-14T10:29:48.407Z,orders,network_out,19361
2023-07-14T10:29:56.640Z,user-login,network_out,39389
2023-07-14T10:29:56.640Z,carts,network_out,27395
2023-07-14T10:29:56.640Z,carts-delete,network_out,30242
2023-07-14T10:29:57.035Z,user-register,network_out,39030
2023-07-14T10:29:57.035Z,carts-post,network_out,31997
2023-07-14T10:29:57.035Z,queue-master,network_out,29178
2023-07-14T10:29:57.035Z,user,network_out,31745
2023-07-14T10:29:57.035Z,payment,network_out,22899
2023-07-14T10:29:58.408Z,carts-get,network_out,30631
2023-07-14T10:29:58.408Z,catalogue,network_out,23720
2023-07-14T10:29:58.408Z,orders,network_out,19361
2023-07-14T10:29:58.408Z,shipping,network_out,18154
2023-07-14T10:30:06.640Z,carts,network_out,27395
2023-07-14T10:30:06.640Z,user-login,network_out,39389
2023-07-14T10:30:06.640Z,carts-delete,network_out,30242
2023-07-14T10:30:07.035Z,user-register,network_out,39030
2023-07-14T10:30:07.035Z,carts-post,network_out,34121
2023-07-14T10:30:07.035Z,payment,network_out,22899
2023-07-14T10:30:07.035Z,user,network_out,33987
2023-07-14T10:30:07.035Z,queue-master,network_out,30726
2023-07-14T10:30:08.407Z,orders,network_out,23249
2023-07-14T10:30:08.407Z,carts-get,network_out,32821
2023-07-14T10:30:08.407Z,shipping,network_out,21074
2023-07-14T10:30:08.407Z,catalogue,network_out,25062
2023-07-14T10:30:16.640Z,user-login,network_out,41709
2023-07-14T10:30:16.640Z,carts,network_out,31205
2023-07-14T10:30:16.640Z,carts-delete,network_out,34374
2023-07-14T10:30:17.036Z,carts-post,network_out,37931
2023-07-14T10:30:17.036Z,queue-master,network_out,32414
2023-07-14T10:30:17.036Z,payment,network_out,25211
2023-07-14T10:30:17.036Z,user,network_out,37517
2023-07-14T10:30:17.036Z,user-register,network_out,42556
2023-07-14T10:30:18.408Z,catalogue,network_out,27746
2023-07-14T10:30:18.408Z,shipping,network_out,21074
2023-07-14T10:30:18.408Z,orders,network_out,27261
2023-07-14T10:30:18.408Z,carts-get,network_out,36565
2023-07-14T10:30:26.640Z,carts-delete,network_out,36510
2023-07-14T10:30:26.640Z,carts,network_out,37473
2023-07-14T10:30:26.640Z,user-login,network_out,45239
2023-07-14T10:30:27.035Z,queue-master,network_out,32414
2023-07-14T10:30:27.035Z,payment,network_out,25211
2023-07-14T10:30:27.035Z,carts-post,network_out,37931
2023-07-14T10:30:27.035Z,user-register,network_out,42556
2023-07-14T10:30:27.035Z,user,network_out,37517
2023-07-14T10:30:28.407Z,orders,network_out,27261
2023-07-14T10:30:28.407Z,carts-get,network_out,36565
2023-07-14T10:30:28.407Z,catalogue,network_out,27746
2023-07-14T10:30:28.407Z,shipping,network_out,21074
2023-07-14T10:30:36.640Z,carts-delete,network_out,36510
2023-07-14T10:30:36.640Z,user-login,network_out,45239
2023-07-14T10:30:36.640Z,carts,network_out,37473
2023-07-14T10:30:37.035Z,payment,network_out,27592
2023-07-14T10:30:37.035Z,user-register,network_out,46540
2023-07-14T10:30:37.035Z,user,network_out,39759
2023-07-14T10:30:37.035Z,carts-post,network_out,39997
2023-07-14T10:30:37.035Z,queue-master,network_out,35514
2023-07-14T10:30:38.408Z,shipping,network_out,24204
2023-07-14T10:30:38.408Z,catalogue,network_out,29158
2023-07-14T10:30:38.408Z,orders,network_out,29593
2023-07-14T10:30:38.408Z,carts-get,network_out,36565
2023-07-14T10:30:46.640Z,user-login,network_out,47915
2023-07-14T10:30:46.640Z,carts-delete,network_out,40576
2023-07-14T10:30:46.640Z,carts,network_out,39407
2023-07-14T10:30:47.036Z,user-register,network_out,50640
2023-07-14T10:30:47.036Z,queue-master,network_out,37070
2023-07-14T10:30:47.036Z,payment,network_out,28748
2023-07-14T10:30:47.036Z,carts-post,network_out,41997
2023-07-14T10:30:47.036Z,user,network_out,43289
2023-07-14T10:30:48.407Z,catalogue,network_out,30500
2023-07-14T10:30:48.407Z,orders,network_out,33481
2023-07-14T10:30:48.407Z,shipping,network_out,25664
2023-07-14T10:30:48.407Z,carts-get,network_out,40767
2023-07-14T10:30:56.641Z,user-login,network_out,51445
2023-07-14T10:30:56.641Z,carts,network_out,39407
2023-07-14T10:30:56.641Z,carts-delete,network_out,42576
2023-07-14T10:30:57.035Z,user-register,network_out,50640
2023-07-14T10:30:57.035Z,user,network_out,43289
2023-07-14T10:30:57.035Z,carts-post,network_out,41997
2023-07-14T10:30:57.035Z,queue-master,network_out,37070
2023-07-14T10:30:57.035Z,payment,network_out,28748
2023-07-14T10:30:58.408Z,catalogue,network_out,33109
2023-07-14T10:30:58.408Z,orders,network_out,33481
2023-07-14T10:30:58.408Z,carts-get,network_out,44833
2023-07-14T10:30:58.408Z,shipping,network_out,27132
2023-07-14T10:31:06.640Z,carts-delete,network_out,44576
2023-07-14T10:31:06.640Z,user-login,network_out,55691
2023-07-14T10:31:06.640Z,carts,network_out,43341
2023-07-14T10:31:07.035Z,user-register,network_out,50640
2023-07-14T10:31:07.035Z,payment,network_out,29904
2023-07-14T10:31:07.035Z,user,network_out,47203
2023-07-14T10:31:07.035Z,queue-master,network_out,40100
2023-07-14T10:31:07.035Z,carts-post,network_out,46129
2023-07-14T10:31:08.407Z,carts-get,network_out,44833
2023-07-14T10:31:08.407Z,orders,network_out,33481
2023-07-14T10:31:08.407Z,catalogue,network_out,33109
2023-07-14T10:31:08.407Z,shipping,network_out,27132
2023-07-14T10:31:16.640Z,carts-delete,network_out,44576
2023-07-14T10:31:16.640Z,user-login,network_out,55691
2023-07-14T10:31:16.640Z,carts,network_out,43341
2023-07-14T10:31:17.035Z,carts-post,network_out,48265
2023-07-14T10:31:17.035Z,user,network_out,49131
2023-07-14T10:31:17.035Z,queue-master,network_out,43270
2023-07-14T10:31:17.035Z,user-register,network_out,54170
2023-07-14T10:31:17.035Z,payment,network_out,33372
2023-07-14T10:31:18.407Z,catalogue,network_out,35793
2023-07-14T10:31:18.407Z,shipping,network_out,28658
2023-07-14T10:31:18.407Z,orders,network_out,39755
2023-07-14T10:31:18.407Z,carts-get,network_out,46899
2023-07-14T10:31:26.640Z,carts-delete,network_out,46832
2023-07-14T10:31:26.640Z,carts,network_out,47407
2023-07-14T10:31:26.640Z,user-login,network_out,57549
2023-07-14T10:31:27.035Z,payment,network_out,33372
2023-07-14T10:31:27.035Z,queue-master,network_out,44752
2023-07-14T10:31:27.035Z,carts-post,network_out,50455
2023-07-14T10:31:27.035Z,user,network_out,49131
2023-07-14T10:31:27.035Z,user-register,network_out,58084
2023-07-14T10:31:28.407Z,shipping,network_out,31784
2023-07-14T10:31:28.407Z,orders,network_out,39755
2023-07-14T10:31:28.407Z,catalogue,network_out,37135
2023-07-14T10:31:28.407Z,carts-get,network_out,51031
2023-07-14T10:31:36.640Z,carts-delete,network_out,50642
2023-07-14T10:31:36.640Z,carts,network_out,49473
2023-07-14T10:31:36.640Z,user-login,network_out,57549
2023-07-14T10:31:37.035Z,queue-master,network_out,46374
2023-07-14T10:31:37.035Z,payment,network_out,35684
2023-07-14T10:31:37.035Z,user,network_out,53231
2023-07-14T10:31:37.035Z,user-register,network_out,59942
2023-07-14T10:31:37.035Z,carts-post,network_out,54397
2023-07-14T10:31:38.408Z,shipping,network_out,34836
2023-07-14T10:31:38.408Z,catalogue,network_out,39215
2023-07-14T10:31:38.408Z,carts-get,network_out,53155
2023-07-14T10:31:38.408Z,orders,network_out,43445
2023-07-14T10:31:46.641Z,user-login,network_out,61547
2023-07-14T10:31:46.641Z,carts-delete,network_out,54576
2023-07-14T10:31:46.641Z,carts,network_out,51729
2023-07-14T10:31:47.036Z,carts-post,network_out,54397
2023-07-14T10:31:47.036Z,user-register,network_out,59942
2023-07-14T10:31:47.036Z,user,network_out,56759
2023-07-14T10:31:47.036Z,payment,network_out,35684
2023-07-14T10:31:47.036Z,queue-master,network_out,46374
2023-07-14T10:31:48.407Z,shipping,network_out,34836
2023-07-14T10:31:48.407Z,catalogue,network_out,39215
2023-07-14T10:31:48.407Z,carts-get,network_out,53155
2023-07-14T10:31:48.407Z,orders,network_out,43445
2023-07-14T10:31:56.640Z,user-login,network_out,61547
2023-07-14T10:31:56.640Z,carts-delete,network_out,54576
2023-07-14T10:31:56.640Z,carts,network_out,51729
2023-07-14T10:31:57.035Z,user-register,network_out,59942
2023-07-14T10:31:57.035Z,queue-master,network_out,46374
2023-07-14T10:31:57.035Z,user,network_out,56759
2023-07-14T10:31:57.035Z,payment,network_out,35684
2023-07-14T10:31:57.035Z,carts-post,network_out,54397
2023-07-14T10:31:58.408Z,orders,network_out,45707
2023-07-14T10:31:58.408Z,carts-get,network_out,53155
2023-07-14T10:31:58.408Z,catalogue,network_out,39215
2023-07-14T10:31:58.408Z,shipping,network_out,34836
2023-07-14T10:32:06.641Z,carts,network_out,55605
2023-07-14T10:32:06.641Z,carts-delete,network_out,54576
2023-07-14T10:32:06.641Z,user-login,network_out,63967
2023-07-14T10:32:07.036Z,queue-master,network_out,49404
2023-07-14T10:32:07.036Z,carts-post,network_out,56653
2023-07-14T10:32:07.036Z,payment,network_out,37995
2023-07-14T10:32:07.036Z,user-register,network_out,62180
2023-07-14T10:32:07.036Z,user,network_out,58811
2023-07-14T10:32:08.407Z,shipping,network_out,39356
2023-07-14T10:32:08.407Z,carts-get,network_out,59031
2023-07-14T10:32:08.407Z,catalogue,network_out,41895
2023-07-14T10:32:08.407Z,orders,network_out,47779
2023-07-14T10:32:16.640Z,carts,network_out,57605
2023-07-14T10:32:16.640Z,carts-delete,network_out,60774
2023-07-14T10:32:16.640Z,user-login,network_out,67539
2023-07-14T10:32:17.036Z,payment,network_out,37995
2023-07-14T10:32:17.036Z,queue-master,network_out,49404
2023-07-14T10:32:17.036Z,user-register,network_out,64038
2023-07-14T10:32:17.036Z,user,network_out,58811
2023-07-14T10:32:17.036Z,carts-post,network_out,60719
2023-07-14T10:32:18.407Z,shipping,network_out,39356
2023-07-14T10:32:18.407Z,orders,network_out,51791
2023-07-14T10:32:18.407Z,carts-get,network_out,59031
2023-07-14T10:32:18.407Z,catalogue,network_out,43237
2023-07-14T10:32:26.640Z,user-login,network_out,67539
2023-07-14T10:32:26.640Z,carts,network_out,59539
2023-07-14T10:32:26.640Z,carts-delete,network_out,60774
2023-07-14T10:32:27.035Z,user-register,network_out,67568
2023-07-14T10:32:27.035Z,carts-post,network_out,60719
2023-07-14T10:32:27.035Z,payment,network_out,40241
2023-07-14T10:32:27.035Z,user,network_out,62527
2023-07-14T10:32:27.035Z,queue-master,network_out,52442
2023-07-14T10:32:28.408Z,carts-get,network_out,61221
2023-07-14T10:32:28.408Z,orders,network_out,51791
2023-07-14T10:32:28.408Z,shipping,network_out,42482
2023-07-14T10:32:28.408Z,catalogue,network_out,45919
2023-07-14T10:32:36.640Z,user-login,network_out,67539
2023-07-14T10:32:36.640Z,carts,network_out,59539
2023-07-14T10:32:36.640Z,carts-delete,network_out,60774
2023-07-14T10:32:37.035Z,user-register,network_out,69556
2023-07-14T10:32:37.035Z,carts-post,network_out,64463
2023-07-14T10:32:37.035Z,queue-master,network_out,53998
2023-07-14T10:32:37.035Z,payment,network_out,41397
2023-07-14T10:32:37.035Z,user,network_out,64769
2023-07-14T10:32:38.407Z,carts-get,network_out,61221
2023-07-14T10:32:38.407Z,catalogue,network_out,45919
2023-07-14T10:32:38.407Z,orders,network_out,51791
2023-07-14T10:32:38.407Z,shipping,network_out,42482
2023-07-14T10:32:46.641Z,carts,network_out,59539
2023-07-14T10:32:46.641Z,carts-delete,network_out,64840
2023-07-14T10:32:46.641Z,user-login,network_out,71723
2023-07-14T10:32:47.035Z,queue-master,network_out,53998
2023-07-14T10:32:47.035Z,payment,network_out,41397
2023-07-14T10:32:47.035Z,user-register,network_out,69556
2023-07-14T10:32:47.035Z,user,network_out,64769
2023-07-14T10:32:47.035Z,carts-post,network_out,64463
2023-07-14T10:32:48.408Z,carts-get,network_out,65097
2023-07-14T10:32:48.408Z,catalogue,network_out,48603
2023-07-14T10:32:48.408Z,shipping,network_out,45608
2023-07-14T10:32:48.408Z,orders,network_out,55869
2023-07-14T10:32:56.640Z,user-login,network_out,77537
2023-07-14T10:32:56.640Z,carts-delete,network_out,68906
2023-07-14T10:32:56.640Z,carts,network_out,65729
2023-07-14T10:32:57.036Z,carts-post,network_out,68463
2023-07-14T10:32:57.036Z,user,network_out,68299
2023-07-14T10:32:57.036Z,payment,network_out,42553
2023-07-14T10:32:57.036Z,queue-master,network_out,53998
2023-07-14T10:32:57.036Z,user-register,network_out,73206
2023-07-14T10:32:58.407Z,carts-get,network_out,65097
2023-07-14T10:32:58.407Z,catalogue,network_out,48603
2023-07-14T10:32:58.407Z,shipping,network_out,45608
2023-07-14T10:32:58.407Z,orders,network_out,55869
2023-07-14T10:33:06.640Z,carts,network_out,65729
2023-07-14T10:33:06.640Z,carts-delete,network_out,68906
2023-07-14T10:33:06.640Z,user-login,network_out,77537
2023-07-14T10:33:07.036Z,user,network_out,68299
2023-07-14T10:33:07.036Z,user-register,network_out,75258
2023-07-14T10:33:07.036Z,payment,network_out,44865
2023-07-14T10:33:07.036Z,queue-master,network_out,57028
2023-07-14T10:33:07.036Z,carts-post,network_out,70719
2023-07-14T10:33:08.407Z,carts-get,network_out,69097
2023-07-14T10:33:08.407Z,shipping,network_out,47134
2023-07-14T10:33:08.407Z,catalogue,network_out,48603
2023-07-14T10:33:08.407Z,orders,network_out,57941
2023-07-14T10:33:16.640Z,carts,network_out,69605
2023-07-14T10:33:16.640Z,carts-delete,network_out,70906
2023-07-14T10:33:16.640Z,user-login,network_out,79209
2023-07-14T10:33:17.035Z,user,network_out,72213
2023-07-14T10:33:17.035Z,payment,network_out,46021
2023-07-14T10:33:17.035Z,queue-master,network_out,60264
2023-07-14T10:33:17.035Z,carts-post,network_out,74661
2023-07-14T10:33:17.035Z,user-register,network_out,78974
2023-07-14T10:33:18.408Z,carts-get,network_out,71287
2023-07-14T10:33:18.408Z,catalogue,network_out,52629
2023-07-14T10:33:18.408Z,shipping,network_out,48528
2023-07-14T10:33:18.408Z,orders,network_out,61953
2023-07-14T10:33:26.640Z,user-login,network_out,79209
2023-07-14T10:33:26.640Z,carts-delete,network_out,72906
2023-07-14T10:33:26.640Z,carts,network_out,71605
2023-07-14T10:33:27.036Z,user,network_out,76127
2023-07-14T10:33:27.036Z,carts-post,network_out,74661
2023-07-14T10:33:27.036Z,user-register,network_out,80964
2023-07-14T10:33:27.036Z,payment,network_out,48333
2023-07-14T10:33:27.036Z,queue-master,network_out,61812
2023-07-14T10:33:28.408Z,orders,network_out,61953
2023-07-14T10:33:28.408Z,carts-get,network_out,71287
2023-07-14T10:33:28.408Z,catalogue,network_out,52629
2023-07-14T10:33:28.408Z,shipping,network_out,48528
2023-07-14T10:33:36.640Z,carts-delete,network_out,76972
2023-07-14T10:33:36.640Z,user-login,network_out,85241
2023-07-14T10:33:36.640Z,carts,network_out,75605
2023-07-14T10:33:37.035Z,queue-master,network_out,61812
2023-07-14T10:33:37.035Z,payment,network_out,48333
2023-07-14T10:33:37.035Z,carts-post,network_out,74661
2023-07-14T10:33:37.035Z,user-register,network_out,80964
2023-07-14T10:33:37.035Z,user,network_out,76127
2023-07-14T10:33:38.408Z,catalogue,network_out,55305
2023-07-14T10:33:38.408Z,orders,network_out,67649
2023-07-14T10:33:38.408Z,carts-get,network_out,77221
2023-07-14T10:33:38.408Z,shipping,network_out,51720
2023-07-14T10:33:46.640Z,carts-delete,network_out,76972
2023-07-14T10:33:46.640Z,carts,network_out,75605
2023-07-14T10:33:46.640Z,user-login,network_out,85241
2023-07-14T10:33:47.035Z,queue-master,network_out,64850
2023-07-14T10:33:47.035Z,carts-post,network_out,76917
2023-07-14T10:33:47.035Z,user,network_out,76127
2023-07-14T10:33:47.035Z,payment,network_out,49489
2023-07-14T10:33:47.035Z,user-register,network_out,82822
2023-07-14T10:33:48.407Z,catalogue,network_out,55305
2023-07-14T10:33:48.407Z,shipping,network_out,51720
2023-07-14T10:33:48.407Z,carts-get,network_out,77221
2023-07-14T10:33:48.407Z,orders,network_out,67649
2023-07-14T10:33:56.640Z,user-login,network_out,85241
2023-07-14T10:33:56.640Z,carts,network_out,75605
2023-07-14T10:33:56.640Z,carts-delete,network_out,76972
2023-07-14T10:33:57.036Z,payment,network_out,51800
2023-07-14T10:33:57.036Z,user-register,network_out,86736
2023-07-14T10:33:57.036Z,carts-post,network_out,82661
2023-07-14T10:33:57.036Z,user,network_out,81899
2023-07-14T10:33:57.036Z,queue-master,network_out,67814
2023-07-14T10:33:58.408Z,carts-get,network_out,80965
2023-07-14T10:33:58.408Z,orders,network_out,69911
2023-07-14T10:33:58.408Z,shipping,network_out,56372
2023-07-14T10:33:58.408Z,catalogue,network_out,56647
2023-07-14T10:34:06.640Z,carts,network_out,81737
2023-07-14T10:34:06.640Z,carts-delete,network_out,80972
2023-07-14T10:34:06.640Z,user-login,network_out,89601
2023-07-14T10:34:07.036Z,user,network_out,81899
2023-07-14T10:34:07.036Z,payment,network_out,51800
2023-07-14T10:34:07.036Z,carts-post,network_out,84785
2023-07-14T10:34:07.036Z,queue-master,network_out,69436
2023-07-14T10:34:07.036Z,user-register,network_out,86736
2023-07-14T10:34:08.407Z,carts-get,network_out,80965
2023-07-14T10:34:08.407Z,orders,network_out,69911
2023-07-14T10:34:08.407Z,shipping,network_out,56372
2023-07-14T10:34:08.407Z,catalogue,network_out,56647
2023-07-14T10:34:16.641Z,carts,network_out,83873
2023-07-14T10:34:16.641Z,user-login,network_out,91459
2023-07-14T10:34:16.641Z,carts-delete,network_out,85174
2023-07-14T10:34:17.036Z,user,network_out,81899
2023-07-14T10:34:17.036Z,carts-post,network_out,84785
2023-07-14T10:34:17.036Z,queue-master,network_out,69436
2023-07-14T10:34:17.036Z,user-register,network_out,86736
2023-07-14T10:34:17.036Z,payment,network_out,51800
2023-07-14T10:34:18.407Z,shipping,network_out,56372
2023-07-14T10:34:18.407Z,carts-get,network_out,82965
2023-07-14T10:34:18.407Z,orders,network_out,73989
2023-07-14T10:34:18.407Z,catalogue,network_out,59327
2023-07-14T10:34:26.640Z,carts,network_out,83873
2023-07-14T10:34:26.640Z,carts-delete,network_out,85174
2023-07-14T10:34:26.640Z,user-login,network_out,91459
2023-07-14T10:34:27.035Z,carts-post,network_out,84785
2023-07-14T10:34:27.035Z,user-register,network_out,90452
2023-07-14T10:34:27.035Z,queue-master,network_out,69436
2023-07-14T10:34:27.035Z,payment,network_out,54182
2023-07-14T10:34:27.035Z,user,network_out,83757
2023-07-14T10:34:28.407Z,shipping,network_out,59424
2023-07-14T10:34:28.407Z,catalogue,network_out,60669
2023-07-14T10:34:28.407Z,carts-get,network_out,85155
2023-07-14T10:34:28.407Z,orders,network_out,75929
2023-07-14T10:34:36.640Z,carts-delete,network_out,87108
2023-07-14T10:34:36.640Z,carts,network_out,83873
2023-07-14T10:34:36.640Z,user-login,network_out,95373
2023-07-14T10:34:37.036Z,user,network_out,87857
2023-07-14T10:34:37.036Z,user-register,network_out,92694
2023-07-14T10:34:37.036Z,payment,network_out,55336
2023-07-14T10:34:37.036Z,queue-master,network_out,72536
2023-07-14T10:34:37.036Z,carts-post,network_out,88727
2023-07-14T10:34:38.408Z,carts-get,network_out,89101
2023-07-14T10:34:38.408Z,shipping,network_out,61028
2023-07-14T10:34:38.408Z,orders,network_out,77939
2023-07-14T10:34:38.408Z,catalogue,network_out,63423
2023-07-14T10:34:46.640Z,carts,network_out,87873
2023-07-14T10:34:46.640Z,carts-delete,network_out,87108
2023-07-14T10:34:46.640Z,user-login,network_out,95373
2023-07-14T10:34:47.036Z,payment,network_out,57648
2023-07-14T10:34:47.036Z,carts-post,network_out,92661
2023-07-14T10:34:47.036Z,user-register,network_out,92694
2023-07-14T10:34:47.036Z,user,network_out,89529
2023-07-14T10:34:47.036Z,queue-master,network_out,75640
2023-07-14T10:34:48.407Z,shipping,network_out,61028
2023-07-14T10:34:48.407Z,orders,network_out,77939
2023-07-14T10:34:48.407Z,carts-get,network_out,89101
2023-07-14T10:34:48.407Z,catalogue,network_out,63423
2023-07-14T10:34:56.640Z,user-login,network_out,100959
2023-07-14T10:34:56.640Z,carts,network_out,90063
2023-07-14T10:34:56.640Z,carts-delete,network_out,93108
2023-07-14T10:34:57.035Z,user-register,network_out,92694
2023-07-14T10:34:57.035Z,user,network_out,89529
2023-07-14T10:34:57.035Z,payment,network_out,57648
2023-07-14T10:34:57.035Z,carts-post,network_out,92661
2023-07-14T10:34:57.035Z,queue-master,network_out,75640
2023-07-14T10:34:58.407Z,shipping,network_out,64022
2023-07-14T10:34:58.407Z,catalogue,network_out,64765
2023-07-14T10:34:58.407Z,orders,network_out,81951
2023-07-14T10:34:58.407Z,carts-get,network_out,91225
2023-07-14T10:35:06.641Z,user-login,network_out,100959
2023-07-14T10:35:06.641Z,carts,network_out,93939
2023-07-14T10:35:06.641Z,carts-delete,network_out,93108
2023-07-14T10:35:07.035Z,queue-master,network_out,75640
2023-07-14T10:35:07.035Z,user-register,network_out,96224
2023-07-14T10:35:07.035Z,payment,network_out,57648
2023-07-14T10:35:07.035Z,carts-post,network_out,94917
2023-07-14T10:35:07.035Z,user,network_out,89529
2023-07-14T10:35:08.408Z,catalogue,network_out,67449
2023-07-14T10:35:08.408Z,carts-get,network_out,93225
2023-07-14T10:35:08.408Z,orders,network_out,83891
2023-07-14T10:35:08.408Z,shipping,network_out,65548
2023-07-14T10:35:16.640Z,user-login,network_out,100959
2023-07-14T10:35:16.640Z,carts-delete,network_out,93108
2023-07-14T10:35:16.640Z,carts,network_out,93939
2023-07-14T10:35:17.036Z,queue-master,network_out,80094
2023-07-14T10:35:17.036Z,user-register,network_out,100208
2023-07-14T10:35:17.036Z,user,network_out,95299
2023-07-14T10:35:17.036Z,payment,network_out,59960
2023-07-14T10:35:17.036Z,carts-post,network_out,98595
2023-07-14T10:35:18.408Z,orders,network_out,83891
2023-07-14T10:35:18.408Z,carts-get,network_out,93225
2023-07-14T10:35:18.408Z,shipping,network_out,65548
2023-07-14T10:35:18.408Z,catalogue,network_out,67449
2023-07-14T10:35:26.640Z,carts,network_out,96005
2023-07-14T10:35:26.640Z,user-login,network_out,103045
2023-07-14T10:35:26.640Z,carts-delete,network_out,97174
2023-07-14T10:35:27.035Z,payment,network_out,59960
2023-07-14T10:35:27.035Z,user,network_out,95299
2023-07-14T10:35:27.035Z,queue-master,network_out,80094
2023-07-14T10:35:27.035Z,carts-post,network_out,98595
2023-07-14T10:35:27.035Z,user-register,network_out,100208
2023-07-14T10:35:28.408Z,orders,network_out,89975
2023-07-14T10:35:28.408Z,catalogue,network_out,70133
2023-07-14T10:35:28.408Z,carts-get,network_out,95291
2023-07-14T10:35:28.408Z,shipping,network_out,68740
2023-07-14T10:35:36.640Z,carts,network_out,97939
2023-07-14T10:35:36.640Z,carts-delete,network_out,97174
2023-07-14T10:35:36.640Z,user-login,network_out,107175
2023-07-14T10:35:37.035Z,payment,network_out,62272
2023-07-14T10:35:37.035Z,user-register,network_out,104122
2023-07-14T10:35:37.035Z,queue-master,network_out,80094
2023-07-14T10:35:37.035Z,carts-post,network_out,98595
2023-07-14T10:35:37.035Z,user,network_out,99399
2023-07-14T10:35:38.407Z,orders,network_out,89975
2023-07-14T10:35:38.407Z,carts-get,network_out,95291
2023-07-14T10:35:38.407Z,shipping,network_out,68740
2023-07-14T10:35:38.407Z,catalogue,network_out,70133
2023-07-14T10:35:46.640Z,carts,network_out,97939
2023-07-14T10:35:46.640Z,user-login,network_out,107175
2023-07-14T10:35:46.640Z,carts-delete,network_out,101174
2023-07-14T10:35:47.035Z,user-register,network_out,104122
2023-07-14T10:35:47.035Z,payment,network_out,62272
2023-07-14T10:35:47.035Z,carts-post,network_out,102529
2023-07-14T10:35:47.035Z,queue-master,network_out,81716
2023-07-14T10:35:47.035Z,user,network_out,99399
2023-07-14T10:35:48.407Z,orders,network_out,89975
2023-07-14T10:35:48.407Z,shipping,network_out,70266
2023-07-14T10:35:48.407Z,catalogue,network_out,71475
2023-07-14T10:35:48.407Z,carts-get,network_out,99423
2023-07-14T10:35:56.640Z,carts,network_out,100005
2023-07-14T10:35:56.640Z,carts-delete,network_out,103174
2023-07-14T10:35:56.640Z,user-login,network_out,110699
2023-07-14T10:35:57.036Z,carts-post,network_out,104789
2023-07-14T10:35:57.036Z,user-register,network_out,107838
2023-07-14T10:35:57.036Z,user,network_out,104983
2023-07-14T10:35:57.036Z,payment,network_out,65608
2023-07-14T10:35:57.036Z,queue-master,network_out,84812
2023-07-14T10:35:58.407Z,carts-get,network_out,103489
2023-07-14T10:35:58.407Z,catalogue,network_out,72817
2023-07-14T10:35:58.407Z,shipping,network_out,74786
2023-07-14T10:35:58.407Z,orders,network_out,95935
2023-07-14T10:36:06.640Z,carts-delete,network_out,103174
2023-07-14T10:36:06.640Z,user-login,network_out,110699
2023-07-14T10:36:06.640Z,carts,network_out,100005
2023-07-14T10:36:07.035Z,payment,network_out,65608
2023-07-14T10:36:07.035Z,user-register,network_out,107838
2023-07-14T10:36:07.035Z,user,network_out,104983
2023-07-14T10:36:07.035Z,carts-post,network_out,104789
2023-07-14T10:36:07.035Z,queue-master,network_out,84812
2023-07-14T10:36:08.408Z,orders,network_out,95935
2023-07-14T10:36:08.408Z,shipping,network_out,74786
2023-07-14T10:36:08.408Z,carts-get,network_out,107365
2023-07-14T10:36:08.408Z,catalogue,network_out,75501
2023-07-14T10:36:16.640Z,carts,network_out,103939
2023-07-14T10:36:16.640Z,carts-delete,network_out,105298
2023-07-14T10:36:16.640Z,user-login,network_out,114655
2023-07-14T10:36:17.035Z,user,network_out,104983
2023-07-14T10:36:17.035Z,user-register,network_out,110080
2023-07-14T10:36:17.035Z,queue-master,network_out,84812
2023-07-14T10:36:17.035Z,payment,network_out,65608
2023-07-14T10:36:17.035Z,carts-post,network_out,108599
2023-07-14T10:36:18.407Z,carts-get,network_out,107365
2023-07-14T10:36:18.407Z,orders,network_out,95935
2023-07-14T10:36:18.407Z,shipping,network_out,74786
2023-07-14T10:36:18.407Z,catalogue,network_out,75501
2023-07-14T10:36:26.640Z,carts-delete,network_out,109240
2023-07-14T10:36:26.640Z,carts,network_out,109939
2023-07-14T10:36:26.640Z,user-login,network_out,116513
2023-07-14T10:36:27.035Z,user,network_out,106841
2023-07-14T10:36:27.035Z,payment,network_out,67920
2023-07-14T10:36:27.035Z,user-register,network_out,113608
2023-07-14T10:36:27.035Z,carts-post,network_out,108599
2023-07-14T10:36:27.035Z,queue-master,network_out,87916
2023-07-14T10:36:28.408Z,catalogue,network_out,76843
2023-07-14T10:36:28.408Z,shipping,network_out,79504
2023-07-14T10:36:28.408Z,carts-get,network_out,111555
2023-07-14T10:36:28.408Z,orders,network_out,102275
2023-07-14T10:36:36.640Z,carts,network_out,109939
2023-07-14T10:36:36.640Z,user-login,network_out,120647
2023-07-14T10:36:36.640Z,carts-delete,network_out,113372
2023-07-14T10:36:37.036Z,payment,network_out,69076
2023-07-14T10:36:37.036Z,carts-post,network_out,112599
2023-07-14T10:36:37.036Z,user,network_out,112683
2023-07-14T10:36:37.036Z,user-register,network_out,117522
2023-07-14T10:36:37.036Z,queue-master,network_out,90946
2023-07-14T10:36:38.407Z,shipping,network_out,79504
2023-07-14T10:36:38.407Z,carts-get,network_out,111555
2023-07-14T10:36:38.407Z,orders,network_out,102275
2023-07-14T10:36:38.407Z,catalogue,network_out,76843
2023-07-14T10:36:46.640Z,user-login,network_out,120647
2023-07-14T10:36:46.640Z,carts,network_out,114005
2023-07-14T10:36:46.640Z,carts-delete,network_out,113372
2023-07-14T10:36:47.035Z,queue-master,network_out,90946
2023-07-14T10:36:47.035Z,payment,network_out,69076
2023-07-14T10:36:47.035Z,carts-post,network_out,112599
2023-07-14T10:36:47.035Z,user-register,network_out,117522
2023-07-14T10:36:47.035Z,user,network_out,112683
2023-07-14T10:36:48.408Z,shipping,network_out,80964
2023-07-14T10:36:48.408Z,catalogue,network_out,78185
2023-07-14T10:36:48.408Z,orders,network_out,102275
2023-07-14T10:36:48.408Z,carts-get,network_out,111555
2023-07-14T10:36:56.640Z,user-login,network_out,120647
2023-07-14T10:36:56.640Z,carts-delete,network_out,113372
2023-07-14T10:36:56.640Z,carts,network_out,114005
2023-07-14T10:36:57.035Z,queue-master,network_out,94050
2023-07-14T10:36:57.035Z,user-register,network_out,119380
2023-07-14T10:36:57.035Z,user,network_out,114541
2023-07-14T10:36:57.035Z,payment,network_out,71388
2023-07-14T10:36:57.035Z,carts-post,network_out,114723
2023-07-14T10:36:58.407Z,shipping,network_out,82564
2023-07-14T10:36:58.407Z,carts-get,network_out,117687
2023-07-14T10:36:58.407Z,orders,network_out,108359
2023-07-14T10:36:58.407Z,catalogue,network_out,82207
2023-07-14T10:37:06.640Z,user-login,network_out,124561
2023-07-14T10:37:06.640Z,carts-delete,network_out,115306
2023-07-14T10:37:06.640Z,carts,network_out,114005
2023-07-14T10:37:07.035Z,user-register,network_out,121556
2023-07-14T10:37:07.035Z,carts-post,network_out,118533
2023-07-14T10:37:07.035Z,user,network_out,118389
2023-07-14T10:37:07.035Z,payment,network_out,73700
2023-07-14T10:37:07.035Z,queue-master,network_out,95672
2023-07-14T10:37:08.407Z,catalogue,network_out,82207
2023-07-14T10:37:08.407Z,shipping,network_out,82564
2023-07-14T10:37:08.407Z,carts-get,network_out,117687
2023-07-14T10:37:08.407Z,orders,network_out,108359
2023-07-14T10:37:16.640Z,user-login,network_out,126461
2023-07-14T10:37:16.640Z,carts,network_out,116005
2023-07-14T10:37:16.640Z,carts-delete,network_out,119306
2023-07-14T10:37:17.036Z,carts-post,network_out,122533
2023-07-14T10:37:17.036Z,user-register,network_out,125084
2023-07-14T10:37:17.036Z,payment,network_out,74856
2023-07-14T10:37:17.036Z,queue-master,network_out,98702
2023-07-14T10:37:17.036Z,user,network_out,118389
2023-07-14T10:37:18.408Z,orders,network_out,110431
2023-07-14T10:37:18.408Z,catalogue,network_out,84889
2023-07-14T10:37:18.408Z,shipping,network_out,85550
2023-07-14T10:37:18.408Z,carts-get,network_out,121753
2023-07-14T10:37:26.640Z,carts-delete,network_out,121240
2023-07-14T10:37:26.640Z,user-login,network_out,128319
2023-07-14T10:37:26.640Z,carts,network_out,120005
2023-07-14T10:37:27.036Z,queue-master,network_out,98702
2023-07-14T10:37:27.036Z,user,network_out,118389
2023-07-14T10:37:27.036Z,user-register,network_out,125084
2023-07-14T10:37:27.036Z,payment,network_out,74856
2023-07-14T10:37:27.036Z,carts-post,network_out,122533
2023-07-14T10:37:28.407Z,orders,network_out,110431
2023-07-14T10:37:28.407Z,shipping,network_out,85550
2023-07-14T10:37:28.407Z,catalogue,network_out,84889
2023-07-14T10:37:28.407Z,carts-get,network_out,121753
2023-07-14T10:37:36.640Z,carts,network_out,120005
2023-07-14T10:37:36.640Z,user-login,network_out,128319
2023-07-14T10:37:36.640Z,carts-delete,network_out,121240
2023-07-14T10:37:37.035Z,payment,network_out,74856
2023-07-14T10:37:37.035Z,carts-post,network_out,122533
2023-07-14T10:37:37.035Z,user-register,network_out,125084
2023-07-14T10:37:37.035Z,user,network_out,122303
2023-07-14T10:37:37.035Z,queue-master,network_out,98702
2023-07-14T10:37:38.407Z,catalogue,network_out,87502
2023-07-14T10:37:38.407Z,carts-get,network_out,125695
2023-07-14T10:37:38.407Z,shipping,network_out,90136
2023-07-14T10:37:38.407Z,orders,network_out,114311
