2023-07-14T10:27:28.408Z,cadvisor-dhdcp,network_out,234163
2023-07-14T10:27:27.036Z,cadvisor-hwt2b,network_out,305906
2023-07-14T10:27:37.036Z,cadvisor-hwt2b,network_out,305906
2023-07-14T10:27:57.036Z,cadvisor-hwt2b,network_out,381290
2023-07-14T10:27:58.407Z,cadvisor-dhdcp,network_out,334929
2023-07-14T10:27:16.520Z,cadvisor-hwt2b,network_out,231775
2023-07-14T10:27:17.895Z,cadvisor-dhdcp,network_out,234163
2023-07-14T10:27:48.407Z,cadvisor-dhdcp,network_out,334929
2023-07-14T10:27:47.035Z,cadvisor-hwt2b,network_out,305906
2023-07-14T10:27:38.407Z,cadvisor-dhdcp,network_out,234163
2023-07-14T10:28:07.036Z,cadvisor-hwt2b,network_out,456015
2023-07-14T10:27:16.262Z,cadvisor-kqgnz,network_out,180306
2023-07-14T10:27:26.641Z,cadvisor-kqgnz,network_out,249530
2023-07-14T10:28:06.640Z,cadvisor-kqgnz,network_out,416381
2023-07-14T10:28:08.407Z,cadvisor-dhdcp,network_out,436641
2023-07-14T10:27:56.640Z,cadvisor-kqgnz,network_out,416381
2023-07-14T10:27:36.640Z,cadvisor-kqgnz,network_out,249530
2023-07-14T10:27:46.640Z,cadvisor-kqgnz,network_out,320993
2023-07-14T10:28:16.641Z,cadvisor-kqgnz,network_out,511965
2023-07-14T10:28:17.036Z,cadvisor-hwt2b,network_out,506016
2023-07-14T10:28:18.407Z,cadvisor-dhdcp,network_out,512938
2023-07-14T10:28:26.640Z,cadvisor-kqgnz,network_out,511965
2023-07-14T10:28:27.036Z,cadvisor-hwt2b,network_out,605908
2023-07-14T10:28:28.407Z,cadvisor-dhdcp,network_out,512938
2023-07-14T10:28:36.640Z,cadvisor-kqgnz,network_out,559767
2023-07-14T10:28:37.036Z,cadvisor-hwt2b,network_out,605908
2023-07-14T10:28:38.408Z,cadvisor-dhdcp,network_out,614797
2023-07-14T10:28:46.640Z,cadvisor-kqgnz,network_out,607509
2023-07-14T10:28:47.035Z,cadvisor-hwt2b,network_out,605908
2023-07-14T10:28:48.407Z,cadvisor-dhdcp,network_out,614797
2023-07-14T10:28:56.640Z,cadvisor-kqgnz,network_out,679166
2023-07-14T10:28:57.036Z,cadvisor-hwt2b,network_out,680749
2023-07-14T10:28:58.408Z,cadvisor-dhdcp,network_out,716541
2023-07-14T10:29:06.640Z,cadvisor-kqgnz,network_out,679166
2023-07-14T10:29:07.036Z,cadvisor-hwt2b,network_out,755618
2023-07-14T10:29:08.408Z,cadvisor-dhdcp,network_out,767409
2023-07-14T10:29:16.641Z,cadvisor-kqgnz,network_out,774669
2023-07-14T10:29:17.035Z,cadvisor-hwt2b,network_out,755618
2023-07-14T10:29:18.410Z,cadvisor-dhdcp,network_out,843684
2023-07-14T10:29:26.640Z,cadvisor-kqgnz,network_out,774669
2023-07-14T10:29:27.035Z,cadvisor-hwt2b,network_out,855735
2023-07-14T10:29:28.407Z,cadvisor-dhdcp,network_out,843684
2023-07-14T10:29:36.640Z,cadvisor-kqgnz,network_out,822513
2023-07-14T10:29:37.035Z,cadvisor-hwt2b,network_out,855735
2023-07-14T10:29:38.408Z,cadvisor-dhdcp,network_out,945401
2023-07-14T10:29:46.640Z,cadvisor-kqgnz,network_out,870316
2023-07-14T10:29:47.036Z,cadvisor-hwt2b,network_out,930785
2023-07-14T10:29:48.407Z,cadvisor-dhdcp,network_out,945401
2023-07-14T10:29:56.640Z,cadvisor-kqgnz,network_out,918010
2023-07-14T10:29:57.035Z,cadvisor-hwt2b,network_out,1005647
2023-07-14T10:29:58.408Z,cadvisor-dhdcp,network_out,945401
2023-07-14T10:30:06.640Z,cadvisor-kqgnz,network_out,918010
2023-07-14T10:30:07.035Z,cadvisor-hwt2b,network_out,1005647
2023-07-14T10:30:08.407Z,cadvisor-dhdcp,network_out,1097939
2023-07-14T10:30:16.640Z,cadvisor-kqgnz,network_out,1013287
2023-07-14T10:30:17.036Z,cadvisor-hwt2b,network_out,1080731
2023-07-14T10:30:18.408Z,cadvisor-dhdcp,network_out,1097939
2023-07-14T10:30:26.640Z,cadvisor-kqgnz,network_out,1084864
2023-07-14T10:30:27.035Z,cadvisor-hwt2b,network_out,1080731
2023-07-14T10:30:28.407Z,cadvisor-dhdcp,network_out,1097939
2023-07-14T10:30:36.640Z,cadvisor-kqgnz,network_out,1084864
2023-07-14T10:30:37.035Z,cadvisor-hwt2b,network_out,1155888
2023-07-14T10:30:38.408Z,cadvisor-dhdcp,network_out,1174367
2023-07-14T10:30:46.640Z,cadvisor-kqgnz,network_out,1180424
2023-07-14T10:30:47.036Z,cadvisor-hwt2b,network_out,1280782
2023-07-14T10:30:48.407Z,cadvisor-dhdcp,network_out,1276222
2023-07-14T10:30:56.641Z,cadvisor-kqgnz,network_out,1180424
2023-07-14T10:30:57.035Z,cadvisor-hwt2b,network_out,1280782
2023-07-14T10:30:58.408Z,cadvisor-dhdcp,network_out,1352451
2023-07-14T10:31:06.640Z,cadvisor-kqgnz,network_out,1347664
2023-07-14T10:31:07.035Z,cadvisor-hwt2b,network_out,1355844
2023-07-14T10:31:08.407Z,cadvisor-dhdcp,network_out,1352451
2023-07-14T10:31:16.640Z,cadvisor-kqgnz,network_out,1347664
2023-07-14T10:31:17.035Z,cadvisor-hwt2b,network_out,1405933
2023-07-14T10:31:18.407Z,cadvisor-dhdcp,network_out,1428622
2023-07-14T10:31:26.640Z,cadvisor-kqgnz,network_out,1395465
2023-07-14T10:31:27.035Z,cadvisor-hwt2b,network_out,1505856
2023-07-14T10:31:28.407Z,cadvisor-dhdcp,network_out,1504952
2023-07-14T10:31:36.640Z,cadvisor-kqgnz,network_out,1395465
2023-07-14T10:31:37.035Z,cadvisor-hwt2b,network_out,1505856
2023-07-14T10:31:38.408Z,cadvisor-dhdcp,network_out,1504952
2023-07-14T10:31:46.641Z,cadvisor-kqgnz,network_out,1467035
2023-07-14T10:31:47.036Z,cadvisor-hwt2b,network_out,1580782
2023-07-14T10:31:48.407Z,cadvisor-dhdcp,network_out,1504952
2023-07-14T10:31:56.640Z,cadvisor-kqgnz,network_out,1467035
2023-07-14T10:31:57.035Z,cadvisor-hwt2b,network_out,1580782
2023-07-14T10:31:58.408Z,cadvisor-dhdcp,network_out,1581334
2023-07-14T10:32:06.641Z,cadvisor-kqgnz,network_out,1538488
2023-07-14T10:32:07.036Z,cadvisor-hwt2b,network_out,1580782
2023-07-14T10:32:08.407Z,cadvisor-dhdcp,network_out,1708670
2023-07-14T10:32:16.640Z,cadvisor-kqgnz,network_out,1657979
2023-07-14T10:32:17.036Z,cadvisor-hwt2b,network_out,1655729
2023-07-14T10:32:18.407Z,cadvisor-dhdcp,network_out,1708670
2023-07-14T10:32:26.640Z,cadvisor-kqgnz,network_out,1657979
2023-07-14T10:32:27.035Z,cadvisor-hwt2b,network_out,1730699
2023-07-14T10:32:28.408Z,cadvisor-dhdcp,network_out,1810453
2023-07-14T10:32:36.640Z,cadvisor-kqgnz,network_out,1657979
2023-07-14T10:32:37.035Z,cadvisor-hwt2b,network_out,1830850
2023-07-14T10:32:38.407Z,cadvisor-dhdcp,network_out,1810453
2023-07-14T10:32:46.641Z,cadvisor-kqgnz,network_out,1729634
2023-07-14T10:32:47.035Z,cadvisor-hwt2b,network_out,1830850
2023-07-14T10:32:48.408Z,cadvisor-dhdcp,network_out,1886799
2023-07-14T10:32:56.640Z,cadvisor-kqgnz,network_out,1825171
2023-07-14T10:32:57.036Z,cadvisor-hwt2b,network_out,1830850
2023-07-14T10:32:58.407Z,cadvisor-dhdcp,network_out,1886799
2023-07-14T10:33:06.640Z,cadvisor-kqgnz,network_out,1825171
2023-07-14T10:33:07.036Z,cadvisor-hwt2b,network_out,1931084
2023-07-14T10:33:08.407Z,cadvisor-dhdcp,network_out,1963039
2023-07-14T10:33:16.640Z,cadvisor-kqgnz,network_out,1920786
2023-07-14T10:33:17.035Z,cadvisor-hwt2b,network_out,2005968
2023-07-14T10:33:18.408Z,cadvisor-dhdcp,network_out,2013903
2023-07-14T10:33:26.640Z,cadvisor-kqgnz,network_out,1920786
2023-07-14T10:33:27.036Z,cadvisor-hwt2b,network_out,2056062
2023-07-14T10:33:28.408Z,cadvisor-dhdcp,network_out,2013903
2023-07-14T10:33:36.640Z,cadvisor-kqgnz,network_out,2040210
2023-07-14T10:33:37.035Z,cadvisor-hwt2b,network_out,2056062
2023-07-14T10:33:38.408Z,cadvisor-dhdcp,network_out,2115691
2023-07-14T10:33:46.640Z,cadvisor-kqgnz,network_out,2040210
2023-07-14T10:33:47.035Z,cadvisor-hwt2b,network_out,2155830
2023-07-14T10:33:48.407Z,cadvisor-dhdcp,network_out,2115691
2023-07-14T10:33:56.640Z,cadvisor-kqgnz,network_out,2040210
2023-07-14T10:33:57.036Z,cadvisor-hwt2b,network_out,2230969
2023-07-14T10:33:58.408Z,cadvisor-dhdcp,network_out,2242799
2023-07-14T10:34:06.640Z,cadvisor-kqgnz,network_out,2159549
2023-07-14T10:34:07.036Z,cadvisor-hwt2b,network_out,2230969
2023-07-14T10:34:08.407Z,cadvisor-dhdcp,network_out,2242799
2023-07-14T10:34:16.641Z,cadvisor-kqgnz,network_out,2231288
2023-07-14T10:34:17.036Z,cadvisor-hwt2b,network_out,2230969
2023-07-14T10:34:18.407Z,cadvisor-dhdcp,network_out,2293680
2023-07-14T10:34:26.640Z,cadvisor-kqgnz,network_out,2231288
2023-07-14T10:34:27.035Z,cadvisor-hwt2b,network_out,2306063
2023-07-14T10:34:28.407Z,cadvisor-dhdcp,network_out,2370062
2023-07-14T10:34:36.640Z,cadvisor-kqgnz,network_out,2278991
2023-07-14T10:34:37.036Z,cadvisor-hwt2b,network_out,2406049
2023-07-14T10:34:38.408Z,cadvisor-dhdcp,network_out,2446384
2023-07-14T10:34:46.640Z,cadvisor-kqgnz,network_out,2278991
2023-07-14T10:34:47.036Z,cadvisor-hwt2b,network_out,2481201
2023-07-14T10:34:48.407Z,cadvisor-dhdcp,network_out,2446384
2023-07-14T10:34:56.640Z,cadvisor-kqgnz,network_out,2422437
2023-07-14T10:34:57.035Z,cadvisor-hwt2b,network_out,2481201
2023-07-14T10:34:58.407Z,cadvisor-dhdcp,network_out,2548284
2023-07-14T10:35:06.641Z,cadvisor-kqgnz,network_out,2422437
2023-07-14T10:35:07.035Z,cadvisor-hwt2b,network_out,2531210
2023-07-14T10:35:08.408Z,cadvisor-dhdcp,network_out,2624677
2023-07-14T10:35:16.640Z,cadvisor-kqgnz,network_out,2422437
2023-07-14T10:35:17.036Z,cadvisor-hwt2b,network_out,2631247
2023-07-14T10:35:18.408Z,cadvisor-dhdcp,network_out,2624677
2023-07-14T10:35:26.640Z,cadvisor-kqgnz,network_out,2494059
2023-07-14T10:35:27.035Z,cadvisor-hwt2b,network_out,2631247
2023-07-14T10:35:28.408Z,cadvisor-dhdcp,network_out,2701119
2023-07-14T10:35:36.640Z,cadvisor-kqgnz,network_out,2565642
2023-07-14T10:35:37.035Z,cadvisor-hwt2b,network_out,2681368
2023-07-14T10:35:38.407Z,cadvisor-dhdcp,network_out,2701119
2023-07-14T10:35:46.640Z,cadvisor-kqgnz,network_out,2565642
2023-07-14T10:35:47.035Z,cadvisor-hwt2b,network_out,2731462
2023-07-14T10:35:48.407Z,cadvisor-dhdcp,network_out,2802981
2023-07-14T10:35:56.640Z,cadvisor-kqgnz,network_out,2709061
2023-07-14T10:35:57.036Z,cadvisor-hwt2b,network_out,2831579
2023-07-14T10:35:58.407Z,cadvisor-dhdcp,network_out,2853935
2023-07-14T10:36:06.640Z,cadvisor-kqgnz,network_out,2709061
2023-07-14T10:36:07.035Z,cadvisor-hwt2b,network_out,2831579
2023-07-14T10:36:08.408Z,cadvisor-dhdcp,network_out,2930263
2023-07-14T10:36:16.640Z,cadvisor-kqgnz,network_out,2709061
2023-07-14T10:36:17.035Z,cadvisor-hwt2b,network_out,2881501
2023-07-14T10:36:18.407Z,cadvisor-dhdcp,network_out,2930263
2023-07-14T10:36:26.640Z,cadvisor-kqgnz,network_out,2852451
2023-07-14T10:36:27.035Z,cadvisor-hwt2b,network_out,2881501
2023-07-14T10:36:28.408Z,cadvisor-dhdcp,network_out,3006647
2023-07-14T10:36:36.640Z,cadvisor-kqgnz,network_out,2852451
2023-07-14T10:36:37.036Z,cadvisor-hwt2b,network_out,3031343
2023-07-14T10:36:38.407Z,cadvisor-dhdcp,network_out,3006647
2023-07-14T10:36:46.640Z,cadvisor-kqgnz,network_out,2924214
2023-07-14T10:36:47.035Z,cadvisor-hwt2b,network_out,3031343
2023-07-14T10:36:48.408Z,cadvisor-dhdcp,network_out,3006647
2023-07-14T10:36:56.640Z,cadvisor-kqgnz,network_out,2924214
2023-07-14T10:36:57.035Z,cadvisor-hwt2b,network_out,3081367
2023-07-14T10:36:58.407Z,cadvisor-dhdcp,network_out,3184772
2023-07-14T10:37:06.640Z,cadvisor-kqgnz,network_out,2924214
2023-07-14T10:37:07.035Z,cadvisor-hwt2b,network_out,3206702
2023-07-14T10:37:08.407Z,cadvisor-dhdcp,network_out,3184772
2023-07-14T10:37:16.640Z,cadvisor-kqgnz,network_out,3019705
2023-07-14T10:37:17.036Z,cadvisor-hwt2b,network_out,3206702
2023-07-14T10:37:18.408Z,cadvisor-dhdcp,network_out,3261125
2023-07-14T10:37:26.640Z,cadvisor-kqgnz,network_out,3139094
2023-07-14T10:37:27.036Z,cadvisor-hwt2b,network_out,3206702
2023-07-14T10:37:28.407Z,cadvisor-dhdcp,network_out,3261125
2023-07-14T10:37:36.640Z,cadvisor-kqgnz,network_out,3139094
2023-07-14T10:37:37.035Z,cadvisor-hwt2b,network_out,3281554
2023-07-14T10:37:38.407Z,cadvisor-dhdcp,network_out,3414076
