2023-07-10T12:20:09.716Z,recommendationservice,cpu,0.0326
2023-07-10T12:20:19.717Z,recommendationservice,cpu,0.003
2023-07-10T12:20:29.720Z,recommendationservice,cpu,0.003
2023-07-10T12:20:39.717Z,recommendationservice,cpu,0.008
2023-07-10T12:20:49.717Z,recommendationservice,cpu,0.003
2023-07-10T12:20:59.717Z,recommendationservice,cpu,0.002
2023-07-10T12:21:09.717Z,recommendationservice,cpu,0.004
2023-07-10T12:21:19.717Z,recommendationservice,cpu,0.002
2023-07-10T12:21:29.717Z,recommendationservice,cpu,0.004
2023-07-10T12:21:39.717Z,recommendationservice,cpu,0.003
2023-07-10T12:21:49.717Z,recommendationservice,cpu,0.001
2023-07-10T12:21:59.717Z,recommendationservice,cpu,0.002
2023-07-10T12:22:09.717Z,recommendationservice,cpu,0.004
2023-07-10T12:22:19.717Z,recommendationservice,cpu,0.003
2023-07-10T12:22:29.717Z,recommendationservice,cpu,0.007
2023-07-10T12:22:39.717Z,recommendationservice,cpu,0.004
2023-07-10T12:22:49.717Z,recommendationservice,cpu,0.002
2023-07-10T12:22:59.718Z,recommendationservice,cpu,0
2023-07-10T12:23:09.717Z,recommendationservice,cpu,0.002
2023-07-10T12:23:19.717Z,recommendationservice,cpu,0.001
2023-07-10T12:23:29.717Z,recommendationservice,cpu,0.005
2023-07-10T12:23:39.717Z,recommendationservice,cpu,0.002
2023-07-10T12:23:49.717Z,recommendationservice,cpu,0.002
2023-07-10T12:23:59.717Z,recommendationservice,cpu,0.003
2023-07-10T12:24:09.720Z,recommendationservice,cpu,0.004
2023-07-10T12:24:19.717Z,recommendationservice,cpu,0.002
2023-07-10T12:24:29.717Z,recommendationservice,cpu,0.005
2023-07-10T12:24:39.717Z,recommendationservice,cpu,0.004
2023-07-10T12:24:49.717Z,recommendationservice,cpu,0
2023-07-10T12:24:59.717Z,recommendationservice,cpu,0.002
2023-07-10T12:25:09.717Z,recommendationservice,cpu,0.004
2023-07-10T12:25:19.717Z,recommendationservice,cpu,0.001
2023-07-10T12:25:29.717Z,recommendationservice,cpu,0.006
2023-07-10T12:25:39.717Z,recommendationservice,cpu,0.003
2023-07-10T12:25:49.717Z,recommendationservice,cpu,0.003
2023-07-10T12:25:59.717Z,recommendationservice,cpu,0.002
2023-07-10T12:26:09.717Z,recommendationservice,cpu,0.004
2023-07-10T12:26:19.717Z,recommendationservice,cpu,0.001
2023-07-10T12:26:29.717Z,recommendationservice,cpu,0.004
2023-07-10T12:26:39.717Z,recommendationservice,cpu,0.005
2023-07-10T12:26:49.717Z,recommendationservice,cpu,0.002
2023-07-10T12:26:59.717Z,recommendationservice,cpu,0.001
2023-07-10T12:27:09.720Z,recommendationservice,cpu,0.005
2023-07-10T12:27:19.718Z,recommendationservice,cpu,0.001
2023-07-10T12:27:29.719Z,recommendationservice,cpu,0.003
2023-07-10T12:27:39.721Z,recommendationservice,cpu,0.005
2023-07-10T12:27:49.717Z,recommendationservice,cpu,0.001
2023-07-10T12:27:59.717Z,recommendationservice,cpu,0.002
2023-07-10T12:28:09.717Z,recommendationservice,cpu,0.002
2023-07-10T12:28:19.717Z,recommendationservice,cpu,0.003
2023-07-10T12:28:29.717Z,recommendationservice,cpu,0.006
2023-07-10T12:28:39.717Z,recommendationservice,cpu,0.002
2023-07-10T12:28:49.717Z,recommendationservice,cpu,0.004
2023-07-10T12:28:59.717Z,recommendationservice,cpu,0.003
2023-07-10T12:29:09.717Z,recommendationservice,cpu,0.006
2023-07-10T12:29:19.717Z,recommendationservice,cpu,0
2023-07-10T12:29:29.717Z,recommendationservice,cpu,0.003
2023-07-10T12:29:39.717Z,recommendationservice,cpu,0.004
2023-07-10T12:29:49.717Z,recommendationservice,cpu,0.002
2023-07-10T12:29:59.717Z,recommendationservice,cpu,0.003
