timestamp,key,run_id,resource,metric,value
2021-06-09T07:53:53.682Z,RESERVED_GLOBAL_UNIT_MULTI_PROBE-1-1-1,1,monitoring-unit-1,network_out,1.0690641403198242
2021-06-09T08:05:40.315Z,RESERVED_GLOBAL_UNIT_MULTI_PROBE-1-1-1,2,monitoring-unit-1,network_out,1.077829360961914
2021-06-09T08:17:39.122Z,RESERVED_GLOBAL_UNIT_MULTI_PROBE-1-1-1,3,monitoring-unit-1,network_out,1.0625038146972656
2021-06-10T00:31:34.986Z,RESERVED_GLOBAL_UNIT_MULTI_PROBE-16-1-16,1,monitoring-unit-1,network_out,2.2503929138183594
2021-06-10T00:31:36.921Z,RESERVED_GLOBAL_UNIT_MULTI_PROBE-16-1-16,1,monitoring-unit-10,network_out,2.209200859069824
2021-06-10T00:31:37.975Z,RESERVED_GLOBAL_UNIT_MULTI_PROBE-16-1-16,1,monitoring-unit-11,network_out,2.2129831314086914
2021-06-10T00:31:38.260Z,RESERVED_GLOBAL_UNIT_MULTI_PROBE-16-1-16,1,monitoring-unit-12,network_out,2.203883171081543
2021-06-10T00:31:38.033Z,RESERVED_GLOBAL_UNIT_MULTI_PROBE-16-1-16,1,monitoring-unit-13,network_out,2.219738006591797
2021-06-10T00:31:38.659Z,RESERVED_GLOBAL_UNIT_MULTI_PROBE-16-1-16,1,monitoring-unit-14,network_out,2.20151424407959
2021-06-10T00:31:38.181Z,RESERVED_GLOBAL_UNIT_MULTI_PROBE-16-1-16,1,monitoring-unit-15,network_out,2.240933418273926
2021-06-10T00:31:39.337Z,RESERVED_GLOBAL_UNIT_MULTI_PROBE-16-1-16,1,monitoring-unit-16,network_out,2.2106027603149414
2021-06-10T00:31:34.990Z,RESERVED_GLOBAL_UNIT_MULTI_PROBE-16-1-16,1,monitoring-unit-2,network_out,2.211031913757324
2021-06-10T00:31:35.536Z,RESERVED_GLOBAL_UNIT_MULTI_PROBE-16-1-16,1,monitoring-unit-3,network_out,2.2200164794921875
2021-06-10T00:31:35.395Z,RESERVED_GLOBAL_UNIT_MULTI_PROBE-16-1-16,1,monitoring-unit-4,network_out,2.2101526260375977
2021-06-10T00:31:35.253Z,RESERVED_GLOBAL_UNIT_MULTI_PROBE-16-1-16,1,monitoring-unit-5,network_out,2.211576461791992
2021-06-10T00:31:36.480Z,RESERVED_GLOBAL_UNIT_MULTI_PROBE-16-1-16,1,monitoring-unit-6,network_out,2.211812973022461
2021-06-10T00:31:36.866Z,RESERVED_GLOBAL_UNIT_MULTI_PROBE-16-1-16,1,monitoring-unit-7,network_out,2.208155632019043
2021-06-10T00:31:36.943Z,RESERVED_GLOBAL_UNIT_MULTI_PROBE-16-1-16,1,monitoring-unit-8,network_out,2.208563804626465
2021-06-10T00:31:36.616Z,RESERVED_GLOBAL_UNIT_MULTI_PROBE-16-1-16,1,monitoring-unit-9,network_out,2.2018070220947266
2021-06-10T01:04:17.258Z,RESERVED_GLOBAL_UNIT_MULTI_PROBE-16-1-16,2,monitoring-unit-1,network_out,2.2158613204956055
2021-06-10T01:04:18.431Z,RESERVED_GLOBAL_UNIT_MULTI_PROBE-16-1-16,2,monitoring-unit-10,network_out,2.216989517211914
2021-06-10T01:04:09.803Z,RESERVED_GLOBAL_UNIT_MULTI_PROBE-16-1-16,2,monitoring-unit-11,network_out,2.2163772583007812
2021-06-10T01:04:09.597Z,RESERVED_GLOBAL_UNIT_MULTI_PROBE-16-1-16,2,monitoring-unit-12,network_out,2.2114105224609375
2021-06-10T01:04:09.522Z,RESERVED_GLOBAL_UNIT_MULTI_PROBE-16-1-16,2,monitoring-unit-13,network_out,2.2139692306518555
2021-06-10T01:04:09.966Z,RESERVED_GLOBAL_UNIT_MULTI_PROBE-16-1-16,2,monitoring-unit-14,network_out,2.2504663467407227
2021-06-10T01:04:09.696Z,RESERVED_GLOBAL_UNIT_MULTI_PROBE-16-1-16,2,monitoring-unit-15,network_out,2.212888717651367
2021-06-10T01:04:10.775Z,RESERVED_GLOBAL_UNIT_MULTI_PROBE-16-1-16,2,monitoring-unit-16,network_out,2.208669662475586
2021-06-10T01:04:16.851Z,RESERVED_GLOBAL_UNIT_MULTI_PROBE-16-1-16,2,monitoring-unit-2,network_out,2.2094526290893555
2021-06-10T01:04:17.911Z,RESERVED_GLOBAL_UNIT_MULTI_PROBE-16-1-16,2,monitoring-unit-3,network_out,2.2069826126098633
2021-06-10T01:04:17.691Z,RESERVED_GLOBAL_UNIT_MULTI_PROBE-16-1-16,2,monitoring-unit-4,network_out,2.212874412536621
2021-06-10T01:04:17.821Z,RESERVED_GLOBAL_UNIT_MULTI_PROBE-16-1-16,2,monitoring-unit-5,network_out,2.2107152938842773
2021-06-10T01:04:18.157Z,RESERVED_GLOBAL_UNIT_MULTI_PROBE-16-1-16,2,monitoring-unit-6,network_out,2.21304988861084
2021-06-10T01:04:18.269Z,RESERVED_GLOBAL_UNIT_MULTI_PROBE-16-1-16,2,monitoring-unit-7,network_out,2.2183427810668945
2021-06-10T01:04:18.728Z,RESERVED_GLOBAL_UNIT_MULTI_PROBE-16-1-16,2,monitoring-unit-8,network_out,2.209956169128418
2021-06-10T01:04:18.703Z,RESERVED_GLOBAL_UNIT_MULTI_PROBE-16-1-16,2,monitoring-unit-9,network_out,2.2133607864379883
2021-06-10T01:37:25.414Z,RESERVED_GLOBAL_UNIT_MULTI_PROBE-16-1-16,3,monitoring-unit-1,network_out,2.2092647552490234
2021-06-10T01:37:17.666Z,RESERVED_GLOBAL_UNIT_MULTI_PROBE-16-1-16,3,monitoring-unit-10,network_out,2.217927932739258
2021-06-10T01:37:18.365Z,RESERVED_GLOBAL_UNIT_MULTI_PROBE-16-1-16,3,monitoring-unit-11,network_out,2.2109737396240234
2021-06-10T01:37:18.140Z,RESERVED_GLOBAL_UNIT_MULTI_PROBE-16-1-16,3,monitoring-unit-12,network_out,2.2176713943481445
2021-06-10T01:37:18.314Z,RESERVED_GLOBAL_UNIT_MULTI_PROBE-16-1-16,3,monitoring-unit-13,network_out,2.3830833435058594
2021-06-10T01:37:18.500Z,RESERVED_GLOBAL_UNIT_MULTI_PROBE-16-1-16,3,monitoring-unit-14,network_out,2.218048095703125
2021-06-10T01:37:18.415Z,RESERVED_GLOBAL_UNIT_MULTI_PROBE-16-1-16,3,monitoring-unit-15,network_out,2.2167739868164062
2021-06-10T01:37:19.285Z,RESERVED_GLOBAL_UNIT_MULTI_PROBE-16-1-16,3,monitoring-unit-16,network_out,2.217254638671875
2021-06-10T01:37:25.324Z,RESERVED_GLOBAL_UNIT_MULTI_PROBE-16-1-16,3,monitoring-unit-2,network_out,2.219758987426758
2021-06-10T01:37:15.717Z,RESERVED_GLOBAL_UNIT_MULTI_PROBE-16-1-16,3,monitoring-unit-3,network_out,2.3798866271972656
2021-06-10T01:37:15.759Z,RESERVED_GLOBAL_UNIT_MULTI_PROBE-16-1-16,3,monitoring-unit-4,network_out,2.3787269592285156
2021-06-10T01:37:15.726Z,RESERVED_GLOBAL_UNIT_MULTI_PROBE-16-1-16,3,monitoring-unit-5,network_out,2.212771415710449
2021-06-10T01:37:16.928Z,RESERVED_GLOBAL_UNIT_MULTI_PROBE-16-1-16,3,monitoring-unit-6,network_out,2.209962844848633
2021-06-10T01:37:16.717Z,RESERVED_GLOBAL_UNIT_MULTI_PROBE-16-1-16,3,monitoring-unit-7,network_out,2.206362724304199
2021-06-10T01:37:17.546Z,RESERVED_GLOBAL_UNIT_MULTI_PROBE-16-1-16,3,monitoring-unit-8,network_out,2.1995153427124023
2021-06-10T01:37:17.539Z,RESERVED_GLOBAL_UNIT_MULTI_PROBE-16-1-16,3,monitoring-unit-9,network_out,2.216217041015625
2021-06-09T11:52:44.315Z,RESERVED_GLOBAL_UNIT_MULTI_PROBE-2-1-2,1,monitoring-unit-1,network_out,1.1468582153320312
2021-06-09T11:52:44.412Z,RESERVED_GLOBAL_UNIT_MULTI_PROBE-2-1-2,1,monitoring-unit-2,network_out,1.1616744995117188
2021-06-09T12:04:57.919Z,RESERVED_GLOBAL_UNIT_MULTI_PROBE-2-1-2,2,monitoring-unit-1,network_out,1.131582260131836
2021-06-09T12:04:58.173Z,RESERVED_GLOBAL_UNIT_MULTI_PROBE-2-1-2,2,monitoring-unit-2,network_out,1.138406753540039
2021-06-09T12:17:11.291Z,RESERVED_GLOBAL_UNIT_MULTI_PROBE-2-1-2,3,monitoring-unit-1,network_out,1.1394376754760742
2021-06-09T12:17:10.868Z,RESERVED_GLOBAL_UNIT_MULTI_PROBE-2-1-2,3,monitoring-unit-2,network_out,1.1364364624023438
2021-06-09T22:46:31.042Z,RESERVED_GLOBAL_UNIT_MULTI_PROBE-4-1-4,1,monitoring-unit-1,network_out,1.3415403366088867
2021-06-09T22:46:30.568Z,RESERVED_GLOBAL_UNIT_MULTI_PROBE-4-1-4,1,monitoring-unit-2,network_out,1.3442087173461914
2021-06-09T22:46:30.982Z,RESERVED_GLOBAL_UNIT_MULTI_PROBE-4-1-4,1,monitoring-unit-3,network_out,1.3436098098754883
2021-06-09T22:46:30.735Z,RESERVED_GLOBAL_UNIT_MULTI_PROBE-4-1-4,1,monitoring-unit-4,network_out,1.3432836532592773
2021-06-09T22:59:40.703Z,RESERVED_GLOBAL_UNIT_MULTI_PROBE-4-1-4,2,monitoring-unit-1,network_out,1.3509597778320312
2021-06-09T22:59:40.078Z,RESERVED_GLOBAL_UNIT_MULTI_PROBE-4-1-4,2,monitoring-unit-2,network_out,1.3508710861206055
2021-06-09T22:59:40.049Z,RESERVED_GLOBAL_UNIT_MULTI_PROBE-4-1-4,2,monitoring-unit-3,network_out,1.5529212951660156
2021-06-09T22:59:40.072Z,RESERVED_GLOBAL_UNIT_MULTI_PROBE-4-1-4,2,monitoring-unit-4,network_out,1.4763917922973633
2021-06-09T23:12:53.997Z,RESERVED_GLOBAL_UNIT_MULTI_PROBE-4-1-4,3,monitoring-unit-1,network_out,1.3507356643676758
2021-06-09T23:12:53.378Z,RESERVED_GLOBAL_UNIT_MULTI_PROBE-4-1-4,3,monitoring-unit-2,network_out,1.3507204055786133
2021-06-09T23:12:53.678Z,RESERVED_GLOBAL_UNIT_MULTI_PROBE-4-1-4,3,monitoring-unit-3,network_out,1.481795310974121
2021-06-09T23:12:53.305Z,RESERVED_GLOBAL_UNIT_MULTI_PROBE-4-1-4,3,monitoring-unit-4,network_out,1.4862422943115234
2021-06-09T23:29:00.400Z,RESERVED_GLOBAL_UNIT_MULTI_PROBE-8-1-8,1,monitoring-unit-1,network_out,1.6395645141601562
2021-06-09T23:28:59.854Z,RESERVED_GLOBAL_UNIT_MULTI_PROBE-8-1-8,1,monitoring-unit-2,network_out,1.6222448348999023
2021-06-09T23:29:01.718Z,RESERVED_GLOBAL_UNIT_MULTI_PROBE-8-1-8,1,monitoring-unit-3,network_out,1.6208429336547852
2021-06-09T23:29:00.590Z,RESERVED_GLOBAL_UNIT_MULTI_PROBE-8-1-8,1,monitoring-unit-4,network_out,1.6263818740844727
2021-06-09T23:29:01.049Z,RESERVED_GLOBAL_UNIT_MULTI_PROBE-8-1-8,1,monitoring-unit-5,network_out,1.6266908645629883
2021-06-09T23:29:01.822Z,RESERVED_GLOBAL_UNIT_MULTI_PROBE-8-1-8,1,monitoring-unit-6,network_out,1.621739387512207
2021-06-09T23:29:01.811Z,RESERVED_GLOBAL_UNIT_MULTI_PROBE-8-1-8,1,monitoring-unit-7,network_out,1.6181507110595703
2021-06-09T23:29:01.049Z,RESERVED_GLOBAL_UNIT_MULTI_PROBE-8-1-8,1,monitoring-unit-8,network_out,1.6260528564453125
2021-06-09T23:46:10.569Z,RESERVED_GLOBAL_UNIT_MULTI_PROBE-8-1-8,2,monitoring-unit-1,network_out,1.6464653015136719
2021-06-09T23:46:09.669Z,RESERVED_GLOBAL_UNIT_MULTI_PROBE-8-1-8,2,monitoring-unit-2,network_out,1.6290102005004883
2021-06-09T23:46:10.656Z,RESERVED_GLOBAL_UNIT_MULTI_PROBE-8-1-8,2,monitoring-unit-3,network_out,1.6451377868652344
2021-06-09T23:46:10.375Z,RESERVED_GLOBAL_UNIT_MULTI_PROBE-8-1-8,2,monitoring-unit-4,network_out,1.6164188385009766
2021-06-09T23:46:10.484Z,RESERVED_GLOBAL_UNIT_MULTI_PROBE-8-1-8,2,monitoring-unit-5,network_out,1.6215314865112305
2021-06-09T23:46:11.503Z,RESERVED_GLOBAL_UNIT_MULTI_PROBE-8-1-8,2,monitoring-unit-6,network_out,1.627192497253418
2021-06-09T23:46:11.398Z,RESERVED_GLOBAL_UNIT_MULTI_PROBE-8-1-8,2,monitoring-unit-7,network_out,1.6274356842041016
2021-06-09T23:46:11.212Z,RESERVED_GLOBAL_UNIT_MULTI_PROBE-8-1-8,2,monitoring-unit-8,network_out,1.624119758605957
2021-06-10T00:03:20.887Z,RESERVED_GLOBAL_UNIT_MULTI_PROBE-8-1-8,3,monitoring-unit-1,network_out,1.6489410400390625
2021-06-10T00:03:20.267Z,RESERVED_GLOBAL_UNIT_MULTI_PROBE-8-1-8,3,monitoring-unit-2,network_out,1.6324748992919922
2021-06-10T00:03:20.243Z,RESERVED_GLOBAL_UNIT_MULTI_PROBE-8-1-8,3,monitoring-unit-3,network_out,1.650838851928711
2021-06-10T00:03:20.181Z,RESERVED_GLOBAL_UNIT_MULTI_PROBE-8-1-8,3,monitoring-unit-4,network_out,1.6313705444335938
2021-06-10T00:03:20.072Z,RESERVED_GLOBAL_UNIT_MULTI_PROBE-8-1-8,3,monitoring-unit-5,network_out,1.6278629302978516
2021-06-10T00:03:21.309Z,RESERVED_GLOBAL_UNIT_MULTI_PROBE-8-1-8,3,monitoring-unit-6,network_out,1.6257448196411133
2021-06-10T00:03:21.210Z,RESERVED_GLOBAL_UNIT_MULTI_PROBE-8-1-8,3,monitoring-unit-7,network_out,1.6304779052734375
2021-06-10T00:03:21.129Z,RESERVED_GLOBAL_UNIT_MULTI_PROBE-8-1-8,3,monitoring-unit-8,network_out,1.6297054290771484
