2023-07-14T12:48:45.116Z,cadvisor-sqhxg,network_out,277966
2023-07-14T12:49:15.116Z,cadvisor-sqhxg,network_out,449037
2023-07-14T12:49:25.115Z,cadvisor-sqhxg,network_out,449037
2023-07-14T12:48:34.719Z,cadvisor-sqhxg,network_out,277966
2023-07-14T12:49:05.115Z,cadvisor-sqhxg,network_out,375741
2023-07-14T12:48:55.115Z,cadvisor-sqhxg,network_out,375741
2023-07-14T12:48:55.310Z,cadvisor-x94kz,network_out,314520
2023-07-14T12:48:34.797Z,cadvisor-x94kz,network_out,209116
2023-07-14T12:48:45.310Z,cadvisor-x94kz,network_out,314520
2023-07-14T12:49:05.310Z,cadvisor-x94kz,network_out,396406
2023-07-14T12:49:15.309Z,cadvisor-x94kz,network_out,478091
2023-07-14T12:49:25.309Z,cadvisor-x94kz,network_out,478091
2023-07-14T12:49:35.115Z,cadvisor-sqhxg,network_out,522503
2023-07-14T12:49:35.310Z,cadvisor-x94kz,network_out,478091
2023-07-14T12:49:45.115Z,cadvisor-sqhxg,network_out,595934
2023-07-14T12:49:45.310Z,cadvisor-x94kz,network_out,695599
2023-07-14T12:49:55.115Z,cadvisor-sqhxg,network_out,595934
2023-07-14T12:49:55.310Z,cadvisor-x94kz,network_out,695599
2023-07-14T12:50:05.115Z,cadvisor-sqhxg,network_out,595934
2023-07-14T12:50:05.310Z,cadvisor-x94kz,network_out,695599
2023-07-14T12:49:15.217Z,cadvisor-2z67q,network_out,414108
2023-07-14T12:49:35.217Z,cadvisor-2z67q,network_out,535016
2023-07-14T12:48:55.218Z,cadvisor-2z67q,network_out,414108
2023-07-14T12:49:05.217Z,cadvisor-2z67q,network_out,414108
2023-07-14T12:49:45.218Z,cadvisor-2z67q,network_out,625712
2023-07-14T12:49:55.217Z,cadvisor-2z67q,network_out,716579
2023-07-14T12:50:05.217Z,cadvisor-2z67q,network_out,716579
2023-07-14T12:48:34.800Z,cadvisor-2z67q,network_out,215599
2023-07-14T12:48:45.217Z,cadvisor-2z67q,network_out,323309
2023-07-14T12:49:25.217Z,cadvisor-2z67q,network_out,535016
2023-07-14T12:50:15.217Z,cadvisor-2z67q,network_out,807284
2023-07-14T12:50:15.115Z,cadvisor-sqhxg,network_out,767123
2023-07-14T12:50:15.309Z,cadvisor-x94kz,network_out,831364
2023-07-14T12:50:25.217Z,cadvisor-2z67q,network_out,898087
2023-07-14T12:50:25.310Z,cadvisor-x94kz,network_out,831364
2023-07-14T12:50:25.115Z,cadvisor-sqhxg,network_out,767123
2023-07-14T12:50:35.115Z,cadvisor-sqhxg,network_out,840510
2023-07-14T12:50:35.310Z,cadvisor-x94kz,network_out,831364
2023-07-14T12:50:35.218Z,cadvisor-2z67q,network_out,988910
2023-07-14T12:50:45.217Z,cadvisor-2z67q,network_out,988910
2023-07-14T12:50:45.115Z,cadvisor-sqhxg,network_out,840510
2023-07-14T12:50:45.310Z,cadvisor-x94kz,network_out,940063
2023-07-14T12:50:55.217Z,cadvisor-2z67q,network_out,1079670
2023-07-14T12:50:55.310Z,cadvisor-x94kz,network_out,940063
2023-07-14T12:50:55.116Z,cadvisor-sqhxg,network_out,914008
2023-07-14T12:51:05.115Z,cadvisor-sqhxg,network_out,914008
2023-07-14T12:51:05.310Z,cadvisor-x94kz,network_out,1103148
2023-07-14T12:51:05.218Z,cadvisor-2z67q,network_out,1140207
2023-07-14T12:51:15.217Z,cadvisor-2z67q,network_out,1140207
2023-07-14T12:51:15.115Z,cadvisor-sqhxg,network_out,1036467
2023-07-14T12:51:15.309Z,cadvisor-x94kz,network_out,1103148
2023-07-14T12:51:25.309Z,cadvisor-x94kz,network_out,1103148
2023-07-14T12:51:25.217Z,cadvisor-2z67q,network_out,1261211
2023-07-14T12:51:25.115Z,cadvisor-sqhxg,network_out,1085456
2023-07-14T12:51:35.310Z,cadvisor-x94kz,network_out,1239106
2023-07-14T12:51:35.116Z,cadvisor-sqhxg,network_out,1134345
2023-07-14T12:51:35.217Z,cadvisor-2z67q,network_out,1351846
2023-07-14T12:51:45.115Z,cadvisor-sqhxg,network_out,1134345
2023-07-14T12:51:45.217Z,cadvisor-2z67q,network_out,1351846
2023-07-14T12:51:45.310Z,cadvisor-x94kz,network_out,1239106
2023-07-14T12:51:55.217Z,cadvisor-2z67q,network_out,1442564
2023-07-14T12:51:55.116Z,cadvisor-sqhxg,network_out,1232198
2023-07-14T12:51:55.309Z,cadvisor-x94kz,network_out,1320703
2023-07-14T12:52:05.116Z,cadvisor-sqhxg,network_out,1232198
2023-07-14T12:52:05.218Z,cadvisor-2z67q,network_out,1503064
2023-07-14T12:52:05.310Z,cadvisor-x94kz,network_out,1402132
2023-07-14T12:52:15.115Z,cadvisor-sqhxg,network_out,1305598
2023-07-14T12:52:15.217Z,cadvisor-2z67q,network_out,1503064
2023-07-14T12:52:15.309Z,cadvisor-x94kz,network_out,1402132
2023-07-14T12:52:25.310Z,cadvisor-x94kz,network_out,1456566
2023-07-14T12:52:25.115Z,cadvisor-sqhxg,network_out,1379060
2023-07-14T12:52:25.217Z,cadvisor-2z67q,network_out,1684554
2023-07-14T12:52:35.115Z,cadvisor-sqhxg,network_out,1379060
2023-07-14T12:52:35.217Z,cadvisor-2z67q,network_out,1684554
2023-07-14T12:52:35.310Z,cadvisor-x94kz,network_out,1619707
2023-07-14T12:52:45.218Z,cadvisor-2z67q,network_out,1775273
2023-07-14T12:52:45.310Z,cadvisor-x94kz,network_out,1619707
2023-07-14T12:52:45.115Z,cadvisor-sqhxg,network_out,1428036
2023-07-14T12:52:55.115Z,cadvisor-sqhxg,network_out,1525888
2023-07-14T12:52:55.217Z,cadvisor-2z67q,network_out,1866029
2023-07-14T12:52:55.310Z,cadvisor-x94kz,network_out,1619707
2023-07-14T12:53:05.218Z,cadvisor-2z67q,network_out,1866029
2023-07-14T12:53:05.310Z,cadvisor-x94kz,network_out,1701361
2023-07-14T12:53:05.115Z,cadvisor-sqhxg,network_out,1599299
2023-07-14T12:53:15.217Z,cadvisor-2z67q,network_out,1866029
2023-07-14T12:53:15.309Z,cadvisor-x94kz,network_out,1701361
2023-07-14T12:53:15.116Z,cadvisor-sqhxg,network_out,1599299
2023-07-14T12:53:25.310Z,cadvisor-x94kz,network_out,1782944
2023-07-14T12:53:25.218Z,cadvisor-2z67q,network_out,1987119
2023-07-14T12:53:25.116Z,cadvisor-sqhxg,network_out,1599299
2023-07-14T12:53:35.115Z,cadvisor-sqhxg,network_out,1746173
2023-07-14T12:53:35.218Z,cadvisor-2z67q,network_out,2047639
2023-07-14T12:53:35.310Z,cadvisor-x94kz,network_out,1946093
2023-07-14T12:53:45.309Z,cadvisor-x94kz,network_out,1946093
2023-07-14T12:53:45.116Z,cadvisor-sqhxg,network_out,1746173
2023-07-14T12:53:45.217Z,cadvisor-2z67q,network_out,2047639
2023-07-14T12:53:55.310Z,cadvisor-x94kz,network_out,1946093
2023-07-14T12:53:55.116Z,cadvisor-sqhxg,network_out,1844119
2023-07-14T12:53:55.217Z,cadvisor-2z67q,network_out,2168753
2023-07-14T12:54:05.116Z,cadvisor-sqhxg,network_out,1844119
2023-07-14T12:54:05.217Z,cadvisor-2z67q,network_out,2229306
2023-07-14T12:54:05.310Z,cadvisor-x94kz,network_out,2082064
2023-07-14T12:54:15.218Z,cadvisor-2z67q,network_out,2319971
2023-07-14T12:54:15.116Z,cadvisor-sqhxg,network_out,1893132
2023-07-14T12:54:15.310Z,cadvisor-x94kz,network_out,2082064
2023-07-14T12:54:25.310Z,cadvisor-x94kz,network_out,2082064
2023-07-14T12:54:25.115Z,cadvisor-sqhxg,network_out,1893132
2023-07-14T12:54:25.217Z,cadvisor-2z67q,network_out,2319971
2023-07-14T12:54:35.218Z,cadvisor-2z67q,network_out,2319971
2023-07-14T12:54:35.310Z,cadvisor-x94kz,network_out,2190871
2023-07-14T12:54:35.115Z,cadvisor-sqhxg,network_out,2039883
2023-07-14T12:54:45.218Z,cadvisor-2z67q,network_out,2440958
2023-07-14T12:54:45.115Z,cadvisor-sqhxg,network_out,2039883
2023-07-14T12:54:45.310Z,cadvisor-x94kz,network_out,2272572
2023-07-14T12:54:55.116Z,cadvisor-sqhxg,network_out,2113338
2023-07-14T12:54:55.310Z,cadvisor-x94kz,network_out,2272572
2023-07-14T12:54:55.217Z,cadvisor-2z67q,network_out,2622492
2023-07-14T12:55:05.116Z,cadvisor-sqhxg,network_out,2113338
2023-07-14T12:55:05.310Z,cadvisor-x94kz,network_out,2354142
2023-07-14T12:55:05.218Z,cadvisor-2z67q,network_out,2622492
2023-07-14T12:55:15.115Z,cadvisor-sqhxg,network_out,2162191
2023-07-14T12:55:15.217Z,cadvisor-2z67q,network_out,2622492
2023-07-14T12:55:15.310Z,cadvisor-x94kz,network_out,2408619
2023-07-14T12:55:25.115Z,cadvisor-sqhxg,network_out,2284540
2023-07-14T12:55:25.309Z,cadvisor-x94kz,network_out,2408619
2023-07-14T12:55:25.217Z,cadvisor-2z67q,network_out,2713300
2023-07-14T12:55:35.115Z,cadvisor-sqhxg,network_out,2284540
2023-07-14T12:55:35.217Z,cadvisor-2z67q,network_out,2804109
2023-07-14T12:55:35.309Z,cadvisor-x94kz,network_out,2490217
2023-07-14T12:55:45.218Z,cadvisor-2z67q,network_out,2894854
2023-07-14T12:55:45.310Z,cadvisor-x94kz,network_out,2571918
2023-07-14T12:55:45.116Z,cadvisor-sqhxg,network_out,2382350
2023-07-14T12:55:55.115Z,cadvisor-sqhxg,network_out,2382350
2023-07-14T12:55:55.309Z,cadvisor-x94kz,network_out,2680843
2023-07-14T12:55:55.218Z,cadvisor-2z67q,network_out,2894854
2023-07-14T12:56:05.116Z,cadvisor-sqhxg,network_out,2455822
2023-07-14T12:56:05.310Z,cadvisor-x94kz,network_out,2680843
2023-07-14T12:56:05.218Z,cadvisor-2z67q,network_out,2985674
2023-07-14T12:56:15.115Z,cadvisor-sqhxg,network_out,2455822
2023-07-14T12:56:15.310Z,cadvisor-x94kz,network_out,2680843
2023-07-14T12:56:15.217Z,cadvisor-2z67q,network_out,2985674
2023-07-14T12:56:25.116Z,cadvisor-sqhxg,network_out,2529196
2023-07-14T12:56:25.218Z,cadvisor-2z67q,network_out,2985674
2023-07-14T12:56:25.310Z,cadvisor-x94kz,network_out,2789668
2023-07-14T12:56:35.115Z,cadvisor-sqhxg,network_out,2529196
2023-07-14T12:56:35.217Z,cadvisor-2z67q,network_out,3167136
2023-07-14T12:56:35.310Z,cadvisor-x94kz,network_out,2844068
2023-07-14T12:56:45.115Z,cadvisor-sqhxg,network_out,2627215
2023-07-14T12:56:45.218Z,cadvisor-2z67q,network_out,3227580
2023-07-14T12:56:45.310Z,cadvisor-x94kz,network_out,2844068
2023-07-14T12:56:55.116Z,cadvisor-sqhxg,network_out,2714442
2023-07-14T12:56:55.217Z,cadvisor-2z67q,network_out,3227580
2023-07-14T12:56:55.310Z,cadvisor-x94kz,network_out,2952912
2023-07-14T12:57:05.115Z,cadvisor-sqhxg,network_out,2714442
2023-07-14T12:57:05.217Z,cadvisor-2z67q,network_out,3227580
2023-07-14T12:57:05.310Z,cadvisor-x94kz,network_out,3061819
2023-07-14T12:57:15.115Z,cadvisor-sqhxg,network_out,2822631
2023-07-14T12:57:15.217Z,cadvisor-2z67q,network_out,3348560
2023-07-14T12:57:15.310Z,cadvisor-x94kz,network_out,3143492
2023-07-14T12:57:25.115Z,cadvisor-sqhxg,network_out,2822631
2023-07-14T12:57:25.310Z,cadvisor-x94kz,network_out,3143492
2023-07-14T12:57:25.217Z,cadvisor-2z67q,network_out,3499821
2023-07-14T12:57:35.217Z,cadvisor-2z67q,network_out,3499821
2023-07-14T12:57:35.115Z,cadvisor-sqhxg,network_out,2822631
2023-07-14T12:57:35.310Z,cadvisor-x94kz,network_out,3143492
2023-07-14T12:57:45.116Z,cadvisor-sqhxg,network_out,2969439
2023-07-14T12:57:45.218Z,cadvisor-2z67q,network_out,3499821
2023-07-14T12:57:45.310Z,cadvisor-x94kz,network_out,3225103
2023-07-14T12:57:55.115Z,cadvisor-sqhxg,network_out,2969439
2023-07-14T12:57:55.218Z,cadvisor-2z67q,network_out,3590645
2023-07-14T12:57:55.309Z,cadvisor-x94kz,network_out,3279545
2023-07-14T12:58:05.115Z,cadvisor-sqhxg,network_out,3042861
2023-07-14T12:58:05.217Z,cadvisor-2z67q,network_out,3772172
2023-07-14T12:58:05.310Z,cadvisor-x94kz,network_out,3279545
2023-07-14T12:58:15.217Z,cadvisor-2z67q,network_out,3772172
2023-07-14T12:58:15.115Z,cadvisor-sqhxg,network_out,3042861
2023-07-14T12:58:15.310Z,cadvisor-x94kz,network_out,3388302
2023-07-14T12:58:25.116Z,cadvisor-sqhxg,network_out,3140811
2023-07-14T12:58:25.217Z,cadvisor-2z67q,network_out,3772172
2023-07-14T12:58:25.310Z,cadvisor-x94kz,network_out,3497053
2023-07-14T12:58:35.115Z,cadvisor-sqhxg,network_out,3140811
2023-07-14T12:58:35.217Z,cadvisor-2z67q,network_out,3862925
2023-07-14T12:58:35.310Z,cadvisor-x94kz,network_out,3497053
2023-07-14T12:58:45.310Z,cadvisor-x94kz,network_out,3497053
2023-07-14T12:58:45.218Z,cadvisor-2z67q,network_out,3953615
2023-07-14T12:58:45.116Z,cadvisor-sqhxg,network_out,3214147
2023-07-14T12:58:55.217Z,cadvisor-2z67q,network_out,3953615
2023-07-14T12:58:55.115Z,cadvisor-sqhxg,network_out,3214147
2023-07-14T12:58:55.310Z,cadvisor-x94kz,network_out,3660121
