2023-07-04T20:14:32.723Z,cartservice,network_out,1399
2023-07-04T20:14:32.722Z,adservice,network_out,15933
2023-07-04T20:14:32.722Z,cartservice,network_out,2242
2023-07-04T20:14:32.723Z,cartservice,network_out,2205
2023-07-04T20:14:32.722Z,cartservice,network_out,1333
2023-07-04T20:14:32.722Z,cartservice,network_out,1357
2023-07-04T20:14:32.723Z,productcatalogservice,network_out,515839
2023-07-04T20:14:32.722Z,cartservice,network_out,10653
2023-07-04T20:14:32.722Z,redis-cart,network_out,68874
2023-07-04T20:14:32.722Z,emailservice,network_out,4268
2023-07-04T20:14:32.723Z,frontend,network_out,1184164
2023-07-04T20:14:32.722Z,shippingservice,network_out,13761
2023-07-04T20:14:32.722Z,paymentservice,network_out,5689
2023-07-04T20:14:32.722Z,cartservice,network_out,57052
2023-07-04T20:14:32.722Z,currencyservice,network_out,98068
2023-07-04T20:14:43.079Z,cartservice,network_out,69308
2023-07-04T20:14:43.079Z,redis-cart,network_out,109365
2023-07-04T20:14:43.079Z,currencyservice,network_out,124091
2023-07-04T20:14:43.080Z,cartservice,network_out,1333
2023-07-04T20:14:43.079Z,cartservice,network_out,13409
2023-07-04T20:14:43.088Z,cartservice,network_out,2379
2023-07-04T20:14:43.088Z,cartservice,network_out,2119
2023-07-04T20:14:43.088Z,productcatalogservice,network_out,515839
2023-07-04T20:14:43.080Z,adservice,network_out,20712
2023-07-04T20:14:43.079Z,cartservice,network_out,2312
2023-07-04T20:14:43.088Z,cartservice,network_out,2205
2023-07-04T20:14:43.080Z,cartservice,network_out,2185
2023-07-04T20:14:43.088Z,recommendationservice,network_out,85051
2023-07-04T20:14:43.080Z,emailservice,network_out,5558
2023-07-04T20:14:43.088Z,frontend,network_out,1578530
2023-07-04T20:14:43.079Z,paymentservice,network_out,5689
2023-07-04T20:14:43.088Z,checkoutservice,network_out,48182
2023-07-04T20:14:43.079Z,shippingservice,network_out,18375
2023-07-04T20:14:53.088Z,frontend,network_out,1947213
2023-07-04T20:14:53.088Z,cartservice,network_out,2119
2023-07-04T20:14:53.080Z,cartservice,network_out,2185
2023-07-04T20:14:53.080Z,cartservice,network_out,2078
2023-07-04T20:14:53.088Z,productcatalogservice,network_out,705542
2023-07-04T20:14:53.088Z,cartservice,network_out,3082
2023-07-04T20:14:53.088Z,checkoutservice,network_out,48182
2023-07-04T20:14:53.088Z,cartservice,network_out,2275
2023-07-04T20:14:53.079Z,currencyservice,network_out,124091
2023-07-04T20:14:53.079Z,cartservice,network_out,69308
2023-07-04T20:14:53.079Z,paymentservice,network_out,5689
2023-07-04T20:14:53.079Z,shippingservice,network_out,18375
2023-07-04T20:14:53.079Z,cartservice,network_out,2312
2023-07-04T20:14:53.079Z,cartservice,network_out,13409
2023-07-04T20:14:53.079Z,redis-cart,network_out,109365
2023-07-04T20:14:53.080Z,emailservice,network_out,5624
2023-07-04T20:14:53.080Z,adservice,network_out,20712
2023-07-04T20:14:53.088Z,recommendationservice,network_out,99745
2023-07-04T20:15:03.079Z,cartservice,network_out,2945
2023-07-04T20:15:03.081Z,cartservice,network_out,2901
2023-07-04T20:15:03.079Z,currencyservice,network_out,157040
2023-07-04T20:15:03.087Z,productcatalogservice,network_out,705542
2023-07-04T20:15:03.087Z,cartservice,network_out,2275
2023-07-04T20:15:03.081Z,emailservice,network_out,5624
2023-07-04T20:15:03.079Z,redis-cart,network_out,109365
2023-07-04T20:15:03.079Z,cartservice,network_out,13409
2023-07-04T20:15:03.087Z,cartservice,network_out,3082
2023-07-04T20:15:03.087Z,recommendationservice,network_out,99745
2023-07-04T20:15:03.087Z,checkoutservice,network_out,48182
2023-07-04T20:15:03.087Z,cartservice,network_out,2119
2023-07-04T20:15:03.081Z,adservice,network_out,27277
2023-07-04T20:15:03.079Z,paymentservice,network_out,6659
2023-07-04T20:15:03.079Z,shippingservice,network_out,20353
2023-07-04T20:15:03.079Z,cartservice,network_out,80524
2023-07-04T20:15:03.087Z,frontend,network_out,1947213
2023-07-04T20:15:03.081Z,cartservice,network_out,2078
2023-07-04T20:15:13.080Z,emailservice,network_out,5624
2023-07-04T20:15:13.088Z,productcatalogservice,network_out,705542
2023-07-04T20:15:13.088Z,checkoutservice,network_out,49723
2023-07-04T20:15:13.080Z,adservice,network_out,27277
2023-07-04T20:15:13.080Z,cartservice,network_out,2078
2023-07-04T20:15:13.088Z,cartservice,network_out,3166
2023-07-04T20:15:13.088Z,recommendationservice,network_out,111677
2023-07-04T20:15:13.088Z,frontend,network_out,1947213
2023-07-04T20:15:13.079Z,paymentservice,network_out,6725
2023-07-04T20:15:13.079Z,redis-cart,network_out,118493
2023-07-04T20:15:13.080Z,cartservice,network_out,2901
2023-07-04T20:15:13.088Z,cartservice,network_out,3033
2023-07-04T20:15:13.079Z,cartservice,network_out,15564
2023-07-04T20:15:13.079Z,shippingservice,network_out,25093
2023-07-04T20:15:13.088Z,cartservice,network_out,2119
2023-07-04T20:15:13.079Z,currencyservice,network_out,187755
2023-07-04T20:15:13.079Z,cartservice,network_out,2945
2023-07-04T20:15:13.079Z,cartservice,network_out,90701
2023-07-04T20:15:23.081Z,cartservice,network_out,2901
2023-07-04T20:15:23.088Z,productcatalogservice,network_out,834030
2023-07-04T20:15:23.080Z,currencyservice,network_out,225607
2023-07-04T20:15:23.080Z,cartservice,network_out,110196
2023-07-04T20:15:23.088Z,cartservice,network_out,2794
2023-07-04T20:15:23.088Z,recommendationservice,network_out,111677
2023-07-04T20:15:23.088Z,checkoutservice,network_out,55269
2023-07-04T20:15:23.080Z,redis-cart,network_out,158860
2023-07-04T20:15:23.081Z,cartservice,network_out,2078
2023-07-04T20:15:23.080Z,paymentservice,network_out,7940
2023-07-04T20:15:23.080Z,shippingservice,network_out,25093
2023-07-04T20:15:23.081Z,emailservice,network_out,6868
2023-07-04T20:15:23.081Z,adservice,network_out,27277
2023-07-04T20:15:23.088Z,cartservice,network_out,3033
2023-07-04T20:15:23.088Z,frontend,network_out,2307886
2023-07-04T20:15:23.088Z,cartservice,network_out,3166
2023-07-04T20:15:23.080Z,cartservice,network_out,2945
2023-07-04T20:15:23.080Z,cartservice,network_out,16214
2023-07-04T20:15:33.079Z,paymentservice,network_out,7940
2023-07-04T20:15:33.080Z,cartservice,network_out,2901
2023-07-04T20:15:33.080Z,adservice,network_out,33621
2023-07-04T20:15:33.079Z,redis-cart,network_out,158860
2023-07-04T20:15:33.079Z,shippingservice,network_out,25093
2023-07-04T20:15:33.088Z,cartservice,network_out,3882
2023-07-04T20:15:33.088Z,productcatalogservice,network_out,956274
2023-07-04T20:15:33.080Z,emailservice,network_out,6868
2023-07-04T20:15:33.080Z,cartservice,network_out,2078
2023-07-04T20:15:33.088Z,recommendationservice,network_out,133985
2023-07-04T20:15:33.088Z,checkoutservice,network_out,56723
2023-07-04T20:15:33.079Z,currencyservice,network_out,225607
2023-07-04T20:15:33.079Z,cartservice,network_out,2945
2023-07-04T20:15:33.079Z,cartservice,network_out,110196
2023-07-04T20:15:33.079Z,cartservice,network_out,16214
2023-07-04T20:15:33.088Z,cartservice,network_out,3600
2023-07-04T20:15:33.088Z,cartservice,network_out,2794
2023-07-04T20:15:33.088Z,frontend,network_out,2876795
2023-07-04T20:15:43.087Z,productcatalogservice,network_out,956274
2023-07-04T20:15:43.079Z,currencyservice,network_out,269755
2023-07-04T20:15:43.087Z,cartservice,network_out,3882
2023-07-04T20:15:43.087Z,cartservice,network_out,3600
2023-07-04T20:15:43.087Z,recommendationservice,network_out,133985
2023-07-04T20:15:43.079Z,paymentservice,network_out,9404
2023-07-04T20:15:43.079Z,cartservice,network_out,3815
2023-07-04T20:15:43.079Z,shippingservice,network_out,32437
2023-07-04T20:15:43.087Z,frontend,network_out,2876795
2023-07-04T20:15:43.087Z,checkoutservice,network_out,56723
2023-07-04T20:15:43.079Z,redis-cart,network_out,187076
2023-07-04T20:15:43.087Z,cartservice,network_out,2794
2023-07-04T20:15:43.081Z,adservice,network_out,46668
2023-07-04T20:15:43.081Z,cartservice,network_out,2711
2023-07-04T20:15:43.079Z,cartservice,network_out,125013
2023-07-04T20:15:43.081Z,emailservice,network_out,8547
2023-07-04T20:15:43.081Z,cartservice,network_out,3754
2023-07-04T20:15:43.079Z,cartservice,network_out,17320
2023-07-04T20:15:53.087Z,frontend,network_out,3457057
2023-07-04T20:15:53.087Z,recommendationservice,network_out,161561
2023-07-04T20:15:53.087Z,productcatalogservice,network_out,1186215
2023-07-04T20:15:53.087Z,cartservice,network_out,2794
2023-07-04T20:15:53.087Z,checkoutservice,network_out,66430
2023-07-04T20:15:53.087Z,cartservice,network_out,3882
2023-07-04T20:15:53.087Z,cartservice,network_out,3600
2023-07-04T20:15:53.080Z,cartservice,network_out,139068
2023-07-04T20:15:53.081Z,cartservice,network_out,3754
2023-07-04T20:15:53.080Z,cartservice,network_out,18378
2023-07-04T20:15:53.081Z,adservice,network_out,46668
2023-07-04T20:15:53.080Z,currencyservice,network_out,269755
2023-07-04T20:15:53.080Z,paymentservice,network_out,9404
2023-07-04T20:15:53.080Z,cartservice,network_out,3815
2023-07-04T20:15:53.081Z,emailservice,network_out,8547
2023-07-04T20:15:53.081Z,cartservice,network_out,3456
2023-07-04T20:15:53.080Z,shippingservice,network_out,32437
2023-07-04T20:15:53.080Z,redis-cart,network_out,210617
2023-07-04T20:16:03.081Z,cartservice,network_out,3754
2023-07-04T20:16:03.081Z,adservice,network_out,46668
2023-07-04T20:16:03.088Z,checkoutservice,network_out,67224
2023-07-04T20:16:03.080Z,cartservice,network_out,20375
2023-07-04T20:16:03.088Z,cartservice,network_out,3600
2023-07-04T20:16:03.080Z,paymentservice,network_out,9855
2023-07-04T20:16:03.080Z,shippingservice,network_out,34935
2023-07-04T20:16:03.080Z,cartservice,network_out,4424
2023-07-04T20:16:03.080Z,redis-cart,network_out,210617
2023-07-04T20:16:03.080Z,cartservice,network_out,156377
2023-07-04T20:16:03.088Z,cartservice,network_out,4752
2023-07-04T20:16:03.088Z,frontend,network_out,3457057
2023-07-04T20:16:03.088Z,cartservice,network_out,3514
2023-07-04T20:16:03.088Z,productcatalogservice,network_out,1186215
2023-07-04T20:16:03.088Z,recommendationservice,network_out,187821
2023-07-04T20:16:03.081Z,emailservice,network_out,8547
2023-07-04T20:16:03.081Z,cartservice,network_out,3456
2023-07-04T20:16:03.080Z,currencyservice,network_out,315631
2023-07-04T20:16:13.087Z,cartservice,network_out,4428
2023-07-04T20:16:13.087Z,productcatalogservice,network_out,1565087
2023-07-04T20:16:13.079Z,paymentservice,network_out,9855
2023-07-04T20:16:13.079Z,cartservice,network_out,156377
2023-07-04T20:16:13.087Z,frontend,network_out,4369498
2023-07-04T20:16:13.087Z,recommendationservice,network_out,211910
2023-07-04T20:16:13.087Z,cartservice,network_out,4752
2023-07-04T20:16:13.079Z,redis-cart,network_out,210617
2023-07-04T20:16:13.079Z,shippingservice,network_out,34935
2023-07-04T20:16:13.079Z,cartservice,network_out,4424
2023-07-04T20:16:13.079Z,currencyservice,network_out,315631
2023-07-04T20:16:13.080Z,cartservice,network_out,4214
2023-07-04T20:16:13.080Z,adservice,network_out,62705
2023-07-04T20:16:13.087Z,cartservice,network_out,3514
2023-07-04T20:16:13.079Z,cartservice,network_out,20375
2023-07-04T20:16:13.080Z,emailservice,network_out,9899
2023-07-04T20:16:13.080Z,cartservice,network_out,4554
2023-07-04T20:16:13.087Z,checkoutservice,network_out,73570
2023-07-04T20:16:23.087Z,recommendationservice,network_out,211910
2023-07-04T20:16:23.087Z,checkoutservice,network_out,75107
2023-07-04T20:16:23.087Z,cartservice,network_out,5427
2023-07-04T20:16:23.081Z,emailservice,network_out,9899
2023-07-04T20:16:23.080Z,currencyservice,network_out,350316
2023-07-04T20:16:23.080Z,redis-cart,network_out,241048
2023-07-04T20:16:23.080Z,paymentservice,network_out,11028
2023-07-04T20:16:23.081Z,adservice,network_out,62705
2023-07-04T20:16:23.081Z,cartservice,network_out,4214
2023-07-04T20:16:23.081Z,cartservice,network_out,4554
2023-07-04T20:16:23.087Z,frontend,network_out,4369498
2023-07-04T20:16:23.087Z,cartservice,network_out,4338
2023-07-04T20:16:23.087Z,productcatalogservice,network_out,1666421
2023-07-04T20:16:23.080Z,cartservice,network_out,4424
2023-07-04T20:16:23.080Z,cartservice,network_out,173745
2023-07-04T20:16:23.080Z,cartservice,network_out,20441
2023-07-04T20:16:23.080Z,shippingservice,network_out,39900
2023-07-04T20:16:23.087Z,cartservice,network_out,4428
2023-07-04T20:16:33.087Z,checkoutservice,network_out,79194
2023-07-04T20:16:33.087Z,cartservice,network_out,5061
2023-07-04T20:16:33.079Z,paymentservice,network_out,11028
2023-07-04T20:16:33.080Z,emailservice,network_out,9899
2023-07-04T20:16:33.080Z,adservice,network_out,62705
2023-07-04T20:16:33.087Z,cartservice,network_out,4338
2023-07-04T20:16:33.079Z,cartservice,network_out,173745
2023-07-04T20:16:33.079Z,currencyservice,network_out,350316
2023-07-04T20:16:33.079Z,shippingservice,network_out,39900
2023-07-04T20:16:33.080Z,cartservice,network_out,4214
2023-07-04T20:16:33.080Z,cartservice,network_out,4554
2023-07-04T20:16:33.087Z,recommendationservice,network_out,230644
2023-07-04T20:16:33.087Z,cartservice,network_out,5427
2023-07-04T20:16:33.079Z,cartservice,network_out,4424
2023-07-04T20:16:33.079Z,cartservice,network_out,20441
2023-07-04T20:16:33.079Z,redis-cart,network_out,241048
2023-07-04T20:16:33.087Z,productcatalogservice,network_out,1798513
2023-07-04T20:16:33.087Z,frontend,network_out,4713504
2023-07-04T20:16:43.079Z,shippingservice,network_out,42019
2023-07-04T20:16:43.080Z,cartservice,network_out,5038
2023-07-04T20:16:43.088Z,cartservice,network_out,5061
2023-07-04T20:16:43.079Z,paymentservice,network_out,11028
2023-07-04T20:16:43.079Z,cartservice,network_out,5224
2023-07-04T20:16:43.080Z,adservice,network_out,78434
2023-07-04T20:16:43.088Z,recommendationservice,network_out,247996
2023-07-04T20:16:43.088Z,cartservice,network_out,5054
2023-07-04T20:16:43.079Z,cartservice,network_out,22155
2023-07-04T20:16:43.079Z,redis-cart,network_out,268021
2023-07-04T20:16:43.079Z,cartservice,network_out,173745
2023-07-04T20:16:43.088Z,cartservice,network_out,5427
2023-07-04T20:16:43.088Z,checkoutservice,network_out,79194
2023-07-04T20:16:43.079Z,currencyservice,network_out,394972
2023-07-04T20:16:43.080Z,cartservice,network_out,4554
2023-07-04T20:16:43.080Z,emailservice,network_out,10180
2023-07-04T20:16:43.088Z,frontend,network_out,5117575
2023-07-04T20:16:43.088Z,productcatalogservice,network_out,1798513
2023-07-04T20:16:53.087Z,cartservice,network_out,5054
2023-07-04T20:16:53.081Z,cartservice,network_out,5038
2023-07-04T20:16:53.087Z,productcatalogservice,network_out,1798513
2023-07-04T20:16:53.079Z,cartservice,network_out,194774
2023-07-04T20:16:53.081Z,emailservice,network_out,11747
2023-07-04T20:16:53.087Z,frontend,network_out,5117575
2023-07-04T20:16:53.087Z,cartservice,network_out,5427
2023-07-04T20:16:53.087Z,checkoutservice,network_out,79194
2023-07-04T20:16:53.087Z,cartservice,network_out,5061
2023-07-04T20:16:53.079Z,paymentservice,network_out,12534
2023-07-04T20:16:53.079Z,cartservice,network_out,5224
2023-07-04T20:16:53.079Z,redis-cart,network_out,311771
2023-07-04T20:16:53.081Z,adservice,network_out,78434
2023-07-04T20:16:53.081Z,cartservice,network_out,5271
2023-07-04T20:16:53.087Z,recommendationservice,network_out,247996
2023-07-04T20:16:53.079Z,cartservice,network_out,23127
2023-07-04T20:16:53.079Z,currencyservice,network_out,434571
2023-07-04T20:16:53.079Z,shippingservice,network_out,44886
2023-07-04T20:17:03.079Z,cartservice,network_out,5224
2023-07-04T20:17:03.088Z,cartservice,network_out,5061
2023-07-04T20:17:03.088Z,checkoutservice,network_out,85090
2023-07-04T20:17:03.079Z,currencyservice,network_out,434571
2023-07-04T20:17:03.081Z,emailservice,network_out,11747
2023-07-04T20:17:03.081Z,cartservice,network_out,5271
2023-07-04T20:17:03.088Z,cartservice,network_out,5427
2023-07-04T20:17:03.088Z,frontend,network_out,5518164
2023-07-04T20:17:03.079Z,cartservice,network_out,23127
2023-07-04T20:17:03.079Z,shippingservice,network_out,44886
2023-07-04T20:17:03.079Z,cartservice,network_out,194774
2023-07-04T20:17:03.079Z,redis-cart,network_out,311771
2023-07-04T20:17:03.088Z,productcatalogservice,network_out,1950981
2023-07-04T20:17:03.079Z,paymentservice,network_out,12534
2023-07-04T20:17:03.081Z,adservice,network_out,78434
2023-07-04T20:17:03.081Z,cartservice,network_out,5038
2023-07-04T20:17:03.088Z,recommendationservice,network_out,267141
2023-07-04T20:17:03.088Z,cartservice,network_out,5054
2023-07-04T20:17:13.087Z,cartservice,network_out,6036
2023-07-04T20:17:13.080Z,redis-cart,network_out,321491
2023-07-04T20:17:13.087Z,productcatalogservice,network_out,2132689
2023-07-04T20:17:13.087Z,recommendationservice,network_out,267141
2023-07-04T20:17:13.087Z,frontend,network_out,5518164
2023-07-04T20:17:13.080Z,cartservice,network_out,5038
2023-07-04T20:17:13.080Z,cartservice,network_out,5988
2023-07-04T20:17:13.080Z,cartservice,network_out,215067
2023-07-04T20:17:13.080Z,cartservice,network_out,5224
2023-07-04T20:17:13.080Z,paymentservice,network_out,12534
2023-07-04T20:17:13.080Z,shippingservice,network_out,44886
2023-07-04T20:17:13.080Z,cartservice,network_out,26007
2023-07-04T20:17:13.087Z,cartservice,network_out,5760
2023-07-04T20:17:13.080Z,adservice,network_out,90432
2023-07-04T20:17:13.080Z,emailservice,network_out,12901
2023-07-04T20:17:13.080Z,currencyservice,network_out,434571
2023-07-04T20:17:13.087Z,checkoutservice,network_out,94994
2023-07-04T20:17:13.087Z,cartservice,network_out,5054
2023-07-04T20:17:23.087Z,cartservice,network_out,5812
2023-07-04T20:17:23.080Z,emailservice,network_out,12901
2023-07-04T20:17:23.079Z,currencyservice,network_out,524566
2023-07-04T20:17:23.079Z,shippingservice,network_out,54884
2023-07-04T20:17:23.079Z,cartservice,network_out,29582
2023-07-04T20:17:23.087Z,cartservice,network_out,6036
2023-07-04T20:17:23.087Z,frontend,network_out,6120663
2023-07-04T20:17:23.080Z,cartservice,network_out,5713
2023-07-04T20:17:23.079Z,paymentservice,network_out,14628
2023-07-04T20:17:23.080Z,adservice,network_out,94603
2023-07-04T20:17:23.087Z,cartservice,network_out,5760
2023-07-04T20:17:23.087Z,productcatalogservice,network_out,2211362
2023-07-04T20:17:23.079Z,cartservice,network_out,245606
2023-07-04T20:17:23.079Z,redis-cart,network_out,363530
2023-07-04T20:17:23.079Z,cartservice,network_out,6632
2023-07-04T20:17:23.087Z,checkoutservice,network_out,96465
2023-07-04T20:17:23.087Z,recommendationservice,network_out,284126
2023-07-04T20:17:23.080Z,cartservice,network_out,5988
2023-07-04T20:17:33.087Z,productcatalogservice,network_out,2491179
2023-07-04T20:17:33.087Z,recommendationservice,network_out,319126
2023-07-04T20:17:33.087Z,cartservice,network_out,5812
2023-07-04T20:17:33.087Z,checkoutservice,network_out,110455
2023-07-04T20:17:33.087Z,cartservice,network_out,6860
2023-07-04T20:17:33.079Z,paymentservice,network_out,14628
2023-07-04T20:17:33.079Z,cartservice,network_out,245606
2023-07-04T20:17:33.079Z,currencyservice,network_out,524566
2023-07-04T20:17:33.079Z,redis-cart,network_out,363530
2023-07-04T20:17:33.079Z,shippingservice,network_out,54884
2023-07-04T20:17:33.079Z,cartservice,network_out,6632
2023-07-04T20:17:33.079Z,cartservice,network_out,29582
2023-07-04T20:17:33.080Z,emailservice,network_out,12901
2023-07-04T20:17:33.080Z,cartservice,network_out,5713
2023-07-04T20:17:33.080Z,cartservice,network_out,5988
2023-07-04T20:17:33.080Z,adservice,network_out,94603
2023-07-04T20:17:33.087Z,cartservice,network_out,6667
2023-07-04T20:17:33.087Z,frontend,network_out,6747407
2023-07-04T20:17:43.079Z,cartservice,network_out,29582
2023-07-04T20:17:43.087Z,cartservice,network_out,6667
2023-07-04T20:17:43.087Z,cartservice,network_out,5812
2023-07-04T20:17:43.079Z,cartservice,network_out,245606
2023-07-04T20:17:43.079Z,cartservice,network_out,6632
2023-07-04T20:17:43.087Z,recommendationservice,network_out,319126
2023-07-04T20:17:43.087Z,checkoutservice,network_out,110455
2023-07-04T20:17:43.087Z,cartservice,network_out,6860
2023-07-04T20:17:43.087Z,frontend,network_out,6747407
2023-07-04T20:17:43.080Z,adservice,network_out,101995
2023-07-04T20:17:43.079Z,redis-cart,network_out,373671
2023-07-04T20:17:43.080Z,cartservice,network_out,6639
2023-07-04T20:17:43.080Z,emailservice,network_out,15013
2023-07-04T20:17:43.079Z,shippingservice,network_out,54884
2023-07-04T20:17:43.079Z,currencyservice,network_out,524566
2023-07-04T20:17:43.079Z,paymentservice,network_out,14628
2023-07-04T20:17:43.087Z,productcatalogservice,network_out,2491179
2023-07-04T20:17:43.080Z,cartservice,network_out,6433
2023-07-04T20:17:53.088Z,cartservice,network_out,6860
2023-07-04T20:17:53.080Z,cartservice,network_out,6475
2023-07-04T20:17:53.080Z,adservice,network_out,105840
2023-07-04T20:17:53.079Z,currencyservice,network_out,589637
2023-07-04T20:17:53.088Z,recommendationservice,network_out,319126
2023-07-04T20:17:53.088Z,frontend,network_out,6747407
2023-07-04T20:17:53.079Z,shippingservice,network_out,59981
2023-07-04T20:17:53.088Z,cartservice,network_out,5812
2023-07-04T20:17:53.088Z,checkoutservice,network_out,110455
2023-07-04T20:17:53.088Z,productcatalogservice,network_out,2491179
2023-07-04T20:17:53.080Z,emailservice,network_out,15013
2023-07-04T20:17:53.080Z,cartservice,network_out,6709
2023-07-04T20:17:53.079Z,cartservice,network_out,262763
2023-07-04T20:17:53.079Z,redis-cart,network_out,413864
2023-07-04T20:17:53.088Z,cartservice,network_out,6667
2023-07-04T20:17:53.079Z,paymentservice,network_out,15622
2023-07-04T20:17:53.079Z,cartservice,network_out,29718
2023-07-04T20:17:53.079Z,cartservice,network_out,7544
2023-07-04T20:18:03.080Z,cartservice,network_out,6709
2023-07-04T20:18:03.080Z,emailservice,network_out,15013
2023-07-04T20:18:03.087Z,frontend,network_out,7115496
2023-07-04T20:18:03.087Z,cartservice,network_out,7300
2023-07-04T20:18:03.080Z,currencyservice,network_out,589637
2023-07-04T20:18:03.080Z,redis-cart,network_out,443360
2023-07-04T20:18:03.080Z,cartservice,network_out,6475
2023-07-04T20:18:03.087Z,cartservice,network_out,5812
2023-07-04T20:18:03.087Z,productcatalogservice,network_out,2699232
2023-07-04T20:18:03.087Z,cartservice,network_out,6930
2023-07-04T20:18:03.080Z,shippingservice,network_out,62551
2023-07-04T20:18:03.080Z,cartservice,network_out,31798
2023-07-04T20:18:03.080Z,adservice,network_out,105840
2023-07-04T20:18:03.087Z,checkoutservice,network_out,111860
2023-07-04T20:18:03.087Z,recommendationservice,network_out,344234
2023-07-04T20:18:03.080Z,cartservice,network_out,282889
2023-07-04T20:18:03.080Z,paymentservice,network_out,15622
2023-07-04T20:18:03.080Z,cartservice,network_out,7544
2023-07-04T20:18:13.079Z,currencyservice,network_out,589637
2023-07-04T20:18:13.080Z,adservice,network_out,110938
2023-07-04T20:18:13.079Z,cartservice,network_out,282889
2023-07-04T20:18:13.079Z,paymentservice,network_out,15622
2023-07-04T20:18:13.079Z,redis-cart,network_out,443360
2023-07-04T20:18:13.080Z,cartservice,network_out,6475
2023-07-04T20:18:13.087Z,cartservice,network_out,7647
2023-07-04T20:18:13.087Z,recommendationservice,network_out,360012
2023-07-04T20:18:13.087Z,cartservice,network_out,7342
2023-07-04T20:18:13.079Z,cartservice,network_out,31798
2023-07-04T20:18:13.080Z,emailservice,network_out,15149
2023-07-04T20:18:13.080Z,cartservice,network_out,7509
2023-07-04T20:18:13.079Z,shippingservice,network_out,62551
2023-07-04T20:18:13.079Z,cartservice,network_out,7544
2023-07-04T20:18:13.087Z,cartservice,network_out,7422
2023-07-04T20:18:13.087Z,checkoutservice,network_out,112520
2023-07-04T20:18:13.087Z,frontend,network_out,7612453
2023-07-04T20:18:13.087Z,productcatalogservice,network_out,2839636
2023-07-04T20:18:23.079Z,cartservice,network_out,7544
2023-07-04T20:18:23.079Z,shippingservice,network_out,65990
2023-07-04T20:18:23.079Z,paymentservice,network_out,16771
2023-07-04T20:18:23.080Z,emailservice,network_out,16836
2023-07-04T20:18:23.088Z,frontend,network_out,8021452
2023-07-04T20:18:23.079Z,cartservice,network_out,291966
2023-07-04T20:18:23.080Z,adservice,network_out,119348
2023-07-04T20:18:23.080Z,cartservice,network_out,7509
2023-07-04T20:18:23.088Z,checkoutservice,network_out,123569
2023-07-04T20:18:23.088Z,productcatalogservice,network_out,3042219
2023-07-04T20:18:23.079Z,redis-cart,network_out,443360
2023-07-04T20:18:23.079Z,currencyservice,network_out,628368
2023-07-04T20:18:23.079Z,cartservice,network_out,31798
2023-07-04T20:18:23.088Z,cartservice,network_out,7342
2023-07-04T20:18:23.088Z,recommendationservice,network_out,383831
2023-07-04T20:18:23.088Z,cartservice,network_out,7422
2023-07-04T20:18:23.080Z,cartservice,network_out,7233
2023-07-04T20:18:23.088Z,cartservice,network_out,7647
2023-07-04T20:18:33.087Z,frontend,network_out,8021452
2023-07-04T20:18:33.080Z,cartservice,network_out,8291
2023-07-04T20:18:33.079Z,redis-cart,network_out,476313
2023-07-04T20:18:33.079Z,shippingservice,network_out,71721
2023-07-04T20:18:33.087Z,cartservice,network_out,7422
2023-07-04T20:18:33.087Z,cartservice,network_out,7647
2023-07-04T20:18:33.080Z,adservice,network_out,119348
2023-07-04T20:18:33.079Z,currencyservice,network_out,691051
2023-07-04T20:18:33.087Z,cartservice,network_out,7342
2023-07-04T20:18:33.087Z,recommendationservice,network_out,383831
2023-07-04T20:18:33.087Z,checkoutservice,network_out,123569
2023-07-04T20:18:33.087Z,productcatalogservice,network_out,3042219
2023-07-04T20:18:33.080Z,cartservice,network_out,7233
2023-07-04T20:18:33.080Z,emailservice,network_out,16836
2023-07-04T20:18:33.079Z,cartservice,network_out,34526
2023-07-04T20:18:33.079Z,cartservice,network_out,8368
2023-07-04T20:18:33.079Z,paymentservice,network_out,17443
2023-07-04T20:18:33.079Z,cartservice,network_out,309394
2023-07-04T20:18:43.080Z,cartservice,network_out,8291
2023-07-04T20:18:43.088Z,cartservice,network_out,8363
2023-07-04T20:18:43.079Z,currencyservice,network_out,691051
2023-07-04T20:18:43.079Z,shippingservice,network_out,74921
2023-07-04T20:18:43.080Z,emailservice,network_out,16836
2023-07-04T20:18:43.080Z,adservice,network_out,119348
2023-07-04T20:18:43.088Z,cartservice,network_out,8045
2023-07-04T20:18:43.088Z,cartservice,network_out,8138
2023-07-04T20:18:43.088Z,checkoutservice,network_out,127860
2023-07-04T20:18:43.088Z,recommendationservice,network_out,403783
2023-07-04T20:18:43.088Z,frontend,network_out,8674573
2023-07-04T20:18:43.079Z,cartservice,network_out,8368
2023-07-04T20:18:43.079Z,cartservice,network_out,325644
2023-07-04T20:18:43.079Z,cartservice,network_out,34526
2023-07-04T20:18:43.080Z,cartservice,network_out,7233
2023-07-04T20:18:43.088Z,productcatalogservice,network_out,3042219
2023-07-04T20:18:43.079Z,paymentservice,network_out,18235
2023-07-04T20:18:43.079Z,redis-cart,network_out,520102
2023-07-04T20:18:53.079Z,paymentservice,network_out,18235
2023-07-04T20:18:53.079Z,redis-cart,network_out,520102
2023-07-04T20:18:53.079Z,cartservice,network_out,34526
2023-07-04T20:18:53.079Z,currencyservice,network_out,691051
2023-07-04T20:18:53.079Z,cartservice,network_out,325644
2023-07-04T20:18:53.087Z,checkoutservice,network_out,127860
2023-07-04T20:18:53.087Z,productcatalogservice,network_out,3215706
2023-07-04T20:18:53.081Z,emailservice,network_out,18188
2023-07-04T20:18:53.081Z,cartservice,network_out,8375
2023-07-04T20:18:53.079Z,cartservice,network_out,8368
2023-07-04T20:18:53.079Z,shippingservice,network_out,74921
2023-07-04T20:18:53.087Z,cartservice,network_out,8045
2023-07-04T20:18:53.087Z,cartservice,network_out,8363
2023-07-04T20:18:53.081Z,cartservice,network_out,7925
2023-07-04T20:18:53.087Z,recommendationservice,network_out,403783
2023-07-04T20:18:53.087Z,frontend,network_out,8674573
2023-07-04T20:18:53.087Z,cartservice,network_out,8138
2023-07-04T20:18:53.081Z,adservice,network_out,132586
2023-07-04T20:19:03.079Z,shippingservice,network_out,74921
2023-07-04T20:19:03.079Z,cartservice,network_out,8977
2023-07-04T20:19:03.082Z,cartservice,network_out,8641
2023-07-04T20:19:03.082Z,emailservice,network_out,18188
2023-07-04T20:19:03.088Z,cartservice,network_out,8363
2023-07-04T20:19:03.088Z,productcatalogservice,network_out,3577831
2023-07-04T20:19:03.079Z,cartservice,network_out,343642
2023-07-04T20:19:03.079Z,currencyservice,network_out,718165
2023-07-04T20:19:03.082Z,adservice,network_out,135990
2023-07-04T20:19:03.082Z,cartservice,network_out,9175
2023-07-04T20:19:03.088Z,cartservice,network_out,8180
2023-07-04T20:19:03.079Z,redis-cart,network_out,520102
2023-07-04T20:19:03.079Z,cartservice,network_out,34592
2023-07-04T20:19:03.079Z,paymentservice,network_out,18301
2023-07-04T20:19:03.088Z,recommendationservice,network_out,422818
2023-07-04T20:19:03.088Z,checkoutservice,network_out,130057
2023-07-04T20:19:03.088Z,frontend,network_out,9180092
2023-07-04T20:19:03.088Z,cartservice,network_out,8845
2023-07-04T20:19:13.079Z,paymentservice,network_out,19288
2023-07-04T20:19:13.088Z,cartservice,network_out,9080
2023-07-04T20:19:13.080Z,cartservice,network_out,8641
2023-07-04T20:19:13.080Z,cartservice,network_out,9175
2023-07-04T20:19:13.079Z,cartservice,network_out,37750
2023-07-04T20:19:13.079Z,cartservice,network_out,8977
2023-07-04T20:19:13.088Z,cartservice,network_out,8845
2023-07-04T20:19:13.080Z,adservice,network_out,135990
2023-07-04T20:19:13.079Z,redis-cart,network_out,556694
2023-07-04T20:19:13.079Z,shippingservice,network_out,79742
2023-07-04T20:19:13.088Z,recommendationservice,network_out,457403
2023-07-04T20:19:13.088Z,frontend,network_out,9756941
2023-07-04T20:19:13.088Z,productcatalogservice,network_out,3577831
2023-07-04T20:19:13.080Z,emailservice,network_out,18188
2023-07-04T20:19:13.079Z,currencyservice,network_out,756653
2023-07-04T20:19:13.079Z,cartservice,network_out,361016
2023-07-04T20:19:13.088Z,cartservice,network_out,8897
2023-07-04T20:19:13.088Z,checkoutservice,network_out,149484
2023-07-04T20:19:23.079Z,paymentservice,network_out,19288
2023-07-04T20:19:23.080Z,emailservice,network_out,20102
2023-07-04T20:19:23.088Z,cartservice,network_out,8845
2023-07-04T20:19:23.088Z,cartservice,network_out,8897
2023-07-04T20:19:23.079Z,cartservice,network_out,8977
2023-07-04T20:19:23.080Z,cartservice,network_out,9175
2023-07-04T20:19:23.080Z,cartservice,network_out,8683
2023-07-04T20:19:23.088Z,checkoutservice,network_out,149484
2023-07-04T20:19:23.079Z,redis-cart,network_out,556694
2023-07-04T20:19:23.079Z,currencyservice,network_out,756653
2023-07-04T20:19:23.080Z,adservice,network_out,149722
2023-07-04T20:19:23.088Z,cartservice,network_out,9080
2023-07-04T20:19:23.088Z,recommendationservice,network_out,474740
2023-07-04T20:19:23.079Z,cartservice,network_out,37750
2023-07-04T20:19:23.079Z,cartservice,network_out,361016
2023-07-04T20:19:23.079Z,shippingservice,network_out,79742
2023-07-04T20:19:23.088Z,frontend,network_out,10128368
2023-07-04T20:19:23.088Z,productcatalogservice,network_out,3771678
2023-07-04T20:19:33.079Z,currencyservice,network_out,813847
2023-07-04T20:19:33.088Z,cartservice,network_out,8845
2023-07-04T20:19:33.081Z,cartservice,network_out,9175
2023-07-04T20:19:33.081Z,adservice,network_out,156104
2023-07-04T20:19:33.079Z,cartservice,network_out,8977
2023-07-04T20:19:33.079Z,paymentservice,network_out,19288
2023-07-04T20:19:33.081Z,cartservice,network_out,8683
2023-07-04T20:19:33.079Z,cartservice,network_out,38754
2023-07-04T20:19:33.088Z,recommendationservice,network_out,474740
2023-07-04T20:19:33.088Z,frontend,network_out,10128368
2023-07-04T20:19:33.081Z,emailservice,network_out,20102
2023-07-04T20:19:33.079Z,cartservice,network_out,384723
2023-07-04T20:19:33.079Z,redis-cart,network_out,579656
2023-07-04T20:19:33.079Z,shippingservice,network_out,83600
2023-07-04T20:19:33.088Z,cartservice,network_out,9080
2023-07-04T20:19:33.088Z,checkoutservice,network_out,149484
2023-07-04T20:19:33.088Z,productcatalogservice,network_out,3771678
2023-07-04T20:19:33.088Z,cartservice,network_out,8897
2023-07-04T20:19:43.080Z,adservice,network_out,156104
2023-07-04T20:19:43.079Z,cartservice,network_out,408670
2023-07-04T20:19:43.079Z,currencyservice,network_out,882172
2023-07-04T20:19:43.080Z,cartservice,network_out,8683
2023-07-04T20:19:43.087Z,cartservice,network_out,8897
2023-07-04T20:19:43.087Z,checkoutservice,network_out,150938
2023-07-04T20:19:43.079Z,redis-cart,network_out,608116
2023-07-04T20:19:43.079Z,paymentservice,network_out,20146
2023-07-04T20:19:43.080Z,cartservice,network_out,9175
2023-07-04T20:19:43.080Z,emailservice,network_out,20102
2023-07-04T20:19:43.087Z,productcatalogservice,network_out,3771678
2023-07-04T20:19:43.087Z,recommendationservice,network_out,495402
2023-07-04T20:19:43.079Z,cartservice,network_out,39602
2023-07-04T20:19:43.079Z,cartservice,network_out,9628
2023-07-04T20:19:43.087Z,frontend,network_out,10550008
2023-07-04T20:19:43.087Z,cartservice,network_out,8845
2023-07-04T20:19:43.087Z,cartservice,network_out,9755
2023-07-04T20:19:43.079Z,shippingservice,network_out,87085
2023-07-04T20:19:53.080Z,redis-cart,network_out,636925
2023-07-04T20:19:53.080Z,adservice,network_out,164571
2023-07-04T20:19:53.088Z,checkoutservice,network_out,151598
2023-07-04T20:19:53.080Z,cartservice,network_out,9975
2023-07-04T20:19:53.080Z,cartservice,network_out,9441
2023-07-04T20:19:53.080Z,emailservice,network_out,21735
2023-07-04T20:19:53.080Z,cartservice,network_out,41588
2023-07-04T20:19:53.088Z,frontend,network_out,10890674
2023-07-04T20:19:53.088Z,cartservice,network_out,9520
2023-07-04T20:19:53.088Z,cartservice,network_out,8897
2023-07-04T20:19:53.080Z,cartservice,network_out,408670
2023-07-04T20:19:53.080Z,currencyservice,network_out,882172
2023-07-04T20:19:53.080Z,paymentservice,network_out,21718
2023-07-04T20:19:53.088Z,cartservice,network_out,9755
2023-07-04T20:19:53.088Z,recommendationservice,network_out,495402
2023-07-04T20:19:53.088Z,productcatalogservice,network_out,3984827
2023-07-04T20:19:53.080Z,cartservice,network_out,10410
2023-07-04T20:19:53.080Z,shippingservice,network_out,91545
2023-07-04T20:20:03.079Z,currencyservice,network_out,882172
2023-07-04T20:20:03.079Z,cartservice,network_out,41588
2023-07-04T20:20:03.080Z,adservice,network_out,164571
2023-07-04T20:20:03.087Z,productcatalogservice,network_out,4349931
2023-07-04T20:20:03.079Z,redis-cart,network_out,636925
2023-07-04T20:20:03.079Z,paymentservice,network_out,21718
2023-07-04T20:20:03.080Z,cartservice,network_out,10157
2023-07-04T20:20:03.087Z,checkoutservice,network_out,166578
2023-07-04T20:20:03.087Z,cartservice,network_out,9506
2023-07-04T20:20:03.079Z,cartservice,network_out,10410
2023-07-04T20:20:03.087Z,frontend,network_out,11571129
2023-07-04T20:20:03.087Z,cartservice,network_out,10236
2023-07-04T20:20:03.079Z,cartservice,network_out,408670
2023-07-04T20:20:03.079Z,shippingservice,network_out,91545
2023-07-04T20:20:03.080Z,cartservice,network_out,10625
2023-07-04T20:20:03.080Z,emailservice,network_out,22363
2023-07-04T20:20:03.087Z,recommendationservice,network_out,521377
2023-07-04T20:20:03.087Z,cartservice,network_out,10638
2023-07-04T20:20:13.079Z,currencyservice,network_out,933375
2023-07-04T20:20:13.079Z,cartservice,network_out,432815
2023-07-04T20:20:13.080Z,cartservice,network_out,10157
2023-07-04T20:20:13.079Z,cartservice,network_out,44598
2023-07-04T20:20:13.080Z,cartservice,network_out,10625
2023-07-04T20:20:13.088Z,cartservice,network_out,10638
2023-07-04T20:20:13.088Z,frontend,network_out,12140154
2023-07-04T20:20:13.088Z,cartservice,network_out,10156
2023-07-04T20:20:13.079Z,shippingservice,network_out,96520
2023-07-04T20:20:13.080Z,emailservice,network_out,23392
2023-07-04T20:20:13.088Z,productcatalogservice,network_out,4349931
2023-07-04T20:20:13.088Z,cartservice,network_out,10320
2023-07-04T20:20:13.088Z,checkoutservice,network_out,174788
2023-07-04T20:20:13.079Z,paymentservice,network_out,22348
2023-07-04T20:20:13.079Z,redis-cart,network_out,636925
2023-07-04T20:20:13.079Z,cartservice,network_out,10410
2023-07-04T20:20:13.080Z,adservice,network_out,172999
2023-07-04T20:20:13.088Z,recommendationservice,network_out,551537
2023-07-04T20:20:23.079Z,paymentservice,network_out,22348
2023-07-04T20:20:23.079Z,currencyservice,network_out,933375
2023-07-04T20:20:23.081Z,cartservice,network_out,10625
2023-07-04T20:20:23.088Z,frontend,network_out,12140154
2023-07-04T20:20:23.079Z,cartservice,network_out,446097
2023-07-04T20:20:23.081Z,cartservice,network_out,10157
2023-07-04T20:20:23.088Z,cartservice,network_out,10638
2023-07-04T20:20:23.088Z,cartservice,network_out,10320
2023-07-04T20:20:23.079Z,cartservice,network_out,10410
2023-07-04T20:20:23.081Z,emailservice,network_out,23392
2023-07-04T20:20:23.088Z,recommendationservice,network_out,551537
2023-07-04T20:20:23.088Z,productcatalogservice,network_out,4349931
2023-07-04T20:20:23.088Z,checkoutservice,network_out,174788
2023-07-04T20:20:23.079Z,cartservice,network_out,44664
2023-07-04T20:20:23.079Z,redis-cart,network_out,663979
2023-07-04T20:20:23.079Z,shippingservice,network_out,98560
2023-07-04T20:20:23.081Z,adservice,network_out,183140
2023-07-04T20:20:23.088Z,cartservice,network_out,10156
2023-07-04T20:20:33.080Z,emailservice,network_out,23392
2023-07-04T20:20:33.088Z,cartservice,network_out,10638
2023-07-04T20:20:33.088Z,frontend,network_out,12140154
2023-07-04T20:20:33.088Z,cartservice,network_out,10240
2023-07-04T20:20:33.080Z,cartservice,network_out,10157
2023-07-04T20:20:33.088Z,recommendationservice,network_out,551537
2023-07-04T20:20:33.080Z,adservice,network_out,183140
2023-07-04T20:20:33.079Z,shippingservice,network_out,106863
2023-07-04T20:20:33.079Z,cartservice,network_out,51296
2023-07-04T20:20:33.079Z,paymentservice,network_out,25157
2023-07-04T20:20:33.080Z,cartservice,network_out,10625
2023-07-04T20:20:33.088Z,checkoutservice,network_out,204713
2023-07-04T20:20:33.088Z,productcatalogservice,network_out,4530131
2023-07-04T20:20:33.088Z,cartservice,network_out,10320
2023-07-04T20:20:33.079Z,redis-cart,network_out,688491
2023-07-04T20:20:33.079Z,cartservice,network_out,11036
2023-07-04T20:20:33.079Z,cartservice,network_out,463699
2023-07-04T20:20:33.079Z,currencyservice,network_out,973503
2023-07-04T20:20:43.079Z,redis-cart,network_out,688491
2023-07-04T20:20:43.079Z,paymentservice,network_out,25157
2023-07-04T20:20:43.087Z,frontend,network_out,12722791
2023-07-04T20:20:43.079Z,cartservice,network_out,463699
2023-07-04T20:20:43.080Z,emailservice,network_out,26132
2023-07-04T20:20:43.087Z,cartservice,network_out,10807
2023-07-04T20:20:43.079Z,shippingservice,network_out,106863
2023-07-04T20:20:43.079Z,cartservice,network_out,51296
2023-07-04T20:20:43.080Z,cartservice,network_out,10157
2023-07-04T20:20:43.080Z,adservice,network_out,191977
2023-07-04T20:20:43.087Z,productcatalogservice,network_out,4753199
2023-07-04T20:20:43.087Z,cartservice,network_out,11545
2023-07-04T20:20:43.079Z,cartservice,network_out,11036
2023-07-04T20:20:43.079Z,currencyservice,network_out,973503
2023-07-04T20:20:43.080Z,cartservice,network_out,11383
2023-07-04T20:20:43.087Z,recommendationservice,network_out,601546
2023-07-04T20:20:43.087Z,checkoutservice,network_out,209412
2023-07-04T20:20:43.087Z,cartservice,network_out,10929
2023-07-04T20:20:53.079Z,currencyservice,network_out,1029321
2023-07-04T20:20:53.080Z,cartservice,network_out,10957
2023-07-04T20:20:53.087Z,frontend,network_out,13169752
2023-07-04T20:20:53.079Z,redis-cart,network_out,717880
2023-07-04T20:20:53.080Z,emailservice,network_out,26198
2023-07-04T20:20:53.087Z,cartservice,network_out,11545
2023-07-04T20:20:53.087Z,checkoutservice,network_out,210949
2023-07-04T20:20:53.079Z,cartservice,network_out,479245
2023-07-04T20:20:53.079Z,paymentservice,network_out,26015
2023-07-04T20:20:53.079Z,cartservice,network_out,11036
2023-07-04T20:20:53.080Z,cartservice,network_out,11383
2023-07-04T20:20:53.087Z,cartservice,network_out,10849
2023-07-04T20:20:53.087Z,productcatalogservice,network_out,4883903
2023-07-04T20:20:53.079Z,cartservice,network_out,51362
2023-07-04T20:20:53.079Z,shippingservice,network_out,106863
2023-07-04T20:20:53.080Z,adservice,network_out,191977
2023-07-04T20:20:53.087Z,cartservice,network_out,10929
2023-07-04T20:20:53.087Z,recommendationservice,network_out,601546
2023-07-04T20:21:03.079Z,paymentservice,network_out,26015
2023-07-04T20:21:03.080Z,emailservice,network_out,26198
2023-07-04T20:21:03.088Z,frontend,network_out,13169752
2023-07-04T20:21:03.079Z,cartservice,network_out,479245
2023-07-04T20:21:03.088Z,checkoutservice,network_out,210949
2023-07-04T20:21:03.079Z,cartservice,network_out,51362
2023-07-04T20:21:03.079Z,currencyservice,network_out,1058295
2023-07-04T20:21:03.080Z,cartservice,network_out,10957
2023-07-04T20:21:03.079Z,cartservice,network_out,11036
2023-07-04T20:21:03.079Z,redis-cart,network_out,742293
2023-07-04T20:21:03.088Z,cartservice,network_out,11729
2023-07-04T20:21:03.088Z,cartservice,network_out,10849
2023-07-04T20:21:03.079Z,shippingservice,network_out,109199
2023-07-04T20:21:03.080Z,adservice,network_out,191977
2023-07-04T20:21:03.080Z,cartservice,network_out,11383
2023-07-04T20:21:03.088Z,recommendationservice,network_out,617954
2023-07-04T20:21:03.088Z,productcatalogservice,network_out,4992953
2023-07-04T20:21:03.088Z,cartservice,network_out,12262
2023-07-04T20:21:13.079Z,redis-cart,network_out,790483
2023-07-04T20:21:13.088Z,cartservice,network_out,11729
2023-07-04T20:21:13.088Z,cartservice,network_out,12262
2023-07-04T20:21:13.079Z,cartservice,network_out,517498
2023-07-04T20:21:13.080Z,cartservice,network_out,11590
2023-07-04T20:21:13.088Z,cartservice,network_out,10849
2023-07-04T20:21:13.088Z,checkoutservice,network_out,221765
2023-07-04T20:21:13.079Z,cartservice,network_out,11794
2023-07-04T20:21:13.079Z,paymentservice,network_out,26123
2023-07-04T20:21:13.080Z,emailservice,network_out,27699
2023-07-04T20:21:13.088Z,productcatalogservice,network_out,4992953
2023-07-04T20:21:13.079Z,shippingservice,network_out,114282
2023-07-04T20:21:13.079Z,cartservice,network_out,52455
2023-07-04T20:21:13.079Z,currencyservice,network_out,1087411
2023-07-04T20:21:13.080Z,adservice,network_out,208411
2023-07-04T20:21:13.080Z,cartservice,network_out,11383
2023-07-04T20:21:13.088Z,recommendationservice,network_out,637769
2023-07-04T20:21:13.088Z,frontend,network_out,13736434
2023-07-04T20:21:23.079Z,currencyservice,network_out,1142152
2023-07-04T20:21:23.088Z,cartservice,network_out,11729
2023-07-04T20:21:23.079Z,cartservice,network_out,517498
2023-07-04T20:21:23.079Z,cartservice,network_out,54385
2023-07-04T20:21:23.088Z,productcatalogservice,network_out,5243133
2023-07-04T20:21:23.079Z,cartservice,network_out,11794
2023-07-04T20:21:23.079Z,paymentservice,network_out,27606
2023-07-04T20:21:23.088Z,recommendationservice,network_out,659664
2023-07-04T20:21:23.088Z,checkoutservice,network_out,222510
2023-07-04T20:21:23.088Z,frontend,network_out,14166098
2023-07-04T20:21:23.079Z,shippingservice,network_out,119123
2023-07-04T20:21:23.080Z,cartservice,network_out,11590
2023-07-04T20:21:23.080Z,adservice,network_out,215847
2023-07-04T20:21:23.079Z,redis-cart,network_out,790483
2023-07-04T20:21:23.080Z,emailservice,network_out,27699
2023-07-04T20:21:23.080Z,cartservice,network_out,12141
2023-07-04T20:21:23.088Z,cartservice,network_out,11583
2023-07-04T20:21:23.088Z,cartservice,network_out,12262
2023-07-04T20:21:33.079Z,paymentservice,network_out,27606
2023-07-04T20:21:33.088Z,recommendationservice,network_out,659664
2023-07-04T20:21:33.088Z,cartservice,network_out,11583
2023-07-04T20:21:33.088Z,frontend,network_out,14166098
2023-07-04T20:21:33.088Z,cartservice,network_out,12262
2023-07-04T20:21:33.079Z,currencyservice,network_out,1142152
2023-07-04T20:21:33.079Z,shippingservice,network_out,119123
2023-07-04T20:21:33.088Z,productcatalogservice,network_out,5243133
2023-07-04T20:21:33.080Z,cartservice,network_out,12965
2023-07-04T20:21:33.079Z,cartservice,network_out,11794
2023-07-04T20:21:33.079Z,cartservice,network_out,54385
2023-07-04T20:21:33.079Z,redis-cart,network_out,790483
2023-07-04T20:21:33.088Z,checkoutservice,network_out,222510
2023-07-04T20:21:33.088Z,cartservice,network_out,11729
2023-07-04T20:21:33.080Z,adservice,network_out,215847
2023-07-04T20:21:33.079Z,cartservice,network_out,517498
2023-07-04T20:21:33.080Z,emailservice,network_out,28525
2023-07-04T20:21:33.080Z,cartservice,network_out,11590
2023-07-04T20:21:43.079Z,cartservice,network_out,538970
2023-07-04T20:21:43.079Z,cartservice,network_out,58109
2023-07-04T20:21:43.087Z,checkoutservice,network_out,236632
2023-07-04T20:21:43.087Z,cartservice,network_out,13003
2023-07-04T20:21:43.081Z,cartservice,network_out,12377
2023-07-04T20:21:43.081Z,emailservice,network_out,28525
2023-07-04T20:21:43.079Z,redis-cart,network_out,801658
2023-07-04T20:21:43.087Z,cartservice,network_out,11583
2023-07-04T20:21:43.087Z,productcatalogservice,network_out,5463529
2023-07-04T20:21:43.081Z,adservice,network_out,225222
2023-07-04T20:21:43.079Z,paymentservice,network_out,27606
2023-07-04T20:21:43.079Z,cartservice,network_out,12469
2023-07-04T20:21:43.079Z,currencyservice,network_out,1142152
2023-07-04T20:21:43.087Z,frontend,network_out,14686622
2023-07-04T20:21:43.081Z,cartservice,network_out,12965
2023-07-04T20:21:43.079Z,shippingservice,network_out,124285
2023-07-04T20:21:43.087Z,cartservice,network_out,11729
2023-07-04T20:21:43.087Z,recommendationservice,network_out,659664
2023-07-04T20:21:53.079Z,cartservice,network_out,559805
2023-07-04T20:21:53.081Z,cartservice,network_out,13035
2023-07-04T20:21:53.087Z,cartservice,network_out,12282
2023-07-04T20:21:53.087Z,frontend,network_out,15219062
2023-07-04T20:21:53.087Z,cartservice,network_out,13003
2023-07-04T20:21:53.079Z,cartservice,network_out,12469
2023-07-04T20:21:53.079Z,cartservice,network_out,59107
2023-07-04T20:21:53.087Z,productcatalogservice,network_out,5619320
2023-07-04T20:21:53.079Z,paymentservice,network_out,28974
2023-07-04T20:21:53.079Z,currencyservice,network_out,1179441
2023-07-04T20:21:53.081Z,emailservice,network_out,29960
2023-07-04T20:21:53.087Z,cartservice,network_out,12553
2023-07-04T20:21:53.079Z,shippingservice,network_out,124285
2023-07-04T20:21:53.079Z,redis-cart,network_out,845792
2023-07-04T20:21:53.081Z,cartservice,network_out,12377
2023-07-04T20:21:53.081Z,adservice,network_out,230674
2023-07-04T20:21:53.087Z,checkoutservice,network_out,246929
2023-07-04T20:21:53.087Z,recommendationservice,network_out,714332
2023-07-04T20:22:03.080Z,cartservice,network_out,12377
2023-07-04T20:22:03.080Z,adservice,network_out,230674
2023-07-04T20:22:03.088Z,cartservice,network_out,12553
2023-07-04T20:22:03.088Z,productcatalogservice,network_out,5871629
2023-07-04T20:22:03.088Z,checkoutservice,network_out,246929
2023-07-04T20:22:03.079Z,shippingservice,network_out,128862
2023-07-04T20:22:03.079Z,redis-cart,network_out,845792
2023-07-04T20:22:03.079Z,currencyservice,network_out,1179441
2023-07-04T20:22:03.079Z,cartservice,network_out,12469
2023-07-04T20:22:03.080Z,emailservice,network_out,29960
2023-07-04T20:22:03.088Z,frontend,network_out,15896660
2023-07-04T20:22:03.088Z,cartservice,network_out,13873
2023-07-04T20:22:03.079Z,cartservice,network_out,59107
2023-07-04T20:22:03.079Z,cartservice,network_out,559805
2023-07-04T20:22:03.080Z,cartservice,network_out,13035
2023-07-04T20:22:03.079Z,paymentservice,network_out,30504
2023-07-04T20:22:03.088Z,recommendationservice,network_out,714332
2023-07-04T20:22:03.088Z,cartservice,network_out,12324
2023-07-04T20:22:13.081Z,cartservice,network_out,13035
2023-07-04T20:22:13.088Z,recommendationservice,network_out,733556
2023-07-04T20:22:13.079Z,redis-cart,network_out,856570
2023-07-04T20:22:13.079Z,cartservice,network_out,13231
2023-07-04T20:22:13.079Z,currencyservice,network_out,1229198
2023-07-04T20:22:13.081Z,emailservice,network_out,30935
2023-07-04T20:22:13.081Z,adservice,network_out,230674
2023-07-04T20:22:13.088Z,cartservice,network_out,12553
2023-07-04T20:22:13.088Z,cartservice,network_out,12324
2023-07-04T20:22:13.088Z,productcatalogservice,network_out,5871629
2023-07-04T20:22:13.079Z,cartservice,network_out,581006
2023-07-04T20:22:13.079Z,shippingservice,network_out,128862
2023-07-04T20:22:13.088Z,frontend,network_out,15896660
2023-07-04T20:22:13.079Z,paymentservice,network_out,30504
2023-07-04T20:22:13.079Z,cartservice,network_out,62911
2023-07-04T20:22:13.081Z,cartservice,network_out,12377
2023-07-04T20:22:13.088Z,checkoutservice,network_out,259627
2023-07-04T20:22:13.088Z,cartservice,network_out,13873
2023-07-04T20:22:23.079Z,cartservice,network_out,602102
2023-07-04T20:22:23.079Z,paymentservice,network_out,32395
2023-07-04T20:22:23.080Z,adservice,network_out,240474
2023-07-04T20:22:23.088Z,cartservice,network_out,14506
2023-07-04T20:22:23.079Z,cartservice,network_out,13923
2023-07-04T20:22:23.079Z,cartservice,network_out,64279
2023-07-04T20:22:23.080Z,cartservice,network_out,13751
2023-07-04T20:22:23.080Z,cartservice,network_out,13093
2023-07-04T20:22:23.080Z,emailservice,network_out,32436
2023-07-04T20:22:23.088Z,cartservice,network_out,13336
2023-07-04T20:22:23.088Z,frontend,network_out,16489282
2023-07-04T20:22:23.079Z,currencyservice,network_out,1274030
2023-07-04T20:22:23.088Z,cartservice,network_out,13124
2023-07-04T20:22:23.079Z,shippingservice,network_out,138887
2023-07-04T20:22:23.079Z,redis-cart,network_out,884599
2023-07-04T20:22:23.088Z,checkoutservice,network_out,259627
2023-07-04T20:22:23.088Z,productcatalogservice,network_out,6102544
2023-07-04T20:22:23.088Z,recommendationservice,network_out,750528
2023-07-04T20:22:33.079Z,cartservice,network_out,64279
2023-07-04T20:22:33.079Z,redis-cart,network_out,884599
2023-07-04T20:22:33.088Z,cartservice,network_out,14506
2023-07-04T20:22:33.081Z,emailservice,network_out,32436
2023-07-04T20:22:33.079Z,currencyservice,network_out,1274030
2023-07-04T20:22:33.088Z,frontend,network_out,16489282
2023-07-04T20:22:33.081Z,adservice,network_out,249609
2023-07-04T20:22:33.079Z,shippingservice,network_out,138887
2023-07-04T20:22:33.088Z,checkoutservice,network_out,259627
2023-07-04T20:22:33.088Z,cartservice,network_out,13124
2023-07-04T20:22:33.081Z,cartservice,network_out,13751
2023-07-04T20:22:33.081Z,cartservice,network_out,13093
2023-07-04T20:22:33.079Z,cartservice,network_out,13923
2023-07-04T20:22:33.079Z,cartservice,network_out,602102
2023-07-04T20:22:33.079Z,paymentservice,network_out,32395
2023-07-04T20:22:33.088Z,cartservice,network_out,13336
2023-07-04T20:22:33.088Z,productcatalogservice,network_out,6102544
2023-07-04T20:22:33.088Z,recommendationservice,network_out,750528
2023-07-04T20:22:43.079Z,cartservice,network_out,66059
2023-07-04T20:22:43.080Z,adservice,network_out,249609
2023-07-04T20:22:43.088Z,checkoutservice,network_out,269944
2023-07-04T20:22:43.088Z,cartservice,network_out,14548
2023-07-04T20:22:43.079Z,currencyservice,network_out,1332183
2023-07-04T20:22:43.079Z,redis-cart,network_out,911502
2023-07-04T20:22:43.079Z,cartservice,network_out,621374
2023-07-04T20:22:43.080Z,emailservice,network_out,32436
2023-07-04T20:22:43.088Z,productcatalogservice,network_out,6195254
2023-07-04T20:22:43.088Z,frontend,network_out,16907294
2023-07-04T20:22:43.088Z,recommendationservice,network_out,750528
2023-07-04T20:22:43.088Z,cartservice,network_out,14052
2023-07-04T20:22:43.080Z,cartservice,network_out,13751
2023-07-04T20:22:43.079Z,paymentservice,network_out,32395
2023-07-04T20:22:43.079Z,cartservice,network_out,13923
2023-07-04T20:22:43.079Z,shippingservice,network_out,142686
2023-07-04T20:22:43.080Z,cartservice,network_out,13093
2023-07-04T20:22:43.088Z,cartservice,network_out,13194
2023-07-04T20:22:53.079Z,shippingservice,network_out,144993
2023-07-04T20:22:53.079Z,cartservice,network_out,621374
2023-07-04T20:22:53.081Z,cartservice,network_out,14551
2023-07-04T20:22:53.088Z,recommendationservice,network_out,798440
2023-07-04T20:22:53.088Z,cartservice,network_out,13952
2023-07-04T20:22:53.088Z,checkoutservice,network_out,279554
2023-07-04T20:22:53.079Z,redis-cart,network_out,957896
2023-07-04T20:22:53.079Z,cartservice,network_out,13923
2023-07-04T20:22:53.079Z,cartservice,network_out,66059
2023-07-04T20:22:53.081Z,cartservice,network_out,13893
2023-07-04T20:22:53.081Z,emailservice,network_out,33684
2023-07-04T20:22:53.081Z,adservice,network_out,257961
2023-07-04T20:22:53.088Z,frontend,network_out,17388067
2023-07-04T20:22:53.088Z,productcatalogservice,network_out,6471794
2023-07-04T20:22:53.088Z,cartservice,network_out,14164
2023-07-04T20:22:53.079Z,paymentservice,network_out,33568
2023-07-04T20:22:53.079Z,currencyservice,network_out,1365363
2023-07-04T20:22:53.088Z,cartservice,network_out,14548
2023-07-04T20:23:03.080Z,cartservice,network_out,13893
2023-07-04T20:23:03.080Z,emailservice,network_out,33750
2023-07-04T20:23:03.087Z,cartservice,network_out,14548
2023-07-04T20:23:03.079Z,paymentservice,network_out,33718
2023-07-04T20:23:03.079Z,currencyservice,network_out,1401786
2023-07-04T20:23:03.080Z,cartservice,network_out,14551
2023-07-04T20:23:03.087Z,cartservice,network_out,13952
2023-07-04T20:23:03.087Z,frontend,network_out,17388067
2023-07-04T20:23:03.087Z,checkoutservice,network_out,279554
2023-07-04T20:23:03.079Z,cartservice,network_out,13923
2023-07-04T20:23:03.080Z,adservice,network_out,266140
2023-07-04T20:23:03.087Z,productcatalogservice,network_out,6471794
2023-07-04T20:23:03.079Z,cartservice,network_out,666459
2023-07-04T20:23:03.079Z,redis-cart,network_out,966026
2023-07-04T20:23:03.079Z,shippingservice,network_out,149206
2023-07-04T20:23:03.087Z,recommendationservice,network_out,798440
2023-07-04T20:23:03.087Z,cartservice,network_out,14164
2023-07-04T20:23:03.079Z,cartservice,network_out,67986
2023-07-04T20:23:13.079Z,currencyservice,network_out,1401786
2023-07-04T20:23:13.081Z,cartservice,network_out,14551
2023-07-04T20:23:13.087Z,cartservice,network_out,14881
2023-07-04T20:23:13.079Z,cartservice,network_out,666459
2023-07-04T20:23:13.081Z,adservice,network_out,266140
2023-07-04T20:23:13.087Z,checkoutservice,network_out,279554
2023-07-04T20:23:13.087Z,cartservice,network_out,15348
2023-07-04T20:23:13.087Z,productcatalogservice,network_out,6642164
2023-07-04T20:23:13.079Z,cartservice,network_out,67986
2023-07-04T20:23:13.079Z,paymentservice,network_out,33718
2023-07-04T20:23:13.079Z,shippingservice,network_out,149206
2023-07-04T20:23:13.081Z,emailservice,network_out,33750
2023-07-04T20:23:13.087Z,frontend,network_out,18010762
2023-07-04T20:23:13.079Z,cartservice,network_out,13923
2023-07-04T20:23:13.079Z,redis-cart,network_out,966026
2023-07-04T20:23:13.081Z,cartservice,network_out,13893
2023-07-04T20:23:13.087Z,recommendationservice,network_out,798440
2023-07-04T20:23:13.087Z,cartservice,network_out,13952
2023-07-04T20:23:23.079Z,cartservice,network_out,14664
2023-07-04T20:23:23.079Z,shippingservice,network_out,149206
2023-07-04T20:23:23.081Z,emailservice,network_out,34904
2023-07-04T20:23:23.081Z,cartservice,network_out,14543
2023-07-04T20:23:23.088Z,checkoutservice,network_out,293381
2023-07-04T20:23:23.079Z,paymentservice,network_out,34891
2023-07-04T20:23:23.079Z,cartservice,network_out,67986
2023-07-04T20:23:23.081Z,cartservice,network_out,15333
2023-07-04T20:23:23.081Z,adservice,network_out,280304
2023-07-04T20:23:23.088Z,frontend,network_out,18382022
2023-07-04T20:23:23.079Z,cartservice,network_out,666459
2023-07-04T20:23:23.079Z,currencyservice,network_out,1449950
2023-07-04T20:23:23.088Z,cartservice,network_out,14881
2023-07-04T20:23:23.088Z,cartservice,network_out,15348
2023-07-04T20:23:23.088Z,recommendationservice,network_out,826937
2023-07-04T20:23:23.079Z,redis-cart,network_out,995670
2023-07-04T20:23:23.088Z,productcatalogservice,network_out,6874696
2023-07-04T20:23:23.088Z,cartservice,network_out,14669
2023-07-04T20:23:33.079Z,paymentservice,network_out,34891
2023-07-04T20:23:33.079Z,cartservice,network_out,682717
2023-07-04T20:23:33.087Z,frontend,network_out,18382022
2023-07-04T20:23:33.079Z,shippingservice,network_out,152942
2023-07-04T20:23:33.080Z,cartservice,network_out,15333
2023-07-04T20:23:33.087Z,cartservice,network_out,14881
2023-07-04T20:23:33.087Z,checkoutservice,network_out,293381
2023-07-04T20:23:33.087Z,cartservice,network_out,15348
2023-07-04T20:23:33.087Z,productcatalogservice,network_out,6874696
2023-07-04T20:23:33.079Z,currencyservice,network_out,1449950
2023-07-04T20:23:33.079Z,redis-cart,network_out,995670
2023-07-04T20:23:33.080Z,emailservice,network_out,34904
2023-07-04T20:23:33.080Z,cartservice,network_out,14543
2023-07-04T20:23:33.080Z,adservice,network_out,280304
2023-07-04T20:23:33.087Z,cartservice,network_out,14669
2023-07-04T20:23:33.079Z,cartservice,network_out,14664
2023-07-04T20:23:33.079Z,cartservice,network_out,70350
2023-07-04T20:23:33.087Z,recommendationservice,network_out,826937
2023-07-04T20:23:43.079Z,paymentservice,network_out,37342
2023-07-04T20:23:43.080Z,cartservice,network_out,15259
2023-07-04T20:23:43.088Z,cartservice,network_out,16130
2023-07-04T20:23:43.088Z,cartservice,network_out,14669
2023-07-04T20:23:43.079Z,cartservice,network_out,74006
2023-07-04T20:23:43.079Z,cartservice,network_out,703704
2023-07-04T20:23:43.088Z,productcatalogservice,network_out,6874696
2023-07-04T20:23:43.088Z,frontend,network_out,18901320
2023-07-04T20:23:43.079Z,redis-cart,network_out,1046125
2023-07-04T20:23:43.079Z,currencyservice,network_out,1527778
2023-07-04T20:23:43.080Z,adservice,network_out,293886
2023-07-04T20:23:43.080Z,cartservice,network_out,16157
2023-07-04T20:23:43.088Z,recommendationservice,network_out,847084
2023-07-04T20:23:43.088Z,cartservice,network_out,14881
2023-07-04T20:23:43.088Z,checkoutservice,network_out,310020
2023-07-04T20:23:43.079Z,cartservice,network_out,15422
2023-07-04T20:23:43.079Z,shippingservice,network_out,156614
2023-07-04T20:23:43.080Z,emailservice,network_out,37446
2023-07-04T20:23:53.079Z,shippingservice,network_out,156614
2023-07-04T20:23:53.079Z,paymentservice,network_out,37342
2023-07-04T20:23:53.088Z,cartservice,network_out,16130
2023-07-04T20:23:53.080Z,cartservice,network_out,15343
2023-07-04T20:23:53.088Z,frontend,network_out,18901320
2023-07-04T20:23:53.088Z,productcatalogservice,network_out,7041954
2023-07-04T20:23:53.088Z,checkoutservice,network_out,310020
2023-07-04T20:23:53.088Z,cartservice,network_out,15639
2023-07-04T20:23:53.088Z,recommendationservice,network_out,871794
2023-07-04T20:23:53.080Z,emailservice,network_out,37446
2023-07-04T20:23:53.080Z,cartservice,network_out,16157
2023-07-04T20:23:53.080Z,adservice,network_out,293886
2023-07-04T20:23:53.079Z,cartservice,network_out,15422
2023-07-04T20:23:53.079Z,cartservice,network_out,74006
2023-07-04T20:23:53.079Z,cartservice,network_out,703704
2023-07-04T20:23:53.079Z,redis-cart,network_out,1046125
2023-07-04T20:23:53.079Z,currencyservice,network_out,1527778
2023-07-04T20:23:53.088Z,cartservice,network_out,15427
2023-07-04T20:24:03.079Z,cartservice,network_out,75004
2023-07-04T20:24:03.079Z,cartservice,network_out,16180
2023-07-04T20:24:03.088Z,productcatalogservice,network_out,7278431
2023-07-04T20:24:03.080Z,adservice,network_out,293886
2023-07-04T20:24:03.079Z,currencyservice,network_out,1576082
2023-07-04T20:24:03.079Z,paymentservice,network_out,37342
2023-07-04T20:24:03.088Z,frontend,network_out,19888664
2023-07-04T20:24:03.080Z,emailservice,network_out,37446
2023-07-04T20:24:03.080Z,cartservice,network_out,16157
2023-07-04T20:24:03.079Z,shippingservice,network_out,159161
2023-07-04T20:24:03.079Z,redis-cart,network_out,1075282
2023-07-04T20:24:03.088Z,recommendationservice,network_out,890091
2023-07-04T20:24:03.088Z,cartservice,network_out,16209
2023-07-04T20:24:03.088Z,checkoutservice,network_out,324492
2023-07-04T20:24:03.080Z,cartservice,network_out,15343
2023-07-04T20:24:03.079Z,cartservice,network_out,723003
2023-07-04T20:24:03.088Z,cartservice,network_out,16314
2023-07-04T20:24:03.088Z,cartservice,network_out,16130
2023-07-04T20:24:13.079Z,cartservice,network_out,16180
2023-07-04T20:24:13.088Z,checkoutservice,network_out,324492
2023-07-04T20:24:13.079Z,cartservice,network_out,77950
2023-07-04T20:24:13.079Z,redis-cart,network_out,1075282
2023-07-04T20:24:13.079Z,paymentservice,network_out,38014
2023-07-04T20:24:13.088Z,recommendationservice,network_out,890091
2023-07-04T20:24:13.079Z,cartservice,network_out,723003
2023-07-04T20:24:13.088Z,cartservice,network_out,16209
2023-07-04T20:24:13.080Z,emailservice,network_out,38008
2023-07-04T20:24:13.080Z,cartservice,network_out,16059
2023-07-04T20:24:13.079Z,shippingservice,network_out,164019
2023-07-04T20:24:13.079Z,currencyservice,network_out,1576082
2023-07-04T20:24:13.080Z,cartservice,network_out,16157
2023-07-04T20:24:13.080Z,adservice,network_out,304354
2023-07-04T20:24:13.088Z,cartservice,network_out,16864
2023-07-04T20:24:13.088Z,frontend,network_out,20204422
2023-07-04T20:24:13.088Z,productcatalogservice,network_out,7461452
2023-07-04T20:24:13.088Z,cartservice,network_out,16314
2023-07-04T20:24:23.088Z,cartservice,network_out,16864
2023-07-04T20:24:23.088Z,recommendationservice,network_out,890091
2023-07-04T20:24:23.088Z,frontend,network_out,20204422
2023-07-04T20:24:23.079Z,cartservice,network_out,753080
2023-07-04T20:24:23.079Z,shippingservice,network_out,164611
2023-07-04T20:24:23.080Z,emailservice,network_out,38947
2023-07-04T20:24:23.088Z,checkoutservice,network_out,324492
2023-07-04T20:24:23.088Z,cartservice,network_out,16314
2023-07-04T20:24:23.079Z,paymentservice,network_out,38914
2023-07-04T20:24:23.080Z,adservice,network_out,315675
2023-07-04T20:24:23.079Z,redis-cart,network_out,1124145
2023-07-04T20:24:23.079Z,currencyservice,network_out,1642418
2023-07-04T20:24:23.079Z,cartservice,network_out,16938
2023-07-04T20:24:23.080Z,cartservice,network_out,16832
2023-07-04T20:24:23.080Z,cartservice,network_out,16059
2023-07-04T20:24:23.088Z,cartservice,network_out,16209
2023-07-04T20:24:23.088Z,productcatalogservice,network_out,7461452
2023-07-04T20:24:23.079Z,cartservice,network_out,78016
2023-07-04T20:24:33.079Z,shippingservice,network_out,164611
2023-07-04T20:24:33.087Z,cartservice,network_out,17473
2023-07-04T20:24:33.087Z,productcatalogservice,network_out,7461452
2023-07-04T20:24:33.079Z,paymentservice,network_out,38914
2023-07-04T20:24:33.079Z,currencyservice,network_out,1642418
2023-07-04T20:24:33.080Z,adservice,network_out,320233
2023-07-04T20:24:33.080Z,cartservice,network_out,16059
2023-07-04T20:24:33.079Z,cartservice,network_out,753080
2023-07-04T20:24:33.079Z,cartservice,network_out,78016
2023-07-04T20:24:33.087Z,checkoutservice,network_out,325880
2023-07-04T20:24:33.087Z,cartservice,network_out,16314
2023-07-04T20:24:33.079Z,redis-cart,network_out,1124145
2023-07-04T20:24:33.079Z,cartservice,network_out,16938
2023-07-04T20:24:33.087Z,frontend,network_out,20435193
2023-07-04T20:24:33.087Z,cartservice,network_out,16251
2023-07-04T20:24:33.087Z,recommendationservice,network_out,910797
2023-07-04T20:24:33.080Z,emailservice,network_out,38947
2023-07-04T20:24:33.080Z,cartservice,network_out,16832
2023-07-04T20:24:43.080Z,paymentservice,network_out,39271
2023-07-04T20:24:43.080Z,currencyservice,network_out,1675615
2023-07-04T20:24:43.081Z,emailservice,network_out,40257
2023-07-04T20:24:43.088Z,productcatalogservice,network_out,7715692
2023-07-04T20:24:43.080Z,redis-cart,network_out,1124145
2023-07-04T20:24:43.080Z,cartservice,network_out,766292
2023-07-04T20:24:43.081Z,cartservice,network_out,16692
2023-07-04T20:24:43.088Z,cartservice,network_out,17030
2023-07-04T20:24:43.080Z,cartservice,network_out,16938
2023-07-04T20:24:43.081Z,cartservice,network_out,16832
2023-07-04T20:24:43.088Z,frontend,network_out,20955366
2023-07-04T20:24:43.088Z,recommendationservice,network_out,927353
2023-07-04T20:24:43.088Z,checkoutservice,network_out,335459
2023-07-04T20:24:43.080Z,shippingservice,network_out,167697
2023-07-04T20:24:43.080Z,cartservice,network_out,79647
2023-07-04T20:24:43.081Z,adservice,network_out,320233
2023-07-04T20:24:43.088Z,cartservice,network_out,17473
2023-07-04T20:24:43.088Z,cartservice,network_out,16967
2023-07-04T20:24:53.080Z,emailservice,network_out,40257
2023-07-04T20:24:53.079Z,cartservice,network_out,81739
2023-07-04T20:24:53.079Z,currencyservice,network_out,1705826
2023-07-04T20:24:53.088Z,cartservice,network_out,18040
2023-07-04T20:24:53.088Z,cartservice,network_out,17009
2023-07-04T20:24:53.088Z,frontend,network_out,20955366
2023-07-04T20:24:53.080Z,cartservice,network_out,16832
2023-07-04T20:24:53.080Z,adservice,network_out,320233
2023-07-04T20:24:53.079Z,shippingservice,network_out,172471
2023-07-04T20:24:53.079Z,redis-cart,network_out,1175610
2023-07-04T20:24:53.079Z,paymentservice,network_out,40627
2023-07-04T20:24:53.079Z,cartservice,network_out,17588
2023-07-04T20:24:53.088Z,recommendationservice,network_out,951405
2023-07-04T20:24:53.088Z,productcatalogservice,network_out,7715692
2023-07-04T20:24:53.080Z,cartservice,network_out,16692
2023-07-04T20:24:53.079Z,cartservice,network_out,788047
2023-07-04T20:24:53.088Z,checkoutservice,network_out,343282
2023-07-04T20:24:53.088Z,cartservice,network_out,17030
